1,380,de
2,205,et
3,199,le
4,193,la
5,129,qui
6,123,l
7,122,à
8,113,que
9,111,les
10,110,elle
11,100,je
12,95,il
13,93,d
14,91,ce
15,89,qu
16,83,un
17,80,en
18,77,dans
19,74,était
20,72,ne
21,72,plus
22,71,une
23,67,pas
24,65,mais
25,64,n
26,62,des
27,61,vous
28,59,avait
29,58,cette
30,58,est
31,56,pour
32,54,c
33,54,comme
34,52,elles
35,50,avec
36,49,se
37,46,du
38,46,lui
39,45,son
40,41,me
41,37,tout
42,36,sa
43,34,on
44,33,ces
45,33,sur
46,33,toutes
47,33,y
48,32,dit
49,32,s
50,30,par
51,29,si
52,27,bien
53,26,a
54,26,au
55,26,j
56,26,là
57,26,être
58,25,m
59,25,ravila
60,25,ses
61,24,femmes
62,22,moi
63,22,quand
64,21,même
65,19,juan
66,18,homme
67,18,jamais
68,18,toujours
69,17,amour
70,17,souper
71,16,tous
72,16,vie
73,15,cela
74,15,comte
75,15,don
76,15,faire
77,15,marquise
78,15,mère
79,15,nous
80,15,yeux
81,14,aux
82,14,car
83,14,encore
84,14,ma
85,14,peut
86,13,aussi
87,13,devant
88,13,dont
89,12,cet
90,12,donc
91,12,rien
92,11,ai
93,11,avaient
94,11,dire
95,11,enfant
96,11,fille
97,11,madame
98,11,mon
99,11,monde
100,11,où
101,11,t
102,10,fait
103,10,fois
104,10,histoire
105,10,ou
106,10,petite
107,10,souvent
108,10,temps
109,10,étais
110,9,cheveux
111,9,dieu
112,9,faut
113,9,fit
114,9,moins
115,9,oui
116,9,saint
117,9,sans
118,9,table
119,9,voix
120,9,étaient
121,9,été
122,8,boudoir
123,8,chose
124,8,coup
125,8,cœur
126,8,femme
127,8,fut
128,8,or
129,8,reprit
130,8,trop
131,7,alors
132,7,autres
133,7,avais
134,7,celle
135,7,comtesse
136,7,diable
137,7,duchesse
138,7,eût
139,7,leur
140,7,main
141,7,mot
142,7,point
143,7,reste
144,7,soir
145,7,sous
146,7,tant
147,7,trois
148,7,tête
149,7,votre
150,6,assez
151,6,autour
152,6,bras
153,6,chez
154,6,chiffrevas
155,6,curé
156,6,depuis
157,6,disait
158,6,donner
159,6,dos
160,6,déjà
161,6,entre
162,6,germain
163,6,leurs
164,6,masque
165,6,mes
166,6,messe
167,6,ni
168,6,nom
169,6,non
170,6,peu
171,6,presque
172,6,puis
173,6,seulement
174,6,sont
175,6,tu
176,5,aimé
177,5,ans
178,5,aurait
179,5,autre
180,5,avoir
181,5,beaucoup
182,5,beauté
183,5,confesseur
184,5,deux
185,5,dis
186,5,douze
187,5,fond
188,5,force
189,5,fort
190,5,front
191,5,grand
192,5,grande
193,5,idée
194,5,innocence
195,5,jour
196,5,laquelle
197,5,moment
198,5,personne
199,5,quelque
200,5,question
201,5,race
202,5,raconter
203,5,regard
204,5,roi
205,5,semblait
206,5,sentiment
207,5,seul
208,5,toute
209,5,très
210,5,verre
211,5,visage
212,5,voilà
213,5,voulait
214,5,vu
215,5,épaule
216,4,aime
217,4,ajouta
218,4,allait
219,4,amédée
220,4,appelle
221,4,ayant
222,4,beau
223,4,beaux
224,4,bel
225,4,blonde
226,4,bronze
227,4,brune
228,4,cacher
229,4,cependant
230,4,chacune
231,4,choses
232,4,croire
233,4,doute
234,4,désespoir
235,4,détails
236,4,enfin
237,4,esprit
238,4,faubourg
239,4,feu
240,4,furent
241,4,fût
242,4,heure
243,4,intimité
244,4,jalouse
245,4,jeune
246,4,joli
247,4,jusque
248,4,lequel
249,4,maison
250,4,mal
251,4,malgré
252,4,maman
253,4,monsieur
254,4,noir
255,4,noirs
256,4,oh
257,4,ont
258,4,petit
259,4,place
260,4,puissance
261,4,put
262,4,rose
263,4,sais
264,4,salon
265,4,seule
266,4,silence
267,4,soupé
268,4,souvenir
269,4,suis
270,4,tiens
271,4,velours
272,4,venait
273,4,vieille
274,4,vieux
275,4,vrai
276,3,adoration
277,3,ah
278,3,aimait
279,3,après
280,3,art
281,3,attention
282,3,aura
283,3,autant
284,3,avant
285,3,avez
286,3,borgia
287,3,bruit
288,3,champagne
289,3,chef
290,3,ci
291,3,commençait
292,3,connaissez
293,3,continua
294,3,coquines
295,3,corps
296,3,couleur
297,3,crime
298,3,curiosité
299,3,dernière
300,3,dessus
301,3,diamant
302,3,doigts
303,3,désir
304,3,dévote
305,3,effet
306,3,eh
307,3,empêcher
308,3,enfer
309,3,espèce
310,3,eu
311,3,faisait
312,3,faite
313,3,fil
314,3,firent
315,3,flamme
316,3,fête
317,3,grandes
318,3,guy
319,3,hector
320,3,ici
321,3,impossible
322,3,inquiète
323,3,intérêt
324,3,jalousie
325,3,joues
326,3,jours
327,3,jules
328,3,jusqu
329,3,leva
330,3,longtemps
331,3,maladroite
332,3,malheureusement
333,3,matin
334,3,offrir
335,3,orgueil
336,3,parfois
337,3,parler
338,3,paroisse
339,3,paroles
340,3,penser
341,3,pensée
342,3,pied
343,3,plein
344,3,pourquoi
345,3,pouvait
346,3,premier
347,3,prendre
348,3,prince
349,3,pris
350,3,pâle
351,3,péché
352,3,pût
353,3,quel
354,3,quelqu
355,3,raison
356,3,ravilès
357,3,regardant
358,3,resta
359,3,ruy
360,3,sait
361,3,sang
362,3,savaient
363,3,savez
364,3,seigneur
365,3,sommes
366,3,soupers
367,3,teint
368,3,tenait
369,3,tendre
370,3,terrible
371,3,troublé
372,3,venir
373,3,vis
374,3,visages
375,3,voir
376,3,voulez
377,3,vraie
378,3,vérité
379,3,âge
380,3,âmes
381,3,êtes
382,2,abord
383,2,absolument
384,2,affilés
385,2,agit
386,2,aie
387,2,ailleurs
388,2,air
389,2,ajoutait
390,2,alcibiade
391,2,alla
392,2,amours
393,2,ange
394,2,apprendre
395,2,ardeur
396,2,arrêta
397,2,artiste
398,2,assis
399,2,assise
400,2,aucune
401,2,aurai
402,2,bandeau
403,2,basse
404,2,belles
405,2,besoin
406,2,blanche
407,2,bleu
408,2,bohémienne
409,2,bonheur
410,2,bonté
411,2,bouche
412,2,bougies
413,2,brûle
414,2,bête
415,2,candélabres
416,2,caresse
417,2,caresses
418,2,causant
419,2,celui
420,2,charmante
421,2,charmantes
422,2,charme
423,2,chat
424,2,cheminée
425,2,chérubins
426,2,cinquante
427,2,circulaire
428,2,comment
429,2,comprendre
430,2,compte
431,2,conclusion
432,2,conduite
433,2,contre
434,2,conversation
435,2,coquetterie
436,2,corsages
437,2,cou
438,2,coupa
439,2,couteau
440,2,croirez
441,2,crois
442,2,croyais
443,2,crus
444,2,curieux
445,2,côté
446,2,cœurs
447,2,demanda
448,2,demandai
449,2,dernier
450,2,derrière
451,2,dessert
452,2,devait
453,2,devinez
454,2,dites
455,2,doit
456,2,douzaine
457,2,droite
458,2,embarras
459,2,enfants
460,2,eus
461,2,eut
462,2,face
463,2,fallait
464,2,fameux
465,2,faute
466,2,fauteuil
467,2,faux
468,2,filles
469,2,fillette
470,2,fini
471,2,finit
472,2,fis
473,2,fleurs
474,2,forces
475,2,froid
476,2,froids
477,2,garde
478,2,grands
479,2,griffes
480,2,habituellement
481,2,honnête
482,2,honte
483,2,horrible
484,2,idées
485,2,imprudence
486,2,inconnue
487,2,inouïe
488,2,intense
489,2,interrompit
490,2,jeu
491,2,jeunes
492,2,jeunesse
493,2,joseph
494,2,jure
495,2,laisser
496,2,limpide
497,2,lorsque
498,2,lumières
499,2,luxes
500,2,lèvre
501,2,lèvres
502,2,mademoiselle
503,2,mains
504,2,maintenant
505,2,mari
506,2,mesdames
507,2,met
508,2,mettre
509,2,mieux
510,2,mille
511,2,miroir
512,2,morte
513,2,mourir
514,2,mouvement
515,2,mystérieuse
516,2,mélancolie
517,2,nature
518,2,nos
519,2,nuit
520,2,opulences
521,2,original
522,2,pachas
523,2,pages
524,2,paris
525,2,parlait
526,2,parlé
527,2,part
528,2,passé
529,2,pauvre
530,2,pauvres
531,2,peine
532,2,personnes
533,2,petites
534,2,piano
535,2,pleine
536,2,poitrine
537,2,portait
538,2,porte
539,2,possible
540,2,pouvais
541,2,poète
542,2,première
543,2,princesse
544,2,province
545,2,prés
546,2,prêtre
547,2,prêtres
548,2,pus
549,2,quelle
550,2,quelques
551,2,questions
552,2,rappeler
553,2,recommencer
554,2,reflets
555,2,regardaient
556,2,regardais
557,2,regardait
558,2,regards
559,2,regardé
560,2,revenue
561,2,ri
562,2,roses
563,2,rubis
564,2,rêverie
565,2,sardanapale
566,2,savoir
567,2,sens
568,2,sentais
569,2,sentiments
570,2,sentis
571,2,serait
572,2,serpent
573,2,servir
574,2,soif
575,2,soleil
576,2,songeuse
577,2,sourcils
578,2,sourire
579,2,sourires
580,2,spirituelle
581,2,sultan
582,2,suprême
583,2,surprenais
584,2,surtout
585,2,sûre
586,2,te
587,2,tel
588,2,tomber
589,2,ton
590,2,tordait
591,2,treize
592,2,trouvait
593,2,trouve
594,2,trouver
595,2,unes
596,2,va
597,2,vais
598,2,venais
599,2,vert
600,2,verve
601,2,vin
602,2,violemment
603,2,vit
604,2,vivait
605,2,voici
606,2,voisine
607,2,voulais
608,2,voulu
609,2,voyait
610,2,voyant
611,2,voyez
612,2,vraiment
613,2,âme
614,2,éclat
615,2,éclats
616,2,émotion
617,2,éternelle
618,2,étonnée
619,2,étrange
620,2,œil
621,2,œuvre
622,1,abattant
623,1,abominablement
624,1,accordait
625,1,accoucher
626,1,acheva
627,1,achevai
628,1,acte
629,1,acteur
630,1,admettre
631,1,admirée
632,1,adorables
633,1,adouci
634,1,affaissent
635,1,affreuse
636,1,affreux
637,1,agacer
638,1,agenouillée
639,1,aggravez
640,1,agissant
641,1,ahuri
642,1,aiguillon
643,1,aimaient
644,1,aiment
645,1,ainsi
646,1,airs
647,1,ait
648,1,ajouter
649,1,ajoutèrent
650,1,alanguissement
651,1,allais
652,1,aller
653,1,allez
654,1,allonger
655,1,allongé
656,1,allumées
657,1,alourdissent
658,1,amabilité
659,1,amadou
660,1,ambre
661,1,ambrée
662,1,amer
663,1,ami
664,1,amies
665,1,amoureuse
666,1,amphitryonnes
667,1,amusais
668,1,amuser
669,1,ancienne
670,1,ancêtres
671,1,anges
672,1,anglais
673,1,animées
674,1,annoncent
675,1,annonça
676,1,années
677,1,antique
678,1,anxiété
679,1,apercevait
680,1,aperçut
681,1,apparaissaient
682,1,apparaît
683,1,apparemment
684,1,appartenaient
685,1,appelais
686,1,appelait
687,1,appelant
688,1,appelleraient
689,1,appliquer
690,1,apportais
691,1,apportèrent
692,1,apprises
693,1,appuyer
694,1,arabesque
695,1,argent
696,1,aristocratiques
697,1,armé
698,1,arnaud
699,1,arracherai
700,1,arrivai
701,1,arrivèrent
702,1,arrosait
703,1,arrêtait
704,1,arrêter
705,1,as
706,1,asie
707,1,aspiraient
708,1,asseoir
709,1,assit
710,1,assure
711,1,assurer
712,1,astérisques
713,1,atmosphère
714,1,attendant
715,1,attendre
716,1,attente
717,1,attentivement
718,1,attentives
719,1,aube
720,1,aucun
721,1,audacieuses
722,1,aurais
723,1,aurez
724,1,aurore
725,1,automnes
726,1,avance
727,1,aveu
728,1,avons
729,1,avouer
730,1,avouée
731,1,babillaient
732,1,baigner
733,1,baissèrent
734,1,bal
735,1,balle
736,1,baquet
737,1,barbares
738,1,bataille
739,1,battant
740,1,bec
741,1,belle
742,1,biceps
743,1,bientôt
744,1,bijoux
745,1,bistré
746,1,bizarre
747,1,blanc
748,1,blancs
749,1,blasés
750,1,blessent
751,1,blessure
752,1,bleus
753,1,blondes
754,1,bois
755,1,boit
756,1,bonhomme
757,1,bonne
758,1,bonnes
759,1,bord
760,1,bouches
761,1,bouchon
762,1,bouder
763,1,bouillais
764,1,bouquets
765,1,branche
766,1,brescia
767,1,brillant
768,1,brio
769,1,briser
770,1,brisées
771,1,brunes
772,1,brûlant
773,1,brûlent
774,1,brûlée
775,1,bu
776,1,buvaient
777,1,byron
778,1,bénédictines
779,1,bûcher
780,1,cabaret
781,1,cacha
782,1,cache
783,1,caché
784,1,café
785,1,camées
786,1,capables
787,1,capiteux
788,1,caractéristique
789,1,caravanes
790,1,cardinal
791,1,caressantes
792,1,cariatide
793,1,carmin
794,1,cassera
795,1,cassé
796,1,cassée
797,1,catholique
798,1,causaient
799,1,cause
800,1,causeuse
801,1,causeuses
802,1,cavalerie
803,1,ceinture
804,1,cent
805,1,cercle
806,1,cernés
807,1,certaine
808,1,certainement
809,1,certaines
810,1,certains
811,1,certitude
812,1,cervelle
813,1,cesse
814,1,cessé
815,1,chacun
816,1,chairs
817,1,chaise
818,1,chaises
819,1,chambre
820,1,champ
821,1,changeait
822,1,changer
823,1,chapeau
824,1,chaque
825,1,char
826,1,chargé
827,1,chargée
828,1,charmant
829,1,charmants
830,1,chauffée
831,1,chaîne
832,1,cherchait
833,1,chercher
834,1,chevalier
835,1,chevalières
836,1,chevaux
837,1,chirurgiens
838,1,chroniques
839,1,chétive
840,1,ciel
841,1,cillèrent
842,1,cinquième
843,1,civilisation
844,1,clair
845,1,clotilde
846,1,cocottes
847,1,coiffait
848,1,coiffures
849,1,coin
850,1,colonel
851,1,colossale
852,1,colère
853,1,commandeur
854,1,commencements
855,1,commença
856,1,commençaient
857,1,commission
858,1,communiait
859,1,communion
860,1,commérage
861,1,complicité
862,1,compliquées
863,1,comprendrons
864,1,compris
865,1,comprisse
866,1,compromettant
867,1,confesse
868,1,confession
869,1,confessionnal
870,1,confuse
871,1,confusion
872,1,connais
873,1,connaît
874,1,connaître
875,1,conquête
876,1,consacrée
877,1,conscience
878,1,consigne
879,1,conta
880,1,contact
881,1,contemplateur
882,1,contenter
883,1,continuer
884,1,contraire
885,1,contrariés
886,1,contraste
887,1,convenait
888,1,conversations
889,1,convexité
890,1,convulsive
891,1,coquettes
892,1,corruptions
893,1,coude
894,1,coupable
895,1,coupaient
896,1,coupe
897,1,couronné
898,1,court
899,1,courtines
900,1,cous
901,1,couteaux
902,1,couvent
903,1,couvercle
904,1,craindre
905,1,craint
906,1,cri
907,1,crisper
908,1,crispée
909,1,cristal
910,1,cristaux
911,1,critique
912,1,croient
913,1,croit
914,1,croix
915,1,croupe
916,1,croyaient
917,1,croyait
918,1,croyez
919,1,crucifix
920,1,cruelle
921,1,créatures
922,1,cuirassiers
923,1,curieuse
924,1,cynique
925,1,célestes
926,1,cérémonie
927,1,cérémonies
928,1,dame
929,1,dames
930,1,damnation
931,1,damnée
932,1,dandy
933,1,davantage
934,1,debout
935,1,dehors
936,1,demandait
937,1,demander
938,1,demandez
939,1,demandé
940,1,demoiselles
941,1,dents
942,1,description
943,1,despote
944,1,dessins
945,1,dessous
946,1,devenait
947,1,devient
948,1,devineriez
949,1,deviné
950,1,devriez
951,1,diables
952,1,diapasons
953,1,digne
954,1,diminuait
955,1,dira
956,1,dirai
957,1,disaient
958,1,disant
959,1,disent
960,1,dispense
961,1,dissimulent
962,1,dissimulé
963,1,distances
964,1,distinct
965,1,distingué
966,1,dite
967,1,divin
968,1,donna
969,1,donnait
970,1,donne
971,1,donnerait
972,1,donné
973,1,donnée
974,1,dorsale
975,1,dossier
976,1,douairières
977,1,double
978,1,doublés
979,1,douceur
980,1,doutez
981,1,doutées
982,1,doux
983,1,dragées
984,1,drapèrent
985,1,droiture
986,1,ducs
987,1,dura
988,1,durent
989,1,durer
990,1,dureté
991,1,dut
992,1,dès
993,1,débordait
994,1,déchirements
995,1,décider
996,1,décisives
997,1,déclaration
998,1,déclarer
999,1,découvert
1000,1,découverte
1001,1,dédain
1002,1,défiée
1003,1,dégageait
1004,1,dégustatrice
1005,1,délicate
1006,1,délicatesse
1007,1,délicieuses
1008,1,délicieux
1009,1,démocraties
1010,1,démon
1011,1,déplié
1012,1,dérangé
1013,1,déshonnête
1014,1,désigner
1015,1,désirer
1016,1,détail
1017,1,détournée
1018,1,dévotion
1019,1,dévouer
1020,1,dîne
1021,1,dîner
1022,1,eau
1023,1,effluves
1024,1,effrayaient
1025,1,effrayez
1026,1,effrayée
1027,1,effroyable
1028,1,embarrassé
1029,1,embrassait
1030,1,embrasèrent
1031,1,embrasées
1032,1,embusqué
1033,1,emmêlées
1034,1,empereur
1035,1,empire
1036,1,empoisonnent
1037,1,empêchait
1038,1,empêche
1039,1,enceinte
1040,1,enflammé
1041,1,engloutissement
1042,1,enivrante
1043,1,ennemis
1044,1,enseignât
1045,1,ensemble
1046,1,ensuite
1047,1,entablement
1048,1,entassa
1049,1,entassèrent
1050,1,entendait
1051,1,entendue
1052,1,entra
1053,1,entrain
1054,1,entrelacer
1055,1,entrer
1056,1,entretien
1057,1,enveloppèrent
1058,1,envers
1059,1,escadron
1060,1,escapade
1061,1,esclave
1062,1,esclaves
1063,1,espagnole
1064,1,espion
1065,1,esprits
1066,1,espérance
1067,1,essai
1068,1,estompée
1069,1,estragon
1070,1,eussent
1071,1,eux
1072,1,exacte
1073,1,exaspère
1074,1,excellents
1075,1,exerce
1076,1,exercer
1077,1,exigeant
1078,1,expansion
1079,1,explosion
1080,1,expression
1081,1,exprimait
1082,1,exprimée
1083,1,expérimentateurs
1084,1,exquis
1085,1,extraordinaire
1086,1,extrêmement
1087,1,exécrait
1088,1,fabuleux
1089,1,facettes
1090,1,faisaient
1091,1,faiseurs
1092,1,faites
1093,1,faits
1094,1,familiarités
1095,1,familles
1096,1,farouche
1097,1,fat
1098,1,fatigue
1099,1,fats
1100,1,faudrait
1101,1,fauves
1102,1,fermer
1103,1,fermés
1104,1,ferronnière
1105,1,fi
1106,1,fidèle
1107,1,figurait
1108,1,figurez
1109,1,fils
1110,1,fin
1111,1,finement
1112,1,finiras
1113,1,finirez
1114,1,finissaient
1115,1,fièvre
1116,1,flamboiement
1117,1,flatté
1118,1,fleur
1119,1,fleurissent
1120,1,flûte
1121,1,folie
1122,1,fondaient
1123,1,fontaine
1124,1,formaient
1125,1,forme
1126,1,forte
1127,1,fortes
1128,1,forts
1129,1,fragmentée
1130,1,fraîcheur
1131,1,friand
1132,1,fricasser
1133,1,frisons
1134,1,frissonner
1135,1,fronts
1136,1,fronçait
1137,1,frémissements
1138,1,fuis
1139,1,fus
1140,1,fusillant
1141,1,fussent
1142,1,fée
1143,1,féminin
1144,1,fêter
1145,1,galbe
1146,1,gardé
1147,1,gaucherie
1148,1,genoux
1149,1,gentilhomme
1150,1,glace
1151,1,glacial
1152,1,gloire
1153,1,goguette
1154,1,goutte
1155,1,goût
1156,1,grandesse
1157,1,grandissant
1158,1,grappe
1159,1,grasses
1160,1,graverait
1161,1,griffe
1162,1,griserie
1163,1,gros
1164,1,groupe
1165,1,génie
1166,1,général
1167,1,générale
1168,1,habile
1169,1,haine
1170,1,haletante
1171,1,hardi
1172,1,hardies
1173,1,harmonie
1174,1,harmonieux
1175,1,harpe
1176,1,haïr
1177,1,herbe
1178,1,hermétiquement
1179,1,heureusement
1180,1,hommes
1181,1,honneurs
1182,1,hontes
1183,1,horreur
1184,1,hostilité
1185,1,humanité
1186,1,humiliée
1187,1,hélas
1188,1,idéale
1189,1,ignore
1190,1,imaginait
1191,1,imaginer
1192,1,immenses
1193,1,immortel
1194,1,impassibilité
1195,1,impatience
1196,1,impatientais
1197,1,impatientait
1198,1,impatientée
1199,1,imperceptible
1200,1,imperceptibles
1201,1,impertinente
1202,1,impie
1203,1,impies
1204,1,implacable
1205,1,importance
1206,1,imprudente
1207,1,impériale
1208,1,impérieuse
1209,1,impérieux
1210,1,inassouvissement
1211,1,inattendu
1212,1,incarnadine
1213,1,incarnation
1214,1,incendiaires
1215,1,incessamment
1216,1,incomparables
1217,1,incompréhensible
1218,1,incroyable
1219,1,indifférent
1220,1,indigne
1221,1,indiscrétion
1222,1,individuellement
1223,1,inexprimable
1224,1,inexprimables
1225,1,infernal
1226,1,infini
1227,1,inflexion
1228,1,influences
1229,1,ingénu
1230,1,innocents
1231,1,inquisiteurs
1232,1,inquiétude
1233,1,insolente
1234,1,inspiré
1235,1,inspirée
1236,1,inspirés
1237,1,instant
1238,1,instinct
1239,1,instrument
1240,1,intelligence
1241,1,interrogations
1242,1,interroger
1243,1,interrogée
1244,1,intéressait
1245,1,intéresse
1246,1,invasion
1247,1,invente
1248,1,inventé
1249,1,inventée
1250,1,invité
1251,1,involontairement
1252,1,inépuisable
1253,1,ironie
1254,1,italie
1255,1,jable
1256,1,jagellons
1257,1,jais
1258,1,jeter
1259,1,jetèrent
1260,1,jeté
1261,1,jeunesses
1262,1,joie
1263,1,jolie
1264,1,jolies
1265,1,joliment
1266,1,jouait
1267,1,joue
1268,1,jouer
1269,1,jouirent
1270,1,joyeuse
1271,1,juanesque
1272,1,juger
1273,1,jugez
1274,1,jurai
1275,1,juste
1276,1,justement
1277,1,koran
1278,1,lac
1279,1,laide
1280,1,laisse
1281,1,laissez
1282,1,large
1283,1,larges
1284,1,lassitude
1285,1,lassés
1286,1,lentement
1287,1,lesquelles
1288,1,levait
1289,1,lever
1290,1,liaison
1291,1,ligne
1292,1,lionne
1293,1,lire
1294,1,lisière
1295,1,lisser
1296,1,lit
1297,1,livres
1298,1,loin
1299,1,longs
1300,1,longue
1301,1,lorsqu
1302,1,lueur
1303,1,lumineuses
1304,1,lumineux
1305,1,lustrée
1306,1,lutté
1307,1,luxe
1308,1,lâches
1309,1,lèverai
1310,1,légende
1311,1,légère
1312,1,machiavel
1313,1,magie
1314,1,magnifique
1315,1,magnifiques
1316,1,magnétique
1317,1,maigre
1318,1,majestueuse
1319,1,majestueux
1320,1,malades
1321,1,maladie
1322,1,malheur
1323,1,malicieux
1324,1,malte
1325,1,mangeaient
1326,1,mangé
1327,1,manière
1328,1,manières
1329,1,manqua
1330,1,manquait
1331,1,manège
1332,1,maquette
1333,1,marbre
1334,1,marche
1335,1,mariée
1336,1,marques
1337,1,marquis
1338,1,maturité
1339,1,maussade
1340,1,maussaderie
1341,1,mauvais
1342,1,maître
1343,1,maîtresse
1344,1,maîtresses
1345,1,meilleur
1346,1,meilleure
1347,1,menaçant
1348,1,mer
1349,1,merveilleuses
1350,1,mesmer
1351,1,mesure
1352,1,mettait
1353,1,meuble
1354,1,michel
1355,1,miennes
1356,1,milieu
1357,1,mince
1358,1,ministère
1359,1,mis
1360,1,mises
1361,1,mit
1362,1,mme
1363,1,modeste
1364,1,modifiait
1365,1,moindre
1366,1,moine
1367,1,monarchie
1368,1,monarque
1369,1,montai
1370,1,montrer
1371,1,monts
1372,1,moralistes
1373,1,mort
1374,1,motion
1375,1,mouchoir
1376,1,moule
1377,1,mourait
1378,1,moyen
1379,1,mur
1380,1,mystère
1381,1,mystérieux
1382,1,mères
1383,1,mécontente
1384,1,mélancolique
1385,1,mélange
1386,1,mélodies
1387,1,mélusine
1388,1,mémoires
1389,1,mérite
1390,1,métaphysique
1391,1,mêlaient
1392,1,mêmes
1393,1,mœurs
1394,1,nabuchodonosor
1395,1,napolitaine
1396,1,naturelle
1397,1,navrements
1398,1,naïve
1399,1,naïvement
1400,1,nerveux
1401,1,nettement
1402,1,nobles
1403,1,nocturne
1404,1,nombreux
1405,1,nommerai
1406,1,noms
1407,1,nonchalance
1408,1,nonchalant
1409,1,nonchalante
1410,1,nonnes
1411,1,notre
1412,1,nouvelles
1413,1,noyé
1414,1,nuances
1415,1,nue
1416,1,nulle
1417,1,nullement
1418,1,née
1419,1,négrier
1420,1,obligée
1421,1,obliquement
1422,1,observateur
1423,1,observateurs
1424,1,observatrice
1425,1,obstinément
1426,1,obtenu
1427,1,obéi
1428,1,octaves
1429,1,odeur
1430,1,oiseaux
1431,1,oncle
1432,1,ondulation
1433,1,ongles
1434,1,opale
1435,1,opposa
1436,1,opposé
1437,1,orages
1438,1,orangers
1439,1,ordinaire
1440,1,ordinairement
1441,1,ordre
1442,1,organisations
1443,1,orgon
1444,1,orgueilleuse
1445,1,orsay
1446,1,orthographe
1447,1,osé
1448,1,oublié
1449,1,ourals
1450,1,ouvert
1451,1,ouverte
1452,1,ouï
1453,1,pacte
1454,1,page
1455,1,paraissent
1456,1,paraît
1457,1,paraître
1458,1,pardonneras
1459,1,pareille
1460,1,parenthèse
1461,1,parfaitement
1462,1,parjure
1463,1,parlais
1464,1,parlerait
1465,1,parles
1466,1,parmi
1467,1,parole
1468,1,partager
1469,1,partagée
1470,1,parti
1471,1,particulière
1472,1,partie
1473,1,partition
1474,1,parure
1475,1,parut
1476,1,parée
1477,1,passait
1478,1,passer
1479,1,passez
1480,1,passion
1481,1,passionnée
1482,1,passionnément
1483,1,passée
1484,1,patience
1485,1,patricien
1486,1,pattes
1487,1,pays
1488,1,paysanne
1489,1,païenne
1490,1,peau
1491,1,peintures
1492,1,pensent
1493,1,pensez
1494,1,pensives
1495,1,pensèrent
1496,1,perceptible
1497,1,perd
1498,1,perdre
1499,1,permettez
1500,1,permis
1501,1,permit
1502,1,perpétuelle
1503,1,persuadé
1504,1,pesa
1505,1,peuvent
1506,1,physionomie
1507,1,physionomies
1508,1,physiques
1509,1,piquant
1510,1,pitié
1511,1,pièce
1512,1,piété
1513,1,placides
1514,1,plafond
1515,1,plaire
1516,1,plantureux
1517,1,plaquait
1518,1,platoniquement
1519,1,plaça
1520,1,pleuré
1521,1,plonger
1522,1,plénitudes
1523,1,poids
1524,1,poindre
1525,1,politesse
1526,1,politique
1527,1,polonaise
1528,1,porcelaine
1529,1,portaient
1530,1,porter
1531,1,portion
1532,1,portraits
1533,1,possibles
1534,1,pourpoint
1535,1,pourpre
1536,1,pourrai
1537,1,pourraient
1538,1,pourrait
1539,1,pourriez
1540,1,pourtant
1541,1,poussai
1542,1,poussé
1543,1,pouvaient
1544,1,pouvez
1545,1,pratiquer
1546,1,premiers
1547,1,prenais
1548,1,prenez
1549,1,pressée
1550,1,prie
1551,1,primitive
1552,1,prises
1553,1,prit
1554,1,prochaine
1555,1,procède
1556,1,profanant
1557,1,profond
1558,1,profonde
1559,1,projeter
1560,1,propos
1561,1,propres
1562,1,prosternée
1563,1,providentiel
1564,1,provocants
1565,1,pruderie
1566,1,près
1567,1,précautions
1568,1,précisément
1569,1,précocité
1570,1,précède
1571,1,préférence
1572,1,préoccupations
1573,1,prépare
1574,1,présent
1575,1,présente
1576,1,prétention
1577,1,prête
1578,1,pu
1579,1,puisqu
1580,1,puisque
1581,1,puissant
1582,1,puissants
1583,1,punition
1584,1,pure
1585,1,pureté
1586,1,purpurine
1587,1,putiphar
1588,1,pâlies
1589,1,pâmaient
1590,1,père
1591,1,pénétrante
1592,1,périr
1593,1,pêcher
1594,1,qualité
1595,1,quelquefois
1596,1,questionnée
1597,1,queue
1598,1,queues
1599,1,quittait
1600,1,quitté
1601,1,quoi
1602,1,quoiqu
1603,1,quête
1604,1,raccommoder
1605,1,raconta
1606,1,racontent
1607,1,raconté
1608,1,ramasserait
1609,1,rampantes
1610,1,rapide
1611,1,rapporta
1612,1,rapporter
1613,1,raquette
1614,1,rare
1615,1,rarement
1616,1,ravisant
1617,1,ravissant
1618,1,rayer
1619,1,rayonnant
1620,1,rayonne
1621,1,rayons
1622,1,recevais
1623,1,recherche
1624,1,reconnaîtrez
1625,1,recueillait
1626,1,redressa
1627,1,regarda
1628,1,regret
1629,1,reines
1630,1,relation
1631,1,relevèrent
1632,1,reluire
1633,1,remonte
1634,1,remords
1635,1,remplacé
1636,1,remplit
1637,1,rendait
1638,1,rendre
1639,1,renfermée
1640,1,renflammés
1641,1,renseignement
1642,1,renversées
1643,1,renvoyait
1644,1,replaçant
1645,1,repliait
1646,1,reprenant
1647,1,repue
1648,1,resplendissait
1649,1,ressemble
1650,1,ressentie
1651,1,ressentit
1652,1,ressources
1653,1,rester
1654,1,retrouvait
1655,1,retrouvée
1656,1,revenir
1657,1,revenu
1658,1,rhin
1659,1,riait
1660,1,riant
1661,1,riche
1662,1,rideaux
1663,1,ridé
1664,1,rire
1665,1,rires
1666,1,risque
1667,1,risqué
1668,1,rivales
1669,1,rivalités
1670,1,robe
1671,1,robuste
1672,1,robustes
1673,1,romain
1674,1,romains
1675,1,romans
1676,1,rompu
1677,1,rond
1678,1,ronde
1679,1,rondir
1680,1,rosait
1681,1,roser
1682,1,roue
1683,1,rouges
1684,1,rubens
1685,1,rude
1686,1,récria
1687,1,réduisait
1688,1,régal
1689,1,régence
1690,1,répondit
1691,1,répondrais
1692,1,répondu
1693,1,réponses
1694,1,réprimai
1695,1,répétées
1696,1,réserve
1697,1,résisté
1698,1,rétractait
1699,1,révoltant
1700,1,révélait
1701,1,révéler
1702,1,rêver
1703,1,sabines
1704,1,sabre
1705,1,sache
1706,1,sacs
1707,1,sainte
1708,1,saisit
1709,1,salades
1710,1,santé
1711,1,sauva
1712,1,sauverait
1713,1,savais
1714,1,savait
1715,1,savent
1716,1,savoureux
1717,1,scandalisée
1718,1,scapulaires
1719,1,sculptées
1720,1,second
1721,1,secret
1722,1,secs
1723,1,seins
1724,1,selon
1725,1,semble
1726,1,sensation
1727,1,sensitive
1728,1,sent
1729,1,sentent
1730,1,sentez
1731,1,sentirait
1732,1,sentirent
1733,1,sept
1734,1,seraient
1735,1,servait
1736,1,seules
1737,1,sien
1738,1,sienne
1739,1,siennes
1740,1,silencieusement
1741,1,simplicité
1742,1,sincère
1743,1,singulière
1744,1,sinon
1745,1,siècle
1746,1,société
1747,1,soie
1748,1,soient
1749,1,soirs
1750,1,soit
1751,1,solennités
1752,1,sombre
1753,1,sombres
1754,1,somptueusement
1755,1,songea
1756,1,sorbet
1757,1,sortes
1758,1,sortie
1759,1,souci
1760,1,souciais
1761,1,soulever
1762,1,souligné
1763,1,soupeuses
1764,1,souvenirs
1765,1,souveraine
1766,1,souvins
1767,1,spiritualiste
1768,1,spirituelles
1769,1,splendide
1770,1,splendides
1771,1,stupides
1772,1,stupéfaction
1773,1,su
1774,1,subitement
1775,1,sublimes
1776,1,suffisait
1777,1,suite
1778,1,suivre
1779,1,sujet
1780,1,superbe
1781,1,superstitieuse
1782,1,suppliantes
1783,1,supplice
1784,1,supplie
1785,1,supplier
1786,1,supérieure
1787,1,supérieures
1788,1,surexcité
1789,1,surface
1790,1,surpris
1791,1,susse
1792,1,svelte
1793,1,sèvres
1794,1,séducteurs
1795,1,séduction
1796,1,sûr
1797,1,sûres
1798,1,tabouret
1799,1,tachent
1800,1,taillé
1801,1,taillée
1802,1,tard
1803,1,tartelette
1804,1,tartufe
1805,1,tas
1806,1,tassant
1807,1,telles
1808,1,tempe
1809,1,tempes
1810,1,tendirent
1811,1,tendresse
1812,1,tendu
1813,1,tendue
1814,1,tenir
1815,1,terminait
1816,1,terreur
1817,1,théâtre
1818,1,tiges
1819,1,tigre
1820,1,timbres
1821,1,timidité
1822,1,tire
1823,1,tirer
1824,1,toi
1825,1,toilette
1826,1,tomba
1827,1,tombant
1828,1,tombent
1829,1,tombée
1830,1,tonnerre
1831,1,topaze
1832,1,torts
1833,1,tour
1834,1,tourna
1835,1,tournure
1836,1,tourné
1837,1,traditionnelle
1838,1,trahissait
1839,1,traitais
1840,1,traite
1841,1,traits
1842,1,tranquilles
1843,1,transparent
1844,1,transparents
1845,1,transport
1846,1,travers
1847,1,traîne
1848,1,trembleuses
1849,1,triangle
1850,1,triplées
1851,1,trompait
1852,1,trompe
1853,1,tromper
1854,1,trompé
1855,1,troupe
1856,1,trouvai
1857,1,trouvais
1858,1,trouvant
1859,1,trè
1860,1,trône
1861,1,turc
1862,1,tut
1863,1,tâcherai
1864,1,ténébreuse
1865,1,têtes
1866,1,têtues
1867,1,tôt
1868,1,unie
1869,1,utopiquement
1870,1,vain
1871,1,valeur
1872,1,vanité
1873,1,veines
1874,1,venue
1875,1,vermillon
1876,1,vermillonnées
1877,1,verrez
1878,1,vers
1879,1,versa
1880,1,verse
1881,1,verser
1882,1,vertueusement
1883,1,vertueux
1884,1,veulent
1885,1,veut
1886,1,veux
1887,1,victime
1888,1,victimes
1889,1,vieil
1890,1,vieillesse
1891,1,viens
1892,1,vierges
1893,1,ville
1894,1,vins
1895,1,violence
1896,1,violente
1897,1,vite
1898,1,vivantes
1899,1,vive
1900,1,vivions
1901,1,volant
1902,1,volez
1903,1,voluptueuse
1904,1,voluptueusement
1905,1,volupté
1906,1,vos
1907,1,voudraient
1908,1,voudrais
1909,1,voudriez
1910,1,vouloir
1911,1,voulut
1912,1,voyais
1913,1,vulgairement
1914,1,véritable
1915,1,xixe
1916,1,âprement
1917,1,ç
1918,1,çà
1919,1,è
1920,1,éblouissante
1921,1,éblouissants
1922,1,ébène
1923,1,échappait
1924,1,échapper
1925,1,écheveau
1926,1,éclair
1927,1,éclairée
1928,1,éclater
1929,1,écoutais
1930,1,écoutant
1931,1,écoutants
1932,1,écouter
1933,1,écoutez
1934,1,écrin
1935,1,écrira
1936,1,écrire
1937,1,église
1938,1,égratignait
1939,1,élancé
1940,1,élancée
1941,1,élargies
1942,1,éloignement
1943,1,émeraude
1944,1,émerillonnés
1945,1,émiettée
1946,1,émigration
1947,1,épaissirait
1948,1,épanouissements
1949,1,épargner
1950,1,éparpillées
1951,1,épaulant
1952,1,épaules
1953,1,épine
1954,1,épingle
1955,1,épitaphe
1956,1,épluchettes
1957,1,époque
1958,1,épousée
1959,1,éprouvais
1960,1,éprouver
1961,1,éprouvée
1962,1,étalaient
1963,1,étau
1964,1,éteindre
1965,1,éther
1966,1,étiez
1967,1,étincellement
1968,1,étonnante
1969,1,étreignit
1970,1,étudiant
1971,1,étudié
1972,1,étés
1973,1,éventail
1974,1,évident
1975,1,évoqué
1976,1,êtres
1977,1,ôta
