1,167,de
2,105,la
3,102,le
4,94,et
5,60,il
6,56,en
7,55,les
8,52,à
9,50,un
10,45,d
11,45,du
12,42,lui
13,40,des
14,40,l
15,39,que
16,36,mule
17,35,elle
18,34,qu
19,32,ce
20,32,qui
21,31,pas
22,26,là
23,26,on
24,26,pape
25,26,vous
26,25,avec
27,25,sa
28,25,était
29,24,est
30,24,n
31,24,se
32,24,une
33,23,sur
34,23,tistet
35,23,védène
36,22,avait
37,22,dans
38,22,son
39,20,au
40,20,je
41,20,mais
42,20,y
43,19,c
44,19,ne
45,17,si
46,16,a
47,16,plus
48,15,bon
49,15,tout
50,14,ah
51,14,comme
52,14,pour
53,14,quand
54,13,avignon
55,13,s
56,13,ses
57,11,bien
58,11,bête
59,11,cette
60,11,coup
61,11,par
62,11,vin
63,10,haut
64,10,père
65,9,ans
66,9,grand
67,9,mon
68,9,petit
69,9,puis
70,9,toujours
71,9,tous
72,8,cardinaux
73,8,dire
74,8,faire
75,8,jour
76,8,même
77,8,où
78,8,saint
79,8,tant
80,8,toute
81,8,tu
82,8,ville
83,7,air
84,7,allait
85,7,bas
86,7,belle
87,7,jamais
88,7,palais
89,7,pendant
90,7,sabot
91,7,sept
92,7,vigne
93,6,ai
94,6,aux
95,6,bout
96,6,celui
97,6,ces
98,6,cour
99,6,deux
100,6,j
101,6,me
102,6,nous
103,6,ou
104,6,pont
105,6,temps
106,6,va
107,5,après
108,5,aussi
109,5,bonne
110,5,brave
111,5,cela
112,5,depuis
113,5,encore
114,5,faisait
115,5,lendemain
116,5,leur
117,5,ma
118,5,moutardier
119,5,pauvre
120,5,petits
121,5,peu
122,5,pied
123,5,premier
124,5,rien
125,5,voilà
126,5,voir
127,5,votre
128,5,écurie
129,4,aurait
130,4,autour
131,4,avaient
132,4,cet
133,4,chez
134,4,chose
135,4,dansait
136,4,danse
137,4,donc
138,4,dos
139,4,faut
140,4,fit
141,4,forme
142,4,française
143,4,leurs
144,4,matin
145,4,maîtrise
146,4,or
147,4,oreilles
148,4,oui
149,4,papale
150,4,peuple
151,4,plate
152,4,près
153,4,quel
154,4,quelle
155,4,quelque
156,4,rire
157,4,sans
158,4,seule
159,4,te
160,4,vieux
161,4,voyait
162,4,vu
163,4,vêpres
164,4,étaient
165,3,bandit
166,3,barrette
167,3,bibliothèque
168,3,bol
169,3,car
170,3,château
171,3,clocheton
172,3,côté
173,3,dentelles
174,3,derrière
175,3,descendre
176,3,dessous
177,3,dieu
178,3,dit
179,3,escalier
180,3,fait
181,3,fin
182,3,fumée
183,3,garde
184,3,grande
185,3,homme
186,3,idée
187,3,jaquette
188,3,jusqu
189,3,longues
190,3,m
191,3,malheureuse
192,3,musique
193,3,neuf
194,3,ni
195,3,nuit
196,3,papes
197,3,pensait
198,3,petite
199,3,portant
200,3,pourtant
201,3,pu
202,3,regardant
203,3,rhône
204,3,rues
205,3,savez
206,3,semblait
207,3,sentait
208,3,soldats
209,3,suis
210,3,tambourins
211,3,terrible
212,3,train
213,3,trois
214,3,yeux
215,2,admiration
216,2,aimait
217,2,allons
218,2,alors
219,2,argent
220,2,aromates
221,2,arriva
222,2,avant
223,2,aventure
224,2,avez
225,2,avoine
226,2,balcon
227,2,barbe
228,2,beau
229,2,blonde
230,2,bruit
231,2,béluguet
232,2,camail
233,2,cent
234,2,chapitre
235,2,cheveux
236,2,ci
237,2,cigales
238,2,cinq
239,2,clercs
240,2,clergé
241,2,cloches
242,2,comment
243,2,conte
244,2,content
245,2,couleur
246,2,coups
247,2,cérémonie
248,2,demain
249,2,demander
250,2,devant
251,2,devenir
252,2,dont
253,2,drôle
254,2,enfant
255,2,enfants
256,2,entra
257,2,eut
258,2,exemple
259,2,fifre
260,2,fil
261,2,fils
262,2,fini
263,2,flacon
264,2,fois
265,2,francet
266,2,frères
267,2,fut
268,2,gardait
269,2,gardé
270,2,garçonnet
271,2,grade
272,2,grands
273,2,grelots
274,2,harnachée
275,2,heure
276,2,heureux
277,2,hé
278,2,ibis
279,2,ils
280,2,insignes
281,2,jaune
282,2,jeanne
283,2,jeanneton
284,2,joli
285,2,jours
286,2,lieues
287,2,loin
288,2,longtemps
289,2,lorsqu
290,2,lorsque
291,2,maintenant
292,2,mangeoire
293,2,manières
294,2,marquait
295,2,mes
296,2,mettait
297,2,mieux
298,2,milieu
299,2,mille
300,2,mine
301,2,moi
302,2,mois
303,2,monde
304,2,montée
305,2,mourir
306,2,naples
307,2,naïf
308,2,nobles
309,2,non
310,2,oh
311,2,ont
312,2,pampérigouste
313,2,papal
314,2,pareille
315,2,passait
316,2,passe
317,2,peine
318,2,pensez
319,2,personne
320,2,petites
321,2,pieds
322,2,place
323,2,plume
324,2,porter
325,2,prince
326,2,principalement
327,2,provence
328,2,provençal
329,2,proverbe
330,2,préparait
331,2,quelques
332,2,quiquet
333,2,quoi
334,2,reine
335,2,retour
336,2,robes
337,2,rose
338,2,rouges
339,2,sabots
340,2,sais
341,2,salle
342,2,sculpteur
343,2,six
344,2,soleil
345,2,sortant
346,2,sous
347,2,sèche
348,2,t
349,2,tenait
350,2,tirer
351,2,ton
352,2,trop
353,2,tête
354,2,venais
355,2,venait
356,2,vent
357,2,veux
358,2,vie
359,2,vient
360,2,vit
361,2,voulait
362,2,yvetot
363,2,ça
364,2,ému
365,2,œil
366,1,abbés
367,1,abeilles
368,1,aborde
369,1,activité
370,1,adages
371,1,admirablement
372,1,affaire
373,1,agrico
374,1,aiguisait
375,1,ailes
376,1,aimable
377,1,aimais
378,1,aimes
379,1,aimés
380,1,ainsi
381,1,ait
382,1,ajustait
383,1,allais
384,1,allemagne
385,1,aller
386,1,allez
387,1,allume
388,1,allures
389,1,allé
390,1,amble
391,1,amicales
392,1,amie
393,1,amis
394,1,ancienne
395,1,ange
396,1,animation
397,1,années
398,1,aperçut
399,1,apparaissait
400,1,appelait
401,1,appelé
402,1,apporter
403,1,apprentis
404,1,appris
405,1,arracher
406,1,arrivages
407,1,arriver
408,1,arrivé
409,1,arrière
410,1,arrêta
411,1,as
412,1,assemblée
413,1,assis
414,1,attache
415,1,attendait
416,1,attendit
417,1,attendri
418,1,attentions
419,1,attrape
420,1,aune
421,1,autant
422,1,autre
423,1,autrefois
424,1,autrement
425,1,avenant
426,1,aveuglette
427,1,avisa
428,1,avocat
429,1,avoir
430,1,bannières
431,1,baraques
432,1,beaucoup
433,1,beaux
434,1,bel
435,1,belles
436,1,besicles
437,1,besoin
438,1,bibliothécaires
439,1,bijou
440,1,blonds
441,1,boire
442,1,bonhomme
443,1,boniface
444,1,bonnes
445,1,bordée
446,1,bottelée
447,1,boucles
448,1,bouffettes
449,1,bourdonnant
450,1,bourrer
451,1,branle
452,1,brin
453,1,bu
454,1,buis
455,1,burettes
456,1,burin
457,1,bénite
458,1,bénédiction
459,1,bénédictions
460,1,camails
461,1,camargue
462,1,cantiques
463,1,caramel
464,1,caressait
465,1,caserne
466,1,ceinture
467,1,celle
468,1,cessa
469,1,chacun
470,1,chantaient
471,1,chantant
472,1,chaperon
473,1,chasser
474,1,chasubles
475,1,chaud
476,1,chaude
477,1,cherché
478,1,choses
479,1,chronique
480,1,chuchotements
481,1,ciseleurs
482,1,civière
483,1,clerc
484,1,clochette
485,1,coin
486,1,colimaçon
487,1,combien
488,1,commençait
489,1,comtat
490,1,confiance
491,1,confréries
492,1,connaît
493,1,connue
494,1,continua
495,1,contre
496,1,copeaux
497,1,cordes
498,1,corps
499,1,coucher
500,1,coupaient
501,1,courait
502,1,courir
503,1,cours
504,1,couvent
505,1,cri
506,1,cric
507,1,crieront
508,1,croupe
509,1,cru
510,1,cruauté
511,1,cruelles
512,1,crécelles
513,1,cuiller
514,1,cymbales
515,1,cœur
516,1,demandé
517,1,demoiselle
518,1,descendait
519,1,descente
520,1,desservie
521,1,dessus
522,1,devenue
523,1,diable
524,1,diables
525,1,dictons
526,1,digne
527,1,dimanche
528,1,dimanches
529,1,diplomatie
530,1,dirait
531,1,dirigea
532,1,dis
533,1,disait
534,1,discours
535,1,disettes
536,1,distrait
537,1,dites
538,1,doigt
539,1,doigts
540,1,donnaient
541,1,donnait
542,1,donner
543,1,donneurs
544,1,donnés
545,1,dormit
546,1,douce
547,1,doucement
548,1,douté
549,1,dès
550,1,débauchait
551,1,déboucher
552,1,découvrir
553,1,dégustait
554,1,déjà
555,1,délicieuses
556,1,démangeait
557,1,départ
558,1,déployer
559,1,désappointée
560,1,désolait
561,1,détacha
562,1,détacher
563,1,eau
564,1,ecclésiastique
565,1,effet
566,1,effronté
567,1,empereur
568,1,emplissait
569,1,enfermer
570,1,enfin
571,1,enragés
572,1,entendait
573,1,entendu
574,1,entré
575,1,entrée
576,1,envoyait
577,1,envoyer
578,1,ermites
579,1,es
580,1,essayait
581,1,essayer
582,1,eux
583,1,exercer
584,1,faisant
585,1,fallait
586,1,fallut
587,1,fameux
588,1,fantastique
589,1,farandole
590,1,farandoles
591,1,farouches
592,1,fer
593,1,fermée
594,1,fifres
595,1,figurez
596,1,fine
597,1,firent
598,1,fièrement
599,1,flagellants
600,1,flamme
601,1,fleuris
602,1,fleurs
603,1,folle
604,1,follette
605,1,font
606,1,fort
607,1,fortune
608,1,foudroyants
609,1,fourmis
610,1,fourraient
611,1,frais
612,1,français
613,1,frisés
614,1,froideur
615,1,frémissaient
616,1,furent
617,1,fureur
618,1,fussiez
619,1,fâchait
620,1,fêtes
621,1,gaieté
622,1,galant
623,1,galopin
624,1,galopins
625,1,galère
626,1,galères
627,1,garance
628,1,garda
629,1,garnements
630,1,gavotte
631,1,gens
632,1,gentil
633,1,gentiment
634,1,glorieux
635,1,gosier
636,1,gouverner
637,1,grandi
638,1,grappes
639,1,grimpé
640,1,gros
641,1,grosses
642,1,guerre
643,1,guy
644,1,habit
645,1,habitué
646,1,hallebardes
647,1,hanneton
648,1,harmonie
649,1,hautes
650,1,hauteur
651,1,hein
652,1,heureuse
653,1,hier
654,1,hirondelles
655,1,histoire
656,1,hochaient
657,1,hommes
658,1,honneur
659,1,huit
660,1,humeur
661,1,humiliation
662,1,hâte
663,1,ici
664,1,illustre
665,1,impatience
666,1,impatient
667,1,indulgences
668,1,infortuné
669,1,infâme
670,1,innocent
671,1,insolent
672,1,intimida
673,1,intrigant
674,1,intrigue
675,1,inventions
676,1,italie
677,1,jambes
678,1,jeu
679,1,jeune
680,1,jeunes
681,1,joignant
682,1,jolis
683,1,jonchées
684,1,jouait
685,1,joueur
686,1,journée
687,1,journées
688,1,joué
689,1,joyeusement
690,1,juges
691,1,juste
692,1,laissait
693,1,laisser
694,1,laisserez
695,1,laissez
696,1,langui
697,1,large
698,1,larmes
699,1,latin
700,1,lavande
701,1,levant
702,1,levé
703,1,lices
704,1,liqueur
705,1,lu
706,1,luisant
707,1,lumière
708,1,luthiers
709,1,légendaire
710,1,magnifique
711,1,mains
712,1,maison
713,1,maisons
714,1,malgré
715,1,malin
716,1,mamaï
717,1,manquait
718,1,manquât
719,1,manuscrit
720,1,marches
721,1,marché
722,1,marguilliers
723,1,marjolaine
724,1,marteaux
725,1,martyre
726,1,maudite
727,1,mauvais
728,1,meilleur
729,1,menaient
730,1,mené
731,1,merveilleuse
732,1,mettre
733,1,microscopique
734,1,mines
735,1,mise
736,1,miséricorde
737,1,mitres
738,1,moindre
739,1,moment
740,1,mont
741,1,montait
742,1,monte
743,1,monter
744,1,montrant
745,1,mort
746,1,mouchetée
747,1,moulin
748,1,moyen
749,1,mur
750,1,murmure
751,1,myrtes
752,1,mènerai
753,1,méfiez
754,1,métal
755,1,métiers
756,1,nageant
757,1,napolitains
758,1,narines
759,1,nation
760,1,navettes
761,1,neveux
762,1,noble
763,1,noir
764,1,noire
765,1,noisettes
766,1,nom
767,1,nos
768,1,notre
769,1,nus
770,1,nœuds
771,1,obligé
772,1,observations
773,1,odeur
774,1,ordinaire
775,1,ordination
776,1,ourdisseuses
777,1,ouverte
778,1,paille
779,1,palme
780,1,panique
781,1,parce
782,1,parfumé
783,1,parlait
784,1,parle
785,1,parler
786,1,partir
787,1,paru
788,1,parut
789,1,parvint
790,1,passa
791,1,passementent
792,1,passiez
793,1,passèrent
794,1,passé
795,1,pattes
796,1,pavoisées
797,1,pavé
798,1,pays
799,1,paysans
800,1,pendue
801,1,pense
802,1,pensée
803,1,perle
804,1,perron
805,1,pis
806,1,pittoresque
807,1,places
808,1,plantée
809,1,pleine
810,1,pleines
811,1,pleins
812,1,pleurer
813,1,poignée
814,1,poil
815,1,pointe
816,1,polaire
817,1,poliment
818,1,pompons
819,1,pontife
820,1,portait
821,1,porte
822,1,position
823,1,postaient
824,1,pourquoi
825,1,poussa
826,1,pouvait
827,1,poètes
828,1,prenait
829,1,pressaient
830,1,prestance
831,1,preuve
832,1,principe
833,1,pris
834,1,prise
835,1,prisons
836,1,prit
837,1,processions
838,1,prodigieuse
839,1,promenait
840,1,prononçait
841,1,propos
842,1,provençale
843,1,provençaux
844,1,proverbes
845,1,précaution
846,1,précipitant
847,1,préparer
848,1,présence
849,1,prévenances
850,1,prête
851,1,puisque
852,1,pèlerinages
853,1,pécaïre
854,1,pénitents
855,1,pétards
856,1,qualité
857,1,quelqu
858,1,quelquefois
859,1,queue
860,1,quinze
861,1,quoique
862,1,quêteurs
863,1,raffolait
864,1,rafraîchir
865,1,rancune
866,1,rancunier
867,1,rangs
868,1,rappelle
869,1,recherche
870,1,reconnaissez
871,1,reconnaître
872,1,redonnait
873,1,regard
874,1,regardait
875,1,regarde
876,1,regardez
877,1,regrettés
878,1,reines
879,1,reins
880,1,remettre
881,1,remettrons
882,1,remparts
883,1,remplacé
884,1,rencontrait
885,1,renseigner
886,1,rentrait
887,1,respectait
888,1,respirer
889,1,restait
890,1,retrouva
891,1,retrouveras
892,1,revenant
893,1,revenus
894,1,revint
895,1,reçu
896,1,riaient
897,1,riait
898,1,riant
899,1,rires
900,1,rompre
901,1,ronfler
902,1,roses
903,1,rouge
904,1,route
905,1,ruade
906,1,rubis
907,1,ruche
908,1,ruisseaux
909,1,réception
910,1,réchappe
911,1,récompenser
912,1,réussi
913,1,réveiller
914,1,rôdant
915,1,sacristains
916,1,safran
917,1,sainfoin
918,1,sainteté
919,1,salua
920,1,sautillant
921,1,sauvetage
922,1,savaient
923,1,savait
924,1,saviez
925,1,scandalisait
926,1,secouait
927,1,secouant
928,1,semaine
929,1,serait
930,1,service
931,1,seulement
932,1,siestes
933,1,signets
934,1,singulier
935,1,sire
936,1,sitôt
937,1,soie
938,1,soin
939,1,soins
940,1,soir
941,1,soirs
942,1,somme
943,1,songeait
944,1,songer
945,1,sont
946,1,sortie
947,1,souches
948,1,souffrait
949,1,souliers
950,1,sourire
951,1,subitement
952,1,sucre
953,1,suivant
954,1,suivi
955,1,sujet
956,1,surtout
957,1,sûr
958,1,table
959,1,tables
960,1,tac
961,1,tambours
962,1,tandis
963,1,tapes
964,1,tapissées
965,1,tel
966,1,tenez
967,1,tenir
968,1,terreur
969,1,tic
970,1,tiens
971,1,tint
972,1,tirait
973,1,tireur
974,1,tissant
975,1,toi
976,1,tombant
977,1,tombé
978,1,tourbillon
979,1,tournait
980,1,tourné
981,1,tours
982,1,tranquille
983,1,traîner
984,1,tremblait
985,1,tremblèrent
986,1,troqua
987,1,troupe
988,1,trouva
989,1,trouver
990,1,trouverez
991,1,trésor
992,1,tuer
993,1,uniforme
994,1,vais
995,1,valait
996,1,vaurien
997,1,veiller
998,1,velours
999,1,venez
1000,1,venir
1001,1,ventoux
1002,1,ventre
1003,1,verrait
1004,1,verras
1005,1,vers
1006,1,versées
1007,1,vertige
1008,1,veut
1009,1,vide
1010,1,vidé
1011,1,vieille
1012,1,vieilles
1013,1,viendras
1014,1,viens
1015,1,vierge
1016,1,viguier
1017,1,vilains
1018,1,vindicatif
1019,1,vingt
1020,1,violets
1021,1,violette
1022,1,vite
1023,1,vitres
1024,1,vives
1025,1,voler
1026,1,voltigeait
1027,1,voulais
1028,1,voyez
1029,1,vrai
1030,1,vraiment
1031,1,vêtements
1032,1,âge
1033,1,çà
1034,1,éblouissante
1035,1,écria
1036,1,égal
1037,1,élan
1038,1,état
1039,1,éteint
1040,1,étendus
1041,1,étoile
1042,1,étroites
1043,1,été
1044,1,être
