#Word Types: 4452
#Word Tokens: 22740
#Search Hits: 0
1	1052	de	
2	656	le	
3	635	la	
4	476	et	
5	441	les	
6	440	il	
7	435	à	
8	361	l	
9	314	en	
10	295	un	
11	236	d	
12	210	que	
13	193	se	
14	191	qui	
15	190	dans	
16	190	du	
17	187	par	
18	186	une	
19	182	des	
20	174	son	
21	167	sa	
22	145	vous	
23	143	sur	
24	137	s	
25	130	ne	
26	127	était	
27	124	au	
28	122	ce	
29	121	lui	
30	121	pour	
31	117	pas	
32	112	elle	
33	111	roi	
34	108	cette	
35	105	plus	
36	104	je	
37	104	ses	
38	102	qu	
39	95	cornélius	
40	94	avait	
41	92	mais	
42	90	dit	
43	88	est	
44	85	n	
45	81	louis	
46	80	deux	
47	77	xi	
48	75	avec	
49	72	si	
50	69	où	
51	64	ces	
52	61	tout	
53	60	comme	
54	58	aux	
55	54	être	
56	52	homme	
57	51	a	
58	50	bien	
59	50	me	
60	49	jeune	
61	46	maître	
62	46	saint	
63	46	sire	
64	45	sans	
65	45	y	
66	43	mon	
67	43	même	
68	42	ils	
69	41	ou	
70	41	étaient	
71	39	dont	
72	39	tous	
73	38	femme	
74	37	alors	
75	37	chez	
76	37	gentilhomme	
77	37	tu	
78	36	t	
79	35	amour	
80	34	vie	
81	33	nous	
82	33	reprit	
83	32	fut	
84	32	j	
85	32	là	
86	32	pendant	
87	31	ai	
88	31	faire	
89	31	moment	
90	31	toutes	
91	31	vallier	
92	30	aussi	
93	30	comtesse	
94	30	grand	
95	30	leur	
96	30	sous	
97	30	été	
98	29	ah	
99	29	avoir	
100	29	gens	
101	28	porte	
102	28	votre	
103	27	comte	
104	27	encore	
105	27	m	
106	27	moi	
107	27	puis	
108	26	donc	
109	26	ma	
110	26	toute	
111	25	fit	
112	25	suis	
113	24	après	
114	24	autre	
115	24	fille	
116	24	quand	
117	24	voir	
118	23	assez	
119	23	c	
120	23	compère	
121	23	quelque	
122	23	sœur	
123	23	vieux	
124	22	maison	
125	22	tours	
126	22	yeux	
127	22	écria	
128	21	entre	
129	21	plessis	
130	21	trouvait	
131	21	vieille	
132	21	voix	
133	20	avaient	
134	20	logis	
135	20	marie	
136	20	répondit	
137	20	torçonnier	
138	20	tristan	
139	20	ville	
140	19	chambre	
141	19	laquelle	
142	19	leurs	
143	19	mille	
144	19	mort	
145	19	peut	
146	19	quelques	
147	19	regard	
148	19	temps	
149	19	vers	
150	18	avare	
151	18	demanda	
152	18	depuis	
153	18	eût	
154	18	fait	
155	18	hommes	
156	18	nuit	
157	18	prévôt	
158	18	rien	
159	18	seigneur	
160	18	trésor	
161	17	avez	
162	17	devant	
163	17	hôtel	
164	17	mains	
165	17	oh	
166	17	on	
167	17	poitiers	
168	17	rue	
169	17	toujours	
170	16	aller	
171	16	argentier	
172	16	fer	
173	16	mes	
174	16	or	
175	16	silence	
176	15	bon	
177	15	cet	
178	15	chapelle	
179	15	déjà	
180	15	eut	
181	15	faisait	
182	15	longtemps	
183	15	seul	
184	15	écus	
185	14	apprenti	
186	14	basse	
187	14	celui	
188	14	dieu	
189	14	doute	
190	14	main	
191	14	ni	
192	14	notre	
193	14	pieds	
194	13	ainsi	
195	13	coup	
196	13	coyctier	
197	13	dame	
198	13	eux	
199	13	fois	
200	13	georges	
201	13	ici	
202	13	mari	
203	13	philippe	
204	13	près	
205	13	soir	
206	13	tant	
207	13	terrible	
208	13	vieillard	
209	13	époque	
210	12	affaire	
211	12	allait	
212	12	autres	
213	12	belle	
214	12	cent	
215	12	ceux	
216	12	devait	
217	12	dire	
218	12	jamais	
219	12	lumière	
220	12	maîtresse	
221	12	monde	
222	12	non	
223	12	petite	
224	12	peu	
225	12	pouvait	
226	12	presque	
227	12	pris	
228	12	toi	
229	12	trois	
230	12	vis	
231	12	voleur	
232	12	œil	
233	11	auquel	
234	11	bonne	
235	11	bras	
236	11	bruit	
237	11	car	
238	11	cheminée	
239	11	faut	
240	11	feu	
241	11	france	
242	11	furent	
243	11	honneur	
244	11	jour	
245	11	lueur	
246	11	moins	
247	11	mots	
248	11	ont	
249	11	pu	
250	11	sorte	
251	11	te	
252	11	trouva	
253	11	tête	
254	10	ailleurs	
255	10	allons	
256	10	cela	
257	10	château	
258	10	contre	
259	10	cour	
260	10	croire	
261	10	côté	
262	10	cœur	
263	10	dix	
264	10	enfin	
265	10	flamand	
266	10	front	
267	10	goulenoire	
268	10	maisons	
269	10	malemaison	
270	10	mieux	
271	10	page	
272	10	pauvre	
273	10	pouvoir	
274	10	promptement	
275	10	salle	
276	10	secret	
277	10	sortit	
278	10	souvent	
279	10	trop	
280	10	vint	
281	10	voici	
282	9	affaires	
283	9	ajouta	
284	9	amant	
285	9	ans	
286	9	aujourd	
287	9	aurait	
288	9	aussitôt	
289	9	ayant	
290	9	beaucoup	
291	9	brabançon	
292	9	celle	
293	9	chaque	
294	9	doucement	
295	9	eh	
296	9	farine	
297	9	froid	
298	9	grande	
299	9	heures	
300	9	heureusement	
301	9	histoire	
302	9	hui	
303	9	jours	
304	9	lequel	
305	9	madame	
306	9	mariage	
307	9	monsieur	
308	9	mot	
309	9	médecin	
310	9	passion	
311	9	pierre	
312	9	point	
313	9	prendre	
314	9	profond	
315	9	sommeil	
316	9	terreur	
317	9	toits	
318	9	trésors	
319	9	volé	
320	9	voulez	
321	9	église	
322	9	êtes	
323	8	afin	
324	8	alla	
325	8	allez	
326	8	avant	
327	8	baiser	
328	8	bourgeois	
329	8	bourgogne	
330	8	comment	
331	8	dites	
332	8	elles	
333	8	espèce	
334	8	estouteville	
335	8	heure	
336	8	jeta	
337	8	joyaux	
338	8	laisser	
339	8	leva	
340	8	lombard	
341	8	lune	
342	8	milieu	
343	8	passer	
344	8	peine	
345	8	pensées	
346	8	plusieurs	
347	8	quel	
348	8	soit	
349	8	tour	
350	8	travers	
351	8	vit	
352	8	vivement	
353	8	voilà	
354	8	voyant	
355	8	âme	
356	7	air	
357	7	aperçut	
358	7	argent	
359	7	autant	
360	7	autour	
361	7	beau	
362	7	beaux	
363	7	bonnet	
364	7	ceci	
365	7	ciel	
366	7	cria	
367	7	dessus	
368	7	diable	
369	7	disant	
370	7	donner	
371	7	entendit	
372	7	faveur	
373	7	femmes	
374	7	fenêtre	
375	7	figure	
376	7	gand	
377	7	garde	
378	7	lampe	
379	7	malgré	
380	7	manière	
381	7	mettre	
382	7	monarque	
383	7	mourir	
384	7	mouvement	
385	7	nom	
386	7	nos	
387	7	nouvelle	
388	7	ombre	
389	7	paroles	
390	7	pasques	
391	7	peur	
392	7	plaisir	
393	7	poignard	
394	7	pouvaient	
395	7	premier	
396	7	regarda	
397	7	regardant	
398	7	resta	
399	7	semblait	
400	7	serait	
401	7	serrure	
402	7	sont	
403	7	sortir	
404	7	terre	
405	7	toit	
406	7	visage	
407	7	voleurs	
408	7	âge	
409	6	aime	
410	6	archers	
411	6	avares	
412	6	bonheur	
413	6	brusquement	
414	6	cathédrale	
415	6	cependant	
416	6	chanoine	
417	6	chose	
418	6	clef	
419	6	courtisans	
420	6	dangers	
421	6	devenu	
422	6	donne	
423	6	donné	
424	6	dès	
425	6	désespoir	
426	6	effet	
427	6	entrer	
428	6	es	
429	6	eu	
430	6	force	
431	6	fortune	
432	6	foule	
433	6	frère	
434	6	geste	
435	6	grandes	
436	6	grâce	
437	6	habitude	
438	6	haute	
439	6	hoogworst	
440	6	jaloux	
441	6	jetant	
442	6	jusqu	
443	6	laissez	
444	6	lendemain	
445	6	levée	
446	6	lieu	
447	6	long	
448	6	léger	
449	6	malheur	
450	6	messieurs	
451	6	mit	
452	6	montra	
453	6	murs	
454	6	nature	
455	6	oreille	
456	6	parler	
457	6	parole	
458	6	personne	
459	6	petit	
460	6	petites	
461	6	peuple	
462	6	place	
463	6	prisonnier	
464	6	prit	
465	6	protection	
466	6	puissance	
467	6	question	
468	6	richesses	
469	6	rues	
470	6	répliqua	
471	6	sang	
472	6	secrètes	
473	6	seigneurs	
474	6	sera	
475	6	servir	
476	6	singulier	
477	6	sommes	
478	6	sourcils	
479	6	spectacle	
480	6	suivant	
481	6	tenait	
482	6	trouver	
483	6	trouvé	
484	6	va	
485	6	venait	
486	6	venir	
487	6	veut	
488	6	vierge	
489	6	vrai	
490	6	vu	
491	6	vue	
492	6	vêtements	
493	6	échapper	
494	5	abord	
495	5	amis	
496	5	armes	
497	5	arrêta	
498	5	as	
499	5	aspect	
500	5	aucun	
501	5	auprès	
502	5	autel	
503	5	aventure	
504	5	barbier	
505	5	bavière	
506	5	capitaine	
507	5	celles	
508	5	certes	
509	5	chacun	
510	5	chef	
511	5	ci	
512	5	compagnie	
513	5	connaissance	
514	5	corps	
515	5	courage	
516	5	croisées	
517	5	danger	
518	5	dehors	
519	5	demi	
520	5	dîner	
521	5	entra	
522	5	entreprise	
523	5	entrée	
524	5	esprit	
525	5	face	
526	5	faible	
527	5	fais	
528	5	faux	
529	5	fenêtres	
530	5	ferma	
531	5	foi	
532	5	fortes	
533	5	grille	
534	5	génie	
535	5	hardi	
536	5	haut	
537	5	idée	
538	5	jadis	
539	5	jardin	
540	5	jetait	
541	5	jeunes	
542	5	laissant	
543	5	larmes	
544	5	lesquels	
545	5	loire	
546	5	lorsque	
547	5	lèvres	
548	5	mal	
549	5	mauvais	
550	5	mis	
551	5	moindre	
552	5	mûrier	
553	5	oosterlinck	
554	5	ouvrit	
555	5	partie	
556	5	passé	
557	5	plein	
558	5	portail	
559	5	portait	
560	5	premiers	
561	5	précautions	
562	5	prétendu	
563	5	pâle	
564	5	pâlit	
565	5	père	
566	5	quatre	
567	5	regardèrent	
568	5	rendre	
569	5	resté	
570	5	revint	
571	5	riches	
572	5	royale	
573	5	royaume	
574	5	réponse	
575	5	sainte	
576	5	sais	
577	5	savait	
578	5	secrets	
579	5	sept	
580	5	serviteur	
581	5	seulement	
582	5	situation	
583	5	soin	
584	5	sou	
585	5	suivait	
586	5	ton	
587	5	touraine	
588	5	tourangeaux	
589	5	treize	
590	5	trouve	
591	5	truand	
592	5	venise	
593	5	venu	
594	5	veux	
595	5	vieil	
596	5	vol	
597	5	vos	
598	5	voyait	
599	5	véritable	
600	5	également	
601	5	épée	
602	4	adieu	
603	4	adressant	
604	4	aimait	
605	4	arme	
606	4	assit	
607	4	attendait	
608	4	attentivement	
609	4	avais	
610	4	avenir	
611	4	avons	
612	4	banc	
613	4	bientôt	
614	4	bourg	
615	4	bridoré	
616	4	cabinet	
617	4	canal	
618	4	certaines	
619	4	certains	
620	4	chausses	
621	4	chemin	
622	4	choses	
623	4	chère	
624	4	chéneaux	
625	4	clair	
626	4	clartés	
627	4	colère	
628	4	combat	
629	4	commençait	
630	4	commis	
631	4	comprit	
632	4	confessionnal	
633	4	conscience	
634	4	coucha	
635	4	coups	
636	4	craignant	
637	4	craintes	
638	4	criminel	
639	4	curieux	
640	4	célèbre	
641	4	daim	
642	4	debout	
643	4	demain	
644	4	derrière	
645	4	dessous	
646	4	devaient	
647	4	deviner	
648	4	difficile	
649	4	donnaient	
650	4	dormait	
651	4	douce	
652	4	douze	
653	4	duc	
654	4	duquel	
655	4	désir	
656	4	eussiez	
657	4	faisant	
658	4	fallait	
659	4	fini	
660	4	flamands	
661	4	fort	
662	4	forte	
663	4	fortement	
664	4	fût	
665	4	gardes	
666	4	genoux	
667	4	habitués	
668	4	haine	
669	4	hasard	
670	4	hautes	
671	4	horrible	
672	4	idées	
673	4	immense	
674	4	impossible	
675	4	joie	
676	4	jusque	
677	4	justice	
678	4	laissa	
679	4	lettre	
680	4	liberté	
681	4	lit	
682	4	magiques	
683	4	maladie	
684	4	malheureux	
685	4	martin	
686	4	matin	
687	4	morte	
688	4	mûriers	
689	4	noble	
690	4	noire	
691	4	nouveau	
692	4	nul	
693	4	nécessaire	
694	4	occasion	
695	4	olivier	
696	4	oui	
697	4	ouverte	
698	4	paraissaient	
699	4	paraissait	
700	4	partout	
701	4	parut	
702	4	passage	
703	4	pendus	
704	4	pensif	
705	4	pensée	
706	4	physionomie	
707	4	pied	
708	4	piliers	
709	4	plancher	
710	4	pleine	
711	4	poche	
712	4	possédait	
713	4	pourquoi	
714	4	première	
715	4	propos	
716	4	put	
717	4	pût	
718	4	quelle	
719	4	quoi	
720	4	rarement	
721	4	reconnaître	
722	4	redoutable	
723	4	regarder	
724	4	regards	
725	4	regardé	
726	4	religion	
727	4	ressemblaient	
728	4	reste	
729	4	riant	
730	4	rire	
731	4	rois	
732	4	ronde	
733	4	royal	
734	4	régnait	
735	4	saurai	
736	4	secrètement	
737	4	sens	
738	4	sentait	
739	4	sentiments	
740	4	sentit	
741	4	servi	
742	4	seule	
743	4	singulière	
744	4	soie	
745	4	soigneusement	
746	4	sombre	
747	4	sombres	
748	4	somme	
749	4	sourire	
750	4	su	
751	4	suivi	
752	4	supplice	
753	4	tableau	
754	4	tenir	
755	4	tombé	
756	4	tressaillit	
757	4	trouvaient	
758	4	vais	
759	4	valets	
760	4	veille	
761	4	violence	
762	4	vois	
763	4	voisins	
764	4	voudrais	
765	4	voulait	
766	4	vérité	
767	4	écossaise	
768	4	étage	
769	4	œuf	
770	3	abbaye	
771	3	accent	
772	3	accompagné	
773	3	accès	
774	3	achever	
775	3	aide	
776	3	aimer	
777	3	aimez	
778	3	allaient	
779	3	amants	
780	3	amoureux	
781	3	angleterre	
782	3	année	
783	3	appartement	
784	3	arbalétriers	
785	3	architecte	
786	3	ardeur	
787	3	armée	
788	3	assis	
789	3	attendit	
790	3	attendre	
791	3	attitude	
792	3	aucune	
793	3	autrement	
794	3	auxquels	
795	3	ayez	
796	3	baissa	
797	3	barreaux	
798	3	bas	
799	3	belles	
800	3	bizarres	
801	3	blanc	
802	3	bonnes	
803	3	bossu	
804	3	bout	
805	3	brillaient	
806	3	cachait	
807	3	cage	
808	3	cavalier	
809	3	chaise	
810	3	charles	
811	3	chat	
812	3	chaînes	
813	3	chercher	
814	3	cheveux	
815	3	châteauneuf	
816	3	coin	
817	3	collier	
818	3	commerce	
819	3	comprendre	
820	3	confiance	
821	3	conjectures	
822	3	content	
823	3	contes	
824	3	cortège	
825	3	coupable	
826	3	courir	
827	3	coussin	
828	3	crimes	
829	3	croyez	
830	3	cruel	
831	3	cruellement	
832	3	cuir	
833	3	curiosité	
834	3	demeure	
835	3	derniers	
836	3	dernière	
837	3	descendre	
838	3	desquelles	
839	3	destinée	
840	3	disait	
841	3	disparut	
842	3	donna	
843	3	donnait	
844	3	donnant	
845	3	donnée	
846	3	douleur	
847	3	droit	
848	3	dufou	
849	3	duègne	
850	3	décidé	
851	3	découvrir	
852	3	défendre	
853	3	défiance	
854	3	défier	
855	3	délices	
856	3	détails	
857	3	effroi	
858	3	endormi	
859	3	enfant	
860	3	entendant	
861	3	entendre	
862	3	entendu	
863	3	entièrement	
864	3	entrant	
865	3	escabelle	
866	3	escalier	
867	3	escorte	
868	3	espérance	
869	3	examiner	
870	3	examiné	
871	3	existence	
872	3	expression	
873	3	facilement	
874	3	faisaient	
875	3	faits	
876	3	façade	
877	3	feignit	
878	3	ferai	
879	3	fermée	
880	3	fidèles	
881	3	filles	
882	3	fin	
883	3	finissaient	
884	3	flandre	
885	3	fond	
886	3	font	
887	3	forces	
888	3	fortification	
889	3	frappa	
890	3	froidement	
891	3	fréquentes	
892	3	fuir	
893	3	fête	
894	3	garni	
895	3	gouttière	
896	3	grabat	
897	3	gros	
898	3	grosse	
899	3	guère	
900	3	général	
901	3	habitants	
902	3	hardiesse	
903	3	hauteur	
904	3	huis	
905	3	humaines	
906	3	humeur	
907	3	inconnu	
908	3	innocence	
909	3	innocents	
910	3	instant	
911	3	instructions	
912	3	intérêt	
913	3	jaune	
914	3	jeanne	
915	3	jeter	
916	3	jeté	
917	3	jeunesse	
918	3	jointes	
919	3	jouer	
920	3	joues	
921	3	juif	
922	3	laissait	
923	3	lame	
924	3	lamproie	
925	3	lançant	
926	3	large	
927	3	largeur	
928	3	livre	
929	3	loi	
930	3	longue	
931	3	longues	
932	3	lorsqu	
933	3	lès	
934	3	magnifique	
935	3	majesté	
936	3	malfaiteurs	
937	3	manche	
938	3	manque	
939	3	marches	
940	3	marguerite	
941	3	menton	
942	3	merveilleux	
943	3	mine	
944	3	montbazon	
945	3	montrant	
946	3	monté	
947	3	mouillettes	
948	3	moyennant	
949	3	moyens	
950	3	mère	
951	3	médiocrement	
952	3	mérite	
953	3	naissance	
954	3	neuf	
955	3	neveu	
956	3	noir	
957	3	nommé	
958	3	nommée	
959	3	odeur	
960	3	office	
961	3	offrir	
962	3	ordre	
963	3	orné	
964	3	pages	
965	3	parce	
966	3	partager	
967	3	passa	
968	3	payer	
969	3	pays	
970	3	pensa	
971	3	pensant	
972	3	perdit	
973	3	perdu	
974	3	permirent	
975	3	pierres	
976	3	pilier	
977	3	plaire	
978	3	plaisirs	
979	3	pleurs	
980	3	plutôt	
981	3	poitrine	
982	3	politique	
983	3	porche	
984	3	portes	
985	3	pourrait	
986	3	pouvez	
987	3	pressé	
988	3	prison	
989	3	privilèges	
990	3	produire	
991	3	profit	
992	3	profondes	
993	3	proie	
994	3	prudemment	
995	3	présent	
996	3	périlleuse	
997	3	quoique	
998	3	rage	
999	3	raison	
1000	3	reconnut	
1001	3	regardaient	
1002	3	remords	
1003	3	rencontre	
1004	3	rendaient	
1005	3	rentra	
1006	3	reprendre	
1007	3	retrouva	
1008	3	retrouver	
1009	3	rides	
1010	3	risqué	
1011	3	robe	
1012	3	rubis	
1013	3	rusé	
1014	3	règne	
1015	3	récemment	
1016	3	résolut	
1017	3	sage	
1018	3	saisit	
1019	3	sait	
1020	3	sassenage	
1021	3	saura	
1022	3	sauta	
1023	3	savez	
1024	3	savoir	
1025	3	semblable	
1026	3	semblaient	
1027	3	serrures	
1028	3	servaient	
1029	3	seuls	
1030	3	signe	
1031	3	silencieusement	
1032	3	sinistre	
1033	3	siècle	
1034	3	soins	
1035	3	soudain	
1036	3	soupçonneux	
1037	3	souverain	
1038	3	sujet	
1039	3	superstitions	
1040	3	surpris	
1041	3	sûreté	
1042	3	ta	
1043	3	table	
1044	3	telle	
1045	3	tes	
1046	3	tiens	
1047	3	tirer	
1048	3	toussaint	
1049	3	traces	
1050	3	trente	
1051	3	trompe	
1052	3	très	
1053	3	tuer	
1054	3	unité	
1055	3	uns	
1056	3	vagues	
1057	3	venus	
1058	3	verrous	
1059	3	victime	
1060	3	vieilles	
1061	3	vingt	
1062	3	violemment	
1063	3	visages	
1064	3	vives	
1065	3	vivre	
1066	3	volets	
1067	3	volontiers	
1068	3	çà	
1069	3	échelle	
1070	3	émotions	
1071	3	établi	
1072	3	étais	
1073	3	état	
1074	3	étoffe	
1075	3	étonné	
1076	3	étrange	
1077	3	étranger	
1078	3	événements	
1079	2	accourait	
1080	2	achevé	
1081	2	affections	
1082	2	agenouillée	
1083	2	agitation	
1084	2	aimée	
1085	2	aise	
1086	2	allant	
1087	2	amen	
1088	2	amende	
1089	2	ami	
1090	2	amitié	
1091	2	amoureuse	
1092	2	amours	
1093	2	amusait	
1094	2	anne	
1095	2	années	
1096	2	appartenant	
1097	2	appelait	
1098	2	apprentis	
1099	2	arabesques	
1100	2	arcades	
1101	2	architecture	
1102	2	armé	
1103	2	arrachée	
1104	2	arriva	
1105	2	arrivant	
1106	2	arrive	
1107	2	arrière	
1108	2	arrêt	
1109	2	asile	
1110	2	assise	
1111	2	assister	
1112	2	assurance	
1113	2	assure	
1114	2	assurer	
1115	2	atteindre	
1116	2	attendant	
1117	2	attention	
1118	2	attribuer	
1119	2	aura	
1120	2	aurais	
1121	2	aurons	
1122	2	auteur	
1123	2	avançait	
1124	2	avoisinait	
1125	2	avouait	
1126	2	avouer	
1127	2	bahut	
1128	2	baies	
1129	2	barbe	
1130	2	bavon	
1131	2	beaujeu	
1132	2	beaune	
1133	2	bel	
1134	2	besoin	
1135	2	blanche	
1136	2	bois	
1137	2	bons	
1138	2	bord	
1139	2	bouche	
1140	2	bref	
1141	2	bruges	
1142	2	brûlaient	
1143	2	bâti	
1144	2	bénédiction	
1145	2	campagnes	
1146	2	caractère	
1147	2	cas	
1148	2	catholique	
1149	2	ceinture	
1150	2	centre	
1151	2	chagrins	
1152	2	chaire	
1153	2	chambres	
1154	2	chant	
1155	2	chapelles	
1156	2	chaudes	
1157	2	chaîne	
1158	2	chefs	
1159	2	cheminées	
1160	2	cheval	
1161	2	chiens	
1162	2	chut	
1163	2	chœur	
1164	2	cierges	
1165	2	clameur	
1166	2	clefs	
1167	2	cloches	
1168	2	cloître	
1169	2	clémence	
1170	2	coins	
1171	2	collet	
1172	2	combles	
1173	2	commença	
1174	2	commune	
1175	2	complice	
1176	2	complètement	
1177	2	composaient	
1178	2	comprends	
1179	2	comptait	
1180	2	comptez	
1181	2	concevoir	
1182	2	confesser	
1183	2	connais	
1184	2	conquérir	
1185	2	considérables	
1186	2	construite	
1187	2	conte	
1188	2	contournés	
1189	2	convainquit	
1190	2	conyngham	
1191	2	coquille	
1192	2	corridor	
1193	2	coteaux	
1194	2	couche	
1195	2	couché	
1196	2	couleurs	
1197	2	couronne	
1198	2	cours	
1199	2	courses	
1200	2	courtisan	
1201	2	courut	
1202	2	couvrit	
1203	2	crainte	
1204	2	creuse	
1205	2	creusée	
1206	2	creux	
1207	2	crime	
1208	2	criminels	
1209	2	cris	
1210	2	crises	
1211	2	cruelle	
1212	2	crut	
1213	2	créance	
1214	2	cyr	
1215	2	cérémonie	
1216	2	côtés	
1217	2	cœurs	
1218	2	dalles	
1219	2	dalmatique	
1220	2	dames	
1221	2	dangereux	
1222	2	dauphin	
1223	2	dedans	
1224	2	demander	
1225	2	demeurait	
1226	2	dentelé	
1227	2	dernier	
1228	2	descendit	
1229	2	descendu	
1230	2	desquels	
1231	2	desquerdes	
1232	2	desseins	
1233	2	destinés	
1234	2	diane	
1235	2	difficulté	
1236	2	digne	
1237	2	dignité	
1238	2	dires	
1239	2	dirigea	
1240	2	disaient	
1241	2	discret	
1242	2	distance	
1243	2	distinguer	
1244	2	divertissait	
1245	2	dois	
1246	2	doit	
1247	2	domaines	
1248	2	domestiques	
1249	2	dormir	
1250	2	douces	
1251	2	douleurs	
1252	2	douloureusement	
1253	2	douter	
1254	2	dressa	
1255	2	dut	
1256	2	dà	
1257	2	défaire	
1258	2	défiant	
1259	2	désormais	
1260	2	dévissé	
1261	2	dévotion	
1262	2	dévouement	
1263	2	dévoué	
1264	2	dû	
1265	2	dût	
1266	2	eaux	
1267	2	effets	
1268	2	effrayé	
1269	2	embrasure	
1270	2	emmené	
1271	2	empire	
1272	2	emporta	
1273	2	emporté	
1274	2	empreint	
1275	2	empreintes	
1276	2	empêcher	
1277	2	enfouis	
1278	2	ensemble	
1279	2	entier	
1280	2	entière	
1281	2	entretenir	
1282	2	envers	
1283	2	envoyé	
1284	2	escabeau	
1285	2	escaliers	
1286	2	espoir	
1287	2	essayant	
1288	2	eussent	
1289	2	excessive	
1290	2	exclamation	
1291	2	existait	
1292	2	expliquait	
1293	2	expliquera	
1294	2	expérience	
1295	2	extraordinaire	
1296	2	facile	
1297	2	faite	
1298	2	faites	
1299	2	familier	
1300	2	familles	
1301	2	fantaisie	
1302	2	farouche	
1303	2	fatale	
1304	2	faute	
1305	2	fauteuil	
1306	2	fermer	
1307	2	fidèle	
1308	2	fidélité	
1309	2	fils	
1310	2	finesse	
1311	2	finit	
1312	2	firent	
1313	2	fixement	
1314	2	fixée	
1315	2	flacon	
1316	2	fleuve	
1317	2	formait	
1318	2	fossé	
1319	2	françois	
1320	2	frappé	
1321	2	froide	
1322	2	frontière	
1323	2	fronçant	
1324	2	frotta	
1325	2	furtif	
1326	2	futur	
1327	2	gagna	
1328	2	gagner	
1329	2	galeries	
1330	2	garda	
1331	2	gardait	
1332	2	garder	
1333	2	gardée	
1334	2	garnies	
1335	2	gestes	
1336	2	glissa	
1337	2	goût	
1338	2	gravité	
1339	2	griffes	
1340	2	gris	
1341	2	grosses	
1342	2	grâces	
1343	2	guenon	
1344	2	guerre	
1345	2	guerres	
1346	2	gâche	
1347	2	générale	
1348	2	ha	
1349	2	hache	
1350	2	hardiment	
1351	2	hein	
1352	2	hier	
1353	2	hiver	
1354	2	holà	
1355	2	honte	
1356	2	horreur	
1357	2	huit	
1358	2	humblement	
1359	2	hâte	
1360	2	héritière	
1361	2	hésita	
1362	2	hôtels	
1363	2	ier	
1364	2	ignorait	
1365	2	ignoré	
1366	2	illégitime	
1367	2	inachevé	
1368	2	incognito	
1369	2	influence	
1370	2	inimitié	
1371	2	innocent	
1372	2	intelligence	
1373	2	intelligences	
1374	2	intéressante	
1375	2	inventions	
1376	2	iras	
1377	2	ivresse	
1378	2	jambes	
1379	2	jean	
1380	2	jetât	
1381	2	joignait	
1382	2	joint	
1383	2	jolie	
1384	2	jolis	
1385	2	jouait	
1386	2	journée	
1387	2	joyeux	
1388	2	juron	
1389	2	juste	
1390	2	justicier	
1391	2	justifiaient	
1392	2	lancé	
1393	2	lanière	
1394	2	latérales	
1395	2	layette	
1396	2	lentement	
1397	2	lestement	
1398	2	lettres	
1399	2	lieutenant	
1400	2	lire	
1401	2	livres	
1402	2	livré	
1403	2	loge	
1404	2	loin	
1405	2	lointain	
1406	2	lointains	
1407	2	lumières	
1408	2	légèrement	
1409	2	machinalement	
1410	2	macreuse	
1411	2	magie	
1412	2	mahom	
1413	2	malade	
1414	2	malicieux	
1415	2	manches	
1416	2	manger	
1417	2	manteau	
1418	2	marchant	
1419	2	marche	
1420	2	marcher	
1421	2	marché	
1422	2	marque	
1423	2	martyre	
1424	2	masse	
1425	2	matinée	
1426	2	mauvaises	
1427	2	membres	
1428	2	merci	
1429	2	messe	
1430	2	mesures	
1431	2	mettait	
1432	2	mettant	
1433	2	meurtrière	
1434	2	michel	
1435	2	midi	
1436	2	minuit	
1437	2	mise	
1438	2	moments	
1439	2	monseigneur	
1440	2	montrer	
1441	2	montrésor	
1442	2	morale	
1443	2	moyen	
1444	2	mule	
1445	2	multitude	
1446	2	murmures	
1447	2	mémoire	
1448	2	métier	
1449	2	naturelles	
1450	2	nefs	
1451	2	neige	
1452	2	nez	
1453	2	nocturne	
1454	2	nocturnes	
1455	2	noires	
1456	2	nombre	
1457	2	noyer	
1458	2	nue	
1459	2	nulle	
1460	2	objet	
1461	2	obscur	
1462	2	obscurité	
1463	2	observation	
1464	2	obstacles	
1465	2	obtenir	
1466	2	occupait	
1467	2	offices	
1468	2	officier	
1469	2	offrait	
1470	2	oiseau	
1471	2	ordres	
1472	2	orgue	
1473	2	ornement	
1474	2	orphelin	
1475	2	oubliant	
1476	2	oublieux	
1477	2	palier	
1478	2	paraître	
1479	2	parc	
1480	2	pardon	
1481	2	parfois	
1482	2	parisis	
1483	2	parlaient	
1484	2	particulières	
1485	2	partit	
1486	2	parvinrent	
1487	2	passaient	
1488	2	passait	
1489	2	passants	
1490	2	passe	
1491	2	passèrent	
1492	2	patins	
1493	2	patrie	
1494	2	pause	
1495	2	pende	
1496	2	pendre	
1497	2	pendu	
1498	2	perdue	
1499	2	perles	
1500	2	permis	
1501	2	personnage	
1502	2	personnes	
1503	2	perspicacité	
1504	2	peser	
1505	2	petits	
1506	2	peuvent	
1507	2	physicien	
1508	2	phénomène	
1509	2	pierreries	
1510	2	pitié	
1511	2	pièces	
1512	2	placé	
1513	2	plaine	
1514	2	plaira	
1515	2	plaisait	
1516	2	plissé	
1517	2	plumes	
1518	2	pointe	
1519	2	pointu	
1520	2	pommeau	
1521	2	pont	
1522	2	populaire	
1523	2	porté	
1524	2	posa	
1525	2	position	
1526	2	potence	
1527	2	pourriez	
1528	2	poussa	
1529	2	poussez	
1530	2	poussés	
1531	2	poésie	
1532	2	prenait	
1533	2	prend	
1534	2	prenez	
1535	2	preuves	
1536	2	principales	
1537	2	principe	
1538	2	prises	
1539	2	privilège	
1540	2	prix	
1541	2	procurer	
1542	2	procès	
1543	2	produit	
1544	2	profonde	
1545	2	promenant	
1546	2	prononcer	
1547	2	propre	
1548	2	propriété	
1549	2	prouvèrent	
1550	2	province	
1551	2	précieuse	
1552	2	précieux	
1553	2	précisément	
1554	2	présence	
1555	2	présomptions	
1556	2	prétendaient	
1557	2	prévenir	
1558	2	prévu	
1559	2	prêtre	
1560	2	prêtres	
1561	2	puissances	
1562	2	puissante	
1563	2	punir	
1564	2	péchés	
1565	2	pénitence	
1566	2	pénétrant	
1567	2	périlleux	
1568	2	qualité	
1569	2	qualités	
1570	2	quant	
1571	2	quartier	
1572	2	quitter	
1573	2	rang	
1574	2	rasoir	
1575	2	rassure	
1576	2	recevoir	
1577	2	recommandé	
1578	2	redoutables	
1579	2	redressant	
1580	2	refuser	
1581	2	regardait	
1582	2	regarde	
1583	2	relations	
1584	2	relevant	
1585	2	religieuses	
1586	2	religieux	
1587	2	remarqua	
1588	2	renards	
1589	2	rencontrait	
1590	2	rencontres	
1591	2	rendit	
1592	2	rendue	
1593	2	rentrer	
1594	2	repas	
1595	2	respectant	
1596	2	ressemblait	
1597	2	ressemblances	
1598	2	restant	
1599	2	restèrent	
1600	2	retentirent	
1601	2	retentissaient	
1602	2	retentit	
1603	2	retirée	
1604	2	retour	
1605	2	retourna	
1606	2	revenait	
1607	2	revenu	
1608	2	ri	
1609	2	risque	
1610	2	risquer	
1611	2	rivale	
1612	2	rome	
1613	2	rouge	
1614	2	route	
1615	2	ruiné	
1616	2	ruse	
1617	2	réfléchir	
1618	2	régna	
1619	2	répandu	
1620	2	répandue	
1621	2	résister	
1622	2	réveil	
1623	2	réveiller	
1624	2	réveillé	
1625	2	révéler	
1626	2	rêvait	
1627	2	rêve	
1628	2	rôle	
1629	2	sachant	
1630	2	sagacité	
1631	2	saigner	
1632	2	saillies	
1633	2	sauvé	
1634	2	savants	
1635	2	scènes	
1636	2	scéellerie	
1637	2	second	
1638	2	secours	
1639	2	secrète	
1640	2	sembla	
1641	2	semblables	
1642	2	semble	
1643	2	semées	
1644	2	sensibles	
1645	2	sentant	
1646	2	senti	
1647	2	serai	
1648	2	serais	
1649	2	seront	
1650	2	serrant	
1651	2	serrés	
1652	2	servait	
1653	2	servent	
1654	2	service	
1655	2	servit	
1656	2	signifiait	
1657	2	silencieux	
1658	2	simple	
1659	2	situées	
1660	2	six	
1661	2	siège	
1662	2	solide	
1663	2	solidité	
1664	2	sollicitude	
1665	2	sommairement	
1666	2	songe	
1667	2	sonnèrent	
1668	2	sorcellerie	
1669	2	sorti	
1670	2	sortie	
1671	2	sortirent	
1672	2	souffrances	
1673	2	souliers	
1674	2	souper	
1675	2	soupir	
1676	2	soupçons	
1677	2	soupé	
1678	2	souriant	
1679	2	souvenir	
1680	2	stupéfait	
1681	2	successivement	
1682	2	succès	
1683	2	suivie	
1684	2	suivirent	
1685	2	sujets	
1686	2	supposer	
1687	2	surnaturel	
1688	2	surprendre	
1689	2	surtout	
1690	2	sut	
1691	2	séchèrent	
1692	2	sévère	
1693	2	tandis	
1694	2	tantôt	
1695	2	tapisserie	
1696	2	tard	
1697	2	tira	
1698	2	tirant	
1699	2	tombait	
1700	2	tomber	
1701	2	tombèrent	
1702	2	topographie	
1703	2	tortionnaire	
1704	2	tourelle	
1705	2	tourelles	
1706	2	tourments	
1707	2	trace	
1708	2	traditions	
1709	2	trahi	
1710	2	traits	
1711	2	tremblant	
1712	2	triste	
1713	2	troisième	
1714	2	tronc	
1715	2	trouvant	
1716	2	truands	
1717	2	tyrannie	
1718	2	tâcha	
1719	2	ténèbres	
1720	2	têtes	
1721	2	vaguement	
1722	2	vallée	
1723	2	vaut	
1724	2	velours	
1725	2	venez	
1726	2	ventre	
1727	2	venue	
1728	2	vertu	
1729	2	vertueuse	
1730	2	vestiges	
1731	2	violent	
1732	2	violente	
1733	2	visible	
1734	2	visite	
1735	2	vite	
1736	2	vivacité	
1737	2	voisin	
1738	2	voisinage	
1739	2	vole	
1740	2	voler	
1741	2	vols	
1742	2	voluptueuses	
1743	2	vouloir	
1744	2	voulu	
1745	2	voulut	
1746	2	voyez	
1747	2	voûtes	
1748	2	vraie	
1749	2	âmes	
1750	2	âtre	
1751	2	échafaud	
1752	2	écho	
1753	2	éclairait	
1754	2	éclaircir	
1755	2	écoutait	
1756	2	écouter	
1757	2	édifice	
1758	2	égaux	
1759	2	électeur	
1760	2	élevait	
1761	2	émotion	
1762	2	énorme	
1763	2	énormes	
1764	2	épier	
1765	2	épouser	
1766	2	établir	
1767	2	étant	
1768	2	éteignit	
1769	2	étonnés	
1770	2	étrangers	
1771	2	étroite	
1772	2	étudia	
1773	2	êtres	
1774	2	œuvre	
1775	1	abandonnait	
1776	1	abandonnée	
1777	1	abattue	
1778	1	abdication	
1779	1	abolit	
1780	1	aboutissaient	
1781	1	absence	
1782	1	absolu	
1783	1	absolutions	
1784	1	absorbé	
1785	1	abîme	
1786	1	abîmes	
1787	1	accablante	
1788	1	accents	
1789	1	acceptait	
1790	1	accidents	
1791	1	accommodait	
1792	1	accompagner	
1793	1	accompli	
1794	1	accomplir	
1795	1	accomplissement	
1796	1	accordait	
1797	1	accordez	
1798	1	accordé	
1799	1	accota	
1800	1	accourant	
1801	1	accoutumé	
1802	1	accoutumée	
1803	1	accrocha	
1804	1	accueillant	
1805	1	accusait	
1806	1	accusent	
1807	1	accuser	
1808	1	accusé	
1809	1	achetant	
1810	1	achetez	
1811	1	acheté	
1812	1	achevée	
1813	1	achevées	
1814	1	acolytes	
1815	1	acquise	
1816	1	actes	
1817	1	action	
1818	1	actions	
1819	1	acérées	
1820	1	adjacentes	
1821	1	admirable	
1822	1	admirés	
1823	1	admission	
1824	1	adonna	
1825	1	adossé	
1826	1	adroitement	
1827	1	adroits	
1828	1	adversaire	
1829	1	affadie	
1830	1	affamé	
1831	1	affilé	
1832	1	affinités	
1833	1	affreuses	
1834	1	agenouilla	
1835	1	agilité	
1836	1	agissaient	
1837	1	agit	
1838	1	agitations	
1839	1	agitée	
1840	1	agréablement	
1841	1	aidant	
1842	1	aidé	
1843	1	aigle	
1844	1	aigre	
1845	1	aigu	
1846	1	aiguille	
1847	1	aiguës	
1848	1	aile	
1849	1	aimaient	
1850	1	aimant	
1851	1	aiment	
1852	1	aimerons	
1853	1	aimons	
1854	1	aimé	
1855	1	ait	
1856	1	alchimie	
1857	1	alliance	
1858	1	alliés	
1859	1	allumait	
1860	1	allumèrent	
1861	1	allumés	
1862	1	allèrent	
1863	1	altérations	
1864	1	amateurs	
1865	1	ambassade	
1866	1	ambassadeur	
1867	1	amboise	
1868	1	amener	
1869	1	amené	
1870	1	amer	
1871	1	ameublement	
1872	1	ameutée	
1873	1	amplement	
1874	1	amuse	
1875	1	amusement	
1876	1	amuser	
1877	1	amère	
1878	1	améliorations	
1879	1	ancien	
1880	1	ancienne	
1881	1	anciens	
1882	1	ange	
1883	1	angle	
1884	1	angles	
1885	1	angoisses	
1886	1	anguleux	
1887	1	animaux	
1888	1	animées	
1889	1	annoncer	
1890	1	annoncèrent	
1891	1	annonçaient	
1892	1	annonçassent	
1893	1	anoblit	
1894	1	anses	
1895	1	antinarcotiques	
1896	1	antiquités	
1897	1	apercevant	
1898	1	aposter	
1899	1	apparaissait	
1900	1	apparence	
1901	1	appartenaient	
1902	1	appartenait	
1903	1	appartient	
1904	1	appelèrent	
1905	1	appelé	
1906	1	appelée	
1907	1	apporter	
1908	1	apprenant	
1909	1	apprend	
1910	1	apprendre	
1911	1	approchant	
1912	1	approcher	
1913	1	approches	
1914	1	appréhension	
1915	1	apprêts	
1916	1	appui	
1917	1	appuyé	
1918	1	appuyés	
1919	1	arbre	
1920	1	arbres	
1921	1	archevêque	
1922	1	ardemment	
1923	1	ardents	
1924	1	argentées	
1925	1	argus	
1926	1	armure	
1927	1	armés	
1928	1	arrache	
1929	1	arrangeaient	
1930	1	arrivait	
1931	1	arriver	
1932	1	arrivera	
1933	1	arrivèrent	
1934	1	arrivé	
1935	1	arrivée	
1936	1	arrose	
1937	1	arrêtait	
1938	1	arrêter	
1939	1	arrêtèrent	
1940	1	art	
1941	1	artifices	
1942	1	artillerie	
1943	1	arts	
1944	1	asiatique	
1945	1	aspects	
1946	1	assassinent	
1947	1	assemblage	
1948	1	assemblée	
1949	1	assemblés	
1950	1	asseyant	
1951	1	asseyez	
1952	1	assiette	
1953	1	assimilation	
1954	1	assoupi	
1955	1	assourdie	
1956	1	astuce	
1957	1	astucieuse	
1958	1	attache	
1959	1	attaques	
1960	1	attardés	
1961	1	atteint	
1962	1	atteinte	
1963	1	attendaient	
1964	1	attendais	
1965	1	attendri	
1966	1	attendrie	
1967	1	attendrissait	
1968	1	attendu	
1969	1	attiraient	
1970	1	attirait	
1971	1	attiré	
1972	1	attrait	
1973	1	attribuait	
1974	1	attroupés	
1975	1	aucunement	
1976	1	aucunes	
1977	1	audace	
1978	1	audacieux	
1979	1	audience	
1980	1	augmenter	
1981	1	augmenté	
1982	1	aurai	
1983	1	auraient	
1984	1	auras	
1985	1	aurez	
1986	1	autels	
1987	1	autorité	
1988	1	auxquelles	
1989	1	avance	
1990	1	avancé	
1991	1	avantage	
1992	1	avantages	
1993	1	avançant	
1994	1	aventures	
1995	1	avenue	
1996	1	aveugle	
1997	1	avide	
1998	1	avoue	
1999	1	avouèrent	
2000	1	aymar	
2001	1	bagarre	
2002	1	bailler	
2003	1	baisers	
2004	1	baisser	
2005	1	baisé	
2006	1	bal	
2007	1	balancer	
2008	1	baleines	
2009	1	balustrade	
2010	1	banque	
2011	1	banquier	
2012	1	barres	
2013	1	barrière	
2014	1	bastarnay	
2015	1	bastille	
2016	1	bateaux	
2017	1	battre	
2018	1	belgique	
2019	1	besants	
2020	1	bienfaisante	
2021	1	bienheureuse	
2022	1	bile	
2023	1	bise	
2024	1	bizarre	
2025	1	bizarreries	
2026	1	blanchâtre	
2027	1	blesser	
2028	1	bleu	
2029	1	blottissent	
2030	1	blâme	
2031	1	blâmé	
2032	1	blé	
2033	1	blêmit	
2034	1	bohier	
2035	1	boisée	
2036	1	bombé	
2037	1	bond	
2038	1	bonjour	
2039	1	bonnets	
2040	1	bonsoir	
2041	1	bonté	
2042	1	bordait	
2043	1	bordé	
2044	1	bordée	
2045	1	bornes	
2046	1	boucon	
2047	1	boulanger	
2048	1	bourdeilles	
2049	1	bourgeoise	
2050	1	bourgueil	
2051	1	bourreau	
2052	1	bourse	
2053	1	boutique	
2054	1	brabançonne	
2055	1	brasiers	
2056	1	bride	
2057	1	brillait	
2058	1	briller	
2059	1	briques	
2060	1	brisa	
2061	1	brièvement	
2062	1	brocart	
2063	1	brodequins	
2064	1	brouhaha	
2065	1	bruits	
2066	1	brun	
2067	1	brune	
2068	1	bruns	
2069	1	bruyamment	
2070	1	brève	
2071	1	bréhaigne	
2072	1	bréhémont	
2073	1	bréviaire	
2074	1	brûlait	
2075	1	brûlant	
2076	1	brûle	
2077	1	bâtardise	
2078	1	bâties	
2079	1	bâtiments	
2080	1	bâtir	
2081	1	bâtissaient	
2082	1	bénéfices	
2083	1	bête	
2084	1	cacha	
2085	1	cacher	
2086	1	cachettes	
2087	1	cachot	
2088	1	caché	
2089	1	cachés	
2090	1	cadre	
2091	1	caissier	
2092	1	calcul	
2093	1	calculateurs	
2094	1	calculs	
2095	1	calme	
2096	1	calmé	
2097	1	camelot	
2098	1	campagnards	
2099	1	campagne	
2100	1	campée	
2101	1	candélabres	
2102	1	capable	
2103	1	capables	
2104	1	capacité	
2105	1	cape	
2106	1	capitale	
2107	1	caprices	
2108	1	capricieusement	
2109	1	capricieux	
2110	1	caractéristiques	
2111	1	cardinaux	
2112	1	caressant	
2113	1	carnassiers	
2114	1	carpion	
2115	1	carre	
2116	1	carreau	
2117	1	carroir	
2118	1	carrées	
2119	1	carte	
2120	1	cassant	
2121	1	casser	
2122	1	catherine	
2123	1	cathédrales	
2124	1	causait	
2125	1	cause	
2126	1	causerait	
2127	1	caustique	
2128	1	causé	
2129	1	caution	
2130	1	cavalerie	
2131	1	cave	
2132	1	cendres	
2133	1	censé	
2134	1	cents	
2135	1	cercle	
2136	1	certain	
2137	1	certainement	
2138	1	cessa	
2139	1	chagrin	
2140	1	chambellans	
2141	1	chambord	
2142	1	champ	
2143	1	chance	
2144	1	chancelier	
2145	1	chancellerie	
2146	1	chances	
2147	1	change	
2148	1	changements	
2149	1	changer	
2150	1	changé	
2151	1	chanoines	
2152	1	chantres	
2153	1	chanté	
2154	1	chapitre	
2155	1	charge	
2156	1	chargea	
2157	1	chargé	
2158	1	charmante	
2159	1	charmèrent	
2160	1	charpente	
2161	1	chasteté	
2162	1	chaudron	
2163	1	chauds	
2164	1	chauffés	
2165	1	chausse	
2166	1	chauve	
2167	1	chenonceaux	
2168	1	cher	
2169	1	cherchent	
2170	1	cherchiez	
2171	1	chers	
2172	1	chevaleresque	
2173	1	chevalet	
2174	1	chevaux	
2175	1	chevet	
2176	1	chien	
2177	1	chimérique	
2178	1	choc	
2179	1	choisie	
2180	1	choisille	
2181	1	christianisme	
2182	1	chrétien	
2183	1	chrétiens	
2184	1	chéneau	
2185	1	chérie	
2186	1	chétif	
2187	1	chêne	
2188	1	cicatrice	
2189	1	cieux	
2190	1	cinq	
2191	1	cinquante	
2192	1	cintres	
2193	1	circonstance	
2194	1	circonstances	
2195	1	cires	
2196	1	civiles	
2197	1	clairement	
2198	1	claires	
2199	1	clavettes	
2200	1	clerc	
2201	1	client	
2202	1	cliquetis	
2203	1	cloche	
2204	1	clocher	
2205	1	clochers	
2206	1	clémente	
2207	1	cléry	
2208	1	coffres	
2209	1	colimaçon	
2210	1	collecteur	
2211	1	colonne	
2212	1	colonnes	
2213	1	colorait	
2214	1	combiner	
2215	1	commandant	
2216	1	commandement	
2217	1	commandé	
2218	1	commencer	
2219	1	commencées	
2220	1	commensal	
2221	1	commençaient	
2222	1	commençant	
2223	1	commerciale	
2224	1	commerciales	
2225	1	commerçant	
2226	1	commerçants	
2227	1	commun	
2228	1	compacte	
2229	1	compagne	
2230	1	complices	
2231	1	complicité	
2232	1	complète	
2233	1	composée	
2234	1	comprenaient	
2235	1	comprenais	
2236	1	comprenait	
2237	1	comprend	
2238	1	compta	
2239	1	comptaient	
2240	1	compté	
2241	1	concentration	
2242	1	conception	
2243	1	conceptions	
2244	1	concert	
2245	1	concédé	
2246	1	condamnés	
2247	1	conduire	
2248	1	conduite	
2249	1	confesseras	
2250	1	confesses	
2251	1	confesseur	
2252	1	confidences	
2253	1	confie	
2254	1	confier	
2255	1	confirma	
2256	1	confirmation	
2257	1	confié	
2258	1	confondit	
2259	1	connaissaient	
2260	1	connaissait	
2261	1	connaissent	
2262	1	connu	
2263	1	connue	
2264	1	conquête	
2265	1	consacré	
2266	1	conseil	
2267	1	conseillez	
2268	1	conserve	
2269	1	conservent	
2270	1	considérable	
2271	1	consistait	
2272	1	conspira	
2273	1	constamment	
2274	1	construction	
2275	1	constructions	
2276	1	construites	
2277	1	consultait	
2278	1	contemplait	
2279	1	contemplations	
2280	1	contentait	
2281	1	contient	
2282	1	contigu	
2283	1	continuait	
2284	1	continuant	
2285	1	continuelle	
2286	1	continuellement	
2287	1	contractés	
2288	1	contraste	
2289	1	contrastes	
2290	1	contrefait	
2291	1	contribué	
2292	1	contrition	
2293	1	convaincu	
2294	1	conviction	
2295	1	convie	
2296	1	convient	
2297	1	conçu	
2298	1	coquin	
2299	1	cordes	
2300	1	cordon	
2301	1	cornue	
2302	1	correspondre	
2303	1	corridors	
2304	1	corselet	
2305	1	costume	
2306	1	cou	
2307	1	coucherez	
2308	1	couchée	
2309	1	coula	
2310	1	couler	
2311	1	couleur	
2312	1	coupa	
2313	1	coupables	
2314	1	coupées	
2315	1	courait	
2316	1	coureurs	
2317	1	courrier	
2318	1	courriers	
2319	1	courroux	
2320	1	courte	
2321	1	couteaux	
2322	1	coutume	
2323	1	couvait	
2324	1	couvraient	
2325	1	couvre	
2326	1	couvé	
2327	1	coïncida	
2328	1	coïncidèrent	
2329	1	coûtait	
2330	1	coûte	
2331	1	coûter	
2332	1	coûtera	
2333	1	crac	
2334	1	craignais	
2335	1	craignait	
2336	1	craignez	
2337	1	craignit	
2338	1	craindre	
2339	1	craintif	
2340	1	craintive	
2341	1	cramponner	
2342	1	creuses	
2343	1	crevasses	
2344	1	cri	
2345	1	criait	
2346	1	crise	
2347	1	crié	
2348	1	crochu	
2349	1	crocodile	
2350	1	croirai	
2351	1	crois	
2352	1	croissait	
2353	1	croisée	
2354	1	croit	
2355	1	croix	
2356	1	croyais	
2357	1	croyait	
2358	1	croyance	
2359	1	croyant	
2360	1	cru	
2361	1	cruauté	
2362	1	cruche	
2363	1	cruels	
2364	1	créant	
2365	1	créature	
2366	1	créatures	
2367	1	crédule	
2368	1	crédules	
2369	1	créé	
2370	1	cuiller	
2371	1	cuisinier	
2372	1	curieuses	
2373	1	céans	
2374	1	célestes	
2375	1	célèbres	
2376	1	célérité	
2377	1	dague	
2378	1	damné	
2379	1	darder	
2380	1	dauphiné	
2381	1	degrés	
2382	1	delà	
2383	1	demandait	
2384	1	demandez	
2385	1	demeurer	
2386	1	dents	
2387	1	derechef	
2388	1	dernières	
2389	1	dessinaient	
2390	1	desséché	
2391	1	destinées	
2392	1	deuil	
2393	1	devais	
2394	1	devenait	
2395	1	devenir	
2396	1	devenus	
2397	1	devez	
2398	1	devient	
2399	1	devina	
2400	1	devinaient	
2401	1	devines	
2402	1	devinrent	
2403	1	devint	
2404	1	devoir	
2405	1	devons	
2406	1	devrait	
2407	1	dextérité	
2408	1	diables	
2409	1	diabolique	
2410	1	diaboliques	
2411	1	diamants	
2412	1	difficultés	
2413	1	différence	
2414	1	direction	
2415	1	dirigée	
2416	1	dis	
2417	1	discorde	
2418	1	discrétion	
2419	1	discussions	
2420	1	disjoint	
2421	1	disparaître	
2422	1	disposé	
2423	1	disposées	
2424	1	dissimulée	
2425	1	dissiper	
2426	1	dissoudre	
2427	1	distillée	
2428	1	distinguait	
2429	1	distinguées	
2430	1	dite	
2431	1	divers	
2432	1	divertir	
2433	1	divertissement	
2434	1	docteurs	
2435	1	doigt	
2436	1	dominait	
2437	1	donnez	
2438	1	donnés	
2439	1	dormant	
2440	1	dormi	
2441	1	dormiez	
2442	1	dort	
2443	1	dos	
2444	1	double	
2445	1	douceur	
2446	1	douteux	
2447	1	douté	
2448	1	doux	
2449	1	doué	
2450	1	drame	
2451	1	drapées	
2452	1	dressait	
2453	1	drogue	
2454	1	droite	
2455	1	droits	
2456	1	drôle	
2457	1	ducs	
2458	1	duel	
2459	1	duellistes	
2460	1	duels	
2461	1	dupé	
2462	1	dur	
2463	1	durant	
2464	1	durent	
2465	1	dures	
2466	1	durward	
2467	1	duré	
2468	1	durée	
2469	1	dus	
2470	1	dussiez	
2471	1	débauche	
2472	1	débauché	
2473	1	débile	
2474	1	débiteurs	
2475	1	décembre	
2476	1	déchiffrer	
2477	1	déchirer	
2478	1	déchirèrent	
2479	1	décider	
2480	1	décidèrent	
2481	1	déclaration	
2482	1	décomposa	
2483	1	décorer	
2484	1	découpées	
2485	1	découpés	
2486	1	découvert	
2487	1	découverte	
2488	1	découvrait	
2489	1	décrire	
2490	1	décrivirent	
2491	1	décrépitude	
2492	1	dédaigneusement	
2493	1	dédiée	
2494	1	défaillir	
2495	1	défaite	
2496	1	défaut	
2497	1	défendaient	
2498	1	défendait	
2499	1	défendu	
2500	1	défendues	
2501	1	défenseur	
2502	1	défiants	
2503	1	défié	
2504	1	déféra	
2505	1	déguisé	
2506	1	délibération	
2507	1	délicat	
2508	1	délicate	
2509	1	délicieusement	
2510	1	délicieuses	
2511	1	délivrance	
2512	1	délivrer	
2513	1	délivré	
2514	1	démarche	
2515	1	démarches	
2516	1	démoli	
2517	1	démolisseurs	
2518	1	démon	
2519	1	démontré	
2520	1	dénicher	
2521	1	dénouements	
2522	1	dénouer	
2523	1	dénouées	
2524	1	dénué	
2525	1	dénuée	
2526	1	dénuées	
2527	1	départ	
2528	1	dépendait	
2529	1	dépens	
2530	1	dépensa	
2531	1	déplaisait	
2532	1	déploient	
2533	1	déploya	
2534	1	déposés	
2535	1	dépouillent	
2536	1	dépouiller	
2537	1	dépouillerai	
2538	1	déroba	
2539	1	dérober	
2540	1	désarmèrent	
2541	1	désastre	
2542	1	désespérante	
2543	1	déshabilla	
2544	1	désireux	
2545	1	désunies	
2546	1	désuétude	
2547	1	détacha	
2548	1	détente	
2549	1	déterminations	
2550	1	détournés	
2551	1	détruire	
2552	1	dévalerai	
2553	1	dévisser	
2554	1	dévoré	
2555	1	eau	
2556	1	ecclésiastiques	
2557	1	effaroucher	
2558	1	effarée	
2559	1	effaça	
2560	1	effectivement	
2561	1	effort	
2562	1	efforçait	
2563	1	effrayant	
2564	1	effrayez	
2565	1	effrayée	
2566	1	embarrassait	
2567	1	embarrassés	
2568	1	embellissait	
2569	1	embler	
2570	1	emblés	
2571	1	embraser	
2572	1	embrassait	
2573	1	embrassant	
2574	1	embûche	
2575	1	emmena	
2576	1	emmenez	
2577	1	emparé	
2578	1	empiré	
2579	1	emplacement	
2580	1	employa	
2581	1	employant	
2582	1	emportent	
2583	1	emportés	
2584	1	empreinte	
2585	1	empreints	
2586	1	empressa	
2587	1	empressement	
2588	1	empressé	
2589	1	empressés	
2590	1	emprisonnant	
2591	1	empêcha	
2592	1	empêchés	
2593	1	encadrée	
2594	1	encaisser	
2595	1	enceinte	
2596	1	enceintes	
2597	1	encens	
2598	1	encombrait	
2599	1	encouru	
2600	1	endormir	
2601	1	endormira	
2602	1	endossa	
2603	1	endroit	
2604	1	endurci	
2605	1	endurés	
2606	1	enfants	
2607	1	enfer	
2608	1	enfermait	
2609	1	enfermant	
2610	1	enfermés	
2611	1	enfoncements	
2612	1	enfonçait	
2613	1	enfui	
2614	1	engarrié	
2615	1	engluerait	
2616	1	engourdi	
2617	1	enleva	
2618	1	enlever	
2619	1	enlèvement	
2620	1	ennemis	
2621	1	enquête	
2622	1	enquêtes	
2623	1	enseignements	
2624	1	enseveli	
2625	1	ensevelis	
2626	1	ensorcelée	
2627	1	entaillé	
2628	1	entamées	
2629	1	entendait	
2630	1	entendra	
2631	1	entendue	
2632	1	entendus	
2633	1	entendît	
2634	1	enterré	
2635	1	enthousiasme	
2636	1	entières	
2637	1	entortillé	
2638	1	entortillée	
2639	1	entouraient	
2640	1	entouré	
2641	1	entrailles	
2642	1	entrait	
2643	1	entraînant	
2644	1	entraîné	
2645	1	entrerai	
2646	1	entretint	
2647	1	entrevit	
2648	1	entrevoir	
2649	1	entrevu	
2650	1	entrèrent	
2651	1	entré	
2652	1	envahi	
2653	1	envie	
2654	1	environ	
2655	1	environnent	
2656	1	environné	
2657	1	envisageant	
2658	1	envièrent	
2659	1	envoie	
2660	1	envoyer	
2661	1	envoyés	
2662	1	errait	
2663	1	escabelles	
2664	1	escaut	
2665	1	escouade	
2666	1	escrignoles	
2667	1	espaces	
2668	1	espagnole	
2669	1	espion	
2670	1	espionnage	
2671	1	espionnaient	
2672	1	espère	
2673	1	espérances	
2674	1	esquivant	
2675	1	essaya	
2676	1	essayait	
2677	1	essor	
2678	1	estafiers	
2679	1	estimait	
2680	1	estimées	
2681	1	estomac	
2682	1	eue	
2683	1	eues	
2684	1	europe	
2685	1	exacte	
2686	1	exactement	
2687	1	exaltation	
2688	1	examina	
2689	1	examinaient	
2690	1	examinait	
2691	1	examinant	
2692	1	excepté	
2693	1	excitaient	
2694	1	excitait	
2695	1	excité	
2696	1	excitée	
2697	1	exclusivement	
2698	1	exemplaires	
2699	1	exemple	
2700	1	exempt	
2701	1	exerçait	
2702	1	exhalait	
2703	1	existaient	
2704	1	existe	
2705	1	expirèrent	
2706	1	explicable	
2707	1	explique	
2708	1	expliquent	
2709	1	expliquer	
2710	1	expliqués	
2711	1	exposition	
2712	1	exprimaient	
2713	1	exprimèrent	
2714	1	exprimé	
2715	1	expédient	
2716	1	expédition	
2717	1	extase	
2718	1	extases	
2719	1	extraordinaires	
2720	1	extrémité	
2721	1	extrêmement	
2722	1	exténuer	
2723	1	extérieur	
2724	1	exécration	
2725	1	exécuter	
2726	1	exécution	
2727	1	exécutions	
2728	1	exécutèrent	
2729	1	exécutés	
2730	1	facilité	
2731	1	factotum	
2732	1	faibles	
2733	1	faiseur	
2734	1	falot	
2735	1	falots	
2736	1	fameuse	
2737	1	familiers	
2738	1	familièrement	
2739	1	famille	
2740	1	fanatisme	
2741	1	fantaisies	
2742	1	fantasque	
2743	1	fantômes	
2744	1	farce	
2745	1	fasse	
2746	1	fatigue	
2747	1	fatigué	
2748	1	faudrait	
2749	1	fausses	
2750	1	fausseté	
2751	1	fauve	
2752	1	fauves	
2753	1	favorable	
2754	1	favorables	
2755	1	favorite	
2756	1	façon	
2757	1	faîte	
2758	1	faïence	
2759	1	feignant	
2760	1	fente	
2761	1	fera	
2762	1	ferait	
2763	1	feras	
2764	1	ferme	
2765	1	fermèrent	
2766	1	ferrures	
2767	1	ferrés	
2768	1	fers	
2769	1	fertile	
2770	1	festin	
2771	1	feuillée	
2772	1	fia	
2773	1	fiance	
2774	1	fiancée	
2775	1	fictif	
2776	1	fidèlement	
2777	1	fier	
2778	1	fiertés	
2779	1	figurant	
2780	1	figures	
2781	1	figurez	
2782	1	fillette	
2783	1	financières	
2784	1	finissait	
2785	1	finissant	
2786	1	fixe	
2787	1	fixèrent	
2788	1	fixés	
2789	1	fièrement	
2790	1	flairant	
2791	1	flamande	
2792	1	flambeaux	
2793	1	flamme	
2794	1	flammes	
2795	1	flatta	
2796	1	flattant	
2797	1	flatterie	
2798	1	fleurie	
2799	1	flot	
2800	1	flots	
2801	1	flétries	
2802	1	foison	
2803	1	folle	
2804	1	fonctions	
2805	1	fondations	
2806	1	fondement	
2807	1	fonder	
2808	1	fondeur	
2809	1	fontaine	
2810	1	forcément	
2811	1	formaient	
2812	1	forment	
2813	1	formes	
2814	1	formé	
2815	1	formée	
2816	1	forteresse	
2817	1	forteresses	
2818	1	fortifié	
2819	1	fortunes	
2820	1	forêt	
2821	1	fossés	
2822	1	fou	
2823	1	fouillait	
2824	1	fouillez	
2825	1	fournissaient	
2826	1	fournissait	
2827	1	fracture	
2828	1	franc	
2829	1	frappées	
2830	1	frayeurs	
2831	1	fraîche	
2832	1	fret	
2833	1	frissonnant	
2834	1	frissonnements	
2835	1	froides	
2836	1	froideur	
2837	1	fruit	
2838	1	fruits	
2839	1	fréquentée	
2840	1	fumaient	
2841	1	fumée	
2842	1	funeste	
2843	1	furieuse	
2844	1	furtivement	
2845	1	fussent	
2846	1	fébrile	
2847	1	féodalité	
2848	1	gage	
2849	1	gageons	
2850	1	gagerais	
2851	1	gages	
2852	1	gagnait	
2853	1	gagnez	
2854	1	gagné	
2855	1	gaiement	
2856	1	gaillard	
2857	1	galant	
2858	1	galante	
2859	1	galop	
2860	1	gamelle	
2861	1	garderait	
2862	1	gardèrent	
2863	1	gardé	
2864	1	garnie	
2865	1	garrottée	
2866	1	gars	
2867	1	garçon	
2868	1	gauche	
2869	1	genets	
2870	1	genre	
2871	1	gentille	
2872	1	gentilshommes	
2873	1	gibets	
2874	1	gigantesque	
2875	1	glace	
2876	1	glacées	
2877	1	glands	
2878	1	glaçait	
2879	1	gloire	
2880	1	glorieux	
2881	1	gonfla	
2882	1	gorge	
2883	1	gosier	
2884	1	goutte	
2885	1	gouttières	
2886	1	goûts	
2887	1	grabeler	
2888	1	gracieuse	
2889	1	gracieux	
2890	1	graduellement	
2891	1	grandeurs	
2892	1	grandi	
2893	1	grands	
2894	1	grattant	
2895	1	gravement	
2896	1	graves	
2897	1	gravés	
2898	1	grenier	
2899	1	griller	
2900	1	grilles	
2901	1	grillées	
2902	1	grimper	
2903	1	grise	
2904	1	griève	
2905	1	grièvement	
2906	1	grommela	
2907	1	grommelant	
2908	1	gronder	
2909	1	grondé	
2910	1	grossissant	
2911	1	grotesques	
2912	1	groupe	
2913	1	gré	
2914	1	guette	
2915	1	gueules	
2916	1	guichet	
2917	1	guida	
2918	1	guidèrent	
2919	1	guignait	
2920	1	générosités	
2921	1	gît	
2922	1	gîte	
2923	1	habile	
2924	1	habiles	
2925	1	habillèrent	
2926	1	habitait	
2927	1	habitant	
2928	1	habits	
2929	1	habitudes	
2930	1	habituel	
2931	1	habitué	
2932	1	haillon	
2933	1	hait	
2934	1	hardies	
2935	1	hardis	
2936	1	harnais	
2937	1	hasarda	
2938	1	hasardeuse	
2939	1	hasards	
2940	1	henri	
2941	1	herbes	
2942	1	herde	
2943	1	heureuses	
2944	1	heureux	
2945	1	heurter	
2946	1	historiens	
2947	1	historiques	
2948	1	hochant	
2949	1	hochèrent	
2950	1	hollandais	
2951	1	horreurs	
2952	1	horriblement	
2953	1	hors	
2954	1	hostie	
2955	1	huisserie	
2956	1	hurlant	
2957	1	hâve	
2958	1	hère	
2959	1	hé	
2960	1	hélas	
2961	1	hélie	
2962	1	héritier	
2963	1	héroïsme	
2964	1	héréditaires	
2965	1	hésitait	
2966	1	hésitation	
2967	1	hôtes	
2968	1	ignorant	
2969	1	ignorer	
2970	1	ii	
2971	1	illusion	
2972	1	illusions	
2973	1	image	
2974	1	images	
2975	1	imaginaires	
2976	1	imagination	
2977	1	imaginations	
2978	1	imbert	
2979	1	imitait	
2980	1	immenses	
2981	1	immobile	
2982	1	immobiles	
2983	1	immobilité	
2984	1	immémorial	
2985	1	impatient	
2986	1	important	
2987	1	importe	
2988	1	impressionné	
2989	1	imprimait	
2990	1	imprudemment	
2991	1	imprudence	
2992	1	imprudent	
2993	1	imprudente	
2994	1	impôt	
2995	1	impôts	
2996	1	inaccessible	
2997	1	inaction	
2998	1	incarnat	
2999	1	incarné	
3000	1	inclinant	
3001	1	inconnue	
3002	1	incroyable	
3003	1	incroyables	
3004	1	incrustés	
3005	1	incrédule	
3006	1	incrédules	
3007	1	inculte	
3008	1	indifférent	
3009	1	indifférentes	
3010	1	indiqué	
3011	1	inexplicable	
3012	1	inexpugnable	
3013	1	infiniment	
3014	1	infirmités	
3015	1	influences	
3016	1	influença	
3017	1	infortunée	
3018	1	inférieure	
3019	1	inhabitée	
3020	1	injuste	
3021	1	inouï	
3022	1	inquiet	
3023	1	inquisiteur	
3024	1	inquiète	
3025	1	inquiétude	
3026	1	inquiétudes	
3027	1	insensiblement	
3028	1	insolemment	
3029	1	insouciance	
3030	1	insouciants	
3031	1	inspirait	
3032	1	inspirée	
3033	1	instants	
3034	1	instinct	
3035	1	instinctive	
3036	1	instinctivement	
3037	1	instruire	
3038	1	instruit	
3039	1	instruits	
3040	1	insupportable	
3041	1	intelligent	
3042	1	intensité	
3043	1	intentions	
3044	1	interdit	
3045	1	interrogations	
3046	1	interrogatoire	
3047	1	interrogèrent	
3048	1	interrompant	
3049	1	interrompre	
3050	1	interrompu	
3051	1	intervenir	
3052	1	intime	
3053	1	intimité	
3054	1	intraitable	
3055	1	introduire	
3056	1	introduit	
3057	1	intéresse	
3058	1	intérieur	
3059	1	intérieures	
3060	1	intérêts	
3061	1	inusitée	
3062	1	inverse	
3063	1	invincibles	
3064	1	invisibles	
3065	1	involontaire	
3066	1	involontaires	
3067	1	inégalement	
3068	1	inévitable	
3069	1	irai	
3070	1	ironie	
3071	1	irritable	
3072	1	isoler	
3073	1	isolé	
3074	1	italie	
3075	1	italienne	
3076	1	italiens	
3077	1	ix	
3078	1	jacques	
3079	1	jaillir	
3080	1	jalousie	
3081	1	jauger	
3082	1	jaunes	
3083	1	jetaient	
3084	1	jetée	
3085	1	jeûnes	
3086	1	joies	
3087	1	joindre	
3088	1	joli	
3089	1	joue	
3090	1	jouissance	
3091	1	jouissances	
3092	1	joutant	
3093	1	judas	
3094	1	judiciaires	
3095	1	juge	
3096	1	jugea	
3097	1	jugé	
3098	1	jugés	
3099	1	juifs	
3100	1	juillet	
3101	1	jurisprudence	
3102	1	justaucorps	
3103	1	justifieront	
3104	1	juvénal	
3105	1	labeurs	
3106	1	ladre	
3107	1	ladrerie	
3108	1	laide	
3109	1	laine	
3110	1	laissaient	
3111	1	laissons	
3112	1	laissèrent	
3113	1	laissé	
3114	1	lambrissée	
3115	1	lancer	
3116	1	lancèrent	
3117	1	langoureux	
3118	1	lança	
3119	1	lançait	
3120	1	laps	
3121	1	larcins	
3122	1	larges	
3123	1	larron	
3124	1	lasser	
3125	1	latérale	
3126	1	lecteurs	
3127	1	lents	
3128	1	lesquelles	
3129	1	levait	
3130	1	levant	
3131	1	liaisons	
3132	1	libera	
3133	1	libre	
3134	1	libéralement	
3135	1	lice	
3136	1	licencieux	
3137	1	lieues	
3138	1	lieux	
3139	1	lion	
3140	1	litige	
3141	1	lits	
3142	1	livrant	
3143	1	lièrent	
3144	1	lié	
3145	1	liées	
3146	1	liéven	
3147	1	localités	
3148	1	locataires	
3149	1	logeaient	
3150	1	logement	
3151	1	logements	
3152	1	logeât	
3153	1	lointaines	
3154	1	lors	
3155	1	louait	
3156	1	loup	
3157	1	lourde	
3158	1	lucide	
3159	1	lueurs	
3160	1	luminaires	
3161	1	luttant	
3162	1	luxe	
3163	1	lèse	
3164	1	légers	
3165	1	légion	
3166	1	légué	
3167	1	léproserie	
3168	1	magnifiquement	
3169	1	maigrie	
3170	1	maigrissez	
3171	1	maille	
3172	1	maintenant	
3173	1	maintenue	
3174	1	majestueux	
3175	1	maladive	
3176	1	malandrin	
3177	1	malheureuse	
3178	1	malheurs	
3179	1	malmaison	
3180	1	malo	
3181	1	mandé	
3182	1	mangeant	
3183	1	mangerai	
3184	1	manifestée	
3185	1	manières	
3186	1	manqua	
3187	1	manquer	
3188	1	manquerait	
3189	1	manquerons	
3190	1	manqué	
3191	1	manège	
3192	1	marbre	
3193	1	marbres	
3194	1	marc	
3195	1	marcha	
3196	1	marchait	
3197	1	marchands	
3198	1	mariaient	
3199	1	marient	
3200	1	marmot	
3201	1	marques	
3202	1	marteau	
3203	1	masque	
3204	1	masques	
3205	1	masquée	
3206	1	masses	
3207	1	matins	
3208	1	matérialisée	
3209	1	maudit	
3210	1	maudite	
3211	1	mauvaise	
3212	1	maux	
3213	1	maîtres	
3214	1	meilleur	
3215	1	mena	
3216	1	mentir	
3217	1	merles	
3218	1	merveille	
3219	1	merveilles	
3220	1	messire	
3221	1	mesure	
3222	1	mets	
3223	1	mettent	
3224	1	mettrait	
3225	1	meubles	
3226	1	meurtrier	
3227	1	meute	
3228	1	mi	
3229	1	mie	
3230	1	mien	
3231	1	mignonne	
3232	1	mince	
3233	1	minces	
3234	1	miracles	
3235	1	miroitée	
3236	1	misanthropie	
3237	1	misérables	
3238	1	moderne	
3239	1	modestement	
3240	1	modéré	
3241	1	moindres	
3242	1	mois	
3243	1	momentanée	
3244	1	monarchie	
3245	1	montait	
3246	1	montant	
3247	1	montent	
3248	1	monter	
3249	1	montez	
3250	1	montoir	
3251	1	montures	
3252	1	montèrent	
3253	1	montés	
3254	1	moquait	
3255	1	moquez	
3256	1	moral	
3257	1	mortel	
3258	1	mortels	
3259	1	morts	
3260	1	motif	
3261	1	mouillé	
3262	1	mouillés	
3263	1	moule	
3264	1	mourant	
3265	1	mourut	
3266	1	moustaches	
3267	1	mouvements	
3268	1	mouvoir	
3269	1	muet	
3270	1	muette	
3271	1	muettes	
3272	1	mules	
3273	1	muletier	
3274	1	mur	
3275	1	muraille	
3276	1	murmure	
3277	1	museau	
3278	1	mutuel	
3279	1	mutuelle	
3280	1	myrobolan	
3281	1	myrrhe	
3282	1	mystique	
3283	1	mystère	
3284	1	mystérieux	
3285	1	mèche	
3286	1	mécanisme	
3287	1	médailles	
3288	1	médecins	
3289	1	médicis	
3290	1	médisance	
3291	1	méditant	
3292	1	méditation	
3293	1	méditations	
3294	1	méfiant	
3295	1	mégarde	
3296	1	mélancolie	
3297	1	mélanges	
3298	1	mélodies	
3299	1	mémoires	
3300	1	ménager	
3301	1	ménagère	
3302	1	ménagé	
3303	1	ménagées	
3304	1	mérité	
3305	1	métal	
3306	1	mêlaient	
3307	1	mêlait	
3308	1	mêle	
3309	1	mêler	
3310	1	mêlèrent	
3311	1	mêlé	
3312	1	mêmes	
3313	1	mœurs	
3314	1	nappe	
3315	1	nappes	
3316	1	narrateurs	
3317	1	naturalisa	
3318	1	naturelle	
3319	1	naturellement	
3320	1	naïvement	
3321	1	naïves	
3322	1	naïveté	
3323	1	nef	
3324	1	nenni	
3325	1	nerfs	
3326	1	nerveux	
3327	1	nette	
3328	1	nettoyer	
3329	1	neutralisées	
3330	1	neuvième	
3331	1	nobles	
3332	1	noblesse	
3333	1	noctambules	
3334	1	noirci	
3335	1	noirs	
3336	1	noisette	
3337	1	noix	
3338	1	nommant	
3339	1	nommes	
3340	1	nommèrent	
3341	1	nord	
3342	1	notables	
3343	1	notamment	
3344	1	notes	
3345	1	nourrice	
3346	1	nouveaux	
3347	1	nouvelles	
3348	1	novembre	
3349	1	novice	
3350	1	nuage	
3351	1	nuise	
3352	1	nuits	
3353	1	négligez	
3354	1	négociant	
3355	1	négociations	
3356	1	obligeait	
3357	1	obliger	
3358	1	obscurs	
3359	1	observa	
3360	1	observance	
3361	1	observateurs	
3362	1	observations	
3363	1	observés	
3364	1	obstruait	
3365	1	obtint	
3366	1	obéir	
3367	1	obéissait	
3368	1	obéissant	
3369	1	occidentale	
3370	1	occupation	
3371	1	occupations	
3372	1	occuper	
3373	1	occupé	
3374	1	occupée	
3375	1	occupés	
3376	1	occurrence	
3377	1	octroyait	
3378	1	océan	
3379	1	offensé	
3380	1	offensée	
3381	1	offraient	
3382	1	offrandes	
3383	1	ogre	
3384	1	oie	
3385	1	ombrage	
3386	1	ombrages	
3387	1	ombres	
3388	1	onze	
3389	1	onzième	
3390	1	opinion	
3391	1	oppositions	
3392	1	opéra	
3393	1	opération	
3394	1	ordinaire	
3395	1	ordonne	
3396	1	ordonnez	
3397	1	orfèvres	
3398	1	orientale	
3399	1	orientales	
3400	1	ornaient	
3401	1	ornements	
3402	1	orner	
3403	1	ornées	
3404	1	os	
3405	1	osa	
3406	1	osait	
3407	1	oser	
3408	1	osseuse	
3409	1	osât	
3410	1	osé	
3411	1	oublier	
3412	1	oublié	
3413	1	ouest	
3414	1	outre	
3415	1	ouvert	
3416	1	ouvertes	
3417	1	ouverts	
3418	1	ouvertures	
3419	1	ouvrent	
3420	1	ouvrir	
3421	1	pacte	
3422	1	pactes	
3423	1	paieraient	
3424	1	paierais	
3425	1	pain	
3426	1	palais	
3427	1	palpitante	
3428	1	pan	
3429	1	panacée	
3430	1	panique	
3431	1	pantoufles	
3432	1	pape	
3433	1	paraîtraient	
3434	1	parchons	
3435	1	parcimonie	
3436	1	parfaite	
3437	1	parfums	
3438	1	paris	
3439	1	parlait	
3440	1	parle	
3441	1	parlé	
3442	1	parmi	
3443	1	paroisse	
3444	1	paroxysmes	
3445	1	parricide	
3446	1	partage	
3447	1	partant	
3448	1	parti	
3449	1	parties	
3450	1	partir	
3451	1	partirez	
3452	1	parurent	
3453	1	parvenir	
3454	1	parviendrait	
3455	1	passez	
3456	1	passionné	
3457	1	passionnément	
3458	1	passions	
3459	1	patience	
3460	1	patriotisme	
3461	1	paupières	
3462	1	peau	
3463	1	peines	
3464	1	peint	
3465	1	peinte	
3466	1	peintre	
3467	1	penchant	
3468	1	penchée	
3469	1	pendez	
3470	1	penser	
3471	1	pensez	
3472	1	pensèrent	
3473	1	pensé	
3474	1	percer	
3475	1	perclus	
3476	1	percées	
3477	1	perdez	
3478	1	perdre	
3479	1	perdus	
3480	1	perfectionnée	
3481	1	permet	
3482	1	permettaient	
3483	1	permettait	
3484	1	permettre	
3485	1	permission	
3486	1	perpétuel	
3487	1	perpétuelles	
3488	1	perpétuité	
3489	1	perquisitions	
3490	1	persistèrent	
3491	1	personnages	
3492	1	personnifiées	
3493	1	persuadés	
3494	1	persécuteur	
3495	1	persécutions	
3496	1	perte	
3497	1	perverse	
3498	1	perçait	
3499	1	peste	
3500	1	pestiféré	
3501	1	pesé	
3502	1	peuples	
3503	1	peux	
3504	1	phrase	
3505	1	pieuses	
3506	1	pille	
3507	1	pillée	
3508	1	pinceau	
3509	1	piquet	
3510	1	pistolet	
3511	1	piteusement	
3512	1	pittoresques	
3513	1	piémont	
3514	1	placer	
3515	1	places	
3516	1	plafond	
3517	1	plaindre	
3518	1	plaint	
3519	1	plaintes	
3520	1	planaient	
3521	1	planait	
3522	1	planchers	
3523	1	plans	
3524	1	planta	
3525	1	planté	
3526	1	plantée	
3527	1	plantés	
3528	1	plaques	
3529	1	pleins	
3530	1	pleurait	
3531	1	pleurant	
3532	1	plexitium	
3533	1	pliés	
3534	1	plomb	
3535	1	plongeant	
3536	1	plonger	
3537	1	plumeau	
3538	1	plupart	
3539	1	pluviales	
3540	1	poches	
3541	1	poids	
3542	1	poignards	
3543	1	poils	
3544	1	points	
3545	1	politiques	
3546	1	pompes	
3547	1	pontife	
3548	1	populace	
3549	1	populaires	
3550	1	portaient	
3551	1	portant	
3552	1	portent	
3553	1	porter	
3554	1	portera	
3555	1	portière	
3556	1	portée	
3557	1	possesseur	
3558	1	possessions	
3559	1	possible	
3560	1	possèdent	
3561	1	poster	
3562	1	posé	
3563	1	pourpris	
3564	1	pourraient	
3565	1	pourrez	
3566	1	pourtant	
3567	1	poussait	
3568	1	poussant	
3569	1	pousser	
3570	1	poussèrent	
3571	1	poussé	
3572	1	pouvais	
3573	1	poétique	
3574	1	pratique	
3575	1	pratiques	
3576	1	pratiqué	
3577	1	pratiquée	
3578	1	prenant	
3579	1	prends	
3580	1	pressa	
3581	1	pressant	
3582	1	pressentiments	
3583	1	presser	
3584	1	pression	
3585	1	pressurait	
3586	1	prestesse	
3587	1	prier	
3588	1	prince	
3589	1	princes	
3590	1	prirent	
3591	1	prise	
3592	1	prisonnière	
3593	1	prisons	
3594	1	privilégiées	
3595	1	privé	
3596	1	prière	
3597	1	prières	
3598	1	probablement	
3599	1	problématique	
3600	1	processive	
3601	1	procura	
3602	1	procédure	
3603	1	prodigieuse	
3604	1	produisaient	
3605	1	produisait	
3606	1	profil	
3607	1	profiter	
3608	1	profondeur	
3609	1	profondément	
3610	1	progrès	
3611	1	projet	
3612	1	projetait	
3613	1	projetant	
3614	1	projets	
3615	1	projetée	
3616	1	prolonger	
3617	1	promena	
3618	1	promenade	
3619	1	promenait	
3620	1	promené	
3621	1	promettait	
3622	1	promises	
3623	1	promptitude	
3624	1	prononcés	
3625	1	prononça	
3626	1	proposition	
3627	1	propriétés	
3628	1	prosternées	
3629	1	protestant	
3630	1	protégé	
3631	1	protégés	
3632	1	prouver	
3633	1	proverbe	
3634	1	provinces	
3635	1	provision	
3636	1	provisoirement	
3637	1	prudent	
3638	1	précaution	
3639	1	précieuses	
3640	1	précipitait	
3641	1	précision	
3642	1	précède	
3643	1	précédemment	
3644	1	prédécesseurs	
3645	1	prélat	
3646	1	préoccupé	
3647	1	préparer	
3648	1	préparée	
3649	1	présentaient	
3650	1	présenter	
3651	1	président	
3652	1	présumait	
3653	1	présumer	
3654	1	prétendait	
3655	1	prévenante	
3656	1	prévenez	
3657	1	préviendra	
3658	1	prévôté	
3659	1	prêtait	
3660	1	prêtant	
3661	1	prêter	
3662	1	prêtât	
3663	1	prêté	
3664	1	prêtée	
3665	1	publicistes	
3666	1	puisque	
3667	1	puissamment	
3668	1	puissant	
3669	1	puissants	
3670	1	puisse	
3671	1	pulsations	
3672	1	punie	
3673	1	pâleur	
3674	1	pâlir	
3675	1	pâlissant	
3676	1	pâture	
3677	1	pénétrante	
3678	1	pénétré	
3679	1	péril	
3680	1	périlleuses	
3681	1	périr	
3682	1	périrons	
3683	1	périssons	
3684	1	périt	
3685	1	pétrifiée	
3686	1	pétrifiés	
3687	1	quarante	
3688	1	quarroir	
3689	1	quart	
3690	1	quarts	
3691	1	quelqu	
3692	1	quelquefois	
3693	1	quentin	
3694	1	questionnait	
3695	1	questions	
3696	1	queue	
3697	1	quinzième	
3698	1	quitta	
3699	1	quittaient	
3700	1	quittait	
3701	1	quittèrent	
3702	1	quitté	
3703	1	quoiqu	
3704	1	quolibets	
3705	1	quérir	
3706	1	quête	
3707	1	racontait	
3708	1	racontez	
3709	1	railleuse	
3710	1	raisons	
3711	1	ramassé	
3712	1	ramenait	
3713	1	ramènent	
3714	1	ramènerai	
3715	1	rangé	
3716	1	ranimé	
3717	1	rapide	
3718	1	rapidement	
3719	1	rapides	
3720	1	rapidité	
3721	1	rappela	
3722	1	rappelant	
3723	1	rapporter	
3724	1	rassembla	
3725	1	rassembler	
3726	1	rassurez	
3727	1	ravisseur	
3728	1	rayon	
3729	1	rayons	
3730	1	rebec	
3731	1	recevaient	
3732	1	recommanda	
3733	1	recommandation	
3734	1	reconduisant	
3735	1	reconnaissance	
3736	1	reconnu	
3737	1	recouvrer	
3738	1	recueillie	
3739	1	reculant	
3740	1	redemandant	
3741	1	redevances	
3742	1	redonnera	
3743	1	redoubleraient	
3744	1	redoutait	
3745	1	reflua	
3746	1	refoulaient	
3747	1	regardée	
3748	1	rehaussaient	
3749	1	rehausser	
3750	1	rejeta	
3751	1	rejetaient	
3752	1	rejetèrent	
3753	1	rejoignirent	
3754	1	relativement	
3755	1	releva	
3756	1	relevé	
3757	1	reliefs	
3758	1	reluisaient	
3759	1	remarquable	
3760	1	remarquant	
3761	1	remarquent	
3762	1	remarqué	
3763	1	rembrunir	
3764	1	remerciements	
3765	1	remercier	
3766	1	remettant	
3767	1	remirent	
3768	1	remis	
3769	1	remit	
3770	1	remonta	
3771	1	rempart	
3772	1	remua	
3773	1	remuée	
3774	1	renaissantes	
3775	1	rencontrer	
3776	1	rencontré	
3777	1	rendent	
3778	1	rendu	
3779	1	renferme	
3780	1	renoncer	
3781	1	rentrez	
3782	1	rentrée	
3783	1	repartit	
3784	1	reparut	
3785	1	repentant	
3786	1	replis	
3787	1	repos	
3788	1	reprenaient	
3789	1	reprises	
3790	1	reprocher	
3791	1	reproduire	
3792	1	représente	
3793	1	représenté	
3794	1	respect	
3795	1	respectent	
3796	1	respecter	
3797	1	respectives	
3798	1	respecté	
3799	1	respira	
3800	1	respiraient	
3801	1	respiration	
3802	1	ressaisit	
3803	1	ressemblant	
3804	1	ressemble	
3805	1	ressentit	
3806	1	restaient	
3807	1	restait	
3808	1	rester	
3809	1	restée	
3810	1	retenait	
3811	1	retentissait	
3812	1	retint	
3813	1	retira	
3814	1	retirez	
3815	1	retirèrent	
3816	1	retourner	
3817	1	retournez	
3818	1	retourné	
3819	1	retrait	
3820	1	retraite	
3821	1	retraites	
3822	1	retrouverons	
3823	1	revenant	
3824	1	revenir	
3825	1	reviendrai	
3826	1	reviendrez	
3827	1	revoir	
3828	1	reçu	
3829	1	reçue	
3830	1	reçut	
3831	1	riait	
3832	1	ricanant	
3833	1	riche	
3834	1	ridés	
3835	1	rieuse	
3836	1	rigolait	
3837	1	risquait	
3838	1	rivières	
3839	1	rober	
3840	1	roide	
3841	1	romanciers	
3842	1	romanesques	
3843	1	ronflements	
3844	1	rongé	
3845	1	rouges	
3846	1	rougir	
3847	1	rougissant	
3848	1	rougit	
3849	1	roulaient	
3850	1	roulèrent	
3851	1	royalement	
3852	1	royales	
3853	1	rubriques	
3854	1	rudes	
3855	1	rugissement	
3856	1	ruiner	
3857	1	rumb	
3858	1	rumeurs	
3859	1	rusée	
3860	1	rusés	
3861	1	réagit	
3862	1	réalité	
3863	1	réappliqués	
3864	1	récit	
3865	1	récits	
3866	1	réclamer	
3867	1	récompense	
3868	1	récompenser	
3869	1	récompenses	
3870	1	réelle	
3871	1	réellement	
3872	1	réflexion	
3873	1	régulièrement	
3874	1	réjouissent	
3875	1	répandent	
3876	1	répandez	
3877	1	répandit	
3878	1	répercutait	
3879	1	répond	
3880	1	répondirent	
3881	1	répondre	
3882	1	réponds	
3883	1	répondu	
3884	1	répons	
3885	1	réprimé	
3886	1	répugnance	
3887	1	réputé	
3888	1	répéta	
3889	1	répétaient	
3890	1	réserve	
3891	1	réservée	
3892	1	résistaient	
3893	1	résistait	
3894	1	résistance	
3895	1	résisté	
3896	1	résoudre	
3897	1	résultat	
3898	1	résumé	
3899	1	réuni	
3900	1	réunissaient	
3901	1	réunissant	
3902	1	réussissait	
3903	1	réveille	
3904	1	réveillons	
3905	1	réveillés	
3906	1	révolutions	
3907	1	révélerai	
3908	1	révérence	
3909	1	rêveur	
3910	1	rêvée	
3911	1	rôti	
3912	1	rôtisseries	
3913	1	sabbat	
3914	1	sac	
3915	1	saché	
3916	1	sacrifices	
3917	1	sacrifier	
3918	1	saillants	
3919	1	saintement	
3920	1	saints	
3921	1	saisi	
3922	1	saisie	
3923	1	saisir	
3924	1	saisirent	
3925	1	saisissant	
3926	1	sale	
3927	1	sanglant	
3928	1	sanglots	
3929	1	santé	
3930	1	sardanapale	
3931	1	sardonique	
3932	1	sardoniques	
3933	1	satisfaire	
3934	1	satisfaite	
3935	1	sauce	
3936	1	saurais	
3937	1	saurait	
3938	1	saurons	
3939	1	sautaient	
3940	1	sauter	
3941	1	sauté	
3942	1	sauvera	
3943	1	sauvés	
3944	1	savamment	
3945	1	savant	
3946	1	savantes	
3947	1	savourant	
3948	1	savouré	
3949	1	sceaux	
3950	1	scie	
3951	1	science	
3952	1	scier	
3953	1	sculpture	
3954	1	sculptures	
3955	1	sculpté	
3956	1	sculptée	
3957	1	sculptées	
3958	1	sculptés	
3959	1	scène	
3960	1	scélérat	
3961	1	seconde	
3962	1	secoua	
3963	1	secousse	
3964	1	secrétaire	
3965	1	secula	
3966	1	seculorum	
3967	1	seigneuriales	
3968	1	sein	
3969	1	seing	
3970	1	sel	
3971	1	semaine	
3972	1	semblançay	
3973	1	semblent	
3974	1	semelle	
3975	1	sent	
3976	1	sentiment	
3977	1	septième	
3978	1	septérée	
3979	1	sequins	
3980	1	serez	
3981	1	serf	
3982	1	sergent	
3983	1	seriez	
3984	1	serions	
3985	1	sermon	
3986	1	serons	
3987	1	serra	
3988	1	serrer	
3989	1	serruriers	
3990	1	serviteurs	
3991	1	seuil	
3992	1	sibylle	
3993	1	sien	
3994	1	siennes	
3995	1	sieur	
3996	1	sifflant	
3997	1	sifflement	
3998	1	signes	
3999	1	signification	
4000	1	silences	
4001	1	silencieuses	
4002	1	sillonné	
4003	1	sillonnées	
4004	1	simonie	
4005	1	simples	
4006	1	singuliers	
4007	1	singulièrement	
4008	1	sites	
4009	1	situé	
4010	1	située	
4011	1	situés	
4012	1	société	
4013	1	soi	
4014	1	soignés	
4015	1	soldats	
4016	1	soleil	
4017	1	solennelle	
4018	1	solennelles	
4019	1	solides	
4020	1	solitaire	
4021	1	solitude	
4022	1	solives	
4023	1	sollicitant	
4024	1	sollicitations	
4025	1	sommaire	
4026	1	sommaires	
4027	1	sommeillé	
4028	1	somptueuse	
4029	1	somptueusement	
4030	1	songes	
4031	1	sonna	
4032	1	sons	
4033	1	sorciers	
4034	1	sorcière	
4035	1	sornettes	
4036	1	sortait	
4037	1	sortant	
4038	1	sortes	
4039	1	sortez	
4040	1	sortis	
4041	1	sot	
4042	1	soucier	
4043	1	soucieuse	
4044	1	soudains	
4045	1	souffert	
4046	1	soufflant	
4047	1	souillés	
4048	1	soupait	
4049	1	soupant	
4050	1	souperait	
4051	1	souperont	
4052	1	soupez	
4053	1	soupirs	
4054	1	soupçon	
4055	1	soupçonna	
4056	1	soupçonnait	
4057	1	source	
4058	1	sourds	
4059	1	sourires	
4060	1	souris	
4061	1	sourit	
4062	1	souterrain	
4063	1	soutient	
4064	1	souveraine	
4065	1	souveraines	
4066	1	souverains	
4067	1	soyez	
4068	1	spectre	
4069	1	spiritualité	
4070	1	statues	
4071	1	stipulé	
4072	1	studieuse	
4073	1	suait	
4074	1	subir	
4075	1	subit	
4076	1	sublimes	
4077	1	sublimités	
4078	1	subsista	
4079	1	subsistait	
4080	1	subsiste	
4081	1	substance	
4082	1	substitué	
4083	1	succession	
4084	1	succomber	
4085	1	suffisaient	
4086	1	suffisamment	
4087	1	suffit	
4088	1	suicide	
4089	1	suie	
4090	1	suite	
4091	1	suivis	
4092	1	suivre	
4093	1	superficiels	
4094	1	suppliait	
4095	1	supposa	
4096	1	suppositions	
4097	1	supérieures	
4098	1	supérieurs	
4099	1	supériorité	
4100	1	surfait	
4101	1	surmontée	
4102	1	surnaturels	
4103	1	surpassait	
4104	1	surprenait	
4105	1	surprise	
4106	1	surprit	
4107	1	surseoir	
4108	1	surveiller	
4109	1	suspendue	
4110	1	svelte	
4111	1	sympathies	
4112	1	sympathisaient	
4113	1	sèches	
4114	1	séant	
4115	1	sécurité	
4116	1	sédition	
4117	1	séditions	
4118	1	séjour	
4119	1	séparaient	
4120	1	séparait	
4121	1	séparé	
4122	1	séparées	
4123	1	séquestre	
4124	1	sérieux	
4125	1	sévèrement	
4126	1	sévères	
4127	1	sûrement	
4128	1	sûretés	
4129	1	taie	
4130	1	taille	
4131	1	tailleur	
4132	1	taillée	
4133	1	tais	
4134	1	taisaient	
4135	1	talent	
4136	1	tannée	
4137	1	tapi	
4138	1	tapisseries	
4139	1	tapissée	
4140	1	tapissés	
4141	1	taux	
4142	1	teignaient	
4143	1	teint	
4144	1	telles	
4145	1	tempes	
4146	1	tenant	
4147	1	tendant	
4148	1	tendit	
4149	1	tendre	
4150	1	tendues	
4151	1	tendus	
4152	1	tenons	
4153	1	tenta	
4154	1	tentatives	
4155	1	tentent	
4156	1	tenter	
4157	1	tenté	
4158	1	terminé	
4159	1	terreurs	
4160	1	terribles	
4161	1	terriers	
4162	1	thésauriser	
4163	1	tiers	
4164	1	tigre	
4165	1	timidement	
4166	1	tireras	
4167	1	tiretaine	
4168	1	tissus	
4169	1	titre	
4170	1	toile	
4171	1	toisée	
4172	1	toiture	
4173	1	tomba	
4174	1	tombée	
4175	1	tombés	
4176	1	torches	
4177	1	torrent	
4178	1	tort	
4179	1	tortionneur	
4180	1	tortueuses	
4181	1	tortueux	
4182	1	torture	
4183	1	tortures	
4184	1	toucher	
4185	1	touchée	
4186	1	tourangeau	
4187	1	tourmenter	
4188	1	tourna	
4189	1	tournent	
4190	1	tourné	
4191	1	tournée	
4192	1	toutefois	
4193	1	tracés	
4194	1	trahison	
4195	1	trahissiez	
4196	1	train	
4197	1	traitant	
4198	1	traite	
4199	1	traitèrent	
4200	1	tranchant	
4201	1	tranquille	
4202	1	tranquillité	
4203	1	transactions	
4204	1	transmettre	
4205	1	trapes	
4206	1	traverser	
4207	1	traînée	
4208	1	trembla	
4209	1	tremblait	
4210	1	tremblante	
4211	1	tremblantes	
4212	1	trembler	
4213	1	trempant	
4214	1	tressaillant	
4215	1	triangulaires	
4216	1	tribunal	
4217	1	tricotait	
4218	1	tristes	
4219	1	tristesse	
4220	1	tristesses	
4221	1	tromper	
4222	1	trompes	
4223	1	trompé	
4224	1	trouble	
4225	1	troupe	
4226	1	troupes	
4227	1	trouverai	
4228	1	trouverez	
4229	1	trouves	
4230	1	trouvons	
4231	1	trouées	
4232	1	truchements	
4233	1	trébucher	
4234	1	trésorier	
4235	1	trônes	
4236	1	tuera	
4237	1	tuerai	
4238	1	tumulte	
4239	1	tuyau	
4240	1	tué	
4241	1	tympans	
4242	1	type	
4243	1	tyran	
4244	1	tyrans	
4245	1	tâchait	
4246	1	tâchez	
4247	1	tâter	
4248	1	tâtons	
4249	1	témoin	
4250	1	tôt	
4251	1	unie	
4252	1	union	
4253	1	uniquement	
4254	1	unis	
4255	1	universelle	
4256	1	ursins	
4257	1	usage	
4258	1	usez	
4259	1	usurier	
4260	1	utile	
4261	1	utiliser	
4262	1	vaincu	
4263	1	vaisseau	
4264	1	valeur	
4265	1	valu	
4266	1	vanité	
4267	1	vas	
4268	1	vassaux	
4269	1	vaste	
4270	1	vastes	
4271	1	veillait	
4272	1	veiller	
4273	1	veillerai	
4274	1	veilles	
4275	1	veillées	
4276	1	veines	
4277	1	venaient	
4278	1	vendre	
4279	1	vends	
4280	1	vengeât	
4281	1	venin	
4282	1	venons	
4283	1	vent	
4284	1	vermeil	
4285	1	vermiculées	
4286	1	verrez	
4287	1	versa	
4288	1	versez	
4289	1	verte	
4290	1	verticales	
4291	1	vertus	
4292	1	vestige	
4293	1	vibrations	
4294	1	vice	
4295	1	vices	
4296	1	victimes	
4297	1	victoire	
4298	1	vide	
4299	1	vieillissant	
4300	1	viendra	
4301	1	viennent	
4302	1	viens	
4303	1	vies	
4304	1	vigneron	
4305	1	vigoureusement	
4306	1	vigoureux	
4307	1	vii	
4308	1	villes	
4309	1	vin	
4310	1	vindicatif	
4311	1	violents	
4312	1	violer	
4313	1	violâtres	
4314	1	visibles	
4315	1	vision	
4316	1	visiter	
4317	1	visites	
4318	1	vitraux	
4319	1	vivace	
4320	1	vivaient	
4321	1	vivait	
4322	1	vivant	
4323	1	vive	
4324	1	vivent	
4325	1	voie	
4326	1	voile	
4327	1	voisines	
4328	1	voit	
4329	1	volerie	
4330	1	voleront	
4331	1	volontaires	
4332	1	volontés	
4333	1	voluptés	
4334	1	volées	
4335	1	volés	
4336	1	vont	
4337	1	voulais	
4338	1	vouliez	
4339	1	vouloirs	
4340	1	voulussent	
4341	1	voussures	
4342	1	vouée	
4343	1	voyage	
4344	1	voyageait	
4345	1	voyons	
4346	1	voûte	
4347	1	voûtée	
4348	1	vulgaire	
4349	1	vulgaires	
4350	1	vécut	
4351	1	vélin	
4352	1	vénérable	
4353	1	véracité	
4354	1	véritablement	
4355	1	vêpres	
4356	1	vêtir	
4357	1	vêtu	
4358	1	vôtre	
4359	1	vôtres	
4360	1	vœu	
4361	1	xancoings	
4362	1	ébats	
4363	1	écarter	
4364	1	échanson	
4365	1	échappait	
4366	1	échappât	
4367	1	échappèrent	
4368	1	éclair	
4369	1	éclaira	
4370	1	éclairaient	
4371	1	éclataient	
4372	1	économe	
4373	1	écossais	
4374	1	écossaises	
4375	1	écoulé	
4376	1	écouta	
4377	1	écoute	
4378	1	écoutes	
4379	1	écoutez	
4380	1	écoutèrent	
4381	1	écoutées	
4382	1	écrasait	
4383	1	écrasé	
4384	1	écrit	
4385	1	écrite	
4386	1	écrivain	
4387	1	écrivains	
4388	1	édentée	
4389	1	édifices	
4390	1	égale	
4391	1	égalité	
4392	1	égayait	
4393	1	égayer	
4394	1	égoïsme	
4395	1	égypte	
4396	1	élancent	
4397	1	élancé	
4398	1	électrique	
4399	1	élevaient	
4400	1	élevée	
4401	1	élevées	
4402	1	éloquence	
4403	1	élégant	
4404	1	émeute	
4405	1	émeutes	
4406	1	épais	
4407	1	épargne	
4408	1	éparses	
4409	1	épaule	
4410	1	épaules	
4411	1	épithète	
4412	1	épouse	
4413	1	épouvante	
4414	1	époux	
4415	1	épreuve	
4416	1	éprouver	
4417	1	éprouvée	
4418	1	épuise	
4419	1	épuisé	
4420	1	établissement	
4421	1	étain	
4422	1	étaler	
4423	1	états	
4424	1	éteignissent	
4425	1	éteinte	
4426	1	éteints	
4427	1	étendaient	
4428	1	étendre	
4429	1	étendu	
4430	1	éternité	
4431	1	étincelle	
4432	1	étoffes	
4433	1	étonnait	
4434	1	étonner	
4435	1	étouffaient	
4436	1	étouffent	
4437	1	étouffer	
4438	1	étranges	
4439	1	étreint	
4440	1	étroites	
4441	1	étude	
4442	1	étudiait	
4443	1	étudié	
4444	1	évadant	
4445	1	évanouit	
4446	1	éveilla	
4447	1	éveillât	
4448	1	éveillé	
4449	1	éventail	
4450	1	évidemment	
4451	1	éviter	
4452	1	œillade	
