#Word Types: 1800
#Word Tokens: 7667
#Search Hits: 0
1	256	je	
2	210	de	
3	183	et	
4	168	la	
5	157	à	
6	145	le	
7	119	un	
8	116	me	
9	111	les	
10	111	que	
11	104	qui	
12	101	une	
13	93	il	
14	82	l	
15	80	j	
16	77	d	
17	76	elle	
18	72	ce	
19	70	en	
20	69	qu	
21	68	comme	
22	62	dans	
23	60	ne	
24	58	vous	
25	57	est	
26	55	était	
27	48	des	
28	48	moi	
29	47	c	
30	47	m	
31	47	pas	
32	46	nous	
33	45	pour	
34	43	avait	
35	40	mon	
36	40	tu	
37	39	plus	
38	37	du	
39	37	n	
40	37	se	
41	37	tout	
42	36	cette	
43	33	ma	
44	33	sur	
45	30	dit	
46	30	y	
47	28	avec	
48	28	bien	
49	28	où	
50	27	au	
51	26	si	
52	25	dis	
53	25	mes	
54	25	on	
55	24	mais	
56	23	lui	
57	23	satan	
58	22	s	
59	20	encore	
60	19	ai	
61	19	quand	
62	19	sans	
63	19	suis	
64	18	a	
65	18	femme	
66	18	monde	
67	18	étais	
68	17	avais	
69	17	sa	
70	17	son	
71	17	te	
72	16	deux	
73	16	jour	
74	16	nuit	
75	16	temps	
76	15	car	
77	15	mort	
78	15	par	
79	15	soir	
80	15	yeux	
81	14	amour	
82	14	aux	
83	14	cela	
84	14	depuis	
85	14	même	
86	13	ces	
87	13	cœur	
88	13	fit	
89	13	froid	
90	13	ou	
91	13	puis	
92	13	toujours	
93	12	devant	
94	12	donc	
95	12	peu	
96	12	t	
97	11	chez	
98	11	enfin	
99	11	main	
100	11	moment	
101	11	non	
102	11	quelque	
103	11	rien	
104	11	toi	
105	11	tous	
106	11	être	
107	10	belle	
108	10	celui	
109	10	chose	
110	10	fait	
111	10	fois	
112	10	ses	
113	10	sont	
114	10	toutes	
115	10	vie	
116	9	autre	
117	9	cependant	
118	9	heure	
119	9	mains	
120	9	quelques	
121	9	sombre	
122	9	tête	
123	9	vis	
124	9	voir	
125	8	après	
126	8	avoir	
127	8	bras	
128	8	celle	
129	8	chambre	
130	8	dieu	
131	8	faire	
132	8	faut	
133	8	grande	
134	8	là	
135	8	moins	
136	8	monsieur	
137	8	personne	
138	8	pris	
139	8	seulement	
140	8	sourire	
141	8	trois	
142	8	étions	
143	8	êtes	
144	7	autres	
145	7	bal	
146	7	devait	
147	7	dire	
148	7	dont	
149	7	eût	
150	7	homme	
151	7	madame	
152	7	pâle	
153	7	seule	
154	7	sous	
155	7	voilà	
156	6	ange	
157	6	auprès	
158	6	aussi	
159	6	beaucoup	
160	6	bientôt	
161	6	calme	
162	6	cher	
163	6	côté	
164	6	douleur	
165	6	eh	
166	6	eu	
167	6	fou	
168	6	glace	
169	6	ils	
170	6	instant	
171	6	jours	
172	6	lampe	
173	6	lequel	
174	6	lèvres	
175	6	mère	
176	6	notre	
177	6	objets	
178	6	pensée	
179	6	regard	
180	6	reprit	
181	6	silence	
182	6	tombe	
183	6	toute	
184	6	trop	
185	6	âme	
186	6	étaient	
187	5	air	
188	5	allait	
189	5	as	
190	5	assez	
191	5	aujourd	
192	5	autour	
193	5	blessure	
194	5	bruit	
195	5	cent	
196	5	chaque	
197	5	cimetière	
198	5	clarté	
199	5	comprends	
200	5	donne	
201	5	fantastique	
202	5	feu	
203	5	fus	
204	5	fût	
205	5	hui	
206	5	jamais	
207	5	lendemain	
208	5	longtemps	
209	5	nom	
210	5	passer	
211	5	passion	
212	5	peur	
213	5	peut	
214	5	peux	
215	5	pieds	
216	5	poitrine	
217	5	porte	
218	5	pouvais	
219	5	première	
220	5	près	
221	5	répondit	
222	5	semblait	
223	5	seul	
224	5	tant	
225	5	terre	
226	5	travers	
227	5	trouvai	
228	5	veux	
229	5	vingt	
230	5	vint	
231	5	voix	
232	5	volupté	
233	5	éternité	
234	5	été	
235	4	ainsi	
236	4	aller	
237	4	ami	
238	4	autant	
239	4	avez	
240	4	battait	
241	4	beau	
242	4	boudoir	
243	4	cause	
244	4	cet	
245	4	choses	
246	4	ciel	
247	4	corps	
248	4	crois	
249	4	croyais	
250	4	danser	
251	4	dehors	
252	4	demi	
253	4	dernière	
254	4	domestique	
255	4	déjà	
256	4	elles	
257	4	entendre	
258	4	faisait	
259	4	fenêtre	
260	4	fis	
261	4	flamme	
262	4	fut	
263	4	gens	
264	4	grands	
265	4	heures	
266	4	hommes	
267	4	jeune	
268	4	jeunes	
269	4	laquelle	
270	4	linceul	
271	4	lit	
272	4	long	
273	4	malade	
274	4	masque	
275	4	maîtresse	
276	4	mille	
277	4	mis	
278	4	mots	
279	4	mémoires	
280	4	or	
281	4	passai	
282	4	puisque	
283	4	punch	
284	4	pur	
285	4	regardant	
286	4	sais	
287	4	semblaient	
288	4	six	
289	4	souffre	
290	4	tendit	
291	4	tes	
292	4	triste	
293	4	veille	
294	4	vient	
295	4	visage	
296	4	voici	
297	4	vue	
298	4	étrange	
299	3	aime	
300	3	allons	
301	3	amant	
302	3	amis	
303	3	ans	
304	3	arriverons	
305	3	arrivée	
306	3	assis	
307	3	atelier	
308	3	attendre	
309	3	attends	
310	3	aucun	
311	3	aurait	
312	3	avaient	
313	3	ayant	
314	3	beauté	
315	3	besoin	
316	3	bibliothèque	
317	3	bonheur	
318	3	bouche	
319	3	carcassonne	
320	3	chagrin	
321	3	chercher	
322	3	combien	
323	3	commença	
324	3	compte	
325	3	conditions	
326	3	continua	
327	3	contre	
328	3	conversation	
329	3	costume	
330	3	coup	
331	3	dedans	
332	3	demain	
333	3	demander	
334	3	derrière	
335	3	donnait	
336	3	douleurs	
337	3	endormi	
338	3	endroit	
339	3	es	
340	3	europe	
341	3	fais	
342	3	faits	
343	3	feuilles	
344	3	fièvre	
345	3	foi	
346	3	fond	
347	3	front	
348	3	fère	
349	3	habillai	
350	3	hasard	
351	3	heureusement	
352	3	horrible	
353	3	impossible	
354	3	instants	
355	3	inventé	
356	3	jetait	
357	3	joie	
358	3	laissant	
359	3	lettre	
360	3	lune	
361	3	maison	
362	3	marcher	
363	3	marchions	
364	3	matin	
365	3	millions	
366	3	mit	
367	3	montrant	
368	3	morte	
369	3	médecin	
370	3	nos	
371	3	nuages	
372	3	obscurité	
373	3	ombre	
374	3	oublier	
375	3	oui	
376	3	ouvris	
377	3	parce	
378	3	parler	
379	3	partir	
380	3	partis	
381	3	partons	
382	3	passions	
383	3	peine	
384	3	peintre	
385	3	pendant	
386	3	pensées	
387	3	perron	
388	3	plein	
389	3	pluie	
390	3	portes	
391	3	pouvait	
392	3	poêle	
393	3	presque	
394	3	quant	
395	3	regarder	
396	3	rendre	
397	3	restai	
398	3	rêverie	
399	3	rêves	
400	3	sainte	
401	3	salon	
402	3	sang	
403	3	scellés	
404	3	seconde	
405	3	sembla	
406	3	sentis	
407	3	seuls	
408	3	ta	
409	3	tantôt	
410	3	ton	
411	3	vaste	
412	3	venir	
413	3	viens	
414	3	ville	
415	3	vos	
416	3	votre	
417	3	voyais	
418	3	écoute	
419	3	éprouvai	
420	2	admirable	
421	2	adressant	
422	2	aimes	
423	2	albâtre	
424	2	allai	
425	2	alors	
426	2	apparaissait	
427	2	arrivai	
428	2	arrivâmes	
429	2	arrêtai	
430	2	auparavant	
431	2	aurais	
432	2	auras	
433	2	aviez	
434	2	baisers	
435	2	beaux	
436	2	blanc	
437	2	blanche	
438	2	blancheur	
439	2	bois	
440	2	bol	
441	2	bougie	
442	2	branche	
443	2	brûlaient	
444	2	brûlait	
445	2	cadavre	
446	2	charmant	
447	2	chaste	
448	2	chemin	
449	2	cheminée	
450	2	cheveux	
451	2	complètement	
452	2	concierge	
453	2	conseillerais	
454	2	continuai	
455	2	continuait	
456	2	continue	
457	2	conviction	
458	2	coucher	
459	2	cri	
460	2	croix	
461	2	cuiller	
462	2	dame	
463	2	deviner	
464	2	disant	
465	2	disparu	
466	2	dix	
467	2	docteur	
468	2	doivent	
469	2	donner	
470	2	donnerais	
471	2	donnée	
472	2	dormais	
473	2	double	
474	2	dès	
475	2	effort	
476	2	effroi	
477	2	entendais	
478	2	entendis	
479	2	entendu	
480	2	entier	
481	2	entourait	
482	2	entra	
483	2	entraînai	
484	2	entre	
485	2	entrouverte	
486	2	environ	
487	2	escalier	
488	2	eus	
489	2	eut	
490	2	face	
491	2	faiblement	
492	2	faisant	
493	2	fallait	
494	2	fatal	
495	2	fausses	
496	2	fenêtres	
497	2	fermer	
498	2	fini	
499	2	fleurs	
500	2	forcé	
501	2	fort	
502	2	forte	
503	2	frappa	
504	2	froide	
505	2	gai	
506	2	glacé	
507	2	glaçait	
508	2	grand	
509	2	grandes	
510	2	habitude	
511	2	haïr	
512	2	henri	
513	2	heureux	
514	2	histoire	
515	2	hoffmann	
516	2	honneur	
517	2	horizon	
518	2	huit	
519	2	hâte	
520	2	hôtel	
521	2	ici	
522	2	ignore	
523	2	image	
524	2	impatient	
525	2	inconnue	
526	2	jusqu	
527	2	laissa	
528	2	laisse	
529	2	laisserait	
530	2	lancette	
531	2	larmes	
532	2	lettres	
533	2	leva	
534	2	levai	
535	2	lieu	
536	2	lisais	
537	2	lisait	
538	2	livre	
539	2	lorsque	
540	2	lu	
541	2	lus	
542	2	madone	
543	2	malgré	
544	2	manuscrit	
545	2	marches	
546	2	marchons	
547	2	membres	
548	2	merci	
549	2	mettre	
550	2	meurt	
551	2	minutes	
552	2	moments	
553	2	montai	
554	2	mot	
555	2	mouvement	
556	2	mouvoir	
557	2	mur	
558	2	murs	
559	2	mystérieuse	
560	2	mystérieux	
561	2	mêmes	
562	2	ni	
563	2	noir	
564	2	ordinairement	
565	2	oubli	
566	2	oubliai	
567	2	ouvrit	
568	2	p	
569	2	paradis	
570	2	pareil	
571	2	parfum	
572	2	paris	
573	2	parole	
574	2	paroles	
575	2	part	
576	2	partout	
577	2	parut	
578	2	parvins	
579	2	passé	
580	2	pauvre	
581	2	penchai	
582	2	pensant	
583	2	perd	
584	2	perdue	
585	2	petit	
586	2	pied	
587	2	place	
588	2	pleins	
589	2	pleurer	
590	2	plâtre	
591	2	portai	
592	2	pourquoi	
593	2	poussai	
594	2	premier	
595	2	prendre	
596	2	prends	
597	2	pressé	
598	2	prêt	
599	2	pâris	
600	2	quelle	
601	2	quitter	
602	2	quitté	
603	2	raconte	
604	2	raconter	
605	2	rayon	
606	2	reflet	
607	2	regardai	
608	2	regardais	
609	2	retourner	
610	2	retrouvant	
611	2	revis	
612	2	riant	
613	2	riche	
614	2	rideau	
615	2	robe	
616	2	rouge	
617	2	route	
618	2	rue	
619	2	rues	
620	2	réellement	
621	2	répliqua	
622	2	répondis	
623	2	répondre	
624	2	résurrection	
625	2	réveillai	
626	2	rêve	
627	2	rêver	
628	2	saigné	
629	2	saint	
630	2	saints	
631	2	salle	
632	2	savais	
633	2	sera	
634	2	serais	
635	2	serait	
636	2	service	
637	2	signature	
638	2	silencieuses	
639	2	siècle	
640	2	soie	
641	2	soins	
642	2	sois	
643	2	soleil	
644	2	sombres	
645	2	sommeil	
646	2	sonna	
647	2	sortie	
648	2	sortis	
649	2	souffrir	
650	2	souple	
651	2	sourdement	
652	2	souriant	
653	2	souvenir	
654	2	succède	
655	2	suite	
656	2	teintes	
657	2	telles	
658	2	terreur	
659	2	tomber	
660	2	tombes	
661	2	tour	
662	2	tourna	
663	2	traversai	
664	2	tristesse	
665	2	troublerait	
666	2	trouvé	
667	2	trésors	
668	2	va	
669	2	vais	
670	2	valser	
671	2	venais	
672	2	venu	
673	2	venues	
674	2	vers	
675	2	vestibule	
676	2	veut	
677	2	vide	
678	2	vieillard	
679	2	vierge	
680	2	vieux	
681	2	vinrent	
682	2	vite	
683	2	vitres	
684	2	vivre	
685	2	vois	
686	2	voyez	
687	2	vu	
688	2	âmes	
689	2	éblouissante	
690	2	éclairait	
691	2	écoutant	
692	2	écrivait	
693	2	émotion	
694	2	étonnant	
695	2	étonné	
696	1	abord	
697	1	abords	
698	1	abréger	
699	1	abîme	
700	1	accent	
701	1	accepte	
702	1	acceptât	
703	1	accompagnait	
704	1	accroché	
705	1	acheter	
706	1	admirai	
707	1	adultères	
708	1	affaiblissant	
709	1	affaires	
710	1	affirment	
711	1	affreuse	
712	1	affreux	
713	1	agenouillé	
714	1	agitée	
715	1	agrandir	
716	1	ah	
717	1	aile	
718	1	ailleurs	
719	1	aimante	
720	1	aimerait	
721	1	aimé	
722	1	ait	
723	1	ajoutez	
724	1	allant	
725	1	allumai	
726	1	allumant	
727	1	allumée	
728	1	allé	
729	1	amené	
730	1	amoncelées	
731	1	amoureux	
732	1	amusai	
733	1	amusé	
734	1	an	
735	1	ancienne	
736	1	anges	
737	1	angélique	
738	1	animée	
739	1	annoncer	
740	1	années	
741	1	anonymes	
742	1	antichambre	
743	1	antoine	
744	1	aperçus	
745	1	aperçut	
746	1	apparaissions	
747	1	appela	
748	1	appelait	
749	1	appeler	
750	1	appelle	
751	1	appelé	
752	1	apportant	
753	1	apporter	
754	1	apprenne	
755	1	approchai	
756	1	approchent	
757	1	appuyée	
758	1	arbres	
759	1	ardente	
760	1	argent	
761	1	aristocratique	
762	1	armée	
763	1	arrive	
764	1	arriver	
765	1	arrivé	
766	1	arrivés	
767	1	arrête	
768	1	arrêterait	
769	1	articuler	
770	1	aspect	
771	1	assassinats	
772	1	asseoir	
773	1	assurer	
774	1	ateliers	
775	1	athée	
776	1	atteigne	
777	1	attendaient	
778	1	attendais	
779	1	attendis	
780	1	attendu	
781	1	attention	
782	1	attentivement	
783	1	attira	
784	1	attractif	
785	1	aucune	
786	1	aura	
787	1	auréoles	
788	1	autel	
789	1	auteurs	
790	1	autographe	
791	1	autrement	
792	1	avancer	
793	1	avant	
794	1	avenir	
795	1	avons	
796	1	avouer	
797	1	avouerai	
798	1	avouât	
799	1	aînée	
800	1	bacchante	
801	1	bacchantes	
802	1	bals	
803	1	barbe	
804	1	basse	
805	1	battement	
806	1	battements	
807	1	beautés	
808	1	bise	
809	1	blafard	
810	1	blanches	
811	1	blancs	
812	1	blasphémant	
813	1	bleue	
814	1	bleus	
815	1	blâme	
816	1	bonne	
817	1	bonnement	
818	1	bougies	
819	1	bout	
820	1	branches	
821	1	brillaient	
822	1	brillants	
823	1	brise	
824	1	briser	
825	1	bruissement	
826	1	brumeux	
827	1	brûla	
828	1	but	
829	1	bénéfice	
830	1	cacher	
831	1	caché	
832	1	cachée	
833	1	cadavres	
834	1	calcule	
835	1	campagne	
836	1	candeur	
837	1	capable	
838	1	capitalistes	
839	1	caractère	
840	1	caresses	
841	1	caricatures	
842	1	cassé	
843	1	catalogue	
844	1	causant	
845	1	causer	
846	1	causerait	
847	1	causeuse	
848	1	ceci	
849	1	celles	
850	1	centimes	
851	1	cents	
852	1	cessa	
853	1	cesse	
854	1	cesser	
855	1	ceux	
856	1	chacun	
857	1	chagrins	
858	1	chaleur	
859	1	charité	
860	1	charmante	
861	1	charmantes	
862	1	chemise	
863	1	cherchai	
864	1	chevet	
865	1	choisir	
866	1	christ	
867	1	chrétien	
868	1	ci	
869	1	cicatrise	
870	1	cigares	
871	1	cigarettes	
872	1	cinq	
873	1	circonstance	
874	1	clef	
875	1	closes	
876	1	cloué	
877	1	coin	
878	1	colonnes	
879	1	comble	
880	1	commencement	
881	1	comment	
882	1	commotion	
883	1	compagnon	
884	1	complète	
885	1	complétait	
886	1	complété	
887	1	comprenais	
888	1	comprend	
889	1	comprennent	
890	1	comptais	
891	1	comptant	
892	1	compter	
893	1	compté	
894	1	concis	
895	1	condamner	
896	1	conduira	
897	1	conduis	
898	1	confondent	
899	1	confondus	
900	1	confusément	
901	1	connaissances	
902	1	connaître	
903	1	connue	
904	1	conquérant	
905	1	consolant	
906	1	consoler	
907	1	consolez	
908	1	conte	
909	1	contents	
910	1	continuel	
911	1	contredanse	
912	1	convulsivement	
913	1	conçus	
914	1	copiés	
915	1	coquettement	
916	1	corail	
917	1	cou	
918	1	couché	
919	1	coudes	
920	1	coula	
921	1	cour	
922	1	courir	
923	1	couronne	
924	1	courtisane	
925	1	courus	
926	1	couvert	
927	1	craquer	
928	1	creuses	
929	1	crier	
930	1	crime	
931	1	croire	
932	1	croit	
933	1	croyait	
934	1	croyant	
935	1	crus	
936	1	créations	
937	1	créés	
938	1	curiosité	
939	1	damnent	
940	1	danger	
941	1	dansait	
942	1	danse	
943	1	davantage	
944	1	debout	
945	1	demandai	
946	1	demande	
947	1	demeurant	
948	1	demeure	
949	1	demeurer	
950	1	demie	
951	1	dents	
952	1	descendait	
953	1	descendîmes	
954	1	dessinaient	
955	1	dessus	
956	1	devenaient	
957	1	devenir	
958	1	devenus	
959	1	devez	
960	1	deviendrait	
961	1	devine	
962	1	diable	
963	1	dictame	
964	1	disais	
965	1	discours	
966	1	disiez	
967	1	disparaissait	
968	1	disparaissent	
969	1	disparut	
970	1	disposé	
971	1	divin	
972	1	domestiques	
973	1	don	
974	1	donnerait	
975	1	donnerez	
976	1	donnez	
977	1	dormi	
978	1	dormir	
979	1	dors	
980	1	dorés	
981	1	douane	
982	1	doublement	
983	1	doucement	
984	1	douloureusement	
985	1	doutai	
986	1	doute	
987	1	douteuse	
988	1	douteux	
989	1	douze	
990	1	draps	
991	1	droit	
992	1	droite	
993	1	duquel	
994	1	dura	
995	1	décembre	
996	1	décharnées	
997	1	décidément	
998	1	décrire	
999	1	déesse	
1000	1	défaut	
1001	1	défendues	
1002	1	dégénérés	
1003	1	délicatesse	
1004	1	délire	
1005	1	démons	
1006	1	dépeint	
1007	1	dépeuplée	
1008	1	dérangées	
1009	1	déroulant	
1010	1	déroulés	
1011	1	désabonnerons	
1012	1	déserte	
1013	1	désertes	
1014	1	déserts	
1015	1	désir	
1016	1	désire	
1017	1	désolée	
1018	1	détacher	
1019	1	détails	
1020	1	dît	
1021	1	effet	
1022	1	effraction	
1023	1	effrayante	
1024	1	effronté	
1025	1	emporta	
1026	1	emportait	
1027	1	empreintes	
1028	1	emprisonnant	
1029	1	emprunté	
1030	1	empêche	
1031	1	enchantement	
1032	1	enchaînent	
1033	1	endormis	
1034	1	endormit	
1035	1	enfance	
1036	1	enfants	
1037	1	enfer	
1038	1	enfermait	
1039	1	enfoncés	
1040	1	enivrantes	
1041	1	enivrer	
1042	1	ennuyeux	
1043	1	enragé	
1044	1	ensemble	
1045	1	enseveli	
1046	1	enterre	
1047	1	entière	
1048	1	entourent	
1049	1	entouré	
1050	1	entourée	
1051	1	entrer	
1052	1	entrons	
1053	1	entrâmes	
1054	1	enveloppe	
1055	1	envie	
1056	1	environnants	
1057	1	envoie	
1058	1	envoler	
1059	1	envoyé	
1060	1	escarboucles	
1061	1	espérait	
1062	1	espérer	
1063	1	esquisse	
1064	1	essayant	
1065	1	essuie	
1066	1	eusse	
1067	1	eux	
1068	1	exactement	
1069	1	excepté	
1070	1	excuser	
1071	1	exemple	
1072	1	existaient	
1073	1	existent	
1074	1	exquis	
1075	1	extase	
1076	1	fabien	
1077	1	faible	
1078	1	faisiez	
1079	1	faites	
1080	1	fallu	
1081	1	fasse	
1082	1	fatigue	
1083	1	fatigué	
1084	1	faubourg	
1085	1	femmes	
1086	1	ferai	
1087	1	feraient	
1088	1	ferais	
1089	1	ferait	
1090	1	fermant	
1091	1	fermèrent	
1092	1	fermés	
1093	1	feux	
1094	1	figures	
1095	1	figurez	
1096	1	fille	
1097	1	filles	
1098	1	fils	
1099	1	filtrait	
1100	1	finie	
1101	1	finir	
1102	1	fixement	
1103	1	fixes	
1104	1	fixés	
1105	1	fièvres	
1106	1	fiévreuse	
1107	1	flot	
1108	1	folie	
1109	1	folles	
1110	1	forces	
1111	1	formant	
1112	1	forme	
1113	1	formes	
1114	1	fortune	
1115	1	fosse	
1116	1	fougue	
1117	1	fouilles	
1118	1	foulé	
1119	1	frais	
1120	1	franchissais	
1121	1	fraîches	
1122	1	frisson	
1123	1	froids	
1124	1	frottai	
1125	1	fumée	
1126	1	furent	
1127	1	fusion	
1128	1	fussions	
1129	1	félicité	
1130	1	fête	
1131	1	gaieté	
1132	1	gais	
1133	1	galbe	
1134	1	garantis	
1135	1	garde	
1136	1	garder	
1137	1	garderait	
1138	1	garderez	
1139	1	genoux	
1140	1	germain	
1141	1	glaces	
1142	1	glacial	
1143	1	glacée	
1144	1	goya	
1145	1	goût	
1146	1	gris	
1147	1	groupait	
1148	1	groupés	
1149	1	grâce	
1150	1	habilleras	
1151	1	habitais	
1152	1	habitait	
1153	1	habite	
1154	1	habits	
1155	1	haleines	
1156	1	haut	
1157	1	heureuse	
1158	1	heurter	
1159	1	hideux	
1160	1	hier	
1161	1	homère	
1162	1	horloge	
1163	1	humain	
1164	1	hâtant	
1165	1	héros	
1166	1	hésitais	
1167	1	hésiter	
1168	1	ignorais	
1169	1	imagination	
1170	1	immense	
1171	1	impatiemment	
1172	1	importe	
1173	1	imprudente	
1174	1	incestes	
1175	1	inconnues	
1176	1	inconnus	
1177	1	indéfinissable	
1178	1	influence	
1179	1	infranchissable	
1180	1	ingratitude	
1181	1	ingrats	
1182	1	inouïes	
1183	1	inquiéter	
1184	1	insomnie	
1185	1	inspirent	
1186	1	intelligence	
1187	1	intimité	
1188	1	intitulé	
1189	1	introduisit	
1190	1	introduit	
1191	1	intérieure	
1192	1	invraisemblable	
1193	1	invraisemblance	
1194	1	ironie	
1195	1	irritait	
1196	1	italiens	
1197	1	jalouse	
1198	1	jambes	
1199	1	jeta	
1200	1	jeu	
1201	1	joue	
1202	1	joues	
1203	1	jouissant	
1204	1	journée	
1205	1	journées	
1206	1	joyeuse	
1207	1	joyeuses	
1208	1	juges	
1209	1	junon	
1210	1	justice	
1211	1	laissai	
1212	1	laissait	
1213	1	laissez	
1214	1	lascif	
1215	1	lascive	
1216	1	lesquels	
1217	1	leur	
1218	1	leurs	
1219	1	lever	
1220	1	levez	
1221	1	levé	
1222	1	levée	
1223	1	libre	
1224	1	ligne	
1225	1	lignes	
1226	1	liqueur	
1227	1	lire	
1228	1	lirez	
1229	1	lissés	
1230	1	livrer	
1231	1	livres	
1232	1	longs	
1233	1	lorsqu	
1234	1	lueur	
1235	1	lugubre	
1236	1	lumière	
1237	1	lumières	
1238	1	légère	
1239	1	machinalement	
1240	1	madones	
1241	1	maintenant	
1242	1	mal	
1243	1	malades	
1244	1	maladie	
1245	1	mangeais	
1246	1	manquait	
1247	1	manques	
1248	1	manuscrits	
1249	1	marbre	
1250	1	marcha	
1251	1	marchai	
1252	1	marchais	
1253	1	marchâmes	
1254	1	martyre	
1255	1	masquer	
1256	1	masqué	
1257	1	mauvaise	
1258	1	messaline	
1259	1	mesure	
1260	1	mettez	
1261	1	meubles	
1262	1	meublée	
1263	1	meurent	
1264	1	miennes	
1265	1	milieu	
1266	1	milliers	
1267	1	mission	
1268	1	mois	
1269	1	monnaies	
1270	1	monotone	
1271	1	monter	
1272	1	montrez	
1273	1	montâmes	
1274	1	morne	
1275	1	mortes	
1276	1	moulé	
1277	1	mourrait	
1278	1	mousquetaires	
1279	1	mouvements	
1280	1	moyen	
1281	1	moyenne	
1282	1	mues	
1283	1	muet	
1284	1	muraille	
1285	1	murailles	
1286	1	murmurai	
1287	1	murmurer	
1288	1	mystères	
1289	1	mène	
1290	1	neuf	
1291	1	nocturne	
1292	1	noirs	
1293	1	nonchalamment	
1294	1	nouveau	
1295	1	nouveaux	
1296	1	nouvelle	
1297	1	nue	
1298	1	nuits	
1299	1	nus	
1300	1	oh	
1301	1	oiseaux	
1302	1	ombres	
1303	1	opinion	
1304	1	oppressée	
1305	1	orages	
1306	1	orchestre	
1307	1	ordinaire	
1308	1	ordonnai	
1309	1	oreille	
1310	1	oreiller	
1311	1	oreilles	
1312	1	os	
1313	1	osais	
1314	1	oser	
1315	1	oubliais	
1316	1	oubliant	
1317	1	oubliât	
1318	1	ouvert	
1319	1	ouverts	
1320	1	ouvrant	
1321	1	ouvre	
1322	1	ouvrir	
1323	1	ouvrirait	
1324	1	pactole	
1325	1	pages	
1326	1	panacée	
1327	1	panser	
1328	1	panseriez	
1329	1	papiers	
1330	1	pardonne	
1331	1	pareille	
1332	1	parfums	
1333	1	parlent	
1334	1	parmi	
1335	1	partaient	
1336	1	parties	
1337	1	parus	
1338	1	passager	
1339	1	passaient	
1340	1	passait	
1341	1	passe	
1342	1	passionnée	
1343	1	païenne	
1344	1	peindre	
1345	1	peint	
1346	1	pendule	
1347	1	pendules	
1348	1	pense	
1349	1	penser	
1350	1	penses	
1351	1	perdent	
1352	1	perdre	
1353	1	perles	
1354	1	permet	
1355	1	personnes	
1356	1	perte	
1357	1	perçait	
1358	1	pesant	
1359	1	petits	
1360	1	peuplent	
1361	1	peureuse	
1362	1	peurs	
1363	1	phases	
1364	1	physionomie	
1365	1	pierreries	
1366	1	pierres	
1367	1	pièce	
1368	1	plafond	
1369	1	plaisanterie	
1370	1	plaisir	
1371	1	plaisirs	
1372	1	pleines	
1373	1	pleurait	
1374	1	pleuré	
1375	1	pleuvait	
1376	1	plutôt	
1377	1	poindre	
1378	1	point	
1379	1	poitrines	
1380	1	pompadour	
1381	1	porta	
1382	1	portrait	
1383	1	portèrent	
1384	1	poser	
1385	1	pouls	
1386	1	pourrai	
1387	1	pourrais	
1388	1	pourtant	
1389	1	poussa	
1390	1	pouvez	
1391	1	pouvoir	
1392	1	poètes	
1393	1	prenant	
1394	1	prend	
1395	1	pressa	
1396	1	pressai	
1397	1	preuve	
1398	1	prie	
1399	1	prière	
1400	1	probablement	
1401	1	profit	
1402	1	profond	
1403	1	profonde	
1404	1	promesses	
1405	1	promis	
1406	1	prononcé	
1407	1	prophètes	
1408	1	prouva	
1409	1	prouve	
1410	1	prouver	
1411	1	précède	
1412	1	préférerait	
1413	1	préparais	
1414	1	préparait	
1415	1	présent	
1416	1	présentait	
1417	1	présenter	
1418	1	présidaient	
1419	1	préviens	
1420	1	prêtent	
1421	1	prêtre	
1422	1	pu	
1423	1	pudique	
1424	1	puissamment	
1425	1	puissance	
1426	1	puisse	
1427	1	pureté	
1428	1	pâles	
1429	1	pâleur	
1430	1	pâlir	
1431	1	pécheresse	
1432	1	pérugin	
1433	1	pût	
1434	1	quarante	
1435	1	quarts	
1436	1	quatre	
1437	1	quel	
1438	1	quelqu	
1439	1	quelquefois	
1440	1	quinze	
1441	1	quitta	
1442	1	quoi	
1443	1	quoique	
1444	1	radieuse	
1445	1	railleuse	
1446	1	raison	
1447	1	raisonnons	
1448	1	ramener	
1449	1	rangée	
1450	1	rangés	
1451	1	raphaël	
1452	1	rapide	
1453	1	rappelai	
1454	1	rappellent	
1455	1	rappellerai	
1456	1	rarement	
1457	1	ravissante	
1458	1	ravissent	
1459	1	rayonnante	
1460	1	recevait	
1461	1	recevoir	
1462	1	recherchez	
1463	1	reconnais	
1464	1	reconnaissais	
1465	1	reconnaissance	
1466	1	reconnaître	
1467	1	reconnus	
1468	1	recours	
1469	1	recouvert	
1470	1	recouvrait	
1471	1	recueilli	
1472	1	redevint	
1473	1	reflétait	
1474	1	refléter	
1475	1	refouler	
1476	1	regarda	
1477	1	regardions	
1478	1	regards	
1479	1	regrettes	
1480	1	remarquai	
1481	1	rembrandt	
1482	1	remercier	
1483	1	remords	
1484	1	remplir	
1485	1	remplit	
1486	1	remuant	
1487	1	remîmes	
1488	1	rencontrer	
1489	1	rendait	
1490	1	rends	
1491	1	renouvelant	
1492	1	rentrai	
1493	1	rentrant	
1494	1	rentrer	
1495	1	rentré	
1496	1	rentrée	
1497	1	renverse	
1498	1	renvoyait	
1499	1	renvoyèrent	
1500	1	repassèrent	
1501	1	repos	
1502	1	repoussant	
1503	1	reprendras	
1504	1	repris	
1505	1	respectant	
1506	1	respirais	
1507	1	respiration	
1508	1	ressort	
1509	1	ressorts	
1510	1	restais	
1511	1	reste	
1512	1	rester	
1513	1	restâmes	
1514	1	retirer	
1515	1	retombait	
1516	1	retournai	
1517	1	retournée	
1518	1	retrouvais	
1519	1	retrouvée	
1520	1	reverras	
1521	1	reviendrais	
1522	1	revinrent	
1523	1	revoyant	
1524	1	reçu	
1525	1	riches	
1526	1	rideaux	
1527	1	rire	
1528	1	risque	
1529	1	rit	
1530	1	rococo	
1531	1	romans	
1532	1	ronflement	
1533	1	rouvrit	
1534	1	rupture	
1535	1	réalité	
1536	1	réclamait	
1537	1	réel	
1538	1	réflexions	
1539	1	répandus	
1540	1	répliquai	
1541	1	répéta	
1542	1	répété	
1543	1	résignation	
1544	1	réunissant	
1545	1	réveil	
1546	1	réveilla	
1547	1	réveillais	
1548	1	réveiller	
1549	1	réveillé	
1550	1	révélait	
1551	1	révélation	
1552	1	rêvée	
1553	1	sacrilège	
1554	1	sacrées	
1555	1	sage	
1556	1	saignante	
1557	1	saignée	
1558	1	sait	
1559	1	salles	
1560	1	salons	
1561	1	saluer	
1562	1	sautâmes	
1563	1	sauve	
1564	1	sauvent	
1565	1	sauvée	
1566	1	savez	
1567	1	saviez	
1568	1	savoir	
1569	1	science	
1570	1	sculpté	
1571	1	secouait	
1572	1	secours	
1573	1	secret	
1574	1	secrète	
1575	1	seigneur	
1576	1	selon	
1577	1	semblent	
1578	1	semblèrent	
1579	1	sens	
1580	1	sentais	
1581	1	sentiments	
1582	1	sentirent	
1583	1	sept	
1584	1	serai	
1585	1	serons	
1586	1	serpent	
1587	1	seuil	
1588	1	seules	
1589	1	sien	
1590	1	siennes	
1591	1	signer	
1592	1	silencieuse	
1593	1	silencieusement	
1594	1	silencieux	
1595	1	sinistre	
1596	1	siècles	
1597	1	soient	
1598	1	soirée	
1599	1	soit	
1600	1	soixante	
1601	1	sol	
1602	1	solennel	
1603	1	solitude	
1604	1	sommet	
1605	1	songe	
1606	1	sonnai	
1607	1	sonnerie	
1608	1	sort	
1609	1	sortant	
1610	1	sortir	
1611	1	sortirait	
1612	1	souffrance	
1613	1	souffrant	
1614	1	soupir	
1615	1	sourd	
1616	1	souriait	
1617	1	souvenirs	
1618	1	souvent	
1619	1	souviens	
1620	1	spleen	
1621	1	splendide	
1622	1	spontanées	
1623	1	squelettes	
1624	1	statue	
1625	1	stupide	
1626	1	subi	
1627	1	suicides	
1628	1	suivaient	
1629	1	suivais	
1630	1	suivi	
1631	1	suivis	
1632	1	suivit	
1633	1	suivre	
1634	1	superbe	
1635	1	sursaut	
1636	1	surtout	
1637	1	survit	
1638	1	suspendue	
1639	1	sève	
1640	1	séparait	
1641	1	sérieux	
1642	1	sérénité	
1643	1	sûr	
1644	1	sœur	
1645	1	sœurs	
1646	1	table	
1647	1	tapisserie	
1648	1	tels	
1649	1	tempes	
1650	1	tenais	
1651	1	tenait	
1652	1	tendu	
1653	1	tenir	
1654	1	tenter	
1655	1	tenu	
1656	1	ternes	
1657	1	terreurs	
1658	1	terrible	
1659	1	tiens	
1660	1	tigresse	
1661	1	tirer	
1662	1	tiroirs	
1663	1	tomba	
1664	1	tombai	
1665	1	tombé	
1666	1	tordaient	
1667	1	torrents	
1668	1	tortures	
1669	1	touchais	
1670	1	touchent	
1671	1	toucher	
1672	1	touchés	
1673	1	tourbillon	
1674	1	tournai	
1675	1	tournure	
1676	1	tranquille	
1677	1	transition	
1678	1	traverser	
1679	1	tremblait	
1680	1	trente	
1681	1	tressaillis	
1682	1	triple	
1683	1	troisième	
1684	1	trompe	
1685	1	trompes	
1686	1	trompé	
1687	1	troupe	
1688	1	trouvaient	
1689	1	trouve	
1690	1	trouvera	
1691	1	très	
1692	1	tuent	
1693	1	type	
1694	1	tâchai	
1695	1	tâche	
1696	1	tâchez	
1697	1	ténébreuses	
1698	1	têtes	
1699	1	tôt	
1700	1	universelle	
1701	1	uns	
1702	1	vagues	
1703	1	vainqueur	
1704	1	valsais	
1705	1	valse	
1706	1	valses	
1707	1	vas	
1708	1	vastes	
1709	1	veillai	
1710	1	veillant	
1711	1	veine	
1712	1	velours	
1713	1	venait	
1714	1	vendus	
1715	1	venez	
1716	1	venus	
1717	1	ver	
1718	1	verdâtre	
1719	1	verrez	
1720	1	vert	
1721	1	vertu	
1722	1	vertueux	
1723	1	vice	
1724	1	vieillards	
1725	1	vieilles	
1726	1	viendrez	
1727	1	vierges	
1728	1	vigoureusement	
1729	1	viols	
1730	1	visite	
1731	1	visiteur	
1732	1	vit	
1733	1	vive	
1734	1	voie	
1735	1	voilée	
1736	1	voisine	
1737	1	voit	
1738	1	voitures	
1739	1	vol	
1740	1	voltigeant	
1741	1	voluptés	
1742	1	voudrais	
1743	1	voudrez	
1744	1	voulait	
1745	1	vouloir	
1746	1	voulus	
1747	1	voyage	
1748	1	voyant	
1749	1	vrai	
1750	1	vraies	
1751	1	vécussent	
1752	1	vérité	
1753	1	vêtue	
1754	1	vînt	
1755	1	ève	
1756	1	ébauches	
1757	1	éblouissant	
1758	1	écartai	
1759	1	écharpe	
1760	1	éclairé	
1761	1	éclairée	
1762	1	éclairées	
1763	1	écoutait	
1764	1	écoutons	
1765	1	écrire	
1766	1	écrites	
1767	1	écriture	
1768	1	écrivis	
1769	1	écriâmes	
1770	1	église	
1771	1	émane	
1772	1	émotions	
1773	1	énumérer	
1774	1	épaules	
1775	1	épiant	
1776	1	éprouvais	
1777	1	éprouvant	
1778	1	éprouve	
1779	1	éprouvé	
1780	1	épuisées	
1781	1	établissant	
1782	1	étage	
1783	1	étalait	
1784	1	éteignis	
1785	1	éteignit	
1786	1	éteindre	
1787	1	éternel	
1788	1	éternelle	
1789	1	éternellement	
1790	1	étoffe	
1791	1	étoilée	
1792	1	étonnais	
1793	1	étonnement	
1794	1	étourdissant	
1795	1	étrangement	
1796	1	étreinte	
1797	1	évanouit	
1798	1	éveiller	
1799	1	évidemment	
1800	1	évident	
