1,410,de
2,255,la
3,238,et
4,229,il
5,229,le
6,228,à
7,202,je
8,193,que
9,174,l
10,152,un
11,146,en
12,136,une
13,127,était
14,125,d
15,125,nous
16,121,pas
17,113,lambert
18,108,maurice
19,103,qui
20,101,ne
21,100,les
22,94,avait
23,87,dans
24,84,ce
25,83,n
26,83,se
27,80,vous
28,75,est
29,73,mais
30,71,qu
31,69,son
32,67,j
33,67,sa
34,65,me
35,64,lui
36,63,au
37,61,s
38,55,plus
39,53,c
40,51,a
41,50,m
42,49,du
43,49,sur
44,47,pour
45,46,tout
46,45,y
47,44,bien
48,40,dit
49,40,mme
50,40,même
51,39,si
52,38,avec
53,38,des
54,36,cette
55,36,comme
56,36,moi
57,35,par
58,32,elle
59,32,ses
60,31,tu
61,30,femme
62,29,ces
63,28,ai
64,28,sans
65,27,clou
66,27,notre
67,27,on
68,26,là
69,26,été
70,25,ou
71,25,puis
72,24,avais
73,24,mon
74,23,chez
75,22,deux
76,22,tous
77,21,donc
78,20,sont
79,19,après
80,19,cage
81,19,très
82,18,homme
83,18,jamais
84,18,quelques
85,17,duméril
86,17,encore
87,17,ma
88,17,t
89,16,cet
90,16,dont
91,16,main
92,16,quelque
93,16,toute
94,16,veuve
95,16,yeux
96,15,alors
97,15,ami
98,15,avoir
99,15,cela
100,15,dire
101,15,gérard
102,15,trois
103,15,voix
104,14,avez
105,14,ici
106,14,porte
107,14,regard
108,14,te
109,14,vers
110,14,étaient
111,13,ans
112,13,autres
113,13,avant
114,13,comment
115,13,coup
116,13,jours
117,13,où
118,13,peu
119,13,rien
120,13,tête
121,13,visage
122,13,voici
123,12,cependant
124,12,faire
125,12,fait
126,12,faut
127,12,fois
128,12,jour
129,12,mois
130,12,nos
131,12,être
132,11,accident
133,11,ah
134,11,autre
135,11,café
136,11,fut
137,11,ministère
138,11,mort
139,11,non
140,11,point
141,11,pourquoi
142,11,reste
143,11,sorte
144,11,sous
145,11,toujours
146,11,étais
147,10,ainsi
148,10,car
149,10,coquin
150,10,entre
151,10,faux
152,10,fenêtre
153,10,fit
154,10,fût
155,10,moins
156,10,mère
157,10,oiseau
158,10,petit
159,10,premier
160,10,semblait
161,10,soir
162,10,vue
163,9,avaient
164,9,bureau
165,9,dominos
166,9,effet
167,9,enfin
168,9,heures
169,9,hommes
170,9,juste
171,9,mes
172,9,monsieur
173,9,oui
174,9,partie
175,9,pauvre
176,9,pendant
177,9,peut
178,9,presque
179,9,sais
180,9,vu
181,8,ailleurs
182,8,bras
183,8,contraire
184,8,crochet
185,8,idée
186,8,leur
187,8,madame
188,8,maintenant
189,8,mille
190,8,or
191,8,ordinaire
192,8,paraissait
193,8,passé
194,8,petite
195,8,pouvait
196,8,première
197,8,quatre
198,8,sens
199,8,soirée
200,8,temps
201,8,toutes
202,7,aussi
203,7,cas
204,7,celui
205,7,chose
206,7,ci
207,7,compris
208,7,contre
209,7,depuis
210,7,dis
211,7,eût
212,7,fille
213,7,force
214,7,francs
215,7,lorsque
216,7,mains
217,7,nature
218,7,parce
219,7,reprit
220,7,soit
221,7,voir
222,7,véritable
223,7,étions
224,7,œil
225,6,attention
226,6,auprès
227,6,autant
228,6,aux
229,6,ceci
230,6,conversation
231,6,demanda
232,6,doigts
233,6,dès
234,6,fortement
235,6,grande
236,6,horrible
237,6,ils
238,6,impossible
239,6,lendemain
240,6,mariage
241,6,mieux
242,6,mot
243,6,ni
244,6,ont
245,6,parle
246,6,place
247,6,pu
248,6,quoi
249,6,remarqué
250,6,répondit
251,6,souvent
252,6,terrible
253,6,traits
254,6,vie
255,6,voyez
256,6,émotion
257,5,accord
258,5,antipathie
259,5,aussitôt
260,5,avions
261,5,ayant
262,5,belle
263,5,bout
264,5,caractères
265,5,certaine
266,5,cinq
267,5,circonstance
268,5,circonstances
269,5,cour
270,5,disait
271,5,doute
272,5,eh
273,5,elles
274,5,eu
275,5,fis
276,5,fort
277,5,heure
278,5,impression
279,5,instant
280,5,inutile
281,5,jeune
282,5,laquelle
283,5,lit
284,5,loin
285,5,maison
286,5,minutes
287,5,mouvement
288,5,notes
289,5,nouveau
290,5,objet
291,5,oreille
292,5,organe
293,5,papier
294,5,paris
295,5,parler
296,5,part
297,5,parties
298,5,physionomie
299,5,plusieurs
300,5,preuve
301,5,pris
302,5,pâle
303,5,quand
304,5,quant
305,5,quel
306,5,quelle
307,5,quelqu
308,5,quinze
309,5,raison
310,5,remarquai
311,5,répète
312,5,salon
313,5,savoir
314,5,sera
315,5,seulement
316,5,six
317,5,somme
318,5,sonne
319,5,suis
320,5,tomber
321,5,trou
322,5,trouvait
323,5,trouver
324,5,va
325,5,votre
326,5,voulu
327,5,évidemment
328,4,appartement
329,4,arrivé
330,4,as
331,4,assassin
332,4,assez
333,4,aucune
334,4,avons
335,4,bas
336,4,cabinet
337,4,cause
338,4,causer
339,4,celle
340,4,ceux
341,4,chaque
342,4,charmante
343,4,chercher
344,4,cheveux
345,4,chute
346,4,commis
347,4,continua
348,4,courage
349,4,curieux
350,4,côté
351,4,dehors
352,4,dix
353,4,départ
354,4,entendu
355,4,environ
356,4,expression
357,4,face
358,4,famille
359,4,fauteuil
360,4,façon
361,4,forme
362,4,fortune
363,4,gagner
364,4,garçon
365,4,haut
366,4,huit
367,4,infâme
368,4,journée
369,4,jusqu
370,4,lequel
371,4,machinalement
372,4,malgré
373,4,mari
374,4,matin
375,4,misérable
376,4,moment
377,4,morte
378,4,mur
379,4,naturellement
380,4,note
381,4,nul
382,4,nécessairement
383,4,paralytique
384,4,parlé
385,4,personne
386,4,plein
387,4,preuves
388,4,propre
389,4,rapide
390,4,riant
391,4,répondre
392,4,répondu
393,4,selon
394,4,seul
395,4,souviens
396,4,surprise
397,4,table
398,4,tel
399,4,telle
400,4,tenait
401,4,tombée
402,4,travail
403,4,trompé
404,4,trop
405,4,uns
406,4,venir
407,4,venu
408,4,vingt
409,4,écoutez
410,4,étant
411,3,abord
412,3,absence
413,3,accent
414,3,accidents
415,3,adressant
416,3,agit
417,3,air
418,3,aise
419,3,allons
420,3,amis
421,3,anneau
422,3,arrivait
423,3,assurance
424,3,avenir
425,3,aveu
426,3,besoin
427,3,blancheur
428,3,bouvreuil
429,3,brusquement
430,3,cadavre
431,3,camarade
432,3,caractère
433,3,cartes
434,3,cents
435,3,certainement
436,3,certains
437,3,choses
438,3,collègues
439,3,combinaison
440,3,comprendre
441,3,comprends
442,3,corps
443,3,coucher
444,3,demandai
445,3,demander
446,3,demeurait
447,3,dernier
448,3,derrière
449,3,destruction
450,3,deviner
451,3,dois
452,3,douleur
453,3,droit
454,3,déjà
455,3,dépit
456,3,désagréable
457,3,détails
458,3,enfant
459,3,entendis
460,3,entra
461,3,examinant
462,3,existence
463,3,faisait
464,3,faisant
465,3,fausse
466,3,fond
467,3,font
468,3,forte
469,3,frappé
470,3,front
471,3,goût
472,3,grand
473,3,héritage
474,3,immédiatement
475,3,inquiétude
476,3,intérieur
477,3,jeu
478,3,jouer
479,3,laissa
480,3,large
481,3,lettre
482,3,leurs
483,3,livres
484,3,lors
485,3,mai
486,3,malade
487,3,manifestations
488,3,mis
489,3,mit
490,3,moindre
491,3,nuit
492,3,oh
493,3,oublie
494,3,oubliez
495,3,ouvrit
496,3,pardonnez
497,3,parole
498,3,parti
499,3,passa
500,3,passait
501,3,peine
502,3,perdre
503,3,perdu
504,3,pistolet
505,3,plaisir
506,3,plate
507,3,pleine
508,3,poche
509,3,police
510,3,portait
511,3,position
512,3,pouvais
513,3,prit
514,3,produire
515,3,près
516,3,préoccupé
517,3,présence
518,3,préventions
519,3,puisque
520,3,père
521,3,pût
522,3,quelquefois
523,3,question
524,3,quitté
525,3,quoique
526,3,rapidement
527,3,reconnaître
528,3,relations
529,3,remarquer
530,3,rendre
531,3,rente
532,3,rue
533,3,répulsion
534,3,sang
535,3,savais
536,3,sensation
537,3,sensibilité
538,3,sentais
539,3,serait
540,3,seule
541,3,signe
542,3,simultanément
543,3,singulière
544,3,sortir
545,3,souriant
546,3,soyez
547,3,sujet
548,3,surtout
549,3,suspendue
550,3,symétrie
551,3,tant
552,3,tenté
553,3,tenu
554,3,terribles
555,3,testament
556,3,théorie
557,3,tomba
558,3,trait
559,3,troisième
560,3,trouvé
561,3,unique
562,3,venait
563,3,venant
564,3,vieille
565,3,viens
566,3,voilà
567,3,volontairement
568,3,voyage
569,3,vrai
570,3,vérité
571,3,égard
572,3,éminemment
573,3,émotions
574,3,équilibre
575,2,abandonné
576,2,absolue
577,2,absolument
578,2,acceptait
579,2,affection
580,2,agissait
581,2,aie
582,2,aime
583,2,aisance
584,2,aller
585,2,allures
586,2,allusion
587,2,allâmes
588,2,amitié
589,2,an
590,2,angle
591,2,angleterre
592,2,années
593,2,antipathiques
594,2,apporta
595,2,apprîmes
596,2,appuyé
597,2,arraché
598,2,arrêter
599,2,art
600,2,assassiné
601,2,attendait
602,2,attendre
603,2,attraction
604,2,aucun
605,2,aujourd
606,2,auquel
607,2,aurai
608,2,auraient
609,2,aurait
610,2,avancement
611,2,avis
612,2,avoue
613,2,banales
614,2,blesse
615,2,bon
616,2,bordeaux
617,2,brillant
618,2,calme
619,2,capable
620,2,caprice
621,2,centaine
622,2,centimètres
623,2,certaines
624,2,chambre
625,2,chargé
626,2,charles
627,2,chaud
628,2,chemin
629,2,choix
630,2,clair
631,2,clous
632,2,coin
633,2,collègue
634,2,colère
635,2,complète
636,2,comprenais
637,2,compter
638,2,conduire
639,2,confiance
640,2,connais
641,2,connaissais
642,2,connaissance
643,2,connaissez
644,2,constaté
645,2,constitution
646,2,conviction
647,2,cordialité
648,2,courant
649,2,cri
650,2,cria
651,2,crime
652,2,cris
653,2,cru
654,2,crâne
655,2,créature
656,2,cœur
657,2,date
658,2,demain
659,2,demande
660,2,demandé
661,2,demi
662,2,dessein
663,2,dessiné
664,2,dessus
665,2,devait
666,2,devant
667,2,devenu
668,2,devinait
669,2,dieu
670,2,dirai
671,2,dissimulé
672,2,distraire
673,2,divers
674,2,doit
675,2,donne
676,2,donné
677,2,douloureuse
678,2,doux
679,2,dressée
680,2,droite
681,2,déchiré
682,2,décidai
683,2,décidé
684,2,défaut
685,2,démarches
686,2,démentie
687,2,démission
688,2,désormais
689,2,dîner
690,2,dîné
691,2,dût
692,2,efforts
693,2,effroyable
694,2,enchanté
695,2,enfants
696,2,enfoncé
697,2,engagea
698,2,engagé
699,2,ensemble
700,2,entendions
701,2,entraîna
702,2,entraînait
703,2,erreurs
704,2,es
705,2,esprit
706,2,eusse
707,2,eut
708,2,examiné
709,2,exception
710,2,excessive
711,2,exclamation
712,2,existé
713,2,explication
714,2,explique
715,2,expliquer
716,2,exquise
717,2,facilité
718,2,fais
719,2,faits
720,2,fallait
721,2,fasciné
722,2,fausseté
723,2,fils
724,2,fixé
725,2,fixés
726,2,flattent
727,2,foi
728,2,formé
729,2,france
730,2,frappée
731,2,fraîche
732,2,froid
733,2,froissé
734,2,fus
735,2,fête
736,2,fît
737,2,gagnait
738,2,gai
739,2,gisait
740,2,gracieuse
741,2,grave
742,2,graves
743,2,gêne
744,2,habitué
745,2,haute
746,2,hauteur
747,2,heureux
748,2,heurtent
749,2,honneur
750,2,honnête
751,2,horriblement
752,2,hui
753,2,humaine
754,2,hélas
755,2,hésiter
756,2,impressions
757,2,indiscrétion
758,2,inerte
759,2,influence
760,2,inspirait
761,2,inspiré
762,2,instants
763,2,intime
764,2,intérêt
765,2,invitation
766,2,ironie
767,2,jambes
768,2,jardin
769,2,jouait
770,2,joue
771,2,justes
772,2,justesse
773,2,laisse
774,2,larges
775,2,lentement
776,2,lettres
777,2,leva
778,2,levant
779,2,lieu
780,2,lisait
781,2,livrer
782,2,livré
783,2,long
784,2,longtemps
785,2,longue
786,2,longuement
787,2,lorsqu
788,2,lumière
789,2,manière
790,2,marteau
791,2,masse
792,2,mettre
793,2,milieu
794,2,mince
795,2,minute
796,2,mobiles
797,2,modèle
798,2,montai
799,2,montra
800,2,morceau
801,2,motif
802,2,mourut
803,2,mouvements
804,2,muscles
805,2,mutilé
806,2,ménage
807,2,navire
808,2,noirs
809,2,nécessaires
810,2,objections
811,2,observateur
812,2,obéir
813,2,odeur
814,2,odorat
815,2,oreilles
816,2,oubliais
817,2,oublié
818,2,ouverte
819,2,ouvrir
820,2,ouïe
821,2,paraître
822,2,parent
823,2,parfaite
824,2,parfaitement
825,2,parlait
826,2,parlant
827,2,parlez
828,2,paru
829,2,parut
830,2,parvînmes
831,2,passe
832,2,passer
833,2,passèrent
834,2,paume
835,2,pavé
836,2,peinture
837,2,perdait
838,2,permettait
839,2,permettez
840,2,personnelles
841,2,personnes
842,2,petits
843,2,plaidait
844,2,plaignit
845,2,plâtre
846,2,pointe
847,2,portant
848,2,posa
849,2,posai
850,2,possible
851,2,poussé
852,2,prie
853,2,principal
854,2,produisait
855,2,produisent
856,2,produit
857,2,profondément
858,2,projet
859,2,promis
860,2,prédis
861,2,préparé
862,2,prîmes
863,2,puissance
864,2,pus
865,2,quelconque
866,2,rares
867,2,rayons
868,2,reconnu
869,2,reconnus
870,2,regarda
871,2,regardai
872,2,regardait
873,2,regards
874,2,registre
875,2,remerciait
876,2,rencontre
877,2,rendait
878,2,rendant
879,2,rentrer
880,2,repos
881,2,ressemble
882,2,restait
883,2,rester
884,2,restâmes
885,2,retenir
886,2,retirer
887,2,réalité
888,2,répondis
889,2,répéta
890,2,résumé
891,2,sache
892,2,santé
893,2,savez
894,2,scène
895,2,seconde
896,2,secret
897,2,sembla
898,2,semblable
899,2,sentiments
900,2,septembre
901,2,serra
902,2,servante
903,2,service
904,2,silence
905,2,situé
906,2,société
907,2,soigneusement
908,2,soin
909,2,songeait
910,2,sonnèrent
911,2,sons
912,2,souriait
913,2,souvenez
914,2,stupéfaits
915,2,subissait
916,2,subitement
917,2,sueur
918,2,suivie
919,2,suivit
920,2,suivre
921,2,supporter
922,2,suppose
923,2,supérieure
924,2,surpris
925,2,survenu
926,2,sympathie
927,2,sympathique
928,2,sèchement
929,2,taille
930,2,teint
931,2,tentative
932,2,termes
933,2,terre
934,2,tes
935,2,timide
936,2,tira
937,2,touchait
938,2,toucher
939,2,tour
940,2,tournant
941,2,tracé
942,2,tracés
943,2,traduisaient
944,2,traduisent
945,2,tranquille
946,2,tranquillité
947,2,trente
948,2,trompez
949,2,trouvions
950,2,témoin
951,2,unisson
952,2,vais
953,2,valeur
954,2,veux
955,2,victime
956,2,vint
957,2,visuel
958,2,vitalité
959,2,vivace
960,2,vivait
961,2,vivement
962,2,voisins
963,2,volonté
964,2,vos
965,2,voulez
966,2,voulus
967,2,voyais
968,2,voyant
969,2,vrille
970,2,âge
971,2,âme
972,2,échappait
973,2,écriai
974,2,écrivez
975,2,également
976,2,épaules
977,2,épousé
978,2,étage
979,2,étiez
980,2,étonnement
981,2,étonner
982,2,étrangeté
983,2,études
984,2,événement
985,2,événements
986,2,êtes
987,1,aa
988,1,ab
989,1,abaissait
990,1,abandonnai
991,1,abandonnée
992,1,abat
993,1,abondants
994,1,abordé
995,1,absenta
996,1,absente
997,1,absorbé
998,1,abstenir
999,1,abuserai
1000,1,abusé
1001,1,accentuée
1002,1,acceptai
1003,1,accepter
1004,1,accompagna
1005,1,accompagnerait
1006,1,accords
1007,1,accoutumée
1008,1,accrocherai
1009,1,accrochée
1010,1,accroupi
1011,1,accueillis
1012,1,accueillit
1013,1,achetait
1014,1,acheté
1015,1,acheva
1016,1,achever
1017,1,acquis
1018,1,active
1019,1,administration
1020,1,admirable
1021,1,admirables
1022,1,adonnait
1023,1,adressai
1024,1,adressée
1025,1,adroitement
1026,1,adversaire
1027,1,aequo
1028,1,affaire
1029,1,affectation
1030,1,affirmative
1031,1,affirme
1032,1,affirmé
1033,1,affreuse
1034,1,afin
1035,1,agent
1036,1,agir
1037,1,agitation
1038,1,agréable
1039,1,agréablement
1040,1,aient
1041,1,aigu
1042,1,aiguë
1043,1,aimable
1044,1,aimais
1045,1,aimer
1046,1,aimes
1047,1,aimée
1048,1,ait
1049,1,alerte
1050,1,allant
1051,1,allemagne
1052,1,allez
1053,1,allions
1054,1,allongeaient
1055,1,allé
1056,1,allée
1057,1,alphabet
1058,1,amena
1059,1,amenant
1060,1,amener
1061,1,amené
1062,1,amincissant
1063,1,amour
1064,1,amoureuse
1065,1,amusait
1066,1,ancienne
1067,1,anciens
1068,1,anglais
1069,1,animée
1070,1,anneaux
1071,1,année
1072,1,antipathique
1073,1,août
1074,1,apercevant
1075,1,aperçût
1076,1,apparition
1077,1,appelais
1078,1,appelions
1079,1,appellent
1080,1,appellerais
1081,1,apportait
1082,1,apporté
1083,1,apprendre
1084,1,appris
1085,1,approchez
1086,1,appuyait
1087,1,appuyant
1088,1,appétissante
1089,1,architecture
1090,1,arracher
1091,1,arriva
1092,1,arrive
1093,1,arrivent
1094,1,arriver
1095,1,arrivions
1096,1,arrivâmes
1097,1,arrivée
1098,1,arrière
1099,1,arrêta
1100,1,arrêtait
1101,1,arrêtera
1102,1,aspirait
1103,1,aspiration
1104,1,assassinée
1105,1,assentiment
1106,1,assiduité
1107,1,assis
1108,1,assisté
1109,1,assiégée
1110,1,assurer
1111,1,assuré
1112,1,attaché
1113,1,attenait
1114,1,attend
1115,1,attendez
1116,1,attendis
1117,1,attends
1118,1,attractif
1119,1,attribuée
1120,1,attristée
1121,1,audition
1122,1,aurais
1123,1,auras
1124,1,aurea
1125,1,auriez
1126,1,autour
1127,1,autrefois
1128,1,autrement
1129,1,auxquelles
1130,1,avance
1131,1,aventures
1132,1,aviez
1133,1,avouant
1134,1,avouer
1135,1,avouez
1136,1,aîné
1137,1,b
1138,1,balbutia
1139,1,banalités
1140,1,bans
1141,1,barbe
1142,1,base
1143,1,bases
1144,1,basse
1145,1,beau
1146,1,beaucoup
1147,1,beaux
1148,1,belgique
1149,1,besoins
1150,1,biais
1151,1,bienveillance
1152,1,bienveillant
1153,1,bizarre
1154,1,bière
1155,1,blanc
1156,1,blanches
1157,1,bleu
1158,1,blonds
1159,1,blâmer
1160,1,boire
1161,1,bois
1162,1,bondir
1163,1,bonne
1164,1,bonnes
1165,1,bord
1166,1,bornant
1167,1,bouche
1168,1,boucler
1169,1,bougea
1170,1,bouton
1171,1,branche
1172,1,bref
1173,1,brisait
1174,1,brisement
1175,1,briser
1176,1,brisé
1177,1,brisée
1178,1,brièvement
1179,1,brusque
1180,1,cachée
1181,1,canaille
1182,1,canapé
1183,1,canon
1184,1,capital
1185,1,catalogué
1186,1,causait
1187,1,causant
1188,1,causât
1189,1,causé
1190,1,cauteleux
1191,1,cavité
1192,1,celles
1193,1,centre
1194,1,cercle
1195,1,certain
1196,1,cerveau
1197,1,cervelle
1198,1,cesse
1199,1,chacun
1200,1,chairs
1201,1,chance
1202,1,changement
1203,1,chapeau
1204,1,charge
1205,1,chaudement
1206,1,chaîne
1207,1,cher
1208,1,cherchait
1209,1,cherche
1210,1,cherché
1211,1,chers
1212,1,chien
1213,1,chiens
1214,1,chiffre
1215,1,chimie
1216,1,choc
1217,1,choisie
1218,1,châtain
1219,1,circonflexe
1220,1,claire
1221,1,clairement
1222,1,classe
1223,1,clignement
1224,1,cligner
1225,1,clouée
1226,1,cochère
1227,1,coercition
1228,1,combien
1229,1,combinaisons
1230,1,combiné
1231,1,commencerai
1232,1,commencez
1233,1,commencée
1234,1,commençait
1235,1,commettait
1236,1,commettra
1237,1,communiquions
1238,1,compagnon
1239,1,comparable
1240,1,complaisance
1241,1,complice
1242,1,complètement
1243,1,comprend
1244,1,comprendras
1245,1,comprenez
1246,1,compromettre
1247,1,comptais
1248,1,compte
1249,1,compté
1250,1,concerne
1251,1,concevable
1252,1,concierge
1253,1,concilier
1254,1,concluez
1255,1,conclus
1256,1,condition
1257,1,conditions
1258,1,conduirai
1259,1,conduiront
1260,1,conduit
1261,1,conduite
1262,1,conduits
1263,1,confortablement
1264,1,connaissances
1265,1,connaisseurs
1266,1,connaître
1267,1,connu
1268,1,connue
1269,1,connues
1270,1,connusse
1271,1,consacré
1272,1,consacrée
1273,1,conservait
1274,1,conservions
1275,1,conservé
1276,1,considérais
1277,1,consistant
1278,1,consolations
1279,1,constatai
1280,1,constatez
1281,1,construction
1282,1,contemplait
1283,1,contenu
1284,1,continuant
1285,1,continuelles
1286,1,continuels
1287,1,continuer
1288,1,continuions
1289,1,continuât
1290,1,contournés
1291,1,contractassent
1292,1,contraint
1293,1,contrainte
1294,1,convaincante
1295,1,convaincus
1296,1,convenable
1297,1,convergeaient
1298,1,convergeant
1299,1,corroborer
1300,1,cou
1301,1,coulaient
1302,1,couleur
1303,1,coupant
1304,1,coups
1305,1,courageux
1306,1,courait
1307,1,court
1308,1,courus
1309,1,courut
1310,1,coïncidences
1311,1,craint
1312,1,craintif
1313,1,creux
1314,1,criarde
1315,1,criminelle
1316,1,crisper
1317,1,croire
1318,1,crois
1319,1,croisement
1320,1,croyez
1321,1,cruel
1322,1,crut
1323,1,créanciers
1324,1,créer
1325,1,cuirasse
1326,1,câline
1327,1,câlines
1328,1,cèdent
1329,1,cérémonie
1330,1,dame
1331,1,data
1332,1,datez
1333,1,debout
1334,1,degré
1335,1,degrés
1336,1,demandais
1337,1,demandait
1338,1,demandant
1339,1,demandâmes
1340,1,demeure
1341,1,dents
1342,1,descendirent
1343,1,dessin
1344,1,dette
1345,1,deuxième
1346,1,devancé
1347,1,devraient
1348,1,devînt
1349,1,difficile
1350,1,difficilement
1351,1,différences
1352,1,dimanche
1353,1,diplomatie
1354,1,direz
1355,1,dirigeâmes
1356,1,dirigions
1357,1,dirigé
1358,1,discordance
1359,1,discordances
1360,1,discuter
1361,1,disons
1362,1,disparaissait
1363,1,disposait
1364,1,dispositions
1365,1,distance
1366,1,distinction
1367,1,distingué
1368,1,distraction
1369,1,distractions
1370,1,dites
1371,1,dits
1372,1,division
1373,1,diémen
1374,1,doigt
1375,1,domicile
1376,1,dominait
1377,1,donataire
1378,1,donna
1379,1,donnant
1380,1,donnent
1381,1,dos
1382,1,dot
1383,1,doucement
1384,1,douces
1385,1,douceur
1386,1,douloureusement
1387,1,douloureux
1388,1,doutai
1389,1,doutais
1390,1,douter
1391,1,douze
1392,1,doué
1393,1,doués
1394,1,doyen
1395,1,durement
1396,1,durée
1397,1,dé
1398,1,débarrassait
1399,1,débarrassé
1400,1,débordait
1401,1,déchirant
1402,1,déchirante
1403,1,déchirants
1404,1,déchire
1405,1,déchirent
1406,1,déchirer
1407,1,décida
1408,1,décidément
1409,1,déclara
1410,1,décomposé
1411,1,découvert
1412,1,découvrant
1413,1,découvris
1414,1,décrire
1415,1,décrochant
1416,1,décrocher
1417,1,déductions
1418,1,défavorable
1419,1,défiance
1420,1,défigurée
1421,1,dégoût
1422,1,dégoûtent
1423,1,déjeuner
1424,1,délai
1425,1,délicates
1426,1,démonstration
1427,1,dépense
1428,1,déplia
1429,1,déployer
1430,1,déposâmes
1431,1,dépêche
1432,1,désaccord
1433,1,désarma
1434,1,désastre
1435,1,désigne
1436,1,désinvolture
1437,1,désir
1438,1,désordre
1439,1,détache
1440,1,détaché
1441,1,détail
1442,1,détente
1443,1,déteste
1444,1,détournait
1445,1,développent
1446,1,développer
1447,1,déviaient
1448,1,dévorées
1449,1,dévouement
1450,1,dû
1451,1,effort
1452,1,effrayant
1453,1,effroi
1454,1,effroyablement
1455,1,embarquerez
1456,1,embarqué
1457,1,embrassa
1458,1,embryonnaire
1459,1,emmené
1460,1,emparait
1461,1,employé
1462,1,empressai
1463,1,empressait
1464,1,empêcher
1465,1,enchaînement
1466,1,encombrée
1467,1,encre
1468,1,enfoncer
1469,1,enfoncés
1470,1,enfonçai
1471,1,engagée
1472,1,enlever
1473,1,ennuis
1474,1,ensuite
1475,1,entachées
1476,1,entamer
1477,1,entendait
1478,1,entendre
1479,1,entends
1480,1,entier
1481,1,entrai
1482,1,entraînant
1483,1,entraîne
1484,1,entré
1485,1,envahi
1486,1,enveloppe
1487,1,envoyâmes
1488,1,escalier
1489,1,espérances
1490,1,essais
1491,1,essayai
1492,1,essayé
1493,1,essoufflée
1494,1,estimais
1495,1,eussent
1496,1,eux
1497,1,ex
1498,1,exact
1499,1,exacts
1500,1,examen
1501,1,examinez
1502,1,excellent
1503,1,excentrique
1504,1,exceptionnelle
1505,1,excitait
1506,1,exemples
1507,1,expiration
1508,1,explicable
1509,1,expliquerai
1510,1,expliqueras
1511,1,expliques
1512,1,expliquée
1513,1,exposer
1514,1,exposé
1515,1,expresse
1516,1,exprima
1517,1,exprimait
1518,1,exprimer
1519,1,exprimée
1520,1,extraordinaire
1521,1,extraordinairement
1522,1,extrémité
1523,1,extrêmes
1524,1,exubérance
1525,1,eyes
1526,1,fac
1527,1,faiblesse
1528,1,faisaient
1529,1,faisceau
1530,1,faisions
1531,1,faisons
1532,1,faite
1533,1,fallu
1534,1,familière
1535,1,fantaisie
1536,1,fatigue
1537,1,faubourg
1538,1,fausses
1539,1,feignais
1540,1,femmes
1541,1,fendus
1542,1,fenêtres
1543,1,fer
1544,1,fera
1545,1,ferai
1546,1,ferais
1547,1,feras
1548,1,feuillet
1549,1,fiancée
1550,1,ficelés
1551,1,figure
1552,1,fil
1553,1,fion
1554,1,fissure
1555,1,fixement
1556,1,fixité
1557,1,formait
1558,1,formellement
1559,1,former
1560,1,formes
1561,1,formulaient
1562,1,formée
1563,1,forts
1564,1,fou
1565,1,foudre
1566,1,foule
1567,1,fracas
1568,1,francfort
1569,1,franche
1570,1,franchement
1571,1,franchise
1572,1,frappa
1573,1,frappe
1574,1,frayâmes
1575,1,frissonna
1576,1,froide
1577,1,froidement
1578,1,froncement
1579,1,frottait
1580,1,frottement
1581,1,frère
1582,1,fréquent
1583,1,fréquentation
1584,1,fréquents
1585,1,fréquenté
1586,1,fuir
1587,1,furent
1588,1,futiles
1589,1,fâché
1590,1,félicitant
1591,1,gagnerai
1592,1,gaiement
1593,1,garder
1594,1,gastronomiques
1595,1,gauche
1596,1,gendre
1597,1,genoux
1598,1,gentille
1599,1,germain
1600,1,glace
1601,1,glissé
1602,1,glutineux
1603,1,gouttes
1604,1,gracieusement
1605,1,grandes
1606,1,grasse
1607,1,gravement
1608,1,grey
1609,1,griffonnages
1610,1,griffonner
1611,1,gris
1612,1,gros
1613,1,grosses
1614,1,grossières
1615,1,grâce
1616,1,grâces
1617,1,gré
1618,1,guetté
1619,1,guidât
1620,1,guère
1621,1,gémissait
1622,1,général
1623,1,généralement
1624,1,gêné
1625,1,gênée
1626,1,habilement
1627,1,habitant
1628,1,habitude
1629,1,habituée
1630,1,hachures
1631,1,hagard
1632,1,haletante
1633,1,harmonie
1634,1,hasard
1635,1,hasards
1636,1,haussai
1637,1,hautaines
1638,1,heureuse
1639,1,heurta
1640,1,hideux
1641,1,hier
1642,1,hiérarchie
1643,1,hombourg
1644,1,hors
1645,1,humain
1646,1,humains
1647,1,humide
1648,1,hypocrisie
1649,1,hypothèse
1650,1,hébète
1651,1,hésitante
1652,1,hésitation
1653,1,hésitez
1654,1,identité
1655,1,ignore
1656,1,imagination
1657,1,imitai
1658,1,immense
1659,1,immédiat
1660,1,impassible
1661,1,impatience
1662,1,imperceptibles
1663,1,importance
1664,1,importe
1665,1,imposée
1666,1,improvisée
1667,1,impunis
1668,1,impénétrable
1669,1,impérativement
1670,1,impérieusement
1671,1,inanimée
1672,1,inanimés
1673,1,incapable
1674,1,incessants
1675,1,incidents
1676,1,inclinée
1677,1,inconcevable
1678,1,inconnu
1679,1,inconnue
1680,1,inconnus
1681,1,incroyable
1682,1,incrédulité
1683,1,indiscutables
1684,1,indispensable
1685,1,individu
1686,1,individus
1687,1,indécise
1688,1,indélicatesse
1689,1,inespérée
1690,1,infamie
1691,1,influences
1692,1,influer
1693,1,ingratitude
1694,1,inhérentes
1695,1,inintelligible
1696,1,initiative
1697,1,inoffensif
1698,1,insistai
1699,1,insistances
1700,1,insiste
1701,1,insisté
1702,1,insolent
1703,1,inspire
1704,1,inspirent
1705,1,instances
1706,1,instantanée
1707,1,instinct
1708,1,instructions
1709,1,instruisent
1710,1,intelligence
1711,1,intelligent
1712,1,intensité
1713,1,intention
1714,1,interrogatoire
1715,1,interrogé
1716,1,interrompant
1717,1,interromps
1718,1,intestat
1719,1,intimes
1720,1,intolérable
1721,1,introduisit
1722,1,intuition
1723,1,intéressait
1724,1,intéressant
1725,1,intéresse
1726,1,inutiles
1727,1,involontaire
1728,1,involontairement
1729,1,involontaires
1730,1,iris
1731,1,irlande
1732,1,ironiquement
1733,1,jailli
1734,1,jeta
1735,1,jetant
1736,1,jette
1737,1,jeté
1738,1,jeuneurs
1739,1,jeux
1740,1,joie
1741,1,joies
1742,1,jouant
1743,1,journal
1744,1,journaux
1745,1,jugement
1746,1,juré
1747,1,justement
1748,1,justifiées
1749,1,laborieuse
1750,1,labyrinthe
1751,1,laissait
1752,1,laissant
1753,1,laisser
1754,1,laisserait
1755,1,laissée
1756,1,lait
1757,1,lampe
1758,1,lancent
1759,1,lancinants
1760,1,langoureux
1761,1,langue
1762,1,larmes
1763,1,latérale
1764,1,laudanum
1765,1,lenteur
1766,1,lents
1767,1,levai
1768,1,liberté
1769,1,libraire
1770,1,lien
1771,1,lier
1772,1,limpide
1773,1,linge
1774,1,lire
1775,1,lis
1776,1,livide
1777,1,livrant
1778,1,livre
1779,1,locataires
1780,1,loyer
1781,1,lus
1782,1,lutte
1783,1,lâche
1784,1,lèvre
1785,1,léger
1786,1,magasin
1787,1,magnétisme
1788,1,maigre
1789,1,maintenait
1790,1,maisons
1791,1,mal
1792,1,malheureusement
1793,1,malheureux
1794,1,malle
1795,1,malveillant
1796,1,malveillants
1797,1,manifeste
1798,1,manières
1799,1,manque
1800,1,mansarde
1801,1,marcha
1802,1,marianne
1803,1,marié
1804,1,mariée
1805,1,mate
1806,1,mathématiques
1807,1,matériel
1808,1,maître
1809,1,mediocritas
1810,1,menaçante
1811,1,mention
1812,1,mené
1813,1,mer
1814,1,mercredi
1815,1,merveille
1816,1,mets
1817,1,mettaient
1818,1,mettait
1819,1,mette
1820,1,mettent
1821,1,meublé
1822,1,mise
1823,1,misère
1824,1,modeste
1825,1,modestement
1826,1,modique
1827,1,moitié
1828,1,monde
1829,1,monta
1830,1,monter
1831,1,montrent
1832,1,montrer
1833,1,montâmes
1834,1,moquions
1835,1,moral
1836,1,morales
1837,1,motivait
1838,1,motivé
1839,1,mots
1840,1,moyenne
1841,1,moyens
1842,1,multipliées
1843,1,murmura
1844,1,muscle
1845,1,musicale
1846,1,mystère
1847,1,mètres
1848,1,mécontentement
1849,1,méditatif
1850,1,méditations
1851,1,mémoire
1852,1,méritèrent
1853,1,mêlaient
1854,1,mêmes
1855,1,naissance
1856,1,naissant
1857,1,narrateur
1858,1,naturel
1859,1,naturelle
1860,1,nerfs
1861,1,nie
1862,1,nier
1863,1,noir
1864,1,nom
1865,1,nombre
1866,1,nombreuses
1867,1,nombreux
1868,1,nommait
1869,1,nonchaloir
1870,1,notables
1871,1,notamment
1872,1,noté
1873,1,nouvelle
1874,1,nécessaire
1875,1,nécessité
1876,1,négativement
1877,1,néglige
1878,1,négociants
1879,1,névralgique
1880,1,nôtres
1881,1,objets
1882,1,obligeamment
1883,1,obligé
1884,1,observations
1885,1,observer
1886,1,obtenir
1887,1,obéissait
1888,1,obéit
1889,1,obéîmes
1890,1,occupa
1891,1,occupaient
1892,1,occupait
1893,1,occuper
1894,1,occupions
1895,1,octobre
1896,1,offraient
1897,1,offrons
1898,1,oiseaux
1899,1,ombré
1900,1,opinion
1901,1,orage
1902,1,orbites
1903,1,ordinaires
1904,1,ordre
1905,1,ordres
1906,1,organisèrent
1907,1,organisée
1908,1,ose
1909,1,oublier
1910,1,ouvert
1911,1,ouvertes
1912,1,ouvrait
1913,1,ouvrant
1914,1,ouvris
1915,1,paganini
1916,1,pain
1917,1,palais
1918,1,palier
1919,1,panier
1920,1,papiers
1921,1,paradoxe
1922,1,paragraphe
1923,1,paraissant
1924,1,paralysie
1925,1,paralysée
1926,1,pardonne
1927,1,pardonneras
1928,1,paresse
1929,1,parfois
1930,1,parie
1931,1,particularité
1932,1,particulièrement
1933,1,partions
1934,1,partir
1935,1,partirent
1936,1,partis
1937,1,partner
1938,1,parvenait
1939,1,parvins
1940,1,parût
1941,1,passage
1942,1,passai
1943,1,passant
1944,1,passion
1945,1,passivité
1946,1,passâmes
1947,1,passée
1948,1,patrimoine
1949,1,paupière
1950,1,paupières
1951,1,pause
1952,1,pauvres
1953,1,peines
1954,1,pencha
1955,1,penchant
1956,1,pendule
1957,1,pensai
1958,1,penser
1959,1,penses
1960,1,pensée
1961,1,perceptibles
1962,1,perdit
1963,1,perds
1964,1,perlait
1965,1,permets
1966,1,perse
1967,1,persistance
1968,1,persévérance
1969,1,perte
1970,1,perçante
1971,1,pesant
1972,1,peux
1973,1,phrase
1974,1,physionomiques
1975,1,physiquement
1976,1,phénomène
1977,1,pied
1978,1,pieds
1979,1,pimpante
1980,1,piochant
1981,1,piquet
1982,1,pire
1983,1,pitié
1984,1,pièce
1985,1,pièces
1986,1,placide
1987,1,placidité
1988,1,plafonds
1989,1,plaidât
1990,1,plaignais
1991,1,plaignait
1992,1,plaindre
1993,1,plaisamment
1994,1,plaisant
1995,1,plaisantant
1996,1,plaisanterie
1997,1,plan
1998,1,plans
1999,1,plaques
2000,1,plastique
2001,1,plateau
2002,1,plaça
2003,1,plaçai
2004,1,plaçait
2005,1,plaçâmes
2006,1,pleura
2007,1,pleurait
2008,1,pleurant
2009,1,pleurer
2010,1,plongeait
2011,1,plongeant
2012,1,plume
2013,1,plupart
2014,1,plutôt
2015,1,plâtreux
2016,1,poignet
2017,1,poitrine
2018,1,poli
2019,1,poliment
2020,1,politesses
2021,1,ponctualité
2022,1,portent
2023,1,porter
2024,1,portraits
2025,1,posant
2026,1,poste
2027,1,potence
2028,1,pouce
2029,1,pourrait
2030,1,poursuivant
2031,1,poussa
2032,1,poussant
2033,1,pousser
2034,1,poussés
2035,1,pouvoir
2036,1,pratique
2037,1,premiers
2038,1,premièrement
2039,1,premières
2040,1,prenait
2041,1,prenant
2042,1,prendre
2043,1,prends
2044,1,prenons
2045,1,pria
2046,1,prier
2047,1,principe
2048,1,prise
2049,1,prises
2050,1,prisonnier
2051,1,privilégiées
2052,1,prix
2053,1,probabilités
2054,1,problème
2055,1,prochain
2056,1,prochaine
2057,1,procédaient
2058,1,procédé
2059,1,produira
2060,1,produisant
2061,1,produisit
2062,1,profitai
2063,1,profonde
2064,1,profondeur
2065,1,profonds
2066,1,profusion
2067,1,projeté
2068,1,promenait
2069,1,promesse
2070,1,prompt
2071,1,propos
2072,1,proposai
2073,1,proposition
2074,1,propres
2075,1,propreté
2076,1,prostration
2077,1,protestations
2078,1,prouvé
2079,1,précautions
2080,1,précipita
2081,1,précipitamment
2082,1,précipité
2083,1,précédemment
2084,1,précédé
2085,1,précédés
2086,1,préfères
2087,1,prématurément
2088,1,prémisses
2089,1,préoccupation
2090,1,préoccupée
2091,1,préparées
2092,1,présenta
2093,1,présentaient
2094,1,présentait
2095,1,présentent
2096,1,présumé
2097,1,prétendais
2098,1,prétexte
2099,1,prévenu
2100,1,prévu
2101,1,prête
2102,1,prêté
2103,1,publiés
2104,1,puissante
2105,1,puisse
2106,1,pupille
2107,1,pâleur
2108,1,pâlit
2109,1,pèse
2110,1,pénible
2111,1,pénétrâmes
2112,1,pénétré
2113,1,péri
2114,1,période
2115,1,périodes
2116,1,pérégrinations
2117,1,pûmes
2118,1,quarte
2119,1,quatrième
2120,1,questions
2121,1,quittai
2122,1,quitte
2123,1,quitter
2124,1,quittions
2125,1,quoiqu
2126,1,quotidien
2127,1,raconta
2128,1,raconter
2129,1,racontions
2130,1,raconté
2131,1,raisonner
2132,1,ramassai
2133,1,rangées
2134,1,rapidité
2135,1,rappelons
2136,1,rapportaient
2137,1,rapporter
2138,1,rapports
2139,1,rapprochons
2140,1,rare
2141,1,rattache
2142,1,rattraper
2143,1,rayonnant
2144,1,reconnaissait
2145,1,reconnaîtrez
2146,1,reconnut
2147,1,recouvrant
2148,1,recueilli
2149,1,recueillie
2150,1,recueillir
2151,1,redescendit
2152,1,redevenant
2153,1,refusé
2154,1,refusée
2155,1,regardais
2156,1,regrettais
2157,1,relativement
2158,1,relativité
2159,1,releva
2160,1,relever
2161,1,relevé
2162,1,relevée
2163,1,relevés
2164,1,relut
2165,1,remarier
2166,1,remarquable
2167,1,remarque
2168,1,remarquez
2169,1,remet
2170,1,remettant
2171,1,remit
2172,1,remontai
2173,1,remontant
2174,1,remontrance
2175,1,remontât
2176,1,remplissait
2177,1,rendez
2178,1,renfermâmes
2179,1,renonçai
2180,1,renseignements
2181,1,rentrait
2182,1,rentrèrent
2183,1,renversé
2184,1,reparaissez
2185,1,repartons
2186,1,reprochai
2187,1,reproche
2188,1,reproches
2189,1,représente
2190,1,représenter
2191,1,requêtes
2192,1,ressentir
2193,1,ressortir
2194,1,ressources
2195,1,restai
2196,1,restaurant
2197,1,restes
2198,1,resté
2199,1,restée
2200,1,restés
2201,1,retiraient
2202,1,retirâmes
2203,1,retombait
2204,1,retour
2205,1,retournait
2206,1,retournant
2207,1,retourné
2208,1,retrouvai
2209,1,retrouverai
2210,1,retrouvé
2211,1,revenant
2212,1,reçu
2213,1,riait
2214,1,rideaux
2215,1,rieur
2216,1,rocher
2217,1,roman
2218,1,romans
2219,1,rosée
2220,1,rougissais
2221,1,rouleau
2222,1,rouler
2223,1,royaumes
2224,1,rues
2225,1,rupture
2226,1,réalisait
2227,1,récits
2228,1,rédigé
2229,1,réelle
2230,1,réellement
2231,1,réflexes
2232,1,réfléchir
2233,1,réfléchissais
2234,1,réfléchissait
2235,1,réfléchissant
2236,1,régna
2237,1,régularité
2238,1,réguliers
2239,1,régulièrement
2240,1,réparâmes
2241,1,répliquai
2242,1,répond
2243,1,répondent
2244,1,répondîmes
2245,1,réponse
2246,1,réprimée
2247,1,répétait
2248,1,répété
2249,1,résolus
2250,1,résolutions
2251,1,résurrection
2252,1,réunir
2253,1,réunissions
2254,1,réunissons
2255,1,rêveur
2256,1,rôle
2257,1,saillant
2258,1,saillie
2259,1,saint
2260,1,saisi
2261,1,saisissant
2262,1,saisit
2263,1,sait
2264,1,salut
2265,1,sanglante
2266,1,sanglantes
2267,1,sanglants
2268,1,sanguinolente
2269,1,satisfaction
2270,1,satisfait
2271,1,sauras
2272,1,savait
2273,1,sceller
2274,1,sculpture
2275,1,sec
2276,1,second
2277,1,secondes
2278,1,secrètes
2279,1,seize
2280,1,semaine
2281,1,semblaient
2282,1,semblais
2283,1,semblent
2284,1,sensibles
2285,1,sentait
2286,1,sentez
2287,1,sentiment
2288,1,sentis
2289,1,sept
2290,1,serai
2291,1,seraient
2292,1,serez
2293,1,serrai
2294,1,serraient
2295,1,serrant
2296,1,serrer
2297,1,serré
2298,1,sert
2299,1,serviable
2300,1,seuls
2301,1,sien
2302,1,siennes
2303,1,signa
2304,1,signes
2305,1,signets
2306,1,signez
2307,1,similé
2308,1,simple
2309,1,simplement
2310,1,simples
2311,1,simultané
2312,1,sincère
2313,1,singulièrement
2314,1,situation
2315,1,soient
2316,1,soirées
2317,1,sois
2318,1,soixante
2319,1,sol
2320,1,solution
2321,1,sombré
2322,1,sonna
2323,1,sonnaient
2324,1,sonnais
2325,1,sonnions
2326,1,sortait
2327,1,sortant
2328,1,sortes
2329,1,sortie
2330,1,sortirent
2331,1,sortis
2332,1,sortîmes
2333,1,sot
2334,1,souffrance
2335,1,souffre
2336,1,souffrir
2337,1,soulagement
2338,1,soupçons
2339,1,sourcils
2340,1,sourit
2341,1,soutenait
2342,1,souvenir
2343,1,spectacle
2344,1,strabisme
2345,1,stupéfait
2346,1,su
2347,1,substituer
2348,1,substitué
2349,1,successivement
2350,1,succomber
2351,1,suffise
2352,1,suffît
2353,1,suggéra
2354,1,suit
2355,1,suivant
2356,1,suiviez
2357,1,supplémentaire
2358,1,supposer
2359,1,supposition
2360,1,surprenais
2361,1,surprenantes
2362,1,sus
2363,1,suspension
2364,1,susse
2365,1,sympathiques
2366,1,sympathisation
2367,1,système
2368,1,sèvres
2369,1,sécheresse
2370,1,sécurité
2371,1,séjourné
2372,1,séparâmes
2373,1,séparés
2374,1,sérieux
2375,1,sévère
2376,1,sûr
2377,1,ta
2378,1,tact
2379,1,taisions
2380,1,tapis
2381,1,tard
2382,1,tasse
2383,1,tempe
2384,1,temporaire
2385,1,tenais
2386,1,tendait
2387,1,tendis
2388,1,tendresse
2389,1,tendu
2390,1,tenez
2391,1,tenir
2392,1,tentateur
2393,1,tenus
2394,1,terme
2395,1,terminent
2396,1,terminer
2397,1,terrifié
2398,1,thé
2399,1,tiens
2400,1,tierce
2401,1,titre
2402,1,toi
2403,1,toilette
2404,1,tombent
2405,1,ton
2406,1,tonalité
2407,1,tortures
2408,1,touché
2409,1,tourna
2410,1,tournoyante
2411,1,traces
2412,1,traduire
2413,1,traduisant
2414,1,trahi
2415,1,trahissait
2416,1,traitement
2417,1,transition
2418,1,travaillait
2419,1,travaillant
2420,1,travailleur
2421,1,travaux
2422,1,travers
2423,1,traçait
2424,1,traîne
2425,1,treillis
2426,1,treize
2427,1,tremblement
2428,1,trentaine
2429,1,tressaillit
2430,1,triples
2431,1,tristes
2432,1,trompe
2433,1,tromper
2434,1,trouvaient
2435,1,trouve
2436,1,trouvons
2437,1,trouvâmes
2438,1,tue
2439,1,tuer
2440,1,tuée
2441,1,tympan
2442,1,type
2443,1,télégraphique
2444,1,témoignait
2445,1,tôt
2446,1,ultérieures
2447,1,unanimement
2448,1,union
2449,1,usage
2450,1,utile
2451,1,vague
2452,1,vaisseau
2453,1,van
2454,1,vas
2455,1,veille
2456,1,veillons
2457,1,venez
2458,1,vengée
2459,1,venue
2460,1,venues
2461,1,verre
2462,1,versatilité
2463,1,veuf
2464,1,veuvage
2465,1,vibrer
2466,1,victorieusement
2467,1,viendrait
2468,1,viennent
2469,1,vif
2470,1,vifs
2471,1,vigoureuse
2472,1,vigoureusement
2473,1,ville
2474,1,vingts
2475,1,violemment
2476,1,violent
2477,1,violentes
2478,1,vis
2479,1,visitâmes
2480,1,visqueux
2481,1,vite
2482,1,vitesse
2483,1,vivacité
2484,1,vivant
2485,1,vivants
2486,1,vivre
2487,1,voile
2488,1,voit
2489,1,voiture
2490,1,volant
2491,1,vont
2492,1,voudrais
2493,1,voudriez
2494,1,voulait
2495,1,voulions
2496,1,vouloir
2497,1,voulons
2498,1,voyager
2499,1,voyait
2500,1,voyons
2501,1,voûté
2502,1,vraie
2503,1,vrais
2504,1,vulgairement
2505,1,vécu
2506,1,véritables
2507,1,wagon
2508,1,ébranlent
2509,1,ébranler
2510,1,écartaient
2511,1,échafaud
2512,1,échangé
2513,1,échangées
2514,1,échapper
2515,1,échappé
2516,1,éclairait
2517,1,éclairé
2518,1,écosse
2519,1,écoula
2520,1,écoulées
2521,1,écoutait
2522,1,écoute
2523,1,écrasé
2524,1,écria
2525,1,écriais
2526,1,écriait
2527,1,écrivait
2528,1,égale
2529,1,égards
2530,1,élança
2531,1,élançâmes
2532,1,éleva
2533,1,élevée
2534,1,élevés
2535,1,émouvoir
2536,1,ému
2537,1,épaule
2538,1,époque
2539,1,épouse
2540,1,épouser
2541,1,éprouve
2542,1,éprouvées
2543,1,équipage
2544,1,établir
2545,1,étapes
2546,1,état
2547,1,étouffe
2548,1,étourdissement
2549,1,étrange
2550,1,étrangement
2551,1,étranger
2552,1,étranglée
2553,1,étude
2554,1,étudier
2555,1,étudions
2556,1,évanoui
2557,1,évanouit
2558,1,éveille
2559,1,éveiller
2560,1,évident
2561,1,évidente
2562,1,évités
2563,1,êtres
