1,265,de
2,205,et
3,150,le
4,147,je
5,137,il
6,130,à
7,125,la
8,121,l
9,120,que
10,103,en
11,98,les
12,85,un
13,81,ne
14,78,d
15,71,ce
16,71,pas
17,69,est
18,69,nous
19,63,qui
20,62,me
21,57,une
22,56,maître
23,54,qu
24,53,des
25,53,n
26,52,vous
27,51,du
28,51,était
29,50,j
30,47,avait
31,47,c
32,46,dans
33,45,au
34,45,mais
35,42,m
36,41,bien
37,41,se
38,39,sur
39,37,jean
40,37,son
41,36,avec
42,36,lui
43,33,comme
44,32,s
45,31,moi
46,31,pour
47,27,là
48,27,plus
49,27,roche
50,24,ma
51,24,orgue
52,23,avais
53,23,tu
54,22,mon
55,22,on
56,22,où
57,21,petit
58,20,sanadoire
59,20,tout
60,19,bibi
61,19,mes
62,19,si
63,18,a
64,18,par
65,16,sans
66,16,vin
67,16,étais
68,15,cela
69,15,dit
70,15,fort
71,15,ses
72,15,être
73,14,fait
74,14,quand
75,14,sa
76,13,ces
77,13,chanturgue
78,13,point
79,13,y
80,12,chante
81,12,encore
82,12,jour
83,12,non
84,12,ou
85,12,très
86,11,ai
87,11,bon
88,11,car
89,11,cette
90,11,curé
91,11,frère
92,11,titan
93,10,aussi
94,10,deux
95,10,suis
96,10,étions
97,10,été
98,9,beau
99,9,donc
100,9,eût
101,9,fois
102,9,fus
103,9,jamais
104,9,montagnes
105,9,professeur
106,9,rien
107,9,roches
108,9,répondit
109,9,te
110,9,vois
111,9,étaient
112,8,devant
113,8,dire
114,8,eh
115,8,elles
116,8,faire
117,8,mains
118,8,musique
119,8,oui
120,8,peut
121,8,pourtant
122,8,tête
123,7,autre
124,7,chemin
125,7,chose
126,7,cravache
127,7,dont
128,7,grand
129,7,homme
130,7,motif
131,7,orgues
132,7,peu
133,7,pris
134,7,quelque
135,7,route
136,7,répondis
137,7,sais
138,7,titans
139,7,trois
140,7,voyez
141,6,allons
142,6,as
143,6,avions
144,6,chez
145,6,ciel
146,6,désert
147,6,entendre
148,6,fit
149,6,grande
150,6,jusqu
151,6,leurs
152,6,moment
153,6,même
154,6,pu
155,6,sous
156,6,tous
157,5,ah
158,5,après
159,5,autres
160,5,bas
161,5,bout
162,5,cathédrale
163,5,clermont
164,5,compte
165,5,dis
166,5,endroit
167,5,fut
168,5,haut
169,5,long
170,5,montagne
171,5,nom
172,5,nos
173,5,organiste
174,5,pays
175,5,pied
176,5,plein
177,5,quoi
178,5,reprit
179,5,soufflet
180,5,t
181,5,temps
182,5,toutes
183,5,trop
184,5,venu
185,5,verre
186,5,vers
187,5,vicaire
188,5,vie
189,5,vis
190,5,vite
191,4,abîme
192,4,accès
193,4,arriver
194,4,assez
195,4,attention
196,4,basalte
197,4,cheval
198,4,clavier
199,4,comment
200,4,dessus
201,4,diable
202,4,disant
203,4,eau
204,4,enfant
205,4,faites
206,4,grosse
207,4,ils
208,4,improviser
209,4,instant
210,4,jambes
211,4,joue
212,4,lieu
213,4,loin
214,4,mal
215,4,manière
216,4,manquer
217,4,mit
218,4,monts
219,4,nuit
220,4,pieds
221,4,pierre
222,4,pouvait
223,4,présent
224,4,quelquefois
225,4,quelques
226,4,ravin
227,4,sacristain
228,4,santé
229,4,sauvages
230,4,sembla
231,4,sentier
232,4,serait
233,4,souvent
234,4,toi
235,4,ton
236,4,torrent
237,4,toujours
238,4,toute
239,4,tuyaux
240,4,voir
241,4,voyant
242,4,âne
243,4,écroulement
244,3,ainsi
245,3,aperçut
246,3,aujourd
247,3,autour
248,3,auvergne
249,3,aux
250,3,avoir
251,3,base
252,3,beaucoup
253,3,bruit
254,3,brusquement
255,3,celles
256,3,chapeau
257,3,choses
258,3,chute
259,3,colline
260,3,danger
261,3,demandai
262,3,depuis
263,3,derrière
264,3,dessous
265,3,doivent
266,3,droite
267,3,débris
268,3,déjà
269,3,effet
270,3,endroits
271,3,expliquer
272,3,extraordinaire
273,3,fis
274,3,fond
275,3,fût
276,3,gros
277,3,heures
278,3,hui
279,3,idée
280,3,idées
281,3,introït
282,3,ivre
283,3,lac
284,3,laisser
285,3,leur
286,3,leçons
287,3,lorsqu
288,3,lune
289,3,malgré
290,3,messe
291,3,midi
292,3,mieux
293,3,mille
294,3,moins
295,3,monsieur
296,3,musical
297,3,ni
298,3,parler
299,3,paroisse
300,3,partir
301,3,pauvre
302,3,pendant
303,3,personne
304,3,petite
305,3,peur
306,3,pic
307,3,plat
308,3,plusieurs
309,3,portemanteau
310,3,pouvais
311,3,première
312,3,prendre
313,3,presque
314,3,près
315,3,puis
316,3,puisque
317,3,rapide
318,3,rendre
319,3,sang
320,3,savez
321,3,sec
322,3,selon
323,3,sens
324,3,souffler
325,3,souffrance
326,3,souvenir
327,3,suivre
328,3,talent
329,3,terre
330,3,traces
331,3,trouvé
332,3,vais
333,3,veux
334,3,viens
335,3,voix
336,3,vos
337,3,voulait
338,3,vu
339,3,véritable
340,3,élevé
341,3,élève
342,3,élévation
343,2,air
344,2,allegro
345,2,allez
346,2,alors
347,2,amis
348,2,amuser
349,2,appelait
350,2,appeler
351,2,arbrisseau
352,2,arbuste
353,2,argent
354,2,arrière
355,2,arrêter
356,2,assis
357,2,auberge
358,2,aucune
359,2,avaient
360,2,avant
361,2,aventure
362,2,avez
363,2,avons
364,2,avouer
365,2,basaltiques
366,2,belles
367,2,bergers
368,2,blessures
369,2,bois
370,2,bonne
371,2,bras
372,2,brouter
373,2,bruyères
374,2,buissons
375,2,celle
376,2,celui
377,2,certainement
378,2,cet
379,2,chant
380,2,chantais
381,2,chanter
382,2,chaîne
383,2,chèvre
384,2,chœur
385,2,colère
386,2,commençait
387,2,composer
388,2,contournés
389,2,corde
390,2,coup
391,2,courage
392,2,courir
393,2,coutume
394,2,cria
395,2,crois
396,2,croupe
397,2,croyais
398,2,crut
399,2,côte
400,2,côté
401,2,dangereux
402,2,debout
403,2,demain
404,2,descendez
405,2,descendre
406,2,descendu
407,2,disait
408,2,distance
409,2,doigts
410,2,dort
411,2,drôle
412,2,duquel
413,2,découvrir
414,2,déjeuner
415,2,déraciné
416,2,développer
417,2,dômes
418,2,dû
419,2,effort
420,2,effrayé
421,2,effroyable
422,2,enfin
423,2,enseigner
424,2,entre
425,2,es
426,2,esprit
427,2,eu
428,2,eusse
429,2,eut
430,2,existe
431,2,eûmes
432,2,faisait
433,2,firent
434,2,fleurs
435,2,frappé
436,2,froid
437,2,front
438,2,gai
439,2,gaiement
440,2,gazelle
441,2,gens
442,2,glacé
443,2,gris
444,2,grossir
445,2,génie
446,2,habit
447,2,hasard
448,2,heure
449,2,heureusement
450,2,histoire
451,2,horizon
452,2,hêtres
453,2,ici
454,2,idiot
455,2,imaginaire
456,2,ivresse
457,2,jeu
458,2,joli
459,2,jouais
460,2,jours
461,2,joué
462,2,laissa
463,2,lendemain
464,2,lignes
465,2,limite
466,2,longs
467,2,maestro
468,2,maigre
469,2,main
470,2,maisons
471,2,manche
472,2,manger
473,2,mi
474,2,milieu
475,2,mis
476,2,moments
477,2,monde
478,2,musicien
479,2,mémoire
480,2,nature
481,2,naturellement
482,2,net
483,2,noir
484,2,noire
485,2,nouveau
486,2,nulle
487,2,nullement
488,2,né
489,2,oreilles
490,2,paroles
491,2,partie
492,2,parut
493,2,passa
494,2,passer
495,2,passé
496,2,paysage
497,2,perspective
498,2,petits
499,2,piano
500,2,pierres
501,2,place
502,2,plan
503,2,plantes
504,2,plutôt
505,2,pomme
506,2,pourquoi
507,2,prairies
508,2,prismes
509,2,produisit
510,2,prétendu
511,2,put
512,2,pyramides
513,2,quant
514,2,quatre
515,2,quel
516,2,quelle
517,2,queue
518,2,raison
519,2,rapidement
520,2,rassuré
521,2,ravins
522,2,recherches
523,2,reflet
524,2,rendis
525,2,reprenant
526,2,ressemblait
527,2,retrouva
528,2,roues
529,2,réalité
530,2,réel
531,2,régularité
532,2,sait
533,2,sapins
534,2,sentis
535,2,située
536,2,siècle
537,2,soir
538,2,soit
539,2,sol
540,2,soleil
541,2,sonatoire
542,2,sont
543,2,sorte
544,2,sorti
545,2,souper
546,2,sublime
547,2,suivant
548,2,surtout
549,2,ta
550,2,talus
551,2,tant
552,2,tendres
553,2,terminé
554,2,terrible
555,2,tonnerres
556,2,tournant
557,2,traita
558,2,trouvai
559,2,tuilière
560,2,uns
561,2,vaches
562,2,vallées
563,2,vanité
564,2,veut
565,2,vibration
566,2,vignes
567,2,vint
568,2,voilà
569,2,voulu
570,2,voyais
571,2,voyait
572,2,voyons
573,2,vraiment
574,2,vue
575,2,vues
576,2,âge
577,2,ça
578,2,éblouissement
579,2,écriai
580,2,ému
581,2,épais
582,2,épaule
583,2,épouvanté
584,2,étranges
585,2,étroites
586,2,étudié
587,2,étymologie
588,2,éveillai
589,2,êtes
590,2,œuvre
591,1,abattre
592,1,abord
593,1,abritaient
594,1,abritées
595,1,abréviation
596,1,abîmes
597,1,accidents
598,1,accordeur
599,1,accoutumée
600,1,acquérait
601,1,adieux
602,1,administrer
603,1,adopté
604,1,adoremus
605,1,adoucie
606,1,adoucis
607,1,affaiblie
608,1,affaiblis
609,1,affectent
610,1,affreux
611,1,agiter
612,1,agrandis
613,1,agréable
614,1,agréablement
615,1,aguerri
616,1,aida
617,1,aidai
618,1,aie
619,1,ailes
620,1,ailleurs
621,1,aimable
622,1,aimaient
623,1,aimer
624,1,aimé
625,1,ajoutant
626,1,allant
627,1,aller
628,1,alliage
629,1,allions
630,1,allongeait
631,1,allongent
632,1,alourdissement
633,1,alpestre
634,1,alternativement
635,1,ami
636,1,amusai
637,1,ancien
638,1,ange
639,1,angelin
640,1,angoisse
641,1,annonçait
642,1,années
643,1,anodines
644,1,aperçu
645,1,aplanis
646,1,apparemment
647,1,apparence
648,1,apporte
649,1,apprenez
650,1,appris
651,1,approchez
652,1,approvisionné
653,1,appétit
654,1,arbre
655,1,arbres
656,1,ardente
657,1,arrivait
658,1,arrive
659,1,arrivâmes
660,1,arrondis
661,1,arrêta
662,1,arrêtés
663,1,artiste
664,1,aspect
665,1,aspérités
666,1,asseoir
667,1,assurance
668,1,assurer
669,1,attend
670,1,attendait
671,1,attendez
672,1,attendrissement
673,1,attends
674,1,attribuait
675,1,attribue
676,1,attribuer
677,1,attribuez
678,1,aucun
679,1,auparavant
680,1,auprès
681,1,auriez
682,1,autant
683,1,avenir
684,1,aversion
685,1,aveu
686,1,aveuglait
687,1,avoine
688,1,bah
689,1,baignés
690,1,baisser
691,1,balancement
692,1,balancer
693,1,ballons
694,1,ballottaient
695,1,bandes
696,1,bandé
697,1,barbare
698,1,basaltes
699,1,basques
700,1,basse
701,1,bataille
702,1,battait
703,1,battant
704,1,battu
705,1,beaux
706,1,bel
707,1,belle
708,1,berges
709,1,besoin
710,1,bientôt
711,1,billard
712,1,bizarre
713,1,blessé
714,1,bleue
715,1,bleues
716,1,bleuâtre
717,1,blâmé
718,1,boirais
719,1,boire
720,1,boivent
721,1,bord
722,1,bordé
723,1,bottes
724,1,bouge
725,1,bougeait
726,1,bougeons
727,1,bouteille
728,1,bribe
729,1,bribes
730,1,bride
731,1,brigand
732,1,brillant
733,1,brillantes
734,1,briser
735,1,brisée
736,1,brisées
737,1,brisés
738,1,broutait
739,1,brute
740,1,bu
741,1,buisson
742,1,bénis
743,1,bûcherons
744,1,cachaient
745,1,cachées
746,1,caisse
747,1,calais
748,1,campagne
749,1,capable
750,1,caractère
751,1,caressant
752,1,cartes
753,1,cascatelles
754,1,cassés
755,1,catastrophe
756,1,causer
757,1,cavalier
758,1,ceci
759,1,centaines
760,1,cents
761,1,cependant
762,1,cerveau
763,1,cesse
764,1,chaise
765,1,chalets
766,1,chanoines
767,1,chansons
768,1,chantes
769,1,chantèrent
770,1,chanté
771,1,chapitre
772,1,chaque
773,1,chariot
774,1,charité
775,1,charmant
776,1,charmants
777,1,chars
778,1,chefs
779,1,chercha
780,1,cherchant
781,1,chercher
782,1,cherchée
783,1,chevaucher
784,1,chevaux
785,1,chèvres
786,1,chérissait
787,1,ci
788,1,cime
789,1,cinglées
790,1,cinq
791,1,circulaire
792,1,clair
793,1,classique
794,1,clavecin
795,1,clavecins
796,1,clientèle
797,1,collet
798,1,collines
799,1,colonnettes
800,1,colossales
801,1,combinaisons
802,1,commence
803,1,commencement
804,1,commences
805,1,commençai
806,1,comparât
807,1,complète
808,1,composaient
809,1,compose
810,1,composée
811,1,compris
812,1,comptais
813,1,comptait
814,1,concerts
815,1,conclure
816,1,condition
817,1,confiance
818,1,confus
819,1,connaissance
820,1,connaître
821,1,connu
822,1,connue
823,1,connues
824,1,connus
825,1,conscience
826,1,consciencieusement
827,1,consiste
828,1,consulter
829,1,conséquent
830,1,contagieuse
831,1,content
832,1,continuais
833,1,contourné
834,1,contrarier
835,1,convenait
836,1,conviction
837,1,convulsive
838,1,coquet
839,1,corrections
840,1,couchant
841,1,coudes
842,1,coulait
843,1,couleront
844,1,coules
845,1,coupées
846,1,coupés
847,1,courbatus
848,1,couronne
849,1,court
850,1,couru
851,1,couvait
852,1,couvert
853,1,couverte
854,1,couvraient
855,1,craintif
856,1,craquelées
857,1,cratère
858,1,creuse
859,1,criai
860,1,criait
861,1,criant
862,1,cristallisations
863,1,croire
864,1,croissaient
865,1,croyait
866,1,croyant
867,1,cru
868,1,création
869,1,cuir
870,1,cuisine
871,1,culottes
872,1,cultivés
873,1,curiosité
874,1,céda
875,1,célèbres
876,1,côtoyant
877,1,côtés
878,1,cœur
879,1,da
880,1,dangers
881,1,date
882,1,demander
883,1,demandez
884,1,demandiez
885,1,dentelures
886,1,dentelée
887,1,dernière
888,1,dernières
889,1,descendus
890,1,descente
891,1,desquels
892,1,dessinaient
893,1,desséchée
894,1,devait
895,1,devenaient
896,1,devenir
897,1,devenues
898,1,devint
899,1,devoir
900,1,dieu
901,1,difficulté
902,1,différentes
903,1,digne
904,1,dilatation
905,1,dimanche
906,1,dimanches
907,1,dirait
908,1,direction
909,1,dirigeant
910,1,disais
911,1,discernement
912,1,discrétion
913,1,disparaissait
914,1,disparut
915,1,disposa
916,1,disposées
917,1,dispute
918,1,dissipé
919,1,dissipée
920,1,dites
921,1,docile
922,1,docteur
923,1,doctoral
924,1,dois
925,1,doit
926,1,domestique
927,1,dominait
928,1,donnait
929,1,donner
930,1,donnât
931,1,dore
932,1,dormi
933,1,dormir
934,1,dormit
935,1,dos
936,1,douceur
937,1,douloureuse
938,1,doute
939,1,doux
940,1,doué
941,1,droit
942,1,droites
943,1,droits
944,1,duraient
945,1,dure
946,1,dut
947,1,débarrassé
948,1,déchirées
949,1,décida
950,1,déclamer
951,1,déclin
952,1,décréter
953,1,dédaignait
954,1,dédain
955,1,défaire
956,1,dégrisé
957,1,déjeunions
958,1,délaissement
959,1,délicieuse
960,1,délirante
961,1,délire
962,1,démoralisé
963,1,dépêche
964,1,dépêcheras
965,1,dérobait
966,1,déserts
967,1,détachent
968,1,détours
969,1,détrôner
970,1,développa
971,1,dîner
972,1,dûmes
973,1,effacèrent
974,1,efforts
975,1,effrayants
976,1,effroyables
977,1,elle
978,1,embarrassante
979,1,embrassements
980,1,emmena
981,1,emmener
982,1,emphatiquement
983,1,empierrées
984,1,emporta
985,1,emportez
986,1,emporté
987,1,empêchait
988,1,empêcher
989,1,empêché
990,1,enchanté
991,1,encre
992,1,endormis
993,1,enfance
994,1,enfoui
995,1,engagée
996,1,ennuyeuse
997,1,enseigna
998,1,entassèrent
999,1,entende
1000,1,entendit
1001,1,enterrer
1002,1,enthousiasme
1003,1,enthousiaste
1004,1,entier
1005,1,entière
1006,1,entièrement
1007,1,entonne
1008,1,entrai
1009,1,entrer
1010,1,entretenait
1011,1,entrions
1012,1,entrée
1013,1,enveloppait
1014,1,environ
1015,1,envoya
1016,1,escalade
1017,1,escalader
1018,1,escarpées
1019,1,espace
1020,1,espaly
1021,1,espoir
1022,1,esprits
1023,1,essayai
1024,1,essayais
1025,1,essayant
1026,1,essentiellement
1027,1,estomac
1028,1,eus
1029,1,eussent
1030,1,exact
1031,1,examiner
1032,1,excellent
1033,1,excelsis
1034,1,excentricités
1035,1,excepté
1036,1,excusa
1037,1,existence
1038,1,explication
1039,1,exposition
1040,1,exposèrent
1041,1,exposé
1042,1,expédition
1043,1,extraordinaires
1044,1,facile
1045,1,faciles
1046,1,faciliter
1047,1,facilité
1048,1,faculté
1049,1,faiblesse
1050,1,faisaient
1051,1,faisais
1052,1,faisions
1053,1,faite
1054,1,faits
1055,1,fallait
1056,1,fallut
1057,1,fameuse
1058,1,famille
1059,1,fantastique
1060,1,fantômes
1061,1,fatal
1062,1,faut
1063,1,fauves
1064,1,faux
1065,1,façon
1066,1,fendues
1067,1,ferez
1068,1,fermées
1069,1,ferrés
1070,1,festin
1071,1,ficelée
1072,1,fictive
1073,1,fidèle
1074,1,figure
1075,1,fines
1076,1,flanc
1077,1,flancs
1078,1,flatte
1079,1,fleuri
1080,1,foi
1081,1,foisonnaient
1082,1,folle
1083,1,folâtrer
1084,1,font
1085,1,force
1086,1,formait
1087,1,forme
1088,1,formes
1089,1,formés
1090,1,forte
1091,1,forteresses
1092,1,fortuits
1093,1,força
1094,1,forêts
1095,1,fou
1096,1,foudre
1097,1,foudroya
1098,1,foudroyés
1099,1,foule
1100,1,fracas
1101,1,frais
1102,1,frappa
1103,1,frayeur
1104,1,fraîchement
1105,1,fraîcheur
1106,1,friable
1107,1,froide
1108,1,froides
1109,1,frotta
1110,1,fruits
1111,1,frères
1112,1,frémir
1113,1,fréquemment
1114,1,fugues
1115,1,fureur
1116,1,fusion
1117,1,fusse
1118,1,fussions
1119,1,fuyaient
1120,1,félicitai
1121,1,fêtait
1122,1,fêter
1123,1,fêté
1124,1,gagna
1125,1,gagnant
1126,1,garder
1127,1,gardé
1128,1,garçon
1129,1,gauche
1130,1,gazon
1131,1,genoux
1132,1,gesticulant
1133,1,gigantesques
1134,1,glissant
1135,1,gloria
1136,1,gorges
1137,1,goût
1138,1,gracieuse
1139,1,gracieux
1140,1,grandes
1141,1,grandi
1142,1,grandiose
1143,1,grandir
1144,1,grandit
1145,1,gras
1146,1,grave
1147,1,gravi
1148,1,gravit
1149,1,grimpantes
1150,1,grondait
1151,1,grosses
1152,1,grottes
1153,1,guerre
1154,1,guéri
1155,1,gâchis
1156,1,gâté
1157,1,géant
1158,1,géants
1159,1,géologie
1160,1,habiller
1161,1,habitants
1162,1,habitations
1163,1,habitude
1164,1,haleine
1165,1,hallucination
1166,1,hautes
1167,1,hein
1168,1,herbe
1169,1,herbes
1170,1,herbue
1171,1,heureux
1172,1,hissa
1173,1,hiver
1174,1,hommes
1175,1,honneur
1176,1,hors
1177,1,hospitalité
1178,1,humain
1179,1,humaine
1180,1,humbles
1181,1,humeur
1182,1,humides
1183,1,hâtai
1184,1,ignorais
1185,1,ignorance
1186,1,illusions
1187,1,illustre
1188,1,imagine
1189,1,imbécile
1190,1,immobile
1191,1,impatient
1192,1,importance
1193,1,importe
1194,1,impossible
1195,1,improvisant
1196,1,improvisation
1197,1,imprudente
1198,1,imprévu
1199,1,in
1200,1,incapable
1201,1,inclinées
1202,1,inconnu
1203,1,inculte
1204,1,indisposé
1205,1,indéfiniment
1206,1,inexprimable
1207,1,influences
1208,1,inoffensif
1209,1,inquiétude
1210,1,insensiblement
1211,1,insignifiante
1212,1,inspirait
1213,1,instinct
1214,1,instruit
1215,1,instrument
1216,1,intention
1217,1,ironie
1218,1,irriter
1219,1,irrités
1220,1,isolement
1221,1,isolées
1222,1,itinéraires
1223,1,ivrognerie
1224,1,jaillissaient
1225,1,jansiré
1226,1,jarrets
1227,1,jaunâtre
1228,1,jetai
1229,1,jetais
1230,1,jetant
1231,1,jette
1232,1,jetés
1233,1,jeune
1234,1,jeux
1235,1,joie
1236,1,jolis
1237,1,jouai
1238,1,jouer
1239,1,jumelle
1240,1,jupiter
1241,1,jusque
1242,1,laborieux
1243,1,laissant
1244,1,laisse
1245,1,laissé
1246,1,lancé
1247,1,langage
1248,1,laquelle
1249,1,large
1250,1,largement
1251,1,larmes
1252,1,las
1253,1,lassait
1254,1,lavait
1255,1,laves
1256,1,lenteur
1257,1,lequel
1258,1,lestés
1259,1,lettre
1260,1,levant
1261,1,leçon
1262,1,lieue
1263,1,ligne
1264,1,lit
1265,1,lointaines
1266,1,lois
1267,1,longtemps
1268,1,longue
1269,1,longues
1270,1,loups
1271,1,lourdes
1272,1,lumière
1273,1,lunette
1274,1,luthier
1275,1,lèverez
1276,1,maigres
1277,1,maigreur
1278,1,maintenant
1279,1,maison
1280,1,malade
1281,1,malfaisant
1282,1,malheureusement
1283,1,malheureux
1284,1,malice
1285,1,maltraité
1286,1,manda
1287,1,mander
1288,1,manqua
1289,1,marbrées
1290,1,marchant
1291,1,masses
1292,1,massif
1293,1,matin
1294,1,meilleure
1295,1,menaçait
1296,1,menaçants
1297,1,merle
1298,1,merveilleux
1299,1,mesure
1300,1,mettait
1301,1,mettant
1302,1,mettrez
1303,1,michel
1304,1,modestie
1305,1,moindre
1306,1,molles
1307,1,monstre
1308,1,mont
1309,1,montai
1310,1,montrait
1311,1,montre
1312,1,monture
1313,1,montée
1314,1,monumental
1315,1,moquait
1316,1,mort
1317,1,morts
1318,1,motets
1319,1,motifs
1320,1,mou
1321,1,mouchoir
1322,1,mousse
1323,1,mousses
1324,1,mouvements
1325,1,moïse
1326,1,muet
1327,1,mugir
1328,1,multipliés
1329,1,murmure
1330,1,musicale
1331,1,mystérieux
1332,1,mythologie
1333,1,mètres
1334,1,méandres
1335,1,méchants
1336,1,médiocre
1337,1,médiocrement
1338,1,méfiants
1339,1,mélancolie
1340,1,mélodie
1341,1,mélomane
1342,1,mérite
1343,1,métalliques
1344,1,mêle
1345,1,nains
1346,1,nankin
1347,1,naturelle
1348,1,naturelles
1349,1,naïves
1350,1,nerfs
1351,1,nerveuse
1352,1,nette
1353,1,nettement
1354,1,neufs
1355,1,neveu
1356,1,nippes
1357,1,nord
1358,1,notion
1359,1,notre
1360,1,noyées
1361,1,nuage
1362,1,nuages
1363,1,nuageux
1364,1,nues
1365,1,obstinée
1366,1,obéi
1367,1,obéir
1368,1,offrent
1369,1,oh
1370,1,oiseau
1371,1,ombres
1372,1,ont
1373,1,ordinaire
1374,1,ordonna
1375,1,orgueil
1376,1,origine
1377,1,orties
1378,1,oscillait
1379,1,oubliant
1380,1,oublierai
1381,1,outils
1382,1,outre
1383,1,ouvert
1384,1,ouvrage
1385,1,ouvrait
1386,1,ouï
1387,1,pan
1388,1,paraissaient
1389,1,paraissait
1390,1,parbleu
1391,1,parce
1392,1,parents
1393,1,parfaitement
1394,1,parfois
1395,1,paris
1396,1,parlait
1397,1,parlant
1398,1,parle
1399,1,parleur
1400,1,parlé
1401,1,paroissiens
1402,1,part
1403,1,particulier
1404,1,passionnait
1405,1,payées
1406,1,peine
1407,1,pendantes
1408,1,pensai
1409,1,pensant
1410,1,penser
1411,1,pente
1412,1,perché
1413,1,perdis
1414,1,perdre
1415,1,perdue
1416,1,perdus
1417,1,permettait
1418,1,persuader
1419,1,petites
1420,1,peux
1421,1,philosophiquement
1422,1,physiquement
1423,1,pianos
1424,1,pigeon
1425,1,pioches
1426,1,piquât
1427,1,pirogues
1428,1,pièce
1429,1,placez
1430,1,placées
1431,1,plaies
1432,1,plaines
1433,1,plaisait
1434,1,plaisanterie
1435,1,plaisantiez
1436,1,plaisir
1437,1,plaça
1438,1,pleins
1439,1,pleut
1440,1,plis
1441,1,plomb
1442,1,pluie
1443,1,plupart
1444,1,pointe
1445,1,pointes
1446,1,poisson
1447,1,politesse
1448,1,poltron
1449,1,ponctuel
1450,1,portait
1451,1,portant
1452,1,porter
1453,1,pose
1454,1,possible
1455,1,pourraient
1456,1,pourrais
1457,1,pourrait
1458,1,pourriez
1459,1,pourvu
1460,1,poussaient
1461,1,pouvant
1462,1,pouvez
1463,1,premier
1464,1,prenait
1465,1,prenant
1466,1,prenions
1467,1,presbytère
1468,1,presse
1469,1,pressentiment
1470,1,pressé
1471,1,prismatiques
1472,1,prit
1473,1,prix
1474,1,probabilité
1475,1,probablement
1476,1,profil
1477,1,profilaient
1478,1,profits
1479,1,profondes
1480,1,projet
1481,1,prolongea
1482,1,prolongeait
1483,1,prolongés
1484,1,promenades
1485,1,promenant
1486,1,promise
1487,1,proportion
1488,1,proportions
1489,1,propre
1490,1,protecteur
1491,1,protégé
1492,1,provinces
1493,1,provoqué
1494,1,prudent
1495,1,précipice
1496,1,précipices
1497,1,précipiter
1498,1,prélat
1499,1,préoccupait
1500,1,présentaient
1501,1,prétendaient
1502,1,prétendait
1503,1,prétends
1504,1,prétention
1505,1,prêchait
1506,1,publique
1507,1,puisqu
1508,1,puissance
1509,1,puissant
1510,1,puissantes
1511,1,puissants
1512,1,pur
1513,1,pusse
1514,1,pâles
1515,1,pâturage
1516,1,péril
1517,1,pêchai
1518,1,pêle
1519,1,quadrupède
1520,1,qualité
1521,1,quart
1522,1,quels
1523,1,question
1524,1,quittèrent
1525,1,quitté
1526,1,raboteux
1527,1,raccourci
1528,1,race
1529,1,raconta
1530,1,rage
1531,1,railleur
1532,1,raisonnable
1533,1,ramassai
1534,1,ramasse
1535,1,ramener
1536,1,ramper
1537,1,rapidité
1538,1,rappela
1539,1,rappelait
1540,1,rappelle
1541,1,rappelât
1542,1,rassembler
1543,1,raviné
1544,1,ravoir
1545,1,rechange
1546,1,recommanda
1547,1,recouvrai
1548,1,recouvrait
1549,1,recueilli
1550,1,recula
1551,1,reculait
1552,1,redescendis
1553,1,redit
1554,1,redoutables
1555,1,reflets
1556,1,reflétait
1557,1,refoulée
1558,1,refuge
1559,1,refusai
1560,1,regagner
1561,1,regards
1562,1,reins
1563,1,rejetait
1564,1,rejoindre
1565,1,relevait
1566,1,relevées
1567,1,remarquable
1568,1,remarquer
1569,1,remontai
1570,1,remontait
1571,1,remontez
1572,1,remontâmes
1573,1,rempli
1574,1,remuai
1575,1,remue
1576,1,rencontre
1577,1,rencontres
1578,1,rendait
1579,1,rentrez
1580,1,renverse
1581,1,repartions
1582,1,repartîmes
1583,1,reparut
1584,1,reporte
1585,1,repos
1586,1,reposent
1587,1,reposée
1588,1,repoussoir
1589,1,reprenaient
1590,1,repris
1591,1,reprises
1592,1,reprîmes
1593,1,respect
1594,1,ressauts
1595,1,ressembler
1596,1,restai
1597,1,restait
1598,1,restons
1599,1,resté
1600,1,retira
1601,1,retirai
1602,1,retourna
1603,1,retournant
1604,1,retourné
1605,1,retrouver
1606,1,retrouvâmes
1607,1,revenait
1608,1,revenez
1609,1,revu
1610,1,revêtement
1611,1,revêtus
1612,1,revînmes
1613,1,reçoit
1614,1,reçues
1615,1,reçus
1616,1,reçut
1617,1,riant
1618,1,rire
1619,1,risoluto
1620,1,rivage
1621,1,rives
1622,1,rivière
1623,1,roc
1624,1,rochers
1625,1,rocheuses
1626,1,ronces
1627,1,rond
1628,1,ronflais
1629,1,rongée
1630,1,roses
1631,1,roulai
1632,1,routes
1633,1,ruban
1634,1,rudesse
1635,1,rugissait
1636,1,ruines
1637,1,ruée
1638,1,récente
1639,1,réchauffer
1640,1,récit
1641,1,réellement
1642,1,réflexions
1643,1,régaler
1644,1,réminiscence
1645,1,réparer
1646,1,répondrais
1647,1,répondu
1648,1,répéter
1649,1,réservoir
1650,1,résistance
1651,1,résoudre
1652,1,réveillé
1653,1,révolution
1654,1,révélation
1655,1,rêvais
1656,1,rêve
1657,1,rêver
1658,1,rêvez
1659,1,rêvé
1660,1,sabbat
1661,1,sable
1662,1,sache
1663,1,sacrée
1664,1,sage
1665,1,saisir
1666,1,saisissait
1667,1,saisit
1668,1,saison
1669,1,salle
1670,1,salue
1671,1,saluer
1672,1,satisfaction
1673,1,saurais
1674,1,sautait
1675,1,sautillants
1676,1,sauver
1677,1,sauvé
1678,1,savait
1679,1,savoir
1680,1,secoué
1681,1,selle
1682,1,semblaient
1683,1,semblait
1684,1,semble
1685,1,semelle
1686,1,sensation
1687,1,sentait
1688,1,sentant
1689,1,sentir
1690,1,sentit
1691,1,sentît
1692,1,sera
1693,1,seraient
1694,1,serais
1695,1,servaient
1696,1,service
1697,1,servir
1698,1,servit
1699,1,servières
1700,1,seule
1701,1,seulement
1702,1,seuls
1703,1,siennes
1704,1,siffle
1705,1,signe
1706,1,silence
1707,1,sillonnent
1708,1,simplicité
1709,1,singulière
1710,1,singulièrement
1711,1,sinistre
1712,1,site
1713,1,sites
1714,1,situation
1715,1,situées
1716,1,sobriété
1717,1,soigna
1718,1,solennelle
1719,1,solfège
1720,1,sombre
1721,1,sombres
1722,1,sommet
1723,1,songea
1724,1,songer
1725,1,songes
1726,1,sons
1727,1,sorbiers
1728,1,sortait
1729,1,sortis
1730,1,soufflait
1731,1,soufflets
1732,1,souffliez
1733,1,soulever
1734,1,souliers
1735,1,soupçonnait
1736,1,sources
1737,1,sourd
1738,1,soutint
1739,1,souvenait
1740,1,souvenez
1741,1,souvenirs
1742,1,soyez
1743,1,spirale
1744,1,splendeur
1745,1,spontanée
1746,1,spécial
1747,1,strident
1748,1,stupide
1749,1,stupidité
1750,1,suaves
1751,1,succès
1752,1,succédèrent
1753,1,suintement
1754,1,suit
1755,1,suite
1756,1,suivait
1757,1,suivi
1758,1,suivirent
1759,1,suppliants
1760,1,surexcités
1761,1,surgissaient
1762,1,surgissait
1763,1,surhumaine
1764,1,surplombe
1765,1,surpris
1766,1,susceptibilité
1767,1,suspecte
1768,1,symbolique
1769,1,séparation
1770,1,sépare
1771,1,séparées
1772,1,sérieusement
1773,1,sérieux
1774,1,sévères
1775,1,sûr
1776,1,sœur
1777,1,tablette
1778,1,taillée
1779,1,taisons
1780,1,tapissées
1781,1,tapissés
1782,1,telle
1783,1,telles
1784,1,tenir
1785,1,tenter
1786,1,tenu
1787,1,terrain
1788,1,terrasses
1789,1,terreurs
1790,1,terriblement
1791,1,terribles
1792,1,tes
1793,1,tienne
1794,1,tige
1795,1,titanesques
1796,1,tolérant
1797,1,tombai
1798,1,tombés
1799,1,torrents
1800,1,touche
1801,1,touches
1802,1,tourmenté
1803,1,tourna
1804,1,tourné
1805,1,tours
1806,1,tragique
1807,1,train
1808,1,tranquillement
1809,1,tranquillisai
1810,1,transformation
1811,1,transport
1812,1,travers
1813,1,traversaient
1814,1,traversions
1815,1,traînaient
1816,1,traîné
1817,1,traînés
1818,1,trempé
1819,1,tribu
1820,1,triste
1821,1,troisième
1822,1,trompons
1823,1,tronquées
1824,1,trot
1825,1,trouble
1826,1,troublé
1827,1,troublée
1828,1,troupeaux
1829,1,trouvaient
1830,1,trouvais
1831,1,trouvait
1832,1,trouvant
1833,1,trouvions
1834,1,trouvée
1835,1,truites
1836,1,trébuchant
1837,1,type
1838,1,têtes
1839,1,unies
1840,1,urgue
1841,1,va
1842,1,vacances
1843,1,vague
1844,1,vain
1845,1,vaut
1846,1,velay
1847,1,veloutées
1848,1,vent
1849,1,verrez
1850,1,verrons
1851,1,vert
1852,1,vertes
1853,1,vertigineux
1854,1,viendrez
1855,1,vienne
1856,1,vient
1857,1,vierge
1858,1,vieux
1859,1,vigne
1860,1,vignerons
1861,1,vigoureux
1862,1,vilain
1863,1,village
1864,1,ville
1865,1,violent
1866,1,virer
1867,1,visite
1868,1,vit
1869,1,vitre
1870,1,vivant
1871,1,vive
1872,1,vivement
1873,1,vivent
1874,1,voie
1875,1,voies
1876,1,voisines
1877,1,volcanique
1878,1,volcaniques
1879,1,volcans
1880,1,votre
1881,1,voulant
1882,1,voulez
1883,1,vouliez
1884,1,voulus
1885,1,voulut
1886,1,vrai
1887,1,vîmes
1888,1,yeux
1889,1,âpre
1890,1,ébranler
1891,1,échapper
1892,1,échappé
1893,1,échine
1894,1,échos
1895,1,éclairait
1896,1,éclaircirent
1897,1,éclairs
1898,1,éclore
1899,1,écoula
1900,1,écouter
1901,1,écraser
1902,1,écrasées
1903,1,écria
1904,1,écroulaient
1905,1,écroulements
1906,1,écurie
1907,1,égards
1908,1,église
1909,1,élança
1910,1,élançai
1911,1,élevaient
1912,1,éloigna
1913,1,éloigner
1914,1,émeraude
1915,1,émerveillé
1916,1,émotion
1917,1,émue
1918,1,énormément
1919,1,épaisseur
1920,1,éparpillée
1921,1,éparses
1922,1,épilobes
1923,1,épines
1924,1,épinettes
1925,1,époque
1926,1,épouvantable
1927,1,équilibrer
1928,1,érudit
1929,1,étanchant
1930,1,étang
1931,1,état
1932,1,étendis
1933,1,étendu
1934,1,étiez
1935,1,étincelles
1936,1,étonnante
1937,1,étonne
1938,1,étonnement
1939,1,étonner
1940,1,étrange
1941,1,étriers
1942,1,étroit
1943,1,étroits
1944,1,éveiller
1945,1,éventrées
1946,1,ô
1947,1,ôter
1948,1,œillets
