#Word Types: 2519
#Word Tokens: 17361
#Search Hits: 0
1	494	de	
2	474	et	
3	373	l	
4	337	je	
5	331	à	
6	330	le	
7	312	vous	
8	311	en	
9	293	il	
10	293	que	
11	256	un	
12	238	pour	
13	232	qu	
14	229	ce	
15	221	d	
16	219	est	
17	204	la	
18	168	ne	
19	165	me	
20	165	mon	
21	146	qui	
22	139	n	
23	130	si	
24	129	m	
25	119	j	
26	109	plus	
27	105	fils	
28	101	sa	
29	94	son	
30	94	tu	
31	92	mais	
32	90	a	
33	89	moi	
34	86	les	
35	83	ma	
36	81	lui	
37	78	par	
38	76	s	
39	76	votre	
40	75	ai	
41	74	au	
42	72	du	
43	71	pas	
44	69	on	
45	68	tout	
46	65	c	
47	65	cette	
48	63	des	
49	63	nous	
50	61	elle	
51	60	héraclius	
52	60	ou	
53	60	trop	
54	59	sans	
55	58	fait	
56	58	ton	
57	58	tyran	
58	55	dans	
59	54	cœur	
60	53	une	
61	52	mort	
62	52	père	
63	48	mes	
64	47	se	
65	47	seigneur	
66	47	te	
67	46	être	
68	45	bien	
69	45	point	
70	44	nom	
71	43	faire	
72	42	autre	
73	42	deux	
74	42	peut	
75	40	tous	
76	40	y	
77	39	même	
78	38	madame	
79	38	prince	
80	38	quelque	
81	38	t	
82	37	comme	
83	37	grand	
84	35	avec	
85	35	sang	
86	34	amour	
87	34	empire	
88	34	martian	
89	33	phocas	
90	33	rien	
91	32	léonce	
92	32	maurice	
93	32	suis	
94	32	sur	
95	30	ces	
96	30	frère	
97	30	quand	
98	30	ses	
99	30	toi	
100	30	âme	
101	29	ta	
102	28	faut	
103	27	mieux	
104	27	sort	
105	27	veux	
106	25	ah	
107	24	digne	
108	24	donc	
109	24	ni	
110	24	puisque	
111	24	voir	
112	23	dont	
113	23	haine	
114	23	leur	
115	23	sous	
116	23	vie	
117	22	après	
118	22	assez	
119	22	enfin	
120	22	exupère	
121	22	peuple	
122	22	sais	
123	22	vos	
124	21	encor	
125	21	secret	
126	21	tes	
127	20	naissance	
128	20	où	
129	20	peu	
130	20	rendre	
131	20	trône	
132	20	vois	
133	19	dois	
134	19	effet	
135	19	juste	
136	19	non	
137	19	quoi	
138	19	veut	
139	18	léontine	
140	18	mains	
141	18	quel	
142	18	tant	
143	18	tel	
144	17	aux	
145	17	avoir	
146	17	crime	
147	17	dit	
148	17	eût	
149	17	fais	
150	17	jour	
151	17	là	
152	16	billet	
153	16	cet	
154	16	connaître	
155	16	effort	
156	16	ils	
157	16	main	
158	16	nature	
159	16	pulchérie	
160	16	seul	
161	15	avez	
162	15	ciel	
163	15	craindre	
164	15	doit	
165	15	erreur	
166	15	faux	
167	15	laisse	
168	15	quelle	
169	15	régner	
170	15	sœur	
171	15	yeux	
172	14	bruit	
173	14	donne	
174	14	déjà	
175	14	faveur	
176	14	jusqu	
177	14	lieu	
178	14	nos	
179	14	notre	
180	14	rends	
181	14	temps	
182	14	vrai	
183	13	amis	
184	13	autres	
185	13	croit	
186	13	dis	
187	13	prendre	
188	13	pu	
189	13	supplice	
190	13	toute	
191	13	va	
192	13	vain	
193	13	vertu	
194	12	as	
195	12	aurait	
196	12	empereur	
197	12	encore	
198	12	fille	
199	12	fut	
200	12	gloire	
201	12	mère	
202	12	soit	
203	11	aime	
204	11	bras	
205	11	contre	
206	11	dedans	
207	11	horreur	
208	11	hymen	
209	11	moins	
210	11	moment	
211	11	mourir	
212	11	ont	
213	11	parle	
214	11	peine	
215	11	perte	
216	11	place	
217	11	puis	
218	11	sera	
219	11	trouble	
220	11	était	
221	10	aujourd	
222	10	aura	
223	10	colère	
224	10	devoir	
225	10	dire	
226	10	donner	
227	10	grâce	
228	10	honneur	
229	10	hui	
230	10	jours	
231	10	mal	
232	10	maître	
233	10	part	
234	10	perdre	
235	10	reconnaissance	
236	10	sauver	
237	10	sceptre	
238	10	sois	
239	10	trépas	
240	10	voyez	
241	10	zèle	
242	9	aimer	
243	9	ait	
244	9	amitié	
245	9	ardeur	
246	9	aveugle	
247	9	cependant	
248	9	coup	
249	9	courage	
250	9	crains	
251	9	dessein	
252	9	doux	
253	9	ennemi	
254	9	entre	
255	9	force	
256	9	généreux	
257	9	hyménée	
258	9	infâme	
259	9	laisser	
260	9	ose	
261	9	personne	
262	9	pris	
263	9	péril	
264	9	rang	
265	9	refus	
266	9	reste	
267	9	sont	
268	9	tiens	
269	9	titre	
270	9	tête	
271	9	vient	
272	9	voit	
273	9	voulu	
274	9	éclat	
275	9	époux	
276	9	étant	
277	8	amant	
278	8	ans	
279	8	artifice	
280	8	avait	
281	8	bientôt	
282	8	croire	
283	8	demande	
284	8	depuis	
285	8	douter	
286	8	ennemis	
287	8	espère	
288	8	eudoxe	
289	8	foi	
290	8	funeste	
291	8	fureur	
292	8	garde	
293	8	ici	
294	8	illustre	
295	8	inceste	
296	8	jamais	
297	8	lâche	
298	8	menace	
299	8	moyens	
300	8	parricide	
301	8	pitié	
302	8	puisqu	
303	8	puisse	
304	8	périr	
305	8	service	
306	8	su	
307	8	trouver	
308	8	vu	
309	8	êtes	
310	7	abuser	
311	7	afin	
312	7	alors	
313	7	aucun	
314	7	avant	
315	7	besoin	
316	7	choix	
317	7	dernier	
318	7	doute	
319	7	entière	
320	7	espoir	
321	7	eux	
322	7	fasse	
323	7	fit	
324	7	flatte	
325	7	fort	
326	7	grande	
327	7	heureux	
328	7	joie	
329	7	malgré	
330	7	mien	
331	7	mutins	
332	7	naître	
333	7	oui	
334	7	pouvoir	
335	7	prends	
336	7	puissance	
337	7	punir	
338	7	quatre	
339	7	répondre	
340	7	soins	
341	7	suivre	
342	7	toujours	
343	7	traître	
344	7	vais	
345	7	vertus	
346	7	vivre	
347	7	vouloir	
348	7	vœux	
349	7	été	
350	6	abuse	
351	6	aimé	
352	6	allez	
353	6	appui	
354	6	autant	
355	6	belle	
356	6	celui	
357	6	confus	
358	6	connais	
359	6	conseil	
360	6	craint	
361	6	crois	
362	6	croyez	
363	6	destin	
364	6	donné	
365	6	défendre	
366	6	eh	
367	6	entier	
368	6	faites	
369	6	feux	
370	6	flatter	
371	6	fois	
372	6	fortune	
373	6	glorieux	
374	6	ingrat	
375	6	nommer	
376	6	noms	
377	6	ombre	
378	6	ordre	
379	6	parents	
380	6	perfide	
381	6	peux	
382	6	pieds	
383	6	premier	
384	6	princes	
385	6	princesse	
386	6	propre	
387	6	quelques	
388	6	rend	
389	6	savoir	
390	6	soyez	
391	6	surprendre	
392	6	sûr	
393	6	trouve	
394	6	voulez	
395	6	voyant	
396	6	vérité	
397	6	écoute	
398	6	état	
399	5	adieu	
400	5	admire	
401	5	aimez	
402	5	aisément	
403	5	allons	
404	5	ami	
405	5	arrêt	
406	5	aurais	
407	5	auteur	
408	5	aveu	
409	5	ayant	
410	5	bon	
411	5	bout	
412	5	caché	
413	5	chaque	
414	5	cher	
415	5	chère	
416	5	contraire	
417	5	coupable	
418	5	croyance	
419	5	demain	
420	5	demi	
421	5	desseins	
422	5	dessus	
423	5	destinée	
424	5	devez	
425	5	dieu	
426	5	donnez	
427	5	droit	
428	5	dès	
429	5	dû	
430	5	esprit	
431	5	eut	
432	5	explique	
433	5	fallait	
434	5	famille	
435	5	furie	
436	5	générosité	
437	5	haïr	
438	5	imposture	
439	5	indigne	
440	5	juge	
441	5	livré	
442	5	miens	
443	5	mille	
444	5	mis	
445	5	moments	
446	5	montrer	
447	5	murmure	
448	5	mérite	
449	5	noble	
450	5	offre	
451	5	orgueil	
452	5	palais	
453	5	passe	
454	5	porter	
455	5	pourrait	
456	5	prière	
457	5	promis	
458	5	pût	
459	5	rage	
460	5	rendu	
461	5	respect	
462	5	résoudre	
463	5	semble	
464	5	serait	
465	5	seule	
466	5	sien	
467	5	souffrir	
468	5	succès	
469	5	surtout	
470	5	séduire	
471	5	telle	
472	5	unique	
473	5	voici	
474	5	vôtre	
475	5	épouser	
476	5	éviter	
477	5	ô	
478	5	ôter	
479	4	ainsi	
480	4	aspire	
481	4	assure	
482	4	attend	
483	4	aussi	
484	4	aussitôt	
485	4	barbare	
486	4	beaucoup	
487	4	beaux	
488	4	bonheur	
489	4	bonté	
490	4	car	
491	4	cesse	
492	4	changer	
493	4	chef	
494	4	chemin	
495	4	cherche	
496	4	chez	
497	4	combien	
498	4	comment	
499	4	conjurés	
500	4	connaissez	
501	4	connaît	
502	4	contraindre	
503	4	courir	
504	4	couronne	
505	4	craignez	
506	4	crispe	
507	4	côté	
508	4	dangereux	
509	4	delà	
510	4	destine	
511	4	destins	
512	4	dites	
513	4	divers	
514	4	douceur	
515	4	douteux	
516	4	droits	
517	4	effroi	
518	4	empêcher	
519	4	enfance	
520	4	entendre	
521	4	envie	
522	4	envoie	
523	4	es	
524	4	estime	
525	4	etat	
526	4	font	
527	4	guerre	
528	4	hasard	
529	4	importe	
530	4	injuste	
531	4	jusques	
532	4	justement	
533	4	justice	
534	4	laissez	
535	4	laissé	
536	4	leurs	
537	4	livre	
538	4	lors	
539	4	lorsqu	
540	4	lorsque	
541	4	légitime	
542	4	magnanime	
543	4	malheurs	
544	4	mauvais	
545	4	maîtresse	
546	4	met	
547	4	meure	
548	4	monter	
549	4	montre	
550	4	montrez	
551	4	mourant	
552	4	nouveau	
553	4	paraître	
554	4	pense	
555	4	pensée	
556	4	peur	
557	4	porte	
558	4	pourrai	
559	4	pourrais	
560	4	pouvez	
561	4	prenez	
562	4	presque	
563	4	prisonnier	
564	4	prix	
565	4	périls	
566	4	race	
567	4	raison	
568	4	refuse	
569	4	rompre	
570	4	sait	
571	4	saurez	
572	4	sauvé	
573	4	savez	
574	4	secours	
575	4	secrets	
576	4	semé	
577	4	serai	
578	4	soi	
579	4	sortir	
580	4	soudain	
581	4	souffre	
582	4	soupirs	
583	4	souvenir	
584	4	tremble	
585	4	triste	
586	4	trois	
587	4	tromper	
588	4	témoignage	
589	4	vaine	
590	4	valeur	
591	4	vaut	
592	4	vengeance	
593	4	venger	
594	4	victime	
595	4	vingt	
596	4	voilà	
597	4	échange	
598	4	écouter	
599	4	élever	
600	4	étais	
601	4	étonne	
602	3	accepte	
603	3	adore	
604	3	années	
605	3	apprenez	
606	3	approche	
607	3	armé	
608	3	arrêter	
609	3	assassinat	
610	3	attendant	
611	3	attendre	
612	3	attentat	
613	3	attente	
614	3	aurai	
615	3	autrement	
616	3	aventure	
617	3	beau	
618	3	berceau	
619	3	bienfaits	
620	3	brave	
621	3	byzance	
622	3	cache	
623	3	cacher	
624	3	chefs	
625	3	choisis	
626	3	chose	
627	3	châtiment	
628	3	chérir	
629	3	complice	
630	3	conduire	
631	3	confiance	
632	3	confusion	
633	3	conjure	
634	3	connaissance	
635	3	connu	
636	3	conseils	
637	3	conservez	
638	3	conservé	
639	3	cour	
640	3	courroux	
641	3	cours	
642	3	crimes	
643	3	criminel	
644	3	croira	
645	3	cruel	
646	3	côtés	
647	3	cœurs	
648	3	davantage	
649	3	dernière	
650	3	devient	
651	3	donnant	
652	3	dons	
653	3	doutez	
654	3	découvert	
655	3	dédire	
656	3	démentir	
657	3	démon	
658	3	désabuser	
659	3	désordre	
660	3	eus	
661	3	expose	
662	3	exposez	
663	3	faisant	
664	3	fantôme	
665	3	feindre	
666	3	femme	
667	3	ferai	
668	3	fidèle	
669	3	fidèles	
670	3	flamme	
671	3	forcer	
672	3	forcé	
673	3	forcée	
674	3	forfait	
675	3	frapper	
676	3	fruit	
677	3	fuir	
678	3	gendre	
679	3	gré	
680	3	hasarder	
681	3	haute	
682	3	heur	
683	3	heureuse	
684	3	hommage	
685	3	honte	
686	3	héritier	
687	3	héros	
688	3	illusion	
689	3	image	
690	3	immolé	
691	3	imparfait	
692	3	infamie	
693	3	ingrate	
694	3	inquiétude	
695	3	intéresse	
696	3	intérêt	
697	3	inutile	
698	3	jaloux	
699	3	jeune	
700	3	jouir	
701	3	juger	
702	3	loin	
703	3	longtemps	
704	3	maison	
705	3	marque	
706	3	mettre	
707	3	mienne	
708	3	milieu	
709	3	monarque	
710	3	monde	
711	3	mourra	
712	3	mouvements	
713	3	mépris	
714	3	mérité	
715	3	objet	
716	3	occasion	
717	3	oppose	
718	3	oreille	
719	3	ouverte	
720	3	pardonnez	
721	3	parler	
722	3	paternel	
723	3	pensers	
724	3	perdez	
725	3	perdis	
726	3	perdu	
727	3	plaindre	
728	3	plains	
729	3	plein	
730	3	pleine	
731	3	possesseur	
732	3	presser	
733	3	prison	
734	3	propice	
735	3	précieux	
736	3	prétend	
737	3	prête	
738	3	quels	
739	3	quiconque	
740	3	quoique	
741	3	raisons	
742	3	regarde	
743	3	remettre	
744	3	rendra	
745	3	renonce	
746	3	repos	
747	3	rigueurs	
748	3	rougir	
749	3	ruse	
750	3	répandu	
751	3	résister	
752	3	révéler	
753	3	sacrifice	
754	3	salutaire	
755	3	saurai	
756	3	sauvez	
757	3	secourir	
758	3	sens	
759	3	seront	
760	3	sers	
761	3	servir	
762	3	sienne	
763	3	siens	
764	3	soin	
765	3	soldats	
766	3	sorte	
767	3	sorti	
768	3	soupir	
769	3	sujet	
770	3	surprise	
771	3	taire	
772	3	telles	
773	3	tels	
774	3	tendresse	
775	3	tient	
776	3	tombe	
777	3	tombeau	
778	3	tort	
779	3	toucher	
780	3	toutes	
781	3	trompe	
782	3	trompé	
783	3	trouvé	
784	3	venge	
785	3	venir	
786	3	verra	
787	3	vive	
788	3	vrais	
789	3	véritable	
790	3	éblouir	
791	3	éclairci	
792	3	élevé	
793	3	événement	
794	2	abus	
795	2	accorder	
796	2	achevez	
797	2	achève	
798	2	acquis	
799	2	admirez	
800	2	adresse	
801	2	affaire	
802	2	affermir	
803	2	affreux	
804	2	agir	
805	2	aide	
806	2	ailleurs	
807	2	aimais	
808	2	aller	
809	2	ambition	
810	2	amoureux	
811	2	amène	
812	2	apaiser	
813	2	apprends	
814	2	arme	
815	2	armée	
816	2	arrache	
817	2	arracher	
818	2	arrête	
819	2	arrêté	
820	2	assassin	
821	2	attache	
822	2	audace	
823	2	auprès	
824	2	aurez	
825	2	auront	
826	2	autorise	
827	2	avaient	
828	2	avais	
829	2	avantage	
830	2	avecque	
831	2	aveuglement	
832	2	avis	
833	2	avorter	
834	2	avoue	
835	2	avouer	
836	2	bas	
837	2	bonne	
838	2	bourreau	
839	2	caractère	
840	2	cela	
841	2	celer	
842	2	celle	
843	2	cercueil	
844	2	chacun	
845	2	cherchez	
846	2	coin	
847	2	comble	
848	2	commande	
849	2	commencé	
850	2	commis	
851	2	commune	
852	2	complots	
853	2	condamne	
854	2	conduite	
855	2	confidence	
856	2	confondre	
857	2	conquête	
858	2	consentir	
859	2	conspirer	
860	2	constantine	
861	2	conte	
862	2	contes	
863	2	continue	
864	2	contraint	
865	2	couronner	
866	2	couverte	
867	2	couvrir	
868	2	craignais	
869	2	crainte	
870	2	cris	
871	2	cruauté	
872	2	crus	
873	2	crédule	
874	2	céder	
875	2	cédez	
876	2	céleste	
877	2	césars	
878	2	daigne	
879	2	daignez	
880	2	demeure	
881	2	descendre	
882	2	devait	
883	2	devers	
884	2	devrai	
885	2	dignement	
886	2	dirai	
887	2	discours	
888	2	disposez	
889	2	dispute	
890	2	doivent	
891	2	dompter	
892	2	dompté	
893	2	donnai	
894	2	donnes	
895	2	douleur	
896	2	doutait	
897	2	découvre	
898	2	découvrir	
899	2	défend	
900	2	défiance	
901	2	défie	
902	2	déguise	
903	2	dérobe	
904	2	désirs	
905	2	détruire	
906	2	dût	
907	2	effets	
908	2	embrasse	
909	2	embrasser	
910	2	entends	
911	2	entreprendre	
912	2	espérance	
913	2	espérer	
914	2	eu	
915	2	excès	
916	2	expire	
917	2	exprès	
918	2	extrême	
919	2	faible	
920	2	faiblesse	
921	2	faille	
922	2	fatal	
923	2	favorise	
924	2	façon	
925	2	feinte	
926	2	fera	
927	2	ferme	
928	2	ferons	
929	2	fis	
930	2	flanc	
931	2	fléchir	
932	2	fond	
933	2	forfaits	
934	2	foudre	
935	2	frappe	
936	2	frayeurs	
937	2	frémit	
938	2	fureurs	
939	2	félix	
940	2	fîtes	
941	2	fût	
942	2	garantissez	
943	2	gouverner	
944	2	grandeur	
945	2	grands	
946	2	gros	
947	2	guerrier	
948	2	gêne	
949	2	hait	
950	2	hasards	
951	2	haïssez	
952	2	heure	
953	2	homme	
954	2	honora	
955	2	honteuse	
956	2	honteux	
957	2	horreurs	
958	2	hors	
959	2	humains	
960	2	hélas	
961	2	ignore	
962	2	ignorer	
963	2	immole	
964	2	immoler	
965	2	impatience	
966	2	impatient	
967	2	imposteur	
968	2	imprudence	
969	2	impute	
970	2	impératrice	
971	2	incertaine	
972	2	indice	
973	2	indignes	
974	2	innocence	
975	2	insolence	
976	2	intelligence	
977	2	ira	
978	2	irai	
979	2	irriter	
980	2	issue	
981	2	jeter	
982	2	joindre	
983	2	journée	
984	2	jure	
985	2	jusque	
986	2	laissa	
987	2	laissent	
988	2	larmes	
989	2	lavé	
990	2	lequel	
991	2	lire	
992	2	lit	
993	2	livrant	
994	2	lois	
995	2	loisir	
996	2	lâches	
997	2	lâcheté	
998	2	léger	
999	2	maintenir	
1000	2	malheur	
1001	2	malheureux	
1002	2	maîtres	
1003	2	moindre	
1004	2	mois	
1005	2	mot	
1006	2	mots	
1007	2	mouvement	
1008	2	moyen	
1009	2	mystère	
1010	2	méchant	
1011	2	mêmes	
1012	2	naturel	
1013	2	nouvelle	
1014	2	nues	
1015	2	nuit	
1016	2	nécessaire	
1017	2	née	
1018	2	nœud	
1019	2	nœuds	
1020	2	obscure	
1021	2	obscurité	
1022	2	obstacle	
1023	2	obstine	
1024	2	obstinée	
1025	2	obéissance	
1026	2	occuper	
1027	2	octavian	
1028	2	odieux	
1029	2	opprime	
1030	2	osais	
1031	2	osant	
1032	2	oser	
1033	2	osera	
1034	2	oses	
1035	2	outrager	
1036	2	outre	
1037	2	ouvre	
1038	2	ouvrit	
1039	2	paraît	
1040	2	parfait	
1041	2	parles	
1042	2	parmi	
1043	2	parti	
1044	2	partie	
1045	2	passion	
1046	2	penche	
1047	2	perd	
1048	2	perdras	
1049	2	perds	
1050	2	permis	
1051	2	pleurs	
1052	2	populace	
1053	2	portes	
1054	2	posséder	
1055	2	pourra	
1056	2	pourrez	
1057	2	pourtant	
1058	2	pouvant	
1059	2	pouvions	
1060	2	premiers	
1061	2	première	
1062	2	prenant	
1063	2	prend	
1064	2	presse	
1065	2	prisonniers	
1066	2	prive	
1067	2	prochaine	
1068	2	prodige	
1069	2	produits	
1070	2	projets	
1071	2	promptement	
1072	2	prononce	
1073	2	propose	
1074	2	prudence	
1075	2	précipiter	
1076	2	prétendre	
1077	2	prétends	
1078	2	prêt	
1079	2	prêts	
1080	2	punis	
1081	2	périsse	
1082	2	querelle	
1083	2	rapport	
1084	2	rare	
1085	2	recourir	
1086	2	regret	
1087	2	remonter	
1088	2	remords	
1089	2	rendit	
1090	2	repousser	
1091	2	reprendre	
1092	2	respire	
1093	2	retour	
1094	2	reçu	
1095	2	ridicule	
1096	2	rigueur	
1097	2	rues	
1098	2	ruine	
1099	2	règne	
1100	2	récompense	
1101	2	récompenser	
1102	2	réponds	
1103	2	réserver	
1104	2	résiste	
1105	2	révolte	
1106	2	sachez	
1107	2	satisfaire	
1108	2	saurait	
1109	2	sauve	
1110	2	sauvons	
1111	2	secrète	
1112	2	senti	
1113	2	sert	
1114	2	sieds	
1115	2	sincère	
1116	2	sinon	
1117	2	six	
1118	2	soif	
1119	2	sommes	
1120	2	songe	
1121	2	sors	
1122	2	souffrez	
1123	2	souhaite	
1124	2	souhaiter	
1125	2	soupire	
1126	2	souvent	
1127	2	stratagème	
1128	2	suit	
1129	2	sujette	
1130	2	superflus	
1131	2	surprend	
1132	2	séduit	
1133	2	sûre	
1134	2	tandis	
1135	2	tantôt	
1136	2	tarder	
1137	2	terre	
1138	2	tibère	
1139	2	tien	
1140	2	tiendrai	
1141	2	tiendrais	
1142	2	tirez	
1143	2	titres	
1144	2	tomber	
1145	2	tombé	
1146	2	tonnerre	
1147	2	touche	
1148	2	tour	
1149	2	trahi	
1150	2	trahir	
1151	2	trahissait	
1152	2	trahisse	
1153	2	traite	
1154	2	traiter	
1155	2	trembler	
1156	2	trouvez	
1157	2	trésor	
1158	2	tumulte	
1159	2	tyrannique	
1160	2	univers	
1161	2	use	
1162	2	vaudrait	
1163	2	venez	
1164	2	vengerai	
1165	2	verrai	
1166	2	verrons	
1167	2	vers	
1168	2	veuille	
1169	2	veuillez	
1170	2	victimes	
1171	2	vint	
1172	2	violence	
1173	2	vole	
1174	2	vont	
1175	2	voudra	
1176	2	voulait	
1177	2	voyait	
1178	2	échafaud	
1179	2	échappe	
1180	2	échappé	
1181	2	éclaircir	
1182	2	égal	
1183	2	élection	
1184	2	élève	
1185	2	épargner	
1186	2	épouse	
1187	2	épouvante	
1188	2	épreuve	
1189	2	états	
1190	2	éteint	
1191	2	éternel	
1192	2	étonnement	
1193	2	étrange	
1194	2	œil	
1195	1	abaisser	
1196	1	abaissée	
1197	1	abandon	
1198	1	abandonne	
1199	1	abatte	
1200	1	abattrai	
1201	1	abattre	
1202	1	abattue	
1203	1	abusé	
1204	1	abusés	
1205	1	accablé	
1206	1	accablée	
1207	1	accepter	
1208	1	acceptez	
1209	1	accompagne	
1210	1	accompli	
1211	1	accord	
1212	1	accoutume	
1213	1	accusera	
1214	1	accès	
1215	1	achever	
1216	1	achevèrent	
1217	1	achevé	
1218	1	achèverai	
1219	1	acier	
1220	1	acquitter	
1221	1	acquérir	
1222	1	admirable	
1223	1	admirant	
1224	1	adopte	
1225	1	adopter	
1226	1	adopté	
1227	1	adorait	
1228	1	adroit	
1229	1	adroite	
1230	1	affermi	
1231	1	affermis	
1232	1	affranchir	
1233	1	affront	
1234	1	agis	
1235	1	agissait	
1236	1	agissez	
1237	1	agité	
1238	1	agrandir	
1239	1	aidez	
1240	1	aigrir	
1241	1	aigrit	
1242	1	aimable	
1243	1	aimai	
1244	1	aiment	
1245	1	aimes	
1246	1	aimée	
1247	1	aisé	
1248	1	ajouter	
1249	1	ajoutera	
1250	1	alarme	
1251	1	alarmer	
1252	1	alarmes	
1253	1	alarmé	
1254	1	allai	
1255	1	allait	
1256	1	alliance	
1257	1	alluma	
1258	1	allume	
1259	1	allumèrent	
1260	1	allumé	
1261	1	allé	
1262	1	allégresse	
1263	1	amas	
1264	1	amertume	
1265	1	amertumes	
1266	1	amie	
1267	1	amyntas	
1268	1	anime	
1269	1	animons	
1270	1	animés	
1271	1	apparence	
1272	1	appartement	
1273	1	appartient	
1274	1	appesantie	
1275	1	apporte	
1276	1	apportera	
1277	1	approchais	
1278	1	approcher	
1279	1	approuve	
1280	1	appréhender	
1281	1	appréhendez	
1282	1	apprête	
1283	1	appuyer	
1284	1	appuyez	
1285	1	appât	
1286	1	arrachent	
1287	1	arraches	
1288	1	arraché	
1289	1	arrachée	
1290	1	arrive	
1291	1	arrogamment	
1292	1	arrogante	
1293	1	arrêta	
1294	1	arrêtez	
1295	1	aspect	
1296	1	assassiner	
1297	1	assassinez	
1298	1	assembler	
1299	1	assemblés	
1300	1	associer	
1301	1	assurance	
1302	1	assurer	
1303	1	assurera	
1304	1	assuré	
1305	1	assurés	
1306	1	attacher	
1307	1	attachées	
1308	1	attendais	
1309	1	attendait	
1310	1	attende	
1311	1	attendent	
1312	1	attendons	
1313	1	attends	
1314	1	attirer	
1315	1	audacieux	
1316	1	augmente	
1317	1	auraient	
1318	1	auriez	
1319	1	aurons	
1320	1	autorisait	
1321	1	autoriser	
1322	1	autour	
1323	1	avance	
1324	1	avancer	
1325	1	avenir	
1326	1	avenues	
1327	1	aversions	
1328	1	averti	
1329	1	aveuglément	
1330	1	avide	
1331	1	aviez	
1332	1	avise	
1333	1	avons	
1334	1	avorte	
1335	1	avouera	
1336	1	avouez	
1337	1	aïeul	
1338	1	aïeux	
1339	1	baise	
1340	1	balancer	
1341	1	bande	
1342	1	bassesse	
1343	1	bassesses	
1344	1	belles	
1345	1	biens	
1346	1	blessé	
1347	1	blessée	
1348	1	bontés	
1349	1	bord	
1350	1	bouche	
1351	1	bourreaux	
1352	1	bravaient	
1353	1	braver	
1354	1	brillants	
1355	1	brisant	
1356	1	brouille	
1357	1	bruits	
1358	1	brutal	
1359	1	brutalité	
1360	1	but	
1361	1	butte	
1362	1	bénit	
1363	1	cachai	
1364	1	caches	
1365	1	cachez	
1366	1	cachée	
1367	1	cachées	
1368	1	calmer	
1369	1	captive	
1370	1	captivités	
1371	1	caresse	
1372	1	caresses	
1373	1	cause	
1374	1	causes	
1375	1	cent	
1376	1	centenier	
1377	1	certaine	
1378	1	cessent	
1379	1	cesser	
1380	1	cessé	
1381	1	ceux	
1382	1	chambre	
1383	1	champs	
1384	1	chancelle	
1385	1	change	
1386	1	changeons	
1387	1	changez	
1388	1	changé	
1389	1	charmant	
1390	1	charme	
1391	1	charmes	
1392	1	charmèrent	
1393	1	charmé	
1394	1	chaînes	
1395	1	cherché	
1396	1	chimère	
1397	1	choir	
1398	1	château	
1399	1	chéri	
1400	1	chétif	
1401	1	cieux	
1402	1	cinq	
1403	1	civilité	
1404	1	claire	
1405	1	climat	
1406	1	cohortes	
1407	1	combattre	
1408	1	combattu	
1409	1	combla	
1410	1	commander	
1411	1	commandé	
1412	1	commence	
1413	1	commencements	
1414	1	commencez	
1415	1	commettra	
1416	1	commettre	
1417	1	commun	
1418	1	complaisance	
1419	1	comprendre	
1420	1	compte	
1421	1	concevable	
1422	1	condamnerais	
1423	1	conduit	
1424	1	confidents	
1425	1	confirmé	
1426	1	confié	
1427	1	confond	
1428	1	confondant	
1429	1	confonds	
1430	1	confondu	
1431	1	confusément	
1432	1	congé	
1433	1	conjecture	
1434	1	conjoncture	
1435	1	connaissais	
1436	1	connaissait	
1437	1	connaissions	
1438	1	connaîtras	
1439	1	conniver	
1440	1	connûtes	
1441	1	consens	
1442	1	consentement	
1443	1	consenti	
1444	1	conserva	
1445	1	conservai	
1446	1	conserve	
1447	1	conserver	
1448	1	considérez	
1449	1	consoler	
1450	1	consolerai	
1451	1	conspira	
1452	1	conspire	
1453	1	conspiré	
1454	1	constance	
1455	1	constantin	
1456	1	constants	
1457	1	content	
1458	1	contrains	
1459	1	contredit	
1460	1	contrefait	
1461	1	conté	
1462	1	convaincu	
1463	1	convie	
1464	1	conçoit	
1465	1	conçu	
1466	1	corrompe	
1467	1	couler	
1468	1	couleur	
1469	1	coupant	
1470	1	coupez	
1471	1	coups	
1472	1	couraient	
1473	1	courais	
1474	1	courra	
1475	1	coutume	
1476	1	couvert	
1477	1	couvre	
1478	1	coûté	
1479	1	craindra	
1480	1	craindront	
1481	1	creux	
1482	1	crie	
1483	1	criminelle	
1484	1	croirai	
1485	1	croirais	
1486	1	croiras	
1487	1	croiront	
1488	1	croyais	
1489	1	croyant	
1490	1	cru	
1491	1	cruelle	
1492	1	crédit	
1493	1	crédulité	
1494	1	curieuse	
1495	1	daigniez	
1496	1	daigné	
1497	1	degré	
1498	1	demander	
1499	1	demeurait	
1500	1	demeurez	
1501	1	derniers	
1502	1	descends	
1503	1	dessous	
1504	1	destiné	
1505	1	destinées	
1506	1	devais	
1507	1	devant	
1508	1	deviendra	
1509	1	devienne	
1510	1	deviens	
1511	1	devine	
1512	1	devint	
1513	1	devons	
1514	1	die	
1515	1	difficultés	
1516	1	différence	
1517	1	différer	
1518	1	dignes	
1519	1	dignité	
1520	1	diligence	
1521	1	dirait	
1522	1	diras	
1523	1	diront	
1524	1	disait	
1525	1	discernement	
1526	1	discerner	
1527	1	discord	
1528	1	dise	
1529	1	dispersera	
1530	1	dispose	
1531	1	disposer	
1532	1	disputer	
1533	1	dissimule	
1534	1	dissiper	
1535	1	dissipé	
1536	1	diverse	
1537	1	divins	
1538	1	divorces	
1539	1	domptant	
1540	1	dompte	
1541	1	domptés	
1542	1	donnent	
1543	1	données	
1544	1	double	
1545	1	doucement	
1546	1	douces	
1547	1	douceurs	
1548	1	doutai	
1549	1	doutasses	
1550	1	douterai	
1551	1	dur	
1552	1	durant	
1553	1	dussé	
1554	1	déchirer	
1555	1	décider	
1556	1	déclarer	
1557	1	découverte	
1558	1	découverts	
1559	1	dédaigner	
1560	1	dédaignez	
1561	1	dédain	
1562	1	dédis	
1563	1	défais	
1564	1	défaut	
1565	1	déférais	
1566	1	dégagé	
1567	1	dégoutter	
1568	1	dégénère	
1569	1	délivre	
1570	1	dément	
1571	1	démenti	
1572	1	démentie	
1573	1	démêler	
1574	1	dénaturé	
1575	1	départ	
1576	1	dépendent	
1577	1	déplaire	
1578	1	dépouille	
1579	1	dépêche	
1580	1	dépôt	
1581	1	désabuse	
1582	1	désavouant	
1583	1	désavouerait	
1584	1	désespoir	
1585	1	déshonoré	
1586	1	désordres	
1587	1	désormais	
1588	1	détestable	
1589	1	détourna	
1590	1	détrompe	
1591	1	détromper	
1592	1	détruite	
1593	1	effacé	
1594	1	efforcent	
1595	1	effrayé	
1596	1	effroyable	
1597	1	elles	
1598	1	emparait	
1599	1	empereurs	
1600	1	empoisonne	
1601	1	empoisonnée	
1602	1	emportait	
1603	1	emporte	
1604	1	emporter	
1605	1	emporté	
1606	1	empressements	
1607	1	empêchait	
1608	1	empêche	
1609	1	empêchez	
1610	1	endurcit	
1611	1	endurer	
1612	1	enfant	
1613	1	enfante	
1614	1	enferme	
1615	1	enflammé	
1616	1	enflammée	
1617	1	enfle	
1618	1	engage	
1619	1	enhardir	
1620	1	enrichir	
1621	1	enseigner	
1622	1	enseveli	
1623	1	ensevelir	
1624	1	entendent	
1625	1	entreprise	
1626	1	entrer	
1627	1	entretien	
1628	1	enverrons	
1629	1	environne	
1630	1	envoyez	
1631	1	envoyés	
1632	1	erreurs	
1633	1	esclavage	
1634	1	esclave	
1635	1	esprits	
1636	1	espérai	
1637	1	espérait	
1638	1	espérant	
1639	1	espérez	
1640	1	essayer	
1641	1	examine	
1642	1	examiner	
1643	1	examinez	
1644	1	exauce	
1645	1	excitait	
1646	1	excite	
1647	1	excuse	
1648	1	exemple	
1649	1	exiger	
1650	1	expliquant	
1651	1	expliquer	
1652	1	exploit	
1653	1	exploits	
1654	1	exposait	
1655	1	exécute	
1656	1	exécuter	
1657	1	eûtes	
1658	1	fable	
1659	1	faillir	
1660	1	faisais	
1661	1	faisiez	
1662	1	faisons	
1663	1	fallut	
1664	1	fantaisie	
1665	1	fard	
1666	1	fassiez	
1667	1	fatale	
1668	1	fausses	
1669	1	faveurs	
1670	1	favorable	
1671	1	favorables	
1672	1	favorisez	
1673	1	feignons	
1674	1	feint	
1675	1	fer	
1676	1	ferais	
1677	1	fermeté	
1678	1	fers	
1679	1	feu	
1680	1	fidélité	
1681	1	fier	
1682	1	fierté	
1683	1	fiez	
1684	1	fin	
1685	1	finit	
1686	1	fière	
1687	1	flattait	
1688	1	flatteuse	
1689	1	flattez	
1690	1	flottants	
1691	1	fondements	
1692	1	fondre	
1693	1	fondé	
1694	1	forcenée	
1695	1	forces	
1696	1	forme	
1697	1	former	
1698	1	formé	
1699	1	fortifie	
1700	1	forçait	
1701	1	fourbe	
1702	1	franc	
1703	1	frappé	
1704	1	frivoles	
1705	1	froideurs	
1706	1	fruits	
1707	1	frères	
1708	1	fuis	
1709	1	furieux	
1710	1	fussiez	
1711	1	fuyons	
1712	1	fâcheux	
1713	1	fûtes	
1714	1	gage	
1715	1	gagnant	
1716	1	gagner	
1717	1	gagné	
1718	1	gagnée	
1719	1	garant	
1720	1	garantira	
1721	1	garderai	
1722	1	gardes	
1723	1	gardez	
1724	1	gardons	
1725	1	gardé	
1726	1	genoux	
1727	1	glace	
1728	1	gouvernante	
1729	1	goûtais	
1730	1	gratitude	
1731	1	grossier	
1732	1	grossir	
1733	1	grossière	
1734	1	gémir	
1735	1	généreuse	
1736	1	gêner	
1737	1	hardie	
1738	1	hasardez	
1739	1	hasardé	
1740	1	haut	
1741	1	hautaine	
1742	1	hautement	
1743	1	haïssons	
1744	1	heureusement	
1745	1	hippodrome	
1746	1	histoire	
1747	1	hommes	
1748	1	honneurs	
1749	1	honore	
1750	1	honorez	
1751	1	horrible	
1752	1	humain	
1753	1	hâte	
1754	1	hâter	
1755	1	hâtera	
1756	1	héréditaire	
1757	1	idole	
1758	1	idée	
1759	1	ignominie	
1760	1	ignorais	
1761	1	ignorance	
1762	1	ignorant	
1763	1	ignores	
1764	1	ignorez	
1765	1	illustres	
1766	1	imaginer	
1767	1	immola	
1768	1	immolant	
1769	1	immolerons	
1770	1	impie	
1771	1	implacable	
1772	1	imploraient	
1773	1	importance	
1774	1	important	
1775	1	importante	
1776	1	importune	
1777	1	importuner	
1778	1	imposer	
1779	1	impostures	
1780	1	impression	
1781	1	impudence	
1782	1	impuissants	
1783	1	impunie	
1784	1	impunis	
1785	1	imputais	
1786	1	imputant	
1787	1	impérieux	
1788	1	impétuosité	
1789	1	incertitude	
1790	1	incestueuse	
1791	1	incestueux	
1792	1	inclination	
1793	1	incompatible	
1794	1	inconnues	
1795	1	inconstant	
1796	1	incorruptible	
1797	1	indignité	
1798	1	indigné	
1799	1	indignée	
1800	1	indignés	
1801	1	inestimable	
1802	1	infidèle	
1803	1	infini	
1804	1	infiniment	
1805	1	informes	
1806	1	infortuné	
1807	1	infâmie	
1808	1	inhumain	
1809	1	injures	
1810	1	injurieux	
1811	1	innocemment	
1812	1	innocent	
1813	1	insensible	
1814	1	insensée	
1815	1	insolent	
1816	1	insolents	
1817	1	inspire	
1818	1	instant	
1819	1	instinct	
1820	1	instruit	
1821	1	instruite	
1822	1	instruments	
1823	1	intention	
1824	1	interrogeais	
1825	1	intestins	
1826	1	intimide	
1827	1	intérêts	
1828	1	invente	
1829	1	inventer	
1830	1	invincibles	
1831	1	inégalité	
1832	1	irait	
1833	1	irrite	
1834	1	irrites	
1835	1	jadis	
1836	1	jette	
1837	1	jouira	
1838	1	jugeais	
1839	1	jugez	
1840	1	jurée	
1841	1	justifie	
1842	1	justifiera	
1843	1	laissai	
1844	1	laissaient	
1845	1	laissais	
1846	1	laissant	
1847	1	laisserai	
1848	1	laisses	
1849	1	laissâtes	
1850	1	laissée	
1851	1	lait	
1852	1	langue	
1853	1	laver	
1854	1	levé	
1855	1	liberté	
1856	1	librement	
1857	1	libéralité	
1858	1	lieux	
1859	1	ligué	
1860	1	livrer	
1861	1	longues	
1862	1	louange	
1863	1	lourd	
1864	1	lumière	
1865	1	lumières	
1866	1	lustres	
1867	1	lâchement	
1868	1	lâchetés	
1869	1	maisons	
1870	1	malheureuse	
1871	1	mandez	
1872	1	mandée	
1873	1	manières	
1874	1	marche	
1875	1	mari	
1876	1	marques	
1877	1	mars	
1878	1	maux	
1879	1	meilleur	
1880	1	meilleurs	
1881	1	menaces	
1882	1	mensonge	
1883	1	menées	
1884	1	merveilleux	
1885	1	message	
1886	1	mettrai	
1887	1	meurs	
1888	1	meurtre	
1889	1	meurtrier	
1890	1	milice	
1891	1	ministre	
1892	1	ministère	
1893	1	miracle	
1894	1	misère	
1895	1	mit	
1896	1	modérez	
1897	1	moitié	
1898	1	mols	
1899	1	monstre	
1900	1	monte	
1901	1	montrent	
1902	1	montrera	
1903	1	montrons	
1904	1	montré	
1905	1	mortel	
1906	1	morts	
1907	1	motif	
1908	1	mourrai	
1909	1	mourrais	
1910	1	muet	
1911	1	mutin	
1912	1	mutinerie	
1913	1	mutiné	
1914	1	mutinés	
1915	1	mutuelles	
1916	1	mysie	
1917	1	mène	
1918	1	méchante	
1919	1	mécontents	
1920	1	mélange	
1921	1	méprendre	
1922	1	mépriser	
1923	1	méritais	
1924	1	mériter	
1925	1	mérites	
1926	1	mêla	
1927	1	mêle	
1928	1	mûrir	
1929	1	naguère	
1930	1	neveu	
1931	1	noces	
1932	1	noir	
1933	1	noircir	
1934	1	noire	
1935	1	nombre	
1936	1	nomme	
1937	1	nommez	
1938	1	nourrie	
1939	1	nourriture	
1940	1	nouveauté	
1941	1	nouveautés	
1942	1	nouveaux	
1943	1	nouvelles	
1944	1	nuage	
1945	1	nécessité	
1946	1	nés	
1947	1	nôtre	
1948	1	obscurcir	
1949	1	obstinément	
1950	1	obstinés	
1951	1	obtenir	
1952	1	obtiendras	
1953	1	obtiens	
1954	1	obtint	
1955	1	obéir	
1956	1	occupait	
1957	1	occupé	
1958	1	odieuse	
1959	1	offert	
1960	1	offrant	
1961	1	offrir	
1962	1	offrira	
1963	1	offris	
1964	1	ombrage	
1965	1	ombres	
1966	1	opposais	
1967	1	opposait	
1968	1	opposons	
1969	1	opposés	
1970	1	opprobre	
1971	1	orage	
1972	1	ordonner	
1973	1	orgueilleuse	
1974	1	orgueilleux	
1975	1	osa	
1976	1	osent	
1977	1	oserai	
1978	1	oseras	
1979	1	osez	
1980	1	osé	
1981	1	otage	
1982	1	oublier	
1983	1	outrage	
1984	1	ouverts	
1985	1	ouvrage	
1986	1	ouïr	
1987	1	pardonner	
1988	1	pare	
1989	1	pareille	
1990	1	pareils	
1991	1	parent	
1992	1	parer	
1993	1	parlaient	
1994	1	parlons	
1995	1	parlé	
1996	1	paroles	
1997	1	parricides	
1998	1	passa	
1999	1	passai	
2000	1	passer	
2001	1	passerait	
2002	1	passons	
2003	1	patience	
2004	1	patricienne	
2005	1	payer	
2006	1	payé	
2007	1	penchant	
2008	1	pencher	
2009	1	pensait	
2010	1	penser	
2011	1	pensez	
2012	1	perdant	
2013	1	perdit	
2014	1	perdons	
2015	1	perfides	
2016	1	perfidie	
2017	1	perplexités	
2018	1	perse	
2019	1	persuadée	
2020	1	perçant	
2021	1	pesé	
2022	1	petit	
2023	1	piquer	
2024	1	piqué	
2025	1	pire	
2026	1	piteux	
2027	1	piège	
2028	1	placer	
2029	1	plaire	
2030	1	plaisir	
2031	1	plaît	
2032	1	pleinement	
2033	1	pleurer	
2034	1	pleuré	
2035	1	plonge	
2036	1	plut	
2037	1	poids	
2038	1	poignards	
2039	1	poison	
2040	1	politique	
2041	1	pompe	
2042	1	populaire	
2043	1	portât	
2044	1	portâtes	
2045	1	porté	
2046	1	posture	
2047	1	poudre	
2048	1	pourquoi	
2049	1	pourras	
2050	1	pourrions	
2051	1	pourvoir	
2052	1	pourvu	
2053	1	pousser	
2054	1	pouvons	
2055	1	prendra	
2056	1	prendrons	
2057	1	prescrire	
2058	1	pressait	
2059	1	pressez	
2060	1	preuves	
2061	1	prie	
2062	1	prit	
2063	1	priver	
2064	1	procuré	
2065	1	profond	
2066	1	profusion	
2067	1	promesses	
2068	1	promet	
2069	1	promets	
2070	1	promettre	
2071	1	prompt	
2072	1	prompts	
2073	1	prononcer	
2074	1	prononcé	
2075	1	près	
2076	1	précipice	
2077	1	préfère	
2078	1	préférer	
2079	1	préoccupé	
2080	1	prépara	
2081	1	prépare	
2082	1	préparer	
2083	1	présence	
2084	1	présent	
2085	1	présenta	
2086	1	présentent	
2087	1	présents	
2088	1	présumer	
2089	1	prévaudra	
2090	1	prévenu	
2091	1	prévint	
2092	1	prêter	
2093	1	prêtera	
2094	1	prîtes	
2095	1	publics	
2096	1	publie	
2097	1	publiquement	
2098	1	puissamment	
2099	1	puissant	
2100	1	puissantes	
2101	1	puni	
2102	1	punira	
2103	1	punirai	
2104	1	punirais	
2105	1	punissant	
2106	1	punit	
2107	1	pure	
2108	1	purger	
2109	1	purgez	
2110	1	purgé	
2111	1	purifiant	
2112	1	pus	
2113	1	pâlir	
2114	1	pâme	
2115	1	périra	
2116	1	périront	
2117	1	querellé	
2118	1	quinze	
2119	1	quitte	
2120	1	quitter	
2121	1	quittez	
2122	1	quoiqu	
2123	1	racheter	
2124	1	racheté	
2125	1	rallumez	
2126	1	rappelé	
2127	1	ravi	
2128	1	ravie	
2129	1	ravisseur	
2130	1	rebelle	
2131	1	rebelles	
2132	1	recevant	
2133	1	reconnaissons	
2134	1	reconnaître	
2135	1	recouvres	
2136	1	recueille	
2137	1	reculant	
2138	1	redoublant	
2139	1	redoute	
2140	1	redoutez	
2141	1	refuserez	
2142	1	regardant	
2143	1	regrets	
2144	1	reine	
2145	1	rejeter	
2146	1	rejette	
2147	1	rejoindre	
2148	1	rejoins	
2149	1	remarquable	
2150	1	remerciements	
2151	1	remet	
2152	1	remets	
2153	1	remette	
2154	1	remis	
2155	1	remit	
2156	1	rempli	
2157	1	remplir	
2158	1	rempliront	
2159	1	remède	
2160	1	rencontre	
2161	1	rende	
2162	1	rendent	
2163	1	rendez	
2164	1	rendons	
2165	1	rendrai	
2166	1	rendrait	
2167	1	renommé	
2168	1	renommée	
2169	1	rentrer	
2170	1	renverser	
2171	1	repentir	
2172	1	reposez	
2173	1	reprends	
2174	1	reproche	
2175	1	reprocher	
2176	1	respecte	
2177	1	respects	
2178	1	ressemblance	
2179	1	ressembler	
2180	1	ressemblé	
2181	1	ressentiment	
2182	1	ressuscite	
2183	1	ressuscité	
2184	1	restait	
2185	1	restez	
2186	1	restitue	
2187	1	resté	
2188	1	retarde	
2189	1	retarder	
2190	1	retenu	
2191	1	retiens	
2192	1	retirer	
2193	1	retrouvé	
2194	1	revers	
2195	1	revivre	
2196	1	revoir	
2197	1	revêtir	
2198	1	revêtu	
2199	1	rirai	
2200	1	ris	
2201	1	romprai	
2202	1	routes	
2203	1	rudes	
2204	1	réduire	
2205	1	réduite	
2206	1	régnerez	
2207	1	régnez	
2208	1	répandre	
2209	1	répandus	
2210	1	répondez	
2211	1	répondit	
2212	1	répondront	
2213	1	réponse	
2214	1	répète	
2215	1	réserve	
2216	1	résistait	
2217	1	résistera	
2218	1	résistons	
2219	1	résolu	
2220	1	résolvez	
2221	1	résous	
2222	1	réunir	
2223	1	réunissant	
2224	1	réussi	
2225	1	réussir	
2226	1	révolté	
2227	1	révèle	
2228	1	révère	
2229	1	révélé	
2230	1	sachant	
2231	1	sache	
2232	1	sachent	
2233	1	sacrifiera	
2234	1	sacré	
2235	1	saint	
2236	1	saisir	
2237	1	saisissez	
2238	1	saisissons	
2239	1	salle	
2240	1	salut	
2241	1	sanglante	
2242	1	saurais	
2243	1	sauras	
2244	1	sauront	
2245	1	sauvai	
2246	1	saviez	
2247	1	scènes	
2248	1	second	
2249	1	seconder	
2250	1	secourez	
2251	1	sein	
2252	1	semant	
2253	1	semblent	
2254	1	semer	
2255	1	sensible	
2256	1	sent	
2257	1	sentais	
2258	1	serais	
2259	1	serez	
2260	1	seriez	
2261	1	serons	
2262	1	servaient	
2263	1	servant	
2264	1	serve	
2265	1	servent	
2266	1	servez	
2267	1	servit	
2268	1	seulement	
2269	1	seules	
2270	1	seuls	
2271	1	sexe	
2272	1	signal	
2273	1	signe	
2274	1	signez	
2275	1	silence	
2276	1	simple	
2277	1	simplicité	
2278	1	sitôt	
2279	1	soient	
2280	1	soldat	
2281	1	solide	
2282	1	sollicite	
2283	1	sollicité	
2284	1	soucis	
2285	1	souffrais	
2286	1	souffrirait	
2287	1	souhait	
2288	1	souille	
2289	1	souiller	
2290	1	souillez	
2291	1	soulever	
2292	1	soulevé	
2293	1	soupirant	
2294	1	soupçon	
2295	1	soupçonne	
2296	1	soupçonneraient	
2297	1	source	
2298	1	soutienne	
2299	1	soutiens	
2300	1	souvenez	
2301	1	souvient	
2302	1	stupidité	
2303	1	sublime	
2304	1	subtile	
2305	1	successeur	
2306	1	succombez	
2307	1	succède	
2308	1	succéda	
2309	1	succéder	
2310	1	suffit	
2311	1	suffrage	
2312	1	suite	
2313	1	suivantes	
2314	1	suive	
2315	1	suivent	
2316	1	suivez	
2317	1	suivi	
2318	1	suivie	
2319	1	suivis	
2320	1	suivit	
2321	1	sujets	
2322	1	supercherie	
2323	1	supposer	
2324	1	supposé	
2325	1	supposés	
2326	1	suprême	
2327	1	surprends	
2328	1	surpris	
2329	1	sus	
2330	1	suspect	
2331	1	suspecte	
2332	1	sut	
2333	1	séditions	
2334	1	séduits	
2335	1	sépare	
2336	1	séparer	
2337	1	sévère	
2338	1	sûreté	
2339	1	tache	
2340	1	taisez	
2341	1	tardant	
2342	1	tardive	
2343	1	teint	
2344	1	teinture	
2345	1	tempête	
2346	1	tempêtes	
2347	1	tenaient	
2348	1	tenir	
2349	1	terminer	
2350	1	terminez	
2351	1	terreur	
2352	1	terreurs	
2353	1	théodose	
2354	1	tiendra	
2355	1	tiendrait	
2356	1	tiendront	
2357	1	tienne	
2358	1	tiennent	
2359	1	tiennes	
2360	1	tigre	
2361	1	timide	
2362	1	timides	
2363	1	timidité	
2364	1	tins	
2365	1	tire	
2366	1	tirent	
2367	1	tirer	
2368	1	tirerai	
2369	1	tombait	
2370	1	tonne	
2371	1	torrent	
2372	1	tourments	
2373	1	tourné	
2374	1	toutefois	
2375	1	trahison	
2376	1	trahit	
2377	1	trait	
2378	1	traits	
2379	1	tranche	
2380	1	trancher	
2381	1	transports	
2382	1	travers	
2383	1	traînée	
2384	1	traîtres	
2385	1	tremblai	
2386	1	tremblait	
2387	1	tremblant	
2388	1	tremblante	
2389	1	tribun	
2390	1	trompai	
2391	1	trompaient	
2392	1	tromperie	
2393	1	trompâtes	
2394	1	troubler	
2395	1	troubles	
2396	1	troublez	
2397	1	troublé	
2398	1	troublée	
2399	1	troublés	
2400	1	troupe	
2401	1	troupes	
2402	1	trouva	
2403	1	trouverons	
2404	1	tyrannise	
2405	1	tyrans	
2406	1	tâche	
2407	1	tâcher	
2408	1	tâchons	
2409	1	témoigne	
2410	1	témoignent	
2411	1	témoins	
2412	1	témérité	
2413	1	têtes	
2414	1	unie	
2415	1	unir	
2416	1	uns	
2417	1	usage	
2418	1	user	
2419	1	userai	
2420	1	usurper	
2421	1	usurpèrent	
2422	1	usurpé	
2423	1	vaillance	
2424	1	vainque	
2425	1	valent	
2426	1	vanité	
2427	1	vanter	
2428	1	vantés	
2429	1	vapeur	
2430	1	vas	
2431	1	vaudra	
2432	1	vaux	
2433	1	vendre	
2434	1	vengeant	
2435	1	vengeresses	
2436	1	vengeur	
2437	1	vengé	
2438	1	vengés	
2439	1	venue	
2440	1	verriez	
2441	1	verront	
2442	1	verser	
2443	1	vertueux	
2444	1	victorieux	
2445	1	viens	
2446	1	vieux	
2447	1	vil	
2448	1	violent	
2449	1	vis	
2450	1	visiter	
2451	1	vit	
2452	1	vivant	
2453	1	vives	
2454	1	vivez	
2455	1	vivrait	
2456	1	vivras	
2457	1	voie	
2458	1	volontaire	
2459	1	voudrais	
2460	1	voudrait	
2461	1	voudrez	
2462	1	voudront	
2463	1	voulais	
2464	1	vouliez	
2465	1	voulus	
2466	1	vraisemblable	
2467	1	vécu	
2468	1	vécûmes	
2469	1	véritables	
2470	1	vôtres	
2471	1	âge	
2472	1	âpre	
2473	1	éblouis	
2474	1	éblouisse	
2475	1	ébranlé	
2476	1	éclaircissez	
2477	1	éclairer	
2478	1	éclairé	
2479	1	éclatant	
2480	1	éclate	
2481	1	écoutais	
2482	1	écoutez	
2483	1	écrit	
2484	1	égalait	
2485	1	égare	
2486	1	élections	
2487	1	éloigner	
2488	1	éloignés	
2489	1	élut	
2490	1	épargne	
2491	1	épargné	
2492	1	épargnée	
2493	1	éparse	
2494	1	épousez	
2495	1	épouvanter	
2496	1	étaler	
2497	1	éteindre	
2498	1	éternelle	
2499	1	éternelles	
2500	1	éternités	
2501	1	étiez	
2502	1	étonnant	
2503	1	étonner	
2504	1	étonné	
2505	1	étonnée	
2506	1	étonnés	
2507	1	étoufferait	
2508	1	étude	
2509	1	étudie	
2510	1	évanouir	
2511	1	évitons	
2512	1	ôta	
2513	1	ôtant	
2514	1	ôte	
2515	1	ôtera	
2516	1	ôterai	
2517	1	ôtes	
2518	1	ôtez	
2519	1	ôté	
