1,506,je
2,429,vous
3,422,et
4,421,de
5,369,que
6,284,à
7,265,est
8,263,en
9,250,la
10,241,il
11,240,un
12,237,l
13,237,le
14,234,bien
15,233,qu
16,187,ne
17,173,d
18,168,me
19,166,j
20,162,qui
21,150,si
22,147,ce
23,139,n
24,134,pour
25,131,m
26,130,mon
27,119,on
28,114,a
29,111,mais
30,103,ai
31,99,moi
32,94,don
33,94,pas
34,90,une
35,88,plus
36,85,ma
37,80,elle
38,76,tout
39,74,fait
40,73,nous
41,68,lui
42,68,suis
43,68,tu
44,67,au
45,67,les
46,61,c
47,60,sans
48,59,félix
49,59,se
50,56,faire
51,56,votre
52,55,des
53,55,s
54,54,du
55,51,rien
56,51,veux
57,50,son
58,50,être
59,49,fort
60,49,point
61,47,par
62,46,donc
63,46,ou
64,45,monsieur
65,44,homme
66,43,cette
67,43,dans
68,40,sa
69,40,voir
70,39,avoir
71,39,sur
72,38,quand
73,38,t
74,37,autre
75,35,faut
76,34,car
77,33,aime
78,33,là
79,32,comme
80,32,peu
81,32,quelque
82,32,te
83,32,y
84,31,bon
85,31,dieu
86,31,même
87,31,où
88,31,père
89,30,dorothée
90,30,mal
91,29,sais
92,29,soeur
93,29,trop
94,28,aussi
95,28,avec
96,28,peut
97,28,puis
98,27,amour
99,27,deux
100,27,honneur
101,26,ah
102,26,grand
103,25,beau
104,25,dit
105,25,esprit
106,25,ici
107,25,jamais
108,24,encor
109,24,soit
110,24,tant
111,23,diègue
112,23,fille
113,23,lucie
114,22,foi
115,22,vois
116,21,enfin
117,21,maître
118,21,mes
119,21,mieux
120,21,tous
121,21,va
122,20,ainsi
123,20,belle
124,20,chose
125,20,coeur
126,20,coup
127,20,devant
128,20,moins
129,19,cela
130,19,ces
131,19,ses
132,19,très
133,18,avez
134,18,dont
135,18,fois
136,18,jour
137,18,quoi
138,18,toujours
139,18,valet
140,18,vient
141,18,était
142,17,aux
143,17,notre
144,17,oui
145,17,souvent
146,17,tantôt
147,17,vais
148,16,lettre
149,16,seulement
150,16,sont
151,16,tel
152,16,temps
153,15,alphonse
154,15,assez
155,15,bonne
156,15,chez
157,15,dis
158,15,dois
159,15,donner
160,15,jodelet
161,15,pourtant
162,15,vu
163,15,yeux
164,15,êtes
165,14,ami
166,14,après
167,14,depuis
168,14,dire
169,14,main
170,14,maison
171,14,ont
172,14,toi
173,14,toute
174,13,allez
175,13,autant
176,13,bientôt
177,13,contre
178,13,dessus
179,13,mariage
180,13,voulez
181,13,époux
182,12,alors
183,12,as
184,12,aujourd
185,12,beauté
186,12,celle
187,12,cet
188,12,cher
189,12,dites
190,12,doit
191,12,donné
192,12,fais
193,12,faites
194,12,hui
195,12,hélène
196,12,savoir
197,12,sera
198,12,ton
199,12,trouve
200,12,veut
201,12,vrai
202,12,ô
203,11,amant
204,11,avais
205,11,doute
206,11,entre
207,11,ha
208,11,heure
209,11,mille
210,11,peine
211,11,rendre
212,11,savez
213,11,soufflet
214,11,vos
215,10,battre
216,10,béatris
217,10,coups
218,10,discours
219,10,donne
220,10,gaspard
221,10,ils
222,10,leur
223,10,non
224,10,pauvre
225,10,peur
226,10,puisque
227,10,sait
228,10,seigneur
229,10,serais
230,10,seul
231,10,sorte
232,10,vie
233,10,voilà
234,10,vraiment
235,9,aller
236,9,allons
237,9,argent
238,9,ayant
239,9,beaux
240,9,cent
241,9,ciel
242,9,cour
243,9,femme
244,9,ferai
245,9,fourbe
246,9,heureux
247,9,hélas
248,9,lieu
249,9,mourir
250,9,nuit
251,9,parler
252,9,pense
253,9,prends
254,9,rire
255,9,tolède
256,8,adieu
257,8,assurément
258,8,avait
259,8,celui
260,8,cousin
261,8,croire
262,8,crois
263,8,eux
264,8,exempt
265,8,feu
266,8,fin
267,8,fou
268,8,gendre
269,8,hay
270,8,humeur
271,8,madame
272,8,mettre
273,8,mérite
274,8,ni
275,8,passé
276,8,pourquoi
277,8,sage
278,8,sourde
279,8,viens
280,8,visage
281,8,vite
282,8,vôtre
283,8,âme
284,7,aimez
285,7,aise
286,7,aura
287,7,brave
288,7,cartel
289,7,cas
290,7,cause
291,7,cependant
292,7,chaise
293,7,comment
294,7,demeure
295,7,enfants
296,7,espère
297,7,force
298,7,grande
299,7,jeune
300,7,jours
301,7,mauvais
302,7,meure
303,7,mort
304,7,nom
305,7,oeil
306,7,parti
307,7,partout
308,7,personne
309,7,peste
310,7,petit
311,7,pourrai
312,7,prendre
313,7,quelquefois
314,7,quelques
315,7,quoique
316,7,raison
317,7,sache
318,7,sot
319,7,ta
320,7,tour
321,7,trouver
322,7,venu
323,7,vers
324,7,vitement
325,7,épouser
326,7,été
327,6,affaire
328,6,ait
329,6,ange
330,6,apprendre
331,6,aurais
332,6,aussitôt
333,6,bonheur
334,6,bruits
335,6,certain
336,6,ceux
337,6,colère
338,6,conseille
339,6,courage
340,6,croit
341,6,demain
342,6,dessein
343,6,devez
344,6,diable
345,6,droit
346,6,effet
347,6,enrage
348,6,enrager
349,6,eut
350,6,fasse
351,6,femmes
352,6,ho
353,6,longtemps
354,6,malheur
355,6,malheureux
356,6,messieurs
357,6,met
358,6,mine
359,6,mis
360,6,objet
361,6,ordre
362,6,oreille
363,6,parle
364,6,pedro
365,6,perdu
366,6,plutôt
367,6,pouvez
368,6,premier
369,6,puisse
370,6,quel
371,6,reste
372,6,riche
373,6,roi
374,6,sang
375,6,serai
376,6,sert
377,6,sommes
378,6,tort
379,6,trahison
380,6,venez
381,6,vue
382,6,écoute
383,6,étrange
384,5,action
385,5,adresse
386,5,allé
387,5,amoureux
388,5,avila
389,5,avis
390,5,avons
391,5,beautés
392,5,bout
393,5,bras
394,5,bruit
395,5,chien
396,5,chère
397,5,connais
398,5,conseiller
399,5,conseils
400,5,corps
401,5,courtisan
402,5,cru
403,5,donnez
404,5,dès
405,5,elles
406,5,encore
407,5,ensemble
408,5,entends
409,5,eusse
410,5,face
411,5,fidèle
412,5,frappe
413,5,fus
414,5,gens
415,5,importe
416,5,joué
417,5,jusqu
418,5,lettres
419,5,loin
420,5,lorsqu
421,5,madrid
422,5,maîtresse
423,5,nez
424,5,paraît
425,5,perdre
426,5,pitié
427,5,plaît
428,5,poing
429,5,porte
430,5,pris
431,5,propos
432,5,quelqu
433,5,serviteur
434,5,songez
435,5,souffrir
436,5,soyez
437,5,su
438,5,surtout
439,5,taire
440,5,telle
441,5,tiens
442,5,traître
443,5,trouvé
444,5,tête
445,5,venger
446,5,vertu
447,5,voici
448,5,voix
449,5,étranger
450,4,abord
451,4,adorable
452,4,affront
453,4,aimable
454,4,aimer
455,4,amis
456,4,amène
457,4,appas
458,4,appelle
459,4,aurez
460,4,bat
461,4,beaucoup
462,4,bel
463,4,besoin
464,4,bons
465,4,bâton
466,4,carrosse
467,4,cavalier
468,4,celles
469,4,certaine
470,4,chercher
471,4,confesse
472,4,considérer
473,4,coquin
474,4,craindre
475,4,côté
476,4,dangereux
477,4,dieux
478,4,dira
479,4,dom
480,4,doux
481,4,démon
482,4,entendre
483,4,eu
484,4,extrême
485,4,faisant
486,4,faudra
487,4,faux
488,4,faveur
489,4,façon
490,4,finir
491,4,font
492,4,fortune
493,4,frapper
494,4,frappez
495,4,fâche
496,4,gardez
497,4,gloire
498,4,grands
499,4,grâce
500,4,haye
501,4,jaloux
502,4,janot
503,4,joue
504,4,langage
505,4,leurs
506,4,lisez
507,4,loge
508,4,lorsque
509,4,malade
510,4,maudit
511,4,maux
512,4,mien
513,4,moindre
514,4,moment
515,4,offrir
516,4,oncle
517,4,ose
518,4,padille
519,4,parce
520,4,pardon
521,4,pareille
522,4,part
523,4,passe
524,4,petite
525,4,place
526,4,plaire
527,4,plaisir
528,4,porter
529,4,prend
530,4,prenez
531,4,pressé
532,4,prie
533,4,pu
534,4,quant
535,4,quatre
536,4,querelle
537,4,quereller
538,4,recevoir
539,4,regard
540,4,regarder
541,4,remède
542,4,rencontre
543,4,reçu
544,4,ris
545,4,rompre
546,4,sauvé
547,4,secret
548,4,semble
549,4,sens
550,4,serez
551,4,servir
552,4,soeurs
553,4,sotte
554,4,sujet
555,4,toutes
556,4,train
557,4,vaillant
558,4,venue
559,4,verra
560,4,verrez
561,4,vieil
562,4,vieillard
563,4,vis
564,4,vivre
565,4,voit
566,4,vont
567,4,voulait
568,4,voulu
569,4,voyant
570,4,étais
571,4,étant
572,4,état
573,4,étiez
574,3,achever
575,3,adore
576,3,adroitement
577,3,afin
578,3,aisément
579,3,alliance
580,3,ans
581,3,apaise
582,3,aperçois
583,3,ardeur
584,3,assuré
585,3,atteint
586,3,attend
587,3,attendre
588,3,aurai
589,3,autres
590,3,avecque
591,3,aînée
592,3,barbe
593,3,bas
594,3,battu
595,3,belles
596,3,bienheureux
597,3,blesse
598,3,blessé
599,3,boire
600,3,béatrix
601,3,cacher
602,3,chambre
603,3,cherché
604,3,cheval
605,3,choses
606,3,ci
607,3,coquette
608,3,courir
609,3,crevé
610,3,croyais
611,3,cruelle
612,3,cruellement
613,3,crédit
614,3,demander
615,3,devais
616,3,devienne
617,3,duel
618,3,déjà
619,3,dépend
620,3,dépens
621,3,déplaît
622,3,effets
623,3,entend
624,3,entrer
625,3,estime
626,3,eût
627,3,famille
628,3,fanfaron
629,3,fera
630,3,filles
631,3,fit
632,3,frère
633,3,furie
634,3,fut
635,3,futur
636,3,gagner
637,3,garde
638,3,gentil
639,3,giron
640,3,goutte
641,3,guérir
642,3,hait
643,3,hasarder
644,3,histoire
645,3,humble
646,3,hymen
647,3,indigne
648,3,infidèle
649,3,insigne
650,3,instant
651,3,intention
652,3,jalouse
653,3,jeunes
654,3,jusques
655,3,juste
656,3,justement
657,3,lu
658,3,marché
659,3,marier
660,3,matin
661,3,mauvaise
662,3,mener
663,3,mets
664,3,mettez
665,3,mienne
666,3,milieu
667,3,misérable
668,3,mot
669,3,mots
670,3,mène
671,3,mère
672,3,méchant
673,3,nièce
674,3,nos
675,3,nouvelle
676,3,nôtre
677,3,obtiens
678,3,obéir
679,3,offensé
680,3,official
681,3,or
682,3,oraison
683,3,paraissez
684,3,parfait
685,3,parfaite
686,3,parlant
687,3,parlé
688,3,paroles
689,3,passer
690,3,pauvrette
691,3,penser
692,3,pique
693,3,piqué
694,3,pis
695,3,pleurer
696,3,pleurs
697,3,poignard
698,3,poltron
699,3,port
700,3,poulet
701,3,pourpoint
702,3,pourra
703,3,pourvu
704,3,pouvoir
705,3,presque
706,3,prison
707,3,prix
708,3,promptement
709,3,présentée
710,3,prétendez
711,3,prétends
712,3,puisqu
713,3,péril
714,3,quart
715,3,quelle
716,3,questions
717,3,quitte
718,3,quérir
719,3,rage
720,3,rentrons
721,3,reçoit
722,3,riches
723,3,rue
724,3,règne
725,3,sachant
726,3,sachez
727,3,salaire
728,3,saoul
729,3,saurai
730,3,sauront
731,3,seigneurie
732,3,semblable
733,3,serait
734,3,seriez
735,3,seront
736,3,seule
737,3,six
738,3,soir
739,3,somme
740,3,soucie
741,3,souffre
742,3,stratagème
743,3,tienne
744,3,toux
745,3,traité
746,3,trompe
747,3,trompé
748,3,troubler
749,3,trouverai
750,3,tue
751,3,tâche
752,3,téméraire
753,3,valeur
754,3,venge
755,3,venons
756,3,vienne
757,3,viennent
758,3,ville
759,3,violence
760,3,voeux
761,3,voudrais
762,3,voyez
763,3,écrite
764,3,écus
765,3,église
766,3,épouse
767,3,épée
768,3,étonne
769,2,absolument
770,2,accommode
771,2,accusé
772,2,adorer
773,2,affections
774,2,aide
775,2,aie
776,2,ailleurs
777,2,années
778,2,apostée
779,2,apporte
780,2,appris
781,2,approchant
782,2,armes
783,2,arrêter
784,2,arrêtez
785,2,arrêtée
786,2,assiste
787,2,attendais
788,2,attendu
789,2,aucun
790,2,aucune
791,2,audace
792,2,augmente
793,2,auprès
794,2,avant
795,2,avare
796,2,avarice
797,2,aviez
798,2,aîné
799,2,bats
800,2,bizarre
801,2,blanche
802,2,bonhomme
803,2,bonté
804,2,boutonné
805,2,brouiller
806,2,brûle
807,2,bénit
808,2,cadette
809,2,campagne
810,2,casser
811,2,ceci
812,2,cesse
813,2,chacun
814,2,chamaillant
815,2,champs
816,2,change
817,2,chanter
818,2,charger
819,2,charité
820,2,charmant
821,2,cherche
822,2,choisi
823,2,choque
824,2,clair
825,2,cocher
826,2,coeurs
827,2,commandez
828,2,comparable
829,2,condamnées
830,2,confondre
831,2,conseillée
832,2,contente
833,2,contenter
834,2,contraire
835,2,cou
836,2,couci
837,2,courez
838,2,cours
839,2,couvert
840,2,crains
841,2,craint
842,2,crainte
843,2,crier
844,2,cruel
845,2,cède
846,2,dameret
847,2,danger
848,2,dedans
849,2,demande
850,2,demeurer
851,2,demi
852,2,dents
853,2,desseins
854,2,destine
855,2,devenir
856,2,devient
857,2,deviez
858,2,devin
859,2,devrait
860,2,die
861,2,dirai
862,2,disait
863,2,divin
864,2,donnerai
865,2,donnée
866,2,donnés
867,2,douleur
868,2,douleurs
869,2,douter
870,2,drôle
871,2,découverte
872,2,découvrons
873,2,défends
874,2,désespoir
875,2,désespère
876,2,désirez
877,2,désiré
878,2,dût
879,2,embarras
880,2,embarrassé
881,2,embrasse
882,2,empire
883,2,empêcher
884,2,engage
885,2,enlever
886,2,ennemi
887,2,entretenir
888,2,esclave
889,2,esprits
890,2,eussiez
891,2,excuse
892,2,excusez
893,2,exerce
894,2,facilement
895,2,faisait
896,2,faisons
897,2,faite
898,2,faits
899,2,faquin
900,2,feignant
901,2,feinte
902,2,fenêtre
903,2,ferais
904,2,ferait
905,2,flandre
906,2,fleuret
907,2,folle
908,2,fonseque
909,2,forte
910,2,frotté
911,2,fuite
912,2,furieux
913,2,fâché
914,2,fête
915,2,gages
916,2,gagne
917,2,gaillard
918,2,gaillarde
919,2,galant
920,2,garder
921,2,genoux
922,2,gentilhomme
923,2,gré
924,2,haine
925,2,haussant
926,2,hommes
927,2,honnête
928,2,hors
929,2,hyménée
930,2,hâte
931,2,hé
932,2,hôte
933,2,hôtellerie
934,2,idole
935,2,importun
936,2,inclination
937,2,indiscrète
938,2,infâme
939,2,inhumaine
940,2,innocent
941,2,ira
942,2,jalousie
943,2,janos
944,2,jeté
945,2,jeu
946,2,jouer
947,2,jugement
948,2,jure
949,2,laide
950,2,laisse
951,2,laissez
952,2,laissons
953,2,larme
954,2,las
955,2,lassé
956,2,linge
957,2,lit
958,2,logis
959,2,longues
960,2,lors
961,2,loué
962,2,maigre
963,2,mains
964,2,maisons
965,2,malgré
966,2,manquer
967,2,marquis
968,2,menteur
969,2,mentir
970,2,meurs
971,2,miens
972,2,mignon
973,2,mode
974,2,monseigneur
975,2,montre
976,2,mordant
977,2,mordre
978,2,morne
979,2,mouche
980,2,méchants
981,2,mémoire
982,2,mépris
983,2,métier
984,2,nature
985,2,nettes
986,2,noble
987,2,noire
988,2,nuits
989,2,nécessaire
990,2,néron
991,2,oeillade
992,2,offense
993,2,offre
994,2,oison
995,2,osais
996,2,outre
997,2,ouverte
998,2,ouvrez
999,2,ouvrir
1000,2,papa
1001,2,pareilles
1002,2,parent
1003,2,parlons
1004,2,parmi
1005,2,partage
1006,2,paré
1007,2,passion
1008,2,pauvres
1009,2,pavé
1010,2,payez
1011,2,pendre
1012,2,percé
1013,2,perdrai
1014,2,permis
1015,2,personnage
1016,2,petites
1017,2,peux
1018,2,pied
1019,2,plein
1020,2,pleinement
1021,2,pleure
1022,2,poste
1023,2,pourrez
1024,2,prise
1025,2,priver
1026,2,prié
1027,2,prochain
1028,2,profite
1029,2,promesse
1030,2,promets
1031,2,promis
1032,2,propre
1033,2,prospère
1034,2,près
1035,2,présent
1036,2,prêt
1037,2,pécher
1038,2,pécheur
1039,2,quarte
1040,2,quasi
1041,2,quitter
1042,2,railler
1043,2,rare
1044,2,recevez
1045,2,reculer
1046,2,refuse
1047,2,refuser
1048,2,regarde
1049,2,remercier
1050,2,remords
1051,2,rend
1052,2,respect
1053,2,retient
1054,2,retire
1055,2,revenez
1056,2,reviens
1057,2,revient
1058,2,revoir
1059,2,riez
1060,2,rivaux
1061,2,rumeur
1062,2,réduit
1063,2,répandre
1064,2,répondre
1065,2,résolu
1066,2,réussi
1067,2,sages
1068,2,sangle
1069,2,saura
1070,2,sauver
1071,2,second
1072,2,seconde
1073,2,seigneurs
1074,2,selon
1075,2,sent
1076,2,servi
1077,2,silence
1078,2,simple
1079,2,singe
1080,2,soi
1081,2,sois
1082,2,soleil
1083,2,sort
1084,2,sottes
1085,2,sourd
1086,2,suivi
1087,2,suivis
1088,2,suspect
1089,2,séjour
1090,2,sûr
1091,2,taille
1092,2,tais
1093,2,tandis
1094,2,tarder
1095,2,tes
1096,2,théâtre
1097,2,tient
1098,2,tierce
1099,2,tire
1100,2,tirer
1101,2,tombe
1102,2,tourments
1103,2,tousser
1104,2,trait
1105,2,traite
1106,2,travaille
1107,2,triste
1108,2,trois
1109,2,trompeur
1110,2,trésor
1111,2,tâter
1112,2,témoignage
1113,2,témoignent
1114,2,unis
1115,2,venant
1116,2,venir
1117,2,ventre
1118,2,verse
1119,2,vieux
1120,2,violent
1121,2,voie
1122,2,voile
1123,2,volage
1124,2,vouliez
1125,2,voyons
1126,2,vérité
1127,2,ça
1128,2,çà
1129,2,éclaircie
1130,2,écoutez
1131,2,également
1132,2,énergie
1133,2,épreuve
1134,2,étrangle
1135,2,étrillerai
1136,1,abandonne
1137,1,abondance
1138,1,absence
1139,1,acariâtre
1140,1,acceptant
1141,1,accepter
1142,1,accepterais
1143,1,accident
1144,1,accidents
1145,1,accomplir
1146,1,accomplisse
1147,1,accoster
1148,1,accosté
1149,1,accusez
1150,1,achèterais
1151,1,achèverez
1152,1,acquise
1153,1,acquittant
1154,1,acquitte
1155,1,acquitter
1156,1,acquitterai
1157,1,acquitterais
1158,1,acquitté
1159,1,admettre
1160,1,admire
1161,1,adonne
1162,1,adoucir
1163,1,adoucissais
1164,1,adresser
1165,1,adroit
1166,1,adversaire
1167,1,affection
1168,1,afflige
1169,1,affligeais
1170,1,affligez
1171,1,affreux
1172,1,affronte
1173,1,affronter
1174,1,affronteur
1175,1,agilité
1176,1,agir
1177,1,agit
1178,1,agrippine
1179,1,agrée
1180,1,aider
1181,1,aies
1182,1,aille
1183,1,aimait
1184,1,aimant
1185,1,aimerais
1186,1,aimerait
1187,1,aimé
1188,1,aisé
1189,1,ajoute
1190,1,alexandre
1191,1,allais
1192,1,alléger
1193,1,amante
1194,1,amants
1195,1,amené
1196,1,amie
1197,1,amours
1198,1,animal
1199,1,animons
1200,1,apaiser
1201,1,apaiserez
1202,1,apparence
1203,1,appliqué
1204,1,apporter
1205,1,apprends
1206,1,apprenez
1207,1,apprise
1208,1,apprit
1209,1,approche
1210,1,approchez
1211,1,apprêtiez
1212,1,apprêtée
1213,1,archer
1214,1,archet
1215,1,ardents
1216,1,arguments
1217,1,armé
1218,1,arracher
1219,1,arranger
1220,1,arriva
1221,1,arrière
1222,1,arrogance
1223,1,artère
1224,1,aspire
1225,1,assassine
1226,1,assassiné
1227,1,assemble
1228,1,assignation
1229,1,assignée
1230,1,assise
1231,1,assistance
1232,1,assiégez
1233,1,assomme
1234,1,assurez
1235,1,asséné
1236,1,assénés
1237,1,attachés
1238,1,attaque
1239,1,attendait
1240,1,attendant
1241,1,attendez
1242,1,attends
1243,1,attirer
1244,1,attraits
1245,1,attraper
1246,1,attribuez
1247,1,augmentant
1248,1,augmenter
1249,1,auparavant
1250,1,aurait
1251,1,auras
1252,1,auriez
1253,1,auteur
1254,1,autrefois
1255,1,autrement
1256,1,autrui
1257,1,avantage
1258,1,avertir
1259,1,avertissez
1260,1,avoue
1261,1,avouer
1262,1,avé
1263,1,ayez
1264,1,badin
1265,1,baillez
1266,1,baise
1267,1,baiser
1268,1,balcon
1269,1,balourde
1270,1,bassesse
1271,1,bataille
1272,1,batte
1273,1,biens
1274,1,billet
1275,1,bière
1276,1,blessent
1277,1,blême
1278,1,bois
1279,1,bonjour
1280,1,bontés
1281,1,bouche
1282,1,bourreau
1283,1,bouteille
1284,1,braise
1285,1,brassant
1286,1,brasser
1287,1,brille
1288,1,brins
1289,1,brisés
1290,1,brouillamini
1291,1,brusquement
1292,1,brutal
1293,1,buse
1294,1,bâti
1295,1,bègue
1296,1,bélître
1297,1,bénite
1298,1,bête
1299,1,cache
1300,1,cacheras
1301,1,cachés
1302,1,cadet
1303,1,cajolez
1304,1,camuse
1305,1,capable
1306,1,capture
1307,1,caquet
1308,1,caractère
1309,1,caressait
1310,1,carnage
1311,1,carrefour
1312,1,carrosses
1313,1,cartels
1314,1,cassette
1315,1,castille
1316,1,caterre
1317,1,caterreux
1318,1,causer
1319,1,causez
1320,1,certains
1321,1,certes
1322,1,cervelle
1323,1,cesser
1324,1,cessez
1325,1,chandelle
1326,1,changent
1327,1,changeons
1328,1,changer
1329,1,changes
1330,1,changiez
1331,1,changé
1332,1,chapeau
1333,1,charitablement
1334,1,charmé
1335,1,charnue
1336,1,chasse
1337,1,chasteté
1338,1,chaussons
1339,1,chaîne
1340,1,chemise
1341,1,chers
1342,1,chevaux
1343,1,cheveux
1344,1,chiche
1345,1,choisie
1346,1,choisirait
1347,1,choisis
1348,1,choix
1349,1,chopine
1350,1,chrétien
1351,1,châtiez
1352,1,chétif
1353,1,cieux
1354,1,ciguë
1355,1,circonvenu
1356,1,civilement
1357,1,claire
1358,1,clause
1359,1,close
1360,1,collet
1361,1,combats
1362,1,commencement
1363,1,commencent
1364,1,commencer
1365,1,commencée
1366,1,communicable
1367,1,comparer
1368,1,complaisante
1369,1,complice
1370,1,comprendre
1371,1,compte
1372,1,comédie
1373,1,concerne
1374,1,concertée
1375,1,condition
1376,1,conditions
1377,1,conduise
1378,1,conduit
1379,1,confesser
1380,1,confesserez
1381,1,confesseur
1382,1,confession
1383,1,confessé
1384,1,confirme
1385,1,confirmer
1386,1,confirmés
1387,1,confusion
1388,1,connaissance
1389,1,connaissez
1390,1,connaît
1391,1,connaîtra
1392,1,connaître
1393,1,connu
1394,1,conquis
1395,1,conquête
1396,1,conscience
1397,1,conseil
1398,1,conseillant
1399,1,consentement
1400,1,consentez
1401,1,content
1402,1,contentée
1403,1,conter
1404,1,contestant
1405,1,contester
1406,1,continuez
1407,1,contracter
1408,1,contrefaire
1409,1,contrefait
1410,1,contée
1411,1,convulsion
1412,1,conçu
1413,1,copie
1414,1,coqueter
1415,1,coquettes
1416,1,coquille
1417,1,cornu
1418,1,cornus
1419,1,corrige
1420,1,corrompant
1421,1,coucheraient
1422,1,coudre
1423,1,couler
1424,1,couleurs
1425,1,coupe
1426,1,coupé
1427,1,coupée
1428,1,courait
1429,1,courant
1430,1,courtoisie
1431,1,courue
1432,1,cousins
1433,1,couteau
1434,1,couvent
1435,1,coûtera
1436,1,coûté
1437,1,craignez
1438,1,criant
1439,1,crie
1440,1,crime
1441,1,crimes
1442,1,croc
1443,1,croirais
1444,1,croirez
1445,1,croiriez
1446,1,croquignoles
1447,1,croyable
1448,1,croyait
1449,1,crus
1450,1,créanciers
1451,1,crûtes
1452,1,cuirasse
1453,1,cuisants
1454,1,cupidon
1455,1,céderai
1456,1,céderez
1457,1,céleste
1458,1,côtes
1459,1,côtés
1460,1,da
1461,1,dague
1462,1,daignez
1463,1,dame
1464,1,damné
1465,1,damnée
1466,1,dard
1467,1,dardants
1468,1,darde
1469,1,darder
1470,1,debout
1471,1,delà
1472,1,demandant
1473,1,demandé
1474,1,demeureraient
1475,1,dernier
1476,1,dernière
1477,1,derrière
1478,1,destinée
1479,1,devait
1480,1,devenant
1481,1,deviens
1482,1,devions
1483,1,devoir
1484,1,devons
1485,1,devrais
1486,1,devriez
1487,1,diables
1488,1,difficulté
1489,1,diffère
1490,1,différence
1491,1,différer
1492,1,digne
1493,1,digression
1494,1,dirait
1495,1,direz
1496,1,disant
1497,1,discourir
1498,1,discret
1499,1,discrets
1500,1,discrétion
1501,1,dise
1502,1,disent
1503,1,dispense
1504,1,dispenser
1505,1,dispenserez
1506,1,disposer
1507,1,dix
1508,1,diégo
1509,1,doctement
1510,1,dogue
1511,1,doigts
1512,1,domaines
1513,1,domestique
1514,1,doncque
1515,1,donnait
1516,1,donnant
1517,1,donnerais
1518,1,donnerez
1519,1,donniez
1520,1,dormez
1521,1,dormir
1522,1,doré
1523,1,dos
1524,1,double
1525,1,doublerai
1526,1,doucereux
1527,1,douceur
1528,1,douceurs
1529,1,dresser
1530,1,dupe
1531,1,duré
1532,1,dussiez
1533,1,débrouiller
1534,1,décachetée
1535,1,décoché
1536,1,découvert
1537,1,découvrir
1538,1,décret
1539,1,dédains
1540,1,défauts
1541,1,défendra
1542,1,défendre
1543,1,défendu
1544,1,défendue
1545,1,déferre
1546,1,déférer
1547,1,dégainé
1548,1,dégainée
1549,1,déguisant
1550,1,déguise
1551,1,déité
1552,1,délicat
1553,1,dénonce
1554,1,dépendons
1555,1,dépense
1556,1,déplaire
1557,1,déportements
1558,1,dérober
1559,1,déréglée
1560,1,désassemble
1561,1,désavantageux
1562,1,désirerez
1563,1,désobliger
1564,1,désobéissance
1565,1,désolée
1566,1,désolés
1567,1,désordre
1568,1,détester
1569,1,détour
1570,1,dévore
1571,1,déçu
1572,1,eau
1573,1,efface
1574,1,efforts
1575,1,effrontée
1576,1,embraser
1577,1,emploi
1578,1,emporte
1579,1,empêchera
1580,1,empêcherai
1581,1,empêché
1582,1,enchanté
1583,1,enchérîtes
1584,1,endroit
1585,1,endroits
1586,1,endurer
1587,1,enfer
1588,1,engagé
1589,1,engagée
1590,1,enjalousez
1591,1,enlève
1592,1,ennemis
1593,1,ennuis
1594,1,enragée
1595,1,entendais
1596,1,entendement
1597,1,entendez
1598,1,entendrai
1599,1,entour
1600,1,entraimons
1601,1,entreprendre
1602,1,entretenue
1603,1,entretient
1604,1,entrouvert
1605,1,entré
1606,1,envahi
1607,1,envie
1608,1,envieuse
1609,1,envieux
1610,1,envoyer
1611,1,es
1612,1,espoir
1613,1,espérance
1614,1,espérer
1615,1,essayer
1616,1,estramaçon
1617,1,estramaçons
1618,1,exagérer
1619,1,examiner
1620,1,excellence
1621,1,excès
1622,1,exemple
1623,1,exempts
1624,1,experte
1625,1,expirer
1626,1,exprès
1627,1,expérimenté
1628,1,extasie
1629,1,exterminer
1630,1,extrémité
1631,1,exécuté
1632,1,fabrique
1633,1,fadaise
1634,1,faible
1635,1,fainéant
1636,1,faisable
1637,1,fallait
1638,1,familière
1639,1,fantaisie
1640,1,fat
1641,1,fauconneau
1642,1,faudrait
1643,1,fausse
1644,1,faute
1645,1,fautes
1646,1,favorisent
1647,1,favoriser
1648,1,feignîtes
1649,1,feindre
1650,1,feins
1651,1,feint
1652,1,femmicides
1653,1,fendant
1654,1,fer
1655,1,ferez
1656,1,ferme
1657,1,fermé
1658,1,ferons
1659,1,feront
1660,1,fi
1661,1,fils
1662,1,finisse
1663,1,fière
1664,1,fièvre
1665,1,flac
1666,1,flanc
1667,1,flatter
1668,1,fleurets
1669,1,fleurettes
1670,1,fleuri
1671,1,flic
1672,1,flèches
1673,1,fléau
1674,1,fléchir
1675,1,foie
1676,1,foin
1677,1,fond
1678,1,fonds
1679,1,forcenée
1680,1,forcer
1681,1,forger
1682,1,fornications
1683,1,fors
1684,1,forts
1685,1,fortuné
1686,1,fougère
1687,1,foupis
1688,1,fournissez
1689,1,fourreau
1690,1,fourré
1691,1,fous
1692,1,franc
1693,1,frappé
1694,1,friponne
1695,1,frivoles
1696,1,froid
1697,1,froide
1698,1,front
1699,1,frotter
1700,1,fuir
1701,1,fâchera
1702,1,fâcheuse
1703,1,féru
1704,1,fîtes
1705,1,fût
1706,1,fûtes
1707,1,gagnerais
1708,1,gagnerons
1709,1,gaillardement
1710,1,galon
1711,1,gant
1712,1,gardent
1713,1,gardes
1714,1,gare
1715,1,garçon
1716,1,garçons
1717,1,gentille
1718,1,gerbe
1719,1,germain
1720,1,gladiateur
1721,1,glaçons
1722,1,glorieux
1723,1,goths
1724,1,goutteux
1725,1,goûterons
1726,1,grandes
1727,1,grasse
1728,1,gravité
1729,1,grippe
1730,1,grosse
1731,1,grosses
1732,1,guerre
1733,1,gueuserie
1734,1,guitarisé
1735,1,guère
1736,1,guères
1737,1,guéri
1738,1,guérira
1739,1,guéris
1740,1,guérisse
1741,1,guérissez
1742,1,guérit
1743,1,gâte
1744,1,généreux
1745,1,gênes
1746,1,habiller
1747,1,habit
1748,1,hache
1749,1,hais
1750,1,hardi
1751,1,hardiment
1752,1,haïr
1753,1,herbe
1754,1,heurte
1755,1,heurter
1756,1,hier
1757,1,holà
1758,1,honore
1759,1,honte
1760,1,huit
1761,1,humaine
1762,1,humecter
1763,1,humides
1764,1,hyménées
1765,1,hémorragie
1766,1,hôpital
1767,1,idiote
1768,1,idiotement
1769,1,ignore
1770,1,ignorer
1771,1,illustre
1772,1,imitant
1773,1,imitez
1774,1,imité
1775,1,impertinent
1776,1,impiété
1777,1,implorer
1778,1,important
1779,1,imposteur
1780,1,impudent
1781,1,impuissance
1782,1,incivilité
1783,1,inclinations
1784,1,informer
1785,1,infortune
1786,1,inférez
1787,1,ingérer
1788,1,inhumain
1789,1,injures
1790,1,injurie
1791,1,injurier
1792,1,innocemment
1793,1,innocence
1794,1,inquiète
1795,1,inquiété
1796,1,inquiétée
1797,1,insensible
1798,1,insensé
1799,1,insensée
1800,1,insolemment
1801,1,instruit
1802,1,interdite
1803,1,intéressés
1804,1,intérêt
1805,1,invention
1806,1,inventions
1807,1,inventé
1808,1,inventée
1809,1,invisible
1810,1,irai
1811,1,irons
1812,1,irritons
1813,1,irrité
1814,1,irréconciliable
1815,1,issu
1816,1,ivrogne
1817,1,jacobins
1818,1,jambe
1819,1,jaquette
1820,1,jarret
1821,1,jetant
1822,1,jeûner
1823,1,joie
1824,1,joint
1825,1,jouait
1826,1,joug
1827,1,journées
1828,1,juge
1829,1,jugez
1830,1,justice
1831,1,justifier
1832,1,laissai
1833,1,laisser
1834,1,laisserai
1835,1,laissé
1836,1,languir
1837,1,lanterner
1838,1,laquelle
1839,1,larmes
1840,1,lequel
1841,1,lesquels
1842,1,leste
1843,1,levés
1844,1,leçon
1845,1,libertés
1846,1,librement
1847,1,libéral
1848,1,libérale
1849,1,libéralités
1850,1,liens
1851,1,lieux
1852,1,lion
1853,1,lirai
1854,1,lise
1855,1,lisons
1856,1,livré
1857,1,loger
1858,1,loi
1859,1,lois
1860,1,loisir
1861,1,longs
1862,1,longue
1863,1,louage
1864,1,louange
1865,1,loue
1866,1,louer
1867,1,lourde
1868,1,loyale
1869,1,lunettes
1870,1,légende
1871,1,léger
1872,1,lésiné
1873,1,mademoiselle
1874,1,magie
1875,1,mainte
1876,1,males
1877,1,malheure
1878,1,malice
1879,1,malin
1880,1,malins
1881,1,malsain
1882,1,maltraiter
1883,1,maltraité
1884,1,manger
1885,1,manque
1886,1,marche
1887,1,mari
1888,1,mariera
1889,1,marmouset
1890,1,maroufle
1891,1,marri
1892,1,martyrisé
1893,1,maussade
1894,1,mauvaises
1895,1,meilleur
1896,1,mens
1897,1,menée
1898,1,merveille
1899,1,mette
1900,1,mettent
1901,1,meurtrière
1902,1,migraine
1903,1,minces
1904,1,miracles
1905,1,miroirs
1906,1,mise
1907,1,missives
1908,1,moderne
1909,1,modérez
1910,1,mois
1911,1,moitié
1912,1,monde
1913,1,monnayeur
1914,1,monnayeurs
1915,1,monter
1916,1,monument
1917,1,moque
1918,1,moquer
1919,1,moraux
1920,1,morfondre
1921,1,mortel
1922,1,mortellement
1923,1,morts
1924,1,moue
1925,1,mourait
1926,1,mourante
1927,1,mourants
1928,1,mourras
1929,1,moustache
1930,1,moyen
1931,1,mulet
1932,1,multiplier
1933,1,mystère
1934,1,méchamment
1935,1,méchanceté
1936,1,méchante
1937,1,médaille
1938,1,médire
1939,1,médisants
1940,1,médit
1941,1,ménage
1942,1,méprendre
1943,1,méprise
1944,1,méprisé
1945,1,mériter
1946,1,méritez
1947,1,méritée
1948,1,mûr
1949,1,nanti
1950,1,nasardes
1951,1,naufrage
1952,1,naître
1953,1,neveu
1954,1,niche
1955,1,noblement
1956,1,noce
1957,1,noces
1958,1,noeud
1959,1,nombre
1960,1,noms
1961,1,nonchalance
1962,1,nonobstant
1963,1,nourrie
1964,1,nouvel
1965,1,nouvelles
1966,1,nuire
1967,1,nulle
1968,1,nullement
1969,1,nécessiteux
1970,1,négligé
1971,1,nôtres
1972,1,obligeant
1973,1,obligeante
1974,1,obliger
1975,1,obligerait
1976,1,obligerons
1977,1,obligé
1978,1,observez
1979,1,obtenir
1980,1,obtenue
1981,1,obéissance
1982,1,occasions
1983,1,occis
1984,1,odieux
1985,1,offensez
1986,1,offert
1987,1,offerte
1988,1,offrait
1989,1,onde
1990,1,opèrent
1991,1,orage
1992,1,ordonnée
1993,1,oreilles
1994,1,orgueilleux
1995,1,os
1996,1,oublié
1997,1,outrage
1998,1,outrageant
1999,1,outrageante
2000,1,outragé
2001,1,ouvre
2002,1,ouvrons
2003,1,ouïr
2004,1,paille
2005,1,paisiblement
2006,1,panneau
2007,1,panse
2008,1,papier
2009,1,papiers
2010,1,paquet
2011,1,parade
2012,1,paraissait
2013,1,paraissent
2014,1,parant
2015,1,paraîtra
2016,1,paraître
2017,1,pardonner
2018,1,pardonné
2019,1,pare
2020,1,pareil
2021,1,pareillement
2022,1,pareils
2023,1,parents
2024,1,parfaites
2025,1,parlait
2026,1,parole
2027,1,partager
2028,1,partie
2029,1,partis
2030,1,parut
2031,1,passant
2032,1,passera
2033,1,passerais
2034,1,passions
2035,1,patience
2036,1,patient
2037,1,payer
2038,1,payeras
2039,1,payé
2040,1,payés
2041,1,peau
2042,1,peinture
2043,1,pendu
2044,1,pensais
2045,1,penses
2046,1,percés
2047,1,perd
2048,1,perdrais
2049,1,perdrions
2050,1,permet
2051,1,permettent
2052,1,permettez
2053,1,persuade
2054,1,perte
2055,1,pesant
2056,1,pester
2057,1,peuple
2058,1,peuvent
2059,1,phaéton
2060,1,pieds
2061,1,pierre
2062,1,pimpants
2063,1,piquante
2064,1,piquants
2065,1,pire
2066,1,pissé
2067,1,pistoles
2068,1,pitoyable
2069,1,pièce
2070,1,pièces
2071,1,plaindrai
2072,1,plaindre
2073,1,plains
2074,1,plaint
2075,1,plainte
2076,1,plaira
2077,1,plaise
2078,1,pleurez
2079,1,pleuré
2080,1,plusieurs
2081,1,plâtre
2082,1,poilu
2083,1,points
2084,1,pointu
2085,1,polygamie
2086,1,pompeux
2087,1,portent
2088,1,pose
2089,1,possesseur
2090,1,possible
2091,1,possède
2092,1,pouls
2093,1,poumon
2094,1,pourraient
2095,1,pourrais
2096,1,pourrait
2097,1,pourront
2098,1,poursuis
2099,1,pourvue
2100,1,pousse
2101,1,poussé
2102,1,pouvait
2103,1,pouviez
2104,1,première
2105,1,premièrement
2106,1,prendras
2107,1,presse
2108,1,presser
2109,1,prestesse
2110,1,prier
2111,1,primauté
2112,1,prince
2113,1,principalement
2114,1,prises
2115,1,prière
2116,1,procédé
2117,1,prodiguement
2118,1,profit
2119,1,profitez
2120,1,promise
2121,1,prompt
2122,1,proposant
2123,1,propres
2124,1,protestent
2125,1,proverbes
2126,1,provisions
2127,1,prudence
2128,1,prunelle
2129,1,précipité
2130,1,précipitée
2131,1,prédications
2132,1,préfère
2133,1,préfèrerais
2134,1,prépare
2135,1,préparer
2136,1,prés
2137,1,présage
2138,1,présence
2139,1,présente
2140,1,présentement
2141,1,présenter
2142,1,présenté
2143,1,prétendre
2144,1,prétendu
2145,1,prétexte
2146,1,prévôt
2147,1,prêtée
2148,1,publiant
2149,1,publié
2150,1,puissent
2151,1,puissé
2152,1,punaise
2153,1,punis
2154,1,punisse
2155,1,pèche
2156,1,pécheresse
2157,1,péché
2158,1,péchés
2159,1,périls
2160,1,périr
2161,1,pût
2162,1,qualités
2163,1,quantes
2164,1,quelles
2165,1,quels
2166,1,question
2167,1,questionner
2168,1,quinze
2169,1,quittais
2170,1,quitté
2171,1,rabattre
2172,1,raffiné
2173,1,raffinés
2174,1,raillais
2175,1,raillant
2176,1,raillerie
2177,1,raillez
2178,1,raisonnements
2179,1,raisonner
2180,1,rampants
2181,1,rapière
2182,1,rapporte
2183,1,rares
2184,1,rassis
2185,1,rats
2186,1,ravi
2187,1,ravie
2188,1,ravirai
2189,1,ravit
2190,1,rayer
2191,1,rebelle
2192,1,recachetons
2193,1,recevant
2194,1,recommencé
2195,1,reconnais
2196,1,recourir
2197,1,recueillir
2198,1,recules
2199,1,reculé
2200,1,redeviendrai
2201,1,redire
2202,1,redit
2203,1,redouble
2204,1,redoute
2205,1,redouter
2206,1,refroidie
2207,1,refus
2208,1,refusé
2209,1,regagné
2210,1,regardant
2211,1,regret
2212,1,reine
2213,1,reluire
2214,1,relâcher
2215,1,relâchera
2216,1,remener
2217,1,remettre
2218,1,remontrance
2219,1,rempli
2220,1,remue
2221,1,rencontrant
2222,1,rende
2223,1,rendez
2224,1,rendrait
2225,1,rendu
2226,1,renommée
2227,1,renonce
2228,1,renverserai
2229,1,repas
2230,1,repentez
2231,1,repos
2232,1,reprendre
2233,1,reprends
2234,1,reprochable
2235,1,requête
2236,1,respecter
2237,1,ressens
2238,1,ressentiment
2239,1,ressentiments
2240,1,retenez
2241,1,retenu
2242,1,retoucher
2243,1,retour
2244,1,retourne
2245,1,retourner
2246,1,retournez
2247,1,retranchant
2248,1,retrouver
2249,1,revanche
2250,1,revenais
2251,1,revenir
2252,1,reviendrai
2253,1,reviendrez
2254,1,revienne
2255,1,reçois
2256,1,rhétorique
2257,1,ri
2258,1,richement
2259,1,richesse
2260,1,rideaux
2261,1,rigueur
2262,1,rirais
2263,1,risque
2264,1,rit
2265,1,rivage
2266,1,rival
2267,1,robe
2268,1,rognon
2269,1,rogue
2270,1,roland
2271,1,rome
2272,1,rompra
2273,1,romprai
2274,1,rompt
2275,1,rondache
2276,1,rosse
2277,1,rouant
2278,1,roue
2279,1,rrône
2280,1,rudes
2281,1,ruinés
2282,1,rumine
2283,1,ruse
2284,1,rébellion
2285,1,récit
2286,1,récitais
2287,1,récitant
2288,1,réciter
2289,1,réclame
2290,1,réflexions
2291,1,régaler
2292,1,régalerai
2293,1,régnait
2294,1,régner
2295,1,réjouissez
2296,1,répondez
2297,1,réponds
2298,1,réponse
2299,1,réprimande
2300,1,réserve
2301,1,résout
2302,1,réussit
2303,1,réveille
2304,1,révolter
2305,1,rêve
2306,1,rôle
2307,1,sacrifice
2308,1,sain
2309,1,sainte
2310,1,saisis
2311,1,saisit
2312,1,saison
2313,1,salade
2314,1,saliver
2315,1,salut
2316,1,sanglant
2317,1,sanglote
2318,1,satan
2319,1,satire
2320,1,satisfactions
2321,1,satisfaire
2322,1,satisfait
2323,1,satisfasse
2324,1,satisfera
2325,1,sauter
2326,1,savait
2327,1,savent
2328,1,secours
2329,1,secrets
2330,1,secrète
2331,1,semblables
2332,1,semblant
2333,1,semés
2334,1,sensé
2335,1,sentez
2336,1,sentiment
2337,1,sentiments
2338,1,sentira
2339,1,serain
2340,1,serons
2341,1,serrure
2342,1,servante
2343,1,servez
2344,1,service
2345,1,sexagénaire
2346,1,sexe
2347,1,sien
2348,1,signe
2349,1,songe
2350,1,songer
2351,1,sors
2352,1,sortir
2353,1,sottise
2354,1,souci
2355,1,soucis
2356,1,souffert
2357,1,soufferts
2358,1,souffleter
2359,1,souffleteur
2360,1,soufflets
2361,1,souffleté
2362,1,souffletée
2363,1,souffrirais
2364,1,souhaitez
2365,1,souhaité
2366,1,soumise
2367,1,soupir
2368,1,soupire
2369,1,soupirent
2370,1,soupirer
2371,1,soupirez
2372,1,soupirs
2373,1,soupçon
2374,1,soupçons
2375,1,souris
2376,1,soutenu
2377,1,soutiens
2378,1,souveraine
2379,1,soyons
2380,1,spadassin
2381,1,stance
2382,1,suborneur
2383,1,succès
2384,1,suffiront
2385,1,suit
2386,1,suite
2387,1,suivant
2388,1,suivez
2389,1,suivie
2390,1,suivre
2391,1,suivrez
2392,1,superbe
2393,1,supplanter
2394,1,supplie
2395,1,supplier
2396,1,suprême
2397,1,surpasse
2398,1,surprennent
2399,1,survient
2400,1,susciter
2401,1,suspendre
2402,1,sème
2403,1,sécheresse
2404,1,sénèque
2405,1,séparés
2406,1,sérieux
2407,1,sûre
2408,1,sûrement
2409,1,tairas
2410,1,taise
2411,1,taisez
2412,1,temple
2413,1,tendre
2414,1,tenez
2415,1,tenter
2416,1,tenté
2417,1,termes
2418,1,terre
2419,1,tiendrai
2420,1,tiendrait
2421,1,tiers
2422,1,tigresse
2423,1,tirerons
2424,1,tomber
2425,1,tombé
2426,1,tourment
2427,1,tourmentant
2428,1,tournera
2429,1,tourné
2430,1,tousserait
2431,1,tragédie
2432,1,trahisons
2433,1,trahit
2434,1,traitable
2435,1,traitant
2436,1,traitez
2437,1,traits
2438,1,traitée
2439,1,transi
2440,1,travaillant
2441,1,travaillez
2442,1,travers
2443,1,tremble
2444,1,tressailli
2445,1,tromper
2446,1,tromperait
2447,1,trompette
2448,1,trompez
2449,1,trouvai
2450,1,trouvait
2451,1,trouvera
2452,1,trouverais
2453,1,trouvez
2454,1,trépas
2455,1,trépassés
2456,1,trésors
2457,1,tuer
2458,1,tuez
2459,1,tâcher
2460,1,tâchez
2461,1,tâchons
2462,1,témoigne
2463,1,témoigner
2464,1,témoins
2465,1,témérairement
2466,1,tôt
2467,1,unes
2468,1,user
2469,1,userai
2470,1,usez
2471,1,usé
2472,1,vaillamment
2473,1,vaille
2474,1,vain
2475,1,vaine
2476,1,vainqueur
2477,1,valait
2478,1,valez
2479,1,valises
2480,1,valu
2481,1,vanter
2482,1,vaudrait
2483,1,vaurien
2484,1,vaut
2485,1,vaux
2486,1,vengerait
2487,1,vengerons
2488,1,vengé
2489,1,vent
2490,1,vents
2491,1,verrai
2492,1,verrais
2493,1,verras
2494,1,verriez
2495,1,verrons
2496,1,versée
2497,1,vert
2498,1,veuille
2499,1,veulent
2500,1,veuve
2501,1,vice
2502,1,victoire
2503,1,vide
2504,1,vider
2505,1,vieillards
2506,1,vieille
2507,1,vieilles
2508,1,vielle
2509,1,viendra
2510,1,viendrez
2511,1,vilain
2512,1,violente
2513,1,violer
2514,1,visages
2515,1,visais
2516,1,visible
2517,1,visiblement
2518,1,visite
2519,1,vit
2520,1,vivant
2521,1,vivante
2522,1,vive
2523,1,vivement
2524,1,vivons
2525,1,voilée
2526,1,voire
2527,1,volée
2528,1,voudra
2529,1,voudrai
2530,1,voudrait
2531,1,voudras
2532,1,voudriez
2533,1,voue
2534,1,voyage
2535,1,voyais
2536,1,voûsit
2537,1,voûte
2538,1,vraisemblable
2539,1,vulgaires
2540,1,vus
2541,1,vécu
2542,1,vénale
2543,1,vénus
2544,1,vérifier
2545,1,véritable
2546,1,véritables
2547,1,vétille
2548,1,vêtement
2549,1,vêtements
2550,1,vôtres
2551,1,zest
2552,1,âge
2553,1,ébloui
2554,1,échapper
2555,1,échappé
2556,1,éclaircir
2557,1,éclaircissez
2558,1,éclairer
2559,1,éclatants
2560,1,écouté
2561,1,écris
2562,1,écrit
2563,1,écrivis
2564,1,égal
2565,1,égayer
2566,1,égratigne
2567,1,élancements
2568,1,élever
2569,1,élevé
2570,1,émancipes
2571,1,épargnez
2572,1,épie
2573,1,épousant
2574,1,épouserez
2575,1,épousez
2576,1,épousons
2577,1,épousterais
2578,1,éprise
2579,1,éprouverais
2580,1,équipage
2581,1,équitable
2582,1,équivoqué
2583,1,étions
2584,1,étonnez
2585,1,étonnés
2586,1,étourdi
2587,1,étourdis
2588,1,étrangement
2589,1,étranges
2590,1,étreinte
2591,1,évente
2592,1,éventé
2593,1,évertue
2594,1,ôter
2595,1,ôté
