1,447,de
2,333,et
3,290,je
4,270,que
5,258,vous
6,215,un
7,214,le
8,212,la
9,205,à
10,203,d
11,199,l
12,173,mon
13,167,est
14,155,ce
15,147,les
16,138,en
17,137,pour
18,128,qu
19,125,des
20,123,dans
21,120,il
22,117,ma
23,109,j
24,97,mais
25,91,me
26,91,si
27,87,votre
28,85,mes
29,83,par
30,82,m
31,82,tout
32,80,plus
33,79,moi
34,78,son
35,76,cassandre
36,74,ne
37,73,qui
38,73,une
39,72,dieux
40,70,n
41,67,ces
42,67,elle
43,65,quel
44,64,fils
45,63,sa
46,61,a
47,57,trop
48,56,amour
49,55,on
50,55,seigneur
51,55,ses
52,55,vos
53,54,ah
54,54,sur
55,53,au
56,51,ai
57,51,tous
58,50,du
59,47,ont
60,44,yeux
61,42,père
62,41,c
63,41,reine
64,40,coeur
65,39,hymen
66,39,madame
67,39,même
68,37,gloire
69,36,agamemnon
70,36,enfin
71,36,roi
72,36,sang
73,35,avec
74,35,sans
75,34,aux
76,34,fait
77,34,mycènes
78,33,bien
79,33,oreste
80,33,vois
81,32,cette
82,32,s
83,32,tant
84,30,faut
85,30,où
86,29,cet
87,29,point
88,29,tu
89,29,voir
90,28,jour
91,27,egisthe
92,27,lui
93,27,pas
94,27,se
95,26,encor
96,26,funeste
97,26,haine
98,26,quand
99,26,t
100,26,époux
101,24,ciel
102,24,lieux
103,24,mère
104,24,nos
105,24,quoi
106,24,vainqueur
107,23,peut
108,23,quelle
109,23,sort
110,22,dont
111,21,mort
112,21,nous
113,20,flamme
114,20,ou
115,20,rien
116,20,ô
117,19,douleur
118,19,te
119,19,troie
120,18,contre
121,18,faire
122,18,fureur
123,18,grand
124,18,grecs
125,18,jamais
126,18,leur
127,18,suis
128,18,vient
129,17,cruel
130,17,dois
131,17,main
132,17,malheurs
133,17,oui
134,17,soins
135,17,veux
136,17,âme
137,16,courroux
138,16,destin
139,16,hélas
140,16,quels
141,16,ton
142,16,toujours
143,15,grèce
144,15,non
145,15,pleurs
146,15,sont
147,15,être
148,14,aime
149,14,dessein
150,14,dis
151,14,ils
152,14,indigne
153,14,maux
154,14,moins
155,14,rois
156,14,toute
157,14,troyens
158,14,trône
159,14,viens
160,13,crime
161,13,fatal
162,13,horreur
163,13,ici
164,13,joie
165,13,juste
166,13,pu
167,13,sens
168,13,temps
169,13,va
170,13,y
171,12,après
172,12,bras
173,12,devoir
174,12,dieu
175,12,espoir
176,12,leurs
177,12,retour
178,12,secours
179,12,tes
180,12,vu
181,11,heureux
182,11,ilion
183,11,illustre
184,11,jours
185,11,laisse
186,11,malheur
187,11,nom
188,11,odieux
189,11,puis
190,11,rang
191,11,veut
192,10,ainsi
193,10,allons
194,10,ardeur
195,10,aussi
196,10,autels
197,10,bords
198,10,bruit
199,10,clytemnestre
200,10,digne
201,10,dès
202,10,fais
203,10,feux
204,10,font
205,10,loin
206,10,là
207,10,malgré
208,10,perdre
209,10,quelque
210,10,secret
211,10,toi
212,10,vie
213,9,autre
214,9,avoir
215,9,cendre
216,9,cependant
217,9,cher
218,9,déplorable
219,9,empire
220,9,faiblesse
221,9,fers
222,9,fureurs
223,9,grands
224,9,malheureux
225,9,mieux
226,9,peu
227,9,pouvoir
228,9,prince
229,9,princesse
230,9,puisse
231,9,rendre
232,9,régner
233,9,seul
234,9,sparte
235,9,tendre
236,9,triste
237,9,trouble
238,9,vengeance
239,9,voix
240,8,allait
241,8,allez
242,8,amis
243,8,argos
244,8,avais
245,8,avez
246,8,cour
247,8,craignez
248,8,craindre
249,8,déjà
250,8,entends
251,8,fidèle
252,8,foi
253,8,glorieux
254,8,grâce
255,8,hé
256,8,jusqu
257,8,misère
258,8,ose
259,8,peuple
260,8,pleine
261,8,raisons
262,8,sais
263,8,sous
264,8,temple
265,8,transports
266,8,triomphe
267,8,vais
268,8,voeux
269,8,voulez
270,8,vue
271,8,épouse
272,8,épouser
273,8,êtes
274,7,absence
275,7,affreux
276,7,allais
277,7,autel
278,7,avenir
279,7,barbare
280,7,bientôt
281,7,cesse
282,7,comme
283,7,croire
284,7,disgrâce
285,7,dit
286,7,donner
287,7,entre
288,7,extrême
289,7,fatale
290,7,fois
291,7,honte
292,7,hyménée
293,7,ismène
294,7,jaloux
295,7,lieu
296,7,lâche
297,7,mille
298,7,moment
299,7,ordre
300,7,orgueil
301,7,peine
302,7,plutôt
303,7,pylade
304,7,sein
305,7,seule
306,7,su
307,7,ta
308,7,tandis
309,7,tombe
310,7,téméraire
311,7,voyez
312,7,zèle
313,7,états
314,6,aimer
315,6,ans
316,6,appas
317,6,arbas
318,6,cent
319,6,choix
320,6,colère
321,6,comble
322,6,coupable
323,6,crainte
324,6,discours
325,6,dix
326,6,doit
327,6,douleurs
328,6,ennemis
329,6,esclave
330,6,eurybate
331,6,eut
332,6,femme
333,6,fille
334,6,flots
335,6,inspire
336,6,mains
337,6,morts
338,6,mémoire
339,6,mépris
340,6,offre
341,6,palais
342,6,parents
343,6,parle
344,6,parler
345,6,perfide
346,6,pieds
347,6,presse
348,6,projets
349,6,seulement
350,6,soin
351,6,sujets
352,6,tombeaux
353,6,toutes
354,6,tristes
355,6,vaincre
356,6,vertu
357,6,victime
358,6,éclat
359,6,état
360,5,adore
361,5,aller
362,5,apprendre
363,5,art
364,5,asie
365,5,assez
366,5,assurer
367,5,aurais
368,5,captive
369,5,châtiment
370,5,croit
371,5,cruels
372,5,culte
373,5,cède
374,5,depuis
375,5,divorce
376,5,donc
377,5,donne
378,5,débris
379,5,désespoir
380,5,désordre
381,5,déteste
382,5,enfants
383,5,ennemi
384,5,entendre
385,5,entière
386,5,esprit
387,5,exil
388,5,expliquer
389,5,exploits
390,5,expose
391,5,faisait
392,5,famille
393,5,flattez
394,5,fuite
395,5,héros
396,5,ingrat
397,5,injuste
398,5,larmes
399,5,lois
400,5,malheureuse
401,5,maîtresse
402,5,miens
403,5,naufrage
404,5,nouvelle
405,5,parmi
406,5,partout
407,5,pers
408,5,plaisir
409,5,pourquoi
410,5,presqu
411,5,projet
412,5,prédire
413,5,race
414,5,raison
415,5,regards
416,5,remords
417,5,rend
418,5,rends
419,5,repos
420,5,rigueur
421,5,tendresse
422,5,trahison
423,5,triompher
424,5,trouver
425,5,vains
426,5,venger
427,5,victoire
428,5,voilà
429,5,vrai
430,5,étais
431,4,accable
432,4,accablez
433,4,achevez
434,4,adieu
435,4,aimez
436,4,apollon
437,4,appareil
438,4,apprenez
439,4,ardent
440,4,arracher
441,4,arrêter
442,4,arrêtez
443,4,arrêté
444,4,attachée
445,4,attendre
446,4,auguste
447,4,aujourd
448,4,aveugle
449,4,aïeux
450,4,chère
451,4,coeurs
452,4,comment
453,4,connais
454,4,corps
455,4,courage
456,4,couronne
457,4,cours
458,4,crimes
459,4,croyez
460,4,cruelle
461,4,céleste
462,4,daignez
463,4,demander
464,4,devez
465,4,dirai
466,4,dire
467,4,départ
468,4,désirs
469,4,effort
470,4,efforts
471,4,encore
472,4,ennuis
473,4,envie
474,4,erreur
475,4,etat
476,4,etats
477,4,fallait
478,4,feu
479,4,filles
480,4,foule
481,4,fuir
482,4,guerre
483,4,haïr
484,4,horreurs
485,4,hui
486,4,immoler
487,4,journée
488,4,laissez
489,4,langage
490,4,loi
491,4,lâches
492,4,mal
493,4,maître
494,4,mettre
495,4,moitié
496,4,monarque
497,4,mortels
498,4,mânes
499,4,noir
500,4,noms
501,4,objets
502,4,ombre
503,4,parts
504,4,passe
505,4,passion
506,4,pitié
507,4,place
508,4,plaindre
509,4,plein
510,4,porter
511,4,pris
512,4,propres
513,4,présence
514,4,puissance
515,4,périls
516,4,quelques
517,4,quitte
518,4,reste
519,4,revient
520,4,rivage
521,4,rival
522,4,sacrés
523,4,sait
524,4,sensible
525,4,songez
526,4,souveraine
527,4,spectacle
528,4,suivre
529,4,suprême
530,4,terre
531,4,tombeau
532,4,tour
533,4,trahis
534,4,tête
535,4,vain
536,4,vaine
537,4,veulent
538,4,victorieux
539,4,vit
540,4,voit
541,4,voulait
542,4,âge
543,4,éloigner
544,3,abord
545,3,achille
546,3,adresse
547,3,affreuse
548,3,aille
549,3,amant
550,3,amante
551,3,amas
552,3,amitié
553,3,annoncer
554,3,approche
555,3,armes
556,3,arrêt
557,3,as
558,3,ascendant
559,3,atrée
560,3,attache
561,3,attentat
562,3,auprès
563,3,autrefois
564,3,autres
565,3,avant
566,3,beau
567,3,beauté
568,3,belle
569,3,bonheur
570,3,bonté
571,3,briséis
572,3,causer
573,3,certaine
574,3,changement
575,3,chargé
576,3,charmé
577,3,chercher
578,3,combien
579,3,combler
580,3,confondre
581,3,confus
582,3,coups
583,3,couronner
584,3,court
585,3,cris
586,3,croie
587,3,crois
588,3,croyant
589,3,cru
590,3,daigne
591,3,demain
592,3,dernier
593,3,destinée
594,3,donnez
595,3,doride
596,3,doux
597,3,dépit
598,3,détruire
599,3,effroyable
600,3,enlever
601,3,entendu
602,3,espérance
603,3,eux
604,3,excès
605,3,exemple
606,3,expirer
607,3,faites
608,3,faits
609,3,faudra
610,3,faveur
611,3,favorable
612,3,ferait
613,3,ferez
614,3,finir
615,3,fit
616,3,front
617,3,furieux
618,3,fut
619,3,fuyant
620,3,fuyons
621,3,grandeur
622,3,grâces
623,3,gémir
624,3,haïssez
625,3,honteux
626,3,horrible
627,3,horribles
628,3,importe
629,3,infidèle
630,3,infortuné
631,3,infortunée
632,3,ingrate
633,3,injurieux
634,3,ira
635,3,jeune
636,3,jusques
637,3,justes
638,3,long
639,3,meurs
640,3,mien
641,3,mienne
642,3,mortel
643,3,mortelle
644,3,mutins
645,3,mériter
646,3,naissance
647,3,nuit
648,3,nôtre
649,3,occasion
650,3,orage
651,3,osais
652,3,oses
653,3,outrage
654,3,ouvre
655,3,ouvrir
656,3,pareil
657,3,partant
658,3,parte
659,3,permettez
660,3,pleinement
661,3,poison
662,3,pompe
663,3,poussière
664,3,pouvez
665,3,prendre
666,3,presque
667,3,pressants
668,3,pressé
669,3,priam
670,3,prix
671,3,proie
672,3,propre
673,3,près
674,3,présente
675,3,prétends
676,3,prévois
677,3,prêt
678,3,puisqu
679,3,puisque
680,3,punir
681,3,pyrrhus
682,3,péril
683,3,périr
684,3,quelquefois
685,3,rebelle
686,3,relever
687,3,remord
688,3,remparts
689,3,remplir
690,3,renfermer
691,3,respect
692,3,ressentiment
693,3,revoir
694,3,rivale
695,3,rougir
696,3,règne
697,3,réduite
698,3,réparer
699,3,résistance
700,3,résolu
701,3,sacrifice
702,3,savez
703,3,scamandre
704,3,sceptre
705,3,semble
706,3,sentiments
707,3,sers
708,3,siens
709,3,soutenir
710,3,suivi
711,3,supplice
712,3,surprise
713,3,séjour
714,3,tremblant
715,3,tromper
716,3,troubles
717,3,trépas
718,3,unir
719,3,vaincu
720,3,vainqueurs
721,3,vaisseaux
722,3,vengé
723,3,vents
724,3,verra
725,3,verrai
726,3,verront
727,3,vers
728,3,verser
729,3,veuve
730,3,violence
731,3,vont
732,3,voulais
733,3,vouloir
734,3,voulu
735,3,voyant
736,3,éclater
737,3,épargne
738,3,épargner
739,3,était
740,3,éternels
741,2,abattu
742,2,accabler
743,2,accepte
744,2,admirais
745,2,adorable
746,2,affectant
747,2,affront
748,2,agit
749,2,agité
750,2,aimable
751,2,aimé
752,2,air
753,2,ait
754,2,allume
755,2,allégresse
756,2,ambitieux
757,2,ambition
758,2,appelle
759,2,apprends
760,2,appris
761,2,approuve
762,2,apprête
763,2,assemble
764,2,assemblés
765,2,assurance
766,2,athènes
767,2,atrides
768,2,atteinte
769,2,attend
770,2,attendais
771,2,attentats
772,2,attenté
773,2,attirer
774,2,aurait
775,2,autour
776,2,avait
777,2,aveu
778,2,aviez
779,2,ayant
780,2,bannissement
781,2,barbares
782,2,bas
783,2,beaucoup
784,2,besoin
785,2,bontés
786,2,bouche
787,2,braves
788,2,brûlant
789,2,brûle
790,2,butin
791,2,cacher
792,2,cachez
793,2,cachés
794,2,calme
795,2,calmez
796,2,carnage
797,2,causé
798,2,celui
799,2,certain
800,2,certains
801,2,cessez
802,2,champ
803,2,changé
804,2,charmer
805,2,charmes
806,2,chassez
807,2,chef
808,2,chemins
809,2,cherche
810,2,cheveux
811,2,choisir
812,2,cieux
813,2,commence
814,2,commencer
815,2,commencé
816,2,commune
817,2,complots
818,2,comprendre
819,2,concevoir
820,2,conduire
821,2,conduit
822,2,conjurés
823,2,connaître
824,2,conquête
825,2,conseil
826,2,conseils
827,2,constance
828,2,constante
829,2,contraindre
830,2,contraire
831,2,contraires
832,2,coup
833,2,crains
834,2,craint
835,2,criminel
836,2,cruelles
837,2,crète
838,2,curieux
839,2,côtés
840,2,daignant
841,2,demande
842,2,demandent
843,2,dernière
844,2,desseins
845,2,destinées
846,2,deux
847,2,devait
848,2,devient
849,2,dispose
850,2,divin
851,2,divine
852,2,donné
853,2,douceurs
854,2,douloureux
855,2,droits
856,2,durer
857,2,dédaigne
858,2,défendre
859,2,démenti
860,2,désespère
861,2,désolé
862,2,désormais
863,2,détourner
864,2,détruit
865,2,eaux
866,2,effrayé
867,2,embarrassée
868,2,embrasée
869,2,emporter
870,2,enfance
871,2,ennemie
872,2,ensemble
873,2,entier
874,2,entraînée
875,2,entreprendre
876,2,entré
877,2,envers
878,2,environné
879,2,envoyer
880,2,envoyée
881,2,espère
882,2,espérer
883,2,estime
884,2,eu
885,2,excusez
886,2,expier
887,2,faible
888,2,fameux
889,2,fasse
890,2,fer
891,2,ferai
892,2,fier
893,2,fiers
894,2,fierté
895,2,fière
896,2,flatter
897,2,flotte
898,2,fléchir
899,2,force
900,2,forfaits
901,2,fort
902,2,foudre
903,2,funestes
904,2,furie
905,2,fus
906,2,garanti
907,2,gardes
908,2,goûter
909,2,gré
910,2,guérir
911,2,généreux
912,2,hais
913,2,hait
914,2,haut
915,2,hector
916,2,hermione
917,2,honneur
918,2,honneurs
919,2,honorer
920,2,honteuse
921,2,honteusement
922,2,hélène
923,2,illustres
924,2,impatience
925,2,implorer
926,2,indigné
927,2,innocente
928,2,instant
929,2,instruire
930,2,invincible
931,2,iphigénie
932,2,irriter
933,2,jalouse
934,2,jette
935,2,jeté
936,2,jeunesse
937,2,joug
938,2,jusque
939,2,justice
940,2,laissons
941,2,liberté
942,2,libre
943,2,lorsque
944,2,massacrés
945,2,menace
946,2,mer
947,2,mettra
948,2,meurtre
949,2,mis
950,2,moindre
951,2,monde
952,2,monuments
953,2,mot
954,2,mourra
955,2,murs
956,2,mystère
957,2,ménélas
958,2,ni
959,2,nouveau
960,2,nécessaire
961,2,objet
962,2,obstacle
963,2,obtenir
964,2,offrez
965,2,offrir
966,2,ombres
967,2,onde
968,2,oracle
969,2,osez
970,2,oublier
971,2,oubliez
972,2,ouï
973,2,paraît
974,2,parricides
975,2,part
976,2,partage
977,2,parti
978,2,partit
979,2,pendant
980,2,percent
981,2,perd
982,2,perdant
983,2,perdu
984,2,permis
985,2,perte
986,2,pertes
987,2,peuples
988,2,plains
989,2,plaire
990,2,polyxène
991,2,pompeux
992,2,port
993,2,porté
994,2,pourriez
995,2,poursuivez
996,2,pouvait
997,2,premiers
998,2,première
999,2,prenant
1000,2,prend
1001,2,prends
1002,2,preste
1003,2,prisonnier
1004,2,privé
1005,2,prompt
1006,2,prudence
1007,2,prévenir
1008,2,pâris
1009,2,péri
1010,2,quitter
1011,2,quittons
1012,2,rappeler
1013,2,rapport
1014,2,ravi
1015,2,recevez
1016,2,recevoir
1017,2,redoutable
1018,2,refus
1019,2,refuse
1020,2,remettre
1021,2,rempli
1022,2,rendent
1023,2,rendu
1024,2,respecte
1025,2,respects
1026,2,restes
1027,2,retient
1028,2,revois
1029,2,rigoureux
1030,2,rompu
1031,2,régler
1032,2,régnez
1033,2,répandre
1034,2,sachez
1035,2,sacrifia
1036,2,sacrifices
1037,2,sanglants
1038,2,satisfaire
1039,2,saurai
1040,2,savant
1041,2,savoir
1042,2,seconde
1043,2,secrets
1044,2,secrètes
1045,2,seraient
1046,2,serez
1047,2,servir
1048,2,soeur
1049,2,soi
1050,2,soit
1051,2,sombre
1052,2,sommes
1053,2,songe
1054,2,sorti
1055,2,soudain
1056,2,soudaine
1057,2,souffrez
1058,2,souffrir
1059,2,souhaits
1060,2,souverains
1061,2,souviens
1062,2,succès
1063,2,suite
1064,2,suivez
1065,2,sujet
1066,2,surtout
1067,2,survivre
1068,2,tantôt
1069,2,tel
1070,2,temples
1071,2,tempête
1072,2,terreurs
1073,2,titre
1074,2,torrent
1075,2,toutefois
1076,2,tragiques
1077,2,trahir
1078,2,traîne
1079,2,traître
1080,2,triomphant
1081,2,tristesse
1082,2,trompeur
1083,2,trouve
1084,2,trônes
1085,2,témoins
1086,2,unisse
1087,2,univers
1088,2,uns
1089,2,valeur
1090,2,vaut
1091,2,venez
1092,2,vengée
1093,2,vengés
1094,2,verrez
1095,2,versé
1096,2,vertus
1097,2,victimes
1098,2,viennent
1099,2,vigilance
1100,2,vives
1101,2,voiles
1102,2,voler
1103,2,voudrais
1104,2,voulant
1105,2,échappé
1106,2,éclate
1107,2,écoute
1108,2,égorgés
1109,2,éloigné
1110,2,élève
1111,2,éperdue
1112,2,épousez
1113,2,étonnant
1114,2,étonné
1115,2,étouffer
1116,2,étouffez
1117,2,ôter
1118,1,abandonne
1119,1,abandonner
1120,1,abandonnée
1121,1,abattue
1122,1,abhorre
1123,1,aborder
1124,1,absent
1125,1,abusant
1126,1,abuses
1127,1,abusés
1128,1,abîmée
1129,1,accablement
1130,1,accablée
1131,1,accepter
1132,1,accord
1133,1,accordé
1134,1,accueil
1135,1,accuse
1136,1,accuser
1137,1,acquitter
1138,1,adieux
1139,1,admirait
1140,1,admire
1141,1,adoucir
1142,1,affaiblir
1143,1,affliger
1144,1,affligez
1145,1,affranchi
1146,1,affranchir
1147,1,affronts
1148,1,agitée
1149,1,agités
1150,1,aidait
1151,1,aigrir
1152,1,aimait
1153,1,aimant
1154,1,airs
1155,1,aisée
1156,1,aisément
1157,1,ajax
1158,1,alarmer
1159,1,alarmes
1160,1,allaient
1161,1,alluma
1162,1,allumer
1163,1,alors
1164,1,amants
1165,1,amener
1166,1,amertume
1167,1,ami
1168,1,amie
1169,1,amies
1170,1,amoureux
1171,1,amours
1172,1,animaux
1173,1,animée
1174,1,annonce
1175,1,annonçant
1176,1,années
1177,1,apaise
1178,1,apaiser
1179,1,apparence
1180,1,apparent
1181,1,apparente
1182,1,appartement
1183,1,applaudi
1184,1,applaudissais
1185,1,apporter
1186,1,apprenant
1187,1,apprennent
1188,1,apprit
1189,1,apprêtés
1190,1,appuyer
1191,1,arbitre
1192,1,arcadiens
1193,1,ardents
1194,1,ardeurs
1195,1,armer
1196,1,armeront
1197,1,arrache
1198,1,arrachée
1199,1,arrivant
1200,1,arrive
1201,1,arrivés
1202,1,arrogance
1203,1,arrête
1204,1,arrêts
1205,1,arrêtés
1206,1,artifice
1207,1,artifices
1208,1,assassin
1209,1,assassins
1210,1,assembla
1211,1,assembler
1212,1,asservi
1213,1,asservis
1214,1,asservit
1215,1,assidu
1216,1,assujettir
1217,1,assurais
1218,1,assurez
1219,1,astre
1220,1,astyanax
1221,1,attacher
1222,1,attaque
1223,1,attendant
1224,1,attentait
1225,1,atteste
1226,1,attire
1227,1,attraits
1228,1,audace
1229,1,augmente
1230,1,aulide
1231,1,aura
1232,1,auraient
1233,1,aurez
1234,1,auriez
1235,1,auront
1236,1,aussitôt
1237,1,auteur
1238,1,autoriser
1239,1,autrement
1240,1,avance
1241,1,avantageux
1242,1,averti
1243,1,avertir
1244,1,avidement
1245,1,avis
1246,1,avouez
1247,1,ayez
1248,1,balancer
1249,1,balancée
1250,1,bannir
1251,1,bannit
1252,1,beautés
1253,1,beaux
1254,1,bienfait
1255,1,bienfaits
1256,1,biens
1257,1,blancs
1258,1,bornent
1259,1,borner
1260,1,bouillons
1261,1,bourreau
1262,1,bourreaux
1263,1,braver
1264,1,briguait
1265,1,brigue
1266,1,brillant
1267,1,briller
1268,1,brise
1269,1,briser
1270,1,bruits
1271,1,brûlait
1272,1,brûlent
1273,1,brûlé
1274,1,bute
1275,1,bûcher
1276,1,cabale
1277,1,cachait
1278,1,cache
1279,1,cachée
1280,1,calchas
1281,1,calma
1282,1,camp
1283,1,campagnes
1284,1,caprices
1285,1,captifs
1286,1,car
1287,1,celer
1288,1,celles
1289,1,cessons
1290,1,ceux
1291,1,chacune
1292,1,chagrin
1293,1,chagrins
1294,1,champs
1295,1,chancelle
1296,1,change
1297,1,char
1298,1,chargée
1299,1,charmant
1300,1,charmants
1301,1,charme
1302,1,charmeront
1303,1,chaînes
1304,1,chefs
1305,1,chemin
1306,1,cherchait
1307,1,cherchant
1308,1,cherché
1309,1,choisissez
1310,1,chose
1311,1,châtiments
1312,1,chérit
1313,1,citoyens
1314,1,civile
1315,1,clartés
1316,1,clémence
1317,1,combats
1318,1,combattait
1319,1,combatte
1320,1,commun
1321,1,compagnons
1322,1,complaisance
1323,1,complice
1324,1,compris
1325,1,concorde
1326,1,condamnez
1327,1,condamné
1328,1,condamnée
1329,1,conduisis
1330,1,confiance
1331,1,confirmer
1332,1,confirmé
1333,1,confond
1334,1,confonde
1335,1,confondra
1336,1,confusion
1337,1,conjugal
1338,1,connue
1339,1,consacrer
1340,1,consacrée
1341,1,consent
1342,1,consentez
1343,1,consenti
1344,1,consentir
1345,1,conserve
1346,1,conserver
1347,1,conservé
1348,1,consoler
1349,1,consommer
1350,1,conspire
1351,1,consterné
1352,1,consulter
1353,1,contant
1354,1,content
1355,1,contents
1356,1,contraigne
1357,1,contrainte
1358,1,conçois
1359,1,conçus
1360,1,corinthe
1361,1,corrompt
1362,1,corèbe
1363,1,couleur
1364,1,courant
1365,1,courez
1366,1,couronné
1367,1,couronnée
1368,1,coutume
1369,1,couvrait
1370,1,couvre
1371,1,couvrir
1372,1,coûte
1373,1,coûtera
1374,1,craignant
1375,1,criminels
1376,1,croirai
1377,1,croirais
1378,1,croirez
1379,1,croyais
1380,1,croyiez
1381,1,croître
1382,1,crue
1383,1,crus
1384,1,crû
1385,1,cèle
1386,1,céder
1387,1,cédée
1388,1,célèbre
1389,1,célébrer
1390,1,davantage
1391,1,degrés
1392,1,dehors
1393,1,delà
1394,1,demandait
1395,1,demandant
1396,1,demeurons
1397,1,derniers
1398,1,descendre
1399,1,destins
1400,1,destiné
1401,1,destructeur
1402,1,devaient
1403,1,devais
1404,1,devant
1405,1,devenu
1406,1,devins
1407,1,devoirs
1408,1,devrais
1409,1,diadème
1410,1,différer
1411,1,différé
1412,1,dignement
1413,1,dignes
1414,1,diligence
1415,1,disant
1416,1,disgrâces
1417,1,dispensez
1418,1,dispersent
1419,1,dispersez
1420,1,disposer
1421,1,disposée
1422,1,dissipant
1423,1,dissipe
1424,1,distinguait
1425,1,distinguer
1426,1,divisée
1427,1,domine
1428,1,don
1429,1,donnant
1430,1,donnerais
1431,1,dot
1432,1,douce
1433,1,douceur
1434,1,doute
1435,1,douter
1436,1,doutez
1437,1,drapeaux
1438,1,droit
1439,1,dure
1440,1,dus
1441,1,dussent
1442,1,dussé
1443,1,déchirant
1444,1,déchirés
1445,1,déclin
1446,1,découvraient
1447,1,découvrir
1448,1,dédaigné
1449,1,défaut
1450,1,défier
1451,1,dégage
1452,1,dégager
1453,1,dégagé
1454,1,déguise
1455,1,délasser
1456,1,dépend
1457,1,dépende
1458,1,déploie
1459,1,déplorables
1460,1,déplorer
1461,1,dépouiller
1462,1,dépouilles
1463,1,dépouillé
1464,1,dérober
1465,1,dérobez
1466,1,dérobons
1467,1,désertes
1468,1,désespérer
1469,1,déshonoré
1470,1,désir
1471,1,désolées
1472,1,désolés
1473,1,détestables
1474,1,détestez
1475,1,détournez
1476,1,détours
1477,1,détruits
1478,1,dévore
1479,1,dû
1480,1,dût
1481,1,eace
1482,1,eau
1483,1,efface
1484,1,effrayant
1485,1,effroi
1486,1,egée
1487,1,embarras
1488,1,embarrasser
1489,1,embrassant
1490,1,embrasse
1491,1,embrasser
1492,1,embrasé
1493,1,empare
1494,1,empires
1495,1,emploi
1496,1,employais
1497,1,emportait
1498,1,emporte
1499,1,emportement
1500,1,emportements
1501,1,emportez
1502,1,emporté
1503,1,empressement
1504,1,empêchant
1505,1,empêcherai
1506,1,encens
1507,1,endroit
1508,1,endurci
1509,1,endurer
1510,1,enfermer
1511,1,enfers
1512,1,engage
1513,1,engager
1514,1,englouti
1515,1,engloutir
1516,1,enleva
1517,1,enlevée
1518,1,enlèvement
1519,1,ensanglanter
1520,1,ensanglanté
1521,1,enseigner
1522,1,entendait
1523,1,entiers
1524,1,entourée
1525,1,entrait
1526,1,entraînées
1527,1,entreprise
1528,1,entrer
1529,1,entretenir
1530,1,entretiens
1531,1,entrevois
1532,1,enveloppé
1533,1,envoie
1534,1,envoya
1535,1,envoyez
1536,1,epire
1537,1,epouse
1538,1,errant
1539,1,errants
1540,1,errez
1541,1,espérez
1542,1,essuyer
1543,1,europe
1544,1,eusse
1545,1,eussions
1546,1,examine
1547,1,excite
1548,1,excitent
1549,1,excusable
1550,1,exigeait
1551,1,experts
1552,1,expirais
1553,1,expire
1554,1,exposait
1555,1,exposer
1556,1,exprès
1557,1,exécrable
1558,1,exécuter
1559,1,exécutés
1560,1,eût
1561,1,eûtes
1562,1,face
1563,1,faiblesses
1564,1,faisaient
1565,1,faisais
1566,1,fallut
1567,1,fameuse
1568,1,fardeau
1569,1,fatales
1570,1,fatigués
1571,1,fausse
1572,1,fausses
1573,1,faux
1574,1,feindre
1575,1,feint
1576,1,ferme
1577,1,fermer
1578,1,festons
1579,1,fidèles
1580,1,fini
1581,1,finis
1582,1,finit
1583,1,flammes
1584,1,flattant
1585,1,flatteur
1586,1,flatté
1587,1,flétrir
1588,1,folles
1589,1,fonde
1590,1,fonder
1591,1,forcez
1592,1,forcèrent
1593,1,forcé
1594,1,forfait
1595,1,forment
1596,1,former
1597,1,fortes
1598,1,fortune
1599,1,fortuné
1600,1,forçait
1601,1,fournit
1602,1,frappant
1603,1,frappe
1604,1,frapper
1605,1,frappez
1606,1,frappé
1607,1,frissonne
1608,1,frivole
1609,1,fruit
1610,1,fruits
1611,1,frère
1612,1,frères
1613,1,frémissements
1614,1,fugitifs
1615,1,fuirez
1616,1,fuit
1617,1,fumant
1618,1,fumante
1619,1,fumants
1620,1,funèbres
1621,1,furent
1622,1,furies
1623,1,fuyait
1624,1,fuyez
1625,1,félicité
1626,1,fîmes
1627,1,gages
1628,1,gagner
1629,1,garantir
1630,1,garantis
1631,1,garantissez
1632,1,garde
1633,1,garder
1634,1,gardez
1635,1,gendre
1636,1,glace
1637,1,glissa
1638,1,gouffre
1639,1,goûte
1640,1,grande
1641,1,grandes
1642,1,gros
1643,1,guide
1644,1,gémi
1645,1,gêne
1646,1,haute
1647,1,haï
1648,1,haïssais
1649,1,haïssant
1650,1,herbes
1651,1,hercule
1652,1,heureusement
1653,1,heurte
1654,1,hommage
1655,1,hommes
1656,1,honora
1657,1,honorais
1658,1,honorant
1659,1,honorent
1660,1,hors
1661,1,humiliés
1662,1,hâter
1663,1,hérissés
1664,1,héritage
1665,1,héritier
1666,1,ignorez
1667,1,ii
1668,1,image
1669,1,imite
1670,1,immolées
1671,1,immortels
1672,1,impatient
1673,1,impie
1674,1,impitoyable
1675,1,impiété
1676,1,impiétés
1677,1,implacable
1678,1,important
1679,1,importun
1680,1,imposer
1681,1,imposteur
1682,1,imposture
1683,1,impuissante
1684,1,impérieuse
1685,1,impétueux
1686,1,incertain
1687,1,incestes
1688,1,incrédule
1689,1,indignes
1690,1,indiscret
1691,1,infidélité
1692,1,infortune
1693,1,ingratitude
1694,1,inhumain
1695,1,inhumaine
1696,1,inimitié
1697,1,innocence
1698,1,inondé
1699,1,inquiète
1700,1,inquiètes
1701,1,insensible
1702,1,insolent
1703,1,inspirait
1704,1,instinct
1705,1,instruite
1706,1,insulter
1707,1,interdit
1708,1,interprète
1709,1,intérêts
1710,1,inutile
1711,1,invisible
1712,1,invite
1713,1,irai
1714,1,irais
1715,1,irez
1716,1,irritait
1717,1,irritée
1718,1,ithaque
1719,1,jadis
1720,1,jeter
1721,1,jetèrent
1722,1,jouir
1723,1,jouis
1724,1,jouisse
1725,1,jouit
1726,1,juge
1727,1,jugeant
1728,1,jugez
1729,1,jupiter
1730,1,laisser
1731,1,laissé
1732,1,lancé
1733,1,langui
1734,1,languissante
1735,1,lassés
1736,1,laver
1737,1,leçons
1738,1,licence
1739,1,liens
1740,1,lis
1741,1,lisent
1742,1,livre
1743,1,livrer
1744,1,longues
1745,1,louer
1746,1,lumière
1747,1,lumières
1748,1,lâcheté
1749,1,maintenant
1750,1,maison
1751,1,mander
1752,1,manquait
1753,1,marchez
1754,1,marge
1755,1,marquer
1756,1,marqueront
1757,1,massacré
1758,1,matelots
1759,1,maternel
1760,1,menaces
1761,1,menacé
1762,1,met
1763,1,mettrai
1764,1,meure
1765,1,meurt
1766,1,meurtres
1767,1,milieu
1768,1,miracle
1769,1,misères
1770,1,misérable
1771,1,moments
1772,1,montagnes
1773,1,monter
1774,1,monts
1775,1,morte
1776,1,motif
1777,1,mourant
1778,1,mourante
1779,1,mouvements
1780,1,muette
1781,1,murmurant
1782,1,murmure
1783,1,murmurer
1784,1,murmurez
1785,1,mystères
1786,1,mâts
1787,1,mères
1788,1,mélange
1789,1,mémorable
1790,1,méprise
1791,1,méprisez
1792,1,mériterais
1793,1,mérité
1794,1,mêler
1795,1,naissent
1796,1,naîtront
1797,1,nierais
1798,1,noble
1799,1,nochers
1800,1,noeuds
1801,1,noire
1802,1,noires
1803,1,noirs
1804,1,nombre
1805,1,nommais
1806,1,nommait
1807,1,nommer
1808,1,nommé
1809,1,notre
1810,1,nourrir
1811,1,nouveaux
1812,1,nouvel
1813,1,nues
1814,1,nuits
1815,1,né
1816,1,nécessité
1817,1,o
1818,1,oblige
1819,1,obscure
1820,1,observer
1821,1,obstinée
1822,1,obtenait
1823,1,obtenez
1824,1,obéissez
1825,1,occupait
1826,1,occupe
1827,1,occupé
1828,1,oeil
1829,1,offensée
1830,1,offrais
1831,1,offrait
1832,1,opposaient
1833,1,opposer
1834,1,opposons
1835,1,oracles
1836,1,ordonne
1837,1,ordonnera
1838,1,ordonniez
1839,1,ordres
1840,1,ornements
1841,1,ornée
1842,1,osai
1843,1,osaient
1844,1,oser
1845,1,osera
1846,1,oserais
1847,1,oserait
1848,1,oublie
1849,1,outragée
1850,1,ouverts
1851,1,ouvriront
1852,1,paix
1853,1,pardonne
1854,1,pardonner
1855,1,parfait
1856,1,parlent
1857,1,parlez
1858,1,parricide
1859,1,partager
1860,1,partagé
1861,1,partez
1862,1,partir
1863,1,partons
1864,1,paru
1865,1,parés
1866,1,patrie
1867,1,payer
1868,1,peins
1869,1,pense
1870,1,penser
1871,1,penses
1872,1,pensée
1873,1,pensées
1874,1,percer
1875,1,percez
1876,1,percé
1877,1,perdit
1878,1,perfidie
1879,1,perfidies
1880,1,permettait
1881,1,persécuter
1882,1,persécuteur
1883,1,persécuté
1884,1,perçant
1885,1,peur
1886,1,peux
1887,1,phocide
1888,1,plaigne
1889,1,plaignis
1890,1,plaint
1891,1,plaisez
1892,1,pleurent
1893,1,pleurer
1894,1,pleuré
1895,1,plonger
1896,1,plonges
1897,1,poignard
1898,1,porte
1899,1,ports
1900,1,possesseur
1901,1,possède
1902,1,pourrai
1903,1,pourrait
1904,1,pourras
1905,1,pourrez
1906,1,pourrions
1907,1,pourront
1908,1,poursuivons
1909,1,pourtant
1910,1,pourvu
1911,1,pousser
1912,1,pousserai
1913,1,premier
1914,1,prennent
1915,1,pressai
1916,1,pressantes
1917,1,pressentir
1918,1,presser
1919,1,pressée
1920,1,princes
1921,1,prison
1922,1,prive
1923,1,priver
1924,1,profanes
1925,1,prompte
1926,1,prophéties
1927,1,propice
1928,1,propices
1929,1,prosterné
1930,1,protéger
1931,1,précaution
1932,1,précieux
1933,1,précipite
1934,1,prédictions
1935,1,prédis
1936,1,prédit
1937,1,prédits
1938,1,préférant
1939,1,préparer
1940,1,préparé
1941,1,prés
1942,1,présage
1943,1,présenter
1944,1,prétendez
1945,1,prétendraient
1946,1,prétendre
1947,1,prétextes
1948,1,prévenez
1949,1,prévenue
1950,1,prévis
1951,1,prévoir
1952,1,prévu
1953,1,prêtre
1954,1,prêtres
1955,1,prêtresse
1956,1,puissant
1957,1,puissantes
1958,1,puni
1959,1,punira
1960,1,punissez
1961,1,pur
1962,1,purge
1963,1,pâlir
1964,1,pères
1965,1,pélops
1966,1,pénétrant
1967,1,pût
1968,1,quant
1969,1,quelles
1970,1,quelqu
1971,1,quittâtes
1972,1,quitté
1973,1,racontant
1974,1,rage
1975,1,ramasser
1976,1,ramène
1977,1,rappelant
1978,1,rare
1979,1,ravages
1980,1,ravisse
1981,1,ravisseur
1982,1,rebut
1983,1,reconnais
1984,1,reconnaissance
1985,1,recouvre
1986,1,recouvrer
1987,1,recueillir
1988,1,redis
1989,1,redoublait
1990,1,redoublent
1991,1,regard
1992,1,regret
1993,1,regrets
1994,1,reines
1995,1,relevait
1996,1,remarquer
1997,1,remets
1998,1,remettez
1999,1,remplie
2000,1,rencontre
2001,1,rende
2002,1,rendez
2003,1,rendra
2004,1,rendue
2005,1,renommée
2006,1,renouveler
2007,1,renversée
2008,1,renvoyer
2009,1,renvoyé
2010,1,reposer
2011,1,reprendre
2012,1,repris
2013,1,reproche
2014,1,respectaient
2015,1,respectueuse
2016,1,respecté
2017,1,respirais
2018,1,respirer
2019,1,ressentiments
2020,1,ressentir
2021,1,retenait
2022,1,retenir
2023,1,retenu
2024,1,retienne
2025,1,retiens
2026,1,retira
2027,1,retire
2028,1,retombant
2029,1,retomber
2030,1,retournait
2031,1,revenir
2032,1,reviens
2033,1,reçoit
2034,1,richesse
2035,1,rigueurs
2036,1,rit
2037,1,rivages
2038,1,rive
2039,1,rochers
2040,1,rompent
2041,1,route
2042,1,récit
2043,1,récompense
2044,1,réduits
2045,1,régnais
2046,1,régné
2047,1,répandez
2048,1,répandu
2049,1,répare
2050,1,réponse
2051,1,réservé
2052,1,résiste
2053,1,résister
2054,1,résolue
2055,1,résolution
2056,1,résoudre
2057,1,résous
2058,1,rétablir
2059,1,rétablisse
2060,1,réunir
2061,1,révoquent
2062,1,révoquer
2063,1,révèle
2064,1,révérée
2065,1,rênes
2066,1,saccagés
2067,1,sachant
2068,1,sacrifiais
2069,1,sacré
2070,1,sacrées
2071,1,sage
2072,1,saint
2073,1,saisie
2074,1,sanglantes
2075,1,satisfaites
2076,1,saurait
2077,1,sauras
2078,1,sauver
2079,1,sauvé
2080,1,scrupule
2081,1,secondent
2082,1,seconder
2083,1,secrète
2084,1,secrètement
2085,1,semblait
2086,1,semé
2087,1,senti
2088,1,sentiment
2089,1,serai
2090,1,serait
2091,1,serions
2092,1,seront
2093,1,servent
2094,1,seuls
2095,1,sicionne
2096,1,signal
2097,1,signes
2098,1,silence
2099,1,simple
2100,1,soient
2101,1,soigneuse
2102,1,soleil
2103,1,solennel
2104,1,solide
2105,1,sombres
2106,1,sommets
2107,1,songeait
2108,1,sons
2109,1,sors
2110,1,sortir
2111,1,souffert
2112,1,soufferts
2113,1,souffre
2114,1,souillés
2115,1,soulevé
2116,1,soumettra
2117,1,soumise
2118,1,soupire
2119,1,soupirs
2120,1,soupçonnais
2121,1,soustraire
2122,1,soutenu
2123,1,soutient
2124,1,souvent
2125,1,souverain
2126,1,souvient
2127,1,soyez
2128,1,spectacles
2129,1,spectateur
2130,1,subitement
2131,1,succombe
2132,1,succombent
2133,1,succomber
2134,1,succombé
2135,1,suffit
2136,1,suit
2137,1,suivant
2138,1,suivons
2139,1,suivrai
2140,1,suivront
2141,1,superbe
2142,1,superbes
2143,1,superflus
2144,1,surcroît
2145,1,surprenante
2146,1,surprendre
2147,1,surpris
2148,1,suspendez
2149,1,séduit
2150,1,séparée
2151,1,séparés
2152,1,sévères
2153,1,sûretés
2154,1,sût
2155,1,taire
2156,1,tantale
2157,1,tard
2158,1,teint
2159,1,telle
2160,1,tenait
2161,1,tend
2162,1,tendres
2163,1,tendresses
2164,1,tenter
2165,1,tenté
2166,1,terreur
2167,1,terrible
2168,1,thyeste
2169,1,thésée
2170,1,tienne
2171,1,tiens
2172,1,tient
2173,1,timide
2174,1,timides
2175,1,tirer
2176,1,tiré
2177,1,tomber
2178,1,tonnez
2179,1,torrents
2180,1,toucher
2181,1,touché
2182,1,tourmenter
2183,1,tourments
2184,1,tourne
2185,1,trahisons
2186,1,trahissant
2187,1,traitent
2188,1,traiter
2189,1,traits
2190,1,tranché
2191,1,tranquillement
2192,1,travaillait
2193,1,travaux
2194,1,travers
2195,1,traversant
2196,1,traverser
2197,1,traînait
2198,1,traîner
2199,1,traîné
2200,1,tremble
2201,1,trembler
2202,1,tremblez
2203,1,tremper
2204,1,triomphante
2205,1,triomphants
2206,1,trompe
2207,1,trompeurs
2208,1,trophée
2209,1,troublant
2210,1,troubler
2211,1,troublerais
2212,1,troyen
2213,1,troyenne
2214,1,tus
2215,1,tyran
2216,1,tyranniser
2217,1,tâcher
2218,1,témoin
2219,1,téméraires
2220,1,témérité
2221,1,ténèbres
2222,1,unie
2223,1,unirait
2224,1,unis
2225,1,usurper
2226,1,vagues
2227,1,vaincrait
2228,1,vaincront
2229,1,vainement
2230,1,vaisseau
2231,1,valent
2232,1,vante
2233,1,vanter
2234,1,vas
2235,1,vases
2236,1,veille
2237,1,venait
2238,1,venge
2239,1,vengeur
2240,1,venir
2241,1,verrais
2242,1,verrait
2243,1,versa
2244,1,verse
2245,1,versent
2246,1,veuille
2247,1,vieillards
2248,1,ville
2249,1,villes
2250,1,vingt
2251,1,vins
2252,1,vint
2253,1,violents
2254,1,visage
2255,1,vivants
2256,1,vive
2257,1,voici
2258,1,voie
2259,1,voisins
2260,1,volais
2261,1,vole
2262,1,voudra
2263,1,voudraient
2264,1,voulaient
2265,1,voulut
2266,1,vouée
2267,1,voyais
2268,1,voyait
2269,1,vécu
2270,1,vîtes
2271,1,vôtre
2272,1,échappe
2273,1,échapper
2274,1,éclairci
2275,1,éclaircies
2276,1,éclaircir
2277,1,éclaircira
2278,1,éclatant
2279,1,éclats
2280,1,écoutais
2281,1,écoutant
2282,1,écoutez
2283,1,écrasé
2284,1,écrivis
2285,1,écueils
2286,1,égale
2287,1,également
2288,1,égisthe
2289,1,égorgeant
2290,1,égorgée
2291,1,élevait
2292,1,élever
2293,1,élevez
2294,1,élevé
2295,1,éloignais
2296,1,éloignant
2297,1,émues
2298,1,épargna
2299,1,épargné
2300,1,éplorée
2301,1,épousa
2302,1,épouserait
2303,1,épouseriez
2304,1,épouvante
2305,1,épouvanté
2306,1,établir
2307,1,étaler
2308,1,étant
2309,1,éteignez
2310,1,éteindrait
2311,1,éteint
2312,1,éteinte
2313,1,étendards
2314,1,étendre
2315,1,éternelle
2316,1,étiez
2317,1,étions
2318,1,étonnait
2319,1,étonnée
2320,1,étouffant
2321,1,évanouisse
2322,1,évidence
2323,1,évitais
2324,1,évite
2325,1,éviter
2326,1,événements
2327,1,êtreest
