#Word Types: 2861
#Word Tokens: 16387
#Search Hits: 0
1	486	de	
2	378	et	
3	310	je	
4	309	que	
5	285	est	
6	269	l	
7	258	le	
8	237	ce	
9	233	en	
10	226	la	
11	224	vous	
12	223	à	
13	222	un	
14	207	il	
15	182	d	
16	173	qui	
17	158	qu	
18	149	ne	
19	145	mon	
20	130	me	
21	121	si	
22	115	ma	
23	115	pour	
24	114	tu	
25	112	les	
26	110	nous	
27	104	m	
28	102	plus	
29	97	j	
30	93	bien	
31	93	une	
32	90	c	
33	90	dans	
34	90	n	
35	89	pas	
36	81	son	
37	80	des	
38	79	mais	
39	76	cette	
40	71	tout	
41	69	au	
42	68	ces	
43	68	on	
44	66	a	
45	66	par	
46	65	du	
47	65	fait	
48	63	point	
49	62	ai	
50	60	sa	
51	59	moi	
52	57	mes	
53	57	ton	
54	52	votre	
55	50	coeur	
56	50	s	
57	49	quoi	
58	48	te	
59	46	amour	
60	44	ha	
61	44	t	
62	42	ta	
63	42	âme	
64	41	elle	
65	40	avec	
66	40	lui	
67	40	se	
68	39	encore	
69	39	faut	
70	38	oui	
71	38	sans	
72	38	tes	
73	37	dont	
74	37	faire	
75	37	nos	
76	34	être	
77	33	ses	
78	32	enfin	
79	32	fille	
80	32	quelque	
81	32	rien	
82	32	suis	
83	31	honneur	
84	31	sont	
85	31	trop	
86	30	même	
87	30	non	
88	30	notre	
89	30	où	
90	29	donc	
91	29	vos	
92	29	yeux	
93	29	ô	
94	28	ciel	
95	28	mieux	
96	28	ou	
97	28	tous	
98	27	dieux	
99	27	peut	
100	27	toi	
101	26	ainsi	
102	26	quel	
103	25	ici	
104	25	là	
105	25	moins	
106	25	sort	
107	24	dieu	
108	23	cet	
109	23	ils	
110	23	pouvoir	
111	23	sur	
112	23	veux	
113	22	aussi	
114	22	hé	
115	22	leur	
116	22	peu	
117	21	après	
118	20	effet	
119	20	madame	
120	19	aux	
121	19	bonheur	
122	19	vertu	
123	18	autre	
124	18	belle	
125	18	jour	
126	18	nom	
127	18	ont	
128	18	quelle	
129	18	voilà	
130	17	deux	
131	17	discours	
132	17	doux	
133	17	grâce	
134	17	mal	
135	17	noble	
136	17	peine	
137	17	puis	
138	17	sous	
139	17	toute	
140	17	vais	
141	17	vie	
142	17	voir	
143	16	monsieur	
144	16	tant	
145	16	vois	
146	16	y	
147	15	avoir	
148	15	beau	
149	15	beauté	
150	15	bon	
151	15	comme	
152	15	déjà	
153	15	fais	
154	15	flamme	
155	15	jamais	
156	15	mort	
157	15	temps	
158	14	avez	
159	14	dit	
160	14	doit	
161	14	doute	
162	14	faveur	
163	14	gloire	
164	14	juste	
165	14	objet	
166	14	peux	
167	14	rare	
168	14	êtes	
169	13	beaux	
170	13	bonne	
171	13	cela	
172	13	dessein	
173	13	destin	
174	13	donne	
175	13	envie	
176	13	fut	
177	13	plaît	
178	13	sais	
179	13	semble	
180	13	sens	
181	13	seul	
182	13	va	
183	13	vient	
184	13	époux	
185	12	adresse	
186	12	hélas	
187	12	jusqu	
188	12	quelques	
189	12	rendre	
190	12	soit	
191	12	vers	
192	11	aime	
193	11	biens	
194	11	crois	
195	11	espoir	
196	11	font	
197	11	gens	
198	11	glorieux	
199	11	infâme	
200	11	leurs	
201	11	main	
202	11	offre	
203	11	poète	
204	11	toutes	
205	11	veut	
206	11	voeux	
207	11	voici	
208	11	vrai	
209	10	aimable	
210	10	argent	
211	10	autres	
212	10	dedans	
213	10	dessus	
214	10	dois	
215	10	entends	
216	10	fers	
217	10	fois	
218	10	fort	
219	10	heureux	
220	10	jeune	
221	10	joie	
222	10	mains	
223	10	puisque	
224	10	père	
225	10	rend	
226	10	sujet	
227	10	viens	
228	10	voix	
229	10	voyez	
230	10	égyptienne	
231	10	était	
232	9	approche	
233	9	as	
234	9	assez	
235	9	beaucoup	
236	9	cause	
237	9	charme	
238	9	entre	
239	9	faites	
240	9	favorable	
241	9	feu	
242	9	fortune	
243	9	honte	
244	9	loin	
245	9	lois	
246	9	lâche	
247	9	maux	
248	9	maîtresse	
249	9	mille	
250	9	nuit	
251	9	sein	
252	9	toujours	
253	9	égyptien	
254	8	amant	
255	8	appas	
256	8	aventure	
257	8	bras	
258	8	celui	
259	8	ceux	
260	8	constance	
261	8	crains	
262	8	crime	
263	8	démon	
264	8	esprit	
265	8	espère	
266	8	faveurs	
267	8	foi	
268	8	jours	
269	8	malheur	
270	8	or	
271	8	part	
272	8	personne	
273	8	prendre	
274	8	près	
275	8	précieuse	
276	8	rigueur	
277	8	servir	
278	8	seule	
279	8	soin	
280	8	trésor	
281	7	accident	
282	7	allons	
283	7	aspect	
284	7	auteur	
285	7	content	
286	7	contente	
287	7	donner	
288	7	façon	
289	7	femme	
290	7	force	
291	7	homme	
292	7	hymen	
293	7	laisse	
294	7	lieu	
295	7	longtemps	
296	7	métier	
297	7	naissance	
298	7	plaisir	
299	7	plaisirs	
300	7	pourquoi	
301	7	prépare	
302	7	présent	
303	7	puisqu	
304	7	qualité	
305	7	quand	
306	7	quelqu	
307	7	reste	
308	7	soins	
309	7	soleil	
310	7	sorte	
311	7	tiens	
312	7	traître	
313	7	voit	
314	7	étrange	
315	6	affaire	
316	6	amitié	
317	6	amène	
318	6	ans	
319	6	apprendre	
320	6	assurance	
321	6	aujourd	
322	6	ayant	
323	6	cependant	
324	6	chacun	
325	6	charmes	
326	6	chaste	
327	6	chaîne	
328	6	chose	
329	6	coeurs	
330	6	corps	
331	6	digne	
332	6	dis	
333	6	dites	
334	6	douceur	
335	6	désir	
336	6	désirs	
337	6	efforts	
338	6	entretien	
339	6	espérer	
340	6	estime	
341	6	exposer	
342	6	garde	
343	6	grand	
344	6	habit	
345	6	haut	
346	6	hui	
347	6	indigne	
348	6	injuste	
349	6	innocence	
350	6	jaloux	
351	6	laissez	
352	6	liberté	
353	6	malheureux	
354	6	moment	
355	6	mot	
356	6	pardon	
357	6	parle	
358	6	parler	
359	6	parmi	
360	6	pauvre	
361	6	pensée	
362	6	prends	
363	6	presse	
364	6	pris	
365	6	prêt	
366	6	puissance	
367	6	puissant	
368	6	raison	
369	6	rang	
370	6	rois	
371	6	sang	
372	6	savez	
373	6	seigneur	
374	6	seulement	
375	6	tente	
376	6	tour	
377	6	trais	
378	6	triste	
379	6	trois	
380	6	univers	
381	6	venir	
382	6	ville	
383	6	voleur	
384	5	affection	
385	5	ait	
386	5	allez	
387	5	apprends	
388	5	arrêter	
389	5	assuré	
390	5	assurée	
391	5	aveu	
392	5	besoin	
393	5	bontés	
394	5	car	
395	5	carcame	
396	5	certain	
397	5	cher	
398	5	choix	
399	5	collier	
400	5	comment	
401	5	connaissance	
402	5	connaître	
403	5	contre	
404	5	cours	
405	5	craignez	
406	5	dernier	
407	5	devant	
408	5	dire	
409	5	don	
410	5	donnez	
411	5	douleurs	
412	5	dès	
413	5	effets	
414	5	effort	
415	5	entendre	
416	5	entretenir	
417	5	es	
418	5	esprits	
419	5	eut	
420	5	eux	
421	5	fasse	
422	5	faux	
423	5	feinte	
424	5	fidèle	
425	5	front	
426	5	haute	
427	5	honteux	
428	5	illustre	
429	5	lieux	
430	5	maintenant	
431	5	ni	
432	5	nouveau	
433	5	occasion	
434	5	odieux	
435	5	oppose	
436	5	ordre	
437	5	papier	
438	5	peur	
439	5	plutôt	
440	5	pourvu	
441	5	premier	
442	5	propre	
443	5	préférer	
444	5	pu	
445	5	qualités	
446	5	quitte	
447	5	rage	
448	5	rares	
449	5	rayons	
450	5	rends	
451	5	respect	
452	5	saurait	
453	5	sera	
454	5	sois	
455	5	sommes	
456	5	souci	
457	5	source	
458	5	souvent	
459	5	séville	
460	5	tandis	
461	5	tolède	
462	5	tort	
463	5	trouve	
464	5	trésors	
465	5	vainqueur	
466	5	vite	
467	5	voulez	
468	5	âge	
469	5	éclat	
470	5	état	
471	4	adieu	
472	4	adorable	
473	4	afin	
474	4	air	
475	4	amants	
476	4	ami	
477	4	amoureux	
478	4	apprenez	
479	4	armes	
480	4	attends	
481	4	avis	
482	4	avons	
483	4	avouer	
484	4	ayez	
485	4	bande	
486	4	bas	
487	4	beautés	
488	4	bientôt	
489	4	bourse	
490	4	bruit	
491	4	cache	
492	4	cavalier	
493	4	celle	
494	4	certes	
495	4	changer	
496	4	charmant	
497	4	chastes	
498	4	chère	
499	4	condition	
500	4	connaît	
501	4	contenter	
502	4	contents	
503	4	courir	
504	4	croire	
505	4	croyez	
506	4	curiosité	
507	4	danger	
508	4	depuis	
509	4	destinée	
510	4	devais	
511	4	donné	
512	4	droit	
513	4	erreur	
514	4	faisons	
515	4	fantaisie	
516	4	ferai	
517	4	feux	
518	4	fils	
519	4	fit	
520	4	flammes	
521	4	fureur	
522	4	gré	
523	4	heure	
524	4	justice	
525	4	larcin	
526	4	larcins	
527	4	lu	
528	4	lumière	
529	4	malice	
530	4	maître	
531	4	merveille	
532	4	mets	
533	4	meurs	
534	4	mine	
535	4	misère	
536	4	moindre	
537	4	monde	
538	4	montre	
539	4	mourir	
540	4	moyen	
541	4	mérite	
542	4	nobles	
543	4	obliger	
544	4	office	
545	4	orage	
546	4	ose	
547	4	ouvrage	
548	4	pareille	
549	4	parfait	
550	4	partout	
551	4	penser	
552	4	perte	
553	4	plains	
554	4	plusieurs	
555	4	pourrais	
556	4	poursuivez	
557	4	prenez	
558	4	prie	
559	4	proche	
560	4	prompt	
561	4	précieux	
562	4	présence	
563	4	puisse	
564	4	ravi	
565	4	refus	
566	4	remède	
567	4	repos	
568	4	riche	
569	4	roi	
570	4	réduit	
571	4	réponds	
572	4	résoudre	
573	4	sache	
574	4	sait	
575	4	sauvez	
576	4	savoir	
577	4	seconde	
578	4	secrets	
579	4	semblables	
580	4	serai	
581	4	serait	
582	4	serez	
583	4	songe	
584	4	souffre	
585	4	souffrez	
586	4	soyez	
587	4	succède	
588	4	tante	
589	4	tantôt	
590	4	tenez	
591	4	terre	
592	4	tient	
593	4	traits	
594	4	trouver	
595	4	trône	
596	4	tue	
597	4	témoin	
598	4	témoins	
599	4	unique	
600	4	vain	
601	4	vaut	
602	4	vivre	
603	4	voyons	
604	4	vue	
605	4	âmes	
606	4	égale	
607	4	égyptiens	
608	3	abord	
609	3	adroit	
610	3	affliger	
611	3	agréable	
612	3	amours	
613	3	andrés	
614	3	anime	
615	3	années	
616	3	appartient	
617	3	apporte	
618	3	ardeur	
619	3	arrête	
620	3	arrêté	
621	3	attendre	
622	3	aura	
623	3	autant	
624	3	avait	
625	3	baiser	
626	3	ballet	
627	3	belles	
628	3	berger	
629	3	blessé	
630	3	bois	
631	3	bout	
632	3	bref	
633	3	brille	
634	3	butin	
635	3	camarade	
636	3	capitaine	
637	3	choses	
638	3	châtiment	
639	3	complice	
640	3	confesse	
641	3	confident	
642	3	confus	
643	3	conjecture	
644	3	connais	
645	3	connu	
646	3	consens	
647	3	consent	
648	3	contraire	
649	3	coup	
650	3	coups	
651	3	courroux	
652	3	craindre	
653	3	crainte	
654	3	criminel	
655	3	croix	
656	3	cède	
657	3	demande	
658	3	demeurez	
659	3	desseins	
660	3	destinées	
661	3	divin	
662	3	divine	
663	3	divines	
664	3	ducats	
665	3	découvrir	
666	3	défendre	
667	3	déguiser	
668	3	dût	
669	3	embrasse	
670	3	enfants	
671	3	engage	
672	3	ennuis	
673	3	ensemble	
674	3	entreprise	
675	3	espérance	
676	3	eu	
677	3	excès	
678	3	extrême	
679	3	faibles	
680	3	fantôme	
681	3	fin	
682	3	fleurs	
683	3	forcer	
684	3	fuyons	
685	3	gage	
686	3	garder	
687	3	grande	
688	3	grâces	
689	3	guerre	
690	3	généreux	
691	3	gêne	
692	3	heur	
693	3	heureuse	
694	3	hier	
695	3	homicide	
696	3	honnête	
697	3	humeur	
698	3	hyménée	
699	3	hâter	
700	3	hâtez	
701	3	idée	
702	3	importune	
703	3	incomparable	
704	3	ingrate	
705	3	innocent	
706	3	insigne	
707	3	intéresse	
708	3	intéressée	
709	3	jean	
710	3	joindre	
711	3	joint	
712	3	joug	
713	3	joyaux	
714	3	larrons	
715	3	licence	
716	3	lire	
717	3	lors	
718	3	madrid	
719	3	mercure	
720	3	meurt	
721	3	miracle	
722	3	mis	
723	3	moeurs	
724	3	moitié	
725	3	mortelle	
726	3	mots	
727	3	mystères	
728	3	mère	
729	3	mépris	
730	3	méprisée	
731	3	mérites	
732	3	mêmes	
733	3	nature	
734	3	noirs	
735	3	nomme	
736	3	nouvelle	
737	3	oblige	
738	3	obtenir	
739	3	ombre	
740	3	orgueil	
741	3	ouï	
742	3	pareil	
743	3	parents	
744	3	parlons	
745	3	parlé	
746	3	passe	
747	3	passer	
748	3	passé	
749	3	perdons	
750	3	perdu	
751	3	perfide	
752	3	permission	
753	3	pieds	
754	3	pitié	
755	3	plaie	
756	3	plein	
757	3	porte	
758	3	possède	
759	3	pourrait	
760	3	poésie	
761	3	prix	
762	3	profane	
763	3	projet	
764	3	promet	
765	3	promptement	
766	3	prétendre	
767	3	quiconque	
768	3	quitter	
769	3	quérir	
770	3	race	
771	3	raisons	
772	3	rapport	
773	3	ravie	
774	3	refuse	
775	3	rencontre	
776	3	rendez	
777	3	repose	
778	3	retour	
779	3	rigueurs	
780	3	rival	
781	3	rose	
782	3	rudes	
783	3	sachez	
784	3	sage	
785	3	secours	
786	3	sentiment	
787	3	service	
788	3	soient	
789	3	souffrir	
790	3	soupçon	
791	3	succombe	
792	3	suivez	
793	3	suivre	
794	3	surprendre	
795	3	surtout	
796	3	tentes	
797	3	tirer	
798	3	tomber	
799	3	trahison	
800	3	traiter	
801	3	tremble	
802	3	trouble	
803	3	troubler	
804	3	trêve	
805	3	tête	
806	3	usage	
807	3	vaine	
808	3	venez	
809	3	vengeance	
810	3	victime	
811	3	vint	
812	3	vis	
813	3	vivant	
814	3	vol	
815	3	voyant	
816	3	vu	
817	3	véritable	
818	3	zèle	
819	3	éclairci	
820	3	élever	
821	3	équipage	
822	3	étant	
823	2	abattue	
824	2	abusée	
825	2	accepter	
826	2	accorder	
827	2	accordez	
828	2	accueil	
829	2	accuser	
830	2	achever	
831	2	achève	
832	2	admirable	
833	2	adroitement	
834	2	affront	
835	2	affronts	
836	2	ailleurs	
837	2	aimer	
838	2	airain	
839	2	ajouter	
840	2	allais	
841	2	aller	
842	2	allègement	
843	2	amante	
844	2	ambitieux	
845	2	ambition	
846	2	amis	
847	2	andres	
848	2	apollon	
849	2	appris	
850	2	approchez	
851	2	arracher	
852	2	arrachez	
853	2	arrêt	
854	2	arrêtez	
855	2	art	
856	2	aspic	
857	2	assistance	
858	2	assurer	
859	2	assurez	
860	2	astre	
861	2	astres	
862	2	attache	
863	2	attire	
864	2	aucune	
865	2	augure	
866	2	auprès	
867	2	aurai	
868	2	auteurs	
869	2	autorité	
870	2	avaient	
871	2	avais	
872	2	avant	
873	2	avantage	
874	2	avantages	
875	2	avantageux	
876	2	aveuglée	
877	2	avouez	
878	2	bagage	
879	2	baise	
880	2	bannis	
881	2	bel	
882	2	blessures	
883	2	blâme	
884	2	bonnes	
885	2	bouche	
886	2	brave	
887	2	braver	
888	2	brillants	
889	2	cacher	
890	2	cachés	
891	2	caresses	
892	2	causer	
893	2	ceci	
894	2	cent	
895	2	champ	
896	2	change	
897	2	chante	
898	2	chaque	
899	2	charité	
900	2	charmer	
901	2	chassons	
902	2	chaînes	
903	2	cherche	
904	2	cherchons	
905	2	chiens	
906	2	choir	
907	2	cire	
908	2	cités	
909	2	combattu	
910	2	comble	
911	2	commandez	
912	2	commune	
913	2	complaisance	
914	2	conditions	
915	2	conduit	
916	2	conduite	
917	2	confondre	
918	2	conquête	
919	2	conseils	
920	2	consentir	
921	2	console	
922	2	consoler	
923	2	consolez	
924	2	consultez	
925	2	contentement	
926	2	contentements	
927	2	conter	
928	2	contient	
929	2	coule	
930	2	coulez	
931	2	courage	
932	2	courez	
933	2	court	
934	2	couvre	
935	2	couvrir	
936	2	croirais	
937	2	croyant	
938	2	cruel	
939	2	cruelle	
940	2	crus	
941	2	céleste	
942	2	dame	
943	2	dangereux	
944	2	danser	
945	2	davantage	
946	2	demain	
947	2	devers	
948	2	deviez	
949	2	diamant	
950	2	dignes	
951	2	dira	
952	2	disgrâce	
953	2	dispose	
954	2	divertir	
955	2	divertissement	
956	2	divinité	
957	2	divins	
958	2	donnant	
959	2	douleur	
960	2	doutez	
961	2	douze	
962	2	ducat	
963	2	déclare	
964	2	découvert	
965	2	découvre	
966	2	défend	
967	2	démons	
968	2	départ	
969	2	dépeint	
970	2	déplaisant	
971	2	déréglée	
972	2	désespoir	
973	2	désirable	
974	2	désirez	
975	2	empire	
976	2	emporte	
977	2	enchantement	
978	2	enchanter	
979	2	enfant	
980	2	enflamme	
981	2	engager	
982	2	ennemis	
983	2	ennui	
984	2	enquérir	
985	2	enragée	
986	2	entendu	
987	2	entretienne	
988	2	envoie	
989	2	esclave	
990	2	estimer	
991	2	eussions	
992	2	exacte	
993	2	examiner	
994	2	excite	
995	2	exterminer	
996	2	extraction	
997	2	extrémité	
998	2	faix	
999	2	fallait	
1000	2	fameux	
1001	2	fange	
1002	2	fard	
1003	2	faîte	
1004	2	feignons	
1005	2	fera	
1006	2	ferait	
1007	2	feront	
1008	2	fidélité	
1009	2	finir	
1010	2	flambeau	
1011	2	flatteur	
1012	2	forte	
1013	2	forçons	
1014	2	forêts	
1015	2	foudre	
1016	2	france	
1017	2	franchise	
1018	2	françois	
1019	2	froideur	
1020	2	frère	
1021	2	frénésie	
1022	2	furent	
1023	2	fâcheux	
1024	2	gagne	
1025	2	galanterie	
1026	2	gendre	
1027	2	gentilhomme	
1028	2	glorieuse	
1029	2	gouverneur	
1030	2	guéri	
1031	2	guérir	
1032	2	guérison	
1033	2	général	
1034	2	générosité	
1035	2	honorable	
1036	2	honore	
1037	2	honorer	
1038	2	honteuse	
1039	2	horreur	
1040	2	humains	
1041	2	humeurs	
1042	2	imiter	
1043	2	imposture	
1044	2	infamie	
1045	2	infidèle	
1046	2	infinie	
1047	2	infâmes	
1048	2	innocents	
1049	2	inspire	
1050	2	intelligence	
1051	2	intérêt	
1052	2	inutile	
1053	2	jalousie	
1054	2	joue	
1055	2	juge	
1056	2	jugé	
1057	2	jure	
1058	2	jusques	
1059	2	justement	
1060	2	justes	
1061	2	laisser	
1062	2	langueur	
1063	2	larmes	
1064	2	libre	
1065	2	librement	
1066	2	libéral	
1067	2	ligne	
1068	2	lisez	
1069	2	lit	
1070	2	loi	
1071	2	loisir	
1072	2	lorsque	
1073	2	lus	
1074	2	lâches	
1075	2	maisons	
1076	2	malgré	
1077	2	manquai	
1078	2	marche	
1079	2	marcher	
1080	2	marquent	
1081	2	marques	
1082	2	mauvais	
1083	2	mauvaise	
1084	2	meilleur	
1085	2	menace	
1086	2	merveilleux	
1087	2	met	
1088	2	mette	
1089	2	meurtre	
1090	2	mienne	
1091	2	miracles	
1092	2	modère	
1093	2	modérer	
1094	2	mois	
1095	2	moque	
1096	2	moqueur	
1097	2	mourrai	
1098	2	murmurer	
1099	2	mâtins	
1100	2	méconnaître	
1101	2	mémoire	
1102	2	méritent	
1103	2	naître	
1104	2	nier	
1105	2	noblesse	
1106	2	nommait	
1107	2	noms	
1108	2	nouveaux	
1109	2	nul	
1110	2	nullement	
1111	2	né	
1112	2	nécessaire	
1113	2	obligeant	
1114	2	obstinée	
1115	2	obéir	
1116	2	obéissance	
1117	2	oeil	
1118	2	offense	
1119	2	offenser	
1120	2	offensée	
1121	2	ombrage	
1122	2	ordinaire	
1123	2	osais	
1124	2	ouvre	
1125	2	paix	
1126	2	paraît	
1127	2	paraître	
1128	2	parlez	
1129	2	parti	
1130	2	passion	
1131	2	passons	
1132	2	peau	
1133	2	perdez	
1134	2	perdus	
1135	2	permet	
1136	2	petit	
1137	2	petits	
1138	2	peuvent	
1139	2	pistole	
1140	2	place	
1141	2	plaindre	
1142	2	plaire	
1143	2	pleurs	
1144	2	poche	
1145	2	porter	
1146	2	possesseur	
1147	2	possible	
1148	2	possédée	
1149	2	pourtant	
1150	2	pouvait	
1151	2	pouvons	
1152	2	prend	
1153	2	prison	
1154	2	prive	
1155	2	prié	
1156	2	procédé	
1157	2	produit	
1158	2	promis	
1159	2	propos	
1160	2	présenter	
1161	2	présents	
1162	2	pudique	
1163	2	puissants	
1164	2	puissent	
1165	2	puissiez	
1166	2	punir	
1167	2	périr	
1168	2	quatre	
1169	2	quels	
1170	2	quitté	
1171	2	raillerie	
1172	2	ravir	
1173	2	ravissements	
1174	2	ravit	
1175	2	rayon	
1176	2	recevoir	
1177	2	recherche	
1178	2	reconnais	
1179	2	refuser	
1180	2	refusez	
1181	2	regard	
1182	2	reine	
1183	2	remis	
1184	2	rende	
1185	2	reprendre	
1186	2	reproche	
1187	2	retenue	
1188	2	retirer	
1189	2	retirez	
1190	2	retraite	
1191	2	reçois	
1192	2	reçu	
1193	2	reçus	
1194	2	riches	
1195	2	rigoureux	
1196	2	rime	
1197	2	rire	
1198	2	roc	
1199	2	rougir	
1200	2	route	
1201	2	rustique	
1202	2	règne	
1203	2	récit	
1204	2	réclame	
1205	2	réjouir	
1206	2	répondre	
1207	2	résistance	
1208	2	réussir	
1209	2	sainte	
1210	2	saison	
1211	2	satisfait	
1212	2	sauras	
1213	2	sauver	
1214	2	savent	
1215	2	second	
1216	2	secourable	
1217	2	secourir	
1218	2	secret	
1219	2	secrète	
1220	2	semblent	
1221	2	sentir	
1222	2	serais	
1223	2	seras	
1224	2	serions	
1225	2	seront	
1226	2	sert	
1227	2	seuls	
1228	2	sitôt	
1229	2	soldat	
1230	2	sombre	
1231	2	somme	
1232	2	sonnet	
1233	2	sortez	
1234	2	soufflet	
1235	2	souhaite	
1236	2	soulagement	
1237	2	soupire	
1238	2	souverain	
1239	2	souvient	
1240	2	style	
1241	2	su	
1242	2	suborneur	
1243	2	subtilité	
1244	2	suit	
1245	2	sujets	
1246	2	superflus	
1247	2	supplice	
1248	2	surpris	
1249	2	sut	
1250	2	séjour	
1251	2	sénéchal	
1252	2	sûreté	
1253	2	taire	
1254	2	tard	
1255	2	temple	
1256	2	tendre	
1257	2	titre	
1258	2	touchant	
1259	2	tourment	
1260	2	tourments	
1261	2	trafic	
1262	2	transports	
1263	2	travers	
1264	2	triompher	
1265	2	tristesse	
1266	2	troupe	
1267	2	trouvais	
1268	2	trouvé	
1269	2	trépas	
1270	2	témoignez	
1271	2	tôt	
1272	2	uns	
1273	2	use	
1274	2	vagabond	
1275	2	valeur	
1276	2	valise	
1277	2	veine	
1278	2	venger	
1279	2	vengé	
1280	2	venus	
1281	2	verrai	
1282	2	vertus	
1283	2	vice	
1284	2	vienne	
1285	2	visiter	
1286	2	vive	
1287	2	vivrais	
1288	2	voler	
1289	2	voleurs	
1290	2	volonté	
1291	2	vols	
1292	2	vont	
1293	2	voudras	
1294	2	voulant	
1295	2	vécu	
1296	2	vérité	
1297	2	vôtres	
1298	2	ça	
1299	2	éclate	
1300	2	écouter	
1301	2	écoutez	
1302	2	éloigne	
1303	2	épine	
1304	2	épines	
1305	2	épris	
1306	2	étais	
1307	2	étonne	
1308	2	étranges	
1309	2	éviter	
1310	1	abaisser	
1311	1	abandon	
1312	1	abat	
1313	1	abattrais	
1314	1	abattu	
1315	1	abattus	
1316	1	abhorre	
1317	1	abondance	
1318	1	aborder	
1319	1	aboyer	
1320	1	abri	
1321	1	absout	
1322	1	abstenir	
1323	1	abuse	
1324	1	abuser	
1325	1	accepte	
1326	1	accidents	
1327	1	accommodé	
1328	1	accomplir	
1329	1	accord	
1330	1	accordée	
1331	1	accours	
1332	1	accroître	
1333	1	accusant	
1334	1	accusation	
1335	1	accuse	
1336	1	achevez	
1337	1	achevé	
1338	1	acquis	
1339	1	action	
1340	1	actions	
1341	1	adore	
1342	1	adresses	
1343	1	advienne	
1344	1	affable	
1345	1	affecter	
1346	1	affine	
1347	1	affiner	
1348	1	affliction	
1349	1	affreuse	
1350	1	agit	
1351	1	agite	
1352	1	agitée	
1353	1	agréables	
1354	1	aider	
1355	1	aient	
1356	1	aille	
1357	1	aimables	
1358	1	aimes	
1359	1	aimez	
1360	1	aimé	
1361	1	aisée	
1362	1	ajoute	
1363	1	ajoutez	
1364	1	allonger	
1365	1	allume	
1366	1	allégeance	
1367	1	allégresse	
1368	1	alléguer	
1369	1	alors	
1370	1	ambroisie	
1371	1	amenasse	
1372	1	amorce	
1373	1	amoureuses	
1374	1	amères	
1375	1	ancien	
1376	1	ancienne	
1377	1	andrès	
1378	1	ange	
1379	1	animal	
1380	1	animer	
1381	1	animé	
1382	1	animés	
1383	1	annoncez	
1384	1	anoblir	
1385	1	apaisez	
1386	1	aperçois	
1387	1	aperçu	
1388	1	appareil	
1389	1	apparence	
1390	1	apparente	
1391	1	appartienne	
1392	1	appeler	
1393	1	appelle	
1394	1	applique	
1395	1	apporter	
1396	1	apprenant	
1397	1	apprendra	
1398	1	apprentissage	
1399	1	approuvent	
1400	1	approuver	
1401	1	appréhende	
1402	1	appréhendez	
1403	1	appâts	
1404	1	arbres	
1405	1	ardeurs	
1406	1	argus	
1407	1	armer	
1408	1	armée	
1409	1	arrachons	
1410	1	arrive	
1411	1	arriver	
1412	1	arrogant	
1413	1	arrose	
1414	1	arrêtée	
1415	1	artifices	
1416	1	asile	
1417	1	aspire	
1418	1	assassins	
1419	1	assemble	
1420	1	asservie	
1421	1	assis	
1422	1	assistez	
1423	1	assorti	
1424	1	assoupir	
1425	1	assouvie	
1426	1	assure	
1427	1	assurées	
1428	1	assurés	
1429	1	attacher	
1430	1	attaque	
1431	1	attaqué	
1432	1	atteindre	
1433	1	atteinte	
1434	1	atteintes	
1435	1	atteints	
1436	1	attendais	
1437	1	attendant	
1438	1	attente	
1439	1	attraits	
1440	1	audace	
1441	1	audience	
1442	1	augmente	
1443	1	augmenter	
1444	1	augmenté	
1445	1	auparavant	
1446	1	auraient	
1447	1	aurais	
1448	1	aurait	
1449	1	aurez	
1450	1	aurions	
1451	1	auspices	
1452	1	aussitôt	
1453	1	autel	
1454	1	autels	
1455	1	autrement	
1456	1	avantageuse	
1457	1	avenir	
1458	1	aventures	
1459	1	avertis	
1460	1	avertissement	
1461	1	aveugle	
1462	1	aveuglement	
1463	1	aviez	
1464	1	avisé	
1465	1	avorter	
1466	1	babillards	
1467	1	bague	
1468	1	bain	
1469	1	baisait	
1470	1	bandeau	
1471	1	bannie	
1472	1	bannies	
1473	1	basané	
1474	1	basse	
1475	1	bassesse	
1476	1	baume	
1477	1	berceau	
1478	1	bienfait	
1479	1	bienheureux	
1480	1	bienvenu	
1481	1	blessée	
1482	1	blâmer	
1483	1	bonace	
1484	1	bons	
1485	1	bonté	
1486	1	bornera	
1487	1	bourreaux	
1488	1	bracelets	
1489	1	bravant	
1490	1	braveras	
1491	1	braverez	
1492	1	bravons	
1493	1	bravé	
1494	1	brigade	
1495	1	brillant	
1496	1	brilles	
1497	1	briseras	
1498	1	bruns	
1499	1	brèche	
1500	1	brûle	
1501	1	brûler	
1502	1	but	
1503	1	béni	
1504	1	bénirai	
1505	1	bénirais	
1506	1	bénis	
1507	1	bénissez	
1508	1	cabinet	
1509	1	caché	
1510	1	cajole	
1511	1	cajolerie	
1512	1	calme	
1513	1	campagnes	
1514	1	capable	
1515	1	captif	
1516	1	carcan	
1517	1	caresser	
1518	1	caressée	
1519	1	carquois	
1520	1	carte	
1521	1	cas	
1522	1	cascade	
1523	1	causa	
1524	1	celez	
1525	1	celles	
1526	1	censeurs	
1527	1	cents	
1528	1	certaine	
1529	1	cesse	
1530	1	cessent	
1531	1	cesserais	
1532	1	champs	
1533	1	changement	
1534	1	changera	
1535	1	changez	
1536	1	changés	
1537	1	chantent	
1538	1	chapeau	
1539	1	charge	
1540	1	chargent	
1541	1	charger	
1542	1	chargé	
1543	1	charmante	
1544	1	charmeurs	
1545	1	charmée	
1546	1	chasse	
1547	1	chasser	
1548	1	chasserai	
1549	1	chassé	
1550	1	chasteté	
1551	1	chemise	
1552	1	chercher	
1553	1	chevalier	
1554	1	cheveux	
1555	1	choisir	
1556	1	choisissez	
1557	1	choque	
1558	1	châtain	
1559	1	chérie	
1560	1	chéris	
1561	1	chérit	
1562	1	ci	
1563	1	cieux	
1564	1	circonstance	
1565	1	civil	
1566	1	civilité	
1567	1	clair	
1568	1	clef	
1569	1	coffres	
1570	1	colère	
1571	1	combats	
1572	1	combattais	
1573	1	combattant	
1574	1	combattez	
1575	1	combien	
1576	1	comblant	
1577	1	comblez	
1578	1	commencent	
1579	1	commençaient	
1580	1	commenças	
1581	1	commodités	
1582	1	commun	
1583	1	communs	
1584	1	compagnes	
1585	1	compagnie	
1586	1	compagnon	
1587	1	compagnons	
1588	1	complices	
1589	1	comprendre	
1590	1	comprends	
1591	1	compris	
1592	1	concert	
1593	1	conclure	
1594	1	conclus	
1595	1	condamne	
1596	1	condamner	
1597	1	confesseras	
1598	1	confirme	
1599	1	conforme	
1600	1	confusion	
1601	1	confusément	
1602	1	conférence	
1603	1	connaissant	
1604	1	connaissent	
1605	1	connue	
1606	1	conquis	
1607	1	conscience	
1608	1	conseille	
1609	1	conseiller	
1610	1	conseillers	
1611	1	consentement	
1612	1	conserverai	
1613	1	considérable	
1614	1	considérez	
1615	1	considéré	
1616	1	consiste	
1617	1	consomme	
1618	1	constante	
1619	1	conte	
1620	1	contenterai	
1621	1	contentez	
1622	1	contester	
1623	1	contez	
1624	1	continue	
1625	1	contractons	
1626	1	contrains	
1627	1	contraires	
1628	1	coq	
1629	1	corail	
1630	1	corde	
1631	1	corrompent	
1632	1	corrompre	
1633	1	coteaux	
1634	1	couché	
1635	1	couler	
1636	1	coupe	
1637	1	couple	
1638	1	courageux	
1639	1	couronner	
1640	1	courons	
1641	1	courrier	
1642	1	course	
1643	1	courtoisie	
1644	1	coutumière	
1645	1	couvrent	
1646	1	coûte	
1647	1	coûter	
1648	1	craint	
1649	1	crayons	
1650	1	crever	
1651	1	croirait	
1652	1	croirez	
1653	1	croit	
1654	1	croître	
1655	1	cruelles	
1656	1	crûs	
1657	1	cueillir	
1658	1	cuir	
1659	1	curieux	
1660	1	cyprès	
1661	1	cèle	
1662	1	céder	
1663	1	cédez	
1664	1	cérémonies	
1665	1	césar	
1666	1	côté	
1667	1	da	
1668	1	daigne	
1669	1	daignez	
1670	1	dames	
1671	1	damnable	
1672	1	dansent	
1673	1	dansez	
1674	1	dehors	
1675	1	demandez	
1676	1	demandé	
1677	1	demeure	
1678	1	dents	
1679	1	derechef	
1680	1	descendre	
1681	1	descendu	
1682	1	destine	
1683	1	destiner	
1684	1	destins	
1685	1	destinés	
1686	1	deuil	
1687	1	devait	
1688	1	devenu	
1689	1	devez	
1690	1	deviendra	
1691	1	deviens	
1692	1	devient	
1693	1	devoir	
1694	1	devoirs	
1695	1	devrait	
1696	1	diable	
1697	1	diffame	
1698	1	difficile	
1699	1	difficulté	
1700	1	difficultés	
1701	1	différents	
1702	1	diligence	
1703	1	diligents	
1704	1	dirons	
1705	1	discoures	
1706	1	discourir	
1707	1	discrétion	
1708	1	disposer	
1709	1	disposez	
1710	1	disputerons	
1711	1	dissimulons	
1712	1	dissipent	
1713	1	dissipé	
1714	1	divers	
1715	1	doctes	
1716	1	doigt	
1717	1	doivent	
1718	1	dompte	
1719	1	donnaient	
1720	1	donnent	
1721	1	donneras	
1722	1	donnons	
1723	1	donnée	
1724	1	dons	
1725	1	dors	
1726	1	dorée	
1727	1	dorés	
1728	1	double	
1729	1	doublement	
1730	1	doublons	
1731	1	douce	
1732	1	doutais	
1733	1	douter	
1734	1	duit	
1735	1	duper	
1736	1	dur	
1737	1	dure	
1738	1	dures	
1739	1	durée	
1740	1	décevant	
1741	1	déclame	
1742	1	déclaré	
1743	1	dédire	
1744	1	défaut	
1745	1	défendent	
1746	1	défense	
1747	1	défier	
1748	1	dégager	
1749	1	déguise	
1750	1	déguisement	
1751	1	déguisé	
1752	1	déifie	
1753	1	délaissé	
1754	1	délicieuse	
1755	1	délicieux	
1756	1	délivre	
1757	1	délivrez	
1758	1	délivré	
1759	1	délogeons	
1760	1	déloger	
1761	1	démentir	
1762	1	dénouer	
1763	1	départis	
1764	1	dépend	
1765	1	dépit	
1766	1	déplaire	
1767	1	déplaisants	
1768	1	déplaît	
1769	1	dépliais	
1770	1	dépêcher	
1771	1	dépêchez	
1772	1	dépêchons	
1773	1	dérèglement	
1774	1	désastres	
1775	1	désiré	
1776	1	désirées	
1777	1	désormais	
1778	1	détestable	
1779	1	détourner	
1780	1	dévore	
1781	1	dûs	
1782	1	eau	
1783	1	effectue	
1784	1	efforcent	
1785	1	effronté	
1786	1	effrontée	
1787	1	egyptiene	
1788	1	embrassements	
1789	1	embrassez	
1790	1	emmeublement	
1791	1	emploi	
1792	1	employez	
1793	1	emporter	
1794	1	empreintes	
1795	1	emprunte	
1796	1	empêche	
1797	1	empêcher	
1798	1	empêches	
1799	1	empêchez	
1800	1	empêché	
1801	1	enchanta	
1802	1	enchanteur	
1803	1	enchaîna	
1804	1	enchaîner	
1805	1	enchaînés	
1806	1	enchâsser	
1807	1	enclos	
1808	1	encourus	
1809	1	endormie	
1810	1	endormir	
1811	1	endroit	
1812	1	endurai	
1813	1	endure	
1814	1	endurer	
1815	1	enferme	
1816	1	enfermée	
1817	1	enfers	
1818	1	enflammer	
1819	1	enflammés	
1820	1	engagea	
1821	1	engages	
1822	1	engagé	
1823	1	engagée	
1824	1	engeance	
1825	1	ennemi	
1826	1	ennemie	
1827	1	ennoblis	
1828	1	enragés	
1829	1	enrôlé	
1830	1	enseignera	
1831	1	entière	
1832	1	entra	
1833	1	entreprend	
1834	1	entreprendre	
1835	1	entretiendra	
1836	1	entrez	
1837	1	enveloppé	
1838	1	enverrez	
1839	1	envoyés	
1840	1	escamoter	
1841	1	esclavage	
1842	1	espèce	
1843	1	espérez	
1844	1	eus	
1845	1	eusse	
1846	1	exaltons	
1847	1	exciter	
1848	1	excitera	
1849	1	excusant	
1850	1	excusez	
1851	1	excédait	
1852	1	exempter	
1853	1	exempts	
1854	1	expose	
1855	1	exposes	
1856	1	exposés	
1857	1	exprès	
1858	1	exquis	
1859	1	extermine	
1860	1	extravagances	
1861	1	extrêmes	
1862	1	exécution	
1863	1	fables	
1864	1	facile	
1865	1	faisaient	
1866	1	faisait	
1867	1	faisant	
1868	1	faiseur	
1869	1	faits	
1870	1	famille	
1871	1	fatal	
1872	1	fatale	
1873	1	faute	
1874	1	favorablement	
1875	1	façons	
1876	1	feint	
1877	1	femmes	
1878	1	fer	
1879	1	ferais	
1880	1	fermant	
1881	1	fermer	
1882	1	fermes	
1883	1	ferons	
1884	1	fier	
1885	1	fiez	
1886	1	finance	
1887	1	finie	
1888	1	firent	
1889	1	fis	
1890	1	fière	
1891	1	fièvre	
1892	1	flambeaux	
1893	1	flandre	
1894	1	flatte	
1895	1	flattent	
1896	1	flatteuse	
1897	1	flatté	
1898	1	fleur	
1899	1	fléau	
1900	1	fléaux	
1901	1	folle	
1902	1	folâtre	
1903	1	fond	
1904	1	fontaines	
1905	1	forgent	
1906	1	forgeons	
1907	1	forment	
1908	1	formèrent	
1909	1	formé	
1910	1	fors	
1911	1	fortunés	
1912	1	foudroyer	
1913	1	foudroyés	
1914	1	fouet	
1915	1	fouiller	
1916	1	fouillerons	
1917	1	fouillé	
1918	1	foula	
1919	1	fourbe	
1920	1	fourberies	
1921	1	fourrier	
1922	1	franchement	
1923	1	fraude	
1924	1	froideurs	
1925	1	fruit	
1926	1	fruits	
1927	1	frémit	
1928	1	fuit	
1929	1	fuite	
1930	1	fumée	
1931	1	funeste	
1932	1	furieux	
1933	1	fus	
1934	1	future	
1935	1	futures	
1936	1	fâchez	
1937	1	félicité	
1938	1	félicités	
1939	1	gages	
1940	1	gaies	
1941	1	gain	
1942	1	galant	
1943	1	galères	
1944	1	gants	
1945	1	gardes	
1946	1	gardez	
1947	1	garçon	
1948	1	gazons	
1949	1	gentille	
1950	1	gestes	
1951	1	glace	
1952	1	glacent	
1953	1	goûtant	
1954	1	goûtent	
1955	1	grandeurs	
1956	1	grave	
1957	1	gravés	
1958	1	grondants	
1959	1	grêle	
1960	1	guide	
1961	1	guise	
1962	1	guéris	
1963	1	guérit	
1964	1	gènes	
1965	1	gémissante	
1966	1	gênes	
1967	1	gênée	
1968	1	haine	
1969	1	hais	
1970	1	hardi	
1971	1	hardiment	
1972	1	hardis	
1973	1	hasard	
1974	1	hasardes	
1975	1	hasardons	
1976	1	hasards	
1977	1	hipolite	
1978	1	histoire	
1979	1	ho	
1980	1	hommage	
1981	1	hommages	
1982	1	honnêtes	
1983	1	honorez	
1984	1	humiliés	
1985	1	hydre	
1986	1	hâtons	
1987	1	hérite	
1988	1	héros	
1989	1	idolâtre	
1990	1	ignorants	
1991	1	ignore	
1992	1	ignorez	
1993	1	illustres	
1994	1	image	
1995	1	images	
1996	1	imagine	
1997	1	imaginer	
1998	1	immoler	
1999	1	immolez	
2000	1	immortels	
2001	1	impatience	
2002	1	implacable	
2003	1	implora	
2004	1	implore	
2005	1	implorer	
2006	1	importance	
2007	1	important	
2008	1	importante	
2009	1	importe	
2010	1	importun	
2011	1	importuns	
2012	1	imposé	
2013	1	imprimer	
2014	1	impudence	
2015	1	impudicités	
2016	1	impuissants	
2017	1	impunité	
2018	1	impénétrable	
2019	1	impétueux	
2020	1	inclination	
2021	1	inconnu	
2022	1	inconnue	
2023	1	inconstante	
2024	1	incorruptible	
2025	1	inde	
2026	1	indifférence	
2027	1	indifférent	
2028	1	indignes	
2029	1	indiscret	
2030	1	indiscrets	
2031	1	industrie	
2032	1	inestimable	
2033	1	infidélité	
2034	1	infortune	
2035	1	ingrat	
2036	1	ingénieux	
2037	1	inhumain	
2038	1	inhumaine	
2039	1	injurie	
2040	1	injurieux	
2041	1	insignes	
2042	1	insolent	
2043	1	insolents	
2044	1	inspirent	
2045	1	inspirez	
2046	1	instant	
2047	1	instinct	
2048	1	instrument	
2049	1	interdit	
2050	1	interroger	
2051	1	intime	
2052	1	intérêts	
2053	1	inutiles	
2054	1	invisible	
2055	1	inégalité	
2056	1	irais	
2057	1	irrité	
2058	1	irritée	
2059	1	irréparable	
2060	1	jambes	
2061	1	jeu	
2062	1	jeunes	
2063	1	joigne	
2064	1	joignez	
2065	1	jointe	
2066	1	jouir	
2067	1	jouissons	
2068	1	journée	
2069	1	joyeux	
2070	1	jugement	
2071	1	juger	
2072	1	juges	
2073	1	jurât	
2074	1	laissons	
2075	1	laissé	
2076	1	lance	
2077	1	lancent	
2078	1	lancez	
2079	1	langage	
2080	1	langueurs	
2081	1	langui	
2082	1	languir	
2083	1	languissante	
2084	1	lançons	
2085	1	larron	
2086	1	las	
2087	1	laurier	
2088	1	lauriers	
2089	1	lever	
2090	1	leçons	
2091	1	libérale	
2092	1	libéralité	
2093	1	lice	
2094	1	ligue	
2095	1	limites	
2096	1	lira	
2097	1	lis	
2098	1	lise	
2099	1	lits	
2100	1	livrer	
2101	1	logeons	
2102	1	logis	
2103	1	longueur	
2104	1	lorsqu	
2105	1	louable	
2106	1	lustre	
2107	1	lys	
2108	1	lâchement	
2109	1	lâcherez	
2110	1	lâcheté	
2111	1	léger	
2112	1	magique	
2113	1	maison	
2114	1	malheureuse	
2115	1	malheurs	
2116	1	malle	
2117	1	manifestes	
2118	1	manquer	
2119	1	marbre	
2120	1	marché	
2121	1	marque	
2122	1	marri	
2123	1	mars	
2124	1	martel	
2125	1	martyre	
2126	1	maternel	
2127	1	matin	
2128	1	matois	
2129	1	maîtrise	
2130	1	meilleure	
2131	1	menacé	
2132	1	menais	
2133	1	menaçant	
2134	1	mener	
2135	1	mercenaire	
2136	1	messieurs	
2137	1	mettez	
2138	1	mettiez	
2139	1	mettons	
2140	1	meurtrier	
2141	1	mien	
2142	1	miens	
2143	1	milice	
2144	1	milieu	
2145	1	ministre	
2146	1	miroirs	
2147	1	misérables	
2148	1	mit	
2149	1	mobiles	
2150	1	modeste	
2151	1	modèle	
2152	1	moindres	
2153	1	moissons	
2154	1	monseigneur	
2155	1	monstre	
2156	1	montagnes	
2157	1	montrer	
2158	1	montrez	
2159	1	monts	
2160	1	moquer	
2161	1	moques	
2162	1	moquez	
2163	1	mores	
2164	1	morsures	
2165	1	mortel	
2166	1	motif	
2167	1	mouchoir	
2168	1	mourant	
2169	1	mouton	
2170	1	mouvement	
2171	1	moyens	
2172	1	muse	
2173	1	musique	
2174	1	musiques	
2175	1	mystère	
2176	1	mécontents	
2177	1	médité	
2178	1	ménageons	
2179	1	méprisant	
2180	1	mépriser	
2181	1	méritait	
2182	1	mérité	
2183	1	métal	
2184	1	métamorphoses	
2185	1	mêle	
2186	1	mêlons	
2187	1	mêlé	
2188	1	naissent	
2189	1	nations	
2190	1	naît	
2191	1	neige	
2192	1	neiges	
2193	1	nepante	
2194	1	neptune	
2195	1	nierai	
2196	1	nièce	
2197	1	noeud	
2198	1	noir	
2199	1	noirceur	
2200	1	noire	
2201	1	nourris	
2202	1	nourrit	
2203	1	nouvel	
2204	1	novice	
2205	1	nuage	
2206	1	nue	
2207	1	nuits	
2208	1	née	
2209	1	nôtre	
2210	1	obligeants	
2211	1	obligez	
2212	1	obligée	
2213	1	obscure	
2214	1	obscurités	
2215	1	observe	
2216	1	observer	
2217	1	obstacles	
2218	1	obtienne	
2219	1	obtient	
2220	1	obéirai	
2221	1	obéis	
2222	1	octroie	
2223	1	octroyer	
2224	1	ode	
2225	1	offensez	
2226	1	offrant	
2227	1	offrez	
2228	1	offrir	
2229	1	offrirais	
2230	1	ois	
2231	1	oisif	
2232	1	oisive	
2233	1	onguent	
2234	1	opposent	
2235	1	opprime	
2236	1	opprimer	
2237	1	opprobre	
2238	1	oracles	
2239	1	ordonne	
2240	1	ordonnez	
2241	1	orgueilleux	
2242	1	origine	
2243	1	oseras	
2244	1	outrage	
2245	1	outre	
2246	1	ouvrages	
2247	1	ouvrent	
2248	1	ouvrir	
2249	1	oyez	
2250	1	pacifiques	
2251	1	palais	
2252	1	parais	
2253	1	pardonne	
2254	1	pardonner	
2255	1	pardonneras	
2256	1	parent	
2257	1	parente	
2258	1	pares	
2259	1	paressent	
2260	1	parlerai	
2261	1	parles	
2262	1	parole	
2263	1	paroles	
2264	1	partagés	
2265	1	parte	
2266	1	partent	
2267	1	partira	
2268	1	partisan	
2269	1	parts	
2270	1	parée	
2271	1	passions	
2272	1	patience	
2273	1	pauvrement	
2274	1	pauvreté	
2275	1	pavillons	
2276	1	pavé	
2277	1	payer	
2278	1	payera	
2279	1	payez	
2280	1	pays	
2281	1	paysages	
2282	1	peint	
2283	1	pense	
2284	1	pensez	
2285	1	percent	
2286	1	perceront	
2287	1	perdis	
2288	1	perds	
2289	1	perdue	
2290	1	permettez	
2291	1	permise	
2292	1	personnage	
2293	1	persuade	
2294	1	persécute	
2295	1	philosophie	
2296	1	pierreries	
2297	1	pistoles	
2298	1	pièce	
2299	1	placé	
2300	1	placée	
2301	1	plaindrais	
2302	1	plaines	
2303	1	plainte	
2304	1	plaintes	
2305	1	plaisant	
2306	1	plaisants	
2307	1	plantons	
2308	1	planètes	
2309	1	plonge	
2310	1	plongea	
2311	1	pluie	
2312	1	plût	
2313	1	poissons	
2314	1	pompeux	
2315	1	port	
2316	1	portant	
2317	1	portent	
2318	1	porteras	
2319	1	portez	
2320	1	portrait	
2321	1	porté	
2322	1	portée	
2323	1	possession	
2324	1	posséder	
2325	1	possédons	
2326	1	posé	
2327	1	poudre	
2328	1	poule	
2329	1	poulet	
2330	1	pourra	
2331	1	pourrai	
2332	1	pourraient	
2333	1	pourriez	
2334	1	poursuis	
2335	1	poursuit	
2336	1	pourvoir	
2337	1	pourvoirai	
2338	1	pouvaient	
2339	1	pouvais	
2340	1	pouvez	
2341	1	prairie	
2342	1	pratique	
2343	1	première	
2344	1	prenant	
2345	1	prenions	
2346	1	prenne	
2347	1	prennent	
2348	1	prescrites	
2349	1	presque	
2350	1	pressant	
2351	1	pressants	
2352	1	preuve	
2353	1	preuves	
2354	1	prier	
2355	1	princesse	
2356	1	principalement	
2357	1	prise	
2358	1	prisons	
2359	1	privilège	
2360	1	privé	
2361	1	prière	
2362	1	prières	
2363	1	prochaine	
2364	1	procurez	
2365	1	procès	
2366	1	procédure	
2367	1	procédures	
2368	1	produite	
2369	1	profession	
2370	1	profite	
2371	1	profiter	
2372	1	promesse	
2373	1	promettez	
2374	1	promettons	
2375	1	promptitude	
2376	1	propose	
2377	1	prospère	
2378	1	prouvaient	
2379	1	prouve	
2380	1	prouver	
2381	1	prouves	
2382	1	prudence	
2383	1	préfère	
2384	1	préparez	
2385	1	préparés	
2386	1	présente	
2387	1	présentent	
2388	1	prétends	
2389	1	prétendu	
2390	1	prétexte	
2391	1	prévu	
2392	1	prévôt	
2393	1	prêté	
2394	1	publiez	
2395	1	pudeur	
2396	1	punie	
2397	1	punit	
2398	1	pure	
2399	1	purs	
2400	1	pylade	
2401	1	pénétrer	
2402	1	périls	
2403	1	périras	
2404	1	pétillants	
2405	1	pêchais	
2406	1	pût	
2407	1	quant	
2408	1	quantité	
2409	1	quelles	
2410	1	querelle	
2411	1	quereller	
2412	1	quinze	
2413	1	quittes	
2414	1	races	
2415	1	raconter	
2416	1	raffine	
2417	1	rafraîchissement	
2418	1	raillez	
2419	1	raisins	
2420	1	raisonnable	
2421	1	raisonnement	
2422	1	raisonner	
2423	1	rallume	
2424	1	ramener	
2425	1	rangent	
2426	1	rangez	
2427	1	rangé	
2428	1	rangés	
2429	1	rapine	
2430	1	rappelle	
2431	1	rapt	
2432	1	rarement	
2433	1	ravirent	
2434	1	ravis	
2435	1	ravissement	
2436	1	ravisseur	
2437	1	rebute	
2438	1	reconnaissance	
2439	1	reconnaissez	
2440	1	reconnaît	
2441	1	reconnaîtrai	
2442	1	reconnaître	
2443	1	reconnaîtrez	
2444	1	recouvre	
2445	1	recouvrer	
2446	1	recueillez	
2447	1	redevable	
2448	1	redonne	
2449	1	redouble	
2450	1	redoubler	
2451	1	redoublons	
2452	1	redoutable	
2453	1	referme	
2454	1	refusée	
2455	1	regardez	
2456	1	regret	
2457	1	rejetez	
2458	1	rejetée	
2459	1	relever	
2460	1	reliques	
2461	1	remarque	
2462	1	remerciements	
2463	1	remet	
2464	1	remets	
2465	1	remettons	
2466	1	remettront	
2467	1	remonter	
2468	1	remords	
2469	1	rempart	
2470	1	rempliront	
2471	1	renaissant	
2472	1	rendent	
2473	1	rendra	
2474	1	rendront	
2475	1	rendu	
2476	1	renom	
2477	1	renommé	
2478	1	renoncer	
2479	1	renouvelez	
2480	1	rentre	
2481	1	renversé	
2482	1	renvoie	
2483	1	repaissent	
2484	1	repas	
2485	1	repent	
2486	1	reprenez	
2487	1	reproches	
2488	1	respectueux	
2489	1	ressemblance	
2490	1	ressentiment	
2491	1	resserré	
2492	1	ressors	
2493	1	ressouvenir	
2494	1	restituer	
2495	1	restitutions	
2496	1	retenir	
2497	1	retiendrai	
2498	1	retirant	
2499	1	retourne	
2500	1	retrace	
2501	1	retracer	
2502	1	retranchent	
2503	1	retranchez	
2504	1	revenue	
2505	1	revienne	
2506	1	revient	
2507	1	revivre	
2508	1	revois	
2509	1	reçoit	
2510	1	richesse	
2511	1	rie	
2512	1	riez	
2513	1	rigoureuses	
2514	1	rimeur	
2515	1	rirez	
2516	1	ris	
2517	1	risée	
2518	1	rit	
2519	1	rivage	
2520	1	roche	
2521	1	rochers	
2522	1	rodait	
2523	1	rodons	
2524	1	rompent	
2525	1	rompre	
2526	1	romps	
2527	1	roses	
2528	1	rougeur	
2529	1	rougissant	
2530	1	roulée	
2531	1	routes	
2532	1	royal	
2533	1	ruse	
2534	1	ruses	
2535	1	rusé	
2536	1	rusée	
2537	1	réception	
2538	1	récompenser	
2539	1	récompensés	
2540	1	réduis	
2541	1	réduise	
2542	1	réflexion	
2543	1	régner	
2544	1	réjouissez	
2545	1	réparant	
2546	1	répond	
2547	1	répondez	
2548	1	républiques	
2549	1	répugne	
2550	1	résolu	
2551	1	résolus	
2552	1	réveille	
2553	1	réveillons	
2554	1	révérer	
2555	1	rêvez	
2556	1	sachant	
2557	1	sachons	
2558	1	sacrés	
2559	1	saintes	
2560	1	saisie	
2561	1	saisir	
2562	1	saisisse	
2563	1	saisons	
2564	1	salaire	
2565	1	salut	
2566	1	salutaire	
2567	1	sanglant	
2568	1	satisfaite	
2569	1	saura	
2570	1	saurai	
2571	1	saurais	
2572	1	sauront	
2573	1	sauve	
2574	1	savante	
2575	1	scélérat	
2576	1	secondant	
2577	1	seconder	
2578	1	secondé	
2579	1	secrètement	
2580	1	seigneurs	
2581	1	selon	
2582	1	sensibles	
2583	1	sent	
2584	1	sente	
2585	1	sentent	
2586	1	sentez	
2587	1	sentiments	
2588	1	sentit	
2589	1	serment	
2590	1	serrer	
2591	1	serrures	
2592	1	sers	
2593	1	servage	
2594	1	servez	
2595	1	servira	
2596	1	signala	
2597	1	signer	
2598	1	silence	
2599	1	simples	
2600	1	sinon	
2601	1	six	
2602	1	soeurs	
2603	1	soirée	
2604	1	soleils	
2605	1	solennel	
2606	1	solide	
2607	1	sollicite	
2608	1	sommeil	
2609	1	sommeille	
2610	1	sommeillez	
2611	1	songeant	
2612	1	songer	
2613	1	songez	
2614	1	sonner	
2615	1	sors	
2616	1	sortent	
2617	1	sortir	
2618	1	sot	
2619	1	soucis	
2620	1	soufferte	
2621	1	souffrance	
2622	1	souffrons	
2623	1	souhait	
2624	1	souhaits	
2625	1	souhaité	
2626	1	soulager	
2627	1	soumis	
2628	1	soupirer	
2629	1	soupçonne	
2630	1	soupçonneuse	
2631	1	soupçons	
2632	1	soutien	
2633	1	spectacle	
2634	1	stances	
2635	1	subir	
2636	1	subit	
2637	1	suborner	
2638	1	subtil	
2639	1	subtile	
2640	1	subtilise	
2641	1	subtilités	
2642	1	succomber	
2643	1	succombé	
2644	1	succès	
2645	1	suffisent	
2646	1	suffit	
2647	1	suite	
2648	1	suivant	
2649	1	suivis	
2650	1	suivons	
2651	1	superbe	
2652	1	superbes	
2653	1	supplices	
2654	1	supplier	
2655	1	suppléeront	
2656	1	suppose	
2657	1	suprême	
2658	1	surent	
2659	1	surpasses	
2660	1	surprise	
2661	1	sus	
2662	1	suspect	
2663	1	suspects	
2664	1	sèche	
2665	1	sème	
2666	1	séparons	
2667	1	séparé	
2668	1	sévère	
2669	1	sévères	
2670	1	sûrement	
2671	1	sûrs	
2672	1	tableaux	
2673	1	taille	
2674	1	tais	
2675	1	taise	
2676	1	taisons	
2677	1	tapisserie	
2678	1	tarderas	
2679	1	tas	
2680	1	teint	
2681	1	tel	
2682	1	tels	
2683	1	tenons	
2684	1	termes	
2685	1	terminer	
2686	1	ternit	
2687	1	tiennent	
2688	1	tige	
2689	1	tint	
2690	1	tire	
2691	1	tirons	
2692	1	tiré	
2693	1	tirés	
2694	1	toison	
2695	1	tombe	
2696	1	tombé	
2697	1	tonnerre	
2698	1	tonnerres	
2699	1	torrents	
2700	1	torture	
2701	1	tortures	
2702	1	toutefois	
2703	1	tracerai	
2704	1	trahi	
2705	1	trahis	
2706	1	trait	
2707	1	tranche	
2708	1	transport	
2709	1	transporter	
2710	1	travail	
2711	1	travaillons	
2712	1	travaux	
2713	1	traverse	
2714	1	traîne	
2715	1	traîtresse	
2716	1	trempait	
2717	1	triomphante	
2718	1	triomphants	
2719	1	triomphe	
2720	1	triompherai	
2721	1	triomphez	
2722	1	tristes	
2723	1	trompe	
2724	1	tromperie	
2725	1	trophée	
2726	1	troupeau	
2727	1	tuez	
2728	1	tyran	
2729	1	tyrannise	
2730	1	tâche	
2731	1	tâcher	
2732	1	tâtai	
2733	1	tâte	
2734	1	tâté	
2735	1	témoignages	
2736	1	témoigner	
2737	1	téméraire	
2738	1	témérité	
2739	1	unisse	
2740	1	utile	
2741	1	utiles	
2742	1	vaincrez	
2743	1	vaincu	
2744	1	vainement	
2745	1	vaines	
2746	1	vainqueurs	
2747	1	vains	
2748	1	vaisseau	
2749	1	valet	
2750	1	valoir	
2751	1	vanter	
2752	1	vapeurs	
2753	1	vaudrait	
2754	1	veille	
2755	1	venant	
2756	1	vends	
2757	1	vendu	
2758	1	vengeant	
2759	1	vengera	
2760	1	vengez	
2761	1	vengée	
2762	1	venin	
2763	1	vent	
2764	1	vents	
2765	1	venue	
2766	1	verras	
2767	1	verrez	
2768	1	veuille	
2769	1	vices	
2770	1	victoire	
2771	1	vieille	
2772	1	vieux	
2773	1	vigilance	
2774	1	vignes	
2775	1	vingts	
2776	1	violence	
2777	1	violente	
2778	1	virent	
2779	1	visage	
2780	1	visiblement	
2781	1	vision	
2782	1	visité	
2783	1	vit	
2784	1	vivante	
2785	1	vivants	
2786	1	vivez	
2787	1	vivras	
2788	1	voie	
2789	1	voila	
2790	1	voile	
2791	1	voisinage	
2792	1	volants	
2793	1	vole	
2794	1	volons	
2795	1	volontaire	
2796	1	volée	
2797	1	vomi	
2798	1	voulait	
2799	1	vouloir	
2800	1	voulons	
2801	1	voulurent	
2802	1	voulut	
2803	1	voyage	
2804	1	voyager	
2805	1	voyages	
2806	1	voyais	
2807	1	vraie	
2808	1	vraiment	
2809	1	vrais	
2810	1	vulgaires	
2811	1	vêtements	
2812	1	vôtre	
2813	1	zéphyrs	
2814	1	èa	
2815	1	éblouissent	
2816	1	éblouit	
2817	1	ébranle	
2818	1	ébranler	
2819	1	écarteront	
2820	1	échappe	
2821	1	échappé	
2822	1	éclaircir	
2823	1	éclaircissement	
2824	1	éclaircit	
2825	1	éclairent	
2826	1	éclairer	
2827	1	éclairs	
2828	1	éclairée	
2829	1	éclats	
2830	1	écriai	
2831	1	écrire	
2832	1	écrit	
2833	1	égaler	
2834	1	égalité	
2835	1	élargissement	
2836	1	éloigné	
2837	1	élèvent	
2838	1	émouvoir	
2839	1	épargnerai	
2840	1	épargnez	
2841	1	épouvantable	
2842	1	épreuve	
2843	1	éprouva	
2844	1	éprouve	
2845	1	éprouvent	
2846	1	éprouvons	
2847	1	équivoque	
2848	1	ériger	
2849	1	étaient	
2850	1	étangs	
2851	1	éteindre	
2852	1	étendre	
2853	1	éternelle	
2854	1	étonnement	
2855	1	étonner	
2856	1	étonneriez	
2857	1	étouffée	
2858	1	étude	
2859	1	été	
2860	1	éveillez	
2861	1	événement	
