1,533,de
2,456,l
3,427,et
4,385,le
5,382,vous
6,372,à
7,351,qu
8,345,il
9,345,que
10,306,en
11,277,un
12,272,je
13,270,la
14,251,pour
15,249,est
16,243,d
17,237,ce
18,178,me
19,173,m
20,170,si
21,159,qui
22,156,ne
23,155,j
24,147,ma
25,145,n
26,131,plus
27,129,les
28,124,mon
29,121,s
30,120,mais
31,119,on
32,114,a
33,114,par
34,112,sa
35,111,lui
36,109,son
37,102,moi
38,95,du
39,93,c
40,82,ai
41,82,votre
42,79,des
43,79,où
44,75,tout
45,73,dans
46,72,fait
47,71,seigneur
48,70,se
49,69,peut
50,68,trop
51,66,au
52,66,roi
53,65,coeur
54,62,dont
55,61,sans
56,61,une
57,60,contre
58,57,quoi
59,57,sur
60,52,point
61,51,vos
62,50,faut
63,48,bien
64,48,mes
65,48,voir
66,47,rien
67,47,être
68,46,pas
69,46,ses
70,45,foi
71,42,sang
72,41,crime
73,41,moins
74,41,nous
75,41,quand
76,40,tant
77,40,y
78,39,didas
79,38,elle
80,37,cette
81,37,démétrius
82,37,gloire
83,37,hymen
84,37,leur
85,36,fils
86,36,ils
87,35,voeux
88,34,enfin
89,33,aux
90,33,faire
91,33,non
92,33,persée
93,33,quelque
94,32,frère
95,32,seul
96,32,vois
97,31,âme
98,30,amour
99,30,tous
100,30,trône
101,29,avec
102,29,cet
103,29,madame
104,29,peu
105,29,éclat
106,28,mort
107,28,toujours
108,28,veut
109,27,orgueil
110,27,prince
111,27,père
112,26,ah
113,26,encor
114,26,espoir
115,26,haine
116,26,ont
117,25,ait
118,25,dieux
119,25,là
120,25,pu
121,24,ces
122,24,coupable
123,24,flamme
124,24,princesse
125,23,ardeur
126,23,comme
127,23,romains
128,23,régner
129,22,doit
130,22,jamais
131,22,malgré
132,22,vain
133,21,avoir
134,21,doux
135,21,tu
136,20,appui
137,20,ciel
138,20,craindre
139,20,grand
140,20,ou
141,20,rendre
142,20,rome
143,20,t
144,20,veux
145,20,yeux
146,19,courroux
147,19,croire
148,19,ose
149,19,punir
150,19,rage
151,18,lâche
152,18,prendre
153,18,sort
154,18,vu
155,17,indigne
156,17,mal
157,17,même
158,17,ordre
159,17,plainte
160,17,péril
161,17,refus
162,17,te
163,17,toi
164,17,vengeance
165,17,zèle
166,16,aimer
167,16,deux
168,16,droit
169,16,eût
170,16,fureur
171,16,sont
172,16,su
173,16,ta
174,16,temps
175,15,aime
176,15,après
177,15,autre
178,15,déjà
179,15,horreur
180,15,jaloux
181,15,jour
182,15,perte
183,15,quel
184,15,sais
185,15,suis
186,14,ambition
187,14,audace
188,14,avez
189,14,choix
190,14,force
191,14,ici
192,14,jusqu
193,14,nature
194,14,puis
195,14,puisque
196,14,secret
197,14,ton
198,14,état
199,13,droits
200,13,effet
201,13,faites
202,13,flatter
203,13,laisse
204,13,remords
205,13,soit
206,13,sénat
207,13,toute
208,13,trahir
209,13,va
210,12,assez
211,12,cherche
212,12,dois
213,12,donc
214,12,donner
215,12,douceur
216,12,eux
217,12,funeste
218,12,peine
219,12,peuple
220,12,quintius
221,12,raison
222,12,rend
223,12,secours
224,12,souffrir
225,12,vertu
226,12,vôtre
227,11,amant
228,11,avant
229,11,aveu
230,11,demain
231,11,desseins
232,11,dès
233,11,faiblesse
234,11,faux
235,11,honte
236,11,lieu
237,11,mieux
238,11,ni
239,11,ordres
240,11,respect
241,10,abord
242,10,affreux
243,10,ainsi
244,10,aujourd
245,10,aurait
246,10,beau
247,10,colère
248,10,dire
249,10,dur
250,10,forfait
251,10,hui
252,10,hélas
253,10,loin
254,10,main
255,10,maître
256,10,mien
257,10,mépris
258,10,nos
259,10,outrage
260,10,parricide
261,10,pouvoir
262,10,prêt
263,10,sens
264,10,serait
265,10,seule
266,10,thrace
267,10,voulez
268,10,voyez
269,9,aigrir
270,9,aimé
271,9,aura
272,9,avis
273,9,charme
274,9,connaître
275,9,coup
276,9,couronne
277,9,craint
278,9,crainte
279,9,dit
280,9,fierté
281,9,heureux
282,9,ingrat
283,9,juger
284,9,menace
285,9,montrer
286,9,noir
287,9,objet
288,9,offre
289,9,politique
290,9,pouvez
291,9,puisse
292,9,quelle
293,9,rang
294,9,tes
295,9,trahison
296,9,voit
297,8,agir
298,8,aigreur
299,8,arrêt
300,8,aspire
301,8,attentats
302,8,autorise
303,8,ceux
304,8,contraindre
305,8,crains
306,8,crimes
307,8,croyez
308,8,devoir
309,8,désespoir
310,8,entre
311,8,feu
312,8,fier
313,8,forfaits
314,8,fut
315,8,grands
316,8,hier
317,8,jusques
318,8,juste
319,8,laissez
320,8,longtemps
321,8,plaît
322,8,reste
323,8,saura
324,8,semble
325,8,sera
326,8,souffre
327,8,sûr
328,8,transports
329,8,vient
330,8,vrai
331,7,accepter
332,7,accuser
333,7,adresse
334,7,arrêter
335,7,assure
336,7,assurer
337,7,auprès
338,7,aussi
339,7,beaucoup
340,7,charmes
341,7,chez
342,7,combat
343,7,cru
344,7,demande
345,7,donne
346,7,empire
347,7,entendre
348,7,estime
349,7,explique
350,7,fatal
351,7,fit
352,7,forcer
353,7,fuir
354,7,haut
355,7,injuste
356,7,innocence
357,7,intelligence
358,7,jours
359,7,malheureux
360,7,noeuds
361,7,oser
362,7,oui
363,7,part
364,7,parti
365,7,partout
366,7,peur
367,7,plaire
368,7,prend
369,7,prix
370,7,prête
371,7,rois
372,7,rompre
373,7,servir
374,7,soins
375,7,soupirs
376,7,sous
377,7,triomphe
378,7,triste
379,7,venger
380,7,verra
381,7,vie
382,7,voici
383,6,abandonne
384,6,accord
385,6,affront
386,6,afin
387,6,appas
388,6,attend
389,6,aurais
390,6,avais
391,6,ayant
392,6,bras
393,6,braver
394,6,cherchez
395,6,croit
396,6,céder
397,6,devez
398,6,digne
399,6,doute
400,6,dû
401,6,effort
402,6,engage
403,6,ennemi
404,6,entreprendre
405,6,envoyés
406,6,esprit
407,6,espérer
408,6,fais
409,6,fasse
410,6,faveur
411,6,fille
412,6,gendre
413,6,grandeur
414,6,grâce
415,6,honneur
416,6,honteux
417,6,imposture
418,6,injure
419,6,insolent
420,6,intérêt
421,6,justice
422,6,mettre
423,6,murmure
424,6,mérité
425,6,naître
426,6,nouveau
427,6,nuit
428,6,parler
429,6,penser
430,6,perd
431,6,phénice
432,6,plaindre
433,6,plutôt
434,6,poison
435,6,projet
436,6,préfère
437,6,prévenir
438,6,puissance
439,6,redouter
440,6,reine
441,6,rends
442,6,rival
443,6,songez
444,6,soupçons
445,6,suite
446,6,traître
447,6,tête
448,6,vais
449,6,voie
450,6,vouloir
451,6,états
452,5,ailleurs
453,5,ambitieux
454,5,anime
455,5,antigonus
456,5,apprête
457,5,armes
458,5,arrogance
459,5,assuré
460,5,attentat
461,5,aurai
462,5,autant
463,5,autoriser
464,5,avait
465,5,avecque
466,5,blesse
467,5,bruit
468,5,calme
469,5,celui
470,5,dessein
471,5,diadème
472,5,donnant
473,5,douleur
474,5,désirs
475,5,ennemis
476,5,envie
477,5,eu
478,5,fausse
479,5,flatte
480,5,fois
481,5,forcé
482,5,foudre
483,5,fuite
484,5,fuyez
485,5,gagner
486,5,guerre
487,5,gêne
488,5,hommage
489,5,hyménée
490,5,inconstance
491,5,infidélité
492,5,injustice
493,5,innocent
494,5,intéresse
495,5,jalouse
496,5,jouir
497,5,juge
498,5,jugez
499,5,leurs
500,5,loi
501,5,malheur
502,5,moment
503,5,mérite
504,5,mériter
505,5,noble
506,5,nom
507,5,nuire
508,5,nécessaire
509,5,obstacle
510,5,obtenir
511,5,obéir
512,5,offert
513,5,paraître
514,5,permis
515,5,pitié
516,5,plein
517,5,porte
518,5,pourquoi
519,5,pourrais
520,5,pressant
521,5,presse
522,5,promis
523,5,puisqu
524,5,punit
525,5,pût
526,5,rapport
527,5,rebelle
528,5,regret
529,5,remplir
530,5,rigueur
531,5,rougir
532,5,résoudre
533,5,sait
534,5,savoir
535,5,sentiments
536,5,sert
537,5,souffrez
538,5,sujet
539,5,suspect
540,5,taire
541,5,tient
542,5,titre
543,5,traits
544,5,trouble
545,5,trouve
546,5,trouver
547,5,union
548,5,vaut
549,5,vers
550,5,viens
551,5,vivre
552,5,éclater
553,5,était
554,4,abandonner
555,4,achève
556,4,aller
557,4,alliance
558,4,apprendre
559,4,arracher
560,4,assurance
561,4,attendre
562,4,autres
563,4,avaient
564,4,avertir
565,4,aveugle
566,4,ayez
567,4,bas
568,4,bonheur
569,4,capable
570,4,caractère
571,4,celle
572,4,cependant
573,4,charmer
574,4,confondre
575,4,confus
576,4,conquête
577,4,consent
578,4,consentir
579,4,conspire
580,4,constance
581,4,courage
582,4,cours
583,4,crois
584,4,cède
585,4,daignez
586,4,dirai
587,4,disgrâce
588,4,douter
589,4,dédaigne
590,4,dédaigner
591,4,effets
592,4,effroi
593,4,emporte
594,4,ennui
595,4,envi
596,4,erreur
597,4,esclave
598,4,eusse
599,4,exemple
600,4,expliquer
601,4,exécuter
602,4,fers
603,4,fort
604,4,frémis
605,4,fût
606,4,guide
607,4,heur
608,4,illustre
609,4,imputer
610,4,injurieux
611,4,insolence
612,4,laisser
613,4,lieux
614,4,lorsque
615,4,légitime
616,4,malheurs
617,4,marque
618,4,mienne
619,4,monde
620,4,obéissance
621,4,odieux
622,4,offense
623,4,orage
624,4,ordonner
625,4,ouverte
626,4,ouïr
627,4,paix
628,4,perdre
629,4,porter
630,4,pourra
631,4,pousser
632,4,promettre
633,4,préférer
634,4,prétendre
635,4,quels
636,4,refuse
637,4,rejeter
638,4,reproche
639,4,revers
640,4,rude
641,4,sanglant
642,4,savez
643,4,secrets
644,4,sent
645,4,soumis
646,4,soupçon
647,4,soupçonne
648,4,succès
649,4,suffit
650,4,surprise
651,4,tandis
652,4,tel
653,4,tendresse
654,4,tenir
655,4,trahis
656,4,trembler
657,4,tristes
658,4,tâche
659,4,tôt
660,4,vaine
661,4,victime
662,4,violence
663,4,vit
664,4,voilà
665,4,vole
666,4,voudra
667,4,voudrais
668,4,voulu
669,4,éclate
670,4,écoute
671,4,écouter
672,4,élever
673,4,éloigner
674,4,épouse
675,4,étais
676,4,étouffer
677,3,abuse
678,3,accable
679,3,accuse
680,3,acheter
681,3,achever
682,3,achevez
683,3,acquiert
684,3,adieu
685,3,affranchir
686,3,aimais
687,3,air
688,3,alarmes
689,3,allons
690,3,amis
691,3,amorce
692,3,apparence
693,3,apprend
694,3,arme
695,3,arrêtez
696,3,asile
697,3,atteinte
698,3,aucun
699,3,auguste
700,3,avantage
701,3,aviez
702,3,aîné
703,3,balance
704,3,bonté
705,3,brigues
706,3,bruits
707,3,chacun
708,3,changement
709,3,clartés
710,3,combien
711,3,conduite
712,3,consens
713,3,consente
714,3,contraint
715,3,corrompre
716,3,cour
717,3,craignez
718,3,criminel
719,3,croirais
720,3,dessus
721,3,destin
722,3,devait
723,3,devient
724,3,discorde
725,3,disposer
726,3,disposez
727,3,dites
728,3,donnez
729,3,découvert
730,3,démentir
731,3,dépens
732,3,déplaire
733,3,emportements
734,3,entraîne
735,3,entreprise
736,3,espère
737,3,espérance
738,3,eut
739,3,expose
740,3,exprès
741,3,extrême
742,3,favorable
743,3,feindre
744,3,fer
745,3,ferme
746,3,festin
747,3,fidèle
748,3,fiers
749,3,font
750,3,forcée
751,3,former
752,3,fruit
753,3,frères
754,3,gage
755,3,gagné
756,3,glorieux
757,3,généreux
758,3,haïr
759,3,impatient
760,3,implacable
761,3,incapable
762,3,indifférence
763,3,instruit
764,3,intéressée
765,3,intérêts
766,3,irrite
767,3,jalousie
768,3,joie
769,3,joug
770,3,jure
771,3,lois
772,3,lâchement
773,3,macédoine
774,3,magnanime
775,3,maximes
776,3,maîtresse
777,3,menaces
778,3,mets
779,3,mille
780,3,moindre
781,3,monter
782,3,montré
783,3,mourir
784,3,moyens
785,3,naissance
786,3,notre
787,3,nourrir
788,3,nouvelle
789,3,onomaste
790,3,paraît
791,3,parce
792,3,pareils
793,3,parle
794,3,parlé
795,3,parole
796,3,partager
797,3,penchant
798,3,perdez
799,3,peuples
800,3,peuvent
801,3,place
802,3,plaisir
803,3,pousse
804,3,prends
805,3,prenez
806,3,presser
807,3,pris
808,3,projets
809,3,prompt
810,3,prompte
811,3,présence
812,3,présumer
813,3,prétend
814,3,prétexte
815,3,prêtre
816,3,puni
817,3,pur
818,3,pénétrer
819,3,périr
820,3,périsse
821,3,quelques
822,3,quitte
823,3,quitter
824,3,refusé
825,3,remède
826,3,renoncer
827,3,respecter
828,3,ressentiment
829,3,retire
830,3,retour
831,3,revoir
832,3,reçus
833,3,règle
834,3,règne
835,3,réduite
836,3,répondre
837,3,résolue
838,3,sacrifice
839,3,saurait
840,3,sceptre
841,3,scrupule
842,3,sensible
843,3,seuls
844,3,soi
845,3,songer
846,3,soudain
847,3,souhaits
848,3,soupir
849,3,soupire
850,3,suit
851,3,supplice
852,3,surprendre
853,3,tard
854,3,tempête
855,3,touche
856,3,trahi
857,3,traité
858,3,transport
859,3,trompe
860,3,trouvé
861,3,trépas
862,3,témoins
863,3,téméraire
864,3,unir
865,3,vaincre
866,3,venge
867,3,verrai
868,3,viennent
869,3,vif
870,3,violent
871,3,vive
872,3,voudrait
873,3,vue
874,3,âpre
875,3,épargner
876,3,étendre
877,3,été
878,3,éviter
879,3,ôter
880,2,abaisser
881,2,abandonné
882,2,absolue
883,2,abuser
884,2,abîme
885,2,accabler
886,2,accompagne
887,2,accordez
888,2,accusez
889,2,accusé
890,2,affectant
891,2,affermi
892,2,affreuse
893,2,aimable
894,2,aimant
895,2,aiment
896,2,aimez
897,2,aisément
898,2,allez
899,2,alors
900,2,amitié
901,2,animer
902,2,appelle
903,2,applaudir
904,2,apprenez
905,2,ardents
906,2,arrache
907,2,arrête
908,2,arrêté
909,2,art
910,2,aspirer
911,2,assouvir
912,2,attacher
913,2,attendant
914,2,attends
915,2,attente
916,2,attirer
917,2,audience
918,2,aussitôt
919,2,avance
920,2,avancée
921,2,averti
922,2,aveuglement
923,2,balancer
924,2,bannir
925,2,barbare
926,2,basse
927,2,billet
928,2,blessé
929,2,blessée
930,2,bon
931,2,bontés
932,2,borner
933,2,bout
934,2,cache
935,2,caché
936,2,calomnie
937,2,cause
938,2,cesse
939,2,cesser
940,2,cessez
941,2,chaque
942,2,chasse
943,2,cher
944,2,cherchent
945,2,chercher
946,2,choisi
947,2,choisir
948,2,chère
949,2,combler
950,2,commence
951,2,commettre
952,2,commis
953,2,commun
954,2,complice
955,2,complots
956,2,comprendre
957,2,compris
958,2,conclue
959,2,concorde
960,2,confiance
961,2,connais
962,2,connaît
963,2,conseil
964,2,conseils
965,2,consentez
966,2,content
967,2,contrainte
968,2,contrefait
969,2,coups
970,2,couronner
971,2,court
972,2,coûter
973,2,craindra
974,2,craindrai
975,2,criminelle
976,2,croira
977,2,croirai
978,2,croyable
979,2,croyant
980,2,cruel
981,2,cédé
982,2,dehors
983,2,demander
984,2,demeure
985,2,derniers
986,2,destine
987,2,devoirs
988,2,dignité
989,2,dis
990,2,discours
991,2,dissensions
992,2,divisions
993,2,doivent
994,2,don
995,2,donné
996,2,donnée
997,2,douteux
998,2,due
999,2,dure
1000,2,déclare
1001,2,découvrent
1002,2,dédire
1003,2,défaut
1004,2,défendre
1005,2,défense
1006,2,déguiser
1007,2,dérobe
1008,2,désordre
1009,2,déteste
1010,2,détournez
1011,2,détruire
1012,2,emportement
1013,2,emprunter
1014,2,empêcher
1015,2,engager
1016,2,enhardir
1017,2,ensuite
1018,2,entends
1019,2,entier
1020,2,entière
1021,2,entrent
1022,2,envieux
1023,2,es
1024,2,esclavage
1025,2,espérez
1026,2,essayer
1027,2,estimer
1028,2,examinez
1029,2,excite
1030,2,excuse
1031,2,expliquant
1032,2,exposé
1033,2,fable
1034,2,facile
1035,2,faible
1036,2,faisaient
1037,2,faisait
1038,2,faisant
1039,2,faits
1040,2,fallait
1041,2,fameux
1042,2,faudra
1043,2,fausses
1044,2,favoriser
1045,2,feignant
1046,2,feint
1047,2,feinte
1048,2,ferai
1049,2,fermeté
1050,2,feux
1051,2,fidélité
1052,2,fin
1053,2,finir
1054,2,fière
1055,2,flatté
1056,2,flétrie
1057,2,forçait
1058,2,fûtes
1059,2,garant
1060,2,garde
1061,2,garder
1062,2,gardez
1063,2,grandes
1064,2,grandeurs
1065,2,habitude
1066,2,hait
1067,2,hasarde
1068,2,hasarder
1069,2,haute
1070,2,haïssez
1071,2,hommages
1072,2,hâter
1073,2,impatience
1074,2,implore
1075,2,importance
1076,2,imposteur
1077,2,imprime
1078,2,imprévue
1079,2,incertains
1080,2,indifférent
1081,2,indignation
1082,2,indigner
1083,2,indigné
1084,2,infidèle
1085,2,ingratitude
1086,2,injurieuse
1087,2,injustement
1088,2,insatiable
1089,2,insolents
1090,2,instruire
1091,2,inventer
1092,2,irai
1093,2,jeter
1094,2,jette
1095,2,jugement
1096,2,juré
1097,2,jusque
1098,2,justement
1099,2,laissé
1100,2,lettre
1101,2,libre
1102,2,ligues
1103,2,livre
1104,2,lorsqu
1105,2,lâches
1106,2,lâchetés
1107,2,légitimes
1108,2,mains
1109,2,maintenir
1110,2,manque
1111,2,maux
1112,2,maxime
1113,2,menacer
1114,2,meurt
1115,2,milieu
1116,2,mis
1117,2,montre
1118,2,motifs
1119,2,mouvements
1120,2,mène
1121,2,mêler
1122,2,mêmes
1123,2,naissant
1124,2,nations
1125,2,noirci
1126,2,noircir
1127,2,noircissant
1128,2,noire
1129,2,noires
1130,2,noirs
1131,2,noms
1132,2,nés
1133,2,obstine
1134,2,obtienne
1135,2,offerte
1136,2,offerts
1137,2,offrait
1138,2,offrir
1139,2,ombrage
1140,2,oppose
1141,2,opprime
1142,2,ordinaire
1143,2,ordonne
1144,2,ordonnez
1145,2,osais
1146,2,osait
1147,2,osant
1148,2,oserai
1149,2,oseront
1150,2,otage
1151,2,oublier
1152,2,outrages
1153,2,ouvert
1154,2,oyez
1155,2,parais
1156,2,pareil
1157,2,parfait
1158,2,parjure
1159,2,partage
1160,2,partant
1161,2,passe
1162,2,passions
1163,2,patience
1164,2,pense
1165,2,pensée
1166,2,pente
1167,2,perde
1168,2,perdra
1169,2,perdu
1170,2,perfide
1171,2,persécuter
1172,2,peux
1173,2,pique
1174,2,plaintes
1175,2,pleine
1176,2,pourrait
1177,2,pourtant
1178,2,pourvu
1179,2,pratique
1180,2,pratiques
1181,2,premiers
1182,2,prendront
1183,2,prudence
1184,2,présumez
1185,2,prévoir
1186,2,prêter
1187,2,quant
1188,2,ravale
1189,2,ravir
1190,2,recevoir
1191,2,redoutable
1192,2,redoutez
1193,2,refuge
1194,2,relâche
1195,2,rendra
1196,2,renonce
1197,2,rentrer
1198,2,repos
1199,2,repousser
1200,2,respectant
1201,2,respecte
1202,2,respecté
1203,2,ressente
1204,2,ressentiments
1205,2,romaine
1206,2,rompez
1207,2,rudes
1208,2,réduire
1209,2,réduit
1210,2,régler
1211,2,répandre
1212,2,répond
1213,2,révolte
1214,2,sache
1215,2,saisie
1216,2,saurez
1217,2,sauver
1218,2,sauvé
1219,2,secrète
1220,2,secrètes
1221,2,seing
1222,2,sembla
1223,2,semblable
1224,2,semblent
1225,2,sentir
1226,2,serais
1227,2,serez
1228,2,seulement
1229,2,sien
1230,2,sincère
1231,2,soif
1232,2,soin
1233,2,songe
1234,2,souille
1235,2,soulager
1236,2,soupçonner
1237,2,soutenir
1238,2,soutiendrai
1239,2,soutient
1240,2,souvenir
1241,2,souveraine
1242,2,souverains
1243,2,spectacle
1244,2,subornés
1245,2,suffise
1246,2,suivi
1247,2,suivra
1248,2,suivre
1249,2,sujets
1250,2,superbe
1251,2,superflus
1252,2,suprême
1253,2,surprenant
1254,2,séduit
1255,2,sûre
1256,2,sûrement
1257,2,tache
1258,2,tels
1259,2,temple
1260,2,tente
1261,2,tenter
1262,2,ternir
1263,2,terre
1264,2,tire
1265,2,tomber
1266,2,tort
1267,2,tour
1268,2,trahit
1269,2,traite
1270,2,traiter
1271,2,tremble
1272,2,triompher
1273,2,trompé
1274,2,tyrannie
1275,2,tyrans
1276,2,témoin
1277,2,unie
1278,2,unit
1279,2,vainqueur
1280,2,verser
1281,2,veuille
1282,2,veulent
1283,2,victoire
1284,2,vivant
1285,2,voix
1286,2,voulais
1287,2,vrais
1288,2,échapper
1289,2,éloignement
1290,2,émouvoir
1291,2,époux
1292,2,étant
1293,2,éteint
1294,2,étonne
1295,2,étonner
1296,2,étouffant
1297,2,êtes
1298,2,ôtant
1299,2,ôté
1300,1,abaisse
1301,1,abaissiez
1302,1,abandonna
1303,1,abandonnés
1304,1,abject
1305,1,abois
1306,1,abominable
1307,1,absolus
1308,1,abus
1309,1,abîmé
1310,1,accablaient
1311,1,accablant
1312,1,accablement
1313,1,accepte
1314,1,acceptions
1315,1,acceptés
1316,1,accommode
1317,1,accompagné
1318,1,accoutumer
1319,1,accroître
1320,1,acquis
1321,1,acquise
1322,1,acquérir
1323,1,actions
1324,1,admirable
1325,1,admire
1326,1,admirer
1327,1,adorent
1328,1,adorer
1329,1,adoucir
1330,1,adoucisse
1331,1,affaires
1332,1,affecter
1333,1,affermie
1334,1,affranchis
1335,1,affranchit
1336,1,agent
1337,1,agis
1338,1,agréable
1339,1,aide
1340,1,aidez
1341,1,aigris
1342,1,aimait
1343,1,aimerez
1344,1,aisé
1345,1,alarme
1346,1,alarmer
1347,1,alarmé
1348,1,alarmée
1349,1,allaient
1350,1,allumer
1351,1,allumée
1352,1,amasser
1353,1,ambassade
1354,1,amenez
1355,1,amené
1356,1,amortir
1357,1,amène
1358,1,animant
1359,1,animera
1360,1,animé
1361,1,animée
1362,1,année
1363,1,antichambre
1364,1,antiochus
1365,1,anéantir
1366,1,apaiser
1367,1,appareil
1368,1,appellent
1369,1,appelé
1370,1,applaudis
1371,1,applique
1372,1,apporter
1373,1,apprendront
1374,1,apprends
1375,1,appris
1376,1,apprit
1377,1,approche
1378,1,approchent
1379,1,approuver
1380,1,appréhende
1381,1,appuyant
1382,1,arbitre
1383,1,arbitres
1384,1,ardemment
1385,1,ardente
1386,1,armer
1387,1,armeront
1388,1,armé
1389,1,armée
1390,1,arrachera
1391,1,arracheront
1392,1,arrivent
1393,1,arriver
1394,1,arrogants
1395,1,arrêtant
1396,1,arrêtent
1397,1,arrêtera
1398,1,artifice
1399,1,as
1400,1,asiles
1401,1,aspirait
1402,1,assai
1403,1,assassiner
1404,1,assembler
1405,1,asservit
1406,1,assouvie
1407,1,assurant
1408,1,assurent
1409,1,assurera
1410,1,assurez
1411,1,assurée
1412,1,assurés
1413,1,attachement
1414,1,attaché
1415,1,attachée
1416,1,attale
1417,1,attaque
1418,1,attaquer
1419,1,attendais
1420,1,attende
1421,1,attendez
1422,1,attendra
1423,1,attendrai
1424,1,atteste
1425,1,attirant
1426,1,attirât
1427,1,aucuns
1428,1,augmente
1429,1,auraient
1430,1,aurez
1431,1,auriez
1432,1,aurons
1433,1,auront
1434,1,autels
1435,1,autorisez
1436,1,autrement
1437,1,avancer
1438,1,avenir
1439,1,aveuglez
1440,1,avide
1441,1,avidité
1442,1,avons
1443,1,aînesse
1444,1,aïeux
1445,1,balançons
1446,1,bannie
1447,1,bassesse
1448,1,beaux
1449,1,belle
1450,1,besoin
1451,1,biens
1452,1,bientôt
1453,1,blesser
1454,1,blâmez
1455,1,borne
1456,1,bornez
1457,1,borné
1458,1,bouche
1459,1,bourreau
1460,1,brave
1461,1,bravez
1462,1,bravons
1463,1,brigue
1464,1,brigué
1465,1,briller
1466,1,brisant
1467,1,brisons
1468,1,brisé
1469,1,brûlait
1470,1,brûlante
1471,1,cachait
1472,1,cachent
1473,1,cacher
1474,1,cachez
1475,1,cachés
1476,1,calmer
1477,1,car
1478,1,causa
1479,1,cela
1480,1,certain
1481,1,certaines
1482,1,certes
1483,1,cessant
1484,1,cessera
1485,1,cesseriez
1486,1,cessé
1487,1,chaleur
1488,1,chanceler
1489,1,change
1490,1,changé
1491,1,charge
1492,1,chargeait
1493,1,charger
1494,1,chargez
1495,1,charmant
1496,1,charmante
1497,1,chasser
1498,1,chassé
1499,1,chef
1500,1,chefs
1501,1,cherchons
1502,1,cherchèrent
1503,1,chers
1504,1,cheveux
1505,1,choir
1506,1,chose
1507,1,chute
1508,1,chèrement
1509,1,chères
1510,1,chéri
1511,1,chérir
1512,1,chérit
1513,1,clarté
1514,1,clémence
1515,1,coeurs
1516,1,combattre
1517,1,combattu
1518,1,commandé
1519,1,commencer
1520,1,commet
1521,1,commettant
1522,1,complices
1523,1,compte
1524,1,compter
1525,1,con
1526,1,concerné
1527,1,condamnable
1528,1,condamnent
1529,1,condamniez
1530,1,condamné
1531,1,confirmé
1532,1,confirmés
1533,1,confond
1534,1,confondit
1535,1,confuse
1536,1,connaissant
1537,1,connu
1538,1,connus
1539,1,conquis
1540,1,conquise
1541,1,conseillant
1542,1,conseille
1543,1,conseiller
1544,1,conseillé
1545,1,consenti
1546,1,conserver
1547,1,conservé
1548,1,considère
1549,1,considérez
1550,1,constant
1551,1,consulter
1552,1,consumé
1553,1,contenté
1554,1,continuez
1555,1,contraints
1556,1,contraire
1557,1,contraires
1558,1,convaincre
1559,1,convaincu
1560,1,convie
1561,1,conçoit
1562,1,conçoive
1563,1,corrompait
1564,1,couleur
1565,1,couleurs
1566,1,courages
1567,1,courez
1568,1,couronnez
1569,1,couronnée
1570,1,couronnées
1571,1,couronnés
1572,1,couvert
1573,1,couverte
1574,1,coûté
1575,1,craignait
1576,1,craignant
1577,1,craigne
1578,1,craindrais
1579,1,criminelles
1580,1,cris
1581,1,croirez
1582,1,croiriez
1583,1,croître
1584,1,cruauté
1585,1,cruelle
1586,1,cruelles
1587,1,cruels
1588,1,crus
1589,1,crédit
1590,1,crédule
1591,1,crût
1592,1,cueille
1593,1,culte
1594,1,cèle
1595,1,cédant
1596,1,cédez
1597,1,cérémonie
1598,1,côtes
1599,1,daignant
1600,1,daigne
1601,1,daignes
1602,1,damnables
1603,1,dangereuse
1604,1,dangereux
1605,1,davantage
1606,1,dedans
1607,1,degré
1608,1,degrés
1609,1,demandent
1610,1,demandez
1611,1,depuis
1612,1,dernier
1613,1,dernière
1614,1,destinent
1615,1,destinée
1616,1,deus
1617,1,devant
1618,1,devenu
1619,1,devins
1620,1,dieu
1621,1,diffère
1622,1,différents
1623,1,différer
1624,1,diraient
1625,1,direz
1626,1,disais
1627,1,dise
1628,1,disgrâces
1629,1,dispose
1630,1,disposé
1631,1,disputant
1632,1,disputer
1633,1,dissimule
1634,1,dissipant
1635,1,dissiper
1636,1,divise
1637,1,doive
1638,1,donnent
1639,1,donnerais
1640,1,donnes
1641,1,donnés
1642,1,douce
1643,1,douteriez
1644,1,doutez
1645,1,douté
1646,1,durer
1647,1,dures
1648,1,dureté
1649,1,dusse
1650,1,débats
1651,1,déchirer
1652,1,décide
1653,1,décidé
1654,1,déclarer
1655,1,découverte
1656,1,découvrir
1657,1,décret
1658,1,dédaignez
1659,1,dédaigné
1660,1,dédains
1661,1,dédis
1662,1,défaire
1663,1,défait
1664,1,défauts
1665,1,défendra
1666,1,défiance
1667,1,défiant
1668,1,déférer
1669,1,dégager
1670,1,déguise
1671,1,déguisement
1672,1,déguisements
1673,1,déguisez
1674,1,déguisé
1675,1,délivre
1676,1,démens
1677,1,démenti
1678,1,déments
1679,1,dépit
1680,1,déploie
1681,1,déplorable
1682,1,député
1683,1,dérobent
1684,1,dérober
1685,1,dérobez
1686,1,désespérez
1687,1,désormais
1688,1,désunir
1689,1,détestant
1690,1,détestez
1691,1,détourné
1692,1,détournés
1693,1,détruit
1694,1,déçu
1695,1,efface
1696,1,effacer
1697,1,effacé
1698,1,effacée
1699,1,effectif
1700,1,eh
1701,1,embarrasse
1702,1,embrassent
1703,1,empare
1704,1,emploi
1705,1,emploierai
1706,1,employât
1707,1,empoisonne
1708,1,empoisonner
1709,1,empoisonnés
1710,1,emportent
1711,1,emportez
1712,1,empresserait
1713,1,emprunte
1714,1,empêcherai
1715,1,encore
1716,1,endurcir
1717,1,enflammer
1718,1,enflammé
1719,1,enflammée
1720,1,engagé
1721,1,enhardit
1722,1,ennuis
1723,1,enorgueillit
1724,1,enrichir
1725,1,enseigner
1726,1,ensemble
1727,1,entend
1728,1,entende
1729,1,entiers
1730,1,entreprenez
1731,1,entreprenne
1732,1,entretenir
1733,1,envierai
1734,1,envié
1735,1,envoie
1736,1,envoya
1737,1,envoyer
1738,1,esprits
1739,1,essayant
1740,1,estimasse
1741,1,estimez
1742,1,euménès
1743,1,eus
1744,1,examiner
1745,1,exclut
1746,1,excusant
1747,1,excès
1748,1,exempte
1749,1,exemptez
1750,1,exerce
1751,1,exige
1752,1,exigent
1753,1,exiger
1754,1,exil
1755,1,expirer
1756,1,expliquai
1757,1,exprimer
1758,1,exécute
1759,1,factieux
1760,1,faille
1761,1,failli
1762,1,faisais
1763,1,faisons
1764,1,fallu
1765,1,famille
1766,1,fassiez
1767,1,faste
1768,1,favorables
1769,1,favori
1770,1,favoris
1771,1,favorise
1772,1,feignais
1773,1,feints
1774,1,ferais
1775,1,ferait
1776,1,fierez
1777,1,fis
1778,1,flatteront
1779,1,flottant
1780,1,fléchir
1781,1,fonde
1782,1,fondement
1783,1,forcerons
1784,1,forcez
1785,1,forcés
1786,1,forger
1787,1,formait
1788,1,formant
1789,1,forme
1790,1,forment
1791,1,forts
1792,1,fortune
1793,1,forçais
1794,1,foudres
1795,1,frappé
1796,1,frayeur
1797,1,frivole
1798,1,fronts
1799,1,frémit
1800,1,funestes
1801,1,fureurs
1802,1,fus
1803,1,fussent
1804,1,fâcheux
1805,1,fête
1806,1,fîtes
1807,1,gagnez
1808,1,gagnés
1809,1,garanti
1810,1,gardes
1811,1,genre
1812,1,gouverné
1813,1,goûte
1814,1,goûtons
1815,1,grande
1816,1,gris
1817,1,gré
1818,1,guérison
1819,1,guérit
1820,1,gémir
1821,1,gêner
1822,1,gêné
1823,1,haines
1824,1,hais
1825,1,hasardeux
1826,1,hasardiez
1827,1,hautement
1828,1,hauts
1829,1,haïsse
1830,1,heure
1831,1,heureusement
1832,1,honneurs
1833,1,honore
1834,1,honteusement
1835,1,hors
1836,1,hyménées
1837,1,héros
1838,1,héréditaire
1839,1,ignore
1840,1,image
1841,1,imagine
1842,1,imaginer
1843,1,imitant
1844,1,imiter
1845,1,immoler
1846,1,immolera
1847,1,immolez
1848,1,immortel
1849,1,imparfaite
1850,1,importants
1851,1,importun
1852,1,impose
1853,1,imposteurs
1854,1,imprévu
1855,1,impur
1856,1,imputiez
1857,1,impérieuse
1858,1,impérieux
1859,1,incertain
1860,1,incertitude
1861,1,inconstants
1862,1,indices
1863,1,indignement
1864,1,indignité
1865,1,indignés
1866,1,indiscrète
1867,1,industrieuse
1868,1,infamie
1869,1,infatigable
1870,1,inflexible
1871,1,informer
1872,1,infortunée
1873,1,ingrats
1874,1,inimitiés
1875,1,innocente
1876,1,inquiet
1877,1,inquiète
1878,1,inquiétude
1879,1,insensible
1880,1,insensés
1881,1,instruisant
1882,1,instruite
1883,1,instruits
1884,1,interdit
1885,1,interdits
1886,1,intéresser
1887,1,intéressé
1888,1,inutile
1889,1,invincible
1890,1,invite
1891,1,inébranlable
1892,1,inégale
1893,1,irréparable
1894,1,jardin
1895,1,jeune
1896,1,joignît
1897,1,joindre
1898,1,joins
1899,1,joint
1900,1,jugé
1901,1,jurer
1902,1,jurée
1903,1,justifiant
1904,1,justifier
1905,1,laissaient
1906,1,laissons
1907,1,las
1908,1,lasse
1909,1,lever
1910,1,liberté
1911,1,libérateur
1912,1,livrez
1913,1,livrât
1914,1,livré
1915,1,long
1916,1,louer
1917,1,léger
1918,1,légèreté
1919,1,maintenant
1920,1,majesté
1921,1,mandé
1922,1,manquer
1923,1,manqué
1924,1,marquait
1925,1,marquera
1926,1,matière
1927,1,mauvais
1928,1,menacé
1929,1,menacés
1930,1,mendier
1931,1,met
1932,1,mettant
1933,1,meure
1934,1,miens
1935,1,ministre
1936,1,molle
1937,1,montrait
1938,1,montrez
1939,1,mortel
1940,1,morts
1941,1,mots
1942,1,mourra
1943,1,mourrais
1944,1,mouvement
1945,1,mutiné
1946,1,méchante
1947,1,mélange
1948,1,mémoire
1949,1,mépriser
1950,1,mêlée
1951,1,naissants
1952,1,naquis
1953,1,naît
1954,1,neveux
1955,1,noeud
1956,1,noirceur
1957,1,noircirent
1958,1,noirciront
1959,1,nommant
1960,1,nomme
1961,1,nommer
1962,1,nouveaux
1963,1,nuisent
1964,1,nul
1965,1,né
1966,1,néant
1967,1,née
1968,1,néglige
1969,1,négligez
1970,1,oblige
1971,1,obscurément
1972,1,obstinément
1973,1,obtenais
1974,1,obtenant
1975,1,obtiendrez
1976,1,obtiennent
1977,1,obéi
1978,1,obéissant
1979,1,occasion
1980,1,occupe
1981,1,oeil
1982,1,offraient
1983,1,offres
1984,1,opposant
1985,1,opposer
1986,1,opprimé
1987,1,ordonniez
1988,1,ordonné
1989,1,orgueilleux
1990,1,osa
1991,1,osai
1992,1,osaient
1993,1,oserais
1994,1,osé
1995,1,oubli
1996,1,oubliant
1997,1,oublie
1998,1,oublierai
1999,1,oublieriez
2000,1,oublié
2001,1,outrageant
2002,1,outrageante
2003,1,outrager
2004,1,outragé
2005,1,ouvrage
2006,1,palais
2007,1,paraîtra
2008,1,pardonne
2009,1,pardonnez
2010,1,pareilles
2011,1,parfaite
2012,1,parlent
2013,1,parlez
2014,1,partagez
2015,1,partis
2016,1,paru
2017,1,parut
2018,1,passion
2019,1,passons
2020,1,patrie
2021,1,payé
2022,1,peines
2023,1,peint
2024,1,pendant
2025,1,penses
2026,1,perdant
2027,1,perdons
2028,1,perds
2029,1,permet
2030,1,permettez
2031,1,permise
2032,1,piège
2033,1,placer
2034,1,places
2035,1,placée
2036,1,plaignez
2037,1,plains
2038,1,plaira
2039,1,plausible
2040,1,pleureriez
2041,1,pleurs
2042,1,plonge
2043,1,plonger
2044,1,poids
2045,1,pompe
2046,1,porta
2047,1,porterai
2048,1,portez
2049,1,portons
2050,1,possession
2051,1,pourrez
2052,1,pourriez
2053,1,pourrons
2054,1,pourront
2055,1,pourvoir
2056,1,poussé
2057,1,pouvais
2058,1,pouvait
2059,1,pouvant
2060,1,premier
2061,1,premières
2062,1,prendra
2063,1,prenne
2064,1,prescrire
2065,1,prescrit
2066,1,presque
2067,1,pressait
2068,1,pressante
2069,1,pressants
2070,1,pressera
2071,1,pressez
2072,1,pressât
2073,1,pressé
2074,1,pressée
2075,1,preuves
2076,1,princes
2077,1,prison
2078,1,priver
2079,1,profond
2080,1,promesses
2081,1,promet
2082,1,promettez
2083,1,promise
2084,1,prononcerai
2085,1,prononcez
2086,1,propice
2087,1,propose
2088,1,propre
2089,1,propres
2090,1,protection
2091,1,prouve
2092,1,près
2093,1,précieux
2094,1,précipités
2095,1,préférence
2096,1,prépare
2097,1,préparer
2098,1,préparé
2099,1,préparés
2100,1,présage
2101,1,préside
2102,1,présumé
2103,1,prétende
2104,1,prétends
2105,1,prétendu
2106,1,prévenant
2107,1,prévenu
2108,1,prévienne
2109,1,prévu
2110,1,prêteront
2111,1,prêtez
2112,1,prêts
2113,1,public
2114,1,publie
2115,1,publier
2116,1,publiques
2117,1,publié
2118,1,puissante
2119,1,puissants
2120,1,puissé
2121,1,punissant
2122,1,punisse
2123,1,pure
2124,1,pureté
2125,1,purge
2126,1,purger
2127,1,périssent
2128,1,quelles
2129,1,querelle
2130,1,quereller
2131,1,quittant
2132,1,quittez
2133,1,quoique
2134,1,racheté
2135,1,raisonnable
2136,1,raisons
2137,1,ramène
2138,1,rare
2139,1,rarement
2140,1,rebut
2141,1,rebutés
2142,1,reconnais
2143,1,reconnaît
2144,1,recours
2145,1,reculant
2146,1,redis
2147,1,redouble
2148,1,redoubler
2149,1,redoublé
2150,1,redoublés
2151,1,refuser
2152,1,refusez
2153,1,regardant
2154,1,regarde
2155,1,regards
2156,1,rejetez
2157,1,rejette
2158,1,remettre
2159,1,remise
2160,1,remonter
2161,1,rempli
2162,1,rendait
2163,1,rendant
2164,1,rende
2165,1,rendez
2166,1,rendrai
2167,1,rendrait
2168,1,rendriez
2169,1,rendu
2170,1,rendue
2171,1,rentrait
2172,1,rentre
2173,1,rentrez
2174,1,renverser
2175,1,renversé
2176,1,repente
2177,1,repoussera
2178,1,repoussée
2179,1,reproches
2180,1,reprochez
2181,1,rester
2182,1,retardement
2183,1,retient
2184,1,reviennent
2185,1,reçois
2186,1,reçu
2187,1,rigueurs
2188,1,ris
2189,1,rit
2190,1,rivale
2191,1,rompant
2192,1,rompue
2193,1,rougirais
2194,1,régnant
2195,1,régné
2196,1,répand
2197,1,répandu
2198,1,répare
2199,1,réparer
2200,1,répondez
2201,1,répondrais
2202,1,république
2203,1,réserve
2204,1,réservé
2205,1,résiste
2206,1,résistez
2207,1,résolu
2208,1,résolviez
2209,1,réveille
2210,1,révolter
2211,1,révolté
2212,1,révère
2213,1,sachant
2214,1,sacrifiera
2215,1,sacré
2216,1,saine
2217,1,sanglants
2218,1,satisfaire
2219,1,satisfais
2220,1,satisfait
2221,1,saurai
2222,1,sauraient
2223,1,saurais
2224,1,saurons
2225,1,sauront
2226,1,sauva
2227,1,sauve
2228,1,sauvez
2229,1,scipions
2230,1,seconde
2231,1,seconder
2232,1,secouer
2233,1,secourir
2234,1,selon
2235,1,semblez
2236,1,semblé
2237,1,semer
2238,1,sente
2239,1,serai
2240,1,serments
2241,1,servant
2242,1,servez
2243,1,servi
2244,1,servitude
2245,1,sied
2246,1,sienne
2247,1,siens
2248,1,signaler
2249,1,silence
2250,1,sincérité
2251,1,sitôt
2252,1,soldats
2253,1,sollicitant
2254,1,sollicite
2255,1,sollicité
2256,1,sonder
2257,1,songeons
2258,1,songerez
2259,1,sorti
2260,1,sortir
2261,1,souci
2262,1,souffert
2263,1,souffrirez
2264,1,souhaite
2265,1,souhaiter
2266,1,souhaité
2267,1,souiller
2268,1,souillé
2269,1,soumets
2270,1,soumise
2271,1,soupirer
2272,1,soupiré
2273,1,soupçonneux
2274,1,sourde
2275,1,soutenait
2276,1,soutien
2277,1,soutiens
2278,1,souverain
2279,1,souviendrai
2280,1,souviens
2281,1,soyez
2282,1,sparte
2283,1,splendeur
2284,1,stratagème
2285,1,stupide
2286,1,suborna
2287,1,succède
2288,1,succédant
2289,1,suffi
2290,1,suffrage
2291,1,suivaient
2292,1,suivez
2293,1,suivie
2294,1,suivis
2295,1,sujette
2296,1,suppléer
2297,1,supposé
2298,1,surprend
2299,1,surpris
2300,1,surtout
2301,1,sus
2302,1,suspend
2303,1,suspendu
2304,1,séduire
2305,1,séduise
2306,1,séduite
2307,1,séparer
2308,1,sévère
2309,1,sût
2310,1,tarde
2311,1,teints
2312,1,tellement
2313,1,tenait
2314,1,tendait
2315,1,tendent
2316,1,tendez
2317,1,tendresses
2318,1,tenez
2319,1,tenu
2320,1,terme
2321,1,termes
2322,1,ternie
2323,1,ternit
2324,1,tiendra
2325,1,tienne
2326,1,tiens
2327,1,timide
2328,1,tirer
2329,1,tombe
2330,1,tombeau
2331,1,touchais
2332,1,touchent
2333,1,toucher
2334,1,tourment
2335,1,tourne
2336,1,toutefois
2337,1,toutes
2338,1,tracé
2339,1,trahie
2340,1,trahirait
2341,1,traire
2342,1,trame
2343,1,trancher
2344,1,travaux
2345,1,traversent
2346,1,traversé
2347,1,tremblant
2348,1,tremblent
2349,1,trembleriez
2350,1,tristement
2351,1,trompeur
2352,1,trompeuse
2353,1,trompés
2354,1,troubler
2355,1,troubles
2356,1,trouveriez
2357,1,trouveront
2358,1,trouvez
2359,1,trouviez
2360,1,tue
2361,1,tumulte
2362,1,tâcher
2363,1,tâché
2364,1,témoignage
2365,1,témoignages
2366,1,témérité
2367,1,têtes
2368,1,unique
2369,1,unisse
2370,1,univers
2371,1,uns
2372,1,usage
2373,1,user
2374,1,usurpe
2375,1,usurper
2376,1,vaines
2377,1,vastes
2378,1,veillant
2379,1,venant
2380,1,venez
2381,1,venir
2382,1,venus
2383,1,verrais
2384,1,verrez
2385,1,verrons
2386,1,versez
2387,1,vertus
2388,1,victimes
2389,1,vifs
2390,1,vigilance
2391,1,vil
2392,1,ville
2393,1,violente
2394,1,violer
2395,1,violés
2396,1,vivement
2397,1,vives
2398,1,vivez
2399,1,voisins
2400,1,voleraient
2401,1,volontaire
2402,1,vont
2403,1,voudriez
2404,1,voulaient
2405,1,voyais
2406,1,voyons
2407,1,vulgaire
2408,1,véritable
2409,1,vérités
2410,1,vôtres
2411,1,âge
2412,1,âmes
2413,1,âpres
2414,1,éblouie
2415,1,éblouir
2416,1,éblouit
2417,1,ébranle
2418,1,ébranler
2419,1,échappé
2420,1,éclaircit
2421,1,éclairez
2422,1,éclatant
2423,1,éclatante
2424,1,écoutant
2425,1,écoutera
2426,1,écrie
2427,1,écrire
2428,1,égal
2429,1,égale
2430,1,également
2431,1,élevé
2432,1,élevés
2433,1,élève
2434,1,émeut
2435,1,émue
2436,1,épandre
2437,1,épargnait
2438,1,épargnant
2439,1,épargne
2440,1,épargnez
2441,1,épier
2442,1,épiera
2443,1,épouser
2444,1,épousez
2445,1,épouvante
2446,1,épreuve
2447,1,éprise
2448,1,équité
2449,1,établir
2450,1,établit
2451,1,étale
2452,1,étalés
2453,1,éteignez
2454,1,éteindre
2455,1,éteints
2456,1,étend
2457,1,éternel
2458,1,étiez
2459,1,étonnes
2460,1,étonnée
2461,1,étonnés
2462,1,étouffe
2463,1,étouffez
2464,1,étouffons
2465,1,étrange
2466,1,étude
2467,1,évitai
2468,1,évitais
2469,1,ô
2470,1,ôte
2471,1,ôtez
2472,1,ôtons
