#Word Types: 2808
#Word Tokens: 15436
#Search Hits: 0
1	428	de	
2	387	je	
3	363	et	
4	296	vous	
5	277	que	
6	264	le	
7	255	il	
8	246	à	
9	219	la	
10	218	en	
11	205	un	
12	200	l	
13	193	est	
14	175	ne	
15	174	qu	
16	162	qui	
17	156	d	
18	149	les	
19	145	ce	
20	127	si	
21	121	mon	
22	117	me	
23	117	n	
24	117	pas	
25	116	bien	
26	98	mais	
27	96	pour	
28	95	plus	
29	94	j	
30	94	m	
31	91	des	
32	86	nous	
33	84	sans	
34	80	au	
35	79	tu	
36	74	c	
37	74	ma	
38	68	a	
39	63	dans	
40	63	moi	
41	62	par	
42	61	ah	
43	61	du	
44	61	faut	
45	58	suis	
46	57	on	
47	56	ai	
48	56	mes	
49	56	monsieur	
50	56	tout	
51	54	s	
52	52	une	
53	51	lui	
54	50	point	
55	48	voir	
56	47	dieux	
57	47	fait	
58	47	ici	
59	44	tous	
60	43	où	
61	42	là	
62	42	père	
63	41	ni	
64	41	quoi	
65	40	sont	
66	39	ou	
67	38	cette	
68	38	coeur	
69	38	faire	
70	38	t	
71	37	mort	
72	37	veux	
73	36	ton	
74	35	non	
75	35	peu	
76	35	son	
77	34	ciel	
78	33	avec	
79	33	sur	
80	32	vos	
81	32	être	
82	31	jamais	
83	31	rien	
84	31	te	
85	30	ces	
86	30	se	
87	30	votre	
88	29	encore	
89	29	esprit	
90	29	sa	
91	29	ses	
92	28	hélas	
93	28	âme	
94	27	car	
95	27	peut	
96	27	tant	
97	26	aux	
98	26	donc	
99	26	y	
100	25	don	
101	25	fort	
102	25	ils	
103	25	maître	
104	25	trop	
105	24	comme	
106	24	sais	
107	24	tes	
108	23	ont	
109	22	aussi	
110	22	dis	
111	22	enfin	
112	22	va	
113	21	même	
114	20	après	
115	20	comment	
116	20	dit	
117	20	quel	
118	19	avoir	
119	19	diable	
120	19	grand	
121	19	malheureux	
122	19	philipin	
123	19	ta	
124	19	toi	
125	19	yeux	
126	18	amour	
127	18	crois	
128	18	fois	
129	18	peur	
130	17	allons	
131	17	doute	
132	17	eh	
133	17	grâce	
134	17	mille	
135	17	oui	
136	17	pauvre	
137	17	quand	
138	17	temps	
139	16	autre	
140	16	quelque	
141	16	vois	
142	15	ainsi	
143	15	avez	
144	15	dont	
145	15	juan	
146	15	notre	
147	15	puis	
148	15	traître	
149	15	voilà	
150	14	aujourd	
151	14	cela	
152	14	cent	
153	14	dire	
154	14	doit	
155	14	hui	
156	14	moment	
157	14	prendre	
158	14	soit	
159	13	amarille	
160	13	bon	
161	13	cet	
162	13	crimes	
163	13	dites	
164	13	malheur	
165	13	parler	
166	13	pris	
167	13	valet	
168	13	veut	
169	13	vu	
170	12	assez	
171	12	beaucoup	
172	12	bientôt	
173	12	bruit	
174	12	celui	
175	12	discours	
176	12	homme	
177	12	mieux	
178	12	ombre	
179	12	sort	
180	12	vais	
181	12	ô	
182	11	ferai	
183	11	fin	
184	11	jour	
185	11	monde	
186	11	mourir	
187	11	plutôt	
188	11	pouvoir	
189	11	reste	
190	11	seul	
191	11	seulement	
192	11	toujours	
193	11	vient	
194	10	beau	
195	10	bras	
196	10	coup	
197	10	coups	
198	10	entends	
199	10	habit	
200	10	honneur	
201	10	justice	
202	10	lieu	
203	10	main	
204	10	maintenant	
205	10	mal	
206	10	manger	
207	10	moins	
208	10	partout	
209	10	pleurs	
210	10	raison	
211	10	sens	
212	10	souvent	
213	10	terre	
214	10	toute	
215	10	vie	
216	10	voit	
217	9	apprends	
218	9	bonté	
219	9	colère	
220	9	donner	
221	9	elle	
222	9	faites	
223	9	habits	
224	9	justes	
225	9	lieux	
226	9	maux	
227	9	philippe	
228	9	prêt	
229	9	secours	
230	9	sortons	
231	9	souffrir	
232	9	sous	
233	9	table	
234	9	venir	
235	9	voulez	
236	8	adieu	
237	8	as	
238	8	bons	
239	8	cher	
240	8	chercher	
241	8	chère	
242	8	corps	
243	8	courage	
244	8	cruel	
245	8	dedans	
246	8	demain	
247	8	dessein	
248	8	ensemble	
249	8	extrême	
250	8	feu	
251	8	fille	
252	8	fils	
253	8	flûtez	
254	8	foi	
255	8	gens	
256	8	grands	
257	8	insolent	
258	8	leur	
259	8	nos	
260	8	part	
261	8	pourquoi	
262	8	quelqu	
263	8	sois	
264	8	tantôt	
265	8	viens	
266	8	ville	
267	8	voyez	
268	8	êtes	
269	7	air	
270	7	amant	
271	7	autres	
272	7	besoin	
273	7	bonne	
274	7	bout	
275	7	crime	
276	7	devant	
277	7	diables	
278	7	donne	
279	7	esprits	
280	7	fais	
281	7	fasse	
282	7	garde	
283	7	heure	
284	7	heureux	
285	7	madame	
286	7	mentir	
287	7	mots	
288	7	nature	
289	7	naufrage	
290	7	peine	
291	7	pendu	
292	7	petit	
293	7	porte	
294	7	proche	
295	7	présent	
296	7	quelle	
297	7	saurait	
298	7	seigneur	
299	7	sommes	
300	7	songez	
301	7	souper	
302	7	tempête	
303	7	tourments	
304	7	trépas	
305	7	voici	
306	7	vrai	
307	7	état	
308	6	affaire	
309	6	ait	
310	6	aller	
311	6	assassin	
312	6	attendre	
313	6	attends	
314	6	aura	
315	6	aurez	
316	6	avons	
317	6	bas	
318	6	chose	
319	6	cieux	
320	6	connaître	
321	6	dessous	
322	6	dessus	
323	6	force	
324	6	forfaits	
325	6	juste	
326	6	longtemps	
327	6	meure	
328	6	misérable	
329	6	morts	
330	6	mouvements	
331	6	oeil	
332	6	parle	
333	6	pitié	
334	6	prends	
335	6	propos	
336	6	prévôt	
337	6	puisse	
338	6	pèlerin	
339	6	rendre	
340	6	repos	
341	6	sang	
342	6	seconde	
343	6	semble	
344	6	sentiments	
345	6	sert	
346	6	séville	
347	6	tel	
348	6	tient	
349	6	tonnerre	
350	6	trouver	
351	6	voeux	
352	6	âge	
353	6	épée	
354	6	était	
355	5	abord	
356	5	aime	
357	5	allez	
358	5	aurai	
359	5	autant	
360	5	beaux	
361	5	belle	
362	5	boire	
363	5	cacher	
364	5	certain	
365	5	ceux	
366	5	connais	
367	5	damon	
368	5	davantage	
369	5	depuis	
370	5	dernier	
371	5	destin	
372	5	devoir	
373	5	douleur	
374	5	dès	
375	5	démon	
376	5	effet	
377	5	emporter	
378	5	entre	
379	5	espère	
380	5	faudra	
381	5	façon	
382	5	fer	
383	5	festin	
384	5	finir	
385	5	flamme	
386	5	frappe	
387	5	gendre	
388	5	gouverneur	
389	5	infâme	
390	5	jours	
391	5	jusqu	
392	5	las	
393	5	loin	
394	5	mange	
395	5	mets	
396	5	montrer	
397	5	mot	
398	5	mère	
399	5	ordre	
400	5	parents	
401	5	passe	
402	5	passion	
403	5	perdre	
404	5	pieds	
405	5	place	
406	5	poltron	
407	5	port	
408	5	porter	
409	5	pu	
410	5	punir	
411	5	quels	
412	5	ravir	
413	5	regarde	
414	5	saison	
415	5	savez	
416	5	savoir	
417	5	seront	
418	5	servir	
419	5	soins	
420	5	sorti	
421	5	souffrez	
422	5	soyez	
423	5	surprendre	
424	5	surprise	
425	5	sépulture	
426	5	tais	
427	5	taisez	
428	5	tard	
429	5	tombeau	
430	5	toutes	
431	5	vengeance	
432	5	violence	
433	5	vite	
434	5	voix	
435	5	voudrais	
436	5	vérité	
437	5	éviter	
438	4	aimez	
439	4	approche	
440	4	armes	
441	4	arriver	
442	4	arrêtez	
443	4	assuré	
444	4	aurait	
445	4	aussitôt	
446	4	avais	
447	4	avance	
448	4	beautés	
449	4	bu	
450	4	ceci	
451	4	chacun	
452	4	chemin	
453	4	cherche	
454	4	choque	
455	4	collet	
456	4	combat	
457	4	conduite	
458	4	contenter	
459	4	contre	
460	4	cour	
461	4	craindre	
462	4	crainte	
463	4	croyez	
464	4	danser	
465	4	demande	
466	4	demeure	
467	4	deux	
468	4	dois	
469	4	donnez	
470	4	déjà	
471	4	dépêchons	
472	4	eau	
473	4	ennemis	
474	4	envie	
475	4	exécrable	
476	4	fable	
477	4	flammes	
478	4	flots	
479	4	front	
480	4	funeste	
481	4	fut	
482	4	gloire	
483	4	guerre	
484	4	ignorant	
485	4	injustice	
486	4	laissez	
487	4	macette	
488	4	mains	
489	4	maison	
490	4	malgré	
491	4	matelots	
492	4	maîtresse	
493	4	mettre	
494	4	mis	
495	4	méchant	
496	4	nuit	
497	4	ouïr	
498	4	paraître	
499	4	parole	
500	4	peines	
501	4	pense	
502	4	pensée	
503	4	permettez	
504	4	perte	
505	4	peste	
506	4	peux	
507	4	pis	
508	4	plaisirs	
509	4	prenez	
510	4	près	
511	4	puisque	
512	4	péril	
513	4	rage	
514	4	regardez	
515	4	retraite	
516	4	sait	
517	4	sauver	
518	4	secourir	
519	4	semblables	
520	4	serais	
521	4	serait	
522	4	soeur	
523	4	soin	
524	4	soir	
525	4	suivre	
526	4	supplice	
527	4	taire	
528	4	touche	
529	4	tremble	
530	4	trois	
531	4	tue	
532	4	tête	
533	4	venger	
534	4	vieux	
535	4	vin	
536	4	vont	
537	4	voulu	
538	4	vraiment	
539	4	écoutez	
540	4	étais	
541	3	abandonner	
542	3	abîmes	
543	3	accordez	
544	3	actions	
545	3	adresse	
546	3	agréable	
547	3	aille	
548	3	amours	
549	3	appelle	
550	3	argent	
551	3	aucune	
552	3	auprès	
553	3	autorise	
554	3	ayez	
555	3	beauté	
556	3	biens	
557	3	bois	
558	3	bouche	
559	3	brutal	
560	3	brûler	
561	3	cache	
562	3	caché	
563	3	capable	
564	3	celle	
565	3	changer	
566	3	compagne	
567	3	congé	
568	3	connaissances	
569	3	courir	
570	3	courons	
571	3	craint	
572	3	cris	
573	3	croire	
574	3	crédit	
575	3	côté	
576	3	côtés	
577	3	danger	
578	3	demeurer	
579	3	demeurez	
580	3	défendre	
581	3	dépit	
582	3	dépêchez	
583	3	désirs	
584	3	détester	
585	3	effronté	
586	3	emporte	
587	3	encor	
588	3	enfant	
589	3	enfants	
590	3	enfers	
591	3	ennuyeux	
592	3	enrager	
593	3	entendre	
594	3	entendu	
595	3	entière	
596	3	estime	
597	3	eu	
598	3	eut	
599	3	face	
600	3	faisons	
601	3	fallait	
602	3	fantôme	
603	3	faquin	
604	3	faudrait	
605	3	fera	
606	3	feras	
607	3	ferme	
608	3	fléchir	
609	3	folle	
610	3	font	
611	3	foudre	
612	3	fureur	
613	3	gibet	
614	3	gourmand	
615	3	grandes	
616	3	grave	
617	3	généreux	
618	3	haut	
619	3	hommes	
620	3	honte	
621	3	hors	
622	3	hé	
623	3	impiété	
624	3	incapable	
625	3	innocent	
626	3	inquiétude	
627	3	insolence	
628	3	interrompre	
629	3	inébranlable	
630	3	irai	
631	3	jusques	
632	3	laisser	
633	3	leurs	
634	3	loi	
635	3	lucie	
636	3	lâche	
637	3	lâches	
638	3	malepeste	
639	3	malheurs	
640	3	marque	
641	3	meilleur	
642	3	mer	
643	3	merci	
644	3	messieurs	
645	3	meurt	
646	3	mienne	
647	3	milieu	
648	3	misérables	
649	3	moindre	
650	3	moments	
651	3	monstre	
652	3	nommez	
653	3	nulle	
654	3	oblige	
655	3	odieux	
656	3	offense	
657	3	or	
658	3	pardonnez	
659	3	parlez	
660	3	parlé	
661	3	parmi	
662	3	parricide	
663	3	passer	
664	3	passions	
665	3	passé	
666	3	patience	
667	3	pauvres	
668	3	pays	
669	3	permets	
670	3	petits	
671	3	pied	
672	3	pierre	
673	3	poudre	
674	3	pourra	
675	3	pourrais	
676	3	pouvez	
677	3	premier	
678	3	presque	
679	3	prophétie	
680	3	prospère	
681	3	quelques	
682	3	quitter	
683	3	raisonnement	
684	3	raisonner	
685	3	ravi	
686	3	reconnaissant	
687	3	rends	
688	3	réduire	
689	3	répondre	
690	3	réserve	
691	3	saut	
692	3	sein	
693	3	sensibles	
694	3	serai	
695	3	sonnez	
696	3	sot	
697	3	su	
698	3	surpris	
699	3	surtout	
700	3	terme	
701	3	tien	
702	3	tiens	
703	3	travaillez	
704	3	trouvé	
705	3	très	
706	3	vainqueur	
707	3	vas	
708	3	verrez	
709	3	vers	
710	3	viendra	
711	3	viennent	
712	3	village	
713	3	visage	
714	3	vitement	
715	3	vivant	
716	3	vivre	
717	3	voyons	
718	3	véritable	
719	3	écueils	
720	3	élever	
721	3	éléments	
722	3	épargnez	
723	3	épouvante	
724	3	évandre	
725	2	abandonne	
726	2	abus	
727	2	abîmer	
728	2	accompagne	
729	2	action	
730	2	adorable	
731	2	affreux	
732	2	affronte	
733	2	aide	
734	2	ailleurs	
735	2	aimerais	
736	2	aise	
737	2	alors	
738	2	ami	
739	2	aminthe	
740	2	amis	
741	2	amoureux	
742	2	annoncer	
743	2	aperçois	
744	2	approches	
745	2	appréhende	
746	2	arrêt	
747	2	arrêté	
748	2	artifice	
749	2	assassiné	
750	2	assistance	
751	2	assomme	
752	2	assurément	
753	2	atteintes	
754	2	attente	
755	2	attrapé	
756	2	aucun	
757	2	autels	
758	2	auteur	
759	2	autrement	
760	2	avait	
761	2	avaler	
762	2	avant	
763	2	avenir	
764	2	aventure	
765	2	avis	
766	2	bande	
767	2	bat	
768	2	battre	
769	2	belles	
770	2	bleu	
771	2	bonheur	
772	2	bonhomme	
773	2	bontés	
774	2	borner	
775	2	bourreau	
776	2	bourreaux	
777	2	branle	
778	2	brutaux	
779	2	captivé	
780	2	cesse	
781	2	cesser	
782	2	chandelle	
783	2	chante	
784	2	chargé	
785	2	cheval	
786	2	chez	
787	2	chiens	
788	2	choquent	
789	2	château	
790	2	ci	
791	2	cinq	
792	2	coeurs	
793	2	combien	
794	2	commande	
795	2	commis	
796	2	commune	
797	2	compagnie	
798	2	compagnons	
799	2	conduit	
800	2	confondu	
801	2	conjoncture	
802	2	conjure	
803	2	conscience	
804	2	conseils	
805	2	constante	
806	2	contente	
807	2	contentements	
808	2	contester	
809	2	contestez	
810	2	cours	
811	2	craignons	
812	2	crains	
813	2	creux	
814	2	croyais	
815	2	curiosité	
816	2	céans	
817	2	céleste	
818	2	damis	
819	2	desseins	
820	2	destins	
821	2	devait	
822	2	devez	
823	2	difficile	
824	2	différents	
825	2	diligence	
826	2	dirai	
827	2	dirait	
828	2	diras	
829	2	direz	
830	2	disait	
831	2	divine	
832	2	donné	
833	2	dorénavant	
834	2	doux	
835	2	drôle	
836	2	découvert	
837	2	défend	
838	2	déguisement	
839	2	délectable	
840	2	déplaisir	
841	2	déplorable	
842	2	désespoir	
843	2	désespère	
844	2	désordre	
845	2	désormais	
846	2	détestable	
847	2	détour	
848	2	détournez	
849	2	effets	
850	2	effroyables	
851	2	employer	
852	2	endroits	
853	2	enfer	
854	2	engage	
855	2	enlevée	
856	2	enlève	
857	2	ennui	
858	2	enrage	
859	2	enragé	
860	2	envoie	
861	2	errer	
862	2	erreurs	
863	2	escorte	
864	2	espérer	
865	2	eussions	
866	2	eux	
867	2	examine	
868	2	exempts	
869	2	exposer	
870	2	exprès	
871	2	extrémité	
872	2	eût	
873	2	facilement	
874	2	faible	
875	2	faiblesse	
876	2	famille	
877	2	fassent	
878	2	fat	
879	2	fausse	
880	2	faveur	
881	2	faveurs	
882	2	feinte	
883	2	fenêtre	
884	2	ferais	
885	2	ferait	
886	2	ferez	
887	2	feriez	
888	2	fermez	
889	2	fers	
890	2	fidèle	
891	2	fine	
892	2	forçons	
893	2	fuir	
894	2	fuite	
895	2	fuyez	
896	2	fête	
897	2	gagner	
898	2	gagné	
899	2	genoux	
900	2	gentille	
901	2	glorieux	
902	2	grotte	
903	2	hasard	
904	2	haïr	
905	2	hem	
906	2	histoire	
907	2	ho	
908	2	horreur	
909	2	horrible	
910	2	humblement	
911	2	humilité	
912	2	hôte	
913	2	impie	
914	2	impitoyable	
915	2	importe	
916	2	importuns	
917	2	impose	
918	2	imprimer	
919	2	impunément	
920	2	indubitable	
921	2	industrie	
922	2	infâmes	
923	2	ingrat	
924	2	inhumain	
925	2	injuste	
926	2	insensée	
927	2	instant	
928	2	inutile	
929	2	jeune	
930	2	joie	
931	2	laisse	
932	2	liberté	
933	2	livrer	
934	2	lois	
935	2	louange	
936	2	luth	
937	2	légitimes	
938	2	mangé	
939	2	marcher	
940	2	mariage	
941	2	martyre	
942	2	massacré	
943	2	matin	
944	2	mauvais	
945	2	meilleure	
946	2	menace	
947	2	menacé	
948	2	meurs	
949	2	monseigneur	
950	2	moquer	
951	2	moquez	
952	2	morceau	
953	2	mourra	
954	2	mourrai	
955	2	mouvement	
956	2	mur	
957	2	mystère	
958	2	mât	
959	2	mène	
960	2	méprisé	
961	2	méritait	
962	2	nenni	
963	2	neptune	
964	2	nom	
965	2	nomme	
966	2	nouveau	
967	2	nouveaux	
968	2	nouvelle	
969	2	nécessité	
970	2	objet	
971	2	obligé	
972	2	occasion	
973	2	octroie	
974	2	offensé	
975	2	oreille	
976	2	oreilles	
977	2	ornement	
978	2	ouvrage	
979	2	ouvre	
980	2	ouïe	
981	2	parait	
982	2	paraît	
983	2	parce	
984	2	pareille	
985	2	partie	
986	2	pendant	
987	2	pendre	
988	2	pensais	
989	2	penses	
990	2	pensez	
991	2	pensées	
992	2	perd	
993	2	perds	
994	2	perfide	
995	2	pernicieux	
996	2	personne	
997	2	pervers	
998	2	pire	
999	2	piège	
1000	2	plein	
1001	2	pluton	
1002	2	porté	
1003	2	pourrai	
1004	2	pouvait	
1005	2	prend	
1006	2	presse	
1007	2	prie	
1008	2	prier	
1009	2	priez	
1010	2	prié	
1011	2	produit	
1012	2	promets	
1013	2	prompt	
1014	2	promptement	
1015	2	prompts	
1016	2	prononcé	
1017	2	proteste	
1018	2	précipite	
1019	2	présentement	
1020	2	prévôts	
1021	2	prêcher	
1022	2	prêts	
1023	2	puisqu	
1024	2	puissance	
1025	2	puissent	
1026	2	punira	
1027	2	quatre	
1028	2	quelles	
1029	2	question	
1030	2	quoique	
1031	2	raillerie	
1032	2	raisonnable	
1033	2	ravisseur	
1034	2	recours	
1035	2	redite	
1036	2	refaire	
1037	2	remarquer	
1038	2	remettez	
1039	2	remis	
1040	2	remords	
1041	2	rencontré	
1042	2	rend	
1043	2	rentrons	
1044	2	renversé	
1045	2	repentant	
1046	2	repentir	
1047	2	reprenez	
1048	2	reproches	
1049	2	respire	
1050	2	restés	
1051	2	retirez	
1052	2	retour	
1053	2	revoir	
1054	2	riche	
1055	2	roi	
1056	2	rois	
1057	2	rougir	
1058	2	rude	
1059	2	règle	
1060	2	réception	
1061	2	réduit	
1062	2	réplique	
1063	2	réservé	
1064	2	réservée	
1065	2	résolus	
1066	2	réussie	
1067	2	sachant	
1068	2	sauriez	
1069	2	sauvé	
1070	2	savent	
1071	2	scélérat	
1072	2	semblable	
1073	2	sensible	
1074	2	sentinelle	
1075	2	sera	
1076	2	seras	
1077	2	sers	
1078	2	servez	
1079	2	service	
1080	2	services	
1081	2	seule	
1082	2	seuls	
1083	2	signe	
1084	2	signes	
1085	2	sincère	
1086	2	solitude	
1087	2	songe	
1088	2	sorte	
1089	2	sortir	
1090	2	sots	
1091	2	soucis	
1092	2	souhaité	
1093	2	soupirs	
1094	2	suite	
1095	2	suivez	
1096	2	superflus	
1097	2	supplices	
1098	2	supplie	
1099	2	supplier	
1100	2	surprend	
1101	2	taille	
1102	2	tarde	
1103	2	tas	
1104	2	teint	
1105	2	tellement	
1106	2	tenter	
1107	2	tenu	
1108	2	teste	
1109	2	tirer	
1110	2	tombe	
1111	2	tomber	
1112	2	tort	
1113	2	touché	
1114	2	tour	
1115	2	tourner	
1116	2	traits	
1117	2	travaillons	
1118	2	traîtrement	
1119	2	treize	
1120	2	trompe	
1121	2	trouverai	
1122	2	tyrannique	
1123	2	univers	
1124	2	valets	
1125	2	valeur	
1126	2	venez	
1127	2	vengée	
1128	2	venu	
1129	2	venue	
1130	2	verra	
1131	2	verrai	
1132	2	verrais	
1133	2	vertus	
1134	2	veuille	
1135	2	victoire	
1136	2	viendrait	
1137	2	viendras	
1138	2	vint	
1139	2	violons	
1140	2	voulais	
1141	2	vouliez	
1142	2	ébranler	
1143	2	échapper	
1144	2	échappé	
1145	2	éclaircir	
1146	2	éclat	
1147	2	écoute	
1148	2	éloigné	
1149	2	épouvantable	
1150	2	époux	
1151	2	étaient	
1152	2	étant	
1153	2	éternel	
1154	2	étrange	
1155	2	évite	
1156	1	abaissait	
1157	1	abandonnons	
1158	1	abattu	
1159	1	abhorrer	
1160	1	abjurer	
1161	1	abominations	
1162	1	aborder	
1163	1	abordons	
1164	1	abreuve	
1165	1	absence	
1166	1	absolument	
1167	1	absolus	
1168	1	abuse	
1169	1	abuser	
1170	1	abîme	
1171	1	accable	
1172	1	accabler	
1173	1	accablé	
1174	1	accident	
1175	1	accidents	
1176	1	accord	
1177	1	accordent	
1178	1	accroître	
1179	1	accuser	
1180	1	achemine	
1181	1	acheter	
1182	1	achever	
1183	1	achevé	
1184	1	acquis	
1185	1	acquit	
1186	1	acquitter	
1187	1	actes	
1188	1	admirable	
1189	1	adorables	
1190	1	adore	
1191	1	adorer	
1192	1	adresser	
1193	1	adroitement	
1194	1	advenu	
1195	1	affamé	
1196	1	affection	
1197	1	afflige	
1198	1	affliger	
1199	1	affligée	
1200	1	affranchir	
1201	1	affreuses	
1202	1	affront	
1203	1	agir	
1204	1	agrippe	
1205	1	agréer	
1206	1	aider	
1207	1	aient	
1208	1	aigrit	
1209	1	aimable	
1210	1	aimables	
1211	1	aiment	
1212	1	aimes	
1213	1	aimée	
1214	1	ais	
1215	1	ajoute	
1216	1	albâtre	
1217	1	alizon	
1218	1	allais	
1219	1	allument	
1220	1	allumée	
1221	1	allé	
1222	1	allégeance	
1223	1	altérer	
1224	1	altérée	
1225	1	alumelle	
1226	1	amante	
1227	1	amaranthe	
1228	1	amie	
1229	1	amoureuses	
1230	1	amère	
1231	1	anacarsis	
1232	1	ange	
1233	1	animaux	
1234	1	anime	
1235	1	animosité	
1236	1	anne	
1237	1	annonce	
1238	1	années	
1239	1	ans	
1240	1	antenne	
1241	1	antipathie	
1242	1	antres	
1243	1	apaisez	
1244	1	aparté	
1245	1	apparence	
1246	1	apparente	
1247	1	apparents	
1248	1	appartement	
1249	1	appartient	
1250	1	appeler	
1251	1	appeliez	
1252	1	appelleriez	
1253	1	apporté	
1254	1	apprendront	
1255	1	apprenez	
1256	1	approchez	
1257	1	approchons	
1258	1	approuve	
1259	1	approuvez	
1260	1	appréhensions	
1261	1	apprête	
1262	1	archers	
1263	1	ardent	
1264	1	ardente	
1265	1	ardeur	
1266	1	armât	
1267	1	arracher	
1268	1	arrive	
1269	1	arrivera	
1270	1	arrête	
1271	1	arrêter	
1272	1	aréthuse	
1273	1	asile	
1274	1	assassine	
1275	1	assassiner	
1276	1	assassins	
1277	1	assignation	
1278	1	assistances	
1279	1	assiège	
1280	1	assouvie	
1281	1	assurance	
1282	1	assure	
1283	1	assurer	
1284	1	assurée	
1285	1	astres	
1286	1	attache	
1287	1	attaquaient	
1288	1	attaquer	
1289	1	atteinte	
1290	1	attendant	
1291	1	attendrir	
1292	1	attendu	
1293	1	attentat	
1294	1	attentifs	
1295	1	atteste	
1296	1	attrape	
1297	1	attraper	
1298	1	audacieux	
1299	1	augmentez	
1300	1	auralinde	
1301	1	auras	
1302	1	auriez	
1303	1	aurions	
1304	1	aurons	
1305	1	auront	
1306	1	aurore	
1307	1	aurélie	
1308	1	autrui	
1309	1	avancer	
1310	1	avantage	
1311	1	avecque	
1312	1	aventures	
1313	1	averti	
1314	1	avertie	
1315	1	avertir	
1316	1	aveu	
1317	1	aveugle	
1318	1	aveuglé	
1319	1	aveuglément	
1320	1	avions	
1321	1	aïeux	
1322	1	babil	
1323	1	badinage	
1324	1	balcon	
1325	1	bannir	
1326	1	barbare	
1327	1	barbarie	
1328	1	barbe	
1329	1	bassesse	
1330	1	batailles	
1331	1	battit	
1332	1	battra	
1333	1	battus	
1334	1	benoîte	
1335	1	bergère	
1336	1	bergères	
1337	1	berlue	
1338	1	bienheureux	
1339	1	bienvenu	
1340	1	blesse	
1341	1	blessé	
1342	1	blessée	
1343	1	blond	
1344	1	blâmable	
1345	1	blâmé	
1346	1	boirai	
1347	1	boirons	
1348	1	boiteuse	
1349	1	boivent	
1350	1	bord	
1351	1	borne	
1352	1	bornées	
1353	1	bourg	
1354	1	bourgeois	
1355	1	bourse	
1356	1	branlé	
1357	1	brave	
1358	1	braver	
1359	1	braverie	
1360	1	bride	
1361	1	brutale	
1362	1	brutalité	
1363	1	brèche	
1364	1	brûlants	
1365	1	buse	
1366	1	bâtons	
1367	1	bélise	
1368	1	bénin	
1369	1	bénis	
1370	1	bérénice	
1371	1	bête	
1372	1	bêtes	
1373	1	bû	
1374	1	cachette	
1375	1	cachez	
1376	1	cachons	
1377	1	cadence	
1378	1	calmez	
1379	1	calotte	
1380	1	camus	
1381	1	camuse	
1382	1	canailles	
1383	1	capables	
1384	1	capricieux	
1385	1	capriole	
1386	1	capture	
1387	1	carreaux	
1388	1	carrefour	
1389	1	carrière	
1390	1	cas	
1391	1	cassé	
1392	1	castor	
1393	1	catin	
1394	1	cause	
1395	1	causent	
1396	1	causeur	
1397	1	caution	
1398	1	celer	
1399	1	cendre	
1400	1	censurer	
1401	1	centre	
1402	1	cents	
1403	1	cercueil	
1404	1	certaines	
1405	1	certains	
1406	1	certes	
1407	1	cervelle	
1408	1	chaleur	
1409	1	chamarrerai	
1410	1	champs	
1411	1	changement	
1412	1	changeons	
1413	1	changé	
1414	1	changés	
1415	1	chanson	
1416	1	chant	
1417	1	chanter	
1418	1	chanterai	
1419	1	chanteras	
1420	1	charmante	
1421	1	charmants	
1422	1	charme	
1423	1	charmeurs	
1424	1	chassa	
1425	1	chaîne	
1426	1	chef	
1427	1	chemins	
1428	1	cherchant	
1429	1	cherches	
1430	1	cherchons	
1431	1	chers	
1432	1	cheveux	
1433	1	choisi	
1434	1	choix	
1435	1	choquant	
1436	1	chèrement	
1437	1	chêne	
1438	1	circonstances	
1439	1	clairement	
1440	1	claude	
1441	1	climat	
1442	1	climats	
1443	1	cloris	
1444	1	clémence	
1445	1	coin	
1446	1	col	
1447	1	comble	
1448	1	comblé	
1449	1	commandement	
1450	1	commander	
1451	1	commet	
1452	1	commodément	
1453	1	commun	
1454	1	comparaison	
1455	1	compatir	
1456	1	complaisance	
1457	1	compliments	
1458	1	comprendre	
1459	1	comprends	
1460	1	compte	
1461	1	compère	
1462	1	comte	
1463	1	conception	
1464	1	concevra	
1465	1	conclu	
1466	1	conclure	
1467	1	condamnée	
1468	1	conduire	
1469	1	confesse	
1470	1	confirmer	
1471	1	conférence	
1472	1	conférer	
1473	1	connaissance	
1474	1	connaissez	
1475	1	consacrer	
1476	1	consentir	
1477	1	conserver	
1478	1	considérez	
1479	1	consolation	
1480	1	constance	
1481	1	consulter	
1482	1	contenterai	
1483	1	contentez	
1484	1	contenté	
1485	1	conter	
1486	1	contestations	
1487	1	contez	
1488	1	continuez	
1489	1	contredit	
1490	1	contribué	
1491	1	contrée	
1492	1	converse	
1493	1	conçoive	
1494	1	conçut	
1495	1	corbeaux	
1496	1	cornemuse	
1497	1	cornent	
1498	1	corrompre	
1499	1	cou	
1500	1	couler	
1501	1	coulé	
1502	1	coupables	
1503	1	coupait	
1504	1	couper	
1505	1	courant	
1506	1	courrai	
1507	1	courroux	
1508	1	couverts	
1509	1	couvre	
1510	1	coûta	
1511	1	coûte	
1512	1	coûtera	
1513	1	coûté	
1514	1	craignez	
1515	1	craindrai	
1516	1	craintes	
1517	1	crapauds	
1518	1	crevé	
1519	1	criminel	
1520	1	croirez	
1521	1	croiront	
1522	1	croit	
1523	1	croyait	
1524	1	cru	
1525	1	cruelle	
1526	1	cruels	
1527	1	créance	
1528	1	cuisants	
1529	1	cure	
1530	1	célestes	
1531	1	céphise	
1532	1	côtes	
1533	1	dames	
1534	1	damnables	
1535	1	danse	
1536	1	danube	
1537	1	dehors	
1538	1	demandent	
1539	1	demandé	
1540	1	demeurons	
1541	1	demeuré	
1542	1	demi	
1543	1	dent	
1544	1	dents	
1545	1	derniers	
1546	1	derrière	
1547	1	destine	
1548	1	destinée	
1549	1	devenir	
1550	1	devenu	
1551	1	devient	
1552	1	devin	
1553	1	deviner	
1554	1	devons	
1555	1	devrais	
1556	1	devriez	
1557	1	diablement	
1558	1	diane	
1559	1	difficulté	
1560	1	différer	
1561	1	digne	
1562	1	disaient	
1563	1	disant	
1564	1	discret	
1565	1	disgrâce	
1566	1	disposer	
1567	1	distiller	
1568	1	divertissante	
1569	1	divin	
1570	1	dix	
1571	1	doigt	
1572	1	donna	
1573	1	donnent	
1574	1	doralis	
1575	1	douceur	
1576	1	douleurs	
1577	1	douter	
1578	1	doutes	
1579	1	doutez	
1580	1	douté	
1581	1	droit	
1582	1	droite	
1583	1	dupée	
1584	1	dur	
1585	1	dure	
1586	1	durera	
1587	1	dusse	
1588	1	débauches	
1589	1	début	
1590	1	décharger	
1591	1	déchirer	
1592	1	décille	
1593	1	déclarent	
1594	1	découvre	
1595	1	découvrirai	
1596	1	décret	
1597	1	décrets	
1598	1	décrété	
1599	1	dédit	
1600	1	déduire	
1601	1	défaire	
1602	1	défaut	
1603	1	défendent	
1604	1	défense	
1605	1	déguisons	
1606	1	délassés	
1607	1	délicatement	
1608	1	délices	
1609	1	délicieux	
1610	1	démarche	
1611	1	dénichons	
1612	1	dépends	
1613	1	dépens	
1614	1	dépense	
1615	1	dépenserez	
1616	1	dépite	
1617	1	déplait	
1618	1	dépouiller	
1619	1	dépouillera	
1620	1	dépouillés	
1621	1	dépêcher	
1622	1	dérobai	
1623	1	désespérée	
1624	1	déshonoré	
1625	1	déshonorée	
1626	1	déshériter	
1627	1	désire	
1628	1	détestables	
1629	1	détourne	
1630	1	détourneraient	
1631	1	détruirait	
1632	1	détruite	
1633	1	dévorant	
1634	1	dévorants	
1635	1	dévotion	
1636	1	dû	
1637	1	dûssé	
1638	1	dût	
1639	1	echappé	
1640	1	efface	
1641	1	effarouchons	
1642	1	effectue	
1643	1	effort	
1644	1	efforts	
1645	1	effroi	
1646	1	effrontés	
1647	1	effroyable	
1648	1	elles	
1649	1	embraser	
1650	1	embrassait	
1651	1	empire	
1652	1	employez	
1653	1	empoisonnât	
1654	1	empoisonné	
1655	1	emportais	
1656	1	emporté	
1657	1	empresserai	
1658	1	empêcher	
1659	1	empêcherais	
1660	1	encelade	
1661	1	endurer	
1662	1	enfilons	
1663	1	engagé	
1664	1	engloutir	
1665	1	engloutit	
1666	1	enlevées	
1667	1	ennemi	
1668	1	ennuierait	
1669	1	ennuis	
1670	1	entasser	
1671	1	entend	
1672	1	entièrement	
1673	1	entracte	
1674	1	entrant	
1675	1	entreprend	
1676	1	entrepris	
1677	1	entreprise	
1678	1	entrer	
1679	1	entretenir	
1680	1	entretenu	
1681	1	entretien	
1682	1	entretiendrai	
1683	1	entretiens	
1684	1	entrons	
1685	1	entrouverts	
1686	1	envisagerai	
1687	1	envoyer	
1688	1	erreur	
1689	1	es	
1690	1	escalade	
1691	1	espoir	
1692	1	espérant	
1693	1	estoc	
1694	1	etat	
1695	1	euphrate	
1696	1	eussiez	
1697	1	evandre	
1698	1	exauçant	
1699	1	excita	
1700	1	excès	
1701	1	exercer	
1702	1	exiger	
1703	1	expier	
1704	1	expire	
1705	1	expirer	
1706	1	exposeras	
1707	1	exposée	
1708	1	exquis	
1709	1	extasié	
1710	1	exterminer	
1711	1	extravague	
1712	1	extrêmement	
1713	1	extrêmes	
1714	1	exécuter	
1715	1	fables	
1716	1	facile	
1717	1	faconde	
1718	1	faction	
1719	1	faille	
1720	1	faim	
1721	1	faite	
1722	1	fanchon	
1723	1	faquins	
1724	1	faucher	
1725	1	faute	
1726	1	faux	
1727	1	favorable	
1728	1	favorablement	
1729	1	feindre	
1730	1	femme	
1731	1	femmes	
1732	1	fermer	
1733	1	feront	
1734	1	feux	
1735	1	fidèles	
1736	1	fidélité	
1737	1	fierté	
1738	1	figure	
1739	1	filles	
1740	1	finement	
1741	1	finissez	
1742	1	fis	
1743	1	fissiez	
1744	1	fit	
1745	1	flatte	
1746	1	flûteurs	
1747	1	fol	
1748	1	folie	
1749	1	fond	
1750	1	fondre	
1751	1	forcer	
1752	1	forcée	
1753	1	forcées	
1754	1	forge	
1755	1	fortuitement	
1756	1	fortune	
1757	1	forêt	
1758	1	foudroient	
1759	1	foulant	
1760	1	foule	
1761	1	frapper	
1762	1	frappé	
1763	1	frayeur	
1764	1	fripon	
1765	1	fripons	
1766	1	frisson	
1767	1	frissonner	
1768	1	frivole	
1769	1	froideur	
1770	1	frotte	
1771	1	frotter	
1772	1	frère	
1773	1	fréquents	
1774	1	fumée	
1775	1	funestes	
1776	1	fureurs	
1777	1	furète	
1778	1	fuyaient	
1779	1	fuyons	
1780	1	fâcheriez	
1781	1	fêlé	
1782	1	gaillarde	
1783	1	galant	
1784	1	gange	
1785	1	garantir	
1786	1	gardera	
1787	1	gardons	
1788	1	gargamelle	
1789	1	garnie	
1790	1	garçon	
1791	1	gauche	
1792	1	gauchir	
1793	1	gazon	
1794	1	gonin	
1795	1	gouffre	
1796	1	gouffres	
1797	1	gourmades	
1798	1	goûter	
1799	1	grande	
1800	1	graver	
1801	1	griffe	
1802	1	grilles	
1803	1	grimper	
1804	1	gripper	
1805	1	grippé	
1806	1	grottes	
1807	1	grue	
1808	1	gré	
1809	1	guet	
1810	1	guide	
1811	1	guère	
1812	1	guérite	
1813	1	gâter	
1814	1	gâté	
1815	1	gêne	
1816	1	gîte	
1817	1	ha	
1818	1	habillement	
1819	1	hait	
1820	1	hameau	
1821	1	harangueur	
1822	1	hardis	
1823	1	hasarder	
1824	1	hautes	
1825	1	heurte	
1826	1	heurter	
1827	1	hier	
1828	1	homicide	
1829	1	homicides	
1830	1	horreurs	
1831	1	horribles	
1832	1	humain	
1833	1	humains	
1834	1	hymen	
1835	1	hypocrite	
1836	1	hypocrites	
1837	1	hâtons	
1838	1	hère	
1839	1	hémisphère	
1840	1	hérisser	
1841	1	héréditaires	
1842	1	hôtellerie	
1843	1	idée	
1844	1	ignorance	
1845	1	illustre	
1846	1	illégitime	
1847	1	imitez	
1848	1	immortelle	
1849	1	immuable	
1850	1	impatience	
1851	1	impies	
1852	1	implorer	
1853	1	imploriez	
1854	1	imploré	
1855	1	important	
1856	1	importun	
1857	1	importune	
1858	1	importuner	
1859	1	importunités	
1860	1	imposer	
1861	1	impossible	
1862	1	imprime	
1863	1	imprévu	
1864	1	impunité	
1865	1	in	
1866	1	incartades	
1867	1	incivilité	
1868	1	inclinations	
1869	1	incommoderait	
1870	1	incommodités	
1871	1	incomparable	
1872	1	inconnus	
1873	1	inconsolable	
1874	1	inconstante	
1875	1	indomptable	
1876	1	indompté	
1877	1	indécence	
1878	1	infaillible	
1879	1	infernale	
1880	1	infinies	
1881	1	influé	
1882	1	informerai	
1883	1	ingénue	
1884	1	inhumainement	
1885	1	injure	
1886	1	injures	
1887	1	innocents	
1888	1	insatiable	
1889	1	insensiblement	
1890	1	insensés	
1891	1	insigne	
1892	1	insolents	
1893	1	instincts	
1894	1	instruire	
1895	1	intelligence	
1896	1	intelligents	
1897	1	interdit	
1898	1	interdite	
1899	1	interdites	
1900	1	interprète	
1901	1	interromps	
1902	1	intimider	
1903	1	intrépide	
1904	1	intérêt	
1905	1	invincible	
1906	1	invité	
1907	1	invoquer	
1908	1	inévitable	
1909	1	iras	
1910	1	irriter	
1911	1	irrité	
1912	1	irrésolue	
1913	1	irrévocable	
1914	1	irrévérence	
1915	1	isabelle	
1916	1	ivrogne	
1917	1	ixion	
1918	1	jacqueline	
1919	1	jadis	
1920	1	jalousie	
1921	1	jaloux	
1922	1	jette	
1923	1	jeunes	
1924	1	jeûner	
1925	1	joconde	
1926	1	joindra	
1927	1	joindrai	
1928	1	joints	
1929	1	jourdain	
1930	1	journaliers	
1931	1	journée	
1932	1	joyaux	
1933	1	jugement	
1934	1	jupiter	
1935	1	jure	
1936	1	jurer	
1937	1	juré	
1938	1	jusque	
1939	1	justaucorps	
1940	1	laissa	
1941	1	laissons	
1942	1	laissé	
1943	1	lamentables	
1944	1	langage	
1945	1	langoureux	
1946	1	langue	
1947	1	langueurs	
1948	1	languir	
1949	1	languissant	
1950	1	lanturelu	
1951	1	laquelle	
1952	1	largue	
1953	1	larmes	
1954	1	larron	
1955	1	lasser	
1956	1	laure	
1957	1	lavés	
1958	1	lendemain	
1959	1	leste	
1960	1	lettre	
1961	1	leçons	
1962	1	libertés	
1963	1	libéral	
1964	1	ligués	
1965	1	limité	
1966	1	liquide	
1967	1	lit	
1968	1	livre	
1969	1	livrez	
1970	1	loisir	
1971	1	longs	
1972	1	lors	
1973	1	loups	
1974	1	loués	
1975	1	lucrèce	
1976	1	lumière	
1977	1	lutin	
1978	1	lâchement	
1979	1	légers	
1980	1	légitime	
1981	1	madrid	
1982	1	mage	
1983	1	magnifiques	
1984	1	mainte	
1985	1	malades	
1986	1	malheureuse	
1987	1	malins	
1988	1	mangerais	
1989	1	mangeras	
1990	1	manges	
1991	1	manie	
1992	1	manifeste	
1993	1	manque	
1994	1	manquer	
1995	1	manquez	
1996	1	maraud	
1997	1	marcelle	
1998	1	marche	
1999	1	margot	
2000	1	marier	
2001	1	mariée	
2002	1	marquent	
2003	1	mascarades	
2004	1	matière	
2005	1	matières	
2006	1	maudira	
2007	1	maudire	
2008	1	maudissez	
2009	1	maudit	
2010	1	maudite	
2011	1	maudits	
2012	1	meilleures	
2013	1	meilleurs	
2014	1	menacer	
2015	1	menacés	
2016	1	menti	
2017	1	mené	
2018	1	mers	
2019	1	merveille	
2020	1	merveilles	
2021	1	mettait	
2022	1	mettent	
2023	1	mettez	
2024	1	mettons	
2025	1	mettra	
2026	1	mettrait	
2027	1	mettront	
2028	1	meurtri	
2029	1	meurtrier	
2030	1	meurtriers	
2031	1	mien	
2032	1	miennes	
2033	1	miens	
2034	1	mine	
2035	1	miracle	
2036	1	mirmidons	
2037	1	miroir	
2038	1	miséricorde	
2039	1	mode	
2040	1	modérez	
2041	1	moindres	
2042	1	moitié	
2043	1	montagne	
2044	1	montagnes	
2045	1	monter	
2046	1	montre	
2047	1	montrez	
2048	1	monté	
2049	1	moque	
2050	1	mortel	
2051	1	mortels	
2052	1	mourait	
2053	1	mourant	
2054	1	mourante	
2055	1	mourront	
2056	1	mousse	
2057	1	mugir	
2058	1	murailles	
2059	1	murmure	
2060	1	méchants	
2061	1	mélancolique	
2062	1	mélinte	
2063	1	mémoire	
2064	1	ménageons	
2065	1	ménager	
2066	1	méprendre	
2067	1	mépris	
2068	1	méprise	
2069	1	mépriser	
2070	1	méritais	
2071	1	mérite	
2072	1	métamorphose	
2073	1	mêlent	
2074	1	mêlez	
2075	1	mêmes	
2076	1	mûrement	
2077	1	nage	
2078	1	nager	
2079	1	naître	
2080	1	nez	
2081	1	nil	
2082	1	nitocris	
2083	1	nobles	
2084	1	noces	
2085	1	noir	
2086	1	noirs	
2087	1	noms	
2088	1	notable	
2089	1	nourrir	
2090	1	nouvelles	
2091	1	nue	
2092	1	nuitamment	
2093	1	nuée	
2094	1	nécessairement	
2095	1	négligent	
2096	1	nérinde	
2097	1	objets	
2098	1	obligent	
2099	1	obligez	
2100	1	obligée	
2101	1	obliques	
2102	1	obscurcir	
2103	1	obscurcissez	
2104	1	obscure	
2105	1	obstacle	
2106	1	obtenir	
2107	1	obtiendra	
2108	1	obtiendras	
2109	1	obtiens	
2110	1	obéir	
2111	1	obéissance	
2112	1	obéit	
2113	1	occupée	
2114	1	oeuvre	
2115	1	offenser	
2116	1	offerts	
2117	1	offices	
2118	1	offre	
2119	1	oh	
2120	1	oie	
2121	1	oisifs	
2122	1	ombrage	
2123	1	oppose	
2124	1	orage	
2125	1	orante	
2126	1	orcas	
2127	1	ordinaire	
2128	1	ordonne	
2129	1	ordonnera	
2130	1	osait	
2131	1	ose	
2132	1	oser	
2133	1	oserai	
2134	1	osez	
2135	1	osé	
2136	1	oublier	
2137	1	outrageriez	
2138	1	outragez	
2139	1	outre	
2140	1	ouvert	
2141	1	ouverte	
2142	1	ouvrir	
2143	1	pace	
2144	1	pagnotte	
2145	1	paisible	
2146	1	paix	
2147	1	papier	
2148	1	paquette	
2149	1	paraissais	
2150	1	parbleu	
2151	1	pardonne	
2152	1	pardonner	
2153	1	pareil	
2154	1	parlera	
2155	1	parque	
2156	1	parricides	
2157	1	partir	
2158	1	partis	
2159	1	paru	
2160	1	pasithée	
2161	1	passablement	
2162	1	passaient	
2163	1	passant	
2164	1	passants	
2165	1	passée	
2166	1	passés	
2167	1	paupière	
2168	1	pauvrette	
2169	1	pavots	
2170	1	payer	
2171	1	paysans	
2172	1	payés	
2173	1	pedre	
2174	1	pend	
2175	1	pendra	
2176	1	perdez	
2177	1	perdiez	
2178	1	perdra	
2179	1	perdu	
2180	1	perdue	
2181	1	permettre	
2182	1	permis	
2183	1	perplexités	
2184	1	perrette	
2185	1	persuades	
2186	1	persévérance	
2187	1	perçons	
2188	1	petite	
2189	1	philis	
2190	1	pins	
2191	1	pique	
2192	1	pistolet	
2193	1	piteux	
2194	1	pitoyable	
2195	1	pitoyables	
2196	1	pièce	
2197	1	plaignez	
2198	1	plains	
2199	1	plaintes	
2200	1	plaire	
2201	1	plais	
2202	1	plaisante	
2203	1	plaise	
2204	1	plaisir	
2205	1	plait	
2206	1	plaît	
2207	1	pleines	
2208	1	pleurer	
2209	1	pleurez	
2210	1	plonges	
2211	1	plu	
2212	1	plâtre	
2213	1	poche	
2214	1	poil	
2215	1	poing	
2216	1	pointures	
2217	1	policrite	
2218	1	portais	
2219	1	porterait	
2220	1	portes	
2221	1	portez	
2222	1	portons	
2223	1	posez	
2224	1	possesseur	
2225	1	possible	
2226	1	possèdes	
2227	1	posé	
2228	1	potence	
2229	1	pouce	
2230	1	pourraient	
2231	1	pourras	
2232	1	pourrez	
2233	1	pourriez	
2234	1	pourrons	
2235	1	poursuite	
2236	1	poursuivez	
2237	1	poursuivrai	
2238	1	poursuivre	
2239	1	pourtant	
2240	1	pourvoir	
2241	1	pousser	
2242	1	poussé	
2243	1	pouvais	
2244	1	pouvons	
2245	1	première	
2246	1	prendrai	
2247	1	prendrais	
2248	1	prendrait	
2249	1	prendrez	
2250	1	prendriez	
2251	1	prenons	
2252	1	prescrire	
2253	1	prescris	
2254	1	prescrit	
2255	1	pressant	
2256	1	pressé	
2257	1	prince	
2258	1	principalement	
2259	1	prions	
2260	1	prise	
2261	1	prière	
2262	1	prières	
2263	1	priée	
2264	1	prodige	
2265	1	prodigieux	
2266	1	profiter	
2267	1	profitiez	
2268	1	profitons	
2269	1	projets	
2270	1	promesse	
2271	1	promettre	
2272	1	propre	
2273	1	propres	
2274	1	prose	
2275	1	proserpine	
2276	1	prospères	
2277	1	proverbe	
2278	1	province	
2279	1	précaution	
2280	1	prédication	
2281	1	prédiction	
2282	1	prédits	
2283	1	préoccupée	
2284	1	préparez	
2285	1	préparés	
2286	1	présage	
2287	1	présence	
2288	1	présenta	
2289	1	présentait	
2290	1	présentent	
2291	1	présenter	
2292	1	présenté	
2293	1	préside	
2294	1	présumant	
2295	1	présume	
2296	1	présumes	
2297	1	prétendez	
2298	1	prévenir	
2299	1	préviendrai	
2300	1	prévois	
2301	1	prévu	
2302	1	prête	
2303	1	prêtez	
2304	1	pucelle	
2305	1	puissances	
2306	1	puissants	
2307	1	puni	
2308	1	punissez	
2309	1	punition	
2310	1	pure	
2311	1	pus	
2312	1	pyrame	
2313	1	pâme	
2314	1	pâté	
2315	1	pèdre	
2316	1	pères	
2317	1	périr	
2318	1	périssable	
2319	1	périsse	
2320	1	péronnelle	
2321	1	pût	
2322	1	quart	
2323	1	quelquefois	
2324	1	quiconque	
2325	1	quiescat	
2326	1	quinze	
2327	1	quittant	
2328	1	quitté	
2329	1	quoiqu	
2330	1	quête	
2331	1	radieux	
2332	1	radotais	
2333	1	radoucis	
2334	1	railler	
2335	1	raillez	
2336	1	raisonne	
2337	1	raisonnements	
2338	1	raisonnons	
2339	1	rang	
2340	1	rappelle	
2341	1	rare	
2342	1	rassurer	
2343	1	ravage	
2344	1	ravissement	
2345	1	rebelles	
2346	1	recevoir	
2347	1	recherchant	
2348	1	recherches	
2349	1	recommence	
2350	1	reconnais	
2351	1	reconnaître	
2352	1	redites	
2353	1	redouble	
2354	1	redoubler	
2355	1	redoutable	
2356	1	refus	
2357	1	refusiez	
2358	1	regagnons	
2359	1	regardons	
2360	1	regards	
2361	1	rejoindre	
2362	1	remettre	
2363	1	remise	
2364	1	remontrances	
2365	1	remontrer	
2366	1	rempli	
2367	1	rencontrer	
2368	1	rendit	
2369	1	rendrons	
2370	1	rendu	
2371	1	renom	
2372	1	renoncent	
2373	1	renoncez	
2374	1	rentrer	
2375	1	renverse	
2376	1	renverser	
2377	1	repasse	
2378	1	repentance	
2379	1	repentirs	
2380	1	repose	
2381	1	reposez	
2382	1	respect	
2383	1	respecter	
2384	1	respects	
2385	1	respirait	
2386	1	ressent	
2387	1	resserre	
2388	1	resserrons	
2389	1	ressort	
2390	1	ressouviens	
2391	1	rester	
2392	1	restera	
2393	1	restes	
2394	1	retarder	
2395	1	retenez	
2396	1	retiennent	
2397	1	retirer	
2398	1	retirons	
2399	1	retirés	
2400	1	retourner	
2401	1	revenir	
2402	1	reverras	
2403	1	reviendrons	
2404	1	revient	
2405	1	revêtait	
2406	1	rhin	
2407	1	rigoureuses	
2408	1	rigoureux	
2409	1	rire	
2410	1	ris	
2411	1	risque	
2412	1	rit	
2413	1	rochers	
2414	1	roches	
2415	1	rodant	
2416	1	romprai	
2417	1	rompu	
2418	1	ronde	
2419	1	roquetaillade	
2420	1	rouerait	
2421	1	roule	
2422	1	roulé	
2423	1	route	
2424	1	routes	
2425	1	rubans	
2426	1	règne	
2427	1	récompenses	
2428	1	réduirai	
2429	1	réduite	
2430	1	réflexion	
2431	1	réfléchissez	
2432	1	régaler	
2433	1	régler	
2434	1	réjouis	
2435	1	répandre	
2436	1	réparer	
2437	1	répliques	
2438	1	répondant	
2439	1	répondez	
2440	1	répondrez	
2441	1	réponse	
2442	1	réprouvés	
2443	1	répugnance	
2444	1	résipiscence	
2445	1	résistance	
2446	1	résister	
2447	1	résistez	
2448	1	résolue	
2449	1	résolution	
2450	1	résoudre	
2451	1	réussi	
2452	1	réussira	
2453	1	réveil	
2454	1	révoltés	
2455	1	révélé	
2456	1	révérence	
2457	1	rêve	
2458	1	rêveries	
2459	1	rêvez	
2460	1	rôle	
2461	1	sache	
2462	1	sachez	
2463	1	sachons	
2464	1	sacrifier	
2465	1	sacré	
2466	1	sage	
2467	1	sain	
2468	1	saint	
2469	1	saisi	
2470	1	saisir	
2471	1	sales	
2472	1	sanglant	
2473	1	santé	
2474	1	satellites	
2475	1	satisfaire	
2476	1	satisfait	
2477	1	sauf	
2478	1	saurai	
2479	1	sauraient	
2480	1	saurais	
2481	1	sauront	
2482	1	sauté	
2483	1	sauve	
2484	1	sauvez	
2485	1	sauvons	
2486	1	sauvées	
2487	1	savoure	
2488	1	savoureux	
2489	1	sculpture	
2490	1	scélérats	
2491	1	sec	
2492	1	secondes	
2493	1	secouru	
2494	1	secret	
2495	1	secrète	
2496	1	secrètes	
2497	1	secs	
2498	1	seize	
2499	1	sentiers	
2500	1	sentons	
2501	1	serez	
2502	1	sergents	
2503	1	serpents	
2504	1	serrerai	
2505	1	servant	
2506	1	servi	
2507	1	serviras	
2508	1	sexe	
2509	1	signaler	
2510	1	silence	
2511	1	simples	
2512	1	sinistres	
2513	1	sinon	
2514	1	six	
2515	1	siècle	
2516	1	siège	
2517	1	soi	
2518	1	soient	
2519	1	soigneusement	
2520	1	solides	
2521	1	sombre	
2522	1	somme	
2523	1	sommeil	
2524	1	sonder	
2525	1	songer	
2526	1	songeriez	
2527	1	songes	
2528	1	songiez	
2529	1	sortais	
2530	1	sortie	
2531	1	sottement	
2532	1	sou	
2533	1	souci	
2534	1	soufferte	
2535	1	soufferts	
2536	1	souffle	
2537	1	soufflerai	
2538	1	soufflet	
2539	1	souffre	
2540	1	souffres	
2541	1	souffrirai	
2542	1	souhait	
2543	1	souhaite	
2544	1	souhaits	
2545	1	souiller	
2546	1	soumissions	
2547	1	soupire	
2548	1	soupçonne	
2549	1	sources	
2550	1	sourcils	
2551	1	soustrait	
2552	1	souvenez	
2553	1	souvenir	
2554	1	souverain	
2555	1	souviens	
2556	1	stable	
2557	1	suborneur	
2558	1	subsister	
2559	1	succombant	
2560	1	sue	
2561	1	sueur	
2562	1	suggère	
2563	1	suit	
2564	1	suivant	
2565	1	suives	
2566	1	suivi	
2567	1	suivies	
2568	1	sujet	
2569	1	sujettes	
2570	1	superstition	
2571	1	supporter	
2572	1	supportez	
2573	1	supprimons	
2574	1	suprême	
2575	1	suprêmes	
2576	1	surgis	
2577	1	surprenant	
2578	1	surprends	
2579	1	surprises	
2580	1	surprit	
2581	1	sus	
2582	1	sustenter	
2583	1	suzon	
2584	1	sylvie	
2585	1	sèche	
2586	1	sèment	
2587	1	séchant	
2588	1	séchons	
2589	1	séjour	
2590	1	séjourner	
2591	1	séquelle	
2592	1	sûre	
2593	1	sûreté	
2594	1	tage	
2595	1	talons	
2596	1	tandis	
2597	1	tantale	
2598	1	tarder	
2599	1	tardez	
2600	1	tardons	
2601	1	tarquin	
2602	1	telle	
2603	1	telles	
2604	1	tempêtes	
2605	1	tenait	
2606	1	tendre	
2607	1	tendresse	
2608	1	tenir	
2609	1	tentent	
2610	1	tenté	
2611	1	ternir	
2612	1	ternissent	
2613	1	thisbé	
2614	1	tibre	
2615	1	tiendras	
2616	1	tiendrez	
2617	1	tienne	
2618	1	tigre	
2619	1	timbre	
2620	1	timide	
2621	1	timidité	
2622	1	titre	
2623	1	tonnerres	
2624	1	torture	
2625	1	touchants	
2626	1	toucherai	
2627	1	toucherais	
2628	1	touchez	
2629	1	tourmenter	
2630	1	tours	
2631	1	trahison	
2632	1	trahit	
2633	1	trait	
2634	1	traiter	
2635	1	transis	
2636	1	transports	
2637	1	travaux	
2638	1	travers	
2639	1	traversé	
2640	1	traversées	
2641	1	traversés	
2642	1	tremblant	
2643	1	tremblent	
2644	1	trembles	
2645	1	trente	
2646	1	tribunal	
2647	1	triomphez	
2648	1	triste	
2649	1	tristes	
2650	1	tristesse	
2651	1	tritons	
2652	1	tromper	
2653	1	trompette	
2654	1	trompée	
2655	1	trou	
2656	1	troubler	
2657	1	troublé	
2658	1	trous	
2659	1	trouvai	
2660	1	trouvant	
2661	1	trouve	
2662	1	trouverais	
2663	1	trouverons	
2664	1	trébuche	
2665	1	trébucher	
2666	1	trépasser	
2667	1	trépassés	
2668	1	trépigner	
2669	1	trêve	
2670	1	tuer	
2671	1	tuerez	
2672	1	tueurs	
2673	1	tuez	
2674	1	tué	
2675	1	tyran	
2676	1	tyrans	
2677	1	tâche	
2678	1	tâchons	
2679	1	tâter	
2680	1	témoigne	
2681	1	unique	
2682	1	use	
2683	1	user	
2684	1	vagabond	
2685	1	vagabondes	
2686	1	vagues	
2687	1	vaillance	
2688	1	vaillant	
2689	1	vain	
2690	1	vaincre	
2691	1	vaines	
2692	1	vainqueurs	
2693	1	vains	
2694	1	vaisseau	
2695	1	valait	
2696	1	vanité	
2697	1	vaudrait	
2698	1	vaudront	
2699	1	vaut	
2700	1	vautour	
2701	1	venait	
2702	1	venelle	
2703	1	vengerai	
2704	1	vengeurs	
2705	1	vengé	
2706	1	vent	
2707	1	ventre	
2708	1	vents	
2709	1	venus	
2710	1	verdure	
2711	1	verre	
2712	1	verres	
2713	1	verse	
2714	1	vert	
2715	1	vertu	
2716	1	veulent	
2717	1	viande	
2718	1	vice	
2719	1	vices	
2720	1	victime	
2721	1	vieillesse	
2722	1	viendrez	
2723	1	vienne	
2724	1	viença	
2725	1	vif	
2726	1	vigilants	
2727	1	viol	
2728	1	violante	
2729	1	viole	
2730	1	violent	
2731	1	violée	
2732	1	visible	
2733	1	visite	
2734	1	visites	
2735	1	vit	
2736	1	vives	
2737	1	voie	
2738	1	voleur	
2739	1	volontiers	
2740	1	volontés	
2741	1	voudra	
2742	1	voudrait	
2743	1	voulaient	
2744	1	voulons	
2745	1	voulût	
2746	1	voyage	
2747	1	voyagez	
2748	1	voyant	
2749	1	vêtir	
2750	1	vôtre	
2751	1	vôtres	
2752	1	zot	
2753	1	çà	
2754	1	éblouis	
2755	1	échauguette	
2756	1	éclairer	
2757	1	éclairs	
2758	1	éclatant	
2759	1	éclatent	
2760	1	éclater	
2761	1	éclats	
2762	1	écoule	
2763	1	écoutiez	
2764	1	écoutons	
2765	1	écouté	
2766	1	écraser	
2767	1	écrasé	
2768	1	écrite	
2769	1	écrits	
2770	1	écueil	
2771	1	égal	
2772	1	égaudir	
2773	1	élevés	
2774	1	éloigner	
2775	1	élément	
2776	1	énormité	
2777	1	épaisseur	
2778	1	épargné	
2779	1	épitaphe	
2780	1	éplorée	
2781	1	épouse	
2782	1	épouser	
2783	1	épousera	
2784	1	épouvantables	
2785	1	épouvantera	
2786	1	éprouver	
2787	1	éprouverez	
2788	1	épuiser	
2789	1	ériger	
2790	1	étaler	
2791	1	étendu	
2792	1	éternelle	
2793	1	éternelles	
2794	1	éternels	
2795	1	étiez	
2796	1	étonnement	
2797	1	étouffe	
2798	1	étouffez	
2799	1	étrangers	
2800	1	étranges	
2801	1	été	
2802	1	évanoui	
2803	1	évaporent	
2804	1	ôte	
2805	1	ôtent	
2806	1	ôterais	
2807	1	ôteriez	
2808	1	ôtez	
