1,460,de
2,425,je
3,420,que
4,389,et
5,385,vous
6,258,l
7,258,le
8,232,la
9,223,est
10,211,qu
11,209,il
12,205,ce
13,204,mon
14,188,en
15,188,à
16,178,un
17,172,ne
18,158,d
19,146,qui
20,142,me
21,129,ma
22,126,mais
23,111,pour
24,104,j
25,100,les
26,100,m
27,100,n
28,96,on
29,94,si
30,92,votre
31,90,des
32,89,pas
33,85,ah
34,82,a
35,79,dans
36,76,fils
37,74,sa
38,72,bien
39,71,son
40,70,ai
41,70,cette
42,69,plus
43,68,point
44,68,sans
45,64,c
46,61,mère
47,59,mes
48,58,du
49,57,fait
50,55,par
51,55,une
52,54,au
53,53,s
54,51,se
55,50,vos
56,48,roi
57,47,elle
58,47,honneur
59,47,où
60,46,amour
61,46,maxime
62,46,quoi
63,45,faire
64,45,lui
65,45,peut
66,44,nous
67,43,moi
68,41,sindéric
69,41,tout
70,40,cet
71,40,donc
72,40,julie
73,38,puis
74,37,avec
75,37,trop
76,37,voir
77,36,nature
78,36,sang
79,35,âme
80,34,dois
81,34,même
82,31,coeur
83,31,grand
84,31,ont
85,31,être
86,30,jamais
87,30,madame
88,30,raison
89,29,aujourd
90,29,hui
91,29,quelque
92,29,seigneur
93,29,tous
94,28,hélas
95,28,sont
96,28,suis
97,27,enfin
98,27,ou
99,26,dieux
100,26,non
101,26,ses
102,25,ces
103,25,dont
104,24,ainsi
105,24,comme
106,24,dedans
107,24,dit
108,24,gloire
109,22,aux
110,22,faut
111,22,nos
112,22,tu
113,22,veut
114,21,amant
115,21,avez
116,21,bonheur
117,21,dessein
118,21,esprit
119,21,quand
120,21,rien
121,21,rome
122,21,tant
123,21,vertu
124,20,yeux
125,19,veux
126,19,voeux
127,18,après
128,18,avoir
129,18,discours
130,18,faveur
131,18,leur
132,18,t
133,17,crime
134,17,doit
135,17,malheur
136,17,nom
137,17,sais
138,17,te
139,17,vient
140,17,êtes
141,16,aime
142,16,aussi
143,16,chez
144,16,encor
145,16,flamme
146,16,livie
147,16,sur
148,16,vie
149,16,état
150,15,grâce
151,15,honte
152,15,ils
153,15,jour
154,15,maison
155,15,ni
156,15,pourtant
157,15,sens
158,15,était
159,14,contre
160,14,deux
161,14,dites
162,14,eût
163,14,ici
164,14,naissance
165,14,peu
166,14,sinderic
167,13,autre
168,13,dieu
169,13,effet
170,13,estime
171,13,objet
172,13,prince
173,13,quel
174,13,quelle
175,13,temps
176,13,ton
177,13,vois
178,12,depuis
179,12,fais
180,12,fortune
181,12,justice
182,12,oui
183,12,pu
184,12,seulement
185,12,sous
186,12,souvent
187,11,ciel
188,11,dis
189,11,donne
190,11,extrême
191,11,foi
192,11,fut
193,11,histoire
194,11,homme
195,11,horace
196,11,perdre
197,11,pouvoir
198,11,rendre
199,11,savoir
200,11,sujet
201,11,toute
202,11,victoire
203,10,devoir
204,10,encore
205,10,erreur
206,10,faites
207,10,juste
208,10,leurs
209,10,lépide
210,10,mal
211,10,notre
212,10,pleurs
213,10,pourrait
214,10,rang
215,10,soit
216,10,sort
217,10,toi
218,10,toujours
219,10,trépas
220,10,vrai
221,9,abord
222,9,amitié
223,9,avait
224,9,craindre
225,9,crainte
226,9,croit
227,9,destin
228,9,donné
229,9,droits
230,9,intérêt
231,9,loi
232,9,lois
233,9,mieux
234,9,misérable
235,9,moins
236,9,mort
237,9,mourir
238,9,mépris
239,9,parle
240,9,plutôt
241,9,porte
242,9,pourquoi
243,9,pouvez
244,9,père
245,9,rois
246,9,serait
247,9,souffrir
248,9,ô
249,8,ait
250,8,assez
251,8,beau
252,8,blessé
253,8,blâme
254,8,bras
255,8,ceux
256,8,combat
257,8,connais
258,8,croire
259,8,croyez
260,8,devez
261,8,dire
262,8,donner
263,8,fois
264,8,gens
265,8,jours
266,8,lieu
267,8,là
268,8,malheureux
269,8,misère
270,8,moment
271,8,peine
272,8,pensée
273,8,quelqu
274,8,repos
275,8,respect
276,8,résoudre
277,8,sentiments
278,8,théodoric
279,8,trouve
280,8,voit
281,8,voix
282,8,vu
283,8,écouter
284,8,étrange
285,7,armes
286,7,avant
287,7,avecques
288,7,aventure
289,7,avouer
290,7,beaucoup
291,7,boèce
292,7,cacher
293,7,comble
294,7,crains
295,7,crois
296,7,cru
297,7,desseins
298,7,digne
299,7,doute
300,7,douter
301,7,découvrir
302,7,efforts
303,7,enfant
304,7,envie
305,7,fit
306,7,grands
307,7,haute
308,7,ingrate
309,7,jaloux
310,7,lorsque
311,7,lâche
312,7,monde
313,7,prix
314,7,puissance
315,7,romains
316,7,savez
317,7,seul
318,7,souhaits
319,7,soupçons
320,7,su
321,7,ta
322,7,traite
323,7,vertus
324,7,y
325,7,époux
326,6,allez
327,6,appas
328,6,arrêt
329,6,avais
330,6,ayant
331,6,bouche
332,6,celui
333,6,choque
334,6,choses
335,6,comment
336,6,cours
337,6,dernier
338,6,doux
339,6,déjà
340,6,effets
341,6,endroit
342,6,eu
343,6,ferai
344,6,fort
345,6,funeste
346,6,fureur
347,6,grandeur
348,6,illustre
349,6,imposture
350,6,joie
351,6,jugez
352,6,larmes
353,6,légitime
354,6,main
355,6,ose
356,6,paraît
357,6,peuple
358,6,plaignez
359,6,plains
360,6,présent
361,6,reconnaissance
362,6,rigueurs
363,6,sentiment
364,6,soupirs
365,6,tort
366,6,va
367,6,voulez
368,6,éclat
369,6,été
370,5,aimer
371,5,ardeur
372,5,assurer
373,5,avouant
374,5,aïeuls
375,5,beaux
376,5,car
377,5,cependant
378,5,changement
379,5,cher
380,5,chose
381,5,chère
382,5,coupable
383,5,devant
384,5,défense
385,5,désavouer
386,5,désirs
387,5,entends
388,5,entre
389,5,eusse
390,5,eut
391,5,excès
392,5,faiblesse
393,5,favori
394,5,font
395,5,haine
396,5,heureux
397,5,hyménée
398,5,injuste
399,5,instant
400,5,italie
401,5,jugement
402,5,laissez
403,5,levez
404,5,longtemps
405,5,malgré
406,5,malheurs
407,5,mauvais
408,5,monsieur
409,5,mérite
410,5,offre
411,5,paix
412,5,pardonnez
413,5,pense
414,5,plainte
415,5,plaisir
416,5,plaisirs
417,5,pourrai
418,5,premier
419,5,quelques
420,5,quoique
421,5,regardez
422,5,ressentiment
423,5,saurais
424,5,secours
425,5,secret
426,5,servir
427,5,soupçon
428,5,suite
429,5,sévère
430,5,terre
431,5,tes
432,5,trahir
433,5,vengeance
434,5,viens
435,5,vis
436,5,voici
437,5,voyez
438,5,étant
439,5,événement
440,4,absence
441,4,accordez
442,4,accuser
443,4,afin
444,4,amante
445,4,ami
446,4,amis
447,4,apparence
448,4,approuver
449,4,assurance
450,4,autant
451,4,aviez
452,4,avis
453,4,blâmer
454,4,bonne
455,4,bout
456,4,bruit
457,4,cause
458,4,cent
459,4,cesse
460,4,cessez
461,4,chercher
462,4,coeurs
463,4,combien
464,4,confesse
465,4,connaît
466,4,connaître
467,4,contrainte
468,4,contraire
469,4,convaincre
470,4,courage
471,4,couvert
472,4,cruelle
473,4,devais
474,4,dira
475,4,douleur
476,4,droit
477,4,emporte
478,4,envoie
479,4,espère
480,4,eux
481,4,exemple
482,4,fasse
483,4,fatal
484,4,faveurs
485,4,femme
486,4,félicité
487,4,gagner
488,4,guerre
489,4,généreux
490,4,hymen
491,4,infâme
492,4,loin
493,4,lorsqu
494,4,mot
495,4,mouvement
496,4,mystère
497,4,mêmes
498,4,naître
499,4,nouveau
500,4,nouvelle
501,4,né
502,4,obliger
503,4,obtenir
504,4,occasion
505,4,ordre
506,4,paraître
507,4,pareil
508,4,parmi
509,4,passe
510,4,passion
511,4,perdu
512,4,pitié
513,4,plaindre
514,4,porter
515,4,projet
516,4,puisque
517,4,puissants
518,4,ravenne
519,4,recevoir
520,4,regarde
521,4,récit
522,4,saurai
523,4,saurait
524,4,sein
525,4,sert
526,4,seule
527,4,sois
528,4,sommes
529,4,sorte
530,4,sorti
531,4,souffrez
532,4,surprendre
533,4,taire
534,4,tendresse
535,4,tiens
536,4,tour
537,4,triste
538,4,tristesse
539,4,trouble
540,4,troubler
541,4,vain
542,4,venir
543,4,veuille
544,4,vivons
545,4,voudrait
546,4,voulait
547,4,vue
548,4,âge
549,4,éviter
550,3,abîme
551,3,accepter
552,3,accident
553,3,accorder
554,3,admire
555,3,admirer
556,3,adorer
557,3,adresse
558,3,agit
559,3,alarmes
560,3,aller
561,3,allons
562,3,ans
563,3,apaisez
564,3,appelle
565,3,apprend
566,3,appui
567,3,aucun
568,3,aurai
569,3,aurait
570,3,auteurs
571,3,autrefois
572,3,autres
573,3,bas
574,3,belle
575,3,biens
576,3,bientôt
577,3,blesser
578,3,bonté
579,3,certain
580,3,chambre
581,3,changer
582,3,chassez
583,3,cherche
584,3,choquer
585,3,cieux
586,3,colère
587,3,commune
588,3,conduit
589,3,considère
590,3,considérez
591,3,content
592,3,contraindre
593,3,coup
594,3,coups
595,3,couronne
596,3,courroux
597,3,craignez
598,3,craint
599,3,criminelle
600,3,cruel
601,3,cède
602,3,danger
603,3,demandez
604,3,devient
605,3,dispose
606,3,donnez
607,3,douceurs
608,3,découvrent
609,3,défaut
610,3,défendre
611,3,déplorable
612,3,désavoué
613,3,désormais
614,3,dû
615,3,effort
616,3,empire
617,3,enfants
618,3,engage
619,3,ennui
620,3,espoir
621,3,esprits
622,3,espérer
623,3,estimer
624,3,etat
625,3,eus
626,3,extrêmes
627,3,faillir
628,3,favorable
629,3,flatte
630,3,fondement
631,3,force
632,3,france
633,3,fruits
634,3,fus
635,3,genoux
636,3,grande
637,3,hais
638,3,hait
639,3,haut
640,3,hautement
641,3,horreur
642,3,inconnu
643,3,indigne
644,3,infidèle
645,3,infortuné
646,3,injurieux
647,3,innocent
648,3,intéresse
649,3,jusqu
650,3,jusques
651,3,liberté
652,3,longue
653,3,lustre
654,3,magnifiques
655,3,mains
656,3,marques
657,3,mauvaise
658,3,maîtresse
659,3,mettre
660,3,mien
661,3,montrer
662,3,mortellement
663,3,mortels
664,3,mémoire
665,3,nuit
666,3,offensée
667,3,or
668,3,outrage
669,3,outre
670,3,parce
671,3,pardon
672,3,parfait
673,3,parler
674,3,parlez
675,3,part
676,3,persévérance
677,3,perte
678,3,peur
679,3,plaît
680,3,pleurer
681,3,pourrais
682,3,poursuite
683,3,pouvais
684,3,prend
685,3,presque
686,3,priver
687,3,prière
688,3,prochaine
689,3,procède
690,3,procéder
691,3,procédure
692,3,puisse
693,3,punir
694,3,pusse
695,3,race
696,3,rarement
697,3,reconnaître
698,3,refus
699,3,regret
700,3,remords
701,3,rend
702,3,renom
703,3,reproche
704,3,ressens
705,3,retire
706,3,rigueur
707,3,rival
708,3,règne
709,3,régner
710,3,révère
711,3,sachez
712,3,sait
713,3,salle
714,3,satisfait
715,3,sauver
716,3,sauvez
717,3,senat
718,3,soi
719,3,soient
720,3,soins
721,3,sortir
722,3,souffre
723,3,souvient
724,3,succès
725,3,surmonte
726,3,surprend
727,3,surprise
728,3,tard
729,3,tel
730,3,tient
731,3,titre
732,3,touché
733,3,traiter
734,3,traité
735,3,triomphe
736,3,triompher
737,3,trésor
738,3,tâche
739,3,témoigner
740,3,vainqueur
741,3,vais
742,3,valeur
743,3,venge
744,3,venger
745,3,vers
746,3,versé
747,3,vivre
748,3,voudrais
749,3,voulant
750,3,voyons
751,3,vérité
752,3,émile
753,3,émouvoir
754,3,étaient
755,3,étiez
756,3,étranger
757,3,ôtez
758,2,accablé
759,2,accouchement
760,2,accusée
761,2,acquit
762,2,action
763,2,actions
764,2,adieu
765,2,adore
766,2,affection
767,2,affront
768,2,agir
769,2,aient
770,2,aimerais
771,2,aimez
772,2,aimé
773,2,alliance
774,2,amoureux
775,2,animer
776,2,apaiser
777,2,apprendre
778,2,approuve
779,2,armé
780,2,arrachait
781,2,arrachant
782,2,arraché
783,2,arrêter
784,2,artifice
785,2,as
786,2,assuré
787,2,attaque
788,2,atteinte
789,2,audace
790,2,audience
791,2,augmente
792,2,auparavant
793,2,auprès
794,2,autels
795,2,auteur
796,2,autorité
797,2,avenir
798,2,avertir
799,2,aveu
800,2,aveugle
801,2,avons
802,2,avoue
803,2,balance
804,2,banni
805,2,bannissement
806,2,beauté
807,2,beautés
808,2,bienfaits
809,2,bienheureux
810,2,bon
811,2,bons
812,2,bontés
813,2,brûle
814,2,capable
815,2,capitaine
816,2,capitole
817,2,caresses
818,2,causes
819,2,causé
820,2,cela
821,2,change
822,2,charmante
823,2,chasser
824,2,chevalier
825,2,choisir
826,2,choix
827,2,clarté
828,2,combats
829,2,combattre
830,2,comparaison
831,2,compliment
832,2,concevoir
833,2,condamne
834,2,conduite
835,2,conjoncture
836,2,connaissance
837,2,connaissez
838,2,conscience
839,2,conseil
840,2,conseils
841,2,conserver
842,2,considérable
843,2,contenter
844,2,contraint
845,2,contraires
846,2,conçois
847,2,cour
848,2,court
849,2,croirais
850,2,croirait
851,2,croyable
852,2,cruels
853,2,créance
854,2,crédit
855,2,cédons
856,2,côtés
857,2,delà
858,2,demandant
859,2,demande
860,2,demander
861,2,demi
862,2,dessous
863,2,destins
864,2,destinée
865,2,deuil
866,2,devait
867,2,devenus
868,2,diffamer
869,2,difficulté
870,2,disiez
871,2,dispenser
872,2,donnant
873,2,donques
874,2,doutez
875,2,dure
876,2,dures
877,2,dès
878,2,débat
879,2,découvre
880,2,défauts
881,2,désaveu
882,2,désavoue
883,2,désespoir
884,2,désespère
885,2,désordre
886,2,détruit
887,2,emile
888,2,emplois
889,2,empêche
890,2,entendu
891,2,entière
892,2,entreprise
893,2,entretien
894,2,estimé
895,2,eussent
896,2,exaucer
897,2,excuser
898,2,exposer
899,2,extrémités
900,2,face
901,2,facilement
902,2,failli
903,2,famille
904,2,faute
905,2,feignez
906,2,fidélité
907,2,fille
908,2,fin
909,2,fond
910,2,forcer
911,2,forcé
912,2,forfaits
913,2,formé
914,2,fortuné
915,2,fournit
916,2,froideur
917,2,fruit
918,2,funestes
919,2,fâcheux
920,2,garder
921,2,gré
922,2,hasarder
923,2,heur
924,2,hier
925,2,hommage
926,2,honorable
927,2,honorer
928,2,honorez
929,2,ignorant
930,2,image
931,2,imiter
932,2,implorer
933,2,importe
934,2,importun
935,2,importune
936,2,inconstance
937,2,inestimable
938,2,infini
939,2,infortunée
940,2,insensible
941,2,inspire
942,2,jadis
943,2,jalousie
944,2,joint
945,2,joug
946,2,joué
947,2,juge
948,2,justement
949,2,laissant
950,2,laisse
951,2,laisser
952,2,lamentable
953,2,lettre
954,2,liens
955,2,logis
956,2,lors
957,2,louer
958,2,lumière
959,2,magnanime
960,2,magnificence
961,2,malaisé
962,2,malheureuse
963,2,manqué
964,2,mariage
965,2,matière
966,2,maux
967,2,menacez
968,2,merveilleux
969,2,met
970,2,miens
971,2,monarques
972,2,montre
973,2,monuments
974,2,mortel
975,2,mourut
976,2,mouvements
977,2,moyen
978,2,mépriser
979,2,méritez
980,2,mêle
981,2,naissant
982,2,naissent
983,2,naît
984,2,nobles
985,2,nommant
986,2,noms
987,2,nullement
988,2,oblige
989,2,obligé
990,2,obstacle
991,2,obéir
992,2,obéissance
993,2,odoacre
994,2,offense
995,2,opposer
996,2,osé
997,2,ouvre
998,2,pardonner
999,2,parents
1000,2,parlant
1001,2,parti
1002,2,paru
1003,2,passions
1004,2,passé
1005,2,passée
1006,2,passés
1007,2,patrie
1008,2,pendant
1009,2,perd
1010,2,perdra
1011,2,perdrais
1012,2,permis
1013,2,personne
1014,2,peux
1015,2,place
1016,2,plaire
1017,2,plaisant
1018,2,pleuré
1019,2,plusieurs
1020,2,portent
1021,2,possédez
1022,2,poursuivons
1023,2,pouvait
1024,2,pouviez
1025,2,premiers
1026,2,première
1027,2,prends
1028,2,pris
1029,2,prise
1030,2,procédé
1031,2,produit
1032,2,produits
1033,2,propose
1034,2,près
1035,2,précipice
1036,2,présente
1037,2,prétentions
1038,2,prévoyance
1039,2,puisqu
1040,2,puissiez
1041,2,pure
1042,2,qualité
1043,2,qualités
1044,2,raisons
1045,2,range
1046,2,rares
1047,2,raretés
1048,2,ravi
1049,2,ravie
1050,2,recourir
1051,2,rejette
1052,2,rencontre
1053,2,rende
1054,2,rendez
1055,2,rendu
1056,2,renommée
1057,2,respecte
1058,2,reste
1059,2,retour
1060,2,revoir
1061,2,reçu
1062,2,richesses
1063,2,romain
1064,2,répandre
1065,2,répond
1066,2,réserve
1067,2,résistance
1068,2,résiste
1069,2,révoquez
1070,2,sachant
1071,2,sache
1072,2,sauvé
1073,2,secrète
1074,2,semblables
1075,2,semblait
1076,2,semble
1077,2,sent
1078,2,sentence
1079,2,sera
1080,2,serments
1081,2,silence
1082,2,siège
1083,2,soin
1084,2,songez
1085,2,souci
1086,2,soumis
1087,2,soupçonnez
1088,2,sourdement
1089,2,soutenir
1090,2,souvenir
1091,2,soyez
1092,2,suffit
1093,2,suivant
1094,2,surpasse
1095,2,suspect
1096,2,sénat
1097,2,tache
1098,2,tais
1099,2,taisez
1100,2,tantôt
1101,2,teint
1102,2,telle
1103,2,tendre
1104,2,tendrement
1105,2,teniez
1106,2,touche
1107,2,toucher
1108,2,tournons
1109,2,toutefois
1110,2,trahi
1111,2,trahison
1112,2,traitements
1113,2,transports
1114,2,travaux
1115,2,tributs
1116,2,trompée
1117,2,trouvant
1118,2,trouver
1119,2,trésors
1120,2,trône
1121,2,tulle
1122,2,tyrannique
1123,2,tâché
1124,2,tôt
1125,2,unique
1126,2,unis
1127,2,vengera
1128,2,verrait
1129,2,verrez
1130,2,veulent
1131,2,veuvage
1132,2,vieux
1133,2,ville
1134,2,violence
1135,2,vite
1136,2,vont
1137,2,voulut
1138,2,voyant
1139,2,vus
1140,2,véritable
1141,2,zénon
1142,2,éclairci
1143,2,écoute
1144,2,écoutez
1145,2,écoutons
1146,2,égalent
1147,2,élève
1148,2,épaisseur
1149,2,équité
1150,2,étais
1151,2,étonne
1152,2,événements
1153,2,ôter
1154,1,abat
1155,1,abhorre
1156,1,abri
1157,1,abrégé
1158,1,absous
1159,1,abuse
1160,1,abuser
1161,1,acceptez
1162,1,accepté
1163,1,accommodent
1164,1,accomplissement
1165,1,accorde
1166,1,accorderont
1167,1,accueil
1168,1,accuse
1169,1,accusent
1170,1,accusera
1171,1,accuseriez
1172,1,accusez
1173,1,accusé
1174,1,acheter
1175,1,acquiert
1176,1,acquis
1177,1,acquérir
1178,1,acteurs
1179,1,admirable
1180,1,adroit
1181,1,adrète
1182,1,adversités
1183,1,affaire
1184,1,affaires
1185,1,affamé
1186,1,affectés
1187,1,affliger
1188,1,affligez
1189,1,agissait
1190,1,agissez
1191,1,agité
1192,1,agréable
1193,1,aie
1194,1,aillent
1195,1,ailleurs
1196,1,aimant
1197,1,aimons
1198,1,aimée
1199,1,air
1200,1,aisé
1201,1,aisée
1202,1,ajouta
1203,1,alaric
1204,1,alentit
1205,1,alentour
1206,1,alla
1207,1,alliées
1208,1,alluma
1209,1,allume
1210,1,allée
1211,1,alors
1212,1,ambition
1213,1,amoindrir
1214,1,amours
1215,1,anime
1216,1,animée
1217,1,animées
1218,1,années
1219,1,apaise
1220,1,apparemment
1221,1,apparents
1222,1,appartient
1223,1,appela
1224,1,appelez
1225,1,apprends
1226,1,approbation
1227,1,approchait
1228,1,approchez
1229,1,arcs
1230,1,arme
1231,1,armeront
1232,1,arrache
1233,1,arriver
1234,1,arrête
1235,1,art
1236,1,asile
1237,1,aspirer
1238,1,assaut
1239,1,assemble
1240,1,assistance
1241,1,assiste
1242,1,assister
1243,1,assistez
1244,1,assure
1245,1,attaquait
1246,1,attaquer
1247,1,attaqué
1248,1,attendez
1249,1,attendre
1250,1,attendri
1251,1,attends
1252,1,attentat
1253,1,atterra
1254,1,atteste
1255,1,attirer
1256,1,attirera
1257,1,attraits
1258,1,aucune
1259,1,auditeurs
1260,1,augmentais
1261,1,augustes
1262,1,aura
1263,1,aurais
1264,1,aussitôt
1265,1,austère
1266,1,autoriser
1267,1,autrement
1268,1,autrui
1269,1,avaient
1270,1,avancer
1271,1,avancez
1272,1,avantage
1273,1,avecque
1274,1,aventin
1275,1,avertis
1276,1,aveuglement
1277,1,aveugler
1278,1,aïeux
1279,1,bague
1280,1,baisser
1281,1,balancer
1282,1,balcon
1283,1,bannir
1284,1,barbare
1285,1,basse
1286,1,belles
1287,1,besoin
1288,1,bienséance
1289,1,bienveillance
1290,1,bizarre
1291,1,blessure
1292,1,blâmiez
1293,1,bois
1294,1,bonnes
1295,1,bornes
1296,1,braver
1297,1,bref
1298,1,brillante
1299,1,brille
1300,1,brisés
1301,1,bruits
1302,1,brutal
1303,1,brutalité
1304,1,but
1305,1,butte
1306,1,bâtiments
1307,1,bénissez
1308,1,cache
1309,1,cachez
1310,1,caché
1311,1,camille
1312,1,capables
1313,1,caprice
1314,1,captives
1315,1,cas
1316,1,causer
1317,1,causez
1318,1,causée
1319,1,cents
1320,1,certaine
1321,1,certitude
1322,1,cessé
1323,1,champs
1324,1,changeant
1325,1,changeons
1326,1,changerais
1327,1,changez
1328,1,chaos
1329,1,chaque
1330,1,charger
1331,1,charges
1332,1,charitables
1333,1,charmant
1334,1,charmes
1335,1,chasse
1336,1,chaîne
1337,1,cherchait
1338,1,choisi
1339,1,choquera
1340,1,chèrement
1341,1,chéri
1342,1,chéris
1343,1,circonstance
1344,1,civile
1345,1,civilité
1346,1,clairs
1347,1,clovis
1348,1,combattirent
1349,1,combattu
1350,1,commandaient
1351,1,commande
1352,1,commander
1353,1,commencement
1354,1,commencez
1355,1,commettre
1356,1,commis
1357,1,commun
1358,1,complaisance
1359,1,compte
1360,1,comètes
1361,1,concevras
1362,1,condamner
1363,1,condamnez
1364,1,condition
1365,1,conduire
1366,1,confessant
1367,1,confesser
1368,1,confessez
1369,1,confiance
1370,1,confidence
1371,1,confond
1372,1,confonde
1373,1,confondre
1374,1,confus
1375,1,confusion
1376,1,congé
1377,1,conjure
1378,1,connaissait
1379,1,connaissant
1380,1,connaissent
1381,1,connut
1382,1,consacre
1383,1,consacrer
1384,1,consentement
1385,1,consentir
1386,1,conserva
1387,1,conservait
1388,1,conserve
1389,1,conservez
1390,1,considérais
1391,1,considérant
1392,1,considérer
1393,1,considérée
1394,1,consolez
1395,1,constamment
1396,1,consulter
1397,1,consultons
1398,1,consumées
1399,1,conte
1400,1,contemple
1401,1,contentement
1402,1,conteste
1403,1,contester
1404,1,contraignez
1405,1,contraints
1406,1,contés
1407,1,converti
1408,1,convie
1409,1,convient
1410,1,conçu
1411,1,conçus
1412,1,conçut
1413,1,corps
1414,1,corriger
1415,1,couler
1416,1,coure
1417,1,couronner
1418,1,courtisans
1419,1,courtois
1420,1,coutume
1421,1,couvre
1422,1,coûter
1423,1,craignais
1424,1,craignait
1425,1,craignant
1426,1,criminel
1427,1,criminels
1428,1,cris
1429,1,croyait
1430,1,croyant
1431,1,cruauté
1432,1,crut
1433,1,crût
1434,1,céans
1435,1,céder
1436,1,côté
1437,1,dame
1438,1,davantage
1439,1,dave
1440,1,degré
1441,1,demandais
1442,1,demeurent
1443,1,demeurer
1444,1,derechef
1445,1,derniers
1446,1,dernière
1447,1,dernières
1448,1,dessus
1449,1,destine
1450,1,destinées
1451,1,devenues
1452,1,deviez
1453,1,devint
1454,1,diadème
1455,1,diffame
1456,1,difficile
1457,1,difficilement
1458,1,différends
1459,1,différents
1460,1,dignes
1461,1,dignités
1462,1,diminue
1463,1,dirai
1464,1,direz
1465,1,disais
1466,1,disgrâce
1467,1,disparaît
1468,1,dispense
1469,1,dispensez
1470,1,dispensons
1471,1,disposer
1472,1,disposons
1473,1,dispute
1474,1,disputé
1475,1,dissimuler
1476,1,distraire
1477,1,divers
1478,1,divertir
1479,1,divertissements
1480,1,divin
1481,1,doigt
1482,1,doive
1483,1,doivent
1484,1,dolente
1485,1,donnai
1486,1,donneront
1487,1,donnée
1488,1,donnés
1489,1,dons
1490,1,douce
1491,1,douces
1492,1,douceur
1493,1,dressèrent
1494,1,dur
1495,1,duré
1496,1,dussé
1497,1,débats
1498,1,débitent
1499,1,débrouillant
1500,1,découvrez
1501,1,découvrirais
1502,1,décret
1503,1,décrets
1504,1,dédis
1505,1,défaillent
1506,1,défaillir
1507,1,défend
1508,1,défendit
1509,1,défiance
1510,1,défier
1511,1,dégagée
1512,1,déguise
1513,1,délibère
1514,1,délicat
1515,1,délicieux
1516,1,délivre
1517,1,délivrer
1518,1,dément
1519,1,démenti
1520,1,démentir
1521,1,démon
1522,1,démons
1523,1,dénie
1524,1,départ
1525,1,dépendait
1526,1,déplaire
1527,1,déplaisir
1528,1,déploré
1529,1,déplut
1530,1,dépêche
1531,1,dés
1532,1,désavouant
1533,1,désavouerai
1534,1,déshonneur
1535,1,déshonore
1536,1,désirable
1537,1,désire
1538,1,désirer
1539,1,désirons
1540,1,détestable
1541,1,détournaient
1542,1,détourner
1543,1,détourné
1544,1,détournés
1545,1,déçu
1546,1,déçue
1547,1,efface
1548,1,effacer
1549,1,elles
1550,1,embrasse
1551,1,embrassiez
1552,1,emparée
1553,1,empereur
1554,1,emploi
1555,1,emploierait
1556,1,employer
1557,1,employez
1558,1,employons
1559,1,emporter
1560,1,emportez
1561,1,empruntés
1562,1,empêcher
1563,1,empêchez
1564,1,encourt
1565,1,endroits
1566,1,endure
1567,1,endurer
1568,1,enfermer
1569,1,enflammé
1570,1,enflammée
1571,1,enflé
1572,1,enfreinte
1573,1,engagent
1574,1,engagée
1575,1,ennemis
1576,1,ennuis
1577,1,enrichir
1578,1,enseigner
1579,1,ensemble
1580,1,entendez
1581,1,entendre
1582,1,entier
1583,1,entreprenant
1584,1,entreprend
1585,1,entreprendre
1586,1,entrepris
1587,1,entrer
1588,1,entretenir
1589,1,entretiendrai
1590,1,envier
1591,1,enviées
1592,1,erreurs
1593,1,espace
1594,1,espérance
1595,1,estimez
1596,1,etats
1597,1,eurent
1598,1,eussai
1599,1,eussiez
1600,1,examiner
1601,1,exaucés
1602,1,excite
1603,1,excusez
1604,1,excusé
1605,1,excède
1606,1,exemples
1607,1,exempte
1608,1,exempter
1609,1,exercice
1610,1,explique
1611,1,expliquer
1612,1,expliqué
1613,1,exploits
1614,1,exposa
1615,1,expose
1616,1,exposez
1617,1,exposé
1618,1,exprime
1619,1,extraction
1620,1,extraordinaire
1621,1,extrémité
1622,1,fables
1623,1,faisais
1624,1,faisait
1625,1,faits
1626,1,fallait
1627,1,fallut
1628,1,fantôme
1629,1,fausseté
1630,1,faux
1631,1,favorise
1632,1,feindre
1633,1,feint
1634,1,feintes
1635,1,fer
1636,1,feront
1637,1,feux
1638,1,fidèle
1639,1,fini
1640,1,finir
1641,1,finissez
1642,1,fins
1643,1,firent
1644,1,flambeau
1645,1,flambeaux
1646,1,flattant
1647,1,flatter
1648,1,flattez
1649,1,fléau
1650,1,fléchir
1651,1,folie
1652,1,fondé
1653,1,forcée
1654,1,forfait
1655,1,forme
1656,1,forte
1657,1,fortement
1658,1,fortunée
1659,1,foudre
1660,1,fournir
1661,1,fournisse
1662,1,frapper
1663,1,froideurs
1664,1,fui
1665,1,fuis
1666,1,fuit
1667,1,fureurs
1668,1,fusse
1669,1,fuyez
1670,1,fâcheuse
1671,1,fîtes
1672,1,fût
1673,1,gage
1674,1,galante
1675,1,garde
1676,1,gentilhomme
1677,1,gentilshommes
1678,1,gestes
1679,1,glace
1680,1,glorieux
1681,1,goth
1682,1,gothique
1683,1,gothiques
1684,1,goûtais
1685,1,grossesse
1686,1,grâces
1687,1,guide
1688,1,générosité
1689,1,habit
1690,1,hasarde
1691,1,hasards
1692,1,haïr
1693,1,haïrait
1694,1,haïssaient
1695,1,heure
1696,1,hommes
1697,1,honnête
1698,1,honore
1699,1,horrible
1700,1,hors
1701,1,hâter
1702,1,héritage
1703,1,héros
1704,1,idoles
1705,1,ignorait
1706,1,illustrant
1707,1,imaginer
1708,1,imite
1709,1,immole
1710,1,immolât
1711,1,immortelle
1712,1,immortels
1713,1,imparfaits
1714,1,impatience
1715,1,impitoyable
1716,1,important
1717,1,importants
1718,1,imposteur
1719,1,imprime
1720,1,impriment
1721,1,imprudence
1722,1,impunité
1723,1,incident
1724,1,incidents
1725,1,incivilité
1726,1,inclination
1727,1,incomparable
1728,1,inconnus
1729,1,indifférence
1730,1,indignement
1731,1,indomptable
1732,1,inexorable
1733,1,infamie
1734,1,infiniment
1735,1,informer
1736,1,informé
1737,1,inhumanité
1738,1,injustes
1739,1,injustice
1740,1,innocents
1741,1,inquiétude
1742,1,insensés
1743,1,insigne
1744,1,insolemment
1745,1,insolence
1746,1,inspirer
1747,1,inspirez
1748,1,insupportable
1749,1,insupportables
1750,1,intelligence
1751,1,intentions
1752,1,interdit
1753,1,inutile
1754,1,invisibles
1755,1,invite
1756,1,irai
1757,1,irrite
1758,1,jeu
1759,1,jeune
1760,1,joignez
1761,1,joindre
1762,1,jouer
1763,1,jouissez
1764,1,journée
1765,1,jugements
1766,1,justes
1767,1,laissent
1768,1,langage
1769,1,lassez
1770,1,lauriers
1771,1,laver
1772,1,libéral
1773,1,licence
1774,1,lieux
1775,1,lit
1776,1,loue
1777,1,légitimes
1778,1,légère
1779,1,maintenant
1780,1,maisons
1781,1,maitre
1782,1,majesté
1783,1,mandé
1784,1,manifester
1785,1,manifestes
1786,1,manquait
1787,1,manque
1788,1,mari
1789,1,marquaient
1790,1,marquer
1791,1,marqué
1792,1,mars
1793,1,maîtres
1794,1,meilleurs
1795,1,mena
1796,1,mensonge
1797,1,mentent
1798,1,merci
1799,1,merveille
1800,1,mette
1801,1,meure
1802,1,meurtre
1803,1,milieu
1804,1,mille
1805,1,ministre
1806,1,mis
1807,1,modeste
1808,1,modestes
1809,1,modérer
1810,1,moindre
1811,1,moindres
1812,1,monarque
1813,1,monstre
1814,1,monstres
1815,1,montons
1816,1,monument
1817,1,morne
1818,1,morte
1819,1,mortelle
1820,1,morts
1821,1,motif
1822,1,motifs
1823,1,mots
1824,1,mourait
1825,1,mourons
1826,1,mourût
1827,1,muette
1828,1,murmuraient
1829,1,murmure
1830,1,murmurer
1831,1,mutine
1832,1,méconnaitre
1833,1,mélancolie
1834,1,mélange
1835,1,mémorable
1836,1,mériter
1837,1,mérites
1838,1,mérité
1839,1,mésintelligence
1840,1,mêler
1841,1,mêlez
1842,1,naguère
1843,1,naissances
1844,1,nation
1845,1,nier
1846,1,noble
1847,1,noblement
1848,1,noblesse
1849,1,nombre
1850,1,nomme
1851,1,nommé
1852,1,nue
1853,1,nuire
1854,1,nécessairement
1855,1,nécessité
1856,1,négliger
1857,1,nôtre
1858,1,obligeante
1859,1,obligent
1860,1,obligerez
1861,1,obligée
1862,1,obscurci
1863,1,observai
1864,1,obstinez
1865,1,obstiné
1866,1,obtiendrai
1867,1,obéis
1868,1,occurrence
1869,1,odieux
1870,1,oeuvre
1871,1,offensé
1872,1,offrent
1873,1,ombrage
1874,1,ombre
1875,1,ombres
1876,1,oppose
1877,1,opposeront
1878,1,opposez
1879,1,ordonne
1880,1,ordonner
1881,1,oreille
1882,1,orgueil
1883,1,ornements
1884,1,orpheline
1885,1,osai
1886,1,osent
1887,1,oser
1888,1,oses
1889,1,oublie
1890,1,outrages
1891,1,ouvrage
1892,1,palais
1893,1,parais
1894,1,paraissant
1895,1,paraitre
1896,1,pardonnable
1897,1,pardonne
1898,1,pardonné
1899,1,pareille
1900,1,pareilles
1901,1,parla
1902,1,parlons
1903,1,parlât
1904,1,parlé
1905,1,parole
1906,1,parques
1907,1,pars
1908,1,partage
1909,1,partie
1910,1,partout
1911,1,parée
1912,1,passer
1913,1,passez
1914,1,passons
1915,1,pensai
1916,1,pensais
1917,1,pensent
1918,1,penser
1919,1,penserait
1920,1,pensez
1921,1,percé
1922,1,perdais
1923,1,perde
1924,1,perdis
1925,1,perdus
1926,1,perfide
1927,1,permet
1928,1,permettez
1929,1,permettre
1930,1,perplexités
1931,1,personnage
1932,1,persuadé
1933,1,persécute
1934,1,persécuter
1935,1,perçant
1936,1,peste
1937,1,pire
1938,1,pis
1939,1,plaindriez
1940,1,plaintes
1941,1,plairait
1942,1,plein
1943,1,pleine
1944,1,pleins
1945,1,pleure
1946,1,pleuriez
1947,1,pompe
1948,1,porteront
1949,1,portez
1950,1,portiques
1951,1,porté
1952,1,possible
1953,1,possède
1954,1,possédaient
1955,1,postérité
1956,1,potentat
1957,1,potentats
1958,1,pourra
1959,1,pourraient
1960,1,pourrez
1961,1,pourrions
1962,1,poursuis
1963,1,poursuit
1964,1,poursuivez
1965,1,poursuivre
1966,1,pourvu
1967,1,pousse
1968,1,pousser
1969,1,poussé
1970,1,pouvons
1971,1,pratique
1972,1,prendre
1973,1,prenons
1974,1,prie
1975,1,prier
1976,1,prive
1977,1,privez
1978,1,privé
1979,1,prodigieux
1980,1,produire
1981,1,produise
1982,1,profond
1983,1,progrès
1984,1,projets
1985,1,projette
1986,1,promesses
1987,1,promet
1988,1,promettre
1989,1,prononcez
1990,1,propice
1991,1,propos
1992,1,proposez
1993,1,propre
1994,1,proprement
1995,1,propres
1996,1,prose
1997,1,prospère
1998,1,protestons
1999,1,province
2000,1,précieux
2001,1,précipiter
2002,1,précipitez
2003,1,préfet
2004,1,présentant
2005,1,préside
2006,1,présomption
2007,1,présomptions
2008,1,prétend
2009,1,prétendez
2010,1,prétendre
2011,1,prétends
2012,1,prétoire
2013,1,prévenir
2014,1,prêtez
2015,1,publiques
2016,1,pudeur
2017,1,pudique
2018,1,puissamment
2019,1,puissantes
2020,1,puni
2021,1,punie
2022,1,punissez
2023,1,pur
2024,1,pureté
2025,1,pussent
2026,1,pâle
2027,1,pâme
2028,1,péché
2029,1,périls
2030,1,périr
2031,1,périsse
2032,1,pût
2033,1,quatre
2034,1,quels
2035,1,querellés
2036,1,quinze
2037,1,quittai
2038,1,quittant
2039,1,quitter
2040,1,quitté
2041,1,quoiqu
2042,1,raconter
2043,1,raisonnement
2044,1,rallume
2045,1,rapines
2046,1,rasa
2047,1,ravir
2048,1,rebelle
2049,1,rebelles
2050,1,rebute
2051,1,recevant
2052,1,recevra
2053,1,recherche
2054,1,reconnais
2055,1,reconnue
2056,1,reconnus
2057,1,reculer
2058,1,redouble
2059,1,redoubler
2060,1,refuge
2061,1,refuse
2062,1,refusez
2063,1,regardai
2064,1,regardant
2065,1,regrets
2066,1,rejetez
2067,1,rejeté
2068,1,rejoignez
2069,1,relevé
2070,1,religion
2071,1,remet
2072,1,remettre
2073,1,remettront
2074,1,remis
2075,1,remontrer
2076,1,remplis
2077,1,remplissez
2078,1,remède
2079,1,remèdes
2080,1,rencontra
2081,1,rencontrant
2082,1,rendais
2083,1,rendant
2084,1,rendent
2085,1,rendit
2086,1,rendra
2087,1,rendrait
2088,1,rends
2089,1,renommés
2090,1,repassant
2091,1,repentez
2092,1,reprends
2093,1,reproché
2094,1,représentait
2095,1,représentez
2096,1,respecter
2097,1,respire
2098,1,respirent
2099,1,ressentez
2100,1,ressentiments
2101,1,restes
2102,1,restez
2103,1,retenez
2104,1,reteniez
2105,1,retiens
2106,1,retient
2107,1,retirant
2108,1,retournez
2109,1,revenant
2110,1,revenez
2111,1,reviennent
2112,1,reçois
2113,1,rhin
2114,1,rigoureux
2115,1,rocher
2116,1,romaine
2117,1,roman
2118,1,ronge
2119,1,rongeants
2120,1,rougir
2121,1,rougissez
2122,1,royaume
2123,1,ruine
2124,1,ruiner
2125,1,ruines
2126,1,règnent
2127,1,récitent
2128,1,réclame
2129,1,récompense
2130,1,récompenser
2131,1,récompensés
2132,1,réduit
2133,1,réduite
2134,1,réflexion
2135,1,réglez
2136,1,régnez
2137,1,réjouir
2138,1,réparer
2139,1,répliquez
2140,1,répondaient
2141,1,répondant
2142,1,réponde
2143,1,répondrai
2144,1,répondre
2145,1,réponds
2146,1,république
2147,1,réservée
2148,1,résister
2149,1,résolument
2150,1,résous
2151,1,résout
2152,1,rétablir
2153,1,rétablit
2154,1,rétracter
2155,1,rétractez
2156,1,réussi
2157,1,réussit
2158,1,révolté
2159,1,révoltés
2160,1,révoque
2161,1,sachons
2162,1,sage
2163,1,saints
2164,1,saisie
2165,1,salut
2166,1,sanglant
2167,1,satisfaits
2168,1,satisferai
2169,1,satisferait
2170,1,saura
2171,1,sauras
2172,1,sauviez
2173,1,savent
2174,1,saviez
2175,1,science
2176,1,second
2177,1,seconde
2178,1,secouru
2179,1,secrètes
2180,1,selon
2181,1,semer
2182,1,sensible
2183,1,sensibles
2184,1,senti
2185,1,seras
2186,1,seront
2187,1,serpent
2188,1,servage
2189,1,servait
2190,1,serve
2191,1,servit
2192,1,seules
2193,1,signaler
2194,1,signalés
2195,1,signes
2196,1,simple
2197,1,sincérité
2198,1,sire
2199,1,siècle
2200,1,soldat
2201,1,soldats
2202,1,soleil
2203,1,solitude
2204,1,sollicité
2205,1,sombres
2206,1,sortaient
2207,1,sortez
2208,1,sortons
2209,1,soucis
2210,1,souffrais
2211,1,souffriez
2212,1,souffrirais
2213,1,souffrons
2214,1,souhait
2215,1,souhaite
2216,1,souhaitons
2217,1,souhaité
2218,1,soumissions
2219,1,soupire
2220,1,soupçonne
2221,1,soupçonner
2222,1,soupçonniez
2223,1,soupçonné
2224,1,source
2225,1,sourde
2226,1,soutient
2227,1,souvenez
2228,1,spectacle
2229,1,splendeur
2230,1,structure
2231,1,subi
2232,1,subir
2233,1,succombe
2234,1,succombé
2235,1,succède
2236,1,suffisante
2237,1,suggère
2238,1,suit
2239,1,suivait
2240,1,suivent
2241,1,suivez
2242,1,suivi
2243,1,suivrai
2244,1,sujets
2245,1,superflus
2246,1,supplice
2247,1,suppose
2248,1,suprême
2249,1,surent
2250,1,surnoms
2251,1,suspecte
2252,1,sut
2253,1,sénateur
2254,1,sévérité
2255,1,tableau
2256,1,taché
2257,1,tait
2258,1,temple
2259,1,temples
2260,1,tempère
2261,1,tendresses
2262,1,tenir
2263,1,tenons
2264,1,terminer
2265,1,théâtre
2266,1,tien
2267,1,tiendra
2268,1,tiendrai
2269,1,tiendront
2270,1,tint
2271,1,tire
2272,1,tirent
2273,1,tirer
2274,1,tombe
2275,1,tomber
2276,1,tonnerre
2277,1,tourments
2278,1,tournez
2279,1,toutes
2280,1,trahis
2281,1,trahissant
2282,1,traitable
2283,1,traits
2284,1,trancha
2285,1,tranquille
2286,1,tranquillité
2287,1,transport
2288,1,travaille
2289,1,travaillent
2290,1,travers
2291,1,traversiez
2292,1,tremble
2293,1,triomphaux
2294,1,triomphé
2295,1,tristes
2296,1,trois
2297,1,trompez
2298,1,trompé
2299,1,troublez
2300,1,trouvez
2301,1,trêve
2302,1,tuent
2303,1,tuer
2304,1,tumultueux
2305,1,tué
2306,1,tyran
2307,1,tyrannie
2308,1,tyrans
2309,1,tâcher
2310,1,tâchez
2311,1,témoigné
2312,1,témoin
2313,1,témoins
2314,1,union
2315,1,unisse
2316,1,univers
2317,1,user
2318,1,vaillance
2319,1,vaincra
2320,1,vaincre
2321,1,vaincu
2322,1,vaine
2323,1,vains
2324,1,vanité
2325,1,vas
2326,1,vaut
2327,1,vautour
2328,1,vaux
2329,1,venait
2330,1,venez
2331,1,venin
2332,1,verra
2333,1,versant
2334,1,versés
2335,1,veuve
2336,1,vice
2337,1,victime
2338,1,vieillard
2339,1,vieilles
2340,1,viendrait
2341,1,vienne
2342,1,vingt
2343,1,vint
2344,1,violé
2345,1,visage
2346,1,visite
2347,1,visites
2348,1,vit
2349,1,vivais
2350,1,vivait
2351,1,vivants
2352,1,vive
2353,1,voeu
2354,1,voie
2355,1,voila
2356,1,volage
2357,1,vole
2358,1,volonté
2359,1,voudriez
2360,1,vouloir
2361,1,voyage
2362,1,voyait
2363,1,vulgaire
2364,1,vécu
2365,1,vécut
2366,1,vénérable
2367,1,véritablement
2368,1,véritables
2369,1,éclaircie
2370,1,éclaircir
2371,1,écoutiez
2372,1,écouté
2373,1,écoutés
2374,1,écrit
2375,1,écueil
2376,1,également
2377,1,élans
2378,1,éloigna
2379,1,éloigne
2380,1,élèvent
2381,1,émeut
2382,1,émeuve
2383,1,émeuvent
2384,1,émotion
2385,1,émouvant
2386,1,émue
2387,1,épreuve
2388,1,éprouve
2389,1,éprouver
2390,1,éprouvez
2391,1,épée
2392,1,éteigne
2393,1,éternel
2394,1,étois
2395,1,étonnait
2396,1,étonnés
2397,1,étouffe
2398,1,évitons
2399,1,ôta
2400,1,ôtait
2401,1,ôte
