#Word Types: 2588
#Word Tokens: 15231
#Search Hits: 0
1	514	et	
2	473	de	
3	401	vous	
4	320	l	
5	315	le	
6	253	un	
7	246	la	
8	229	en	
9	220	à	
10	216	je	
11	205	que	
12	198	d	
13	182	il	
14	180	qu	
15	163	qui	
16	158	est	
17	152	pour	
18	149	mon	
19	146	ce	
20	144	les	
21	136	ne	
22	124	j	
23	115	votre	
24	111	si	
25	108	m	
26	103	n	
27	100	ma	
28	97	son	
29	95	me	
30	94	des	
31	90	plus	
32	87	mais	
33	82	une	
34	80	a	
35	75	ai	
36	75	par	
37	72	du	
38	70	on	
39	66	tout	
40	63	au	
41	63	nous	
42	63	pas	
43	61	sa	
44	61	vos	
45	58	moi	
46	56	ou	
47	55	lui	
48	55	mes	
49	50	avec	
50	50	s	
51	50	sang	
52	48	père	
53	47	sans	
54	46	elle	
55	45	bien	
56	45	roi	
57	45	état	
58	42	dont	
59	42	sur	
60	40	aux	
61	40	faut	
62	40	peut	
63	39	cette	
64	39	dans	
65	39	fils	
66	38	point	
67	34	fait	
68	32	contre	
69	32	grand	
70	32	ses	
71	31	encor	
72	31	ont	
73	31	trop	
74	31	ô	
75	30	même	
76	30	quand	
77	30	reine	
78	30	se	
79	30	trône	
80	29	madame	
81	29	quel	
82	29	seigneur	
83	27	c	
84	27	coeur	
85	27	droit	
86	27	y	
87	26	amour	
88	26	rien	
89	25	avez	
90	25	où	
91	24	dieux	
92	24	ils	
93	24	puis	
94	24	sort	
95	24	être	
96	23	mort	
97	23	mère	
98	22	mal	
99	22	tant	
100	22	tous	
101	22	tu	
102	22	veut	
103	21	assez	
104	21	cet	
105	21	prince	
106	21	rang	
107	21	voir	
108	20	bras	
109	20	ces	
110	20	nos	
111	20	pouvoir	
112	20	sont	
113	19	autre	
114	19	couronne	
115	19	mardesane	
116	19	non	
117	19	syra	
118	18	après	
119	18	comme	
120	18	dois	
121	18	enfin	
122	18	leur	
123	18	quelque	
124	18	sceptre	
125	18	syroës	
126	18	temps	
127	17	faire	
128	17	jour	
129	17	lois	
130	17	reste	
131	17	sardarigue	
132	17	t	
133	17	tête	
134	16	courroux	
135	16	haine	
136	16	main	
137	16	ordre	
138	16	palmyras	
139	16	perse	
140	16	soins	
141	15	leurs	
142	15	loi	
143	15	peine	
144	15	règne	
145	15	régner	
146	15	sentiments	
147	15	soin	
148	15	suis	
149	15	ton	
150	15	toute	
151	15	yeux	
152	15	âme	
153	14	effet	
154	14	intérêt	
155	14	mains	
156	14	mieux	
157	14	ni	
158	14	parti	
159	13	allons	
160	13	ambition	
161	13	autorité	
162	13	cosroës	
163	13	crime	
164	13	crédit	
165	13	donner	
166	13	empire	
167	13	nature	
168	13	sous	
169	13	vie	
170	12	aujourd	
171	12	avoir	
172	12	camp	
173	12	ciel	
174	12	esprit	
175	12	frère	
176	12	hui	
177	12	jours	
178	12	laisser	
179	12	moins	
180	12	notre	
181	12	part	
182	12	peu	
183	12	quelle	
184	12	quoi	
185	12	vertu	
186	11	avis	
187	11	dessein	
188	11	donne	
189	11	effort	
190	11	faites	
191	11	fortune	
192	11	gardes	
193	11	objet	
194	11	orgueil	
195	11	ose	
196	11	oui	
197	11	respect	
198	11	rois	
199	11	vôtre	
200	10	coeurs	
201	10	dessus	
202	10	deux	
203	10	donc	
204	10	femme	
205	10	foi	
206	10	garde	
207	10	maître	
208	10	nom	
209	10	perdre	
210	10	prix	
211	10	raison	
212	10	repos	
213	10	sera	
214	10	ta	
215	10	tes	
216	10	voeux	
217	10	voyez	
218	9	avecques	
219	9	ayant	
220	9	celui	
221	9	dedans	
222	9	doit	
223	9	entre	
224	9	grands	
225	9	ha	
226	9	pharnace	
227	9	poison	
228	9	prison	
229	9	produit	
230	9	pu	
231	9	soeur	
232	9	sujet	
233	9	toujours	
234	9	traître	
235	9	zèle	
236	9	âge	
237	8	ardeur	
238	8	bientôt	
239	8	celle	
240	8	corps	
241	8	donné	
242	8	droits	
243	8	encore	
244	8	ennemis	
245	8	eût	
246	8	fais	
247	8	fille	
248	8	force	
249	8	front	
250	8	fruit	
251	8	horreur	
252	8	hélas	
253	8	mépris	
254	8	narsée	
255	8	place	
256	8	puissance	
257	8	sais	
258	8	sein	
259	8	seul	
260	8	te	
261	8	tyran	
262	8	vain	
263	8	vaine	
264	8	vu	
265	7	arrêt	
266	7	attends	
267	7	autres	
268	7	avant	
269	7	aventure	
270	7	besoin	
271	7	colère	
272	7	conserver	
273	7	croire	
274	7	dit	
275	7	faix	
276	7	fer	
277	7	fers	
278	7	fut	
279	7	juge	
280	7	laisse	
281	7	longtemps	
282	7	lâche	
283	7	majesté	
284	7	malgré	
285	7	mien	
286	7	obéir	
287	7	perfide	
288	7	personne	
289	7	rapport	
290	7	regret	
291	7	rendre	
292	7	souffrir	
293	7	va	
294	7	voit	
295	7	voulez	
296	7	éclat	
297	7	épargner	
298	6	armes	
299	6	attentat	
300	6	attente	
301	6	aurais	
302	6	bruit	
303	6	ceux	
304	6	chaque	
305	6	confiance	
306	6	conseils	
307	6	coup	
308	6	destin	
309	6	déjà	
310	6	espoir	
311	6	exemple	
312	6	extrême	
313	6	fondement	
314	6	funeste	
315	6	fureur	
316	6	gloire	
317	6	honneur	
318	6	hymen	
319	6	importe	
320	6	indigne	
321	6	lieu	
322	6	marâtre	
323	6	mettre	
324	6	mis	
325	6	naissance	
326	6	peuple	
327	6	peuvent	
328	6	pieds	
329	6	plutôt	
330	6	pouvez	
331	6	prendre	
332	6	projet	
333	6	régnera	
334	6	serait	
335	6	trouve	
336	6	usage	
337	6	venger	
338	6	vivant	
339	6	voix	
340	6	était	
341	6	états	
342	5	abandonne	
343	5	agit	
344	5	appas	
345	5	appelle	
346	5	apporte	
347	5	armée	
348	5	artanasde	
349	5	bon	
350	5	capable	
351	5	cher	
352	5	chère	
353	5	commis	
354	5	connais	
355	5	cour	
356	5	craignez	
357	5	craindre	
358	5	croit	
359	5	cyrus	
360	5	diadème	
361	5	doux	
362	5	estime	
363	5	faiblesse	
364	5	font	
365	5	fort	
366	5	foudre	
367	5	gage	
368	5	gardez	
369	5	glorieux	
370	5	gouvernement	
371	5	grâce	
372	5	généreux	
373	5	heur	
374	5	hé	
375	5	illustre	
376	5	immoler	
377	5	instant	
378	5	inutile	
379	5	naissant	
380	5	occasion	
381	5	offre	
382	5	parle	
383	5	perte	
384	5	plaît	
385	5	pleurs	
386	5	porte	
387	5	presse	
388	5	princesse	
389	5	prompt	
390	5	punir	
391	5	rendez	
392	5	ressentiment	
393	5	romains	
394	5	sait	
395	5	secret	
396	5	sens	
397	5	seulement	
398	5	sire	
399	5	tiens	
400	5	toi	
401	5	venir	
402	5	veux	
403	5	vient	
404	5	vingt	
405	5	voilà	
406	5	épreuve	
407	5	êtes	
408	4	abord	
409	4	agir	
410	4	aime	
411	4	amis	
412	4	ans	
413	4	ardent	
414	4	arracher	
415	4	arrêter	
416	4	as	
417	4	attend	
418	4	auteurs	
419	4	avais	
420	4	aveuglement	
421	4	bourreaux	
422	4	chef	
423	4	conseil	
424	4	considérez	
425	4	contraire	
426	4	convie	
427	4	coupable	
428	4	couvert	
429	4	cruelle	
430	4	cruels	
431	4	degré	
432	4	demande	
433	4	destins	
434	4	devant	
435	4	devoir	
436	4	dire	
437	4	disgrâce	
438	4	donnez	
439	4	désespoir	
440	4	détestable	
441	4	détruire	
442	4	dû	
443	4	effets	
444	4	emplois	
445	4	ennemi	
446	4	entendre	
447	4	esprits	
448	4	eux	
449	4	fameux	
450	4	fatal	
451	4	faveur	
452	4	fera	
453	4	furie	
454	4	grande	
455	4	hormisdas	
456	4	héritier	
457	4	héréditaire	
458	4	ici	
459	4	insolence	
460	4	instrument	
461	4	intérêts	
462	4	jamais	
463	4	joie	
464	4	jusqu	
465	4	jusques	
466	4	juste	
467	4	justice	
468	4	laissez	
469	4	liberté	
470	4	légitime	
471	4	maison	
472	4	malheur	
473	4	maximes	
474	4	menace	
475	4	montrer	
476	4	mot	
477	4	mourir	
478	4	mémoire	
479	4	mérite	
480	4	nul	
481	4	obstacle	
482	4	ordonne	
483	4	ordres	
484	4	ouvrir	
485	4	paix	
486	4	paraître	
487	4	parricide	
488	4	perd	
489	4	possède	
490	4	pouvait	
491	4	pouvons	
492	4	propos	
493	4	propre	
494	4	proscrits	
495	4	périr	
496	4	quoique	
497	4	reconnaître	
498	4	regarde	
499	4	reposer	
500	4	respects	
501	4	royale	
502	4	réponds	
503	4	salut	
504	4	satrapes	
505	4	sauver	
506	4	sentiment	
507	4	soit	
508	4	soldats	
509	4	sommes	
510	4	sortir	
511	4	source	
512	4	souveraine	
513	4	succès	
514	4	suffit	
515	4	superflus	
516	4	suprême	
517	4	sûreté	
518	4	tendresse	
519	4	tenir	
520	4	tient	
521	4	titre	
522	4	toutefois	
523	4	toutes	
524	4	traits	
525	4	traité	
526	4	triste	
527	4	témoin	
528	4	témoins	
529	4	tôt	
530	4	vaincre	
531	4	vains	
532	4	vaut	
533	4	vivre	
534	4	voulu	
535	4	voyant	
536	4	voyons	
537	4	vérité	
538	4	éprouvez	
539	4	étais	
540	4	été	
541	3	abdenede	
542	3	absolu	
543	3	achever	
544	3	admire	
545	3	adversaire	
546	3	affront	
547	3	afin	
548	3	aide	
549	3	aimer	
550	3	ait	
551	3	alarme	
552	3	aller	
553	3	amant	
554	3	ardeurs	
555	3	armer	
556	3	arrête	
557	3	asile	
558	3	aurez	
559	3	autrui	
560	3	avantage	
561	3	aversion	
562	3	aveugle	
563	3	avouer	
564	3	aînesse	
565	3	barbare	
566	3	bas	
567	3	beau	
568	3	bonne	
569	3	brigue	
570	3	butte	
571	3	calme	
572	3	cependant	
573	3	chasse	
574	3	chaînes	
575	3	choir	
576	3	choix	
577	3	chose	
578	3	choses	
579	3	chute	
580	3	commande	
581	3	conquête	
582	3	consulte	
583	3	couronner	
584	3	couronné	
585	3	craint	
586	3	crimes	
587	3	cruel	
588	3	cède	
589	3	desseins	
590	3	devez	
591	3	devoirs	
592	3	disposer	
593	3	dispute	
594	3	divorce	
595	3	doive	
596	3	donnant	
597	3	défaut	
598	3	défense	
599	3	délivrez	
600	3	détruisez	
601	3	ennui	
602	3	eu	
603	3	excite	
604	3	exempt	
605	3	famille	
606	3	fasse	
607	3	ferme	
608	3	feront	
609	3	feu	
610	3	flanc	
611	3	fois	
612	3	forfait	
613	3	funestes	
614	3	grandeur	
615	3	hasarde	
616	3	honore	
617	3	honte	
618	3	hors	
619	3	illégitime	
620	3	importance	
621	3	importune	
622	3	inhumanité	
623	3	innocent	
624	3	insolent	
625	3	interdite	
626	3	intéressés	
627	3	irrésolu	
628	3	jaloux	
629	3	jeter	
630	3	joug	
631	3	laissant	
632	3	loin	
633	3	loyale	
634	3	là	
635	3	lâches	
636	3	légitimes	
637	3	maintenir	
638	3	malheureux	
639	3	malheurs	
640	3	marque	
641	3	marques	
642	3	matin	
643	3	met	
644	3	mienne	
645	3	monarques	
646	3	monte	
647	3	mouvements	
648	3	murmure	
649	3	noble	
650	3	né	
651	3	nôtre	
652	3	objets	
653	3	obliger	
654	3	offense	
655	3	ordonner	
656	3	osé	
657	3	parer	
658	3	parlant	
659	3	parler	
660	3	passer	
661	3	passion	
662	3	penser	
663	3	pensée	
664	3	perds	
665	3	pieux	
666	3	pitié	
667	3	piété	
668	3	plaire	
669	3	plaisir	
670	3	porter	
671	3	pourrais	
672	3	pourrait	
673	3	pratiqué	
674	3	premier	
675	3	prend	
676	3	princes	
677	3	pris	
678	3	promis	
679	3	près	
680	3	prêter	
681	3	publique	
682	3	puisque	
683	3	péril	
684	3	périrai	
685	3	qualité	
686	3	quels	
687	3	querelle	
688	3	rage	
689	3	rendu	
690	3	reproche	
691	3	reprocher	
692	3	saisi	
693	3	saisir	
694	3	savez	
695	3	secours	
696	3	seront	
697	3	sert	
698	3	servir	
699	3	seule	
700	3	sien	
701	3	sinon	
702	3	sitôt	
703	3	soleil	
704	3	sollicite	
705	3	sorti	
706	3	souffrez	
707	3	soutenez	
708	3	souvenir	
709	3	souverain	
710	3	succédera	
711	3	suivez	
712	3	suivre	
713	3	supplice	
714	3	tendre	
715	3	tenez	
716	3	tenter	
717	3	terre	
718	3	timide	
719	3	tombe	
720	3	tomber	
721	3	tort	
722	3	trait	
723	3	travaux	
724	3	traverse	
725	3	tremble	
726	3	trouble	
727	3	trouvez	
728	3	usurpé	
729	3	vanter	
730	3	vengeance	
731	3	vengeances	
732	3	verrez	
733	3	viens	
734	3	ville	
735	3	violence	
736	3	visage	
737	3	voici	
738	3	éclater	
739	3	écoute	
740	3	émeut	
741	3	émile	
742	3	énorme	
743	3	éprouver	
744	3	ôter	
745	2	accable	
746	2	accepté	
747	2	accident	
748	2	accidents	
749	2	accès	
750	2	achevez	
751	2	achète	
752	2	affection	
753	2	affermir	
754	2	agite	
755	2	aillent	
756	2	aimait	
757	2	aisément	
758	2	allez	
759	2	altère	
760	2	amitié	
761	2	amène	
762	2	appareil	
763	2	apporta	
764	2	apporté	
765	2	apprendre	
766	2	apprenez	
767	2	arbitre	
768	2	arrive	
769	2	arriver	
770	2	arrêté	
771	2	artaxerce	
772	2	assassin	
773	2	assouvir	
774	2	assurer	
775	2	assurez	
776	2	attendre	
777	2	aucun	
778	2	audace	
779	2	aura	
780	2	auront	
781	2	aussi	
782	2	autant	
783	2	avaient	
784	2	avait	
785	2	aveuglé	
786	2	balance	
787	2	bandeau	
788	2	beaucoup	
789	2	belle	
790	2	berceau	
791	2	bienfaits	
792	2	bonheur	
793	2	bons	
794	2	bontés	
795	2	bourreau	
796	2	bout	
797	2	brillants	
798	2	bâton	
799	2	caprice	
800	2	celles	
801	2	cesse	
802	2	cessé	
803	2	chacun	
804	2	changement	
805	2	changements	
806	2	changer	
807	2	changé	
808	2	charmes	
809	2	chassez	
810	2	chefs	
811	2	chemin	
812	2	chemins	
813	2	chez	
814	2	choquer	
815	2	clarté	
816	2	combat	
817	2	combattre	
818	2	combien	
819	2	commander	
820	2	commun	
821	2	commune	
822	2	complot	
823	2	comprendre	
824	2	conclu	
825	2	confus	
826	2	connaissez	
827	2	connaître	
828	2	consenti	
829	2	conservez	
830	2	considère	
831	2	contester	
832	2	coups	
833	2	couronnes	
834	2	cours	
835	2	course	
836	2	court	
837	2	coûte	
838	2	craindrais	
839	2	crains	
840	2	criminels	
841	2	crois	
842	2	croyant	
843	2	croyez	
844	2	créance	
845	2	céleste	
846	2	daignez	
847	2	dangereux	
848	2	demander	
849	2	demeure	
850	2	dernier	
851	2	destine	
852	2	destinée	
853	2	devons	
854	2	diadèmes	
855	2	dieu	
856	2	différence	
857	2	différend	
858	2	digne	
859	2	dignement	
860	2	dignes	
861	2	douleur	
862	2	douleurs	
863	2	doute	
864	2	dure	
865	2	débris	
866	2	défend	
867	2	défendre	
868	2	délibère	
869	2	délibérer	
870	2	délivre	
871	2	déloyal	
872	2	démis	
873	2	dépendre	
874	2	dépends	
875	2	déplorable	
876	2	déposez	
877	2	désarme	
878	2	désir	
879	2	détesté	
880	2	détruit	
881	2	effrayé	
882	2	embrassera	
883	2	employer	
884	2	empêcher	
885	2	endroit	
886	2	ennemie	
887	2	entrailles	
888	2	entrant	
889	2	entreprise	
890	2	espère	
891	2	espérer	
892	2	eusse	
893	2	examine	
894	2	exclut	
895	2	excusez	
896	2	exhale	
897	2	expérience	
898	2	exécute	
899	2	exécuté	
900	2	face	
901	2	faible	
902	2	faibles	
903	2	faille	
904	2	fallu	
905	2	fantôme	
906	2	fatale	
907	2	fausse	
908	2	feux	
909	2	fidèle	
910	2	fidélité	
911	2	filles	
912	2	fit	
913	2	flammes	
914	2	flatte	
915	2	flatter	
916	2	fonds	
917	2	formée	
918	2	foule	
919	2	franchise	
920	2	frustrer	
921	2	furieux	
922	2	gagner	
923	2	garder	
924	2	goûter	
925	2	grandes	
926	2	gré	
927	2	guerre	
928	2	guère	
929	2	hasarder	
930	2	haut	
931	2	haïr	
932	2	heure	
933	2	heureux	
934	2	hier	
935	2	hommage	
936	2	homme	
937	2	horrible	
938	2	héraclius	
939	2	idolâtre	
940	2	image	
941	2	impiété	
942	2	importun	
943	2	impose	
944	2	impunie	
945	2	incapable	
946	2	inconstant	
947	2	indignité	
948	2	infamie	
949	2	ingrate	
950	2	inhumain	
951	2	injure	
952	2	instance	
953	2	instruments	
954	2	intelligences	
955	2	interdit	
956	2	intéressée	
957	2	invincible	
958	2	invite	
959	2	irrité	
960	2	issue	
961	2	jeune	
962	2	joins	
963	2	jugé	
964	2	justement	
965	2	justes	
966	2	languir	
967	2	lassé	
968	2	lieux	
969	2	lit	
970	2	lors	
971	2	manquer	
972	2	manqué	
973	2	maîtres	
974	2	maîtresse	
975	2	menacer	
976	2	meurtre	
977	2	meut	
978	2	miens	
979	2	ministres	
980	2	moment	
981	2	monarque	
982	2	montrant	
983	2	montre	
984	2	montrent	
985	2	monument	
986	2	mâle	
987	2	mène	
988	2	mémorable	
989	2	naît	
990	2	noire	
991	2	noms	
992	2	nourriture	
993	2	nouvelle	
994	2	nuire	
995	2	nuit	
996	2	obligé	
997	2	obscurité	
998	2	obtiens	
999	2	obéis	
1000	2	obéissance	
1001	2	occuper	
1002	2	occupez	
1003	2	office	
1004	2	ombrage	
1005	2	oreille	
1006	2	ornement	
1007	2	osai	
1008	2	osais	
1009	2	oses	
1010	2	oublier	
1011	2	outre	
1012	2	ouvrez	
1013	2	palais	
1014	2	pardonnez	
1015	2	parent	
1016	2	parlai	
1017	2	parmi	
1018	2	partager	
1019	2	partisans	
1020	2	passeront	
1021	2	perdons	
1022	2	persane	
1023	2	persécuteurs	
1024	2	peste	
1025	2	peuples	
1026	2	peur	
1027	2	plaindrais	
1028	2	plaintes	
1029	2	plaira	
1030	2	plairait	
1031	2	plaise	
1032	2	politique	
1033	2	pompeux	
1034	2	possesseur	
1035	2	pourra	
1036	2	pourvoir	
1037	2	pouvaient	
1038	2	première	
1039	2	prends	
1040	2	prescrit	
1041	2	presser	
1042	2	prisonniers	
1043	2	prive	
1044	2	priver	
1045	2	prière	
1046	2	produire	
1047	2	profond	
1048	2	projets	
1049	2	proposer	
1050	2	propres	
1051	2	protecteurs	
1052	2	providents	
1053	2	province	
1054	2	préfère	
1055	2	préparer	
1056	2	présent	
1057	2	présente	
1058	2	présents	
1059	2	prétend	
1060	2	prétendre	
1061	2	prévenir	
1062	2	prévenu	
1063	2	prévoir	
1064	2	prêtez	
1065	2	puisqu	
1066	2	puissant	
1067	2	puissants	
1068	2	punit	
1069	2	punition	
1070	2	pères	
1071	2	périls	
1072	2	périsse	
1073	2	qualités	
1074	2	quartiers	
1075	2	quittant	
1076	2	rangs	
1077	2	redoutez	
1078	2	refuge	
1079	2	refus	
1080	2	regard	
1081	2	remords	
1082	2	remède	
1083	2	renaître	
1084	2	rend	
1085	2	rendent	
1086	2	rends	
1087	2	renonce	
1088	2	repentir	
1089	2	reprendre	
1090	2	respecter	
1091	2	respire	
1092	2	retire	
1093	2	revers	
1094	2	reçu	
1095	2	rigueur	
1096	2	rigueurs	
1097	2	rit	
1098	2	royal	
1099	2	ruine	
1100	2	réglez	
1101	2	réglé	
1102	2	régnant	
1103	2	régnerez	
1104	2	régnez	
1105	2	répond	
1106	2	répondait	
1107	2	révère	
1108	2	révérer	
1109	2	révérée	
1110	2	rênes	
1111	2	sacrifier	
1112	2	saisie	
1113	2	saison	
1114	2	salutaire	
1115	2	sandoce	
1116	2	satisfaire	
1117	2	satisfaits	
1118	2	saurai	
1119	2	saurez	
1120	2	sauvez	
1121	2	savoir	
1122	2	second	
1123	2	selon	
1124	2	sent	
1125	2	serais	
1126	2	serez	
1127	2	sers	
1128	2	servez	
1129	2	sied	
1130	2	songez	
1131	2	souffre	
1132	2	souhaite	
1133	2	soulèvements	
1134	2	soutenu	
1135	2	souvent	
1136	2	souverains	
1137	2	soyez	
1138	2	spectacle	
1139	2	su	
1140	2	successeur	
1141	2	succède	
1142	2	suit	
1143	2	suivis	
1144	2	sujets	
1145	2	sujette	
1146	2	surtout	
1147	2	sydaris	
1148	2	sûr	
1149	2	taire	
1150	2	tait	
1151	2	tandis	
1152	2	tel	
1153	2	telle	
1154	2	tels	
1155	2	tenu	
1156	2	terreur	
1157	2	tige	
1158	2	tombeau	
1159	2	touche	
1160	2	toucher	
1161	2	trahit	
1162	2	trame	
1163	2	tranché	
1164	2	traîne	
1165	2	traîtres	
1166	2	trembler	
1167	2	tristes	
1168	2	trouver	
1169	2	trouvera	
1170	2	trouvé	
1171	2	trépas	
1172	2	tue	
1173	2	tyrans	
1174	2	témoigné	
1175	2	têtes	
1176	2	unis	
1177	2	usez	
1178	2	vanité	
1179	2	venez	
1180	2	vertus	
1181	2	veuve	
1182	2	victime	
1183	2	vis	
1184	2	vit	
1185	2	vive	
1186	2	vois	
1187	2	vont	
1188	2	vrai	
1189	2	âmes	
1190	2	éclatant	
1191	2	éclatera	
1192	2	ému	
1193	2	épargnez	
1194	2	épée	
1195	2	équité	
1196	2	établir	
1197	2	étant	
1198	2	étiez	
1199	2	étonne	
1200	2	ôtez	
1201	1	abaisse	
1202	1	abandonnons	
1203	1	abandonné	
1204	1	abattre	
1205	1	abattu	
1206	1	abattus	
1207	1	abordant	
1208	1	aborder	
1209	1	absolument	
1210	1	absoudre	
1211	1	abusa	
1212	1	abusant	
1213	1	abuse	
1214	1	abuser	
1215	1	abîme	
1216	1	accabler	
1217	1	acceptant	
1218	1	accepter	
1219	1	accomplir	
1220	1	accord	
1221	1	accorder	
1222	1	accroît	
1223	1	accru	
1224	1	accusé	
1225	1	achetai	
1226	1	acheter	
1227	1	achèveront	
1228	1	acquiers	
1229	1	acquisition	
1230	1	acquitter	
1231	1	acquière	
1232	1	acquièrent	
1233	1	acquéraient	
1234	1	acte	
1235	1	action	
1236	1	admet	
1237	1	admirez	
1238	1	adorateurs	
1239	1	adore	
1240	1	adorer	
1241	1	adroitement	
1242	1	affermi	
1243	1	affermissement	
1244	1	affermissez	
1245	1	affligée	
1246	1	affligés	
1247	1	affranchir	
1248	1	affreux	
1249	1	agents	
1250	1	agissez	
1251	1	agité	
1252	1	aider	
1253	1	aidera	
1254	1	ailleurs	
1255	1	aiment	
1256	1	aimez	
1257	1	ainsi	
1258	1	aisé	
1259	1	ajouter	
1260	1	alarmée	
1261	1	alentit	
1262	1	allant	
1263	1	alliance	
1264	1	allumée	
1265	1	alors	
1266	1	altéré	
1267	1	amenez	
1268	1	amorces	
1269	1	amortie	
1270	1	ample	
1271	1	amènent	
1272	1	animait	
1273	1	anime	
1274	1	animez	
1275	1	années	
1276	1	apercevez	
1277	1	appeler	
1278	1	appelez	
1279	1	appliquer	
1280	1	apportera	
1281	1	apprend	
1282	1	apprendrons	
1283	1	apprends	
1284	1	appris	
1285	1	approche	
1286	1	approchera	
1287	1	approuve	
1288	1	apprêt	
1289	1	apprête	
1290	1	appui	
1291	1	appuiera	
1292	1	appuyé	
1293	1	appuyée	
1294	1	armant	
1295	1	armé	
1296	1	arménie	
1297	1	arrêtez	
1298	1	arrêtée	
1299	1	arrêtés	
1300	1	asie	
1301	1	aspire	
1302	1	aspirer	
1303	1	assassinats	
1304	1	assemblez	
1305	1	assiette	
1306	1	assure	
1307	1	assuré	
1308	1	astre	
1309	1	attache	
1310	1	attaquais	
1311	1	attaquent	
1312	1	attaqué	
1313	1	atteindre	
1314	1	atteinte	
1315	1	attendent	
1316	1	attendez	
1317	1	attendrit	
1318	1	attenter	
1319	1	attire	
1320	1	aucune	
1321	1	augure	
1322	1	augures	
1323	1	augurons	
1324	1	augustes	
1325	1	auparavant	
1326	1	aurai	
1327	1	aurait	
1328	1	auriez	
1329	1	aurons	
1330	1	auspices	
1331	1	aussitôt	
1332	1	autel	
1333	1	auteur	
1334	1	autrement	
1335	1	avancé	
1336	1	avenir	
1337	1	aventures	
1338	1	averti	
1339	1	avide	
1340	1	avisons	
1341	1	avons	
1342	1	avortée	
1343	1	avouez	
1344	1	avoué	
1345	1	ayez	
1346	1	aîné	
1347	1	aïeul	
1348	1	aïeux	
1349	1	bannie	
1350	1	barbares	
1351	1	base	
1352	1	battus	
1353	1	belles	
1354	1	bienfait	
1355	1	biens	
1356	1	billet	
1357	1	bitume	
1358	1	blesser	
1359	1	blessures	
1360	1	blessés	
1361	1	bouche	
1362	1	bouches	
1363	1	bouclier	
1364	1	braver	
1365	1	braves	
1366	1	briguer	
1367	1	brigues	
1368	1	brûlant	
1369	1	brûlez	
1370	1	buvant	
1371	1	cache	
1372	1	cachot	
1373	1	calomnie	
1374	1	captivité	
1375	1	car	
1376	1	cas	
1377	1	cause	
1378	1	causes	
1379	1	causé	
1380	1	cendres	
1381	1	cercueil	
1382	1	cesser	
1383	1	cessera	
1384	1	cessez	
1385	1	cessons	
1386	1	chagrin	
1387	1	chambre	
1388	1	champ	
1389	1	chancelle	
1390	1	change	
1391	1	char	
1392	1	charge	
1393	1	charger	
1394	1	charmants	
1395	1	charmé	
1396	1	chassant	
1397	1	chasser	
1398	1	chassé	
1399	1	chastes	
1400	1	cherchais	
1401	1	cherche	
1402	1	cherchez	
1403	1	cherché	
1404	1	chimériques	
1405	1	choisis	
1406	1	choisisse	
1407	1	choisissez	
1408	1	châtiment	
1409	1	chérit	
1410	1	cillait	
1411	1	ciment	
1412	1	cimenter	
1413	1	citer	
1414	1	clairement	
1415	1	combattue	
1416	1	comble	
1417	1	combler	
1418	1	comblez	
1419	1	comment	
1420	1	commettez	
1421	1	commise	
1422	1	commission	
1423	1	commit	
1424	1	communs	
1425	1	compagnon	
1426	1	comparez	
1427	1	compassion	
1428	1	complaisance	
1429	1	complots	
1430	1	compte	
1431	1	comptez	
1432	1	condamné	
1433	1	condition	
1434	1	conduira	
1435	1	conduit	
1436	1	confidents	
1437	1	confondre	
1438	1	conformité	
1439	1	confusion	
1440	1	connaît	
1441	1	connaîtrez	
1442	1	consentais	
1443	1	consentement	
1444	1	consentir	
1445	1	conserve	
1446	1	considérant	
1447	1	considérer	
1448	1	considérée	
1449	1	consiste	
1450	1	consomment	
1451	1	consommez	
1452	1	conspire	
1453	1	constance	
1454	1	consulter	
1455	1	consultez	
1456	1	consultons	
1457	1	contemple	
1458	1	contenir	
1459	1	contracter	
1460	1	contraint	
1461	1	convulsion	
1462	1	conçu	
1463	1	conçue	
1464	1	couchant	
1465	1	couche	
1466	1	couleuvres	
1467	1	coupables	
1468	1	coupe	
1469	1	couper	
1470	1	courage	
1471	1	couronnant	
1472	1	couronnement	
1473	1	couronnera	
1474	1	courre	
1475	1	couvé	
1476	1	coûta	
1477	1	coûtent	
1478	1	craignant	
1479	1	crainte	
1480	1	criminel	
1481	1	criminelle	
1482	1	cris	
1483	1	croissants	
1484	1	cru	
1485	1	cruelles	
1486	1	crus	
1487	1	créature	
1488	1	cèle	
1489	1	céder	
1490	1	célestes	
1491	1	da	
1492	1	daigné	
1493	1	danger	
1494	1	davantage	
1495	1	demandent	
1496	1	demeurer	
1497	1	demeurez	
1498	1	depuis	
1499	1	dernière	
1500	1	dernières	
1501	1	descendre	
1502	1	dessous	
1503	1	destiner	
1504	1	destinées	
1505	1	devait	
1506	1	devenir	
1507	1	devienne	
1508	1	deviennent	
1509	1	devient	
1510	1	deviez	
1511	1	devions	
1512	1	devrai	
1513	1	devriez	
1514	1	devront	
1515	1	différences	
1516	1	différents	
1517	1	discrétion	
1518	1	dispenser	
1519	1	dispensera	
1520	1	dispose	
1521	1	disposez	
1522	1	disposé	
1523	1	dissimule	
1524	1	dissimulent	
1525	1	dissuader	
1526	1	dites	
1527	1	diverti	
1528	1	divinités	
1529	1	doivent	
1530	1	dompte	
1531	1	domptera	
1532	1	donnent	
1533	1	donnera	
1534	1	donnes	
1535	1	dormir	
1536	1	douceur	
1537	1	douceurs	
1538	1	douter	
1539	1	douteux	
1540	1	doutez	
1541	1	doutiez	
1542	1	dressait	
1543	1	dus	
1544	1	dut	
1545	1	dès	
1546	1	débile	
1547	1	déchargez	
1548	1	déchargé	
1549	1	décharné	
1550	1	décider	
1551	1	déclarer	
1552	1	déclarez	
1553	1	décrets	
1554	1	défendu	
1555	1	défenseur	
1556	1	défiance	
1557	1	déférence	
1558	1	déférences	
1559	1	déférer	
1560	1	délivrer	
1561	1	démentent	
1562	1	démets	
1563	1	démon	
1564	1	déniera	
1565	1	dépendit	
1566	1	dépit	
1567	1	déplaira	
1568	1	déplaire	
1569	1	déploie	
1570	1	déposant	
1571	1	dépose	
1572	1	déposer	
1573	1	déposséder	
1574	1	dépossédés	
1575	1	déposé	
1576	1	dépouillai	
1577	1	dépouillant	
1578	1	dépouiller	
1579	1	dépouillez	
1580	1	dépouillé	
1581	1	désarmé	
1582	1	désireux	
1583	1	désisté	
1584	1	désordonné	
1585	1	déteste	
1586	1	détourne	
1587	1	détourner	
1588	1	détournez	
1589	1	détruisant	
1590	1	efforts	
1591	1	effrayés	
1592	1	effroi	
1593	1	effronté	
1594	1	effroyable	
1595	1	effroyables	
1596	1	embrasse	
1597	1	embrasés	
1598	1	emmenez	
1599	1	emmène	
1600	1	emparer	
1601	1	empariez	
1602	1	emparé	
1603	1	emploi	
1604	1	emploie	
1605	1	emploierais	
1606	1	employons	
1607	1	empoisonnent	
1608	1	empoisonné	
1609	1	emporte	
1610	1	encens	
1611	1	enfance	
1612	1	enfermez	
1613	1	enfers	
1614	1	enflé	
1615	1	enfoncé	
1616	1	engage	
1617	1	ennuis	
1618	1	ensanglanté	
1619	1	enseigner	
1620	1	ensevelir	
1621	1	entend	
1622	1	entendez	
1623	1	entier	
1624	1	entière	
1625	1	entrent	
1626	1	entreprend	
1627	1	entrer	
1628	1	entretenait	
1629	1	entretenez	
1630	1	entretien	
1631	1	entretient	
1632	1	entrez	
1633	1	enveloppé	
1634	1	envie	
1635	1	envier	
1636	1	environne	
1637	1	envié	
1638	1	enviée	
1639	1	envoie	
1640	1	envoyer	
1641	1	es	
1642	1	esclaves	
1643	1	espérerais	
1644	1	espérez	
1645	1	essai	
1646	1	estimerai	
1647	1	estimez	
1648	1	europe	
1649	1	eussions	
1650	1	eussé	
1651	1	examiner	
1652	1	excepterais	
1653	1	exclure	
1654	1	exclus	
1655	1	excuser	
1656	1	excès	
1657	1	exempter	
1658	1	exercer	
1659	1	exercez	
1660	1	exercice	
1661	1	exigeront	
1662	1	expirant	
1663	1	expirer	
1664	1	expliquerai	
1665	1	expliqué	
1666	1	expliqués	
1667	1	exploit	
1668	1	expose	
1669	1	exposez	
1670	1	exprès	
1671	1	exterminons	
1672	1	exécuter	
1673	1	exécutez	
1674	1	exécution	
1675	1	factieux	
1676	1	faction	
1677	1	faiblesses	
1678	1	faisant	
1679	1	faisons	
1680	1	faite	
1681	1	familles	
1682	1	fardeau	
1683	1	faste	
1684	1	fatalité	
1685	1	faudra	
1686	1	faute	
1687	1	faux	
1688	1	faveurs	
1689	1	ferais	
1690	1	ferait	
1691	1	ferez	
1692	1	fermer	
1693	1	fermé	
1694	1	fertile	
1695	1	fidèles	
1696	1	fiers	
1697	1	fierté	
1698	1	fiez	
1699	1	figurent	
1700	1	fis	
1701	1	fière	
1702	1	flancs	
1703	1	flattais	
1704	1	flatteurs	
1705	1	flatté	
1706	1	fleur	
1707	1	fleurir	
1708	1	flottante	
1709	1	fléchir	
1710	1	fol	
1711	1	fondements	
1712	1	fonder	
1713	1	fondé	
1714	1	forces	
1715	1	forcées	
1716	1	forge	
1717	1	forger	
1718	1	forme	
1719	1	former	
1720	1	formé	
1721	1	formés	
1722	1	forte	
1723	1	forts	
1724	1	fourbe	
1725	1	frappé	
1726	1	frivoles	
1727	1	froideur	
1728	1	frustre	
1729	1	frémis	
1730	1	frémissant	
1731	1	frénésie	
1732	1	fréquent	
1733	1	fuie	
1734	1	fuit	
1735	1	fuite	
1736	1	funèbre	
1737	1	funérailles	
1738	1	furent	
1739	1	fureurs	
1740	1	futur	
1741	1	féconde	
1742	1	gagnons	
1743	1	gagnés	
1744	1	garantir	
1745	1	gardent	
1746	1	gardera	
1747	1	gardé	
1748	1	genre	
1749	1	glace	
1750	1	glacé	
1751	1	glacée	
1752	1	gonflant	
1753	1	gouffre	
1754	1	gouvernements	
1755	1	goût	
1756	1	goûtant	
1757	1	goûtez	
1758	1	grandeurs	
1759	1	grecs	
1760	1	gronder	
1761	1	grâces	
1762	1	guérir	
1763	1	généreuse	
1764	1	gêner	
1765	1	habitants	
1766	1	hait	
1767	1	hardi	
1768	1	hasardant	
1769	1	hasardiez	
1770	1	haïs	
1771	1	homicide	
1772	1	hommes	
1773	1	honorant	
1774	1	honoré	
1775	1	horizon	
1776	1	hormisdate	
1777	1	horreurs	
1778	1	humaines	
1779	1	humeur	
1780	1	hésite	
1781	1	hésité	
1782	1	idole	
1783	1	idée	
1784	1	ignorer	
1785	1	illusion	
1786	1	illusions	
1787	1	imaginaire	
1788	1	imaginer	
1789	1	imbécile	
1790	1	immobile	
1791	1	immole	
1792	1	immolé	
1793	1	impatience	
1794	1	impitoyables	
1795	1	implorable	
1796	1	importait	
1797	1	important	
1798	1	importante	
1799	1	imposer	
1800	1	imposez	
1801	1	imposteur	
1802	1	imposture	
1803	1	impunité	
1804	1	impute	
1805	1	incapables	
1806	1	incertain	
1807	1	inclinais	
1808	1	incommodité	
1809	1	indompté	
1810	1	indulgence	
1811	1	indépendant	
1812	1	infidèle	
1813	1	infinies	
1814	1	infortuné	
1815	1	infâme	
1816	1	ingrat	
1817	1	inhumaine	
1818	1	inhumains	
1819	1	inhumant	
1820	1	injures	
1821	1	injuste	
1822	1	injustice	
1823	1	innocemment	
1824	1	innocents	
1825	1	inopinée	
1826	1	inouï	
1827	1	inquiétez	
1828	1	inquiétude	
1829	1	insolemment	
1830	1	insolents	
1831	1	instruire	
1832	1	intelligence	
1833	1	intéresse	
1834	1	intéresser	
1835	1	intéressez	
1836	1	intéressons	
1837	1	inégale	
1838	1	iront	
1839	1	irrite	
1840	1	issu	
1841	1	jaillit	
1842	1	jeu	
1843	1	joignit	
1844	1	joindra	
1845	1	joindre	
1846	1	joint	
1847	1	jointe	
1848	1	joui	
1849	1	jouir	
1850	1	jugement	
1851	1	jugements	
1852	1	juger	
1853	1	juges	
1854	1	jugez	
1855	1	jurer	
1856	1	juré	
1857	1	justifiera	
1858	1	laisseront	
1859	1	laissiez	
1860	1	laissons	
1861	1	lancer	
1862	1	lancé	
1863	1	lançons	
1864	1	larme	
1865	1	larmes	
1866	1	las	
1867	1	laverait	
1868	1	lavez	
1869	1	libre	
1870	1	licence	
1871	1	lien	
1872	1	ligue	
1873	1	ligues	
1874	1	lionne	
1875	1	livre	
1876	1	loisir	
1877	1	longue	
1878	1	lorsque	
1879	1	louable	
1880	1	louerait	
1881	1	lumière	
1882	1	lustre	
1883	1	lustres	
1884	1	lâchement	
1885	1	lâcheté	
1886	1	lève	
1887	1	lèvres	
1888	1	légions	
1889	1	malheureuse	
1890	1	mandement	
1891	1	marquer	
1892	1	maudit	
1893	1	maudite	
1894	1	mauvais	
1895	1	mauvaise	
1896	1	menacez	
1897	1	merveille	
1898	1	merveilleux	
1899	1	messéant	
1900	1	mets	
1901	1	mettent	
1902	1	mettes	
1903	1	mettra	
1904	1	mettrai	
1905	1	mettriez	
1906	1	meurt	
1907	1	mille	
1908	1	ministre	
1909	1	ministère	
1910	1	miracles	
1911	1	mise	
1912	1	misère	
1913	1	misérable	
1914	1	moindre	
1915	1	moindres	
1916	1	mois	
1917	1	moitié	
1918	1	mol	
1919	1	moments	
1920	1	monde	
1921	1	montons	
1922	1	montrais	
1923	1	monté	
1924	1	moquez	
1925	1	morsures	
1926	1	morte	
1927	1	mortel	
1928	1	mourrais	
1929	1	mourront	
1930	1	moyens	
1931	1	murailles	
1932	1	mutins	
1933	1	mutinés	
1934	1	méconnaît	
1935	1	mécontent	
1936	1	mécontents	
1937	1	mélancoliques	
1938	1	ménagez	
1939	1	mérita	
1940	1	méritaient	
1941	1	méritez	
1942	1	mû	
1943	1	nager	
1944	1	naguère	
1945	1	naissante	
1946	1	naissants	
1947	1	naturel	
1948	1	naturelle	
1949	1	naîtra	
1950	1	naître	
1951	1	noblement	
1952	1	nobles	
1953	1	noir	
1954	1	noircir	
1955	1	noires	
1956	1	nombre	
1957	1	nommant	
1958	1	nourri	
1959	1	nourrir	
1960	1	nourrirez	
1961	1	nouveauté	
1962	1	nuage	
1963	1	nue	
1964	1	nuisible	
1965	1	nécessité	
1966	1	négliger	
1967	1	négligez	
1968	1	oblige	
1969	1	obligent	
1970	1	obscur	
1971	1	observerai	
1972	1	observons	
1973	1	observé	
1974	1	obstacles	
1975	1	obtenait	
1976	1	obtenir	
1977	1	obtenu	
1978	1	obéisse	
1979	1	obéissez	
1980	1	obéît	
1981	1	occasions	
1982	1	occupe	
1983	1	occupera	
1984	1	occupée	
1985	1	odieuses	
1986	1	odieux	
1987	1	oeil	
1988	1	offensés	
1989	1	offerte	
1990	1	offices	
1991	1	offrir	
1992	1	ois	
1993	1	ombrages	
1994	1	ombre	
1995	1	opposant	
1996	1	opposez	
1997	1	opprime	
1998	1	or	
1999	1	ordonné	
2000	1	oreilles	
2001	1	osent	
2002	1	oser	
2003	1	oubliez	
2004	1	oubliés	
2005	1	outrager	
2006	1	outrages	
2007	1	ouvert	
2008	1	ouverts	
2009	1	ouvrage	
2010	1	ouvrons	
2011	1	ouï	
2012	1	ouïr	
2013	1	oyant	
2014	1	pacor	
2015	1	paisible	
2016	1	palmyre	
2017	1	paraît	
2018	1	pareil	
2019	1	parera	
2020	1	parlementer	
2021	1	parlez	
2022	1	paroles	
2023	1	partagé	
2024	1	partait	
2025	1	partis	
2026	1	passe	
2027	1	passent	
2028	1	passera	
2029	1	passé	
2030	1	patience	
2031	1	payer	
2032	1	pays	
2033	1	peignant	
2034	1	penchant	
2035	1	pendant	
2036	1	pense	
2037	1	pensez	
2038	1	pensées	
2039	1	percent	
2040	1	percer	
2041	1	perdez	
2042	1	perdu	
2043	1	perfidie	
2044	1	permis	
2045	1	permise	
2046	1	perpétuer	
2047	1	personnes	
2048	1	persuader	
2049	1	persépolis	
2050	1	pestes	
2051	1	petits	
2052	1	pieuse	
2053	1	pis	
2054	1	placer	
2055	1	placé	
2056	1	plaigne	
2057	1	plaignez	
2058	1	plaindre	
2059	1	plaindrez	
2060	1	plains	
2061	1	plainte	
2062	1	pleiger	
2063	1	pleurer	
2064	1	ployer	
2065	1	plu	
2066	1	poids	
2067	1	poignantes	
2068	1	poignard	
2069	1	poil	
2070	1	poindre	
2071	1	pointe	
2072	1	pointes	
2073	1	portaient	
2074	1	portais	
2075	1	portait	
2076	1	portant	
2077	1	porterait	
2078	1	porteur	
2079	1	portez	
2080	1	porté	
2081	1	possession	
2082	1	possédait	
2083	1	possédant	
2084	1	posséder	
2085	1	possédez	
2086	1	possédé	
2087	1	potentat	
2088	1	potentats	
2089	1	poursuite	
2090	1	pourvoira	
2091	1	pourvoirai	
2092	1	poussant	
2093	1	pousse	
2094	1	pouvant	
2095	1	pratiquer	
2096	1	pratiquez	
2097	1	pratiquons	
2098	1	pratiqués	
2099	1	prenait	
2100	1	prenant	
2101	1	prendra	
2102	1	prendrai	
2103	1	prendrez	
2104	1	prenez	
2105	1	prennent	
2106	1	prenons	
2107	1	prescrira	
2108	1	prescrite	
2109	1	prescrits	
2110	1	pressant	
2111	1	pressentiments	
2112	1	pressez	
2113	1	pressé	
2114	1	preuve	
2115	1	prier	
2116	1	prisonnier	
2117	1	privée	
2118	1	prié	
2119	1	prochaine	
2120	1	proche	
2121	1	proclamant	
2122	1	proclamer	
2123	1	procura	
2124	1	procès	
2125	1	prodige	
2126	1	prodigue	
2127	1	produira	
2128	1	produisent	
2129	1	profitez	
2130	1	profère	
2131	1	progrès	
2132	1	prolonger	
2133	1	promesse	
2134	1	promets	
2135	1	promettant	
2136	1	promettre	
2137	1	promène	
2138	1	prononce	
2139	1	prononcer	
2140	1	prononçant	
2141	1	proposa	
2142	1	propose	
2143	1	prospère	
2144	1	prospères	
2145	1	protection	
2146	1	protège	
2147	1	protégé	
2148	1	prouve	
2149	1	prouver	
2150	1	prudents	
2151	1	précaution	
2152	1	précieux	
2153	1	précipices	
2154	1	précis	
2155	1	précède	
2156	1	prédit	
2157	1	préférant	
2158	1	préférence	
2159	1	préférer	
2160	1	préférerais	
2161	1	prépare	
2162	1	préparez	
2163	1	préparé	
2164	1	préside	
2165	1	présidez	
2166	1	prétendait	
2167	1	prétendez	
2168	1	prétends	
2169	1	prétexte	
2170	1	prévenez	
2171	1	prévois	
2172	1	prévoit	
2173	1	prêt	
2174	1	prête	
2175	1	prêts	
2176	1	public	
2177	1	puisai	
2178	1	puissamment	
2179	1	puissances	
2180	1	puisé	
2181	1	pur	
2182	1	pures	
2183	1	pureté	
2184	1	purger	
2185	1	pâle	
2186	1	pèze	
2187	1	périlleuse	
2188	1	périra	
2189	1	quelles	
2190	1	quelques	
2191	1	questions	
2192	1	quinze	
2193	1	quittée	
2194	1	raisonnements	
2195	1	raisons	
2196	1	ranger	
2197	1	rarement	
2198	1	ravir	
2199	1	ravisse	
2200	1	ravissez	
2201	1	ravit	
2202	1	recevant	
2203	1	recevez	
2204	1	recevoir	
2205	1	recevra	
2206	1	recevrais	
2207	1	reconnais	
2208	1	reconnaissance	
2209	1	reconnaît	
2210	1	reconnaîtra	
2211	1	reconnu	
2212	1	recouvre	
2213	1	recouvrer	
2214	1	redis	
2215	1	redoublez	
2216	1	redoutable	
2217	1	redoutables	
2218	1	redoutant	
2219	1	redouté	
2220	1	refroidit	
2221	1	refusée	
2222	1	regardant	
2223	1	regrette	
2224	1	rejette	
2225	1	remenez	
2226	1	remettait	
2227	1	remettant	
2228	1	remette	
2229	1	remettre	
2230	1	remis	
2231	1	remplir	
2232	1	remplissez	
2233	1	rencontre	
2234	1	rencontrer	
2235	1	rendais	
2236	1	rendit	
2237	1	rendrai	
2238	1	rendrons	
2239	1	renom	
2240	1	renommée	
2241	1	renonçants	
2242	1	rentre	
2243	1	renverser	
2244	1	reposant	
2245	1	reprend	
2246	1	repris	
2247	1	reproches	
2248	1	représentez	
2249	1	respecte	
2250	1	respectez	
2251	1	respecté	
2252	1	respectée	
2253	1	ressemblaient	
2254	1	ressemblance	
2255	1	ressentiments	
2256	1	ressource	
2257	1	ressouvenir	
2258	1	retarde	
2259	1	retenant	
2260	1	retenez	
2261	1	retenir	
2262	1	retenue	
2263	1	retiendrez	
2264	1	retiens	
2265	1	retirée	
2266	1	revenir	
2267	1	revoyez	
2268	1	reçoit	
2269	1	romaines	
2270	1	rompra	
2271	1	rude	
2272	1	réduit	
2273	1	réglant	
2274	1	régler	
2275	1	régnait	
2276	1	régnerais	
2277	1	régnons	
2278	1	répandre	
2279	1	répondre	
2280	1	réponse	
2281	1	réprimons	
2282	1	répugner	
2283	1	résistance	
2284	1	résolu	
2285	1	résoudraient	
2286	1	résoudre	
2287	1	résous	
2288	1	réussisse	
2289	1	révolter	
2290	1	révoquez	
2291	1	révélé	
2292	1	rêverie	
2293	1	sachant	
2294	1	sachez	
2295	1	sacrifice	
2296	1	sacrifices	
2297	1	sacrifiera	
2298	1	sacrifiez	
2299	1	sage	
2300	1	sain	
2301	1	sanglant	
2302	1	saper	
2303	1	sapor	
2304	1	saura	
2305	1	saurait	
2306	1	sauriez	
2307	1	sauve	
2308	1	sceptres	
2309	1	secrète	
2310	1	secrètement	
2311	1	semblable	
2312	1	semble	
2313	1	sembler	
2314	1	semez	
2315	1	sensible	
2316	1	sente	
2317	1	senti	
2318	1	sentiers	
2319	1	serai	
2320	1	seraient	
2321	1	servage	
2322	1	servi	
2323	1	service	
2324	1	services	
2325	1	servile	
2326	1	seuls	
2327	1	siens	
2328	1	signes	
2329	1	silence	
2330	1	simplement	
2331	1	sincérité	
2332	1	sinistre	
2333	1	sinistres	
2334	1	six	
2335	1	siècles	
2336	1	siège	
2337	1	soi	
2338	1	soient	
2339	1	soignez	
2340	1	soir	
2341	1	sois	
2342	1	soleils	
2343	1	solliciter	
2344	1	songe	
2345	1	sortant	
2346	1	sortent	
2347	1	sortie	
2348	1	sortirait	
2349	1	souci	
2350	1	soufferte	
2351	1	souffrant	
2352	1	souffrent	
2353	1	souffrirai	
2354	1	souffrirais	
2355	1	soufre	
2356	1	souhaiter	
2357	1	souhaitez	
2358	1	souhaité	
2359	1	souille	
2360	1	souiller	
2361	1	souillé	
2362	1	soulagée	
2363	1	soulevant	
2364	1	soulevée	
2365	1	soulevés	
2366	1	soumettre	
2367	1	soumis	
2368	1	soumissions	
2369	1	soupir	
2370	1	soupirer	
2371	1	soupirs	
2372	1	soupçons	
2373	1	sourd	
2374	1	soutien	
2375	1	soutiens	
2376	1	soutient	
2377	1	souverainement	
2378	1	souveraines	
2379	1	souvient	
2380	1	spectateurs	
2381	1	spectre	
2382	1	splendeur	
2383	1	splendide	
2384	1	subsister	
2385	1	succombe	
2386	1	succéder	
2387	1	suffisants	
2388	1	suffisent	
2389	1	suivant	
2390	1	suivi	
2391	1	sujétion	
2392	1	superbes	
2393	1	superflu	
2394	1	supplices	
2395	1	suppôts	
2396	1	suprêmes	
2397	1	surgeon	
2398	1	surprendra	
2399	1	surpris	
2400	1	surprise	
2401	1	surveillant	
2402	1	survivais	
2403	1	susciter	
2404	1	suspects	
2405	1	suça	
2406	1	séditions	
2407	1	séduire	
2408	1	séduit	
2409	1	séparé	
2410	1	sépulture	
2411	1	sévérité	
2412	1	sûrement	
2413	1	tard	
2414	1	tarirais	
2415	1	temple	
2416	1	tempête	
2417	1	tempêtes	
2418	1	tendant	
2419	1	tends	
2420	1	tendu	
2421	1	tenté	
2422	1	terme	
2423	1	terminer	
2424	1	terminez	
2425	1	ternir	
2426	1	tien	
2427	1	tiendrai	
2428	1	tire	
2429	1	tirer	
2430	1	tirerez	
2431	1	tiré	
2432	1	tombant	
2433	1	tombeaux	
2434	1	tombera	
2435	1	tombés	
2436	1	tonnerre	
2437	1	torrent	
2438	1	tortures	
2439	1	touchant	
2440	1	touché	
2441	1	tour	
2442	1	tourment	
2443	1	tourné	
2444	1	tragédie	
2445	1	trahir	
2446	1	trahison	
2447	1	traitent	
2448	1	traiter	
2449	1	tramé	
2450	1	trancha	
2451	1	tranquille	
2452	1	transi	
2453	1	transports	
2454	1	travaillant	
2455	1	travaille	
2456	1	traîner	
2457	1	tremblant	
2458	1	tremblent	
2459	1	tribunal	
2460	1	tribut	
2461	1	tristesse	
2462	1	troisième	
2463	1	trompant	
2464	1	trompeur	
2465	1	trompée	
2466	1	troublé	
2467	1	troupe	
2468	1	trouvèrent	
2469	1	trésor	
2470	1	trésors	
2471	1	trêve	
2472	1	trônes	
2473	1	tyrannie	
2474	1	tyrannique	
2475	1	témoignage	
2476	1	témoignant	
2477	1	téméraire	
2478	1	ténébreuse	
2479	1	unies	
2480	1	union	
2481	1	univers	
2482	1	uns	
2483	1	user	
2484	1	usurpateur	
2485	1	usurper	
2486	1	usurpée	
2487	1	usurpés	
2488	1	vaincrez	
2489	1	vainement	
2490	1	vaines	
2491	1	vainquant	
2492	1	vainqueur	
2493	1	vais	
2494	1	vapeur	
2495	1	vase	
2496	1	vayrac	
2497	1	veille	
2498	1	veillent	
2499	1	veines	
2500	1	vendu	
2501	1	vengeant	
2502	1	vengera	
2503	1	vengerais	
2504	1	venons	
2505	1	verra	
2506	1	verrai	
2507	1	verraient	
2508	1	verrons	
2509	1	versé	
2510	1	veuille	
2511	1	victoire	
2512	1	vieillesse	
2513	1	vieillir	
2514	1	vienne	
2515	1	vif	
2516	1	vigueur	
2517	1	vile	
2518	1	vint	
2519	1	violer	
2520	1	visible	
2521	1	visiblement	
2522	1	visions	
2523	1	vivais	
2524	1	voilé	
2525	1	volontés	
2526	1	volupté	
2527	1	voudra	
2528	1	voudriez	
2529	1	vouliez	
2530	1	voyais	
2531	1	vue	
2532	1	vécu	
2533	1	vécut	
2534	1	vérités	
2535	1	zélé	
2536	1	ébranler	
2537	1	échafaud	
2538	1	échappés	
2539	1	éclaircir	
2540	1	éclaircira	
2541	1	éclaire	
2542	1	éclairera	
2543	1	éclairez	
2544	1	écoutaient	
2545	1	écoutent	
2546	1	écouté	
2547	1	également	
2548	1	égard	
2549	1	élevant	
2550	1	élever	
2551	1	élevé	
2552	1	élire	
2553	1	éloigner	
2554	1	éloignera	
2555	1	élèverai	
2556	1	énigme	
2557	1	épais	
2558	1	épand	
2559	1	épargnant	
2560	1	épargné	
2561	1	épaule	
2562	1	éplorée	
2563	1	épouser	
2564	1	époux	
2565	1	éprouve	
2566	1	épuise	
2567	1	épuisé	
2568	1	épuisés	
2569	1	établi	
2570	1	étaient	
2571	1	éteinte	
2572	1	étend	
2573	1	étendra	
2574	1	éternel	
2575	1	étions	
2576	1	étonné	
2577	1	étouffer	
2578	1	étouffez	
2579	1	étourdi	
2580	1	étourdissement	
2581	1	étroite	
2582	1	étudie	
2583	1	évanouir	
2584	1	éviterons	
2585	1	événement	
2586	1	événements	
2587	1	ôte	
2588	1	ôtera	
