1,421,de
2,397,vous
3,380,je
4,364,et
5,322,que
6,283,il
7,262,est
8,249,à
9,236,le
10,222,l
11,212,qu
12,207,un
13,203,la
14,198,en
15,182,d
16,165,ne
17,159,me
18,155,mon
19,149,n
20,137,m
21,133,bien
22,131,pas
23,126,ce
24,117,j
25,117,qui
26,114,si
27,112,mais
28,110,pour
29,102,on
30,91,ma
31,90,son
32,87,elle
33,83,a
34,78,fait
35,76,une
36,75,don
37,74,moi
38,68,votre
39,67,dans
40,66,c
41,62,ai
42,62,nous
43,59,plus
44,57,s
45,55,comme
46,54,au
47,53,les
48,53,ou
49,53,tout
50,52,frère
51,52,sans
52,51,par
53,51,sa
54,51,se
55,49,du
56,49,suis
57,48,des
58,48,donc
59,47,tu
60,43,faire
61,43,y
62,39,blanche
63,38,lui
64,36,amour
65,36,aussi
66,36,mes
67,36,point
68,36,rien
69,34,ici
70,34,même
71,33,jamais
72,33,père
73,33,ô
74,32,coeur
75,32,ordugno
76,32,où
77,31,avez
78,31,faut
79,31,grand
80,31,ha
81,31,vos
82,30,cette
83,30,fort
84,30,peut
85,30,quand
86,29,esprit
87,29,marquis
88,29,veux
89,28,avec
90,28,bon
91,27,blaize
92,27,sur
93,27,t
94,27,être
95,26,avoir
96,26,fille
97,26,moins
98,26,peu
99,26,quelque
100,26,va
101,26,voir
102,25,puis
103,25,ses
104,25,temps
105,24,dis
106,24,dont
107,24,homme
108,24,yeux
109,23,sanche
110,22,ainsi
111,22,belle
112,22,deux
113,22,madame
114,22,trop
115,21,cosme
116,21,foi
117,21,mal
118,21,sais
119,20,car
120,20,âme
121,19,autre
122,19,honneur
123,19,madrid
124,19,monsieur
125,19,sont
126,19,tous
127,18,beau
128,18,là
129,18,soit
130,18,êtes
131,17,lizette
132,17,tel
133,17,veut
134,16,cet
135,16,contre
136,16,dame
137,16,dieu
138,16,encor
139,16,notre
140,16,oui
141,15,avais
142,15,dit
143,15,eût
144,15,merlin
145,15,monseigneur
146,14,comment
147,14,différer
148,14,doux
149,14,gens
150,14,lettre
151,14,mieux
152,14,ont
153,14,plutôt
154,14,quel
155,14,quoi
156,14,sort
157,13,après
158,13,bientôt
159,13,cela
160,13,donne
161,13,leur
162,13,maîtresse
163,13,qualité
164,13,seigneur
165,13,toujours
166,13,vois
167,13,voulez
168,12,aimable
169,12,allons
170,12,aux
171,12,beauté
172,12,ces
173,12,cher
174,12,dire
175,12,femme
176,12,hymen
177,12,jaloux
178,12,jour
179,12,nom
180,12,non
181,12,tant
182,12,tantôt
183,12,te
184,12,toi
185,12,toute
186,12,époux
187,11,allez
188,11,cadet
189,11,dessus
190,11,encore
191,11,heure
192,11,ils
193,11,pourquoi
194,11,trouve
195,11,venir
196,11,vient
197,11,vrai
198,11,était
199,10,abord
200,10,amoureux
201,10,cavalier
202,10,chose
203,10,cour
204,10,dessein
205,10,doute
206,10,heureux
207,10,malheur
208,10,maître
209,10,parle
210,10,part
211,10,peur
212,10,portrait
213,10,pris
214,9,ait
215,9,aurait
216,9,bas
217,9,beaucoup
218,9,chambre
219,9,crois
220,9,cru
221,9,logis
222,9,louise
223,9,peine
224,9,porte
225,9,pu
226,9,quelqu
227,9,savez
228,9,savoir
229,9,vais
230,9,viens
231,9,vite
232,9,vu
233,8,afin
234,8,aime
235,8,ange
236,8,aura
237,8,autant
238,8,avait
239,8,cependant
240,8,chez
241,8,ciel
242,8,colère
243,8,diffère
244,8,dites
245,8,donné
246,8,déjà
247,8,enfin
248,8,eusse
249,8,faites
250,8,fut
251,8,hélas
252,8,jusqu
253,8,monde
254,8,mort
255,8,parler
256,8,personne
257,8,plaire
258,8,quelle
259,8,sait
260,8,sera
261,8,seul
262,8,ta
263,8,vie
264,7,adresse
265,7,alcalca
266,7,assez
267,7,aujourd
268,7,aurais
269,7,chevaux
270,7,choix
271,7,devant
272,7,dès
273,7,enfants
274,7,entre
275,7,hui
276,7,hyménée
277,7,hé
278,7,jeune
279,7,juste
280,7,lieu
281,7,loin
282,7,longtemps
283,7,noble
284,7,nuit
285,7,olivares
286,7,pays
287,7,peste
288,7,plaisir
289,7,prendre
290,7,puisqu
291,7,serais
292,7,sot
293,7,souvent
294,7,ton
295,7,traître
296,7,trompe
297,7,trouver
298,7,vieillard
299,7,visage
300,7,épouse
301,7,étant
302,6,affaire
303,6,air
304,6,aller
305,6,as
306,6,avecque
307,6,aîné
308,6,carrosse
309,6,cause
310,6,cent
311,6,comtesse
312,6,connais
313,6,corps
314,6,croit
315,6,cruel
316,6,demeure
317,6,devoir
318,6,digne
319,6,donner
320,6,découvrir
321,6,ennemi
322,6,estime
323,6,eu
324,6,façon
325,6,fou
326,6,lorsque
327,6,mains
328,6,mari
329,6,maudit
330,6,mien
331,6,mot
332,6,oeil
333,6,parlez
334,6,penser
335,6,petit
336,6,plaît
337,6,pleurs
338,6,puisse
339,6,quoique
340,6,raison
341,6,rendre
342,6,respect
343,6,secret
344,6,sens
345,6,serait
346,6,servir
347,6,sortez
348,6,sortir
349,6,suivante
350,6,sujet
351,6,tard
352,6,tendre
353,6,tiens
354,6,tirer
355,6,valet
356,6,vont
357,6,écrit
358,6,été
359,5,action
360,5,ailleurs
361,5,aimer
362,5,amant
363,5,appas
364,5,apporte
365,5,apprendre
366,5,avis
367,5,besoin
368,5,caché
369,5,celle
370,5,celui
371,5,chère
372,5,courroux
373,5,crime
374,5,depuis
375,5,desseins
376,5,dieux
377,5,dois
378,5,doit
379,5,donnez
380,5,effet
381,5,entends
382,5,esprits
383,5,espère
384,5,fais
385,5,faite
386,5,fasse
387,5,faudrait
388,5,ferai
389,5,fin
390,5,folle
391,5,font
392,5,force
393,5,fâcheux
394,5,fût
395,5,guère
396,5,larmes
397,5,leurs
398,5,maison
399,5,malheureux
400,5,mariage
401,5,maudite
402,5,mauvais
403,5,mienne
404,5,mine
405,5,moitié
406,5,mortel
407,5,méchant
408,5,nos
409,5,ordre
410,5,paraît
411,5,parce
412,5,parfois
413,5,partout
414,5,plein
415,5,pol
416,5,pourtant
417,5,prend
418,5,promesse
419,5,près
420,5,puisque
421,5,quérir
422,5,seulement
423,5,sorte
424,5,tais
425,5,tes
426,5,tort
427,5,train
428,5,tête
429,5,valets
430,5,venu
431,5,voit
432,5,étrange
433,4,aille
434,4,allais
435,4,amitié
436,4,amoureuse
437,4,appartement
438,4,appelle
439,4,arrive
440,4,auprès
441,4,aurez
442,4,autres
443,4,bel
444,4,bonne
445,4,bons
446,4,bourgeois
447,4,bourreau
448,4,bras
449,4,certain
450,4,changer
451,4,connaître
452,4,coup
453,4,croyez
454,4,cruelle
455,4,côté
456,4,dernier
457,4,destin
458,4,discours
459,4,droit
460,4,détestable
461,4,elles
462,4,enrager
463,4,faible
464,4,faisant
465,4,fantasque
466,4,faquin
467,4,faveur
468,4,feint
469,4,fera
470,4,ferais
471,4,fourbe
472,4,future
473,4,garder
474,4,grande
475,4,hais
476,4,impertinent
477,4,importe
478,4,infidèle
479,4,invention
480,4,irai
481,4,laquais
482,4,lors
483,4,malacca
484,4,manquer
485,4,marquise
486,4,mettre
487,4,meure
488,4,mille
489,4,mère
490,4,nez
491,4,ni
492,4,noce
493,4,noire
494,4,objet
495,4,oreille
496,4,paraître
497,4,pareille
498,4,passe
499,4,passer
500,4,perdu
501,4,place
502,4,portugaise
503,4,portugal
504,4,pourra
505,4,pouvez
506,4,pouvoir
507,4,prends
508,4,promis
509,4,qualités
510,4,quant
511,4,quelques
512,4,rend
513,4,repos
514,4,reste
515,4,retenir
516,4,riche
517,4,roi
518,4,répondre
519,4,sache
520,4,sage
521,4,soubrette
522,4,souffrir
523,4,sous
524,4,stéfanie
525,4,trahison
526,4,très
527,4,vaine
528,4,venez
529,4,vers
530,4,vertu
531,4,victoire
532,4,visite
533,4,vivre
534,4,voici
535,4,voix
536,4,vue
537,4,épouser
538,4,éprouver
539,4,étais
540,4,étiez
541,3,absolument
542,3,accident
543,3,accord
544,3,adore
545,3,affaires
546,3,alors
547,3,ami
548,3,amis
549,3,aperçois
550,3,apprenez
551,3,appris
552,3,argent
553,3,assurément
554,3,avons
555,3,bonheur
556,3,bouche
557,3,bout
558,3,cache
559,3,cacher
560,3,cachette
561,3,castille
562,3,ceux
563,3,chandelle
564,3,chaque
565,3,chercher
566,3,civil
567,3,commun
568,3,coucher
569,3,coups
570,3,cours
571,3,croirais
572,3,curieux
573,3,davantage
574,3,demande
575,3,destinée
576,3,diable
577,3,disiez
578,3,dispose
579,3,douter
580,3,délivrer
581,3,désespérer
582,3,désir
583,3,elvire
584,3,empire
585,3,empêcher
586,3,entendre
587,3,entrer
588,3,es
589,3,espoir
590,3,espérance
591,3,espérer
592,3,espérez
593,3,exprès
594,3,extrême
595,3,faudra
596,3,ferait
597,3,feu
598,3,fit
599,3,flamme
600,3,fois
601,3,fous
602,3,frais
603,3,gorge
604,3,guerre
605,3,haye
606,3,heureuse
607,3,hors
608,3,humeur
609,3,infaillible
610,3,ingrat
611,3,injuste
612,3,juan
613,3,laisse
614,3,lisbonne
615,3,loi
616,3,lâche
617,3,main
618,3,maintenant
619,3,malgré
620,3,marquisat
621,3,matière
622,3,misérable
623,3,moeurs
624,3,moindre
625,3,moment
626,3,moyen
627,3,mémoire
628,3,mépris
629,3,naissance
630,3,nomme
631,3,né
632,3,obstinée
633,3,odieux
634,3,ordinaire
635,3,ouvre
636,3,palomeque
637,3,pareil
638,3,peinture
639,3,perdre
640,3,permis
641,3,pieds
642,3,pitié
643,3,plaindre
644,3,plains
645,3,pleurer
646,3,pourrai
647,3,pourrait
648,3,prétendu
649,3,prêt
650,3,quitte
651,3,rare
652,3,recevoir
653,3,relation
654,3,revoir
655,3,rigoureux
656,3,rigueur
657,3,rompre
658,3,royaume
659,3,rue
660,3,sauf
661,3,savait
662,3,scélérat
663,3,semble
664,3,sensible
665,3,serez
666,3,serments
667,3,seule
668,3,sien
669,3,songez
670,3,souper
671,3,soyez
672,3,su
673,3,suivre
674,3,superflus
675,3,surprendre
676,3,telle
677,3,tenir
678,3,tient
679,3,titre
680,3,touche
681,3,tour
682,3,traite
683,3,traits
684,3,tromper
685,3,trouvez
686,3,trépas
687,3,vanité
688,3,vargas
689,3,vaut
690,3,vieil
691,3,voie
692,3,voulu
693,3,vérité
694,3,écuyer
695,3,état
696,2,abandonnez
697,2,accorde
698,2,achever
699,2,adieu
700,2,adorable
701,2,aie
702,2,aise
703,2,aisée
704,2,aisément
705,2,amène
706,2,angola
707,2,animal
708,2,ans
709,2,apaiser
710,2,apparence
711,2,apprendra
712,2,ardeur
713,2,armes
714,2,astre
715,2,astres
716,2,atteintes
717,2,attend
718,2,attends
719,2,attirer
720,2,attraits
721,2,attrape
722,2,aurai
723,2,auriez
724,2,aussitôt
725,2,avaient
726,2,avertit
727,2,aviez
728,2,avouer
729,2,ayant
730,2,ayez
731,2,bals
732,2,bat
733,2,beaux
734,2,biens
735,2,bruit
736,2,brûlé
737,2,ceci
738,2,chacun
739,2,champs
740,2,change
741,2,charmes
742,2,chemin
743,2,cherche
744,2,chien
745,2,chiens
746,2,choquer
747,2,choqué
748,2,civilités
749,2,clair
750,2,claire
751,2,close
752,2,cocher
753,2,commandé
754,2,connue
755,2,conquête
756,2,conseil
757,2,conseille
758,2,consentement
759,2,consentez
760,2,conteste
761,2,contester
762,2,contrefait
763,2,coquet
764,2,cornu
765,2,court
766,2,coûté
767,2,craignez
768,2,craindre
769,2,cruels
770,2,curieuse
771,2,céans
772,2,demandez
773,2,dents
774,2,derrière
775,2,descendre
776,2,destine
777,2,deviendrait
778,2,diamant
779,2,diligence
780,2,dira
781,2,dirai
782,2,dise
783,2,dispensez
784,2,dom
785,2,donzelle
786,2,dormira
787,2,double
788,2,doublement
789,2,douceurs
790,2,douleur
791,2,douleurs
792,2,dragon
793,2,découvert
794,2,décrier
795,2,déesse
796,2,dépend
797,2,dépense
798,2,déplaire
799,2,désormais
800,2,détruire
801,2,empêchent
802,2,endurer
803,2,enfuit
804,2,enlevé
805,2,ennemis
806,2,enrage
807,2,ensemble
808,2,envie
809,2,envoyez
810,2,esclave
811,2,eut
812,2,expliquer
813,2,faits
814,2,famille
815,2,fat
816,2,faveurs
817,2,feignais
818,2,feindre
819,2,feinte
820,2,feintes
821,2,ferez
822,2,ferme
823,2,fers
824,2,festins
825,2,fidèles
826,2,finesse
827,2,fière
828,2,flatte
829,2,flatteur
830,2,franc
831,2,fripon
832,2,friponne
833,2,froid
834,2,furieux
835,2,futur
836,2,fâché
837,2,fît
838,2,gagerais
839,2,gagner
840,2,galant
841,2,gibier
842,2,godelureau
843,2,grands
844,2,gredin
845,2,grâce
846,2,gré
847,2,gâté
848,2,généreuse
849,2,gîte
850,2,habit
851,2,habits
852,2,haine
853,2,hasarde
854,2,haut
855,2,hier
856,2,hommes
857,2,hôtellerie
858,2,imagine
859,2,important
860,2,informer
861,2,innocents
862,2,instant
863,2,intérêts
864,2,inutile
865,2,inutiles
866,2,irais
867,2,irrite
868,2,ivrogne
869,2,joie
870,2,joue
871,2,jours
872,2,juge
873,2,justement
874,2,laide
875,2,laisser
876,2,laissé
877,2,langage
878,2,lasse
879,2,louer
880,2,lucrèce
881,2,lue
882,2,manche
883,2,manière
884,2,manque
885,2,marie
886,2,martyre
887,2,matin
888,2,maux
889,2,meilleurs
890,2,merveille
891,2,met
892,2,milieu
893,2,morte
894,2,mouche
895,2,mourir
896,2,mène
897,2,méchante
898,2,méprisable
899,2,nature
900,2,naturel
901,2,nobles
902,2,nommé
903,2,notaire
904,2,notez
905,2,nouvelles
906,2,nul
907,2,nécessaire
908,2,oblige
909,2,obéir
910,2,offense
911,2,offenser
912,2,offre
913,2,origine
914,2,oses
915,2,ouvrir
916,2,ouïr
917,2,pacheque
918,2,page
919,2,parles
920,2,passion
921,2,pauvre
922,2,pendre
923,2,pense
924,2,perdue
925,2,perfide
926,2,perte
927,2,pique
928,2,pire
929,2,pis
930,2,plaintes
931,2,plaira
932,2,plaisant
933,2,poignard
934,2,pont
935,2,porté
936,2,pourvu
937,2,premier
938,2,prendra
939,2,prendrai
940,2,prenez
941,2,presse
942,2,prix
943,2,prières
944,2,proche
945,2,propos
946,2,propre
947,2,préfère
948,2,préparer
949,2,présent
950,2,puissé
951,2,pâle
952,2,péchés
953,2,périrai
954,2,quasi
955,2,quelquefois
956,2,querelle
957,2,question
958,2,quinola
959,2,quitter
960,2,raisons
961,2,ravi
962,2,reconnais
963,2,reconnaissez
964,2,refuse
965,2,regarder
966,2,regards
967,2,regrets
968,2,rencontre
969,2,rends
970,2,rengainez
971,2,respects
972,2,reçoit
973,2,reçu
974,2,ridicule
975,2,rival
976,2,récit
977,2,sachez
978,2,saison
979,2,saurait
980,2,saurez
981,2,saviez
982,2,secours
983,2,secrète
984,2,secrètes
985,2,semblable
986,2,sent
987,2,sentiment
988,2,seriez
989,2,sert
990,2,sifflé
991,2,signe
992,2,sincérité
993,2,soin
994,2,soir
995,2,sois
996,2,soleil
997,2,sommes
998,2,songer
999,2,sorti
1000,2,sotte
1001,2,souffre
1002,2,souhaiter
1003,2,soupirs
1004,2,soutiens
1005,2,style
1006,2,suffit
1007,2,superfluité
1008,2,surprenant
1009,2,surpris
1010,2,surtout
1011,2,séquelle
1012,2,sévère
1013,2,sûrement
1014,2,tailleur
1015,2,tairez
1016,2,termes
1017,2,terre
1018,2,tienne
1019,2,tomber
1020,2,tombé
1021,2,tourment
1022,2,trahir
1023,2,trait
1024,2,traiter
1025,2,tremble
1026,2,triste
1027,2,tristesse
1028,2,trompé
1029,2,trouva
1030,2,tâche
1031,2,vain
1032,2,verra
1033,2,verrais
1034,2,verras
1035,2,verrez
1036,2,viendra
1037,2,vienne
1038,2,ville
1039,2,violente
1040,2,vire
1041,2,vit
1042,2,vitement
1043,2,vitesse
1044,2,vivant
1045,2,vive
1046,2,voilà
1047,2,voudrez
1048,2,voyez
1049,2,véritable
1050,2,vôtre
1051,2,vôtres
1052,2,ça
1053,2,écart
1054,2,échappe
1055,2,éclat
1056,2,écoutez
1057,2,écrite
1058,2,éloignons
1059,2,éprise
1060,2,étaient
1061,2,étonne
1062,2,étonné
1063,2,étourdi
1064,2,étranger
1065,2,étrangle
1066,2,ôter
1067,1,abandonne
1068,1,abandonné
1069,1,abattre
1070,1,abolition
1071,1,abonde
1072,1,absence
1073,1,absolu
1074,1,accablement
1075,1,accabler
1076,1,accablé
1077,1,accidents
1078,1,accomplir
1079,1,accordez
1080,1,accrût
1081,1,acier
1082,1,acquérir
1083,1,admire
1084,1,adressant
1085,1,adressée
1086,1,adroit
1087,1,adroitement
1088,1,affection
1089,1,afflige
1090,1,affliger
1091,1,affreux
1092,1,agi
1093,1,agréable
1094,1,agrément
1095,1,aigrissent
1096,1,aigu
1097,1,aimant
1098,1,aimes
1099,1,aimez
1100,1,aimions
1101,1,aimons
1102,1,ajustez
1103,1,alarmée
1104,1,albuquerque
1105,1,allaient
1106,1,allait
1107,1,alliance
1108,1,allusion
1109,1,allégresse
1110,1,alléguer
1111,1,amants
1112,1,ambigus
1113,1,ambre
1114,1,amen
1115,1,amitiés
1116,1,amoureuses
1117,1,amours
1118,1,angle
1119,1,apophtegme
1120,1,apothicaire
1121,1,apparemment
1122,1,appeler
1123,1,appelez
1124,1,application
1125,1,apporté
1126,1,apprend
1127,1,apprenne
1128,1,approchant
1129,1,approcher
1130,1,approches
1131,1,approchons
1132,1,approchée
1133,1,approuve
1134,1,approuvé
1135,1,appui
1136,1,aragon
1137,1,architecture
1138,1,ardemment
1139,1,arrivé
1140,1,arrêt
1141,1,arrête
1142,1,arrêter
1143,1,arrêterai
1144,1,artisan
1145,1,assassiner
1146,1,assassiné
1147,1,assaut
1148,1,assembler
1149,1,assister
1150,1,assiégeant
1151,1,assujetti
1152,1,assurer
1153,1,assurée
1154,1,attache
1155,1,attaque
1156,1,attaquée
1157,1,atteinte
1158,1,attendais
1159,1,attendant
1160,1,attendis
1161,1,attendri
1162,1,attendrie
1163,1,attenté
1164,1,attraper
1165,1,attrapé
1166,1,attrister
1167,1,audace
1168,1,augmente
1169,1,augmenter
1170,1,augure
1171,1,aune
1172,1,aurions
1173,1,aurons
1174,1,auront
1175,1,autorité
1176,1,autrement
1177,1,autrui
1178,1,avance
1179,1,avancez
1180,1,avant
1181,1,avançons
1182,1,avare
1183,1,aventure
1184,1,aversion
1185,1,avertir
1186,1,avions
1187,1,avisais
1188,1,avoue
1189,1,avouerez
1190,1,avouez
1191,1,aye
1192,1,ayons
1193,1,babillarde
1194,1,badin
1195,1,baisée
1196,1,bande
1197,1,bandés
1198,1,banni
1199,1,bannit
1200,1,barbe
1201,1,barrière
1202,1,basilic
1203,1,bassesse
1204,1,bataille
1205,1,batte
1206,1,bec
1207,1,beurre
1208,1,bicoin
1209,1,bidet
1210,1,bienfait
1211,1,bienheureux
1212,1,bizot
1213,1,blancs
1214,1,blesse
1215,1,blesser
1216,1,blessée
1217,1,boeuf
1218,1,bonnes
1219,1,bonté
1220,1,bord
1221,1,borner
1222,1,botte
1223,1,botté
1224,1,bouffon
1225,1,boutade
1226,1,boutades
1227,1,brave
1228,1,bref
1229,1,bride
1230,1,brouillerons
1231,1,brutal
1232,1,brûla
1233,1,brûlais
1234,1,brûle
1235,1,brûler
1236,1,bureaux
1237,1,but
1238,1,bénirai
1239,1,bénédiction
1240,1,cachent
1241,1,cacherais
1242,1,cachet
1243,1,cachez
1244,1,cachons
1245,1,cachée
1246,1,cadets
1247,1,cagneux
1248,1,cagot
1249,1,cajoleries
1250,1,cajoliez
1251,1,campagnard
1252,1,capable
1253,1,capital
1254,1,capricieux
1255,1,captif
1256,1,caresse
1257,1,carrousels
1258,1,casaque
1259,1,castillan
1260,1,certaines
1261,1,cerveau
1262,1,cesse
1263,1,chagrin
1264,1,chamarrées
1265,1,charge
1266,1,charger
1267,1,charitable
1268,1,charmant
1269,1,charmé
1270,1,chat
1271,1,chats
1272,1,chaud
1273,1,chauve
1274,1,chef
1275,1,cheminant
1276,1,cherches
1277,1,cherchez
1278,1,cheval
1279,1,chiche
1280,1,choir
1281,1,choisi
1282,1,choisir
1283,1,choque
1284,1,choses
1285,1,chutes
1286,1,châtier
1287,1,chérira
1288,1,chéris
1289,1,cieux
1290,1,clarté
1291,1,clause
1292,1,clef
1293,1,clin
1294,1,cochers
1295,1,coches
1296,1,coiffée
1297,1,coin
1298,1,combats
1299,1,combien
1300,1,commandez
1301,1,commune
1302,1,communs
1303,1,compagnie
1304,1,compatir
1305,1,complaisance
1306,1,complaisant
1307,1,compliment
1308,1,comprendre
1309,1,comptant
1310,1,comte
1311,1,comté
1312,1,conclus
1313,1,condamnée
1314,1,condition
1315,1,confesse
1316,1,confidence
1317,1,confident
1318,1,confondre
1319,1,congé
1320,1,conjecture
1321,1,conjugal
1322,1,conjugale
1323,1,connaissez
1324,1,connaîtrais
1325,1,conseiller
1326,1,conseillé
1327,1,conseils
1328,1,consens
1329,1,consente
1330,1,consentir
1331,1,considère
1332,1,considérable
1333,1,consiste
1334,1,consommation
1335,1,consommions
1336,1,constance
1337,1,conséquent
1338,1,contente
1339,1,contenterai
1340,1,contentez
1341,1,contentons
1342,1,contient
1343,1,continence
1344,1,contrat
1345,1,contrefourberie
1346,1,contretemps
1347,1,conté
1348,1,convaincre
1349,1,convenu
1350,1,conversation
1351,1,converser
1352,1,convoi
1353,1,convoité
1354,1,coqueter
1355,1,coquette
1356,1,coquettes
1357,1,coquin
1358,1,cornes
1359,1,corrompre
1360,1,cotret
1361,1,cou
1362,1,couchiez
1363,1,couleur
1364,1,coulez
1365,1,coupa
1366,1,coupe
1367,1,couple
1368,1,courage
1369,1,courent
1370,1,courez
1371,1,courir
1372,1,couronne
1373,1,courrait
1374,1,courroucés
1375,1,courtisan
1376,1,couru
1377,1,coutume
1378,1,coûte
1379,1,coûtent
1380,1,craignant
1381,1,craignit
1382,1,crains
1383,1,crainte
1384,1,cramoisi
1385,1,crimes
1386,1,criminel
1387,1,croira
1388,1,croirai
1389,1,croirait
1390,1,croiras
1391,1,croire
1392,1,croiriez
1393,1,croquant
1394,1,croyable
1395,1,croyais
1396,1,croyait
1397,1,cruauté
1398,1,cruellement
1399,1,crédit
1400,1,crédule
1401,1,cupidon
1402,1,curé
1403,1,cède
1404,1,cédât
1405,1,célèbre
1406,1,côtés
1407,1,da
1408,1,daigna
1409,1,daim
1410,1,dames
1411,1,damné
1412,1,damoiselle
1413,1,dangereux
1414,1,date
1415,1,delà
1416,1,demandent
1417,1,demander
1418,1,demandes
1419,1,demeurer
1420,1,demoiselles
1421,1,deuil
1422,1,devais
1423,1,devançant
1424,1,devenait
1425,1,devenez
1426,1,devenir
1427,1,devez
1428,1,deviendra
1429,1,deviner
1430,1,devint
1431,1,devons
1432,1,devrait
1433,1,diantre
1434,1,différera
1435,1,différerai
1436,1,différerons
1437,1,différons
1438,1,diligent
1439,1,diligents
1440,1,dirait
1441,1,dires
1442,1,direz
1443,1,disais
1444,1,disait
1445,1,discret
1446,1,disent
1447,1,disgrâce
1448,1,disons
1449,1,dispensés
1450,1,dissimule
1451,1,dissimulé
1452,1,distinguer
1453,1,divers
1454,1,diversifier
1455,1,divertissement
1456,1,divine
1457,1,divinité
1458,1,divorce
1459,1,dol
1460,1,donna
1461,1,donnera
1462,1,donniez
1463,1,donnés
1464,1,dons
1465,1,dormeur
1466,1,dort
1467,1,douce
1468,1,douceur
1469,1,douta
1470,1,douteriez
1471,1,draitte
1472,1,draps
1473,1,drille
1474,1,drôle
1475,1,duel
1476,1,dupe
1477,1,durant
1478,1,dure
1479,1,durent
1480,1,dussiez
1481,1,débauchée
1482,1,déchiré
1483,1,déclare
1484,1,déclarent
1485,1,déclaré
1486,1,décline
1487,1,découvre
1488,1,décrie
1489,1,dédain
1490,1,dédains
1491,1,défaire
1492,1,défait
1493,1,défaite
1494,1,défaut
1495,1,défendez
1496,1,défendre
1497,1,déferons
1498,1,défiant
1499,1,défunt
1500,1,déguerpir
1501,1,déguisais
1502,1,déguisait
1503,1,déguiser
1504,1,déguisé
1505,1,dégénérer
1506,1,déités
1507,1,délivrons
1508,1,déloger
1509,1,démarche
1510,1,démarquisé
1511,1,démenti
1512,1,démon
1513,1,démonté
1514,1,démordu
1515,1,déplaise
1516,1,déplaisez
1517,1,déplaisir
1518,1,déplaisirs
1519,1,déplorable
1520,1,déployer
1521,1,dépêches
1522,1,dérobant
1523,1,désespoir
1524,1,désespère
1525,1,détournent
1526,1,détraquée
1527,1,dîner
1528,1,eaux
1529,1,efface
1530,1,effacée
1531,1,effarouchés
1532,1,efforce
1533,1,effort
1534,1,embarras
1535,1,embrassez
1536,1,embrasée
1537,1,emmenez
1538,1,emploie
1539,1,emporte
1540,1,emporteront
1541,1,emprunter
1542,1,emprunté
1543,1,empêche
1544,1,empêchez
1545,1,empêché
1546,1,encense
1547,1,enchérir
1548,1,encornaillé
1549,1,encorné
1550,1,endure
1551,1,enfermer
1552,1,engendre
1553,1,enivrant
1554,1,ennuyer
1555,1,ennuyeux
1556,1,enquis
1557,1,ente
1558,1,entendez
1559,1,entendra
1560,1,entendrai
1561,1,entendu
1562,1,enthousiasmée
1563,1,entrai
1564,1,entrais
1565,1,entrant
1566,1,entreprenait
1567,1,entreprendre
1568,1,entreprise
1569,1,entretiens
1570,1,entrez
1571,1,envisagé
1572,1,escadron
1573,1,escorte
1574,1,espions
1575,1,essence
1576,1,eussiez
1577,1,excepté
1578,1,excuse
1579,1,excusez
1580,1,excès
1581,1,exempt
1582,1,expier
1583,1,expliquerai
1584,1,expliquez
1585,1,exposez
1586,1,extrait
1587,1,extravagamment
1588,1,extravagance
1589,1,extravagant
1590,1,exécuter
1591,1,exécuterai
1592,1,eûtes
1593,1,facile
1594,1,faconde
1595,1,faiblesse
1596,1,faillir
1597,1,faisait
1598,1,fallait
1599,1,familière
1600,1,fantôme
1601,1,farouche
1602,1,fassent
1603,1,fatras
1604,1,fausse
1605,1,faute
1606,1,favorable
1607,1,favori
1608,1,favorisa
1609,1,feignant
1610,1,feignez
1611,1,feigniez
1612,1,feignit
1613,1,feintise
1614,1,femmes
1615,1,fendre
1616,1,fenêtre
1617,1,feriez
1618,1,fermerai
1619,1,fermez
1620,1,ferons
1621,1,fidèle
1622,1,fidélité
1623,1,fier
1624,1,figure
1625,1,figurer
1626,1,financier
1627,1,fine
1628,1,finir
1629,1,firent
1630,1,fisse
1631,1,fissent
1632,1,fièvres
1633,1,flambeaux
1634,1,flatté
1635,1,flegme
1636,1,fleuve
1637,1,fléchie
1638,1,foin
1639,1,folie
1640,1,folles
1641,1,fonde
1642,1,fondement
1643,1,fondez
1644,1,forcer
1645,1,fors
1646,1,forte
1647,1,fortune
1648,1,fosse
1649,1,foudroyé
1650,1,fougueux
1651,1,fourbissime
1652,1,franche
1653,1,franchement
1654,1,franchise
1655,1,franchit
1656,1,frappé
1657,1,fraternel
1658,1,fraîche
1659,1,fringants
1660,1,front
1661,1,frères
1662,1,funeste
1663,1,fureter
1664,1,furette
1665,1,fureur
1666,1,furie
1667,1,fussiez
1668,1,fuyant
1669,1,fâcher
1670,1,fâchera
1671,1,félicité
1672,1,gage
1673,1,gages
1674,1,gagnai
1675,1,gagnez
1676,1,gaie
1677,1,gain
1678,1,galants
1679,1,galeux
1680,1,galon
1681,1,galopaient
1682,1,gambades
1683,1,gardez
1684,1,gaucher
1685,1,gendre
1686,1,genoux
1687,1,genre
1688,1,geôle
1689,1,glace
1690,1,glaçon
1691,1,gloire
1692,1,gomée
1693,1,gosier
1694,1,goutte
1695,1,gratter
1696,1,gredine
1697,1,grillé
1698,1,grippé
1699,1,gronder
1700,1,gros
1701,1,grosse
1702,1,grossir
1703,1,guenon
1704,1,guide
1705,1,guignant
1706,1,généalogie
1707,1,généreux
1708,1,gîté
1709,1,hait
1710,1,hameçon
1711,1,hardi
1712,1,hardie
1713,1,harnois
1714,1,hasarderais
1715,1,hay
1716,1,haïr
1717,1,haïra
1718,1,haïssiez
1719,1,holà
1720,1,honnête
1721,1,honnêtes
1722,1,honnêteté
1723,1,honorée
1724,1,honte
1725,1,honteuse
1726,1,hormis
1727,1,horreur
1728,1,humain
1729,1,humains
1730,1,humecter
1731,1,hâte
1732,1,hâter
1733,1,hâté
1734,1,hériter
1735,1,hôtelleries
1736,1,idolâtrie
1737,1,ignorant
1738,1,ignore
1739,1,importance
1740,1,importants
1741,1,importune
1742,1,importuner
1743,1,impossible
1744,1,imposteur
1745,1,imprévue
1746,1,impuissant
1747,1,impératrice
1748,1,in
1749,1,incertain
1750,1,incessamment
1751,1,inconnu
1752,1,inconnue
1753,1,inconstante
1754,1,incontinent
1755,1,incurable
1756,1,indifféremment
1757,1,indigne
1758,1,indiscret
1759,1,indulgence
1760,1,industrie
1761,1,infant
1762,1,information
1763,1,informez
1764,1,informé
1765,1,infâme
1766,1,ingrats
1767,1,ingère
1768,1,ingénue
1769,1,inhumaine
1770,1,inimitié
1771,1,injure
1772,1,injustement
1773,1,injustes
1774,1,inquiète
1775,1,insensée
1776,1,insigne
1777,1,insolence
1778,1,instinct
1779,1,instruire
1780,1,interrogé
1781,1,interromps
1782,1,introduit
1783,1,intéressé
1784,1,intérêt
1785,1,investigation
1786,1,iriez
1787,1,ivre
1788,1,jalouse
1789,1,jasmin
1790,1,jaune
1791,1,jaunâtre
1792,1,jeter
1793,1,jette
1794,1,jeunesse
1795,1,joindraient
1796,1,joindre
1797,1,jolis
1798,1,jouer
1799,1,jouet
1800,1,joueur
1801,1,joug
1802,1,journée
1803,1,joué
1804,1,jouée
1805,1,juillep
1806,1,jumeaux
1807,1,jupe
1808,1,jurant
1809,1,jusques
1810,1,laissa
1811,1,laissant
1812,1,laissera
1813,1,laisserez
1814,1,laissez
1815,1,lanterne
1816,1,largement
1817,1,larron
1818,1,larronnesse
1819,1,lassent
1820,1,lasser
1821,1,lettres
1822,1,liberté
1823,1,libertés
1824,1,libérateur
1825,1,licence
1826,1,lie
1827,1,limité
1828,1,lire
1829,1,lit
1830,1,livrée
1831,1,livrées
1832,1,lièvre
1833,1,loge
1834,1,lois
1835,1,loisir
1836,1,long
1837,1,longueur
1838,1,lorsqu
1839,1,louche
1840,1,lourdement
1841,1,lumière
1842,1,lune
1843,1,luxe
1844,1,lâchement
1845,1,lâcher
1846,1,lâches
1847,1,légitime
1848,1,machine
1849,1,madré
1850,1,madrés
1851,1,magasin
1852,1,magnificence
1853,1,maint
1854,1,maladie
1855,1,male
1856,1,malfaisant
1857,1,malheureuse
1858,1,malheurs
1859,1,malice
1860,1,malin
1861,1,malotrue
1862,1,malpropre
1863,1,malsaines
1864,1,maltraite
1865,1,maltraité
1866,1,manie
1867,1,manifeste
1868,1,manquera
1869,1,manqué
1870,1,mansanarez
1871,1,mante
1872,1,manteau
1873,1,manteaux
1874,1,manus
1875,1,marcher
1876,1,marché
1877,1,marier
1878,1,mariez
1879,1,marié
1880,1,marmouset
1881,1,mars
1882,1,martel
1883,1,masculine
1884,1,masqués
1885,1,masse
1886,1,matois
1887,1,maudits
1888,1,mauvaises
1889,1,maxime
1890,1,meilleur
1891,1,membre
1892,1,menace
1893,1,mener
1894,1,mentir
1895,1,merveilles
1896,1,message
1897,1,messageries
1898,1,messieurs
1899,1,messire
1900,1,mette
1901,1,mettez
1902,1,meuble
1903,1,meurs
1904,1,meurtre
1905,1,midi
1906,1,mis
1907,1,mise
1908,1,missive
1909,1,misérables
1910,1,modestement
1911,1,modérez
1912,1,moineaux
1913,1,mois
1914,1,montrez
1915,1,moque
1916,1,moquer
1917,1,morceaux
1918,1,mordre
1919,1,mordu
1920,1,morfondu
1921,1,morguer
1922,1,mortelle
1923,1,mortellement
1924,1,mots
1925,1,moule
1926,1,mourrais
1927,1,muguetée
1928,1,murmurer
1929,1,musiques
1930,1,mutuel
1931,1,mystère
1932,1,mâles
1933,1,ménager
1934,1,mépriser
1935,1,méritait
1936,1,mérite
1937,1,méritiez
1938,1,mêlée
1939,1,mêmes
1940,1,naissante
1941,1,neuf
1942,1,nier
1943,1,noblesse
1944,1,noces
1945,1,noir
1946,1,nommer
1947,1,noms
1948,1,notable
1949,1,nouvelle
1950,1,nues
1951,1,nuire
1952,1,nulle
1953,1,nullités
1954,1,nôtre
1955,1,obligeante
1956,1,obligée
1957,1,obscurité
1958,1,obstiné
1959,1,obsède
1960,1,obtenez
1961,1,obtenir
1962,1,obtenu
1963,1,obtint
1964,1,obéirai
1965,1,obéissance
1966,1,occasion
1967,1,oeuvre
1968,1,offensons
1969,1,offensés
1970,1,officieuse
1971,1,offrir
1972,1,offrirait
1973,1,oiseau
1974,1,oiseaux
1975,1,oisillon
1976,1,om
1977,1,ombre
1978,1,onc
1979,1,opinion
1980,1,orbes
1981,1,ordonne
1982,1,ordonniez
1983,1,ordres
1984,1,oreilles
1985,1,orgueil
1986,1,original
1987,1,oserez
1988,1,osez
1989,1,ostentation
1990,1,osé
1991,1,oubli
1992,1,outre
1993,1,ouverte
1994,1,ouvrage
1995,1,ouï
1996,1,pages
1997,1,pain
1998,1,paix
1999,1,papier
2000,1,papiers
2001,1,papillon
2002,1,paquet
2003,1,parasol
2004,1,parbleu
2005,1,pardonnable
2006,1,pardonne
2007,1,pardonner
2008,1,pareillement
2009,1,pareilles
2010,1,pareils
2011,1,parents
2012,1,paresse
2013,1,parfait
2014,1,parfaite
2015,1,parfaitement
2016,1,parlais
2017,1,parlassent
2018,1,parlera
2019,1,parleur
2020,1,parlons
2021,1,parlé
2022,1,parole
2023,1,paroles
2024,1,partager
2025,1,partir
2026,1,partis
2027,1,paru
2028,1,parut
2029,1,passade
2030,1,passage
2031,1,passagers
2032,1,passages
2033,1,passera
2034,1,passerais
2035,1,passions
2036,1,passé
2037,1,pastilles
2038,1,patenôtres
2039,1,patience
2040,1,pauvrette
2041,1,pavé
2042,1,paye
2043,1,payera
2044,1,payés
2045,1,peignit
2046,1,peint
2047,1,penchant
2048,1,pensé
2049,1,perd
2050,1,perde
2051,1,perdez
2052,1,perdons
2053,1,perdrait
2054,1,perfidie
2055,1,permets
2056,1,permettez
2057,1,permit
2058,1,personnage
2059,1,personnes
2060,1,persuade
2061,1,persuader
2062,1,perçait
2063,1,pesants
2064,1,pesé
2065,1,petits
2066,1,peux
2067,1,phénix
2068,1,pied
2069,1,piste
2070,1,pitoyablement
2071,1,placé
2072,1,plaide
2073,1,plaie
2074,1,plairez
2075,1,plais
2076,1,plaisamment
2077,1,plaisante
2078,1,plaisants
2079,1,pleine
2080,1,pleins
2081,1,pleurent
2082,1,pleurerait
2083,1,pleureriez
2084,1,pleureurs
2085,1,pleureux
2086,1,pleurez
2087,1,pleurons
2088,1,plomb
2089,1,plâtre
2090,1,plût
2091,1,poing
2092,1,pointe
2093,1,politique
2094,1,pompe
2095,1,ponctuel
2096,1,porcie
2097,1,portant
2098,1,portas
2099,1,porter
2100,1,portez
2101,1,portraits
2102,1,portugais
2103,1,possible
2104,1,postes
2105,1,potentat
2106,1,poudre
2107,1,pouls
2108,1,pourraient
2109,1,pourrais
2110,1,pourrez
2111,1,pourriez
2112,1,poursuivie
2113,1,pourvoir
2114,1,pourvue
2115,1,poussant
2116,1,pousserais
2117,1,poussez
2118,1,pouvait
2119,1,pouvons
2120,1,prenant
2121,1,presser
2122,1,pressé
2123,1,priai
2124,1,prie
2125,1,princesse
2126,1,principale
2127,1,prise
2128,1,procédure
2129,1,procédé
2130,1,profaner
2131,1,projet
2132,1,promettra
2133,1,promise
2134,1,promène
2135,1,protestait
2136,1,prouesse
2137,1,prudemment
2138,1,prudence
2139,1,précipiter
2140,1,précipité
2141,1,présents
2142,1,présomptueux
2143,1,prétend
2144,1,prétends
2145,1,prétexte
2146,1,prévoyance
2147,1,prêtre
2148,1,prêts
2149,1,public
2150,1,publiera
2151,1,puissant
2152,1,puissent
2153,1,puni
2154,1,punir
2155,1,punit
2156,1,pure
2157,1,pus
2158,1,pâmoison
2159,1,pâmée
2160,1,pèche
2161,1,pères
2162,1,pédanterie
2163,1,pénétrer
2164,1,périr
2165,1,périsse
2166,1,pût
2167,1,quartaines
2168,1,quelles
2169,1,quereller
2170,1,questions
2171,1,quichotte
2172,1,quittent
2173,1,quoiqu
2174,1,quolibets
2175,1,race
2176,1,radieux
2177,1,rafraîchir
2178,1,rage
2179,1,raide
2180,1,raille
2181,1,railleries
2182,1,railleur
2183,1,raisonnable
2184,1,ramasser
2185,1,rapaiser
2186,1,rares
2187,1,rat
2188,1,ravie
2189,1,rebec
2190,1,recachez
2191,1,recevables
2192,1,recevez
2193,1,recevra
2194,1,reconnaître
2195,1,reconnu
2196,1,recours
2197,1,redit
2198,1,redoutable
2199,1,redoutant
2200,1,redoute
2201,1,refuser
2202,1,refusé
2203,1,regagne
2204,1,regardions
2205,1,regret
2206,1,reine
2207,1,reluire
2208,1,remarqué
2209,1,remets
2210,1,remis
2211,1,remise
2212,1,remède
2213,1,rendais
2214,1,rendait
2215,1,rende
2216,1,rendent
2217,1,rendu
2218,1,rendue
2219,1,rendus
2220,1,renom
2221,1,repas
2222,1,reposez
2223,1,reprends
2224,1,reprocher
2225,1,représente
2226,1,resoutiens
2227,1,ressentir
2228,1,ressuscite
2229,1,retarder
2230,1,retenez
2231,1,retient
2232,1,retint
2233,1,retire
2234,1,retour
2235,1,retourner
2236,1,retranché
2237,1,retrouve
2238,1,revancherai
2239,1,revenir
2240,1,reviens
2241,1,revient
2242,1,revins
2243,1,revîntes
2244,1,reçois
2245,1,richement
2246,1,rient
2247,1,rigoureuse
2248,1,rigueurs
2249,1,roches
2250,1,romanesque
2251,1,rompra
2252,1,romprait
2253,1,romps
2254,1,rompu
2255,1,rougeur
2256,1,rougir
2257,1,rouiller
2258,1,rousseau
2259,1,royale
2260,1,rudement
2261,1,rumeur
2262,1,ruser
2263,1,règne
2264,1,réclame
2265,1,récompense
2266,1,réduit
2267,1,réduite
2268,1,régal
2269,1,réglerai
2270,1,régner
2271,1,régulièrement
2272,1,réjouissez
2273,1,répond
2274,1,réprimandes
2275,1,réprimandé
2276,1,répugnance
2277,1,répète
2278,1,répéter
2279,1,réservez
2280,1,résolue
2281,1,réussi
2282,1,réussir
2283,1,révéler
2284,1,rêvai
2285,1,rêve
2286,1,rêver
2287,1,rôt
2288,1,sachons
2289,1,saine
2290,1,sainte
2291,1,salutaire
2292,1,sanglots
2293,1,saoul
2294,1,satisfaire
2295,1,satyre
2296,1,saura
2297,1,saurai
2298,1,sauras
2299,1,sauriez
2300,1,saut
2301,1,saute
2302,1,sauve
2303,1,sauver
2304,1,sauvez
2305,1,sauvée
2306,1,second
2307,1,seconde
2308,1,seconder
2309,1,semblables
2310,1,semondre
2311,1,sensibles
2312,1,sensé
2313,1,sentiments
2314,1,sentinelle
2315,1,sentinelles
2316,1,sentir
2317,1,serai
2318,1,seraient
2319,1,serions
2320,1,serrer
2321,1,serres
2322,1,servante
2323,1,servent
2324,1,servi
2325,1,services
2326,1,servie
2327,1,servirons
2328,1,sibylle
2329,1,siens
2330,1,siffle
2331,1,siffler
2332,1,signer
2333,1,signé
2334,1,sinon
2335,1,sitôt
2336,1,six
2337,1,sobre
2338,1,soi
2339,1,soient
2340,1,soins
2341,1,solitaire
2342,1,somme
2343,1,sommeil
2344,1,songe
2345,1,songé
2346,1,sors
2347,1,sortable
2348,1,sortant
2349,1,sortent
2350,1,sortirai
2351,1,sortis
2352,1,sottement
2353,1,sottes
2354,1,souche
2355,1,souci
2356,1,soudain
2357,1,souffrance
2358,1,souhait
2359,1,soumis
2360,1,soupir
2361,1,soupire
2362,1,soupirer
2363,1,soupirez
2364,1,souples
2365,1,soupçonnant
2366,1,soupçonne
2367,1,soupçonner
2368,1,soupçonnez
2369,1,soupçons
2370,1,sourire
2371,1,soutenir
2372,1,souvenir
2373,1,soyons
2374,1,stances
2375,1,structure
2376,1,succombé
2377,1,suit
2378,1,suivant
2379,1,suivez
2380,1,suivi
2381,1,suivie
2382,1,sultane
2383,1,supplice
2384,1,surintendant
2385,1,surpasse
2386,1,surprenants
2387,1,surprenez
2388,1,susceptible
2389,1,suscite
2390,1,suspect
2391,1,suspecte
2392,1,séjournant
2393,1,séparer
2394,1,sérieux
2395,1,tache
2396,1,tachée
2397,1,taciturnité
2398,1,taille
2399,1,taire
2400,1,taisez
2401,1,talents
2402,1,tandis
2403,1,tarde
2404,1,tarquin
2405,1,taureaux
2406,1,teint
2407,1,tels
2408,1,tempes
2409,1,tenait
2410,1,tendrement
2411,1,tenez
2412,1,tenter
2413,1,tentée
2414,1,tenu
2415,1,terres
2416,1,terrible
2417,1,théâtre
2418,1,tien
2419,1,tiendrais
2420,1,tiendrait
2421,1,tiendrez
2422,1,tiennent
2423,1,tigresse
2424,1,timide
2425,1,timides
2426,1,tirait
2427,1,tirera
2428,1,tirez
2429,1,tiré
2430,1,tope
2431,1,torcher
2432,1,touchée
2433,1,tourments
2434,1,tourne
2435,1,tourner
2436,1,tournois
2437,1,toutes
2438,1,tracée
2439,1,traitable
2440,1,traitez
2441,1,traité
2442,1,tranchant
2443,1,tranquille
2444,1,transe
2445,1,transgresser
2446,1,transports
2447,1,travaillons
2448,1,travaillé
2449,1,travestit
2450,1,traîtresse
2451,1,tribut
2452,1,tributaire
2453,1,triompherait
2454,1,triple
2455,1,trompette
2456,1,trompeur
2457,1,trompeuse
2458,1,trompez
2459,1,trou
2460,1,troublé
2461,1,trouvais
2462,1,trouvé
2463,1,truqués
2464,1,trêve
2465,1,trône
2466,1,tutélaire
2467,1,tyran
2468,1,tâté
2469,1,témoigner
2470,1,témoins
2471,1,téméraires
2472,1,têtes
2473,1,tôt
2474,1,use
2475,1,user
2476,1,usé
2477,1,utile
2478,1,vaille
2479,1,vaincue
2480,1,vainqueur
2481,1,valable
2482,1,valait
2483,1,valetaille
2484,1,valez
2485,1,value
2486,1,vanter
2487,1,venais
2488,1,venait
2489,1,venger
2490,1,vengerai
2491,1,vent
2492,1,venue
2493,1,venues
2494,1,verrai
2495,1,verrait
2496,1,verrons
2497,1,vert
2498,1,vertueuse
2499,1,vertueux
2500,1,vertus
2501,1,veuf
2502,1,veuille
2503,1,victimes
2504,1,victorieux
2505,1,vide
2506,1,viendrait
2507,1,viendriez
2508,1,viennent
2509,1,vif
2510,1,vilain
2511,1,vilaine
2512,1,visière
2513,1,vivants
2514,1,vivement
2515,1,voeux
2516,1,voilées
2517,1,vola
2518,1,volage
2519,1,volant
2520,1,vole
2521,1,volerai
2522,1,volontiers
2523,1,volonté
2524,1,voudrais
2525,1,voudrait
2526,1,voudriez
2527,1,voulait
2528,1,voué
2529,1,voyais
2530,1,voyant
2531,1,voyons
2532,1,vraie
2533,1,vraiment
2534,1,vraisemblable
2535,1,vérifions
2536,1,véritables
2537,1,zélée
2538,1,ébaucher
2539,1,échappâmes
2540,1,échauffé
2541,1,échauffée
2542,1,échauffés
2543,1,éclairci
2544,1,éclaircir
2545,1,éclaircissant
2546,1,éclatait
2547,1,éclatiez
2548,1,écorcher
2549,1,écorchure
2550,1,écoutait
2551,1,écouter
2552,1,écris
2553,1,écriture
2554,1,écrivait
2555,1,écrivis
2556,1,écu
2557,1,écueil
2558,1,écuyers
2559,1,égal
2560,1,égale
2561,1,église
2562,1,égratigna
2563,1,éloignement
2564,1,éloigné
2565,1,éloignés
2566,1,élève
2567,1,énergie
2568,1,épaule
2569,1,éploré
2570,1,épluchons
2571,1,épousai
2572,1,épousait
2573,1,épée
2574,1,équipage
2575,1,étage
2576,1,éteint
2577,1,étendue
2578,1,éternels
2579,1,étions
2580,1,étonnée
2581,1,étourdie
2582,1,étrangers
2583,1,étranges
2584,1,étrangler
2585,1,étranglerai
2586,1,étrangère
2587,1,éventé
2588,1,évident
2589,1,éviter
2590,1,ôté
