1,473,de
2,427,et
3,346,je
4,280,le
5,272,à
6,263,la
7,263,que
8,233,il
9,232,est
10,215,l
11,207,en
12,198,ce
13,193,qui
14,179,un
15,167,d
16,166,ne
17,154,vous
18,142,qu
19,139,me
20,129,mon
21,120,les
22,113,des
23,113,tu
24,108,ma
25,106,si
26,104,pas
27,102,j
28,101,m
29,94,mais
30,90,nous
31,87,a
32,87,moi
33,84,cette
34,84,pour
35,82,s
36,81,n
37,77,même
38,77,plus
39,77,son
40,72,du
41,70,ai
42,70,au
43,70,tout
44,69,suis
45,62,par
46,59,se
47,58,dieux
48,57,où
49,57,sa
50,57,une
51,56,quel
52,55,fait
53,55,mes
54,54,ses
55,53,lui
56,53,sosie
57,51,t
58,50,quelle
59,49,te
60,48,on
61,47,ces
62,46,cet
63,44,enfin
64,43,votre
65,42,point
66,41,sur
67,40,aux
68,40,ou
69,40,sans
70,40,ô
71,39,amphitryon
72,39,bien
73,39,nom
74,38,peut
75,38,ton
76,37,ciel
77,36,ta
78,35,yeux
79,34,elle
80,33,coups
81,32,encor
82,32,tous
83,32,y
84,31,autre
85,31,peine
86,31,sont
87,30,deux
88,29,c
89,29,leur
90,29,maître
91,28,comme
92,28,quelque
93,27,alcmène
94,27,ici
95,26,seul
96,26,sort
97,26,terre
98,26,être
99,25,quoi
100,25,tes
101,23,avec
102,23,nos
103,23,toi
104,22,veux
105,21,main
106,20,jamais
107,20,maison
108,20,non
109,20,notre
110,20,porte
111,20,soit
112,20,tant
113,20,veut
114,20,vos
115,19,aussi
116,19,chez
117,19,dans
118,19,dis
119,19,faut
120,19,moins
121,19,trop
122,18,extrême
123,18,faire
124,18,jour
125,18,ni
126,18,ont
127,18,toute
128,17,discours
129,17,donc
130,17,honneur
131,17,temps
132,16,contre
133,16,gloire
134,16,lieu
135,16,nuit
136,16,port
137,16,voici
138,15,dont
139,15,fais
140,15,jupiter
141,15,malheur
142,15,mort
143,15,raison
144,15,repos
145,15,sais
146,14,avez
147,14,celui
148,14,dieu
149,14,doit
150,14,fut
151,14,nature
152,14,parle
153,14,père
154,14,quand
155,14,traître
156,13,assez
157,13,dit
158,13,effet
159,13,esprit
160,13,jusqu
161,13,mal
162,13,oui
163,13,place
164,13,rapport
165,13,rien
166,12,ainsi
167,12,après
168,12,besoin
169,12,combien
170,12,devoir
171,12,entre
172,12,laisse
173,12,malheureux
174,12,passe
175,12,plutôt
176,12,retour
177,12,sens
178,12,va
179,12,voeux
180,12,voir
181,12,vois
182,11,affront
183,11,ardeur
184,11,as
185,11,audace
186,11,coeur
187,11,crois
188,11,créon
189,11,ils
190,11,orage
191,11,ordre
192,11,reste
193,11,sang
194,11,semble
195,11,soin
196,11,vais
197,11,vu
198,10,autres
199,10,bruit
200,10,car
201,10,cent
202,10,chacun
203,10,cieux
204,10,dessein
205,10,doux
206,10,déjà
207,10,mieux
208,10,présent
209,10,ptérèle
210,10,sera
211,10,souci
212,10,sous
213,10,tôt
214,10,valeur
215,10,voix
216,9,aujourd
217,9,autant
218,9,aventure
219,9,bas
220,9,bras
221,9,comment
222,9,désordre
223,9,entrons
224,9,grand
225,9,guerre
226,9,hui
227,9,insensé
228,9,leurs
229,9,mauvais
230,9,ouvre
231,9,parler
232,9,peu
233,9,pourquoi
234,9,puis
235,9,rang
236,9,sois
237,9,sommes
238,9,succède
239,9,touche
240,9,trouve
241,9,vertu
242,9,vie
243,9,vient
244,8,abord
245,8,adieu
246,8,auteur
247,8,avecque
248,8,biens
249,8,bon
250,8,colère
251,8,combat
252,8,confusion
253,8,connais
254,8,courage
255,8,croire
256,8,dessus
257,8,encore
258,8,es
259,8,femme
260,8,fois
261,8,gens
262,8,heure
263,8,honte
264,8,ignore
265,8,imposteur
266,8,justement
267,8,lieux
268,8,longtemps
269,8,là
270,8,moment
271,8,objet
272,8,paix
273,8,plaît
274,8,prodige
275,8,rend
276,8,repas
277,8,sein
278,8,soleil
279,8,tel
280,8,viens
281,8,voyez
282,7,achève
283,7,air
284,7,amour
285,7,apporte
286,7,arrive
287,7,attends
288,7,aussitôt
289,7,beau
290,7,bouche
291,7,certes
292,7,confus
293,7,corps
294,7,crime
295,7,donne
296,7,double
297,7,doute
298,7,droit
299,7,ensemble
300,7,fit
301,7,fort
302,7,fous
303,7,fruit
304,7,heureux
305,7,injure
306,7,jusques
307,7,laissez
308,7,lorsque
309,7,mains
310,7,partis
311,7,peur
312,7,secours
313,7,suborneur
314,7,toujours
315,7,triste
316,7,trouble
317,7,voilà
318,7,voyage
319,7,vrai
320,7,vue
321,7,était
322,6,aime
323,6,approche
324,6,art
325,6,avis
326,6,avoir
327,6,charge
328,6,couche
329,6,dire
330,6,dois
331,6,ennemis
332,6,erreur
333,6,ferai
334,6,fils
335,6,frayeur
336,6,homme
337,6,hommes
338,6,hors
339,6,innocence
340,6,jours
341,6,jugement
342,6,loi
343,6,mercure
344,6,mis
345,6,misérable
346,6,mortels
347,6,mot
348,6,mémoire
349,6,naît
350,6,perdu
351,6,plaisir
352,6,possède
353,6,pouvoir
354,6,premier
355,6,puisqu
356,6,rendre
357,6,récit
358,6,seulement
359,6,soins
360,6,sorte
361,6,souverain
362,6,tonnerre
363,6,tort
364,6,usage
365,6,vase
366,6,veille
367,6,âme
368,6,époux
369,6,étonnement
370,6,êtes
371,6,ôte
372,5,accident
373,5,aide
374,5,ait
375,5,alors
376,5,appelle
377,5,armée
378,5,arrête
379,5,avant
380,5,baisers
381,5,charme
382,5,charmes
383,5,chaste
384,5,chefs
385,5,cherche
386,5,chère
387,5,contraire
388,5,coup
389,5,courroux
390,5,cours
391,5,course
392,5,crains
393,5,crainte
394,5,croyais
395,5,créance
396,5,entends
397,5,exploits
398,5,faites
399,5,figure
400,5,fin
401,5,fourbe
402,5,frappe
403,5,frénésie
404,5,fuis
405,5,funeste
406,5,fureur
407,5,ha
408,5,haine
409,5,hier
410,5,honnêteté
411,5,importun
412,5,insolent
413,5,lauriers
414,5,lit
415,5,lois
416,5,lâche
417,5,marche
418,5,merveille
419,5,miracle
420,5,naissance
421,5,noble
422,5,nouveau
423,5,objets
424,5,ose
425,5,pareille
426,5,part
427,5,perds
428,5,perte
429,5,poings
430,5,prendre
431,5,presse
432,5,pris
433,5,prix
434,5,propos
435,5,près
436,5,pu
437,5,puisque
438,5,reçois
439,5,rivage
440,5,roi
441,5,serait
442,5,seule
443,5,soi
444,5,souffrir
445,5,soutenir
446,5,tient
447,5,tremble
448,5,trêve
449,5,vers
450,5,victoire
451,5,visage
452,5,épargne
453,5,étais
454,4,adultère
455,4,amours
456,4,amène
457,4,apprendre
458,4,autrui
459,4,ayant
460,4,calme
461,4,caprice
462,4,ceux
463,4,champs
464,4,chaque
465,4,chef
466,4,chose
467,4,commun
468,4,conserve
469,4,conter
470,4,courtoisie
471,4,céphalie
472,4,dedans
473,4,descends
474,4,digne
475,4,disgrâce
476,4,douleur
477,4,défense
478,4,effets
479,4,efforts
480,4,effroi
481,4,eh
482,4,elles
483,4,espace
484,4,esprits
485,4,eux
486,4,faim
487,4,fatal
488,4,faveur
489,4,façon
490,4,feux
491,4,folie
492,4,font
493,4,force
494,4,forme
495,4,forte
496,4,fortune
497,4,foudre
498,4,fus
499,4,grands
500,4,grâce
501,4,honteux
502,4,humeur
503,4,hymen
504,4,hyménée
505,4,hé
506,4,hélas
507,4,immortelle
508,4,importune
509,4,inutile
510,4,juste
511,4,laissons
512,4,laissé
513,4,liberté
514,4,lion
515,4,loin
516,4,long
517,4,longue
518,4,matière
519,4,maîtresse
520,4,menace
521,4,mens
522,4,mets
523,4,mienne
524,4,monde
525,4,morts
526,4,mots
527,4,mourir
528,4,méconnaître
529,4,médite
530,4,mépris
531,4,naître
532,4,nier
533,4,nobles
534,4,nouvelles
535,4,oblige
536,4,office
537,4,orgueil
538,4,outrage
539,4,parlez
540,4,parlé
541,4,pendard
542,4,plainte
543,4,plaisant
544,4,pourrait
545,4,pressant
546,4,prodigieux
547,4,profane
548,4,propre
549,4,propres
550,4,prête
551,4,périr
552,4,quelqu
553,4,quels
554,4,railler
555,4,rebelles
556,4,remède
557,4,rendu
558,4,rentre
559,4,respect
560,4,reviens
561,4,romps
562,4,réclame
563,4,sage
564,4,sait
565,4,serpents
566,4,servage
567,4,sommeil
568,4,sortir
569,4,sujet
570,4,séjour
571,4,tenir
572,4,tiens
573,4,tirer
574,4,tombe
575,4,toutes
576,4,traits
577,4,triomphe
578,4,trois
579,4,trouver
580,4,univers
581,4,vaincre
582,4,vaine
583,4,vainqueur
584,4,vaisseaux
585,4,valet
586,4,veillant
587,4,ville
588,4,voit
589,4,vérité
590,4,écoutez
591,4,égale
592,4,éloquence
593,4,état
594,4,éternel
595,3,absence
596,3,absolu
597,3,accueil
598,3,adroit
599,3,affronteur
600,3,aie
601,3,ailleurs
602,3,airs
603,3,allons
604,3,amis
605,3,apporter
606,3,appris
607,3,armes
608,3,arrivée
609,3,arrivés
610,3,artifice
611,3,attend
612,3,aura
613,3,aurait
614,3,autels
615,3,bat
616,3,beauté
617,3,beaux
618,3,berceau
619,3,bientôt
620,3,bons
621,3,brisons
622,3,bénis
623,3,camp
624,3,capitaine
625,3,cause
626,3,cependant
627,3,changement
628,3,chargé
629,3,chasse
630,3,chastes
631,3,chercher
632,3,choses
633,3,commune
634,3,confondre
635,3,connaît
636,3,connaître
637,3,conseil
638,3,conçois
639,3,coupe
640,3,croira
641,3,croyez
642,3,demande
643,3,depuis
644,3,dernier
645,3,desseins
646,3,dessous
647,3,destin
648,3,die
649,3,dispose
650,3,douté
651,3,dure
652,3,démon
653,3,départ
654,3,dérobe
655,3,désiré
656,3,effrontée
657,3,emporte
658,3,emprunter
659,3,ennemi
660,3,espoir
661,3,eusse
662,3,exercice
663,3,exprès
664,3,faisant
665,3,faits
666,3,famille
667,3,faux
668,3,faveurs
669,3,favorable
670,3,feinte
671,3,feront
672,3,feu
673,3,fidèle
674,3,flamme
675,3,foi
676,3,fou
677,3,froideur
678,3,glorieux
679,3,généreux
680,3,haïr
681,3,hercule
682,3,heureuse
683,3,histoire
684,3,horreur
685,3,horrible
686,3,inconnu
687,3,incroyable
688,3,jalousie
689,3,jeu
690,3,jouer
691,3,juger
692,3,junon
693,3,jupin
694,3,laissant
695,3,larmes
696,3,las
697,3,logis
698,3,lune
699,3,manger
700,3,marcher
701,3,marque
702,3,marquer
703,3,mars
704,3,matin
705,3,mois
706,3,mortel
707,3,mère
708,3,nouvelle
709,3,nue
710,3,nuits
711,3,obstacle
712,3,occasion
713,3,offense
714,3,ombre
715,3,or
716,3,oses
717,3,ouvrage
718,3,palais
719,3,pareil
720,3,passer
721,3,perdre
722,3,peste
723,3,petit
724,3,peuple
725,3,pitié
726,3,plût
727,3,poltron
728,3,pourtant
729,3,première
730,3,premières
731,3,prend
732,3,prends
733,3,prospère
734,3,précieux
735,3,puissance
736,3,quatre
737,3,quelques
738,3,querelle
739,3,ramène
740,3,rare
741,3,regard
742,3,rencontre
743,3,rends
744,3,ressemblance
745,3,retarde
746,3,revient
747,3,reçu
748,3,riche
749,3,rigueur
750,3,rompons
751,3,réduit
752,3,répondre
753,3,réponds
754,3,sainement
755,3,salut
756,3,saurait
757,3,sensible
758,3,sept
759,3,seront
760,3,servir
761,3,silence
762,3,soient
763,3,soigneux
764,3,souffre
765,3,soupçon
766,3,soupçons
767,3,subtil
768,3,succès
769,3,superbe
770,3,suprême
771,3,sépare
772,3,tard
773,3,termes
774,3,travail
775,3,troupe
776,3,trouvé
777,3,trépas
778,3,tête
779,3,vain
780,3,vaincu
781,3,valets
782,3,veillé
783,3,venue
784,3,veuve
785,3,victorieux
786,3,vis
787,3,vivante
788,3,vol
789,3,vouloir
790,3,éclairs
791,3,écoute
792,3,étranger
793,3,ôter
794,2,aborder
795,2,absent
796,2,abuse
797,2,accidents
798,2,accompagne
799,2,accorde
800,2,accroît
801,2,achevée
802,2,acquitte
803,2,acquitter
804,2,adresse
805,2,adresseront
806,2,advenu
807,2,affection
808,2,agite
809,2,agréable
810,2,ailes
811,2,ajouter
812,2,aller
813,2,allez
814,2,allie
815,2,allégresse
816,2,altérer
817,2,amants
818,2,amenés
819,2,amoureux
820,2,amphitryons
821,2,animée
822,2,annoncer
823,2,ans
824,2,aperçois
825,2,appareil
826,2,apparence
827,2,apparent
828,2,apportez
829,2,arrivé
830,2,arrêtez
831,2,assure
832,2,assuré
833,2,attaque
834,2,atteinte
835,2,attire
836,2,attraits
837,2,aurai
838,2,aurore
839,2,avaient
840,2,avait
841,2,avançons
842,2,baiser
843,2,balance
844,2,battu
845,2,beautés
846,2,belle
847,2,bonheur
848,2,bonté
849,2,buvait
850,2,cacher
851,2,cachet
852,2,capitaines
853,2,cela
854,2,celle
855,2,centre
856,2,cents
857,2,cercueil
858,2,certain
859,2,certaine
860,2,chambre
861,2,champ
862,2,change
863,2,changé
864,2,chaos
865,2,chasser
866,2,chaud
867,2,cherches
868,2,cherchons
869,2,coeurs
870,2,col
871,2,comble
872,2,commandement
873,2,commence
874,2,compagnon
875,2,compagnons
876,2,compliment
877,2,compter
878,2,concevoir
879,2,confond
880,2,connu
881,2,conservons
882,2,considérer
883,2,consultons
884,2,conte
885,2,contes
886,2,contester
887,2,continue
888,2,contredire
889,2,convaincre
890,2,convainquons
891,2,coule
892,2,couleur
893,2,couleurs
894,2,cour
895,2,court
896,2,coutume
897,2,craint
898,2,cris
899,2,croirais
900,2,croirait
901,2,croit
902,2,croître
903,2,cru
904,2,cruellement
905,2,cueillir
906,2,cuisine
907,2,côté
908,2,davantage
909,2,demeure
910,2,dents
911,2,destinée
912,2,devant
913,2,devenir
914,2,devenu
915,2,devine
916,2,diane
917,2,différend
918,2,dirai
919,2,dissipera
920,2,divers
921,2,divertissement
922,2,divinité
923,2,domestique
924,2,donnez
925,2,dormir
926,2,dos
927,2,doublés
928,2,douce
929,2,douceur
930,2,douleurs
931,2,douter
932,2,doutez
933,2,dresse
934,2,duel
935,2,dès
936,2,déclare
937,2,défend
938,2,défendre
939,2,défère
940,2,dément
941,2,démentir
942,2,déplaire
943,2,déplaît
944,2,désirez
945,2,détourne
946,2,eaux
947,2,effort
948,2,empire
949,2,enfant
950,2,enfants
951,2,enfer
952,2,enferme
953,2,entrai
954,2,entrer
955,2,entrez
956,2,entrée
957,2,envie
958,2,envoyer
959,2,envoyé
960,2,espère
961,2,espérance
962,2,espérer
963,2,essence
964,2,eu
965,2,euboïque
966,2,eus
967,2,eut
968,2,exemple
969,2,exempt
970,2,exerce
971,2,expose
972,2,expresse
973,2,extravagance
974,2,faisons
975,2,faite
976,2,fantôme
977,2,fatigué
978,2,fenêtre
979,2,fer
980,2,fera
981,2,fiel
982,2,fille
983,2,finit
984,2,fixe
985,2,flambeau
986,2,folle
987,2,forces
988,2,forge
989,2,forger
990,2,foudres
991,2,frais
992,2,frapper
993,2,frappé
994,2,frivoles
995,2,froissé
996,2,front
997,2,frère
998,2,fuit
999,2,fuite
1000,2,fumée
1001,2,furie
1002,2,fuyais
1003,2,gardes
1004,2,guerriers
1005,2,habits
1006,2,hait
1007,2,harangue
1008,2,hasard
1009,2,haut
1010,2,heurter
1011,2,honorer
1012,2,horribles
1013,2,humains
1014,2,hâte
1015,2,hâtons
1016,2,héros
1017,2,image
1018,2,importance
1019,2,important
1020,2,importe
1021,2,importunité
1022,2,impudence
1023,2,impuissant
1024,2,incomparable
1025,2,indigne
1026,2,infortune
1027,2,inouï
1028,2,intérêt
1029,2,irriter
1030,2,ivrogne
1031,2,jadis
1032,2,jalouse
1033,2,jaloux
1034,2,joint
1035,2,joue
1036,2,journée
1037,2,laborieux
1038,2,laissent
1039,2,laisser
1040,2,langes
1041,2,langue
1042,2,lequel
1043,2,lien
1044,2,liqueur
1045,2,lors
1046,2,lève
1047,2,léger
1048,2,légions
1049,2,madame
1050,2,majesté
1051,2,maligne
1052,2,mandés
1053,2,mari
1054,2,maudit
1055,2,maux
1056,2,meilleure
1057,2,menacé
1058,2,mensonge
1059,2,met
1060,2,mettons
1061,2,mettrait
1062,2,mille
1063,2,moitié
1064,2,monarque
1065,2,monstre
1066,2,mourons
1067,2,mouvement
1068,2,moyen
1069,2,mutin
1070,2,naturelle
1071,2,naucrate
1072,2,neveux
1073,2,nierai
1074,2,nocher
1075,2,nécessité
1076,2,nés
1077,2,obligée
1078,2,obtenir
1079,2,obéir
1080,2,obéissons
1081,2,occupe
1082,2,odieux
1083,2,officieux
1084,2,oiseaux
1085,2,onde
1086,2,oppose
1087,2,oreille
1088,2,oublie
1089,2,parais
1090,2,paraît
1091,2,pardon
1092,2,parents
1093,2,parlant
1094,2,parole
1095,2,partage
1096,2,partager
1097,2,partagé
1098,2,passage
1099,2,passé
1100,2,patience
1101,2,paye
1102,2,payé
1103,2,peau
1104,2,peindre
1105,2,pense
1106,2,penser
1107,2,pensée
1108,2,perd
1109,2,permet
1110,2,permis
1111,2,personne
1112,2,petits
1113,2,peux
1114,2,pieds
1115,2,plaisante
1116,2,plaisirs
1117,2,portes
1118,2,porté
1119,2,possession
1120,2,possible
1121,2,posséder
1122,2,postérité
1123,2,pourra
1124,2,pousse
1125,2,pouvez
1126,2,premièrement
1127,2,prescrit
1128,2,preuve
1129,2,prie
1130,2,promet
1131,2,promène
1132,2,précède
1133,2,présage
1134,2,présents
1135,2,prétend
1136,2,pudique
1137,2,puisse
1138,2,pur
1139,2,périsse
1140,2,périt
1141,2,pût
1142,2,qualité
1143,2,qualités
1144,2,quelles
1145,2,quiconque
1146,2,raisons
1147,2,ravie
1148,2,ravissement
1149,2,recevoir
1150,2,reconnais
1151,2,reconnaître
1152,2,recours
1153,2,regret
1154,2,remparts
1155,2,remplis
1156,2,rencontré
1157,2,rende
1158,2,rendus
1159,2,renom
1160,2,renonce
1161,2,reproduire
1162,2,représentons
1163,2,respecte
1164,2,ressentiment
1165,2,retentit
1166,2,reçus
1167,2,rival
1168,2,rois
1169,2,rompre
1170,2,roses
1171,2,rude
1172,2,ruine
1173,2,rébellion
1174,2,révère
1175,2,rêveur
1176,2,sachez
1177,2,sain
1178,2,saints
1179,2,saura
1180,2,sauver
1181,2,savoir
1182,2,second
1183,2,secret
1184,2,secrets
1185,2,sentiments
1186,2,serf
1187,2,serment
1188,2,serviteur
1189,2,seuls
1190,2,sinon
1191,2,soir
1192,2,soldats
1193,2,sombres
1194,2,songe
1195,2,souffle
1196,2,souvient
1197,2,spectre
1198,2,suivis
1199,2,suivre
1200,2,superflus
1201,2,supplice
1202,2,surpris
1203,2,surprise
1204,2,surtout
1205,2,suspecte
1206,2,table
1207,2,taille
1208,2,tantôt
1209,2,telle
1210,2,tels
1211,2,tenons
1212,2,terme
1213,2,terreur
1214,2,thrace
1215,2,thébain
1216,2,thébaines
1217,2,thébains
1218,2,tien
1219,2,tire
1220,2,tirera
1221,2,tombent
1222,2,tomber
1223,2,toucher
1224,2,tour
1225,2,toutefois
1226,2,trait
1227,2,traite
1228,2,tristes
1229,2,tromper
1230,2,troublons
1231,2,troublé
1232,2,troublée
1233,2,troublés
1234,2,trouvent
1235,2,trône
1236,2,tuile
1237,2,télèbe
1238,2,témoignage
1239,2,témoin
1240,2,témoins
1241,2,use
1242,2,user
1243,2,usure
1244,2,vaincus
1245,2,venir
1246,2,vent
1247,2,verre
1248,2,vice
1249,2,vices
1250,2,viendra
1251,2,vieux
1252,2,vins
1253,2,violence
1254,2,violent
1255,2,visite
1256,2,vit
1257,2,vivement
1258,2,vivre
1259,2,voie
1260,2,voluptés
1261,2,voudrais
1262,2,voulais
1263,2,voulu
1264,2,voyais
1265,2,voyait
1266,2,voyons
1267,2,vulcain
1268,2,vus
1269,2,vénus
1270,2,véritable
1271,2,vérités
1272,2,éclaire
1273,2,éclate
1274,2,également
1275,2,éloigne
1276,2,éloigner
1277,2,élément
1278,2,épouvante
1279,2,épreuve
1280,2,établis
1281,2,étaient
1282,2,étant
1283,2,éternels
1284,2,étions
1285,2,étonne
1286,2,étouffés
1287,2,étranges
1288,2,événement
1289,1,abaissement
1290,1,abandonna
1291,1,abandonne
1292,1,abandonner
1293,1,abandonné
1294,1,abats
1295,1,abattu
1296,1,abject
1297,1,abri
1298,1,abus
1299,1,abuserait
1300,1,abuses
1301,1,accable
1302,1,accabler
1303,1,accessible
1304,1,accompagné
1305,1,accomplir
1306,1,accomplissent
1307,1,accord
1308,1,accorder
1309,1,accroître
1310,1,accru
1311,1,accusez
1312,1,accusé
1313,1,achaïe
1314,1,acheter
1315,1,achevèrent
1316,1,achevé
1317,1,achète
1318,1,achètera
1319,1,achèvera
1320,1,acquit
1321,1,action
1322,1,admiration
1323,1,adorer
1324,1,adressent
1325,1,adresser
1326,1,adressé
1327,1,advenir
1328,1,affaire
1329,1,affamée
1330,1,affecté
1331,1,affronter
1332,1,affrontée
1333,1,agissant
1334,1,agit
1335,1,agité
1336,1,agréables
1337,1,agréer
1338,1,agréez
1339,1,aidais
1340,1,aient
1341,1,aigrement
1342,1,ailés
1343,1,airain
1344,1,ajusté
1345,1,alcide
1346,1,alentour
1347,1,allai
1348,1,allas
1349,1,allongé
1350,1,allumée
1351,1,allègement
1352,1,allé
1353,1,altière
1354,1,ambassade
1355,1,ambition
1356,1,ambre
1357,1,ambrosie
1358,1,amenez
1359,1,ami
1360,1,amoindrir
1361,1,amollir
1362,1,amorce
1363,1,amoureuse
1364,1,amuse
1365,1,amènes
1366,1,animait
1367,1,animaux
1368,1,année
1369,1,années
1370,1,apaisons
1371,1,appartement
1372,1,appartiens
1373,1,appelez
1374,1,appelles
1375,1,applique
1376,1,apportait
1377,1,apportes
1378,1,apprise
1379,1,approchait
1380,1,approchons
1381,1,appréhende
1382,1,apprête
1383,1,apprêter
1384,1,arbitre
1385,1,arcanane
1386,1,archer
1387,1,argent
1388,1,ariane
1389,1,arme
1390,1,arracherai
1391,1,arrivai
1392,1,arrivera
1393,1,arrivons
1394,1,arrogance
1395,1,arrêta
1396,1,arrêter
1397,1,arrêteraient
1398,1,artères
1399,1,assaillie
1400,1,assaillis
1401,1,assassinats
1402,1,asseoir
1403,1,asservir
1404,1,assommai
1405,1,assommeur
1406,1,assujettis
1407,1,assurance
1408,1,assurer
1409,1,astres
1410,1,atlantides
1411,1,atlas
1412,1,attache
1413,1,attaquer
1414,1,atteindre
1415,1,attendant
1416,1,attendez
1417,1,attendue
1418,1,attente
1419,1,attenter
1420,1,atteste
1421,1,attiques
1422,1,attributs
1423,1,aucun
1424,1,audacieux
1425,1,augmente
1426,1,auprès
1427,1,aurais
1428,1,auspices
1429,1,autorise
1430,1,autour
1431,1,autrement
1432,1,avais
1433,1,avale
1434,1,avance
1435,1,avancé
1436,1,avantage
1437,1,avare
1438,1,avecques
1439,1,aversion
1440,1,avertie
1441,1,avertir
1442,1,aveugle
1443,1,aveuglement
1444,1,aveugler
1445,1,avisons
1446,1,avons
1447,1,avorta
1448,1,avouer
1449,1,avoué
1450,1,azur
1451,1,azurés
1452,1,bacchus
1453,1,bailler
1454,1,baillé
1455,1,balancer
1456,1,balancerait
1457,1,balancez
1458,1,bannissons
1459,1,barbe
1460,1,basse
1461,1,bataillons
1462,1,battons
1463,1,bave
1464,1,beaucoup
1465,1,belles
1466,1,bergers
1467,1,bienfaits
1468,1,blesse
1469,1,boire
1470,1,bois
1471,1,boivent
1472,1,bonne
1473,1,bouffie
1474,1,bouffon
1475,1,bourreaux
1476,1,bourse
1477,1,bout
1478,1,bouteille
1479,1,brave
1480,1,braver
1481,1,breuvage
1482,1,brillent
1483,1,brisait
1484,1,brise
1485,1,brises
1486,1,brouille
1487,1,brouiller
1488,1,brouilles
1489,1,brèche
1490,1,brûle
1491,1,brûlera
1492,1,bureau
1493,1,butin
1494,1,bâton
1495,1,béni
1496,1,bénie
1497,1,bénir
1498,1,caché
1499,1,calmes
1500,1,calmez
1501,1,calmons
1502,1,camps
1503,1,capable
1504,1,capricieux
1505,1,captif
1506,1,caractères
1507,1,caresse
1508,1,caresses
1509,1,carnage
1510,1,carrefour
1511,1,carrière
1512,1,cas
1513,1,cerbère
1514,1,cerveau
1515,1,cesse
1516,1,cessons
1517,1,cessé
1518,1,changements
1519,1,changeront
1520,1,changés
1521,1,chant
1522,1,chanté
1523,1,chargeons
1524,1,charges
1525,1,chargés
1526,1,charmeur
1527,1,charmés
1528,1,chassai
1529,1,chassant
1530,1,chasseront
1531,1,chassons
1532,1,chassé
1533,1,chasteté
1534,1,chemin
1535,1,cher
1536,1,chers
1537,1,cheveux
1538,1,chimères
1539,1,choc
1540,1,choir
1541,1,choix
1542,1,choquaient
1543,1,chéris
1544,1,chétive
1545,1,ci
1546,1,cimetière
1547,1,cinquième
1548,1,citer
1549,1,citoyens
1550,1,civilité
1551,1,clair
1552,1,claire
1553,1,clairs
1554,1,close
1555,1,cloués
1556,1,coffres
1557,1,combattait
1558,1,combattant
1559,1,combattu
1560,1,comblant
1561,1,comblé
1562,1,commanda
1563,1,commandaient
1564,1,commandements
1565,1,commencera
1566,1,commis
1567,1,communes
1568,1,compagne
1569,1,compagnie
1570,1,complaisance
1571,1,complice
1572,1,comprendre
1573,1,comprends
1574,1,compte
1575,1,condamne
1576,1,conduit
1577,1,conduite
1578,1,confesser
1579,1,confession
1580,1,confirmée
1581,1,confonde
1582,1,confondent
1583,1,conforme
1584,1,confusions
1585,1,congé
1586,1,connaissance
1587,1,connaisse
1588,1,connues
1589,1,conquis
1590,1,conquérir
1591,1,consens
1592,1,consente
1593,1,consentement
1594,1,conserver
1595,1,conservée
1596,1,conservés
1597,1,considère
1598,1,considéré
1599,1,consommer
1600,1,consommée
1601,1,constance
1602,1,consume
1603,1,conséquence
1604,1,content
1605,1,contez
1606,1,contraires
1607,1,contribue
1608,1,contrée
1609,1,conté
1610,1,convainc
1611,1,convainque
1612,1,corne
1613,1,coupé
1614,1,courais
1615,1,coureurs
1616,1,courez
1617,1,couronne
1618,1,courrière
1619,1,courtois
1620,1,couru
1621,1,coutelas
1622,1,couvert
1623,1,craignez
1624,1,craignis
1625,1,craindre
1626,1,crie
1627,1,crimes
1628,1,criminels
1629,1,croirai
1630,1,croiras
1631,1,croirons
1632,1,croyant
1633,1,croît
1634,1,cruel
1635,1,crédule
1636,1,crédules
1637,1,crêtes
1638,1,curiosité
1639,1,cyprès
1640,1,cède
1641,1,céder
1642,1,céleste
1643,1,célèbrent
1644,1,daigne
1645,1,dam
1646,1,danger
1647,1,dangereux
1648,1,degrés
1649,1,dehors
1650,1,demain
1651,1,demander
1652,1,demandez
1653,1,demi
1654,1,descendre
1655,1,dessille
1656,1,destine
1657,1,destins
1658,1,destiné
1659,1,destinées
1660,1,devais
1661,1,devance
1662,1,deviens
1663,1,devient
1664,1,deviné
1665,1,devons
1666,1,devront
1667,1,dias
1668,1,diffamer
1669,1,dignement
1670,1,dignes
1671,1,dignité
1672,1,discerner
1673,1,disent
1674,1,disertement
1675,1,disgrâces
1676,1,disparais
1677,1,dispense
1678,1,dispos
1679,1,disputer
1680,1,dissimule
1681,1,dissipe
1682,1,dissiper
1683,1,dissipé
1684,1,distinctement
1685,1,distinction
1686,1,distincts
1687,1,distingue
1688,1,dites
1689,1,divertissez
1690,1,divin
1691,1,division
1692,1,dixième
1693,1,doigt
1694,1,doigts
1695,1,doive
1696,1,domptés
1697,1,donnaient
1698,1,donnent
1699,1,donnons
1700,1,dormant
1701,1,dormants
1702,1,dort
1703,1,dorée
1704,1,doublement
1705,1,doubler
1706,1,doublez
1707,1,doublé
1708,1,douces
1709,1,douterait
1710,1,doutes
1711,1,douteux
1712,1,drapeaux
1713,1,dressant
1714,1,dressent
1715,1,dressé
1716,1,dressée
1717,1,due
1718,1,duplicités
1719,1,durer
1720,1,durée
1721,1,débat
1722,1,débris
1723,1,débrouille
1724,1,débrouiller
1725,1,déchargée
1726,1,déchirée
1727,1,déclarer
1728,1,découvre
1729,1,décru
1730,1,dédaigneux
1731,1,déesse
1732,1,défais
1733,1,défaite
1734,1,défaut
1735,1,défendrai
1736,1,défends
1737,1,défiance
1738,1,défiances
1739,1,dégorgé
1740,1,déguisement
1741,1,déité
1742,1,délibère
1743,1,démarche
1744,1,démentait
1745,1,démenti
1746,1,dépens
1747,1,déplaisant
1748,1,déployer
1749,1,déployés
1750,1,dépouilla
1751,1,dépourvue
1752,1,désabuser
1753,1,désavouer
1754,1,désavouerez
1755,1,désavouez
1756,1,désert
1757,1,désespère
1758,1,désespérais
1759,1,déshonneur
1760,1,déshonore
1761,1,désir
1762,1,désire
1763,1,désirs
1764,1,désormais
1765,1,détourner
1766,1,détournes
1767,1,détournons
1768,1,détrompons
1769,1,détruire
1770,1,détruit
1771,1,dévaler
1772,1,dévoré
1773,1,dîne
1774,1,dîner
1775,1,dîné
1776,1,eau
1777,1,effrayer
1778,1,effrayée
1779,1,effronterie
1780,1,effronté
1781,1,effrontément
1782,1,effrontés
1783,1,effroyable
1784,1,effrénée
1785,1,embellit
1786,1,embrassements
1787,1,emploiera
1788,1,employaient
1789,1,empoisonnements
1790,1,emportent
1791,1,emportera
1792,1,emportes
1793,1,emporté
1794,1,emprunt
1795,1,emprunte
1796,1,empêche
1797,1,empêchement
1798,1,encelade
1799,1,encelades
1800,1,enchantement
1801,1,enchaîne
1802,1,enclos
1803,1,endroit
1804,1,endurci
1805,1,enfers
1806,1,enflamme
1807,1,enflammée
1808,1,engendre
1809,1,enivré
1810,1,enjoint
1811,1,ennemie
1812,1,ennui
1813,1,enquête
1814,1,entasse
1815,1,entend
1816,1,entendu
1817,1,entier
1818,1,entrepris
1819,1,entretenir
1820,1,entretien
1821,1,entré
1822,1,envers
1823,1,envierait
1824,1,envieront
1825,1,envoie
1826,1,envoyiez
1827,1,errant
1828,1,escalades
1829,1,esclave
1830,1,escroquer
1831,1,espérais
1832,1,estime
1833,1,excellent
1834,1,exceptes
1835,1,exciter
1836,1,excité
1837,1,excès
1838,1,exerçant
1839,1,expert
1840,1,expiré
1841,1,exploit
1842,1,expressément
1843,1,extermine
1844,1,exterminent
1845,1,exécute
1846,1,exécuté
1847,1,eût
1848,1,fable
1849,1,fabuleux
1850,1,facilité
1851,1,faiblesse
1852,1,faille
1853,1,failli
1854,1,faisait
1855,1,fallut
1856,1,fantaisie
1857,1,fard
1858,1,fardeau
1859,1,fasse
1860,1,fatale
1861,1,fausses
1862,1,fausseté
1863,1,faussetés
1864,1,faute
1865,1,fautes
1866,1,favoriser
1867,1,feignais
1868,1,feintes
1869,1,fend
1870,1,fendre
1871,1,fends
1872,1,ferait
1873,1,ferme
1874,1,fermement
1875,1,fermer
1876,1,fermé
1877,1,fermée
1878,1,fermés
1879,1,festins
1880,1,fiction
1881,1,fidélité
1882,1,fier
1883,1,filles
1884,1,finis
1885,1,finissant
1886,1,firmament
1887,1,fis
1888,1,fisse
1889,1,flacon
1890,1,flanc
1891,1,flatté
1892,1,fléau
1893,1,fléchit
1894,1,flûte
1895,1,fol
1896,1,fonde
1897,1,fondement
1898,1,fondements
1899,1,fondé
1900,1,forcer
1901,1,forcés
1902,1,fortuné
1903,1,fournir
1904,1,fournira
1905,1,fournit
1906,1,franc
1907,1,frappes
1908,1,frappons
1909,1,frein
1910,1,frivole
1911,1,froidure
1912,1,fruits
1913,1,fuie
1914,1,furieuse
1915,1,fusse
1916,1,fussé
1917,1,future
1918,1,fuyons
1919,1,fâcheux
1920,1,féliciter
1921,1,fête
1922,1,fût
1923,1,gages
1924,1,gagnez
1925,1,ganimède
1926,1,garanti
1927,1,gausser
1928,1,glace
1929,1,glorieuses
1930,1,gorge
1931,1,gouttes
1932,1,gouvernés
1933,1,grossesse
1934,1,grottes
1935,1,grâces
1936,1,gré
1937,1,grêle
1938,1,guet
1939,1,guéri
1940,1,guérir
1941,1,guérissez
1942,1,généreuses
1943,1,habit
1944,1,habitants
1945,1,habite
1946,1,haleine
1947,1,halle
1948,1,hardi
1949,1,hardie
1950,1,hardiment
1951,1,hasards
1952,1,haïsse
1953,1,herbe
1954,1,heur
1955,1,heures
1956,1,heurte
1957,1,holà
1958,1,homicide
1959,1,honneurs
1960,1,honnête
1961,1,honorablement
1962,1,honorez
1963,1,honorée
1964,1,honteuse
1965,1,humble
1966,1,humide
1967,1,hydre
1968,1,hydres
1969,1,hérauts
1970,1,héritage
1971,1,héroïque
1972,1,hôtellerie
1973,1,i
1974,1,ignorant
1975,1,illusion
1976,1,illustre
1977,1,imaginaire
1978,1,imaginaires
1979,1,imagine
1980,1,imitable
1981,1,imiter
1982,1,immortel
1983,1,immortels
1984,1,immuable
1985,1,impatience
1986,1,implore
1987,1,implorer
1988,1,imposture
1989,1,imposé
1990,1,imprimé
1991,1,imprudence
1992,1,impudemment
1993,1,impudents
1994,1,impudique
1995,1,imputer
1996,1,impétueux
1997,1,incertain
1998,1,incertaine
1999,1,incertains
2000,1,incertitude
2001,1,incommodité
2002,1,inconstants
2003,1,incrédule
2004,1,incrédulité
2005,1,indignes
2006,1,indomptable
2007,1,infamie
2008,1,infidèle
2009,1,infinis
2010,1,infortuné
2011,1,ingrate
2012,1,injures
2013,1,injustice
2014,1,innocente
2015,1,innocents
2016,1,insensible
2017,1,insigne
2018,1,inspiré
2019,1,instruire
2020,1,instruit
2021,1,interdite
2022,1,interrogeons
2023,1,interrompez
2024,1,interrompt
2025,1,introduire
2026,1,invention
2027,1,invincible
2028,1,ioniens
2029,1,ira
2030,1,irrite
2031,1,ivrognerie
2032,1,ivrognes
2033,1,jambes
2034,1,jaune
2035,1,jette
2036,1,jeune
2037,1,jeux
2038,1,jeûnes
2039,1,joie
2040,1,joigne
2041,1,joignez
2042,1,joignons
2043,1,joins
2044,1,jointe
2045,1,jouerais
2046,1,jouissance
2047,1,juge
2048,1,jugeons
2049,1,jugé
2050,1,jumeaux
2051,1,junons
2052,1,jurer
2053,1,jurons
2054,1,juré
2055,1,justice
2056,1,laissera
2057,1,lait
2058,1,lambris
2059,1,lancés
2060,1,langage
2061,1,lanterne
2062,1,larges
2063,1,largesses
2064,1,lasse
2065,1,lassera
2066,1,lassitude
2067,1,lassèrent
2068,1,lave
2069,1,lavâmes
2070,1,lavés
2071,1,lent
2072,1,lentement
2073,1,lents
2074,1,lever
2075,1,levez
2076,1,libertés
2077,1,libre
2078,1,librement
2079,1,libérale
2080,1,lie
2081,1,lions
2082,1,liquides
2083,1,lire
2084,1,lise
2085,1,litière
2086,1,livres
2087,1,logement
2088,1,loisir
2089,1,longs
2090,1,lorsqu
2091,1,lourds
2092,1,lu
2093,1,lueur
2094,1,lumière
2095,1,lys
2096,1,légers
2097,1,légitimes
2098,1,légères
2099,1,magie
2100,1,maintiens
2101,1,maladie
2102,1,malheureuse
2103,1,malheurs
2104,1,malice
2105,1,malin
2106,1,mandements
2107,1,mandez
2108,1,mangeai
2109,1,mangeait
2110,1,mangeasse
2111,1,mangeurs
2112,1,mangeâtes
2113,1,manie
2114,1,manifeste
2115,1,manquait
2116,1,manquant
2117,1,manque
2118,1,manquer
2119,1,manqué
2120,1,maraud
2121,1,marchaient
2122,1,marchent
2123,1,marcherai
2124,1,marchons
2125,1,marqué
2126,1,martyre
2127,1,maîtres
2128,1,maîtresses
2129,1,menacer
2130,1,menaces
2131,1,menaçons
2132,1,mensonges
2133,1,ment
2134,1,menterie
2135,1,menteur
2136,1,menti
2137,1,menton
2138,1,mer
2139,1,merveilles
2140,1,messager
2141,1,messagères
2142,1,mesurais
2143,1,mesure
2144,1,mettait
2145,1,mette
2146,1,mettra
2147,1,mettre
2148,1,meurt
2149,1,meurtri
2150,1,mien
2151,1,milieu
2152,1,mine
2153,1,miroir
2154,1,mit
2155,1,modérons
2156,1,moeurs
2157,1,moindres
2158,1,mome
2159,1,monstres
2160,1,monta
2161,1,montrer
2162,1,montré
2163,1,monument
2164,1,morte
2165,1,mortelle
2166,1,mortellement
2167,1,mourant
2168,1,mourra
2169,1,mourut
2170,1,muet
2171,1,mugissements
2172,1,muid
2173,1,mur
2174,1,murmure
2175,1,murmures
2176,1,muscles
2177,1,mutins
2178,1,mystère
2179,1,méchant
2180,1,méconnais
2181,1,méconnaissance
2182,1,méditant
2183,1,méditer
2184,1,mélanges
2185,1,mépouvante
2186,1,mérite
2187,1,mériter
2188,1,mériterait
2189,1,mérité
2190,1,métamorphose
2191,1,métamorphoses
2192,1,mêle
2193,1,mêlé
2194,1,mît
2195,1,mîtes
2196,1,naissait
2197,1,naisse
2198,1,naquit
2199,1,naturel
2200,1,naturels
2201,1,naîtrait
2202,1,nectar
2203,1,neptune
2204,1,nerveux
2205,1,neuf
2206,1,nierez
2207,1,noeud
2208,1,noeuds
2209,1,noient
2210,1,noir
2211,1,noirci
2212,1,nombre
2213,1,nommez
2214,1,nommé
2215,1,noms
2216,1,nouvel
2217,1,nuage
2218,1,nuages
2219,1,nues
2220,1,nul
2221,1,né
2222,1,née
2223,1,némée
2224,1,nôtre
2225,1,nôtres
2226,1,nûment
2227,1,obligeant
2228,1,obliger
2229,1,obligerais
2230,1,obligerait
2231,1,obscurcir
2232,1,observe
2233,1,observer
2234,1,observé
2235,1,obstine
2236,1,obstines
2237,1,obtiendrait
2238,1,obéis
2239,1,obéissance
2240,1,obéissant
2241,1,occasions
2242,1,occupation
2243,1,occuper
2244,1,occupera
2245,1,occupé
2246,1,océan
2247,1,odeur
2248,1,oeil
2249,1,offensé
2250,1,offices
2251,1,offre
2252,1,offres
2253,1,offrir
2254,1,oisiveté
2255,1,ombres
2256,1,omettons
2257,1,ondes
2258,1,ongles
2259,1,opinion
2260,1,opposai
2261,1,opposerai
2262,1,ordinaire
2263,1,ordinaires
2264,1,ordonnance
2265,1,ordonnez
2266,1,ordonné
2267,1,ordres
2268,1,oreilles
2269,1,orion
2270,1,os
2271,1,osais
2272,1,oserais
2273,1,osé
2274,1,oubliais
2275,1,oublier
2276,1,oublié
2277,1,ourse
2278,1,outrager
2279,1,ouverte
2280,1,ouverts
2281,1,ouvres
2282,1,ouvrir
2283,1,ouïr
2284,1,oyant
2285,1,oyez
2286,1,oyés
2287,1,page
2288,1,paille
2289,1,paisible
2290,1,pallas
2291,1,palmes
2292,1,pan
2293,1,paraisse
2294,1,pareilles
2295,1,parent
2296,1,paresse
2297,1,parfait
2298,1,parlai
2299,1,parlais
2300,1,parlait
2301,1,parles
2302,1,parlons
2303,1,paroles
2304,1,parrain
2305,1,partages
2306,1,partagez
2307,1,partagée
2308,1,partent
2309,1,parti
2310,1,partout
2311,1,parut
2312,1,passent
2313,1,passeport
2314,1,passerait
2315,1,passeront
2316,1,passion
2317,1,passions
2318,1,passât
2319,1,passée
2320,1,pavillons
2321,1,peignent
2322,1,peines
2323,1,peinture
2324,1,pend
2325,1,pendant
2326,1,perclus
2327,1,percé
2328,1,perdait
2329,1,perde
2330,1,perdent
2331,1,perdons
2332,1,perfide
2333,1,permets
2334,1,persiques
2335,1,persuader
2336,1,persécuter
2337,1,pesante
2338,1,pestes
2339,1,peuples
2340,1,peuvent
2341,1,phocide
2342,1,pied
2343,1,pilote
2344,1,pire
2345,1,plaindrais
2346,1,plaira
2347,1,plairait
2348,1,plaire
2349,1,plein
2350,1,pleine
2351,1,pleins
2352,1,pleurs
2353,1,pleuve
2354,1,pleuvoir
2355,1,ploie
2356,1,poil
2357,1,poing
2358,1,poison
2359,1,pompeux
2360,1,porter
2361,1,porteur
2362,1,portons
2363,1,portrait
2364,1,portée
2365,1,poudre
2366,1,pourrez
2367,1,pourront
2368,1,poursuivant
2369,1,poursuivie
2370,1,pouvais
2371,1,pouvant
2372,1,prenne
2373,1,prenons
2374,1,presque
2375,1,presser
2376,1,pressez
2377,1,pressé
2378,1,prestement
2379,1,prier
2380,1,prince
2381,1,princesse
2382,1,principaux
2383,1,prise
2384,1,prison
2385,1,prières
2386,1,procurer
2387,1,production
2388,1,produire
2389,1,produit
2390,1,profite
2391,1,profond
2392,1,profondément
2393,1,proie
2394,1,promenant
2395,1,promesse
2396,1,promis
2397,1,prompt
2398,1,prompte
2399,1,promptement
2400,1,propice
2401,1,propices
2402,1,proportion
2403,1,proportionne
2404,1,propose
2405,1,prospères
2406,1,prospérité
2407,1,protection
2408,1,protège
2409,1,protégeons
2410,1,prouve
2411,1,prouvera
2412,1,prouvons
2413,1,provident
2414,1,précédé
2415,1,prédire
2416,1,préparer
2417,1,présente
2418,1,préside
2419,1,président
2420,1,prêtez
2421,1,prêts
2422,1,prîmes
2423,1,pudeur
2424,1,pudiques
2425,1,puissent
2426,1,puissiez
2427,1,punit
2428,1,pussent
2429,1,pèsent
2430,1,pécher
2431,1,péché
2432,1,pénitence
2433,1,pénètre
2434,1,péris
2435,1,périssons
2436,1,pêle
2437,1,pôle
2438,1,quelquefois
2439,1,querelles
2440,1,quitte
2441,1,quitter
2442,1,quittes
2443,1,quittons
2444,1,quitté
2445,1,quérir
2446,1,race
2447,1,raconté
2448,1,raffermi
2449,1,raillons
2450,1,raisonnable
2451,1,rameaux
2452,1,ramer
2453,1,rapporté
2454,1,rassemble
2455,1,rassurez
2456,1,ravir
2457,1,ravissements
2458,1,ravit
2459,1,rebelle
2460,1,rebroussé
2461,1,recherche
2462,1,reconnaisse
2463,1,reconnaîtras
2464,1,recules
2465,1,redevable
2466,1,redouble
2467,1,redoutable
2468,1,redouté
2469,1,refus
2470,1,refusé
2471,1,regretterais
2472,1,reine
2473,1,relève
2474,1,remonte
2475,1,remplie
2476,1,remplir
2477,1,remplira
2478,1,remplit
2479,1,renaissants
2480,1,rencontrant
2481,1,rencontrer
2482,1,rencontrée
2483,1,rendis
2484,1,rendra
2485,1,rendrais
2486,1,renversa
2487,1,renversé
2488,1,repart
2489,1,repartie
2490,1,repense
2491,1,repentir
2492,1,replis
2493,1,repose
2494,1,repousser
2495,1,reservé
2496,1,respirai
2497,1,respire
2498,1,ressentir
2499,1,resta
2500,1,resterai
2501,1,restât
2502,1,resté
2503,1,restée
2504,1,retardements
2505,1,retirez
2506,1,retirons
2507,1,retiré
2508,1,retourne
2509,1,retournons
2510,1,retrouve
2511,1,revois
2512,1,revoyons
2513,1,reçoit
2514,1,reçût
2515,1,riante
2516,1,riches
2517,1,ridicule
2518,1,rie
2519,1,rigoureux
2520,1,rigueurs
2521,1,risée
2522,1,rit
2523,1,rocher
2524,1,rompra
2525,1,rompt
2526,1,rompu
2527,1,rouge
2528,1,rougeur
2529,1,route
2530,1,routes
2531,1,rubis
2532,1,ruinons
2533,1,ruisseau
2534,1,ruisseaux
2535,1,règne
2536,1,récent
2537,1,réception
2538,1,réclamer
2539,1,réduits
2540,1,région
2541,1,régit
2542,1,régna
2543,1,régner
2544,1,réjouir
2545,1,réjouissance
2546,1,répande
2547,1,répandre
2548,1,répandu
2549,1,réparer
2550,1,répliques
2551,1,répondez
2552,1,répéter
2553,1,réserve
2554,1,résolutions
2555,1,résonnent
2556,1,résoudra
2557,1,résoudrai
2558,1,résout
2559,1,rétabli
2560,1,rétablir
2561,1,rétablis
2562,1,rétablit
2563,1,rétablît
2564,1,réunis
2565,1,réveil
2566,1,révolte
2567,1,révérer
2568,1,rêvais
2569,1,rêvant
2570,1,rêve
2571,1,rêver
2572,1,sachet
2573,1,sachons
2574,1,sacrilège
2575,1,sacrée
2576,1,sagesse
2577,1,saine
2578,1,saisie
2579,1,sanglant
2580,1,sanglants
2581,1,saturne
2582,1,satyre
2583,1,sauraient
2584,1,sauras
2585,1,sauvas
2586,1,savant
2587,1,savourer
2588,1,sceau
2589,1,seconde
2590,1,secondez
2591,1,secourir
2592,1,secrète
2593,1,semblable
2594,1,semblent
2595,1,semblera
2596,1,semblé
2597,1,sensiblement
2598,1,sentier
2599,1,sentiment
2600,1,serai
2601,1,serais
2602,1,serments
2603,1,serpent
2604,1,serre
2605,1,serré
2606,1,sers
2607,1,service
2608,1,servira
2609,1,servitude
2610,1,seuil
2611,1,soeur
2612,1,soldat
2613,1,solennité
2614,1,solitaire
2615,1,sollicitent
2616,1,solvable
2617,1,sombre
2618,1,sommeille
2619,1,songes
2620,1,sonnent
2621,1,sorcier
2622,1,sortent
2623,1,sortez
2624,1,sortie
2625,1,soudain
2626,1,soudains
2627,1,souffrez
2628,1,souffris
2629,1,souhaite
2630,1,souhaits
2631,1,soulager
2632,1,soulagée
2633,1,soumis
2634,1,soumission
2635,1,souper
2636,1,soupçonner
2637,1,source
2638,1,sourd
2639,1,soustrairaient
2640,1,soustrairait
2641,1,soustraire
2642,1,soutiens
2643,1,souvenir
2644,1,soyons
2645,1,stupide
2646,1,su
2647,1,succombe
2648,1,succéder
2649,1,sucrer
2650,1,suffisante
2651,1,suffit
2652,1,suit
2653,1,suite
2654,1,suivait
2655,1,suive
2656,1,suivez
2657,1,suivit
2658,1,suivons
2659,1,suivrons
2660,1,suppôt
2661,1,surent
2662,1,surmontera
2663,1,surpassé
2664,1,surprenons
2665,1,sus
2666,1,suspect
2667,1,suspend
2668,1,suspendait
2669,1,suspendu
2670,1,séditieux
2671,1,séméle
2672,1,sépulture
2673,1,sûreté
2674,1,tache
2675,1,taire
2676,1,tais
2677,1,taisons
2678,1,talents
2679,1,taphe
2680,1,taphiens
2681,1,tarde
2682,1,tasse
2683,1,taureaux
2684,1,teint
2685,1,teinte
2686,1,tellement
2687,1,temple
2688,1,tempête
2689,1,tenait
2690,1,tend
2691,1,tendait
2692,1,tendent
2693,1,tendis
2694,1,tendons
2695,1,termineront
2696,1,terres
2697,1,thèbes
2698,1,thébaine
2699,1,tiendra
2700,1,tiendrai
2701,1,tienne
2702,1,tiennent
2703,1,tirai
2704,1,tirent
2705,1,tires
2706,1,tirons
2707,1,tiré
2708,1,titans
2709,1,titres
2710,1,toit
2711,1,tonne
2712,1,tortueux
2713,1,touches
2714,1,touché
2715,1,trace
2716,1,trahir
2717,1,trahit
2718,1,traitement
2719,1,traiter
2720,1,traitez
2721,1,traité
2722,1,trame
2723,1,trames
2724,1,trancher
2725,1,tranché
2726,1,tranquille
2727,1,transformer
2728,1,transformé
2729,1,transport
2730,1,transports
2731,1,travaillais
2732,1,travaille
2733,1,travaillons
2734,1,travaux
2735,1,traverse
2736,1,traversé
2737,1,trinquant
2738,1,triomphent
2739,1,triompher
2740,1,tristesse
2741,1,trompettes
2742,1,trompé
2743,1,troupes
2744,1,trouvera
2745,1,trouverez
2746,1,trouvée
2747,1,trouvés
2748,1,trésor
2749,1,trésors
2750,1,tue
2751,1,tyran
2752,1,tyrans
2753,1,téléboyens
2754,1,témoignages
2755,1,témoigne
2756,1,témoigner
2757,1,témérité
2758,1,têtes
2759,1,tînt
2760,1,unique
2761,1,unirait
2762,1,usai
2763,1,usurper
2764,1,utilité
2765,1,vaincra
2766,1,vainement
2767,1,vainqueurs
2768,1,vains
2769,1,vanité
2770,1,vante
2771,1,vas
2772,1,vaste
2773,1,veillai
2774,1,veiller
2775,1,veilles
2776,1,veines
2777,1,venez
2778,1,vengeance
2779,1,venger
2780,1,vengé
2781,1,venimeuses
2782,1,venin
2783,1,verraient
2784,1,verrez
2785,1,verrons
2786,1,versant
2787,1,versez
2788,1,verts
2789,1,vesper
2790,1,veuille
2791,1,veulent
2792,1,vicieuses
2793,1,vicieux
2794,1,victime
2795,1,vidons
2796,1,vieille
2797,1,vieillir
2798,1,vieillis
2799,1,vienne
2800,1,vierge
2801,1,vil
2802,1,vin
2803,1,virginité
2804,1,visible
2805,1,vite
2806,1,vivant
2807,1,vivants
2808,1,vive
2809,1,vivons
2810,1,voiles
2811,1,voisins
2812,1,voler
2813,1,voleurs
2814,1,volé
2815,1,vomiront
2816,1,vont
2817,1,voudrait
2818,1,voudras
2819,1,voudront
2820,1,voulez
2821,1,voyant
2822,1,voûte
2823,1,vîmes
2824,1,vînt
2825,1,vôtre
2826,1,zélés
2827,1,âmes
2828,1,ça
2829,1,éblouissent
2830,1,ébranler
2831,1,éclaira
2832,1,éclaircis
2833,1,éclairer
2834,1,éclairée
2835,1,éclat
2836,1,éclata
2837,1,éclatant
2838,1,éclater
2839,1,éclatât
2840,1,éclore
2841,1,égal
2842,1,égalité
2843,1,égée
2844,1,éloge
2845,1,éléments
2846,1,ému
2847,1,émue
2848,1,épargnez
2849,1,épine
2850,1,épouse
2851,1,éprouve
2852,1,éprouver
2853,1,éprouvé
2854,1,éprouvée
2855,1,équipage
2856,1,établir
2857,1,étale
2858,1,états
2859,1,étendre
2860,1,éternellement
2861,1,éternelles
2862,1,étoiles
2863,1,étonnant
2864,1,étonner
2865,1,étoufferait
2866,1,étouffons
2867,1,étourdi
2868,1,étourdie
2869,1,étrange
2870,1,étrangers
2871,1,étudie
2872,1,été
2873,1,évanouis
2874,1,évite
2875,1,éviter
2876,1,ôté
