1,529,de
2,468,et
3,417,vous
4,362,le
5,353,que
6,332,l
7,330,à
8,321,en
9,305,il
10,301,un
11,299,qu
12,291,je
13,266,ce
14,239,est
15,238,d
16,236,la
17,189,pour
18,174,n
19,174,ne
20,174,si
21,153,a
22,129,les
23,128,qui
24,125,me
25,124,m
26,123,mais
27,118,j
28,116,mon
29,114,son
30,112,plus
31,112,sa
32,93,on
33,91,ma
34,91,s
35,91,votre
36,90,du
37,88,des
38,84,lui
39,83,fait
40,82,nous
41,81,une
42,77,par
43,75,moi
44,74,tout
45,68,se
46,66,c
47,66,elle
48,66,sans
49,65,ai
50,65,roi
51,63,pas
52,60,être
53,59,sang
54,58,dans
55,58,point
56,57,cour
57,57,peut
58,56,au
59,55,cette
60,53,ciel
61,53,même
62,53,sur
63,52,leur
64,52,seigneur
65,50,faire
66,48,amour
67,48,ces
68,47,mort
69,47,tous
70,47,trop
71,47,voir
72,46,aux
73,45,bien
74,45,vos
75,44,fils
76,44,quand
77,41,comme
78,41,madame
79,41,ou
80,41,prince
81,38,dieux
82,38,encore
83,38,grand
84,38,mes
85,38,ont
86,36,peu
87,36,rien
88,36,ses
89,36,yeux
90,34,quelque
91,34,reine
92,33,faut
93,33,où
94,32,crime
95,32,dont
96,32,ils
97,31,cet
98,31,doit
99,31,toute
100,30,deux
101,30,dit
102,30,mourir
103,30,y
104,29,autre
105,29,avec
106,29,thésée
107,28,moins
108,28,phorbas
109,28,puis
110,28,tu
111,27,bras
112,27,laïus
113,27,quoi
114,27,sort
115,26,avez
116,26,mal
117,26,nos
118,26,vois
119,25,après
120,25,assez
121,25,dircé
122,25,seul
123,24,dire
124,24,toujours
125,24,vie
126,23,avoir
127,23,âme
128,22,aime
129,22,choix
130,22,frère
131,22,jamais
132,22,peuple
133,22,père
134,22,suis
135,21,gloire
136,21,jusqu
137,20,ici
138,20,jour
139,20,main
140,19,ah
141,19,amant
142,19,peine
143,19,tant
144,18,dois
145,18,donc
146,18,honneur
147,18,ni
148,18,ombre
149,18,pu
150,18,temps
151,18,trépas
152,18,vu
153,17,doux
154,17,non
155,17,princesse
156,17,t
157,16,aemon
158,16,ainsi
159,16,haine
160,16,juste
161,16,lieux
162,16,malheurs
163,16,nom
164,16,quel
165,16,sais
166,16,sont
167,16,trois
168,16,vertu
169,16,vivre
170,15,hélas
171,15,ordre
172,14,courroux
173,14,devoir
174,14,enfin
175,14,là
176,14,maître
177,14,quelques
178,14,rang
179,14,secret
180,14,trône
181,14,était
182,14,êtes
183,13,autres
184,13,connaître
185,13,funeste
186,13,horreur
187,13,mien
188,13,mieux
189,13,naissance
190,13,ose
191,13,punir
192,13,su
193,13,état
194,12,avait
195,12,avant
196,12,contre
197,12,craindre
198,12,déjà
199,12,eux
200,12,exemple
201,12,flamme
202,12,fut
203,12,laissez
204,12,pitié
205,12,rois
206,12,soit
207,12,trouble
208,12,veux
209,12,victime
210,11,celui
211,11,corinthe
212,11,demain
213,11,digne
214,11,esprit
215,11,fille
216,11,leurs
217,11,loi
218,11,moment
219,11,notre
220,11,oui
221,11,parler
222,11,parricide
223,11,peste
224,11,pourrait
225,11,puisque
226,11,raison
227,11,tel
228,11,veut
229,11,vit
230,10,ailleurs
231,10,cause
232,10,coup
233,10,droit
234,10,dû
235,10,fort
236,10,généreux
237,10,inceste
238,10,laisse
239,10,maux
240,10,mère
241,10,oracle
242,10,pris
243,10,tirésie
244,10,visage
245,10,vrai
246,10,époux
247,9,ait
248,9,alors
249,9,aucun
250,9,auprès
251,9,aurait
252,9,cependant
253,9,chose
254,9,couronne
255,9,destin
256,9,dis
257,9,effet
258,9,eût
259,9,faites
260,9,garde
261,9,grâce
262,9,hymen
263,9,lieu
264,9,mains
265,9,malheureux
266,9,offre
267,9,place
268,9,plein
269,9,pouvez
270,9,quelle
271,9,reste
272,9,sera
273,9,serait
274,9,soeur
275,9,triste
276,9,venger
277,9,vient
278,9,vivez
279,9,voulez
280,8,assassin
281,8,aurais
282,8,brigands
283,8,confus
284,8,courage
285,8,donne
286,8,donné
287,8,désespoir
288,8,fais
289,8,fit
290,8,honte
291,8,injuste
292,8,larmes
293,8,mot
294,8,perte
295,8,prendre
296,8,rend
297,8,sauver
298,8,sceptre
299,8,seule
300,8,soupirs
301,8,sous
302,8,toutefois
303,8,voix
304,8,âge
305,8,éclat
306,7,aimer
307,7,ardeur
308,7,aussi
309,7,beau
310,7,ceux
311,7,chez
312,7,choisir
313,7,chère
314,7,colère
315,7,crimes
316,7,donner
317,7,douteux
318,7,déplaisirs
319,7,désirs
320,7,effroi
321,7,empire
322,7,envie
323,7,eut
324,7,faveur
325,7,font
326,7,héros
327,7,jadis
328,7,jusques
329,7,malgré
330,7,malheur
331,7,mots
332,7,mourant
333,7,objet
334,7,obéir
335,7,offrir
336,7,perdre
337,7,plaindre
338,7,porte
339,7,pourra
340,7,pouvoir
341,7,prend
342,7,propre
343,7,périr
344,7,souffrez
345,7,souvent
346,7,suivre
347,7,toi
348,7,trouve
349,7,vers
350,7,voyez
351,7,vôtre
352,6,as
353,6,aspect
354,6,athènes
355,6,aura
356,6,avais
357,6,cent
358,6,choisit
359,6,coups
360,6,cours
361,6,croire
362,6,davantage
363,6,destins
364,6,doute
365,6,entre
366,6,fera
367,6,feu
368,6,fidèle
369,6,fin
370,6,foi
371,6,fus
372,6,intérêt
373,6,joie
374,6,jours
375,6,mettre
376,6,mis
377,6,monarque
378,6,mémoire
379,6,oeil
380,6,orgueil
381,6,parle
382,6,parole
383,6,part
384,6,personne
385,6,peur
386,6,périls
387,6,respire
388,6,retour
389,6,régner
390,6,sacrifice
391,6,sait
392,6,savez
393,6,savoir
394,6,secours
395,6,semble
396,6,soeurs
397,6,souffrir
398,6,supplice
399,6,te
400,6,tendresse
401,6,tient
402,6,ton
403,6,traits
404,6,trouver
405,6,tôt
406,6,voit
407,6,énigme
408,5,abois
409,5,adieu
410,5,affreux
411,5,allez
412,5,amants
413,5,ans
414,5,appelle
415,5,appui
416,5,attache
417,5,aveugle
418,5,ayez
419,5,belle
420,5,bonheur
421,5,bruit
422,5,car
423,5,chaque
424,5,comble
425,5,comprendre
426,5,coupable
427,5,crainte
428,5,crois
429,5,cru
430,5,dangereux
431,5,demande
432,5,devant
433,5,dites
434,5,douceur
435,5,douleurs
436,5,dymas
437,5,enfant
438,5,ennemis
439,5,entendre
440,5,entière
441,5,espoir
442,5,espère
443,5,estime
444,5,eu
445,5,excès
446,5,ferait
447,5,flatter
448,5,fois
449,5,fond
450,5,force
451,5,grands
452,5,hasarde
453,5,haut
454,5,haïr
455,5,heureux
456,5,homme
457,5,indigne
458,5,innocent
459,5,innocente
460,5,jaloux
461,5,justice
462,5,laisser
463,5,lois
464,5,lors
465,5,lumière
466,5,mauvais
467,5,meurs
468,5,milieu
469,5,moments
470,5,montre
471,5,morts
472,5,murmure
473,5,mérite
474,5,oedipe
475,5,paraître
476,5,parlé
477,5,perd
478,5,pleurs
479,5,prompt
480,5,put
481,5,race
482,5,remède
483,5,rendre
484,5,réponse
485,5,sens
486,5,ta
487,5,thébains
488,5,titre
489,5,tué
490,5,tête
491,5,vain
492,5,vengeance
493,5,verrai
494,5,vertus
495,5,vieillard
496,5,voeux
497,4,accabler
498,4,accepte
499,4,actions
500,4,agit
501,4,aide
502,4,aimé
503,4,air
504,4,alarmes
505,4,ambition
506,4,antigone
507,4,apprendre
508,4,assurer
509,4,attends
510,4,aucune
511,4,audace
512,4,avaient
513,4,avenir
514,4,aventure
515,4,aveu
516,4,chacun
517,4,changement
518,4,cher
519,4,cléante
520,4,connaît
521,4,connu
522,4,conquête
523,4,consoler
524,4,courir
525,4,crains
526,4,craint
527,4,croit
528,4,cythéron
529,4,delphes
530,4,depuis
531,4,destinée
532,4,droits
533,4,défendre
534,4,dépens
535,4,effort
536,4,enfance
537,4,erreur
538,4,exprès
539,4,faiblesse
540,4,famille
541,4,fasse
542,4,fatal
543,4,femme
544,4,ferai
545,4,ferme
546,4,feux
547,4,forfait
548,4,forfaits
549,4,foudre
550,4,front
551,4,fuir
552,4,fureur
553,4,gendre
554,4,glorieux
555,4,hautement
556,4,hyménée
557,4,illustre
558,4,image
559,4,impuni
560,4,injustice
561,4,innocence
562,4,ismène
563,4,loin
564,4,longtemps
565,4,marque
566,4,menace
567,4,mont
568,4,mégare
569,4,mêmes
570,4,nature
571,4,naître
572,4,nomme
573,4,nommer
574,4,nouveau
575,4,oppose
576,4,ordonne
577,4,parents
578,4,partage
579,4,partout
580,4,percé
581,4,phaedime
582,4,phocide
583,4,politique
584,4,pouvait
585,4,premier
586,4,prédit
587,4,puisse
588,4,quitter
589,4,rapport
590,4,rebelle
591,4,recevoir
592,4,regarde
593,4,remords
594,4,repos
595,4,reproche
596,4,récit
597,4,réduire
598,4,saura
599,4,saurai
600,4,second
601,4,sentiments
602,4,serment
603,4,silence
604,4,sitôt
605,4,soin
606,4,soudain
607,4,souffre
608,4,souvenir
609,4,sphinx
610,4,suffire
611,4,tard
612,4,tenir
613,4,terre
614,4,thèbes
615,4,tombe
616,4,tour
617,4,toutes
618,4,trahir
619,4,tyrans
620,4,verser
621,4,viens
622,4,vis
623,4,vouloir
624,4,voyons
625,4,vue
626,4,vérité
627,4,zèle
628,4,été
629,4,éviter
630,3,abusée
631,3,agir
632,3,agissez
633,3,aimée
634,3,amante
635,3,amitié
636,3,appas
637,3,arrache
638,3,arrêter
639,3,assure
640,3,astre
641,3,attend
642,3,aujourd
643,3,aurai
644,3,aussitôt
645,3,avis
646,3,avoue
647,3,avouerai
648,3,barbare
649,3,bas
650,3,blessé
651,3,bonne
652,3,bouche
653,3,cache
654,3,celle
655,3,cesse
656,3,chagrin
657,3,charmes
658,3,chef
659,3,chemin
660,3,cherche
661,3,chercher
662,3,choisi
663,3,châtiment
664,3,combat
665,3,combats
666,3,commander
667,3,commis
668,3,commun
669,3,commune
670,3,condamne
671,3,connais
672,3,connaissez
673,3,conservé
674,3,croître
675,3,dernier
676,3,derniers
677,3,dessein
678,3,devoirs
679,3,disputer
680,3,donnez
681,3,douter
682,3,durant
683,3,dès
684,3,défend
685,3,défense
686,3,eh
687,3,ennui
688,3,entends
689,3,entier
690,3,environ
691,3,eus
692,3,excuser
693,3,exposer
694,3,exposé
695,3,faisaient
696,3,faisant
697,3,fausse
698,3,faux
699,3,fierté
700,3,finir
701,3,fis
702,3,flanc
703,3,fortune
704,3,frayeur
705,3,fruit
706,3,fît
707,3,fût
708,3,garder
709,3,grèce
710,3,hauts
711,3,heure
712,3,hui
713,3,ignominie
714,3,immoler
715,3,implacable
716,3,importe
717,3,ingrat
718,3,inspire
719,3,interprète
720,3,juger
721,3,jugez
722,3,justifier
723,3,liberté
724,3,lit
725,3,lorsque
726,3,maintenant
727,3,meurt
728,3,mit
729,3,moitié
730,3,mourants
731,3,murmurer
732,3,murs
733,3,nicandre
734,3,noir
735,3,nommez
736,3,nuit
737,3,nécessaire
738,3,nérine
739,3,obscur
740,3,occasion
741,3,odieux
742,3,ombres
743,3,ordres
744,3,osait
745,3,oserai
746,3,oublier
747,3,outrage
748,3,ouvert
749,3,palais
750,3,parlez
751,3,parmi
752,3,passage
753,3,pense
754,3,perfide
755,3,permet
756,3,permettez
757,3,plaît
758,3,pourrez
759,3,preuve
760,3,prix
761,3,précieux
762,3,prépare
763,3,présence
764,3,publique
765,3,puisqu
766,3,puissance
767,3,puissant
768,3,puissent
769,3,puni
770,3,pure
771,3,pût
772,3,ravage
773,3,reconnaître
774,3,redouter
775,3,regard
776,3,regret
777,3,respect
778,3,rigueur
779,3,rougir
780,3,répandre
781,3,sachons
782,3,salut
783,3,saurait
784,3,saurons
785,3,sauvé
786,3,secourir
787,3,secrets
788,3,secrètes
789,3,sein
790,3,seize
791,3,sienne
792,3,soient
793,3,soins
794,3,souffert
795,3,soutient
796,3,soyez
797,3,suite
798,3,suivi
799,3,sujets
800,3,suspect
801,3,sépare
802,3,sévère
803,3,tantôt
804,3,tenez
805,3,tes
806,3,tomber
807,3,tremble
808,3,trembler
809,3,troubler
810,3,tue
811,3,tyran
812,3,tâchez
813,3,témoin
814,3,univers
815,3,verrez
816,3,versé
817,3,veuille
818,3,veuve
819,3,vienne
820,3,ville
821,3,vivant
822,3,voleurs
823,3,voudrez
824,3,voyage
825,3,voyant
826,3,âmes
827,3,échappé
828,3,éclaircir
829,3,égal
830,3,éloigner
831,3,épargne
832,3,épargner
833,3,étais
834,3,étant
835,3,étiez
836,3,ô
837,2,absence
838,2,abus
839,2,abusais
840,2,abuse
841,2,abîme
842,2,accord
843,2,achever
844,2,achève
845,2,admire
846,2,adorable
847,2,affranchira
848,2,affront
849,2,afin
850,2,aimez
851,2,aisée
852,2,aisément
853,2,aller
854,2,allons
855,2,allégresse
856,2,anime
857,2,animer
858,2,année
859,2,apaiser
860,2,apollon
861,2,apportez
862,2,apprend
863,2,appris
864,2,argos
865,2,armes
866,2,arracher
867,2,arrêt
868,2,arrête
869,2,aspire
870,2,assassiner
871,2,assassiné
872,2,assurance
873,2,attendant
874,2,attendu
875,2,attentat
876,2,augure
877,2,auriez
878,2,autant
879,2,autels
880,2,auteur
881,2,autorité
882,2,aveuglement
883,2,aviez
884,2,aïeux
885,2,bannir
886,2,barbares
887,2,beaucoup
888,2,bientôt
889,2,bizarre
890,2,blâmer
891,2,bon
892,2,bords
893,2,bénir
894,2,calmé
895,2,caprice
896,2,caractère
897,2,cela
898,2,certain
899,2,cesserai
900,2,chaleur
901,2,champêtre
902,2,change
903,2,changé
904,2,chaînes
905,2,cherchait
906,2,chers
907,2,chérie
908,2,chérit
909,2,ci
910,2,cieux
911,2,claire
912,2,climats
913,2,combattu
914,2,commence
915,2,commencé
916,2,compagnons
917,2,compte
918,2,concevoir
919,2,condamnée
920,2,confuse
921,2,connaissance
922,2,conseil
923,2,consente
924,2,conserver
925,2,considérer
926,2,content
927,2,couler
928,2,court
929,2,coûté
930,2,craintes
931,2,criminelle
932,2,croirais
933,2,cruauté
934,2,cruel
935,2,cède
936,2,côtés
937,2,dehors
938,2,demander
939,2,demandez
940,2,demeure
941,2,dernière
942,2,descendre
943,2,dessus
944,2,devait
945,2,devez
946,2,devient
947,2,devin
948,2,diadème
949,2,diffère
950,2,dira
951,2,dirait
952,2,disais
953,2,discours
954,2,dispense
955,2,disposer
956,2,dissipe
957,2,doive
958,2,doivent
959,2,dompte
960,2,donnant
961,2,donnée
962,2,doucement
963,2,douceurs
964,2,douleur
965,2,douteuse
966,2,due
967,2,dédaigne
968,2,dédire
969,2,démêler
970,2,départ
971,2,dépend
972,2,dépit
973,2,dérober
974,2,désir
975,2,désordre
976,2,détester
977,2,détruire
978,2,efface
979,2,efforts
980,2,emparé
981,2,emporte
982,2,emportements
983,2,emporter
984,2,empressement
985,2,empruntait
986,2,empêche
987,2,empêcher
988,2,encor
989,2,enfers
990,2,ensemble
991,2,entend
992,2,entendu
993,2,entretien
994,2,envier
995,2,envoie
996,2,esclave
997,2,espérance
998,2,espérons
999,2,eussent
1000,2,examiner
1001,2,excuse
1002,2,exemples
1003,2,exil
1004,2,expirer
1005,2,explique
1006,2,expliquer
1007,2,expliqués
1008,2,exploits
1009,2,faisais
1010,2,faisait
1011,2,faite
1012,2,faits
1013,2,fallut
1014,2,farouche
1015,2,faudra
1016,2,faute
1017,2,favorable
1018,2,fermeté
1019,2,fidèles
1020,2,filles
1021,2,fière
1022,2,fièrement
1023,2,flatte
1024,2,forcer
1025,2,forme
1026,2,fortement
1027,2,frémir
1028,2,funestes
1029,2,fussent
1030,2,fuyez
1031,2,genoux
1032,2,grande
1033,2,guérir
1034,2,guéris
1035,2,générosité
1036,2,gêne
1037,2,haines
1038,2,hait
1039,2,haute
1040,2,hommage
1041,2,honneurs
1042,2,honorer
1043,2,honteux
1044,2,hâte
1045,2,ignorer
1046,2,impiétés
1047,2,imposez
1048,2,imposteur
1049,2,impuissante
1050,2,impérieux
1051,2,incessamment
1052,2,inconnu
1053,2,inconnus
1054,2,infâme
1055,2,infâmes
1056,2,injure
1057,2,inquiet
1058,2,inquiétude
1059,2,instruit
1060,2,inutile
1061,2,iphicrate
1062,2,irrite
1063,2,irrités
1064,2,jalouse
1065,2,joint
1066,2,juge
1067,2,justement
1068,2,laissai
1069,2,laissait
1070,2,lenteur
1071,2,lorsqu
1072,2,lâche
1073,2,léger
1074,2,légitime
1075,2,magnanime
1076,2,majesté
1077,2,manifeste
1078,2,mari
1079,2,met
1080,2,meurtrier
1081,2,ministre
1082,2,miracle
1083,2,monstre
1084,2,montrer
1085,2,montré
1086,2,mortelles
1087,2,muets
1088,2,mutiné
1089,2,mystère
1090,2,méchants
1091,2,mélange
1092,2,mépris
1093,2,méprise
1094,2,mériter
1095,2,noble
1096,2,noire
1097,2,noirs
1098,2,nouvelle
1099,2,nul
1100,2,né
1101,2,nécessité
1102,2,oblige
1103,2,obscure
1104,2,obstacle
1105,2,obstacles
1106,2,obtenir
1107,2,offenser
1108,2,offrant
1109,2,oracles
1110,2,oreille
1111,2,osez
1112,2,osé
1113,2,ouverte
1114,2,ouvre
1115,2,paraît
1116,2,pardonne
1117,2,pareils
1118,2,parfait
1119,2,parlons
1120,2,partirent
1121,2,passer
1122,2,patrie
1123,2,payer
1124,2,peines
1125,2,penchant
1126,2,perdu
1127,2,perçant
1128,2,peux
1129,2,pied
1130,2,plaindrez
1131,2,pleurer
1132,2,plongé
1133,2,plutôt
1134,2,poignard
1135,2,poison
1136,2,polybe
1137,2,portait
1138,2,portent
1139,2,porter
1140,2,pourquoi
1141,2,pourraient
1142,2,pourriez
1143,2,pourrions
1144,2,pourrons
1145,2,prends
1146,2,prenez
1147,2,presque
1148,2,pressantes
1149,2,pressants
1150,2,pressentiment
1151,2,preuves
1152,2,prit
1153,2,prière
1154,2,proche
1155,2,prodige
1156,2,promis
1157,2,prononce
1158,2,propice
1159,2,propos
1160,2,province
1161,2,prudence
1162,2,près
1163,2,précieuse
1164,2,préfère
1165,2,présents
1166,2,prétendre
1167,2,prêtait
1168,2,prête
1169,2,prêtez
1170,2,public
1171,2,publics
1172,2,punie
1173,2,punissent
1174,2,pur
1175,2,pâle
1176,2,pâlir
1177,2,péril
1178,2,périsse
1179,2,quant
1180,2,quatre
1181,2,quels
1182,2,quiconque
1183,2,rage
1184,2,raisons
1185,2,rare
1186,2,ravir
1187,2,recevra
1188,2,refus
1189,2,refuse
1190,2,remettons
1191,2,remplit
1192,2,renaître
1193,2,rencontre
1194,2,rendu
1195,2,restes
1196,2,retire
1197,2,retirer
1198,2,retraite
1199,2,revoir
1200,2,revu
1201,2,reçoit
1202,2,reçu
1203,2,roc
1204,2,romps
1205,2,réduit
1206,2,réduite
1207,2,répandu
1208,2,réserve
1209,2,résolue
1210,2,réussir
1211,2,sachant
1212,2,salaire
1213,2,salutaire
1214,2,satisfaire
1215,2,saurais
1216,2,sauve
1217,2,sentiment
1218,2,serai
1219,2,seriez
1220,2,seulement
1221,2,sexe
1222,2,sien
1223,2,soi
1224,2,sombre
1225,2,sortant
1226,2,sorti
1227,2,sortir
1228,2,souci
1229,2,soupir
1230,2,soupire
1231,2,source
1232,2,soutenez
1233,2,souvenez
1234,2,suivant
1235,2,suivie
1236,2,suivis
1237,2,sujet
1238,2,supplices
1239,2,suprême
1240,2,surprend
1241,2,sus
1242,2,séjour
1243,2,séparer
1244,2,sûr
1245,2,taille
1246,2,taire
1247,2,teinture
1248,2,tels
1249,2,temple
1250,2,thébain
1251,2,tint
1252,2,tirez
1253,2,tiré
1254,2,tombeau
1255,2,tonnerre
1256,2,touchant
1257,2,touche
1258,2,tourments
1259,2,traitée
1260,2,trompé
1261,2,trouvez
1262,2,unique
1263,2,unir
1264,2,usurpateur
1265,2,vaillant
1266,2,vaine
1267,2,vais
1268,2,vengée
1269,2,venir
1270,2,verra
1271,2,verrons
1272,2,veulent
1273,2,victoire
1274,2,violence
1275,2,vive
1276,2,vivrez
1277,2,voici
1278,2,voilà
1279,2,volonté
1280,2,volontés
1281,2,voudra
1282,2,voudrait
1283,2,voulut
1284,2,véritable
1285,2,vînt
1286,2,éblouir
1287,2,ébranlait
1288,2,échappe
1289,2,échapper
1290,2,éclate
1291,2,écoute
1292,2,écouter
1293,2,écoutez
1294,2,élever
1295,2,évite
1296,1,abandonner
1297,1,abattement
1298,1,abattu
1299,1,abhorrais
1300,1,abjects
1301,1,abominable
1302,1,abord
1303,1,absolu
1304,1,absolue
1305,1,abuser
1306,1,accablant
1307,1,accable
1308,1,accablement
1309,1,accablé
1310,1,accepter
1311,1,acceptez
1312,1,accompagné
1313,1,accordent
1314,1,accuserais
1315,1,achevé
1316,1,acquis
1317,1,acquittée
1318,1,acquérir
1319,1,action
1320,1,admirable
1321,1,admirerait
1322,1,adorables
1323,1,adorerai
1324,1,adouci
1325,1,adresse
1326,1,adroit
1327,1,aegée
1328,1,affaiblie
1329,1,affaiblit
1330,1,affermir
1331,1,affligé
1332,1,affligée
1333,1,affligées
1334,1,affranchir
1335,1,agis
1336,1,agissent
1337,1,aie
1338,1,aigle
1339,1,aigri
1340,1,aimable
1341,1,aimais
1342,1,aimant
1343,1,aimiez
1344,1,aimons
1345,1,aimées
1346,1,aisé
1347,1,ajouter
1348,1,ajouteriez
1349,1,alarmé
1350,1,alarmée
1351,1,alcide
1352,1,allais
1353,1,allumer
1354,1,allumé
1355,1,altier
1356,1,amas
1357,1,amertume
1358,1,ami
1359,1,amis
1360,1,amusements
1361,1,annoncent
1362,1,années
1363,1,antipathie
1364,1,antre
1365,1,apparence
1366,1,applaudit
1367,1,applique
1368,1,apprends
1369,1,apprenez
1370,1,approchez
1371,1,approfondir
1372,1,appréhender
1373,1,appréhendez
1374,1,appréhension
1375,1,appuyé
1376,1,arbitre
1377,1,ardeurs
1378,1,argent
1379,1,armait
1380,1,arraché
1381,1,arrachés
1382,1,arrivant
1383,1,arrive
1384,1,arrivée
1385,1,articulées
1386,1,ascendant
1387,1,asile
1388,1,assassine
1389,1,assauts
1390,1,assemblée
1391,1,asservie
1392,1,asservir
1393,1,asservit
1394,1,assiège
1395,1,assiégée
1396,1,assouvir
1397,1,assurez
1398,1,assuré
1399,1,attachant
1400,1,attachements
1401,1,attachés
1402,1,attaqué
1403,1,atteintes
1404,1,attendent
1405,1,attendons
1406,1,attendre
1407,1,attendri
1408,1,attente
1409,1,attentez
1410,1,atteste
1411,1,attire
1412,1,aucunes
1413,1,augmentera
1414,1,augures
1415,1,auraient
1416,1,aurez
1417,1,aurons
1418,1,auront
1419,1,autorisée
1420,1,autour
1421,1,autrement
1422,1,avancera
1423,1,avancez
1424,1,avantage
1425,1,aventures
1426,1,avertir
1427,1,aveuglant
1428,1,avide
1429,1,avisée
1430,1,avons
1431,1,avouer
1432,1,avouera
1433,1,avouez
1434,1,ayant
1435,1,aînée
1436,1,baigné
1437,1,baiser
1438,1,balancer
1439,1,bandeau
1440,1,banni
1441,1,bannie
1442,1,bannissait
1443,1,bassesse
1444,1,beauté
1445,1,beautés
1446,1,beaux
1447,1,belles
1448,1,berceau
1449,1,besoin
1450,1,blanchissants
1451,1,blessa
1452,1,blesser
1453,1,blessez
1454,1,blessure
1455,1,bonté
1456,1,borne
1457,1,bouches
1458,1,bourreaux
1459,1,bout
1460,1,brave
1461,1,braver
1462,1,bravé
1463,1,brillant
1464,1,brille
1465,1,brise
1466,1,cachai
1467,1,cachait
1468,1,cacher
1469,1,cachiez
1470,1,cachés
1471,1,calme
1472,1,calmer
1473,1,campait
1474,1,capables
1475,1,caprices
1476,1,captive
1477,1,captivité
1478,1,caresses
1479,1,cassé
1480,1,causa
1481,1,causes
1482,1,causé
1483,1,ceindre
1484,1,cendres
1485,1,cessa
1486,1,cessons
1487,1,chancelle
1488,1,changeant
1489,1,changer
1490,1,char
1491,1,chargea
1492,1,chargez
1493,1,charmait
1494,1,charmantes
1495,1,charme
1496,1,charmer
1497,1,chauve
1498,1,cherché
1499,1,choisie
1500,1,choisira
1501,1,choquer
1502,1,choses
1503,1,chérira
1504,1,chéris
1505,1,cicatrisé
1506,1,civilité
1507,1,clair
1508,1,clarté
1509,1,clartés
1510,1,colères
1511,1,combattants
1512,1,combattent
1513,1,combattre
1514,1,combien
1515,1,comment
1516,1,commençons
1517,1,communes
1518,1,comparable
1519,1,compassion
1520,1,complices
1521,1,comprend
1522,1,comptez
1523,1,concerté
1524,1,condamnait
1525,1,condamner
1526,1,condamnerai
1527,1,condamneriez
1528,1,condamnez
1529,1,conduit
1530,1,conduites
1531,1,confessé
1532,1,confiance
1533,1,confond
1534,1,confondre
1535,1,confusion
1536,1,conjecture
1537,1,conjugal
1538,1,connaîtras
1539,1,connaîtrez
1540,1,connus
1541,1,connût
1542,1,consacré
1543,1,conseilleriez
1544,1,conseils
1545,1,consentait
1546,1,consentir
1547,1,conservait
1548,1,conserve
1549,1,conserviez
1550,1,considère
1551,1,considérez
1552,1,constance
1553,1,consulter
1554,1,consultons
1555,1,conte
1556,1,contemple
1557,1,contempler
1558,1,contente
1559,1,contenter
1560,1,contestons
1561,1,contraindre
1562,1,contraires
1563,1,convaincra
1564,1,convaincre
1565,1,convaincu
1566,1,conçoivent
1567,1,conçût
1568,1,corps
1569,1,corrompre
1570,1,coupables
1571,1,courant
1572,1,couronner
1573,1,couronnons
1574,1,couronnés
1575,1,couru
1576,1,couvert
1577,1,couvrir
1578,1,coûte
1579,1,craignait
1580,1,craignent
1581,1,craignez
1582,1,craintive
1583,1,crier
1584,1,criminel
1585,1,croirai
1586,1,croiriez
1587,1,croyais
1588,1,croyait
1589,1,croyez
1590,1,cruelle
1591,1,cruelles
1592,1,crète
1593,1,crédit
1594,1,crédule
1595,1,créon
1596,1,cuisant
1597,1,curieuse
1598,1,cèle
1599,1,cédait
1600,1,cédons
1601,1,céleste
1602,1,célestes
1603,1,côté
1604,1,daignez
1605,1,daigné
1606,1,damaste
1607,1,danger
1608,1,dedans
1609,1,demandes
1610,1,demandât
1611,1,demandé
1612,1,demi
1613,1,derrière
1614,1,descendu
1615,1,desseins
1616,1,dessous
1617,1,destinant
1618,1,destine
1619,1,destinées
1620,1,devaient
1621,1,devenir
1622,1,devenu
1623,1,deviendra
1624,1,deviendrai
1625,1,deviendrait
1626,1,deviendront
1627,1,devine
1628,1,deviner
1629,1,devions
1630,1,devons
1631,1,devriez
1632,1,dictaient
1633,1,différence
1634,1,différends
1635,1,différent
1636,1,différer
1637,1,différons
1638,1,différée
1639,1,dignes
1640,1,dirai
1641,1,disant
1642,1,discernement
1643,1,discords
1644,1,disent
1645,1,disgrâce
1646,1,disparaît
1647,1,dispenser
1648,1,dispose
1649,1,disputa
1650,1,distiller
1651,1,divise
1652,1,divisé
1653,1,domestiques
1654,1,donna
1655,1,donnent
1656,1,donnons
1657,1,donnât
1658,1,dons
1659,1,douloureuse
1660,1,doutez
1661,1,douté
1662,1,dur
1663,1,durer
1664,1,dussent
1665,1,débarrassé
1666,1,décevant
1667,1,décevants
1668,1,déchirent
1669,1,décret
1670,1,dédaignent
1671,1,dédaigner
1672,1,dédaignera
1673,1,dédaignons
1674,1,dédain
1675,1,défait
1676,1,défendit
1677,1,défendrait
1678,1,dégager
1679,1,dégouttaient
1680,1,dégoût
1681,1,déguise
1682,1,déguisez
1683,1,déguisés
1684,1,délibère
1685,1,délicate
1686,1,démarche
1687,1,démentir
1688,1,dénaturée
1689,1,dépeints
1690,1,déplaire
1691,1,déplorable
1692,1,dépôt
1693,1,déraciner
1694,1,déroba
1695,1,dérobez
1696,1,dérobé
1697,1,désabusez
1698,1,désavouer
1699,1,déshéritée
1700,1,désobéir
1701,1,désolé
1702,1,désolée
1703,1,désolés
1704,1,désuni
1705,1,désunir
1706,1,détacher
1707,1,détestant
1708,1,détournât
1709,1,dévoile
1710,1,dévore
1711,1,dûs
1712,1,dût
1713,1,effacer
1714,1,effacera
1715,1,elles
1716,1,embarrasse
1717,1,embarrasser
1718,1,embrasée
1719,1,emploi
1720,1,emportement
1721,1,emporterai
1722,1,empreint
1723,1,empreints
1724,1,empressées
1725,1,emprunter
1726,1,empêchez
1727,1,empêchés
1728,1,enfermés
1729,1,enfle
1730,1,enfler
1731,1,enfonce
1732,1,enfoncera
1733,1,enfonçons
1734,1,engager
1735,1,enhardit
1736,1,enlève
1737,1,ennemi
1738,1,ennuis
1739,1,entendez
1740,1,entr
1741,1,entraîne
1742,1,entreprendra
1743,1,entrer
1744,1,enveloppait
1745,1,enveloppe
1746,1,enveloppée
1747,1,enverra
1748,1,envi
1749,1,envieux
1750,1,enviez
1751,1,environne
1752,1,envisagez
1753,1,envié
1754,1,envolant
1755,1,errante
1756,1,es
1757,1,esclavage
1758,1,esclaves
1759,1,eussiez
1760,1,exaucés
1761,1,excité
1762,1,excusable
1763,1,exiger
1764,1,exile
1765,1,exilent
1766,1,expirant
1767,1,expirants
1768,1,expire
1769,1,expliquait
1770,1,expliquent
1771,1,exposa
1772,1,expose
1773,1,exposée
1774,1,exprimer
1775,1,extrême
1776,1,facile
1777,1,faible
1778,1,faillir
1779,1,faisiez
1780,1,faisons
1781,1,fallait
1782,1,fameux
1783,1,familles
1784,1,fantôme
1785,1,fard
1786,1,fatalité
1787,1,faudrait
1788,1,fausses
1789,1,favori
1790,1,favorisée
1791,1,façon
1792,1,ferez
1793,1,ferma
1794,1,fermais
1795,1,fermait
1796,1,fers
1797,1,fier
1798,1,fiers
1799,1,finisse
1800,1,finissons
1801,1,finit
1802,1,flambeau
1803,1,flammes
1804,1,flancs
1805,1,flattée
1806,1,fondre
1807,1,forcerai
1808,1,forces
1809,1,former
1810,1,formé
1811,1,formée
1812,1,formées
1813,1,forte
1814,1,fortuné
1815,1,fournissait
1816,1,frais
1817,1,frappe
1818,1,frapper
1819,1,frappez
1820,1,frappé
1821,1,frivole
1822,1,fronts
1823,1,frères
1824,1,frénésie
1825,1,fuit
1826,1,fuite
1827,1,fumante
1828,1,furent
1829,1,furieux
1830,1,fussions
1831,1,fuyais
1832,1,fâché
1833,1,fûtes
1834,1,gages
1835,1,gagner
1836,1,garant
1837,1,gardait
1838,1,garderai
1839,1,garderaient
1840,1,gardez
1841,1,gardons
1842,1,glacé
1843,1,glacés
1844,1,glorieuse
1845,1,glorieuses
1846,1,goûter
1847,1,grandes
1848,1,griffes
1849,1,grâces
1850,1,guerre
1851,1,guerrier
1852,1,guérison
1853,1,gémit
1854,1,généreuse
1855,1,gêner
1856,1,habit
1857,1,hasardait
1858,1,hasardiez
1859,1,hasardé
1860,1,hautaine
1861,1,hauteur
1862,1,hercule
1863,1,heureuse
1864,1,histoire
1865,1,hommes
1866,1,honorable
1867,1,honteuse
1868,1,hors
1869,1,humaine
1870,1,humeur
1871,1,hâtons
1872,1,héritiers
1873,1,hésitez
1874,1,idée
1875,1,ignorants
1876,1,ignore
1877,1,illusion
1878,1,illustres
1879,1,imagine
1880,1,imbécile
1881,1,imite
1882,1,imiter
1883,1,immolée
1884,1,immortelle
1885,1,immortelles
1886,1,imparfait
1887,1,imparfaite
1888,1,impitoyable
1889,1,impitoyables
1890,1,imploré
1891,1,importance
1892,1,importun
1893,1,importune
1894,1,imposa
1895,1,imposture
1896,1,imprima
1897,1,imprime
1898,1,impuissants
1899,1,impunie
1900,1,impunément
1901,1,imputer
1902,1,impétueux
1903,1,incertitude
1904,1,incestes
1905,1,inconnue
1906,1,indignait
1907,1,indiscret
1908,1,indubitable
1909,1,indépendant
1910,1,inexorable
1911,1,infecté
1912,1,infortune
1913,1,infortuné
1914,1,ingratitude
1915,1,innocemment
1916,1,innocentes
1917,1,innocents
1918,1,inquiétée
1919,1,insensible
1920,1,insolemment
1921,1,insolence
1922,1,inspirer
1923,1,inspirée
1924,1,instant
1925,1,insultez
1926,1,interdit
1927,1,interprètes
1928,1,intestin
1929,1,intrépide
1930,1,intéresse
1931,1,intérêts
1932,1,inviolable
1933,1,inébranlable
1934,1,inégal
1935,1,irai
1936,1,irritée
1937,1,jalousie
1938,1,jeter
1939,1,jeté
1940,1,jeunes
1941,1,jocaste
1942,1,jouir
1943,1,journée
1944,1,jugé
1945,1,justes
1946,1,justifiera
1947,1,laissaient
1948,1,laissent
1949,1,laissé
1950,1,large
1951,1,las
1952,1,lever
1953,1,levé
1954,1,libre
1955,1,lie
1956,1,lien
1957,1,liens
1958,1,lier
1959,1,lieutenant
1960,1,lion
1961,1,lions
1962,1,lire
1963,1,lise
1964,1,livre
1965,1,livrer
1966,1,livré
1967,1,loisir
1968,1,longs
1969,1,longues
1970,1,louche
1971,1,luis
1972,1,lustre
1973,1,lycus
1974,1,maintenir
1975,1,maison
1976,1,majestueux
1977,1,majestés
1978,1,manifestes
1979,1,manque
1980,1,marchais
1981,1,marcher
1982,1,marquer
1983,1,massacre
1984,1,matière
1985,1,maudirait
1986,1,maudits
1987,1,maxime
1988,1,maximes
1989,1,meilleurs
1990,1,membres
1991,1,menacer
1992,1,menacé
1993,1,menaçait
1994,1,mentir
1995,1,message
1996,1,mettez
1997,1,miens
1998,1,mine
1999,1,minotaure
2000,1,miracles
2001,1,misère
2002,1,misères
2003,1,misérable
2004,1,moindre
2005,1,monde
2006,1,monstres
2007,1,morte
2008,1,mortel
2009,1,mortels
2010,1,motif
2011,1,mourais
2012,1,mourante
2013,1,mourez
2014,1,mourrait
2015,1,mouvait
2016,1,moyens
2017,1,muette
2018,1,muettes
2019,1,mutine
2020,1,mutins
2021,1,mutuelle
2022,1,mycènes
2023,1,mânes
2024,1,mères
2025,1,méchant
2026,1,ménager
2027,1,méritait
2028,1,méritez
2029,1,mérité
2030,1,mêlait
2031,1,mêlé
2032,1,mêlée
2033,1,mêlées
2034,1,mîtes
2035,1,naissant
2036,1,neveu
2037,1,nier
2038,1,nieras
2039,1,nobles
2040,1,noeuds
2041,1,nombre
2042,1,nommais
2043,1,nomment
2044,1,nourri
2045,1,nouvel
2046,1,nuage
2047,1,nuire
2048,1,négligeons
2049,1,obligeais
2050,1,obscurité
2051,1,obscurités
2052,1,obscurément
2053,1,obstinait
2054,1,obstine
2055,1,obstinément
2056,1,obéi
2057,1,obéis
2058,1,obéissais
2059,1,occupé
2060,1,odieuse
2061,1,offert
2062,1,offerte
2063,1,offerts
2064,1,office
2065,1,offrandes
2066,1,offrez
2067,1,oiseaux
2068,1,oisive
2069,1,ombrage
2070,1,ongles
2071,1,opiniâtre
2072,1,opposer
2073,1,opposée
2074,1,or
2075,1,orage
2076,1,ordonnent
2077,1,ordonner
2078,1,ordonnez
2079,1,oreilles
2080,1,organe
2081,1,ornement
2082,1,os
2083,1,osant
2084,1,osent
2085,1,oser
2086,1,osera
2087,1,osiez
2088,1,osons
2089,1,oublierai
2090,1,oublié
2091,1,outre
2092,1,ouvrage
2093,1,ouvrent
2094,1,ouvrit
2095,1,paix
2096,1,pardonner
2097,1,pardonnez
2098,1,pareil
2099,1,parfaite
2100,1,parjure
2101,1,parla
2102,1,parlait
2103,1,parlant
2104,1,parlions
2105,1,parque
2106,1,partager
2107,1,parti
2108,1,partie
2109,1,partis
2110,1,partisan
2111,1,parût
2112,1,passant
2113,1,passent
2114,1,passions
2115,1,passons
2116,1,passé
2117,1,paternel
2118,1,payiez
2119,1,pays
2120,1,peignez
2121,1,peigniez
2122,1,peint
2123,1,penser
2124,1,pensez
2125,1,pensons
2126,1,pensées
2127,1,perce
2128,1,perdez
2129,1,perdirent
2130,1,perdit
2131,1,perdrai
2132,1,perds
2133,1,perdue
2134,1,permettre
2135,1,permettrez
2136,1,permis
2137,1,perplexité
2138,1,pertes
2139,1,perça
2140,1,petit
2141,1,petites
2142,1,peuples
2143,1,phaea
2144,1,pieds
2145,1,pilleraient
2146,1,pire
2147,1,pis
2148,1,pitoyable
2149,1,piège
2150,1,placer
2151,1,placé
2152,1,plaindrais
2153,1,plains
2154,1,plaisir
2155,1,pleine
2156,1,plonge
2157,1,polynice
2158,1,port
2159,1,portez
2160,1,porté
2161,1,possible
2162,1,poudre
2163,1,pourrais
2164,1,pourvu
2165,1,pousser
2166,1,poussé
2167,1,pouvais
2168,1,première
2169,1,prendrez
2170,1,prescrits
2171,1,pressant
2172,1,presse
2173,1,pressent
2174,1,prestiges
2175,1,prie
2176,1,princes
2177,1,princesses
2178,1,principe
2179,1,prive
2180,1,privilège
2181,1,prodiges
2182,1,prodigué
2183,1,profond
2184,1,profonde
2185,1,profondes
2186,1,proie
2187,1,projet
2188,1,promet
2189,1,promettais
2190,1,promettre
2191,1,promit
2192,1,prononcer
2193,1,prononcé
2194,1,prononcés
2195,1,propices
2196,1,prudent
2197,1,précipite
2198,1,précipiter
2199,1,prédictions
2200,1,prédire
2201,1,prédits
2202,1,préludes
2203,1,prémédité
2204,1,préparez
2205,1,préparons
2206,1,présent
2207,1,présume
2208,1,présumer
2209,1,prétend
2210,1,prétexte
2211,1,prétexter
2212,1,prévaut
2213,1,prévenir
2214,1,prévenons
2215,1,prévienne
2216,1,prêt
2217,1,prêteraient
2218,1,prêté
2219,1,publier
2220,1,publiques
2221,1,pudeur
2222,1,punira
2223,1,punirait
2224,1,puniront
2225,1,purgée
2226,1,pussions
2227,1,pâlissez
2228,1,pénétrez
2229,1,périphète
2230,1,qualité
2231,1,querelle
2232,1,quinze
2233,1,quittez
2234,1,quitté
2235,1,quoiqu
2236,1,racheter
2237,1,ramassent
2238,1,rangées
2239,1,rappeler
2240,1,rappelés
2241,1,rapports
2242,1,ravaler
2243,1,ravalez
2244,1,ravi
2245,1,ravie
2246,1,ravît
2247,1,recevez
2248,1,recevons
2249,1,recherché
2250,1,reconnais
2251,1,reconnaissance
2252,1,reconnaissez
2253,1,recueillir
2254,1,redouble
2255,1,redoublent
2256,1,redoublé
2257,1,redoute
2258,1,refusait
2259,1,refusent
2260,1,refuser
2261,1,refusons
2262,1,refusé
2263,1,refusée
2264,1,regards
2265,1,regrettée
2266,1,rejaillir
2267,1,rejette
2268,1,rejoindre
2269,1,relevé
2270,1,relâche
2271,1,remettre
2272,1,remis
2273,1,remise
2274,1,remit
2275,1,rempli
2276,1,remplir
2277,1,remèdes
2278,1,renaissant
2279,1,renaissants
2280,1,rendant
2281,1,rende
2282,1,rendent
2283,1,rendez
2284,1,rendra
2285,1,renommée
2286,1,renonce
2287,1,renoncez
2288,1,rentrer
2289,1,repousse
2290,1,repoussent
2291,1,reprendre
2292,1,repris
2293,1,respecte
2294,1,respectueux
2295,1,respecté
2296,1,ressemblance
2297,1,ressentiments
2298,1,ressentir
2299,1,retardements
2300,1,retarder
2301,1,retardés
2302,1,retenue
2303,1,retombe
2304,1,retours
2305,1,revers
2306,1,revive
2307,1,revoie
2308,1,reçois
2309,1,reçut
2310,1,reçûtes
2311,1,rides
2312,1,rigueurs
2313,1,rival
2314,1,rivale
2315,1,roche
2316,1,rompre
2317,1,rompu
2318,1,rompus
2319,1,rougirai
2320,1,royal
2321,1,royaume
2322,1,royaumes
2323,1,ruine
2324,1,règle
2325,1,règlent
2326,1,règne
2327,1,réclame
2328,1,réclamer
2329,1,récompense
2330,1,récompenser
2331,1,réduits
2332,1,réglé
2333,1,régnez
2334,1,répandront
2335,1,répandue
2336,1,réparer
2337,1,répondra
2338,1,répondre
2339,1,répondrons
2340,1,résolu
2341,1,résoudrons
2342,1,rétablir
2343,1,réunit
2344,1,révolte
2345,1,révolter
2346,1,révolté
2347,1,révélé
2348,1,sachez
2349,1,sacrifices
2350,1,sacré
2351,1,sacrée
2352,1,sacrés
2353,1,saisi
2354,1,saisit
2355,1,saison
2356,1,sanglant
2357,1,sanglots
2358,1,santé
2359,1,satisfaite
2360,1,saurez
2361,1,sauvant
2362,1,sauvez
2363,1,sauvons
2364,1,savent
2365,1,saviez
2366,1,savons
2367,1,sciron
2368,1,scrupule
2369,1,seconder
2370,1,seconds
2371,1,secrète
2372,1,semblait
2373,1,semblent
2374,1,semé
2375,1,sensible
2376,1,sentais
2377,1,sentez
2378,1,seraient
2379,1,serais
2380,1,serments
2381,1,sert
2382,1,servent
2383,1,servi
2384,1,service
2385,1,servie
2386,1,servit
2387,1,seuls
2388,1,sied
2389,1,signaler
2390,1,signe
2391,1,sincère
2392,1,sinistre
2393,1,sinnis
2394,1,soif
2395,1,soir
2396,1,sois
2397,1,solennel
2398,1,sombres
2399,1,sorte
2400,1,sortie
2401,1,sostrate
2402,1,soufferts
2403,1,souhait
2404,1,souhaiter
2405,1,souhaits
2406,1,souillerait
2407,1,souillée
2408,1,soulagement
2409,1,soulager
2410,1,soulevait
2411,1,soulever
2412,1,soulève
2413,1,soulèvements
2414,1,soupçonne
2415,1,sourde
2416,1,sourds
2417,1,souscrire
2418,1,souscrivons
2419,1,soustraire
2420,1,souverain
2421,1,souveraine
2422,1,souverains
2423,1,souviendrai
2424,1,souvint
2425,1,sparte
2426,1,stratagème
2427,1,stupides
2428,1,stupidité
2429,1,subite
2430,1,sublime
2431,1,suborné
2432,1,succombais
2433,1,succès
2434,1,sucé
2435,1,suites
2436,1,suivez
2437,1,sujette
2438,1,sujettes
2439,1,supporter
2440,1,supposa
2441,1,supposé
2442,1,suprêmes
2443,1,surmonte
2444,1,surprenant
2445,1,surprenante
2446,1,surpris
2447,1,surprit
2448,1,survivre
2449,1,suspecte
2450,1,sut
2451,1,séparée
2452,1,sûtes
2453,1,tache
2454,1,tait
2455,1,tarde
2456,1,tarder
2457,1,tardif
2458,1,teint
2459,1,telle
2460,1,tellement
2461,1,temples
2462,1,tend
2463,1,tendre
2464,1,tendresses
2465,1,termes
2466,1,terminé
2467,1,terrible
2468,1,tiennent
2469,1,tiens
2470,1,timide
2471,1,tirer
2472,1,tissus
2473,1,tombeaux
2474,1,tombé
2475,1,touchons
2476,1,touché
2477,1,tournera
2478,1,trahi
2479,1,trahison
2480,1,trahisons
2481,1,traitait
2482,1,traiter
2483,1,traiterait
2484,1,trame
2485,1,trames
2486,1,tranche
2487,1,trancher
2488,1,transmis
2489,1,transport
2490,1,traverse
2491,1,traînât
2492,1,traître
2493,1,tremblant
2494,1,tremblez
2495,1,triomphé
2496,1,tristes
2497,1,troisième
2498,1,trompe
2499,1,tromper
2500,1,tromperie
2501,1,trompée
2502,1,troublée
2503,1,troupe
2504,1,trouva
2505,1,trouverai
2506,1,truchements
2507,1,trézène
2508,1,tuer
2509,1,tumultueux
2510,1,tyrannie
2511,1,tyrannise
2512,1,tâché
2513,1,témoins
2514,1,téméraire
2515,1,unis
2516,1,unissent
2517,1,usage
2518,1,userais
2519,1,usurpée
2520,1,va
2521,1,vaillance
2522,1,vainement
2523,1,valent
2524,1,valu
2525,1,vanité
2526,1,vapeur
2527,1,vastes
2528,1,vaut
2529,1,vautours
2530,1,vendre
2531,1,venez
2532,1,venge
2533,1,vengent
2534,1,vengera
2535,1,vengeront
2536,1,vengeurs
2537,1,vengez
2538,1,vengé
2539,1,vertueux
2540,1,vices
2541,1,vicieux
2542,1,victimes
2543,1,vieil
2544,1,viendra
2545,1,viendrez
2546,1,vifs
2547,1,vigueur
2548,1,vingt
2549,1,violente
2550,1,violer
2551,1,violé
2552,1,visible
2553,1,vivants
2554,1,voie
2555,1,voisin
2556,1,vole
2557,1,voudrais
2558,1,voulu
2559,1,voulue
2560,1,voyais
2561,1,vrais
2562,1,vus
2563,1,vécu
2564,1,ébranler
2565,1,ébranlée
2566,1,éclairci
2567,1,éclaircira
2568,1,éclaircissement
2569,1,éclaircit
2570,1,éclaircît
2571,1,éclairs
2572,1,éclatants
2573,1,écrase
2574,1,égale
2575,1,égalité
2576,1,égarement
2577,1,élance
2578,1,élevé
2579,1,élevée
2580,1,élevés
2581,1,élide
2582,1,éloignait
2583,1,éloignements
2584,1,émotion
2585,1,émouvoir
2586,1,ému
2587,1,émut
2588,1,épaisse
2589,1,épandue
2590,1,épargnera
2591,1,épargneriez
2592,1,épars
2593,1,éperdu
2594,1,épousant
2595,1,épouse
2596,1,épuiser
2597,1,épuisée
2598,1,épée
2599,1,équitables
2600,1,établie
2601,1,étale
2602,1,étaler
2603,1,états
2604,1,éteindra
2605,1,éteint
2606,1,étendre
2607,1,éternel
2608,1,éternelle
2609,1,étonne
2610,1,étonnent
2611,1,étouffer
2612,1,étouffés
2613,1,étroit
2614,1,étéocle
2615,1,évitez
2616,1,évoquer
2617,1,évoqué
2618,1,événement
2619,1,ôté
