1,507,de
2,434,et
3,392,que
4,369,vous
5,325,à
6,296,un
7,288,je
8,267,l
9,260,qu
10,244,d
11,242,il
12,220,le
13,212,en
14,209,ce
15,206,est
16,173,mon
17,166,ne
18,164,la
19,158,qui
20,138,pour
21,135,n
22,132,les
23,131,me
24,126,on
25,120,votre
26,118,m
27,115,si
28,113,a
29,105,une
30,104,coeur
31,104,mais
32,95,j
33,95,vos
34,94,par
35,91,dans
36,88,des
37,86,son
38,83,ma
39,82,bien
40,77,fait
41,77,plus
42,77,point
43,73,au
44,73,tout
45,72,mes
46,71,c
47,71,cette
48,71,moi
49,69,trop
50,68,pas
51,67,âme
52,66,s
53,62,madame
54,61,sans
55,59,ces
56,57,sa
57,57,ses
58,56,du
59,55,peut
60,54,se
61,54,sur
62,52,ai
63,50,être
64,47,dont
65,47,lui
66,47,prince
67,47,voir
68,47,yeux
69,46,amour
70,44,rien
71,44,tous
72,43,nous
73,42,doit
74,41,cet
75,40,aux
76,39,oui
77,38,elle
78,38,faire
79,38,où
80,37,soins
81,36,quelque
82,35,seigneur
83,33,dom
84,32,ciel
85,31,ah
86,31,jamais
87,30,faut
88,29,même
89,29,nos
90,29,peu
91,29,voeux
92,28,avec
93,28,non
94,28,ont
95,28,sort
96,27,autre
97,27,vois
98,26,quand
99,25,assez
100,24,avez
101,24,gloire
102,24,vient
103,24,y
104,23,contre
105,23,deux
106,23,ici
107,23,secret
108,23,suis
109,23,toute
110,22,coup
111,22,dire
112,22,enfin
113,22,puis
114,22,rival
115,22,soupçons
116,22,veux
117,21,encore
118,21,moins
119,21,sais
120,20,amant
121,20,feux
122,20,jaloux
123,19,ait
124,19,frère
125,19,grand
126,19,leur
127,19,lieux
128,18,donner
129,18,ou
130,18,pouvoir
131,18,quel
132,18,éclat
133,17,comme
134,17,doute
135,17,flamme
136,17,mort
137,17,puisse
138,17,soit
139,17,toujours
140,16,aime
141,16,après
142,16,avoir
143,16,bras
144,16,espoir
145,16,prendre
146,16,pu
147,16,quoi
148,16,rendre
149,16,sont
150,15,autres
151,15,courroux
152,15,effort
153,15,esprit
154,15,raison
155,15,sentiments
156,14,destin
157,14,donne
158,14,doux
159,14,fort
160,14,ils
161,14,léon
162,14,notre
163,14,sous
164,14,veut
165,13,grands
166,13,princesse
167,13,puisque
168,13,va
169,13,voit
170,13,vouloir
171,13,élise
172,12,aussi
173,12,coups
174,12,donc
175,12,heureux
176,12,honneur
177,12,hélas
178,12,jour
179,12,offense
180,12,peine
181,12,succès
182,12,trouve
183,12,trouver
184,11,dit
185,11,dites
186,11,désirs
187,11,eût
188,11,faveur
189,11,grâce
190,11,illustre
191,11,juste
192,11,main
193,11,mains
194,11,mal
195,11,malgré
196,11,mieux
197,11,objet
198,11,outrage
199,11,roi
200,11,sens
201,11,souffrir
202,11,tant
203,10,alvar
204,10,ardeur
205,10,atteinte
206,10,avant
207,10,croire
208,10,dis
209,10,done
210,10,droit
211,10,extrême
212,10,font
213,10,sang
214,10,sujet
215,10,transports
216,10,tyran
217,10,vers
218,10,voici
219,10,vu
220,10,écrit
221,10,état
222,9,ainsi
223,9,avait
224,9,aveu
225,9,bonheur
226,9,bruit
227,9,castille
228,9,chose
229,9,cieux
230,9,crois
231,9,demande
232,9,devoir
233,9,discours
234,9,don
235,9,effet
236,9,entre
237,9,fatal
238,9,fureur
239,9,hé
240,9,lorsqu
241,9,là
242,9,malheur
243,9,mérite
244,9,odieux
245,9,paraître
246,9,pardon
247,9,pouvez
248,9,pris
249,9,temps
250,9,ô
251,8,amitié
252,8,appas
253,8,apprendre
254,8,aucun
255,8,avis
256,8,bonté
257,8,cherche
258,8,choix
259,8,coupable
260,8,crime
261,8,cru
262,8,efforts
263,8,fois
264,8,glorieux
265,8,ignès
266,8,innocence
267,8,jalousie
268,8,joie
269,8,justes
270,8,liberté
271,8,lieu
272,8,maintenant
273,8,maux
274,8,naissance
275,8,noble
276,8,obstacle
277,8,parler
278,8,partout
279,8,pitié
280,8,puissance
281,8,quelle
282,8,quelques
283,8,regards
284,8,rend
285,8,ressentiment
286,8,rigueur
287,8,semble
288,8,sylve
289,8,t
290,8,toutes
291,8,tu
292,8,voilà
293,8,voulez
294,8,voulu
295,8,éclatant
296,8,était
297,7,abord
298,7,aurais
299,7,billet
300,7,bontés
301,7,car
302,7,cependant
303,7,croit
304,7,destins
305,7,disgrâce
306,7,douleur
307,7,empire
308,7,entretien
309,7,fameux
310,7,flatter
311,7,foi
312,7,indigne
313,7,jette
314,7,jusqu
315,7,lope
316,7,lorsque
317,7,moment
318,7,mouvements
319,7,nouvelle
320,7,offre
321,7,personne
322,7,plaindre
323,7,pousse
324,7,prend
325,7,promptement
326,7,puisqu
327,7,savoir
328,7,service
329,7,soin
330,7,souvent
331,7,su
332,7,surprendre
333,7,surprise
334,7,tel
335,7,telle
336,7,transport
337,7,trouble
338,7,tête
339,7,vais
340,7,vertus
341,7,violence
342,7,voyez
343,7,vrai
344,6,aimé
345,6,alphonse
346,6,arrêt
347,6,attente
348,6,aura
349,6,aurait
350,6,avantage
351,6,beaucoup
352,6,bouche
353,6,chaleur
354,6,colère
355,6,courage
356,6,cruel
357,6,digne
358,6,doive
359,6,douceurs
360,6,droits
361,6,déjà
362,6,désespoir
363,6,elvire
364,6,erreur
365,6,eux
366,6,excuse
367,6,faiblesse
368,6,fausse
369,6,feinte
370,6,généreux
371,6,ha
372,6,haute
373,6,hymen
374,6,injuste
375,6,inspire
376,6,intérêt
377,6,laisse
378,6,laissez
379,6,louis
380,6,lumière
381,6,lâche
382,6,menace
383,6,moments
384,6,montrer
385,6,murs
386,6,ordre
387,6,place
388,6,plainte
389,6,prends
390,6,presse
391,6,présence
392,6,sacrifice
393,6,sait
394,6,saurait
395,6,secours
396,6,soupirs
397,6,tendresse
398,6,tirer
399,6,traits
400,6,triste
401,6,témoins
402,6,vain
403,6,viens
404,6,vue
405,6,zèle
406,6,êtes
407,5,aimer
408,5,allez
409,5,allons
410,5,apprenez
411,5,attend
412,5,attendre
413,5,beaux
414,5,caprice
415,5,cent
416,5,changement
417,5,choir
418,5,clartés
419,5,coeurs
420,5,comte
421,5,comtesse
422,5,contrainte
423,5,crainte
424,5,desseins
425,5,devez
426,5,devoirs
427,5,divins
428,5,défendre
429,5,démentir
430,5,entière
431,5,excès
432,5,expose
433,5,faible
434,5,faites
435,5,feu
436,5,fut
437,5,fâcheux
438,5,heure
439,5,hommage
440,5,injustice
441,5,instant
442,5,lettre
443,5,leurs
444,5,loin
445,5,martyre
446,5,moindre
447,5,monstre
448,5,motifs
449,5,mourir
450,5,moyens
451,5,mérité
452,5,ni
453,5,nom
454,5,oppose
455,5,pareil
456,5,pensée
457,5,plein
458,5,plutôt
459,5,porter
460,5,pourra
461,5,pourrais
462,5,prompt
463,5,prétend
464,5,prétendre
465,5,puissant
466,5,pure
467,5,père
468,5,quels
469,5,rage
470,5,remords
471,5,renoncer
472,5,rude
473,5,répondre
474,5,serait
475,5,serez
476,5,seul
477,5,souci
478,5,surprend
479,5,tels
480,5,tort
481,5,toutefois
482,5,traître
483,5,tyrans
484,5,vainqueur
485,5,victoire
486,5,événement
487,5,ôter
488,4,actions
489,4,affranchir
490,4,alarme
491,4,aller
492,4,art
493,4,assurer
494,4,astre
495,4,audace
496,4,aujourd
497,4,auprès
498,4,autant
499,4,avais
500,4,bientôt
501,4,blâme
502,4,braver
503,4,capable
504,4,celui
505,4,chacun
506,4,chercher
507,4,clarté
508,4,conduite
509,4,content
510,4,craindre
511,4,crédit
512,4,destinée
513,4,dois
514,4,donnez
515,4,douleurs
516,4,douter
517,4,déplaire
518,4,désormais
519,4,ennui
520,4,entendre
521,4,espérer
522,4,estime
523,4,fasse
524,4,favorable
525,4,front
526,4,gagner
527,4,garcie
528,4,garde
529,4,grande
530,4,haine
531,4,hui
532,4,infidèle
533,4,intérêts
534,4,jours
535,4,laissent
536,4,laisser
537,4,mauregat
538,4,maître
539,4,mettre
540,4,mien
541,4,misérable
542,4,mouvement
543,4,moyen
544,4,mémoire
545,4,mériter
546,4,naître
547,4,nobles
548,4,nouveau
549,4,nécessaire
550,4,occasion
551,4,offrir
552,4,oreille
553,4,orgueil
554,4,ose
555,4,penser
556,4,peuvent
557,4,plaire
558,4,plaît
559,4,porte
560,4,pourrait
561,4,pourrez
562,4,premier
563,4,prix
564,4,prodigieux
565,4,prompte
566,4,puissants
567,4,périls
568,4,pût
569,4,querelle
570,4,refus
571,4,refuse
572,4,rendez
573,4,repentir
574,4,respect
575,4,retour
576,4,régler
577,4,réparer
578,4,sachez
579,4,satisfaire
580,4,satisfait
581,4,secrets
582,4,sera
583,4,serments
584,4,servir
585,4,seule
586,4,sienne
587,4,songez
588,4,souffre
589,4,souffrez
590,4,soustraire
591,4,suffit
592,4,te
593,4,trahison
594,4,trait
595,4,trépas
596,4,tue
597,4,témoignage
598,4,vains
599,4,venger
600,4,venir
601,4,verra
602,4,vertu
603,4,veulent
604,4,vie
605,4,vif
606,4,visage
607,4,visite
608,4,vivre
609,4,voudrait
610,4,éclater
611,4,étiez
612,3,action
613,3,admire
614,3,adorable
615,3,adoucir
616,3,adresse
617,3,affreux
618,3,aimable
619,3,amants
620,3,amoureux
621,3,arrache
622,3,artifice
623,3,assurance
624,3,assuré
625,3,astorgue
626,3,attachent
627,3,attraits
628,3,aucune
629,3,audience
630,3,aurai
631,3,avance
632,3,aventure
633,3,bas
634,3,belle
635,3,besoin
636,3,blâmer
637,3,bout
638,3,briller
639,3,bruits
640,3,cache
641,3,cacher
642,3,cause
643,3,causé
644,3,cela
645,3,chagrin
646,3,cher
647,3,chéris
648,3,combats
649,3,commettre
650,3,complaisance
651,3,confondre
652,3,conquête
653,3,conserver
654,3,couronne
655,3,couronner
656,3,craignez
657,3,croyance
658,3,demander
659,3,depuis
660,3,dernière
661,3,descendre
662,3,dessein
663,3,dirai
664,3,douceur
665,3,doutes
666,3,débats
667,3,dédire
668,3,déplaisir
669,3,déplaisirs
670,3,dérober
671,3,efface
672,3,employer
673,3,entend
674,3,esprits
675,3,explique
676,3,expliquer
677,3,facile
678,3,feindre
679,3,fidèles
680,3,fiers
681,3,fit
682,3,forcer
683,3,fortune
684,3,foudre
685,3,funeste
686,3,haïr
687,3,honte
688,3,horreurs
689,3,horrible
690,3,humeur
691,3,illustres
692,3,indignités
693,3,infidélité
694,3,ingrat
695,3,ingrate
696,3,injure
697,3,innocent
698,3,inquiétude
699,3,jouir
700,3,lire
701,3,loi
702,3,lois
703,3,long
704,3,malheureux
705,3,manquer
706,3,marque
707,3,masque
708,3,matière
709,3,miens
710,3,mille
711,3,moitié
712,3,mot
713,3,mots
714,3,méritez
715,3,navarre
716,3,noeuds
717,3,obstinez
718,3,obtient
719,3,offenser
720,3,offert
721,3,oser
722,3,outrager
723,3,outragé
724,3,parle
725,3,parole
726,3,passe
727,3,passion
728,3,pencher
729,3,pensez
730,3,pente
731,3,perdre
732,3,perdu
733,3,perfide
734,3,permettre
735,3,peuple
736,3,peur
737,3,pleine
738,3,pleins
739,3,poison
740,3,poursuite
741,3,prescrire
742,3,prescrit
743,3,prie
744,3,projets
745,3,propre
746,3,prépare
747,3,présent
748,3,prévenir
749,3,prévenu
750,3,prête
751,3,punir
752,3,quoique
753,3,recevoir
754,3,rende
755,3,rends
756,3,renommée
757,3,repos
758,3,respects
759,3,respire
760,3,reste
761,3,revers
762,3,reçu
763,3,rigoureux
764,3,rudes
765,3,répondez
766,3,résoudre
767,3,sache
768,3,saisir
769,3,saurai
770,3,saurais
771,3,savez
772,3,scrupule
773,3,sentiment
774,3,serais
775,3,siens
776,3,sollicite
777,3,sortez
778,3,sortir
779,3,soudain
780,3,suivre
781,3,supplice
782,3,surpris
783,3,surtout
784,3,tendre
785,3,tendrement
786,3,tenir
787,3,termes
788,3,tes
789,3,trahi
790,3,trahir
791,3,traîtres
792,3,troupes
793,3,trône
794,3,témoin
795,3,veuille
796,3,volage
797,3,voudrais
798,3,voulais
799,3,véritable
800,3,âmes
801,3,échauffer
802,3,éclairci
803,3,écouter
804,3,émue
805,3,états
806,3,éternelle
807,3,étonne
808,3,étrange
809,2,abattue
810,2,absence
811,2,accuse
812,2,accusez
813,2,accès
814,2,acquérir
815,2,adieu
816,2,affront
817,2,agir
818,2,aient
819,2,aigreur
820,2,aille
821,2,aimons
822,2,aisément
823,2,alarmer
824,2,allégresse
825,2,alors
826,2,amie
827,2,anime
828,2,apaisé
829,2,apparence
830,2,appelle
831,2,applaudir
832,2,apporte
833,2,appris
834,2,approuve
835,2,appui
836,2,appuyer
837,2,ardent
838,2,ardents
839,2,ardeurs
840,2,armait
841,2,armer
842,2,armée
843,2,asile
844,2,attendais
845,2,attendez
846,2,attendiez
847,2,attentat
848,2,aucuns
849,2,aussitôt
850,2,autoriser
851,2,avertir
852,2,aveugle
853,2,aveux
854,2,avide
855,2,aviez
856,2,avouerai
857,2,ayant
858,2,banni
859,2,bienfait
860,2,biens
861,2,blesser
862,2,blessée
863,2,bon
864,2,bouillant
865,2,caché
866,2,cas
867,2,celle
868,2,celles
869,2,cesse
870,2,charmes
871,2,chaîne
872,2,chers
873,2,chez
874,2,choses
875,2,chute
876,2,châtiments
877,2,chère
878,2,chérir
879,2,combat
880,2,commandements
881,2,commence
882,2,comparable
883,2,comprendre
884,2,condamner
885,2,conditions
886,2,confidence
887,2,confus
888,2,connais
889,2,connaître
890,2,connue
891,2,conquérants
892,2,consens
893,2,conserve
894,2,consoler
895,2,consumée
896,2,conséquence
897,2,contraindre
898,2,couvrir
899,2,crains
900,2,crimes
901,2,croyant
902,2,croyez
903,2,cruelle
904,2,côtés
905,2,daigne
906,2,dangereux
907,2,davantage
908,2,dehors
909,2,demandez
910,2,dernier
911,2,devant
912,2,devrait
913,2,différence
914,2,discret
915,2,disposer
916,2,donné
917,2,doucement
918,2,due
919,2,déclare
920,2,déclarer
921,2,dédain
922,2,défauts
923,2,déguisement
924,2,dépend
925,2,dépens
926,2,dépit
927,2,désir
928,2,effets
929,2,effroyable
930,2,emploi
931,2,enfance
932,2,enfer
933,2,engage
934,2,ennemi
935,2,entier
936,2,entreprise
937,2,envers
938,2,envie
939,2,espère
940,2,eu
941,2,eusse
942,2,excite
943,2,excuser
944,2,excusé
945,2,exploit
946,2,faille
947,2,fais
948,2,famille
949,2,fantaisie
950,2,faux
951,2,faveurs
952,2,fera
953,2,fermer
954,2,fierté
955,2,fille
956,2,fils
957,2,flammes
958,2,flatte
959,2,flatté
960,2,fond
961,2,force
962,2,forcés
963,2,fourni
964,2,frivole
965,2,fruit
966,2,fréquents
967,2,fuir
968,2,fureurs
969,2,furie
970,2,fût
971,2,garant
972,2,goûte
973,2,goûter
974,2,grandeur
975,2,grâces
976,2,hasard
977,2,hasarder
978,2,haut
979,2,hautement
980,2,heur
981,2,hommages
982,2,homme
983,2,horreur
984,2,hors
985,2,héroïque
986,2,héroïques
987,2,idée
988,2,ignorer
989,2,immole
990,2,immolé
991,2,impatience
992,2,impose
993,2,impute
994,2,impérieux
995,2,inconnu
996,2,indignement
997,2,insigne
998,2,inspirent
999,2,instruire
1000,2,intelligence
1001,2,jeter
1002,2,jeté
1003,2,joint
1004,2,joug
1005,2,jusque
1006,2,justice
1007,2,justifier
1008,2,langage
1009,2,leçons
1010,2,libre
1011,2,lien
1012,2,liens
1013,2,lisez
1014,2,livre
1015,2,longtemps
1016,2,lâches
1017,2,légitime
1018,2,léonor
1019,2,magnanime
1020,2,maîtresse
1021,2,met
1022,2,milieu
1023,2,mis
1024,2,mortelles
1025,2,mourant
1026,2,mourrai
1027,2,murmurer
1028,2,mépris
1029,2,nature
1030,2,noir
1031,2,noirs
1032,2,nommer
1033,2,nouveauté
1034,2,nouvelles
1035,2,oblige
1036,2,obstine
1037,2,obtenir
1038,2,obéir
1039,2,occasions
1040,2,occupent
1041,2,octroie
1042,2,odieuse
1043,2,oeil
1044,2,offrez
1045,2,ombrage
1046,2,opposent
1047,2,ordonner
1048,2,osent
1049,2,osez
1050,2,oublier
1051,2,outragée
1052,2,ouvre
1053,2,paraît
1054,2,pareille
1055,2,pareils
1056,2,parer
1057,2,parlez
1058,2,parlons
1059,2,parlé
1060,2,part
1061,2,parti
1062,2,passions
1063,2,passé
1064,2,perd
1065,2,perfidie
1066,2,permettez
1067,2,perplexités
1068,2,persécuter
1069,2,pieds
1070,2,pire
1071,2,plains
1072,2,plaint
1073,2,plaisir
1074,2,poudre
1075,2,pourquoi
1076,2,pourrai
1077,2,poussé
1078,2,pouvais
1079,2,pouviez
1080,2,premiers
1081,2,première
1082,2,prenait
1083,2,preuve
1084,2,prier
1085,2,proche
1086,2,produit
1087,2,projet
1088,2,promet
1089,2,prompts
1090,2,prononcer
1091,2,propice
1092,2,propos
1093,2,prospère
1094,2,précipice
1095,2,préférence
1096,2,présenter
1097,2,présumez
1098,2,prétends
1099,2,périr
1100,2,raisons
1101,2,rang
1102,2,rapport
1103,2,rapports
1104,2,rare
1105,2,ravisseurs
1106,2,reconnaissance
1107,2,redevable
1108,2,redouter
1109,2,regret
1110,2,remporté
1111,2,rendu
1112,2,renonce
1113,2,renvoie
1114,2,reprendre
1115,2,rester
1116,2,retenir
1117,2,retraite
1118,2,reçois
1119,2,rivaux
1120,2,rougir
1121,2,rougissez
1122,2,ruse
1123,2,récompense
1124,2,réduit
1125,2,réponse
1126,2,résistance
1127,2,saura
1128,2,semblait
1129,2,semer
1130,2,sensible
1131,2,sent
1132,2,serment
1133,2,serons
1134,2,seront
1135,2,servi
1136,2,seulement
1137,2,sexe
1138,2,silence
1139,2,sincère
1140,2,soeur
1141,2,soi
1142,2,soient
1143,2,sois
1144,2,souffert
1145,2,souhaits
1146,2,souhaité
1147,2,soumis
1148,2,soumission
1149,2,soupçonner
1150,2,succomber
1151,2,suffrages
1152,2,suit
1153,2,suite
1154,2,supporter
1155,2,suprême
1156,2,surprenant
1157,2,séduit
1158,2,sévérité
1159,2,tandis
1160,2,tempérament
1161,2,tenez
1162,2,tiens
1163,2,tombe
1164,2,tombent
1165,2,tomber
1166,2,ton
1167,2,tonnerre
1168,2,touche
1169,2,tourment
1170,2,tracé
1171,2,traiter
1172,2,tranchez
1173,2,tributs
1174,2,tristes
1175,2,tromper
1176,2,troubler
1177,2,troubles
1178,2,trouvait
1179,2,trouverais
1180,2,tâche
1181,2,témérités
1182,2,usage
1183,2,usurpateur
1184,2,utile
1185,2,utiles
1186,2,vaillance
1187,2,valeur
1188,2,vante
1189,2,venant
1190,2,venge
1191,2,vengeance
1192,2,vengé
1193,2,verrez
1194,2,vienne
1195,2,viennent
1196,2,ville
1197,2,vive
1198,2,voie
1199,2,vont
1200,2,voulait
1201,2,voyant
1202,2,vrais
1203,2,vérités
1204,2,vôtre
1205,2,éclaircissement
1206,2,éclatants
1207,2,égal
1208,2,élevé
1209,2,émouvoir
1210,2,épargné
1211,2,époux
1212,2,équité
1213,2,étouffer
1214,2,étude
1215,2,été
1216,2,ôtez
1217,1,abaisse
1218,1,abaisser
1219,1,abaissées
1220,1,abandonne
1221,1,abandonnons
1222,1,abandonné
1223,1,abhorre
1224,1,abri
1225,1,absent
1226,1,absolu
1227,1,absolument
1228,1,absoudre
1229,1,abuser
1230,1,accable
1231,1,accabler
1232,1,accepte
1233,1,acceptera
1234,1,accommode
1235,1,accomplisse
1236,1,accord
1237,1,accordent
1238,1,accoutumée
1239,1,accusant
1240,1,achevant
1241,1,achevez
1242,1,achève
1243,1,acquitter
1244,1,acte
1245,1,admirez
1246,1,adoré
1247,1,adroite
1248,1,affaires
1249,1,affecte
1250,1,affectent
1251,1,affection
1252,1,affermie
1253,1,affranchisse
1254,1,affranchissez
1255,1,afin
1256,1,agissons
1257,1,agité
1258,1,aider
1259,1,aidé
1260,1,aigrir
1261,1,ailleurs
1262,1,aimais
1263,1,aise
1264,1,aisée
1265,1,ajoute
1266,1,ajouter
1267,1,ajustements
1268,1,ajuster
1269,1,alarmait
1270,1,alarmes
1271,1,alarmé
1272,1,alliance
1273,1,altéré
1274,1,amener
1275,1,ami
1276,1,amoureuse
1277,1,amusait
1278,1,amusement
1279,1,amuser
1280,1,animée
1281,1,annoncent
1282,1,annoncer
1283,1,ans
1284,1,apercevoir
1285,1,appartement
1286,1,appartient
1287,1,applaudie
1288,1,applique
1289,1,apprendra
1290,1,apprendrai
1291,1,apprenons
1292,1,apprit
1293,1,approuvent
1294,1,approuvés
1295,1,appréhende
1296,1,appréhender
1297,1,apprête
1298,1,appuyant
1299,1,arme
1300,1,armés
1301,1,arraché
1302,1,arrachés
1303,1,arriver
1304,1,arrivé
1305,1,arrête
1306,1,arrêtez
1307,1,ascendant
1308,1,aspect
1309,1,assassiné
1310,1,assauts
1311,1,assemble
1312,1,asservir
1313,1,assiduités
1314,1,assure
1315,1,assurez
1316,1,assurés
1317,1,attachement
1318,1,attaquer
1319,1,attaquée
1320,1,atteintes
1321,1,attende
1322,1,attendois
1323,1,attendrai
1324,1,attends
1325,1,attention
1326,1,atterré
1327,1,atteste
1328,1,auguré
1329,1,auparavant
1330,1,auraient
1331,1,aurez
1332,1,auroit
1333,1,autorise
1334,1,autorisé
1335,1,autorité
1336,1,avaler
1337,1,avancer
1338,1,avancez
1339,1,avantages
1340,1,avenir
1341,1,aversion
1342,1,aveuglement
1343,1,aveuglément
1344,1,avisez
1345,1,avons
1346,1,avoue
1347,1,avouer
1348,1,bannirez
1349,1,bannissement
1350,1,barbare
1351,1,barbares
1352,1,beau
1353,1,beauté
1354,1,beautés
1355,1,belles
1356,1,blesse
1357,1,blessures
1358,1,blessé
1359,1,blâmable
1360,1,blâmera
1361,1,bonne
1362,1,bouillons
1363,1,bravé
1364,1,bravés
1365,1,briguer
1366,1,brille
1367,1,briser
1368,1,brutale
1369,1,brûlants
1370,1,brûler
1371,1,burgos
1372,1,but
1373,1,butin
1374,1,butte
1375,1,bénis
1376,1,cachait
1377,1,cachez
1378,1,calmé
1379,1,capricieux
1380,1,causent
1381,1,causes
1382,1,cavalier
1383,1,ceci
1384,1,censeur
1385,1,certain
1386,1,certaine
1387,1,cesser
1388,1,ceux
1389,1,changer
1390,1,chaque
1391,1,charger
1392,1,chargé
1393,1,charmante
1394,1,charmants
1395,1,charme
1396,1,charmé
1397,1,chasse
1398,1,chaud
1399,1,chaînes
1400,1,cherchais
1401,1,cherchez
1402,1,cherché
1403,1,choisir
1404,1,choisirai
1405,1,choque
1406,1,choquer
1407,1,chères
1408,1,chérie
1409,1,chériraient
1410,1,ci
1411,1,civilités
1412,1,claire
1413,1,clairement
1414,1,combattre
1415,1,combattus
1416,1,combien
1417,1,comble
1418,1,comblerait
1419,1,comblez
1420,1,commande
1421,1,commandement
1422,1,commerce
1423,1,commettez
1424,1,commun
1425,1,communs
1426,1,compagnie
1427,1,compassion
1428,1,complaisant
1429,1,complaisante
1430,1,compte
1431,1,concevoir
1432,1,condamne
1433,1,conduire
1434,1,conduis
1435,1,conduise
1436,1,conduits
1437,1,confesser
1438,1,confirmées
1439,1,confondons
1440,1,confusion
1441,1,connaissent
1442,1,connaissez
1443,1,connu
1444,1,conseil
1445,1,conseiller
1446,1,conseils
1447,1,consente
1448,1,consentiez
1449,1,consentir
1450,1,consentons
1451,1,conservez
1452,1,conservé
1453,1,considériez
1454,1,constance
1455,1,constant
1456,1,constants
1457,1,consulte
1458,1,consulter
1459,1,contente
1460,1,contentement
1461,1,contents
1462,1,contestez
1463,1,contestée
1464,1,continue
1465,1,contrains
1466,1,convaincre
1467,1,corps
1468,1,coulent
1469,1,coupables
1470,1,cour
1471,1,courir
1472,1,courrier
1473,1,cours
1474,1,courte
1475,1,courtisan
1476,1,courtisans
1477,1,couvert
1478,1,couvrons
1479,1,craignais
1480,1,criminel
1481,1,croyable
1482,1,croyais
1483,1,croyions
1484,1,croyoient
1485,1,cruauté
1486,1,cruelles
1487,1,cuisant
1488,1,cuisantes
1489,1,cuisants
1490,1,curieux
1491,1,curiosité
1492,1,cède
1493,1,cèle
1494,1,cédez
1495,1,célestes
1496,1,daignez
1497,1,daigniez
1498,1,dedans
1499,1,demandé
1500,1,demeurent
1501,1,demeurer
1502,1,demeurez
1503,1,demeuriez
1504,1,demeurons
1505,1,demeuré
1506,1,descend
1507,1,destinées
1508,1,devait
1509,1,deviendraient
1510,1,devient
1511,1,deviez
1512,1,devons
1513,1,dextérités
1514,1,diadème
1515,1,die
1516,1,difficile
1517,1,différents
1518,1,différez
1519,1,dignité
1520,1,direz
1521,1,disaient
1522,1,disait
1523,1,disputons
1524,1,dissipent
1525,1,dissiper
1526,1,distraire
1527,1,diversement
1528,1,diversité
1529,1,divertir
1530,1,divin
1531,1,divinité
1532,1,divulguer
1533,1,dix
1534,1,doivent
1535,1,donnant
1536,1,donnent
1537,1,donnera
1538,1,donnée
1539,1,double
1540,1,douce
1541,1,douces
1542,1,douterait
1543,1,doutez
1544,1,douté
1545,1,dure
1546,1,dès
1547,1,décevant
1548,1,décevoir
1549,1,décidèrent
1550,1,déclarés
1551,1,découvert
1552,1,découvre
1553,1,découvrent
1554,1,découvrez
1555,1,découvrir
1556,1,dédains
1557,1,défaites
1558,1,défende
1559,1,défendent
1560,1,défends
1561,1,défense
1562,1,défiance
1563,1,défère
1564,1,déférence
1565,1,déguisant
1566,1,déguisements
1567,1,délibérer
1568,1,déloyauté
1569,1,déloyautés
1570,1,démens
1571,1,démenti
1572,1,démons
1573,1,départ
1574,1,dépendance
1575,1,déplaise
1576,1,dépliait
1577,1,dépourvu
1578,1,dépêchez
1579,1,dérobent
1580,1,dérobé
1581,1,désarmer
1582,1,désaveu
1583,1,désavouer
1584,1,désavouez
1585,1,désire
1586,1,désirez
1587,1,désordres
1588,1,détacher
1589,1,détaché
1590,1,détachée
1591,1,détourner
1592,1,détourné
1593,1,détruire
1594,1,dévoilé
1595,1,dû
1596,1,dût
1597,1,eaux
1598,1,effacer
1599,1,efforcer
1600,1,effroi
1601,1,elles
1602,1,embarrasse
1603,1,embarrasser
1604,1,embrassements
1605,1,embrasser
1606,1,emparer
1607,1,emploie
1608,1,employez
1609,1,empoisonne
1610,1,emportement
1611,1,emportements
1612,1,emportent
1613,1,emporté
1614,1,emprunte
1615,1,empêcher
1616,1,empêcherez
1617,1,empêchez
1618,1,enchanté
1619,1,enchaînées
1620,1,encor
1621,1,endurci
1622,1,endurer
1623,1,enfers
1624,1,enflé
1625,1,engager
1626,1,engagée
1627,1,enlever
1628,1,ensemble
1629,1,entende
1630,1,entendez
1631,1,entends
1632,1,entiers
1633,1,entr
1634,1,entra
1635,1,entraîne
1636,1,entraîner
1637,1,entreprendrai
1638,1,entrer
1639,1,entretienne
1640,1,entré
1641,1,enveloppent
1642,1,envenimée
1643,1,envié
1644,1,envoie
1645,1,envoyé
1646,1,erreurs
1647,1,espérance
1648,1,espérez
1649,1,essayions
1650,1,essor
1651,1,estimé
1652,1,eussent
1653,1,excuseriez
1654,1,excusez
1655,1,exercent
1656,1,exige
1657,1,exigez
1658,1,expia
1659,1,expirant
1660,1,expliquée
1661,1,expliqués
1662,1,exploits
1663,1,exposaient
1664,1,exposer
1665,1,exposée
1666,1,exprime
1667,1,exprimer
1668,1,exprès
1669,1,extrémité
1670,1,extrêmes
1671,1,exécuté
1672,1,facilité
1673,1,faibles
1674,1,faiblesses
1675,1,faisais
1676,1,faisant
1677,1,faisons
1678,1,faite
1679,1,fallu
1680,1,farouche
1681,1,fatale
1682,1,faute
1683,1,favorisant
1684,1,feignant
1685,1,ferai
1686,1,fermes
1687,1,fermeté
1688,1,fermez
1689,1,fidèle
1690,1,fier
1691,1,figurais
1692,1,fin
1693,1,finira
1694,1,fisse
1695,1,flambeau
1696,1,flatteurs
1697,1,fléchir
1698,1,fondement
1699,1,fondre
1700,1,forcent
1701,1,forces
1702,1,forcez
1703,1,forfaits
1704,1,forge
1705,1,forme
1706,1,former
1707,1,formé
1708,1,forte
1709,1,fortement
1710,1,fortuné
1711,1,forçait
1712,1,foudres
1713,1,fournir
1714,1,fragile
1715,1,franchement
1716,1,franchi
1717,1,franchir
1718,1,franchise
1719,1,froideur
1720,1,froideurs
1721,1,frémi
1722,1,frénésie
1723,1,fuiroit
1724,1,fuite
1725,1,fumée
1726,1,fureté
1727,1,furieux
1728,1,fus
1729,1,fuyez
1730,1,fuyons
1731,1,fâcheuse
1732,1,gage
1733,1,gagnât
1734,1,gagné
1735,1,gaieté
1736,1,garantir
1737,1,garants
1738,1,gardez
1739,1,gardés
1740,1,genoux
1741,1,geste
1742,1,glose
1743,1,goût
1744,1,goûtez
1745,1,grandeurs
1746,1,gronder
1747,1,guerre
1748,1,guide
1749,1,guère
1750,1,guérir
1751,1,guérison
1752,1,guérissez
1753,1,gêne
1754,1,gêner
1755,1,habit
1756,1,habitude
1757,1,hais
1758,1,hait
1759,1,hasarde
1760,1,hautes
1761,1,hauts
1762,1,haïssez
1763,1,heureuse
1764,1,holà
1765,1,honorer
1766,1,honteuse
1767,1,honteux
1768,1,humain
1769,1,hyménée
1770,1,hâte
1771,1,hâter
1772,1,hâtez
1773,1,hâté
1774,1,héros
1775,1,hésiter
1776,1,ignore
1777,1,image
1778,1,immolant
1779,1,immoler
1780,1,immortel
1781,1,imparfaits
1782,1,importants
1783,1,importe
1784,1,importun
1785,1,importune
1786,1,importunité
1787,1,imposent
1788,1,imposture
1789,1,imprimer
1790,1,imprévue
1791,1,impunément
1792,1,imputais
1793,1,imputez
1794,1,incertain
1795,1,inconcevable
1796,1,inconstance
1797,1,indice
1798,1,indifférent
1799,1,indigner
1800,1,indiscret
1801,1,indiscrète
1802,1,indulgence
1803,1,infectent
1804,1,influence
1805,1,informer
1806,1,informé
1807,1,infortune
1808,1,infortuné
1809,1,ingratitude
1810,1,inhumains
1811,1,injurieux
1812,1,injustement
1813,1,inquiète
1814,1,inquiéter
1815,1,insolent
1816,1,instamment
1817,1,instruise
1818,1,instruisez
1819,1,instruite
1820,1,interdire
1821,1,interdits
1822,1,interprètes
1823,1,interrompez
1824,1,interrompre
1825,1,introduit
1826,1,intéresse
1827,1,intéresser
1828,1,inutilement
1829,1,inutiles
1830,1,inventé
1831,1,inventée
1832,1,investit
1833,1,inviolable
1834,1,ira
1835,1,irrite
1836,1,irrité
1837,1,jalouse
1838,1,jetant
1839,1,jetez
1840,1,jetée
1841,1,joigne
1842,1,joignit
1843,1,joindre
1844,1,jouissez
1845,1,jouit
1846,1,juge
1847,1,jugement
1848,1,jugeons
1849,1,jugé
1850,1,jurer
1851,1,justement
1852,1,laissa
1853,1,laissant
1854,1,laisseront
1855,1,laissé
1856,1,lance
1857,1,lancer
1858,1,langue
1859,1,lasse
1860,1,lettres
1861,1,lever
1862,1,levé
1863,1,levée
1864,1,librement
1865,1,libres
1866,1,lirez
1867,1,lise
1868,1,livrant
1869,1,livrer
1870,1,longue
1871,1,longueur
1872,1,lors
1873,1,lu
1874,1,lustres
1875,1,lutter
1876,1,lâcheté
1877,1,légitimes
1878,1,maladie
1879,1,malaisément
1880,1,malice
1881,1,mander
1882,1,manière
1883,1,manquant
1884,1,manque
1885,1,marche
1886,1,marchez
1887,1,marquaient
1888,1,marquer
1889,1,marques
1890,1,marquis
1891,1,marqués
1892,1,mauvais
1893,1,maxime
1894,1,maximes
1895,1,mentir
1896,1,merveilles
1897,1,merveilleux
1898,1,mets
1899,1,mettant
1900,1,mette
1901,1,meure
1902,1,miracles
1903,1,mise
1904,1,moitiés
1905,1,monde
1906,1,montre
1907,1,morte
1908,1,mortelle
1909,1,murmure
1910,1,murmurez
1911,1,méchant
1912,1,ménager
1913,1,méprendre
1914,1,méritait
1915,1,méritent
1916,1,méthode
1917,1,mêler
1918,1,mêlé
1919,1,mêlée
1920,1,mêmes
1921,1,naturel
1922,1,naturelles
1923,1,naît
1924,1,nier
1925,1,noeud
1926,1,noie
1927,1,noire
1928,1,nommiez
1929,1,nourrie
1930,1,nourrir
1931,1,nouveautés
1932,1,nouveaux
1933,1,nuit
1934,1,nul
1935,1,nulle
1936,1,nullement
1937,1,né
1938,1,née
1939,1,obligeants
1940,1,obliger
1941,1,obliges
1942,1,obscurité
1943,1,obscurs
1944,1,observer
1945,1,observez
1946,1,obstacles
1947,1,obstineriez
1948,1,obstinée
1949,1,obtiendrez
1950,1,obtiens
1951,1,obéis
1952,1,obéissance
1953,1,obéissant
1954,1,occurrence
1955,1,offensé
1956,1,offensée
1957,1,office
1958,1,offrait
1959,1,offrent
1960,1,oit
1961,1,ombrages
1962,1,ombre
1963,1,opposais
1964,1,opposer
1965,1,opprimée
1966,1,oracle
1967,1,ordinaire
1968,1,ordinaires
1969,1,ordres
1970,1,oreilles
1971,1,oubli
1972,1,oublions
1973,1,outre
1974,1,ouvert
1975,1,ouverte
1976,1,ouverts
1977,1,ouvrez
1978,1,ouvrir
1979,1,ouïr
1980,1,paisible
1981,1,paisiblement
1982,1,paix
1983,1,paraîtra
1984,1,parce
1985,1,pardonnable
1986,1,pardonne
1987,1,pardonnez
1988,1,parente
1989,1,parents
1990,1,parfait
1991,1,parfois
1992,1,parjure
1993,1,parjurer
1994,1,parlait
1995,1,parlent
1996,1,parliez
1997,1,parmi
1998,1,paroles
1999,1,pars
2000,1,partage
2001,1,partager
2002,1,partageât
2003,1,partent
2004,1,passant
2005,1,passer
2006,1,passons
2007,1,paternel
2008,1,patience
2009,1,payer
2010,1,peines
2011,1,penchait
2012,1,pensait
2013,1,pense
2014,1,pensées
2015,1,percer
2016,1,perdant
2017,1,perde
2018,1,perdez
2019,1,perds
2020,1,persuade
2021,1,persuader
2022,1,persuadé
2023,1,persécute
2024,1,persécutée
2025,1,persévère
2026,1,perte
2027,1,peser
2028,1,peuples
2029,1,peux
2030,1,pitoyable
2031,1,piège
2032,1,plaie
2033,1,plaignais
2034,1,plaignez
2035,1,plaintes
2036,1,plaisirs
2037,1,pleines
2038,1,plu
2039,1,politique
2040,1,porté
2041,1,possédée
2042,1,posée
2043,1,posément
2044,1,pourriez
2045,1,poursuit
2046,1,pourtant
2047,1,pourvu
2048,1,pousser
2049,1,poussez
2050,1,pouvait
2051,1,pouvons
2052,1,pratiques
2053,1,pratiqué
2054,1,premières
2055,1,prenant
2056,1,prendra
2057,1,prendras
2058,1,prendront
2059,1,prenez
2060,1,prenne
2061,1,prennent
2062,1,pressé
2063,1,preuves
2064,1,procédé
2065,1,procédés
2066,1,prodige
2067,1,profiter
2068,1,profonde
2069,1,promesse
2070,1,promettez
2071,1,promettre
2072,1,promptitude
2073,1,prononcez
2074,1,propices
2075,1,propose
2076,1,propres
2077,1,prouver
2078,1,provenir
2079,1,prudence
2080,1,prudent
2081,1,près
2082,1,précautions
2083,1,précipitant
2084,1,précipité
2085,1,précipités
2086,1,prédire
2087,1,préférer
2088,1,préféré
2089,1,préparer
2090,1,préparez
2091,1,préparés
2092,1,présageait
2093,1,présente
2094,1,présenté
2095,1,présume
2096,1,présumeriez
2097,1,prétende
2098,1,prétendent
2099,1,prétentions
2100,1,prétexte
2101,1,prévenus
2102,1,prêt
2103,1,prêter
2104,1,prêtez
2105,1,prêté
2106,1,public
2107,1,publics
2108,1,publier
2109,1,publique
2110,1,puissent
2111,1,puissiez
2112,1,puissé
2113,1,punirais
2114,1,punisseur
2115,1,pur
2116,1,pures
2117,1,purge
2118,1,purger
2119,1,pusse
2120,1,put
2121,1,pâleur
2122,1,pèdre
2123,1,pénible
2124,1,péril
2125,1,périsse
2126,1,qualités
2127,1,quatre
2128,1,quelles
2129,1,quelqu
2130,1,quelquefois
2131,1,quereller
2132,1,quitte
2133,1,quitter
2134,1,quitté
2135,1,racheter
2136,1,ramène
2137,1,range
2138,1,rangés
2139,1,rappeler
2140,1,rapportés
2141,1,rares
2142,1,rassemblez
2143,1,ravir
2144,1,ravissement
2145,1,ravisseur
2146,1,rayon
2147,1,rebuter
2148,1,rebuté
2149,1,rechute
2150,1,redire
2151,1,redonner
2152,1,redoutable
2153,1,refusiez
2154,1,refusé
2155,1,regard
2156,1,regardais
2157,1,regarde
2158,1,regardent
2159,1,regarder
2160,1,regardez
2161,1,rejeter
2162,1,relis
2163,1,relâcher
2164,1,remarquer
2165,1,remercier
2166,1,remettons
2167,1,rempli
2168,1,remportez
2169,1,remède
2170,1,rencontraient
2171,1,rencontre
2172,1,rencontrer
2173,1,rencontré
2174,1,rendra
2175,1,rendrez
2176,1,renferme
2177,1,renfort
2178,1,rentrer
2179,1,renversement
2180,1,renvoyer
2181,1,repentirez
2182,1,replace
2183,1,reprochait
2184,1,reprocher
2185,1,respirer
2186,1,ressemble
2187,1,ressent
2188,1,ressentez
2189,1,ressentiments
2190,1,ressentir
2191,1,restée
2192,1,retournez
2193,1,revenu
2194,1,revenue
2195,1,reviendra
2196,1,revoir
2197,1,reçoit
2198,1,reçût
2199,1,rigueurs
2200,1,rit
2201,1,rompre
2202,1,rougeur
2203,1,rougi
2204,1,ruiné
2205,1,rumeur
2206,1,règle
2207,1,réduite
2208,1,réflexions
2209,1,réjouis
2210,1,réjouit
2211,1,réplique
2212,1,répond
2213,1,réponds
2214,1,réprimant
2215,1,réserver
2216,1,résistez
2217,1,résolu
2218,1,résolution
2219,1,résolvez
2220,1,résout
2221,1,rétracte
2222,1,réveille
2223,1,révèrent
2224,1,révélé
2225,1,sacrés
2226,1,sage
2227,1,sainte
2228,1,saisi
2229,1,saisie
2230,1,salut
2231,1,salutaire
2232,1,sanglant
2233,1,satisfaites
2234,1,sauraient
2235,1,saurez
2236,1,second
2237,1,seconde
2238,1,secondé
2239,1,secrète
2240,1,secrètes
2241,1,sein
2242,1,seing
2243,1,semblables
2244,1,semées
2245,1,sensiblement
2246,1,sentais
2247,1,senti
2248,1,sentirais
2249,1,sert
2250,1,serve
2251,1,services
2252,1,servile
2253,1,serviraient
2254,1,seuls
2255,1,signale
2256,1,signaler
2257,1,simple
2258,1,sincérité
2259,1,sinon
2260,1,soldats
2261,1,solide
2262,1,sombre
2263,1,songe
2264,1,sortait
2265,1,sorte
2266,1,sortons
2267,1,sortît
2268,1,sotte
2269,1,soudaine
2270,1,soudaines
2271,1,soufflé
2272,1,soumet
2273,1,soumise
2274,1,soupir
2275,1,soupire
2276,1,soupçonniez
2277,1,soupçonné
2278,1,sources
2279,1,sourde
2280,1,sourdes
2281,1,souscris
2282,1,soustraits
2283,1,soutenez
2284,1,soutenir
2285,1,souvenir
2286,1,souveraine
2287,1,soyez
2288,1,spectacle
2289,1,style
2290,1,subir
2291,1,sublimes
2292,1,subtil
2293,1,succéder
2294,1,suffisantes
2295,1,suivis
2296,1,sujets
2297,1,superbement
2298,1,supportable
2299,1,surcroît
2300,1,suspect
2301,1,sut
2302,1,sûr
2303,1,sûreté
2304,1,ta
2305,1,table
2306,1,taire
2307,1,tantôt
2308,1,tarde
2309,1,tempête
2310,1,tenait
2311,1,tend
2312,1,tendres
2313,1,tenter
2314,1,tentez
2315,1,tenté
2316,1,tiendra
2317,1,tiendrai
2318,1,timide
2319,1,tire
2320,1,toi
2321,1,tombé
2322,1,torture
2323,1,toucherait
2324,1,touché
2325,1,touchée
2326,1,tour
2327,1,tourments
2328,1,tournait
2329,1,tourné
2330,1,trahirait
2331,1,trahis
2332,1,trahissais
2333,1,traite
2334,1,trames
2335,1,traversée
2336,1,traversés
2337,1,tremblant
2338,1,tremblement
2339,1,triomphants
2340,1,triomphe
2341,1,triompher
2342,1,trois
2343,1,trompeur
2344,1,trompé
2345,1,trompée
2346,1,trophées
2347,1,troublent
2348,1,trouverez
2349,1,trouvez
2350,1,trouvé
2351,1,tyrannie
2352,1,tyranniser
2353,1,tyrannisé
2354,1,tâcher
2355,1,témoigner
2356,1,témoigné
2357,1,téméraire
2358,1,témérité
2359,1,tôt
2360,1,unes
2361,1,unique
2362,1,unit
2363,1,univers
2364,1,uns
2365,1,user
2366,1,usez
2367,1,vaincre
2368,1,vaine
2369,1,vainement
2370,1,vaines
2371,1,valoir
2372,1,vaste
2373,1,vaut
2374,1,vautours
2375,1,vaux
2376,1,venait
2377,1,venez
2378,1,vengeant
2379,1,vengée
2380,1,venin
2381,1,venu
2382,1,venue
2383,1,verrais
2384,1,verrait
2385,1,verrons
2386,1,vertueuse
2387,1,veuillez
2388,1,victime
2389,1,vieillard
2390,1,vieux
2391,1,vingt
2392,1,violer
2393,1,visible
2394,1,vit
2395,1,vite
2396,1,vitesse
2397,1,vives
2398,1,voix
2399,1,volontaire
2400,1,volontiers
2401,1,volonté
2402,1,volontés
2403,1,volé
2404,1,voudrez
2405,1,voulaient
2406,1,vouliez
2407,1,voyons
2408,1,vraiment
2409,1,vuidera
2410,1,vînt
2411,1,vôtres
2412,1,zélé
2413,1,âge
2414,1,échapper
2415,1,échappé
2416,1,éclaircir
2417,1,éclaircis
2418,1,éclairer
2419,1,éclairé
2420,1,éclate
2421,1,éclats
2422,1,écoute
2423,1,écouté
2424,1,écrire
2425,1,écriture
2426,1,égale
2427,1,également
2428,1,égaler
2429,1,égarement
2430,1,égaré
2431,1,élevée
2432,1,éloigné
2433,1,émotions
2434,1,émus
2435,1,épargner
2436,1,épargnez
2437,1,épouvantable
2438,1,épreuve
2439,1,éprise
2440,1,éprouver
2441,1,épée
2442,1,équipage
2443,1,équitablement
2444,1,étais
2445,1,étale
2446,1,étalés
2447,1,éteindre
2448,1,éteinte
2449,1,étendons
2450,1,étois
2451,1,étonnement
2452,1,étonner
2453,1,étonnerait
2454,1,étonnez
2455,1,étouffées
2456,1,étroit
2457,1,étudie
2458,1,éventé
2459,1,évidente
2460,1,évitons
2461,1,évité
2462,1,ôte
2463,1,ôtons
2464,1,ôté
