1,425,de
2,378,et
3,310,je
4,272,vous
5,271,il
6,243,que
7,239,le
8,204,à
9,197,l
10,194,un
11,174,en
12,173,la
13,169,qu
14,160,est
15,151,ce
16,151,mon
17,133,me
18,124,d
19,108,ne
20,100,ma
21,99,les
22,98,tu
23,94,m
24,94,son
25,90,a
26,83,des
27,83,j
28,73,n
29,72,on
30,71,dans
31,70,nous
32,69,sa
33,68,par
34,65,s
35,64,lui
36,64,qui
37,64,se
38,64,votre
39,62,te
40,58,t
41,56,une
42,55,si
43,53,au
44,51,mes
45,50,bajazet
46,48,du
47,48,même
48,48,ton
49,46,point
50,45,pour
51,44,cette
52,44,plus
53,44,vos
54,43,bien
55,43,ils
56,43,moi
57,43,quoi
58,43,tous
59,41,leur
60,40,pas
61,40,ses
62,39,ta
63,39,âme
64,38,ai
65,37,c
66,36,elle
67,36,fait
68,35,coeur
69,33,faut
70,33,nos
71,33,tout
72,32,amour
73,32,avec
74,30,veux
75,29,sur
76,29,thémir
77,28,cet
78,28,puis
79,27,ces
80,27,mais
81,27,suis
82,27,y
83,26,dedans
84,26,père
85,26,yeux
86,25,deux
87,25,fils
88,24,ah
89,24,grand
90,24,mort
91,24,ont
92,24,tes
93,24,trop
94,23,autre
95,23,leurs
96,23,quelque
97,23,vertu
98,23,vois
99,22,camp
100,22,combat
101,22,peut
102,22,seigneur
103,22,sort
104,22,vainqueur
105,21,sans
106,21,voir
107,21,être
108,20,dont
109,20,femme
110,20,maître
111,20,part
112,19,aux
113,19,moins
114,19,prince
115,19,quel
116,19,tamerlan
117,18,avez
118,18,donc
119,18,honneur
120,18,où
121,18,quand
122,18,rendre
123,18,sang
124,18,va
125,17,madame
126,17,sont
127,17,toi
128,16,as
129,16,crime
130,16,doit
131,16,donne
132,16,pu
133,16,viens
134,15,fers
135,15,ici
136,15,là
137,15,mourir
138,15,ou
139,15,pouvoir
140,15,ô
141,14,contre
142,14,mains
143,14,personne
144,14,roxalie
145,14,tant
146,14,traître
147,14,vain
148,13,faire
149,13,fille
150,13,laisse
151,13,ni
152,13,peine
153,13,sauver
154,12,armes
155,12,ciel
156,12,comme
157,12,cruel
158,12,dessus
159,12,ennemis
160,12,non
161,12,notre
162,12,secret
163,12,veut
164,12,vie
165,11,aime
166,11,ainsi
167,11,avecque
168,11,dit
169,11,effet
170,11,enfin
171,11,gloire
172,11,grands
173,11,loin
174,11,main
175,11,peu
176,11,servir
177,11,trépas
178,11,vais
179,10,bras
180,10,donner
181,10,déjà
182,10,encor
183,10,entre
184,10,fais
185,10,fut
186,10,malheur
187,10,rang
188,10,rois
189,10,semble
190,10,soin
191,10,sélim
192,10,temps
193,10,toute
194,10,tyran
195,10,état
196,9,assez
197,9,aussi
198,9,avoir
199,9,bientôt
200,9,celui
201,9,chaînes
202,9,dessein
203,9,hé
204,9,jour
205,9,jusqu
206,9,liberté
207,9,lâche
208,9,maux
209,9,quelle
210,9,rançon
211,9,rend
212,9,rien
213,9,sais
214,9,trouve
215,9,vient
216,8,aller
217,8,aurait
218,8,avantage
219,8,ayant
220,8,bonheur
221,8,cent
222,8,demande
223,8,emploi
224,8,générosité
225,8,larmes
226,8,malgré
227,8,orcazie
228,8,prison
229,8,propre
230,8,tour
231,8,triste
232,8,venir
233,8,victoire
234,8,vont
235,8,voyant
236,8,vu
237,8,époux
238,7,allez
239,7,ambassade
240,7,armée
241,7,aura
242,7,avait
243,7,ceci
244,7,chaque
245,7,chez
246,7,coup
247,7,dieu
248,7,ennemi
249,7,envie
250,7,eut
251,7,fois
252,7,indigne
253,7,juste
254,7,lieu
255,7,légitime
256,7,malheureux
257,7,mouvements
258,7,mère
259,7,pendant
260,7,porter
261,7,pourquoi
262,7,presque
263,7,prisonnier
264,7,regret
265,7,rendu
266,7,souffrir
267,7,terre
268,7,vivre
269,7,voit
270,6,adieu
271,6,amants
272,6,ardeur
273,6,aujourd
274,6,chacun
275,6,choix
276,6,corps
277,6,dernier
278,6,digne
279,6,empire
280,6,envoie
281,6,estes
282,6,famille
283,6,fatal
284,6,finir
285,6,fureur
286,6,garde
287,6,grandeur
288,6,généreux
289,6,hui
290,6,juge
291,6,mieux
292,6,mille
293,6,moyen
294,6,objet
295,6,offre
296,6,parmi
297,6,poignard
298,6,porte
299,6,pouvez
300,6,premier
301,6,prends
302,6,princes
303,6,princesse
304,6,prix
305,6,présent
306,6,punir
307,6,rendez
308,6,reste
309,6,rival
310,6,rougir
311,6,sensible
312,6,service
313,6,soldats
314,6,sous
315,6,suivre
316,6,tel
317,6,traite
318,6,vengeance
319,6,vis
320,6,états
321,5,agir
322,5,allons
323,5,après
324,5,arrêt
325,5,attends
326,5,barbare
327,5,bas
328,5,beau
329,5,captivité
330,5,chefs
331,5,cherche
332,5,chevaux
333,5,coups
334,5,courage
335,5,cours
336,5,desseins
337,5,dessous
338,5,devoir
339,5,dois
340,5,donnez
341,5,donné
342,5,douleurs
343,5,droit
344,5,dégager
345,5,efforts
346,5,effroyable
347,5,elles
348,5,ensemble
349,5,entreprise
350,5,estime
351,5,foi
352,5,force
353,5,fortune
354,5,franchise
355,5,honte
356,5,honteux
357,5,jalousie
358,5,jaloux
359,5,joie
360,5,jusques
361,5,long
362,5,malheurs
363,5,marque
364,5,meurs
365,5,moindre
366,5,moment
367,5,monde
368,5,monstre
369,5,oeil
370,5,ose
371,5,outrage
372,5,passion
373,5,peines
374,5,prend
375,5,prendre
376,5,prise
377,5,propres
378,5,puisque
379,5,quelques
380,5,raisons
381,5,regarde
382,5,remet
383,5,remords
384,5,rigueur
385,5,récompense
386,5,seul
387,5,sois
388,5,soit
389,5,sors
390,5,tombe
391,5,toutes
392,5,trahi
393,5,univers
394,5,vaincu
395,5,vas
396,5,vers
397,5,vizir
398,5,voeux
399,5,voix
400,5,vouloir
401,5,voyez
402,5,vrai
403,5,vôtre
404,5,également
405,5,épée
406,5,était
407,5,étonnement
408,5,êtes
409,4,abord
410,4,accidents
411,4,amant
412,4,ambassadeur
413,4,amours
414,4,apprendre
415,4,arrête
416,4,assemble
417,4,aveu
418,4,besoin
419,4,brave
420,4,cache
421,4,cause
422,4,cercueil
423,4,cesse
424,4,changé
425,4,colère
426,4,conseil
427,4,consentir
428,4,crédit
429,4,devers
430,4,dès
431,4,effort
432,4,enfants
433,4,es
434,4,esclavage
435,4,eux
436,4,faites
437,4,faux
438,4,faveur
439,4,fin
440,4,fuite
441,4,funeste
442,4,honneurs
443,4,horreur
444,4,importe
445,4,jamais
446,4,jouir
447,4,lois
448,4,mansor
449,4,montrer
450,4,mortel
451,4,mourons
452,4,naissance
453,4,naturel
454,4,offense
455,4,office
456,4,parler
457,4,parole
458,4,parricide
459,4,pense
460,4,perdu
461,4,perfide
462,4,peux
463,4,plaisir
464,4,poison
465,4,première
466,4,pris
467,4,provinces
468,4,présence
469,4,puissance
470,4,puisse
471,4,pères
472,4,qualités
473,4,quitté
474,4,reconnaissance
475,4,rendait
476,4,revers
477,4,roi
478,4,répondre
479,4,résoudre
480,4,sait
481,4,seconde
482,4,secours
483,4,sentiment
484,4,sera
485,4,servitude
486,4,soi
487,4,soins
488,4,souhaits
489,4,soupçon
490,4,souverain
491,4,sujets
492,4,tente
493,4,tenter
494,4,tient
495,4,toujours
496,4,verrez
497,4,voulez
498,4,zilim
499,4,zèle
500,4,âmes
501,4,étant
502,4,étonné
503,4,ôte
504,3,abandonne
505,3,accepte
506,3,accorder
507,3,acquis
508,3,allais
509,3,ambassadeurs
510,3,amitié
511,3,amène
512,3,apparence
513,3,appas
514,3,armées
515,3,asie
516,3,attentats
517,3,attente
518,3,aucun
519,3,aurai
520,3,avant
521,3,avouer
522,3,blâme
523,3,bout
524,3,captif
525,3,charge
526,3,cheval
527,3,châtier
528,3,commande
529,3,commandement
530,3,comment
531,3,complice
532,3,conserver
533,3,contenter
534,3,contraindre
535,3,courroux
536,3,crimes
537,3,crois
538,3,cruelle
539,3,cruels
540,3,côté
541,3,danger
542,3,davantage
543,3,demander
544,3,demi
545,3,depuis
546,3,derniers
547,3,devant
548,3,devez
549,3,deviens
550,3,deviez
551,3,dire
552,3,dis
553,3,donnent
554,3,double
555,3,douceur
556,3,doux
557,3,douze
558,3,droits
559,3,découvre
560,3,déplaisir
561,3,emporte
562,3,empêcher
563,3,encore
564,3,entier
565,3,entretenir
566,3,esclave
567,3,faiblesse
568,3,fallait
569,3,fatale
570,3,façon
571,3,fit
572,3,flamme
573,3,fléau
574,3,fondre
575,3,fort
576,3,frayeur
577,3,fuit
578,3,gardes
579,3,genoux
580,3,genre
581,3,guerre
582,3,haine
583,3,hasard
584,3,hors
585,3,humilité
586,3,humilié
587,3,image
588,3,insolent
589,3,intérêt
590,3,jugez
591,3,jusque
592,3,justifier
593,3,laissé
594,3,las
595,3,lie
596,3,lieux
597,3,longtemps
598,3,longue
599,3,louer
600,3,lâches
601,3,marques
602,3,mauvais
603,3,mien
604,3,moitié
605,3,monarque
606,3,mortels
607,3,motif
608,3,mérite
609,3,nations
610,3,nombre
611,3,obtenir
612,3,offrir
613,3,opposer
614,3,oui
615,3,partage
616,3,passage
617,3,passions
618,3,pensant
619,3,penser
620,3,pensées
621,3,perds
622,3,peuples
623,3,pleurs
624,3,porta
625,3,pourra
626,3,pourrai
627,3,proie
628,3,projets
629,3,propose
630,3,présage
631,3,présente
632,3,prêt
633,3,quartier
634,3,quitte
635,3,raison
636,3,ravir
637,3,recevoir
638,3,redevable
639,3,regard
640,3,rencontre
641,3,rendent
642,3,repos
643,3,respect
644,3,ressent
645,3,ressentir
646,3,ressouvenir
647,3,retour
648,3,retourne
649,3,reçois
650,3,reçoit
651,3,reçu
652,3,rompre
653,3,rude
654,3,répondez
655,3,réussir
656,3,saurons
657,3,second
658,3,selon
659,3,semblable
660,3,sentiments
661,3,serez
662,3,seule
663,3,siens
664,3,silence
665,3,sortez
666,3,souci
667,3,souffrez
668,3,soupirs
669,3,stratagème
670,3,suit
671,3,suivi
672,3,supplice
673,3,sérail
674,3,tantôt
675,3,teste
676,3,tiens
677,3,timide
678,3,tonnerre
679,3,traitements
680,3,traits
681,3,traîne
682,3,trouver
683,3,trouvé
684,3,trône
685,3,témoignage
686,3,valeur
687,3,viennent
688,3,vint
689,3,visage
690,3,visible
691,3,voici
692,3,voila
693,3,échange
694,3,éclat
695,3,épouser
696,3,étaient
697,3,étais
698,3,éternels
699,3,étonne
700,3,étrange
701,3,ôter
702,2,abaisse
703,2,abaissement
704,2,aborde
705,2,acceptez
706,2,accord
707,2,achever
708,2,acquérir
709,2,action
710,2,adoucir
711,2,agissez
712,2,aimer
713,2,aimé
714,2,air
715,2,alarmées
716,2,alors
717,2,animé
718,2,appelle
719,2,armés
720,2,arrive
721,2,arrêter
722,2,arrêtez
723,2,art
724,2,aspect
725,2,aurais
726,2,auront
727,2,aussitôt
728,2,autant
729,2,autrefois
730,2,autrui
731,2,avaient
732,2,avais
733,2,aîné
734,2,beaucoup
735,2,belle
736,2,borne
737,2,bourreaux
738,2,braver
739,2,butin
740,2,cacher
741,2,cesser
742,2,ceux
743,2,charmant
744,2,charmer
745,2,charmes
746,2,chaîne
747,2,chemin
748,2,cherchais
749,2,chercher
750,2,choc
751,2,choque
752,2,choquer
753,2,chute
754,2,chère
755,2,cieux
756,2,cimeterre
757,2,combats
758,2,combattre
759,2,combien
760,2,commence
761,2,commencé
762,2,commettre
763,2,conclure
764,2,confidence
765,2,conjurer
766,2,connais
767,2,connaissez
768,2,conquise
769,2,conquêtes
770,2,consent
771,2,considère
772,2,contente
773,2,contraire
774,2,couchant
775,2,courant
776,2,crains
777,2,crainte
778,2,cri
779,2,criminel
780,2,croyant
781,2,crut
782,2,créance
783,2,crû
784,2,crût
785,2,curieux
786,2,côtés
787,2,dernière
788,2,destin
789,2,destine
790,2,deuil
791,2,deviennent
792,2,devriez
793,2,devînmes
794,2,die
795,2,différents
796,2,dites
797,2,divers
798,2,divertir
799,2,don
800,2,donnant
801,2,douleur
802,2,débris
803,2,dédaigne
804,2,défaite
805,2,défier
806,2,déguisement
807,2,délai
808,2,dément
809,2,dénaturé
810,2,déplorable
811,2,dépouillé
812,2,député
813,2,députés
814,2,dérobe
815,2,désastre
816,2,déshonneur
817,2,désir
818,2,désire
819,2,détaché
820,2,enchaîné
821,2,enseigne
822,2,entend
823,2,entreprendre
824,2,entrer
825,2,envers
826,2,envi
827,2,envoyer
828,2,esprit
829,2,essuya
830,2,excusez
831,2,excède
832,2,exige
833,2,expliquez
834,2,expose
835,2,extrême
836,2,faillir
837,2,fasse
838,2,fausse
839,2,faveurs
840,2,favorable
841,2,femmes
842,2,fer
843,2,ferai
844,2,fidèle
845,2,fier
846,2,fis
847,2,fié
848,2,font
849,2,forcer
850,2,forcé
851,2,forfaits
852,2,former
853,2,formez
854,2,forte
855,2,foudre
856,2,foule
857,2,frappe
858,2,front
859,2,frère
860,2,fumant
861,2,furieux
862,2,fus
863,2,fût
864,2,gendarmes
865,2,glorieux
866,2,grande
867,2,grâce
868,2,général
869,2,généreuse
870,2,habit
871,2,hasardeux
872,2,haute
873,2,heur
874,2,heure
875,2,heureux
876,2,homme
877,2,hommes
878,2,honore
879,2,honteuse
880,2,hélas
881,2,idée
882,2,immoler
883,2,imprudence
884,2,impute
885,2,imputez
886,2,incessamment
887,2,incliner
888,2,inconnu
889,2,indigné
890,2,infidèle
891,2,inquiétude
892,2,insensible
893,2,instant
894,2,intelligence
895,2,inventer
896,2,invincible
897,2,ira
898,2,joug
899,2,juger
900,2,laissez
901,2,langage
902,2,lettre
903,2,libertés
904,2,livre
905,2,loi
906,2,lors
907,2,lâcheté
908,2,mal
909,2,manque
910,2,marche
911,2,marcher
912,2,met
913,2,mettre
914,2,montagne
915,2,morte
916,2,mourras
917,2,mourrons
918,2,moyenner
919,2,mène
920,2,mémoire
921,2,mérité
922,2,mêmes
923,2,naturelle
924,2,noble
925,2,noms
926,2,nouveau
927,2,nouvelle
928,2,offres
929,2,ombrage
930,2,opprobre
931,2,ordonner
932,2,ordre
933,2,orient
934,2,osez
935,2,otage
936,2,oublie
937,2,paix
938,2,paraître
939,2,pareille
940,2,pareils
941,2,partent
942,2,partie
943,2,partis
944,2,partout
945,2,parvenu
946,2,passe
947,2,pensent
948,2,percer
949,2,perdez
950,2,perdre
951,2,permis
952,2,personnage
953,2,persuade
954,2,peur
955,2,pieds
956,2,pitié
957,2,plaire
958,2,plaisez
959,2,plaisirs
960,2,plaît
961,2,pleine
962,2,plutôt
963,2,poids
964,2,portant
965,2,portez
966,2,posture
967,2,potentats
968,2,pourrait
969,2,pourriez
970,2,poursuivre
971,2,poussez
972,2,pouvait
973,2,pouvant
974,2,premiers
975,2,prenant
976,2,prie
977,2,priver
978,2,profond
979,2,prudence
980,2,pruze
981,2,prétendu
982,2,prétexte
983,2,préviens
984,2,prévoit
985,2,puisqu
986,2,puni
987,2,périr
988,2,quelqu
989,2,quels
990,2,race
991,2,rangs
992,2,recevez
993,2,reconnaître
994,2,reconnu
995,2,redouble
996,2,redouteriez
997,2,refusant
998,2,refuser
999,2,regarder
1000,2,reine
1001,2,reines
1002,2,remettre
1003,2,rendrait
1004,2,rends
1005,2,renommée
1006,2,rentre
1007,2,reprocher
1008,2,respects
1009,2,ressens
1010,2,ressentant
1011,2,ressentiments
1012,2,retiens
1013,2,retourner
1014,2,revoir
1015,2,rigueurs
1016,2,réduisit
1017,2,régler
1018,2,régner
1019,2,répugnance
1020,2,résister
1021,2,sachons
1022,2,saisie
1023,2,sanglant
1024,2,sanglante
1025,2,satisfaire
1026,2,saurai
1027,2,saurais
1028,2,savoir
1029,2,secrets
1030,2,sein
1031,2,sentait
1032,2,sentir
1033,2,serait
1034,2,serment
1035,2,sers
1036,2,sert
1037,2,servons
1038,2,soient
1039,2,sorti
1040,2,sortir
1041,2,soumis
1042,2,source
1043,2,soutenir
1044,2,soutiennent
1045,2,souvenir
1046,2,spectacle
1047,2,su
1048,2,succès
1049,2,suivez
1050,2,suivie
1051,2,sujet
1052,2,superbe
1053,2,surpris
1054,2,suspendus
1055,2,séjour
1056,2,telle
1057,2,tempêtes
1058,2,tenir
1059,2,termes
1060,2,testes
1061,2,thrace
1062,2,tienne
1063,2,titres
1064,2,tomber
1065,2,toucher
1066,2,traces
1067,2,trahir
1068,2,trahison
1069,2,traita
1070,2,traites
1071,2,transports
1072,2,travail
1073,2,tremblant
1074,2,tremblante
1075,2,triompher
1076,2,tristesse
1077,2,trois
1078,2,troisième
1079,2,trompée
1080,2,témoigne
1081,2,témoins
1082,2,tête
1083,2,usurpateur
1084,2,vainqueurs
1085,2,venait
1086,2,venez
1087,2,venger
1088,2,veulent
1089,2,victime
1090,2,violence
1091,2,vit
1092,2,voie
1093,2,voyons
1094,2,vue
1095,2,ziamet
1096,2,échapper
1097,2,écouler
1098,2,élever
1099,2,émeut
1100,2,épargne
1101,2,éprouvais
1102,2,éprouver
1103,2,étions
1104,1,abaisser
1105,1,abaissez
1106,1,abandonnent
1107,1,abandonné
1108,1,abattu
1109,1,abject
1110,1,abois
1111,1,abordent
1112,1,aborder
1113,1,abréger
1114,1,absence
1115,1,absolument
1116,1,abusé
1117,1,abîme
1118,1,accable
1119,1,accepter
1120,1,acceptés
1121,1,accident
1122,1,accordez
1123,1,accords
1124,1,accroîtrai
1125,1,accroître
1126,1,accrût
1127,1,accusai
1128,1,accusant
1129,1,accusateur
1130,1,accusez
1131,1,acheter
1132,1,acheté
1133,1,achevez
1134,1,achevé
1135,1,achève
1136,1,achèverai
1137,1,achèves
1138,1,acquitter
1139,1,acquitterai
1140,1,actions
1141,1,adieux
1142,1,admira
1143,1,admirais
1144,1,adore
1145,1,adorent
1146,1,adoré
1147,1,adouci
1148,1,adoucis
1149,1,adroit
1150,1,advenus
1151,1,adversaire
1152,1,affaiblis
1153,1,afflige
1154,1,affliger
1155,1,affliges
1156,1,affligez
1157,1,affranchissez
1158,1,affront
1159,1,agiriez
1160,1,agirons
1161,1,agis
1162,1,agissent
1163,1,agitée
1164,1,agréable
1165,1,aient
1166,1,ailleurs
1167,1,aimable
1168,1,aimables
1169,1,aimait
1170,1,aimez
1171,1,aisée
1172,1,ajouta
1173,1,ajoute
1174,1,ajouter
1175,1,alarme
1176,1,alarmes
1177,1,alla
1178,1,allai
1179,1,allaient
1180,1,allant
1181,1,allie
1182,1,alluma
1183,1,allèrent
1184,1,allégeance
1185,1,allégresse
1186,1,amante
1187,1,amas
1188,1,amasie
1189,1,ambition
1190,1,amener
1191,1,amené
1192,1,amoindrir
1193,1,amoindrirai
1194,1,amollir
1195,1,animaient
1196,1,animant
1197,1,anime
1198,1,animez
1199,1,animée
1200,1,animées
1201,1,animés
1202,1,annoncer
1203,1,anéantirait
1204,1,appareil
1205,1,apparemment
1206,1,apparences
1207,1,apparent
1208,1,appelaient
1209,1,apportent
1210,1,apprendrais
1211,1,apprendrons
1212,1,apprenez
1213,1,appris
1214,1,approche
1215,1,approcher
1216,1,appréhension
1217,1,arma
1218,1,armement
1219,1,armez
1220,1,arrache
1221,1,arracher
1222,1,arrachèrent
1223,1,arrivent
1224,1,arriver
1225,1,arrogance
1226,1,assaillants
1227,1,assauts
1228,1,assiste
1229,1,assiégea
1230,1,assujettit
1231,1,assure
1232,1,assurée
1233,1,attachement
1234,1,attacher
1235,1,attend
1236,1,attendez
1237,1,attendre
1238,1,attendrissent
1239,1,attentat
1240,1,attique
1241,1,attiraient
1242,1,attirer
1243,1,aucune
1244,1,audace
1245,1,audience
1246,1,auguste
1247,1,auras
1248,1,aurez
1249,1,auriez
1250,1,aurons
1251,1,autorité
1252,1,avance
1253,1,avancer
1254,1,avantageux
1255,1,aventure
1256,1,avertissement
1257,1,avide
1258,1,aviez
1259,1,avoue
1260,1,avouez
1261,1,balancé
1262,1,bande
1263,1,bannis
1264,1,bassas
1265,1,bataille
1266,1,bataillons
1267,1,batte
1268,1,battu
1269,1,beauté
1270,1,beautés
1271,1,belles
1272,1,bienfaits
1273,1,biens
1274,1,bithinie
1275,1,blessure
1276,1,blâment
1277,1,bois
1278,1,bon
1279,1,bonne
1280,1,bonté
1281,1,bontés
1282,1,borné
1283,1,bourreau
1284,1,bouts
1285,1,briguas
1286,1,briser
1287,1,bruit
1288,1,brutaux
1289,1,brysiens
1290,1,cachez
1291,1,cachons
1292,1,caché
1293,1,cage
1294,1,calamités
1295,1,campagne
1296,1,camps
1297,1,capable
1298,1,capadoce
1299,1,capitaine
1300,1,captive
1301,1,caramans
1302,1,caresse
1303,1,caresses
1304,1,carnage
1305,1,carrière
1306,1,causerez
1307,1,causez
1308,1,cavalerie
1309,1,celer
1310,1,celle
1311,1,celles
1312,1,certaine
1313,1,cessant
1314,1,cesserai
1315,1,cham
1316,1,champs
1317,1,changea
1318,1,changement
1319,1,chargez
1320,1,chef
1321,1,cher
1322,1,cherchez
1323,1,cherchions
1324,1,chine
1325,1,choisir
1326,1,choisis
1327,1,choisissions
1328,1,choisit
1329,1,choquant
1330,1,choquent
1331,1,choqué
1332,1,châtiez
1333,1,chéris
1334,1,cilicie
1335,1,clair
1336,1,clameur
1337,1,clef
1338,1,clémence
1339,1,coeurs
1340,1,coin
1341,1,colères
1342,1,combattants
1343,1,combattons
1344,1,combattrai
1345,1,combattrez
1346,1,combattu
1347,1,commandas
1348,1,commandez
1349,1,commets
1350,1,commis
1351,1,commit
1352,1,commun
1353,1,communiquait
1354,1,compagnons
1355,1,complaisance
1356,1,comprendre
1357,1,concerté
1358,1,concertés
1359,1,condamner
1360,1,conditions
1361,1,conduire
1362,1,conduise
1363,1,conduit
1364,1,conduite
1365,1,confidente
1366,1,confie
1367,1,confier
1368,1,confondra
1369,1,confondre
1370,1,conforme
1371,1,confronte
1372,1,confusion
1373,1,conjurerai
1374,1,conjurée
1375,1,connaissance
1376,1,connu
1377,1,connurent
1378,1,conquis
1379,1,conquérant
1380,1,conquérir
1381,1,conquête
1382,1,conseilla
1383,1,consente
1384,1,consentement
1385,1,conservation
1386,1,conserve
1387,1,considérable
1388,1,considérer
1389,1,considérez
1390,1,consolable
1391,1,consoler
1392,1,consolez
1393,1,consomme
1394,1,constantinople
1395,1,consterné
1396,1,consternés
1397,1,consulter
1398,1,consultez
1399,1,conséquence
1400,1,contemple
1401,1,content
1402,1,contenu
1403,1,contestant
1404,1,continuer
1405,1,contraignait
1406,1,corrompre
1407,1,couleur
1408,1,coupables
1409,1,cour
1410,1,courez
1411,1,couronne
1412,1,couronner
1413,1,couronné
1414,1,courroucé
1415,1,courtois
1416,1,couverts
1417,1,couvrira
1418,1,craignent
1419,1,craignez
1420,1,craindre
1421,1,criminelle
1422,1,criminels
1423,1,cris
1424,1,croire
1425,1,croyaient
1426,1,croyez
1427,1,cruauté
1428,1,crus
1429,1,crûs
1430,1,cuisants
1431,1,curiosité
1432,1,cède
1433,1,céda
1434,1,cédât
1435,1,célèbre
1436,1,célébrer
1437,1,daigne
1438,1,dames
1439,1,dangereux
1440,1,dangers
1441,1,degrés
1442,1,delà
1443,1,demanda
1444,1,demandant
1445,1,demandez
1446,1,demandé
1447,1,demeura
1448,1,demeurez
1449,1,descendirent
1450,1,destiner
1451,1,destins
1452,1,destinée
1453,1,devenir
1454,1,devenu
1455,1,deviendrait
1456,1,devine
1457,1,devint
1458,1,diadème
1459,1,dieux
1460,1,diffère
1461,1,différent
1462,1,différez
1463,1,dignes
1464,1,diligence
1465,1,dirai
1466,1,discerner
1467,1,discourez
1468,1,discourons
1469,1,discours
1470,1,dispenser
1471,1,dispose
1472,1,disposer
1473,1,disputa
1474,1,disputer
1475,1,dissiper
1476,1,dissuade
1477,1,dissuader
1478,1,dissuadé
1479,1,dits
1480,1,divan
1481,1,divisez
1482,1,divisé
1483,1,doivent
1484,1,donnai
1485,1,donnaient
1486,1,donnait
1487,1,donnera
1488,1,donnes
1489,1,donnons
1490,1,donnée
1491,1,dons
1492,1,dorez
1493,1,dorés
1494,1,dos
1495,1,douce
1496,1,douceurs
1497,1,douteux
1498,1,doutez
1499,1,doutions
1500,1,doutons
1501,1,dressées
1502,1,dur
1503,1,dussent
1504,1,débordement
1505,1,déclare
1506,1,déclarez
1507,1,déclarés
1508,1,découvert
1509,1,découvrir
1510,1,dédaignant
1511,1,dédaignons
1512,1,défendez
1513,1,défendre
1514,1,défends
1515,1,défense
1516,1,défiance
1517,1,défié
1518,1,déféré
1519,1,dégageons
1520,1,dégagez
1521,1,dégagé
1522,1,déguisez
1523,1,déguisée
1524,1,dégénère
1525,1,délaisse
1526,1,délibère
1527,1,délices
1528,1,délivrances
1529,1,délivrer
1530,1,délivrez
1531,1,démenti
1532,1,déments
1533,1,démons
1534,1,démêler
1535,1,dénaturée
1536,1,dénie
1537,1,départ
1538,1,déplaisirs
1539,1,déplaît
1540,1,déplorent
1541,1,dépossédé
1542,1,dépouille
1543,1,dérobez
1544,1,dés
1545,1,désabusai
1546,1,désarme
1547,1,déserteur
1548,1,désespoir
1549,1,déshérité
1550,1,désirant
1551,1,désirs
1552,1,désiré
1553,1,désobéissance
1554,1,désola
1555,1,détacha
1556,1,détail
1557,1,déterminer
1558,1,déteste
1559,1,détesté
1560,1,détruit
1561,1,détrôné
1562,1,dévorer
1563,1,déçu
1564,1,dû
1565,1,effets
1566,1,effroi
1567,1,embrasa
1568,1,embrasser
1569,1,emmène
1570,1,empereur
1571,1,emploie
1572,1,employer
1573,1,employons
1574,1,empêcha
1575,1,empêchai
1576,1,empêche
1577,1,empêcherai
1578,1,enchaîner
1579,1,endroit
1580,1,endurci
1581,1,endure
1582,1,enfla
1583,1,enfreindre
1584,1,engage
1585,1,engager
1586,1,engagé
1587,1,ennui
1588,1,ennuyé
1589,1,enorgueilli
1590,1,enrichi
1591,1,enseignez
1592,1,entendez
1593,1,entends
1594,1,entière
1595,1,entoure
1596,1,entrechoquer
1597,1,entreprends
1598,1,entrerez
1599,1,entretien
1600,1,entretiens
1601,1,entrez
1602,1,entrions
1603,1,envahi
1604,1,envahir
1605,1,envelopper
1606,1,environne
1607,1,envisageant
1608,1,escadron
1609,1,espoir
1610,1,espèce
1611,1,espérer
1612,1,essaye
1613,1,essuyai
1614,1,estimer
1615,1,eurent
1616,1,europe
1617,1,excès
1618,1,exemple
1619,1,exemptez
1620,1,exerce
1621,1,exercer
1622,1,exiger
1623,1,expier
1624,1,expirant
1625,1,expirer
1626,1,exposer
1627,1,exposez
1628,1,exposée
1629,1,exécuteur
1630,1,eût
1631,1,face
1632,1,faille
1633,1,faisait
1634,1,faisant
1635,1,faits
1636,1,fallut
1637,1,fameux
1638,1,faudra
1639,1,fera
1640,1,ferais
1641,1,feu
1642,1,fidélité
1643,1,fiel
1644,1,fiers
1645,1,fierté
1646,1,fions
1647,1,flambeau
1648,1,flammes
1649,1,flanc
1650,1,flattais
1651,1,flattait
1652,1,flatte
1653,1,fleuve
1654,1,flèche
1655,1,fléaux
1656,1,fléchi
1657,1,fonde
1658,1,fondent
1659,1,fondez
1660,1,fonds
1661,1,forcent
1662,1,formais
1663,1,forme
1664,1,formé
1665,1,fortes
1666,1,força
1667,1,forêt
1668,1,franchi
1669,1,franchises
1670,1,francs
1671,1,frapper
1672,1,frappée
1673,1,frein
1674,1,frémir
1675,1,frémis
1676,1,frémit
1677,1,fréquents
1678,1,fuir
1679,1,furie
1680,1,fuyais
1681,1,fûtes
1682,1,gagna
1683,1,gagnait
1684,1,gagné
1685,1,gain
1686,1,galatie
1687,1,gardent
1688,1,garderai
1689,1,gens
1690,1,glorifia
1691,1,glorifier
1692,1,grandes
1693,1,grosses
1694,1,grossi
1695,1,grâces
1696,1,guerriers
1697,1,guerrière
1698,1,guide
1699,1,générale
1700,1,généraux
1701,1,générosités
1702,1,haleine
1703,1,hasarder
1704,1,haut
1705,1,hautain
1706,1,hauts
1707,1,haï
1708,1,haïr
1709,1,haïssons
1710,1,heureuse
1711,1,heurs
1712,1,heurté
1713,1,histoire
1714,1,hongres
1715,1,honorés
1716,1,horrible
1717,1,humain
1718,1,humains
1719,1,humble
1720,1,humilier
1721,1,hymen
1722,1,hâta
1723,1,ic
1724,1,ignorance
1725,1,ignore
1726,1,ignorez
1727,1,imagine
1728,1,immense
1729,1,immolai
1730,1,immole
1731,1,imparfaits
1732,1,impatience
1733,1,implore
1734,1,implorent
1735,1,importance
1736,1,impose
1737,1,imprudente
1738,1,impuissance
1739,1,impuissant
1740,1,impunis
1741,1,imputent
1742,1,imputer
1743,1,impériale
1744,1,impétueux
1745,1,incendie
1746,1,incertitude
1747,1,incline
1748,1,incomparable
1749,1,inconnus
1750,1,inde
1751,1,indifféremment
1752,1,indignation
1753,1,indignes
1754,1,indulgente
1755,1,infaillible
1756,1,infidèles
1757,1,infidélité
1758,1,infini
1759,1,infinie
1760,1,infinis
1761,1,informe
1762,1,informez
1763,1,infortuné
1764,1,infâme
1765,1,ingrat
1766,1,ingrate
1767,1,ingrats
1768,1,ingénument
1769,1,inhumain
1770,1,inhumains
1771,1,inimitié
1772,1,injuste
1773,1,innocent
1774,1,innombrable
1775,1,insigne
1776,1,insolente
1777,1,instants
1778,1,instinct
1779,1,instruits
1780,1,instrument
1781,1,instruments
1782,1,intéresse
1783,1,intéressez
1784,1,inutile
1785,1,inutiles
1786,1,irai
1787,1,irait
1788,1,irons
1789,1,irrite
1790,1,irrité
1791,1,issue
1792,1,jetait
1793,1,jette
1794,1,jeté
1795,1,joignaient
1796,1,jouiras
1797,1,jouis
1798,1,jouissance
1799,1,jouisse
1800,1,joyeux
1801,1,jugement
1802,1,jura
1803,1,jurer
1804,1,laissai
1805,1,laissais
1806,1,laissant
1807,1,laisser
1808,1,laissée
1809,1,lance
1810,1,lancer
1811,1,langue
1812,1,larcin
1813,1,lasse
1814,1,lassent
1815,1,lassé
1816,1,laver
1817,1,levai
1818,1,levez
1819,1,libre
1820,1,liens
1821,1,ligue
1822,1,lisez
1823,1,loisir
1824,1,loua
1825,1,louais
1826,1,lumière
1827,1,lycaonie
1828,1,lâchant
1829,1,macédoniens
1830,1,magnificence
1831,1,mail
1832,1,maintenant
1833,1,maintenir
1834,1,maintien
1835,1,maison
1836,1,majesté
1837,1,maltraita
1838,1,manifeste
1839,1,manquer
1840,1,manquiez
1841,1,marquait
1842,1,matin
1843,1,maxime
1844,1,meilleur
1845,1,menaces
1846,1,merveilleuse
1847,1,messagers
1848,1,mettant
1849,1,mette
1850,1,mettez
1851,1,mettrai
1852,1,meure
1853,1,meurt
1854,1,meurtrier
1855,1,mienne
1856,1,milieu
1857,1,ministres
1858,1,mis
1859,1,mise
1860,1,misère
1861,1,mit
1862,1,moments
1863,1,monarques
1864,1,monnaie
1865,1,montas
1866,1,monter
1867,1,montrent
1868,1,montrez
1869,1,montré
1870,1,monté
1871,1,mortelles
1872,1,motifs
1873,1,mourant
1874,1,mourrai
1875,1,mouvement
1876,1,moyens
1877,1,médita
1878,1,méditent
1879,1,méditer
1880,1,ménager
1881,1,mépris
1882,1,mériter
1883,1,méritée
1884,1,mêlerait
1885,1,naquis
1886,1,natolie
1887,1,naturelles
1888,1,naturels
1889,1,naît
1890,1,naîtrait
1891,1,naître
1892,1,nicée
1893,1,nom
1894,1,nomma
1895,1,nouvel
1896,1,nouvelles
1897,1,noyait
1898,1,nuirais
1899,1,nuire
1900,1,nulle
1901,1,nécessaire
1902,1,nécessité
1903,1,négligeant
1904,1,négligez
1905,1,nôtre
1906,1,oblige
1907,1,obligeants
1908,1,obligé
1909,1,obstacle
1910,1,obstination
1911,1,obtiendra
1912,1,obéir
1913,1,obéirez
1914,1,obéissance
1915,1,obéissant
1916,1,occupent
1917,1,offrez
1918,1,offrirent
1919,1,offrirez
1920,1,offrit
1921,1,ombre
1922,1,opposa
1923,1,oppose
1924,1,opprime
1925,1,opprimé
1926,1,ordonna
1927,1,ordonne
1928,1,ordonné
1929,1,ordres
1930,1,orgueil
1931,1,orthobule
1932,1,osant
1933,1,osent
1934,1,oser
1935,1,ottoman
1936,1,ottomane
1937,1,oublié
1938,1,ouvert
1939,1,ouverture
1940,1,ouvrage
1941,1,ouvre
1942,1,ouvrons
1943,1,ouïr
1944,1,pamphilie
1945,1,pante
1946,1,pardon
1947,1,pardonne
1948,1,pardonnerais
1949,1,parer
1950,1,parla
1951,1,parles
1952,1,parliez
1953,1,parricides
1954,1,partager
1955,1,parti
1956,1,participer
1957,1,partir
1958,1,partisan
1959,1,parurent
1960,1,passer
1961,1,passé
1962,1,passées
1963,1,patrie
1964,1,pavillons
1965,1,paye
1966,1,peinture
1967,1,penchant
1968,1,penche
1969,1,pensais
1970,1,pensez
1971,1,percé
1972,1,perd
1973,1,perdrai
1974,1,perdrais
1975,1,perfides
1976,1,perfidie
1977,1,permets
1978,1,permettre
1979,1,personnes
1980,1,persécute
1981,1,persécuter
1982,1,pertes
1983,1,pesant
1984,1,pesants
1985,1,peuvent
1986,1,phocide
1987,1,pire
1988,1,piété
1989,1,place
1990,1,placer
1991,1,plaie
1992,1,plaignant
1993,1,plaignis
1994,1,plaine
1995,1,plaines
1996,1,plaint
1997,1,plaisait
1998,1,plein
1999,1,pleurais
2000,1,plier
2001,1,plonger
2002,1,pointe
2003,1,pompe
2004,1,pont
2005,1,portants
2006,1,porterez
2007,1,porté
2008,1,portés
2009,1,possesseur
2010,1,possédera
2011,1,posséderas
2012,1,pourrez
2013,1,poursuite
2014,1,poursuivit
2015,1,poussaient
2016,1,poussé
2017,1,prendrais
2018,1,prendrez
2019,1,prenez
2020,1,prenne
2021,1,prennent
2022,1,prenons
2023,1,prescris
2024,1,presse
2025,1,pressez
2026,1,pressiez
2027,1,preuve
2028,1,prigiens
2029,1,princesses
2030,1,prisonnière
2031,1,prisonnières
2032,1,prisons
2033,1,prit
2034,1,prières
2035,1,proche
2036,1,procède
2037,1,procédé
2038,1,prodigieux
2039,1,prodiguent
2040,1,produit
2041,1,profusions
2042,1,progrès
2043,1,projet
2044,1,projettent
2045,1,projeté
2046,1,prolonge
2047,1,prolongeais
2048,1,prolonger
2049,1,promesse
2050,1,promets
2051,1,promettre
2052,1,promptement
2053,1,promène
2054,1,prononce
2055,1,prononcer
2056,1,prononces
2057,1,propice
2058,1,proposez
2059,1,protesta
2060,1,protèges
2061,1,prouver
2062,1,prouvera
2063,1,précéder
2064,1,préfère
2065,1,préférons
2066,1,prépare
2067,1,préparer
2068,1,prés
2069,1,présagé
2070,1,présentant
2071,1,présentes
2072,1,présumer
2073,1,présumé
2074,1,prétendre
2075,1,prévalant
2076,1,prévu
2077,1,prêts
2078,1,puissamment
2079,1,puissiez
2080,1,punis
2081,1,pâlis
2082,1,pâlissez
2083,1,pâmant
2084,1,péché
2085,1,pénétrer
2086,1,périrai
2087,1,péris
2088,1,pût
2089,1,quatre
2090,1,quelles
2091,1,querelles
2092,1,quitta
2093,1,quittant
2094,1,racheter
2095,1,rage
2096,1,raisonnable
2097,1,raisonnement
2098,1,ramène
2099,1,ranime
2100,1,rapporte
2101,1,rare
2102,1,ravale
2103,1,ravalé
2104,1,ravi
2105,1,ravies
2106,1,ravis
2107,1,ravissant
2108,1,ravit
2109,1,rebelles
2110,1,recevait
2111,1,recevras
2112,1,rechercher
2113,1,reconnais
2114,1,reconnaissez
2115,1,recule
2116,1,redirai
2117,1,redonnez
2118,1,redoublez
2119,1,redoutable
2120,1,redoute
2121,1,refuge
2122,1,refus
2123,1,regardai
2124,1,regardent
2125,1,regarderiez
2126,1,regards
2127,1,relâche
2128,1,relèverai
2129,1,remarquer
2130,1,remets
2131,1,remettant
2132,1,remette
2133,1,remettrais
2134,1,remis
2135,1,remonté
2136,1,rempli
2137,1,remplis
2138,1,rencontrant
2139,1,rencontrer
2140,1,rencontrerais
2141,1,rencontrée
2142,1,rende
2143,1,rendit
2144,1,rendra
2145,1,rendrai
2146,1,renom
2147,1,rentrerai
2148,1,renverrait
2149,1,renversai
2150,1,renversant
2151,1,renverse
2152,1,renvoie
2153,1,renvoyaient
2154,1,renvoyer
2155,1,repartie
2156,1,repartir
2157,1,repentir
2158,1,reprenez
2159,1,repris
2160,1,reprit
2161,1,reproche
2162,1,respirer
2163,1,ressembler
2164,1,ressentez
2165,1,ressenti
2166,1,restituait
2167,1,retenir
2168,1,retenons
2169,1,retenu
2170,1,retienne
2171,1,retire
2172,1,retraite
2173,1,retraçons
2174,1,revenons
2175,1,reviens
2176,1,revis
2177,1,revit
2178,1,revivre
2179,1,revoyez
2180,1,rigoureux
2181,1,rivale
2182,1,rivaux
2183,1,romps
2184,1,rompus
2185,1,rouge
2186,1,rougirait
2187,1,rougit
2188,1,ruse
2189,1,règne
2190,1,récompenser
2191,1,régir
2192,1,répandre
2193,1,répandu
2194,1,répondras
2195,1,réprimer
2196,1,répugne
2197,1,réservée
2198,1,résiste
2199,1,résolve
2200,1,résolvez
2201,1,réunir
2202,1,sache
2203,1,sachez
2204,1,sacrificateur
2205,1,sacrifice
2206,1,sacrifié
2207,1,sacrés
2208,1,saisi
2209,1,saisir
2210,1,salaire
2211,1,sanglants
2212,1,satisfaits
2213,1,saurait
2214,1,sauve
2215,1,sauverai
2216,1,sauvez
2217,1,sauvé
2218,1,sauvée
2219,1,savent
2220,1,scandale
2221,1,sceptre
2222,1,scytie
2223,1,sebaste
2224,1,secondait
2225,1,seconder
2226,1,secouer
2227,1,secourir
2228,1,secrètement
2229,1,seigneurs
2230,1,sembla
2231,1,semblables
2232,1,semblaient
2233,1,semblait
2234,1,semblant
2235,1,semblants
2236,1,semblent
2237,1,semée
2238,1,sens
2239,1,sent
2240,1,sentant
2241,1,sente
2242,1,sentence
2243,1,senti
2244,1,sentier
2245,1,sentit
2246,1,sentîmes
2247,1,serais
2248,1,serrez
2249,1,servez
2250,1,serviteur
2251,1,sestes
2252,1,seuls
2253,1,sexe
2254,1,sien
2255,1,sienne
2256,1,signe
2257,1,simple
2258,1,soldat
2259,1,solde
2260,1,soleil
2261,1,solyman
2262,1,sommes
2263,1,sommet
2264,1,sortant
2265,1,sorte
2266,1,sortent
2267,1,sortie
2268,1,sortons
2269,1,souffert
2270,1,souffertes
2271,1,soufferts
2272,1,souffraient
2273,1,souffrance
2274,1,souffriront
2275,1,souhait
2276,1,soumettre
2277,1,soumises
2278,1,soupirer
2279,1,soupçonne
2280,1,soupçonner
2281,1,soupçons
2282,1,soustraire
2283,1,soutenez
2284,1,soutient
2285,1,souveraines
2286,1,souveraineté
2287,1,souvient
2288,1,succombe
2289,1,suffit
2290,1,suffrage
2291,1,suivant
2292,1,suive
2293,1,suivent
2294,1,suivons
2295,1,supportable
2296,1,suprême
2297,1,surmonte
2298,1,surnommé
2299,1,surpasse
2300,1,surpassé
2301,1,surprendre
2302,1,surprise
2303,1,survivre
2304,1,suspect
2305,1,suspendons
2306,1,taisez
2307,1,tard
2308,1,tardes
2309,1,tarissez
2310,1,tartare
2311,1,tartarie
2312,1,tempête
2313,1,tenant
2314,1,tendresse
2315,1,teneur
2316,1,tenta
2317,1,tentez
2318,1,terreur
2319,1,tien
2320,1,tiendra
2321,1,tiendrait
2322,1,tiennent
2323,1,tiers
2324,1,tira
2325,1,tirer
2326,1,tombeau
2327,1,torrent
2328,1,touchée
2329,1,tourment
2330,1,tourments
2331,1,tournant
2332,1,tourne
2333,1,toutefois
2334,1,tracent
2335,1,tracer
2336,1,tracé
2337,1,tracées
2338,1,trahissions
2339,1,trahit
2340,1,trait
2341,1,traitable
2342,1,traitait
2343,1,traitant
2344,1,traiter
2345,1,traitons
2346,1,traité
2347,1,traités
2348,1,transport
2349,1,travaille
2350,1,travaux
2351,1,travers
2352,1,traverse
2353,1,tremble
2354,1,tremblements
2355,1,trembler
2356,1,trempée
2357,1,tribales
2358,1,tribut
2359,1,tristesses
2360,1,trompe
2361,1,tromper
2362,1,trouva
2363,1,trouves
2364,1,trouvons
2365,1,trêve
2366,1,trônes
2367,1,tua
2368,1,tuera
2369,1,turcomans
2370,1,tuée
2371,1,tyrans
2372,1,tâche
2373,1,témoignez
2374,1,témoin
2375,1,téméraire
2376,1,tôt
2377,1,unique
2378,1,usage
2379,1,user
2380,1,usurpé
2381,1,utilement
2382,1,utilité
2383,1,vaillance
2384,1,vaillants
2385,1,vaincre
2386,1,vaincus
2387,1,vaine
2388,1,vainquis
2389,1,vains
2390,1,vaste
2391,1,vastes
2392,1,vaut
2393,1,venaient
2394,1,venant
2395,1,vendre
2396,1,venge
2397,1,vengent
2398,1,vengé
2399,1,venu
2400,1,verra
2401,1,versai
2402,1,veuille
2403,1,viendraient
2404,1,viendrait
2405,1,vienne
2406,1,vies
2407,1,vigueurs
2408,1,villes
2409,1,vingt
2410,1,vinrent
2411,1,violent
2412,1,vitesse
2413,1,vivait
2414,1,vivant
2415,1,voeu
2416,1,voilà
2417,1,voisins
2418,1,vol
2419,1,volai
2420,1,voler
2421,1,voles
2422,1,voleur
2423,1,volonté
2424,1,volontés
2425,1,voudriez
2426,1,voulait
2427,1,voulu
2428,1,voyaient
2429,1,vraie
2430,1,vraisemblablement
2431,1,vécu
2432,1,vêtement
2433,1,vîmes
2434,1,ébranlement
2435,1,ébranlent
2436,1,ébranler
2437,1,échanger
2438,1,échangerait
2439,1,échangez
2440,1,échappés
2441,1,éclaircissement
2442,1,éclatante
2443,1,éclatez
2444,1,écoute
2445,1,écouter
2446,1,égal
2447,1,égale
2448,1,égaux
2449,1,éleva
2450,1,élevé
2451,1,élire
2452,1,éloignez
2453,1,éminemment
2454,1,épaisse
2455,1,épouvante
2456,1,épouvanter
2457,1,épris
2458,1,épuisé
2459,1,établirai
2460,1,étale
2461,1,éteindre
2462,1,étend
2463,1,étendant
2464,1,étendards
2465,1,éternel
2466,1,éternelles
2467,1,étonner
2468,1,étrangères
2469,1,été
2470,1,évadent
2471,1,évader
2472,1,évasion
2473,1,évidente
2474,1,événement
2475,1,ôtez
2476,1,ôtons
