1,478,de
2,430,et
3,364,je
4,337,vous
5,296,que
6,255,l
7,245,le
8,244,à
9,232,mon
10,221,en
11,209,il
12,200,un
13,196,la
14,194,est
15,176,d
16,174,qu
17,153,ce
18,140,me
19,137,ne
20,132,ma
21,126,j
22,122,m
23,111,dans
24,102,les
25,100,tu
26,92,mes
27,86,elle
28,86,moi
29,85,si
30,84,point
31,80,pour
32,79,bien
33,77,qui
34,76,orondate
35,74,des
36,74,n
37,74,par
38,74,votre
39,73,âme
40,72,a
41,72,ai
42,71,te
43,68,son
44,67,nous
45,66,se
46,65,une
47,64,tous
48,61,s
49,60,plus
50,60,ta
51,59,perdicas
52,56,coeur
53,55,amour
54,54,sa
55,54,ton
56,54,y
57,53,ah
58,53,ils
59,53,toi
60,51,lui
61,51,t
62,51,yeux
63,50,au
64,48,c
65,48,on
66,47,leur
67,47,mort
68,46,mais
69,44,fait
70,44,même
71,44,tout
72,42,avec
73,42,nos
74,42,pas
75,41,ces
76,41,voir
77,39,comme
78,39,vos
79,38,du
80,38,où
81,37,sur
82,37,tes
83,37,veux
84,36,roxane
85,35,deux
86,34,aux
87,34,ses
88,33,ou
89,31,cet
90,31,faut
91,31,madame
92,30,dedans
93,29,cette
94,29,ont
95,28,statira
96,28,suis
97,27,prince
98,26,moins
99,26,va
100,25,notre
101,25,quelque
102,25,rendre
103,23,autre
104,23,avez
105,23,contre
106,23,donne
107,23,hé
108,23,leurs
109,23,non
110,23,trop
111,23,être
112,22,grand
113,22,quand
114,22,reine
115,22,sang
116,22,sens
117,21,alexandre
118,21,dieux
119,21,puis
120,21,quoi
121,21,toute
122,20,arbate
123,20,cassander
124,20,ennemis
125,20,rivale
126,19,dont
127,19,faire
128,19,ici
129,19,peut
130,19,pouvoir
131,19,sans
132,19,sont
133,18,avoir
134,18,bras
135,18,quel
136,18,veut
137,18,vie
138,17,après
139,17,main
140,17,moment
141,17,rival
142,17,séleucus
143,17,vois
144,16,enfin
145,16,mains
146,16,ni
147,15,crime
148,15,grands
149,15,haine
150,15,peu
151,15,rien
152,15,tant
153,15,viens
154,14,aussi
155,14,dessein
156,14,dessus
157,14,digne
158,14,donc
159,14,fut
160,14,peine
161,14,soldats
162,14,trépas
163,14,état
164,13,cruel
165,13,dit
166,13,force
167,13,jour
168,13,laisse
169,13,là
170,13,princesse
171,13,sort
172,12,avecque
173,12,celui
174,12,devant
175,12,envie
176,12,fais
177,12,grâce
178,12,honneur
179,12,mourir
180,12,part
181,12,pu
182,12,rends
183,12,tour
184,11,ait
185,11,amant
186,11,barbare
187,11,entre
188,11,horreur
189,11,hézionne
190,11,jaloux
191,11,jusqu
192,11,mal
193,11,premier
194,11,présence
195,11,puisque
196,11,souffrir
197,11,temps
198,11,était
199,10,allons
200,10,avant
201,10,beau
202,10,crimes
203,10,crois
204,10,défendre
205,10,encor
206,10,funeste
207,10,lieux
208,10,loi
209,10,lâche
210,10,porte
211,10,présent
212,10,recevoir
213,10,sais
214,10,sentiment
215,10,seul
216,10,trouve
217,10,voeux
218,10,voulez
219,10,égale
220,9,ainsi
221,9,avait
222,9,cause
223,9,cent
224,9,chez
225,9,courroux
226,9,dernier
227,9,empire
228,9,ennemi
229,9,entretien
230,9,femme
231,9,flatte
232,9,malheur
233,9,meurs
234,9,mis
235,9,nom
236,9,parmi
237,9,passion
238,9,prix
239,9,quelle
240,9,quoique
241,9,rage
242,9,secret
243,9,êtes
244,8,abandonne
245,8,aime
246,8,amitié
247,8,amours
248,8,armes
249,8,assez
250,8,attends
251,8,coup
252,8,cour
253,8,cours
254,8,dois
255,8,désespoir
256,8,eux
257,8,fatal
258,8,fureur
259,8,heureux
260,8,ingrate
261,8,malgré
262,8,maux
263,8,mieux
264,8,mouvements
265,8,ordre
266,8,ose
267,8,oui
268,8,plaisir
269,8,rivaux
270,8,saurai
271,8,sera
272,8,soi
273,8,toujours
274,8,transports
275,8,univers
276,8,vivre
277,8,vu
278,7,allez
279,7,amène
280,7,artaxerxe
281,7,aucun
282,7,aura
283,7,avantage
284,7,bonheur
285,7,celle
286,7,chaque
287,7,conserver
288,7,coupable
289,7,côté
290,7,demande
291,7,doit
292,7,douleur
293,7,désirs
294,7,effet
295,7,faveur
296,7,foi
297,7,garder
298,7,horrible
299,7,indigne
300,7,infidèle
301,7,ingrat
302,7,instant
303,7,malheurs
304,7,moitié
305,7,murs
306,7,objet
307,7,palais
308,7,prend
309,7,puisqu
310,7,remords
311,7,reste
312,7,rigueur
313,7,sein
314,7,seule
315,7,soin
316,7,souffrez
317,7,sous
318,7,tomber
319,7,vain
320,7,vainqueur
321,7,vengeance
322,7,victoire
323,7,vient
324,7,vue
325,7,ô
326,6,aimable
327,6,aimer
328,6,appas
329,6,ardeur
330,6,arrête
331,6,as
332,6,attentats
333,6,avais
334,6,aveu
335,6,ayant
336,6,bientôt
337,6,ciel
338,6,combat
339,6,corps
340,6,demeure
341,6,devoir
342,6,dire
343,6,don
344,6,double
345,6,dès
346,6,effroyable
347,6,encore
348,6,espoir
349,6,estime
350,6,eût
351,6,faites
352,6,fit
353,6,fois
354,6,jours
355,6,liberté
356,6,lysimachus
357,6,mien
358,6,monde
359,6,mourrai
360,6,mépris
361,6,objets
362,6,oeil
363,6,personne
364,6,pitié
365,6,première
366,6,prends
367,6,prétendre
368,6,périr
369,6,rendant
370,6,ressentiment
371,6,sentiments
372,6,serait
373,6,servir
374,6,trouver
375,6,vais
376,6,verrai
377,6,visage
378,6,voyant
379,6,étant
380,6,éternel
381,6,ôte
382,5,abord
383,5,arrêt
384,5,aujourd
385,5,aurai
386,5,babylone
387,5,bienfait
388,5,charmes
389,5,conseil
390,5,conserve
391,5,coups
392,5,donnant
393,5,donnez
394,5,donné
395,5,droit
396,5,endure
397,5,excès
398,5,fasse
399,5,fin
400,5,finir
401,5,forfaits
402,5,honte
403,5,honteux
404,5,hui
405,5,jalousie
406,5,joie
407,5,jusques
408,5,lieu
409,5,malheureux
410,5,mille
411,5,nuire
412,5,office
413,5,offre
414,5,outrage
415,5,parler
416,5,partout
417,5,passions
418,5,pense
419,5,pieds
420,5,plutôt
421,5,portes
422,5,pris
423,5,propre
424,5,puissance
425,5,puisse
426,5,quels
427,5,regarde
428,5,repos
429,5,respect
430,5,secourir
431,5,semble
432,5,sensible
433,5,sent
434,5,sentir
435,5,sien
436,5,silence
437,5,soit
438,5,soupirs
439,5,su
440,5,suivant
441,5,supplice
442,5,tel
443,5,terre
444,5,tiens
445,5,tremblant
446,5,triste
447,5,tête
448,5,vertu
449,5,viennent
450,5,ville
451,5,vis
452,5,vivez
453,5,volonté
454,5,voulu
455,5,vôtre
456,5,échapper
457,5,égal
458,5,ôter
459,4,accorder
460,4,agir
461,4,amante
462,4,amants
463,4,amoureux
464,4,animer
465,4,armé
466,4,armée
467,4,attentat
468,4,audace
469,4,aurait
470,4,autres
471,4,aviez
472,4,bouche
473,4,ceux
474,4,changement
475,4,cherchant
476,4,choisir
477,4,choix
478,4,connaissance
479,4,consolé
480,4,cruautés
481,4,cruelle
482,4,daignez
483,4,dessous
484,4,dieu
485,4,dis
486,4,dites
487,4,divin
488,4,divinité
489,4,donner
490,4,douleurs
491,4,doux
492,4,déjà
493,4,désir
494,4,effort
495,4,ensemble
496,4,entendre
497,4,entreprise
498,4,esclave
499,4,esprit
500,4,esprits
501,4,exécuter
502,4,faits
503,4,fatale
504,4,faux
505,4,faveurs
506,4,ferai
507,4,ferez
508,4,feu
509,4,furie
510,4,furieux
511,4,gloire
512,4,heure
513,4,hors
514,4,humains
515,4,hélas
516,4,immortelle
517,4,inhumaine
518,4,intérêt
519,4,irrite
520,4,juge
521,4,jusque
522,4,juste
523,4,laisser
524,4,larmes
525,4,lasse
526,4,longs
527,4,manifeste
528,4,moments
529,4,mortel
530,4,mourras
531,4,mémoire
532,4,mériter
533,4,nature
534,4,nombre
535,4,odieux
536,4,ouïr
537,4,pardon
538,4,pendant
539,4,permettez
540,4,place
541,4,plaire
542,4,plaisirs
543,4,pleine
544,4,pourrai
545,4,pourrait
546,4,presque
547,4,proie
548,4,promesse
549,4,propose
550,4,propres
551,4,présente
552,4,périra
553,4,quoiqu
554,4,raison
555,4,rang
556,4,ravir
557,4,refuse
558,4,regret
559,4,rempli
560,4,rendez
561,4,retour
562,4,revoir
563,4,roi
564,4,rougir
565,4,rude
566,4,résoudre
567,4,satisfaire
568,4,sauver
569,4,seconde
570,4,seigneur
571,4,sentence
572,4,sortir
573,4,souhaits
574,4,souvent
575,4,spectacle
576,4,suivi
577,4,traits
578,4,traité
579,4,trois
580,4,venant
581,4,venir
582,4,verrez
583,4,victime
584,4,voici
585,4,voix
586,4,voulut
587,3,absence
588,3,accabler
589,3,agréables
590,3,ailleurs
591,3,ajoute
592,3,alarmes
593,3,alcétas
594,3,aller
595,3,amis
596,3,appartement
597,3,arrive
598,3,attendez
599,3,attendre
600,3,auront
601,3,autel
602,3,aveuglement
603,3,belle
604,3,biens
605,3,but
606,3,capable
607,3,cassandre
608,3,cesse
609,3,chacun
610,3,cher
611,3,commande
612,3,complaisant
613,3,compte
614,3,consens
615,3,considérable
616,3,contemplant
617,3,contente
618,3,contentement
619,3,conçoit
620,3,courage
621,3,crains
622,3,criminel
623,3,céder
624,3,daigne
625,3,demandent
626,3,demander
627,3,demi
628,3,devenir
629,3,discours
630,3,dédains
631,3,défense
632,3,désespéré
633,3,désire
634,3,désirez
635,3,détourne
636,3,détruire
637,3,emploi
638,3,emporte
639,3,emporter
640,3,entraîne
641,3,entrer
642,3,entretenir
643,3,entrée
644,3,es
645,3,expliquez
646,3,exécuteur
647,3,faiblesse
648,3,faudra
649,3,façon
650,3,ferait
651,3,fers
652,3,fier
653,3,fille
654,3,flamme
655,3,formé
656,3,fort
657,3,foudre
658,3,frayeurs
659,3,fureurs
660,3,furieuse
661,3,fus
662,3,genoux
663,3,grande
664,3,grandeur
665,3,généreux
666,3,haut
667,3,haïr
668,3,homme
669,3,hommes
670,3,idée
671,3,imaginer
672,3,impuissance
673,3,inhumains
674,3,innocence
675,3,innocent
676,3,insensible
677,3,insigne
678,3,issue
679,3,levez
680,3,loin
681,3,long
682,3,longtemps
683,3,lors
684,3,manque
685,3,martyre
686,3,maîtresse
687,3,mets
688,3,meurt
689,3,moindre
690,3,montré
691,3,mortelle
692,3,mourra
693,3,mouvement
694,3,moyens
695,3,murailles
696,3,naissance
697,3,naturel
698,3,néarchus
699,3,nôtre
700,3,obligée
701,3,obéir
702,3,offenser
703,3,oses
704,3,pareils
705,3,parle
706,3,parlez
707,3,parti
708,3,partie
709,3,partis
710,3,passage
711,3,pensant
712,3,pensez
713,3,perdrai
714,3,perdre
715,3,peux
716,3,poignard
717,3,porter
718,3,possédée
719,3,pouvant
720,3,prendront
721,3,prononcer
722,3,prétends
723,3,puissant
724,3,puni
725,3,quiconque
726,3,quittant
727,3,quitte
728,3,raisons
729,3,redevable
730,3,refuge
731,3,regard
732,3,regards
733,3,remet
734,3,remparts
735,3,rencontre
736,3,rende
737,3,rendu
738,3,rentrer
739,3,repentir
740,3,reprends
741,3,ressentiments
742,3,ressouvenir
743,3,retenir
744,3,reçois
745,3,reçoit
746,3,règne
747,3,réduire
748,3,régner
749,3,résolvez
750,3,saisie
751,3,sait
752,3,salut
753,3,sauvant
754,3,savez
755,3,second
756,3,secours
757,3,service
758,3,seulement
759,3,siens
760,3,soeur
761,3,souci
762,3,souffre
763,3,soupir
764,3,souvenir
765,3,suit
766,3,supporter
767,3,surprendre
768,3,suspendu
769,3,tels
770,3,tenir
771,3,tirer
772,3,tombeau
773,3,travaux
774,3,traître
775,3,traîtres
776,3,tristesse
777,3,trône
778,3,témoins
779,3,témérité
780,3,vaine
781,3,vers
782,3,veuve
783,3,voilà
784,3,volontés
785,3,vouloir
786,3,également
787,3,émue
788,3,épée
789,3,étais
790,3,éternelle
791,3,étonne
792,3,été
793,3,évite
794,3,événement
795,2,accable
796,2,accompagné
797,2,accord
798,2,achevez
799,2,acquis
800,2,actions
801,2,adieu
802,2,adorable
803,2,adversaires
804,2,affaiblit
805,2,agréerais
806,2,aille
807,2,aimerais
808,2,aisé
809,2,ambition
810,2,amoureuse
811,2,apprenez
812,2,approche
813,2,appui
814,2,arracher
815,2,artifices
816,2,asile
817,2,assembler
818,2,assiégeants
819,2,assoupissement
820,2,aucune
821,2,auparavant
822,2,auriez
823,2,avaient
824,2,avis
825,2,avons
826,2,banni
827,2,bannir
828,2,bannissement
829,2,barbarie
830,2,batailles
831,2,beaux
832,2,belles
833,2,bienfaiteur
834,2,bienheureux
835,2,blâme
836,2,bout
837,2,brave
838,2,camp
839,2,cassender
840,2,cependant
841,2,changeant
842,2,charme
843,2,chasse
844,2,chaîne
845,2,cherche
846,2,cherchez
847,2,cherché
848,2,choir
849,2,choquer
850,2,chose
851,2,choses
852,2,chute
853,2,châtier
854,2,châtiment
855,2,chèrement
856,2,cinq
857,2,clémence
858,2,colère
859,2,combattre
860,2,commandement
861,2,commence
862,2,commis
863,2,comparable
864,2,complice
865,2,conclu
866,2,conduise
867,2,conduisez
868,2,confident
869,2,connus
870,2,conquis
871,2,conseils
872,2,consentir
873,2,conservez
874,2,contenance
875,2,contentements
876,2,contraindre
877,2,conçue
878,2,craignez
879,2,crainte
880,2,criminels
881,2,cruels
882,2,créer
883,2,dehors
884,2,delà
885,2,demandez
886,2,dernière
887,2,destin
888,2,devais
889,2,devez
890,2,deviens
891,2,différent
892,2,dignes
893,2,divine
894,2,donnais
895,2,dure
896,2,défaits
897,2,défaut
898,2,délaissant
899,2,délicat
900,2,délicate
901,2,délicieux
902,2,démon
903,2,dépit
904,2,déplaisir
905,2,déplaisirs
906,2,déplorables
907,2,détours
908,2,effets
909,2,efforts
910,2,effrayer
911,2,effrayés
912,2,effroi
913,2,embrasse
914,2,empêchant
915,2,empêcher
916,2,enceinte
917,2,endroits
918,2,enlever
919,2,ennemie
920,2,enragée
921,2,ensuite
922,2,entretient
923,2,envoyez
924,2,espérez
925,2,eus
926,2,eut
927,2,exhaler
928,2,exil
929,2,expire
930,2,expirer
931,2,explique
932,2,exprimer
933,2,eûtes
934,2,faible
935,2,faisant
936,2,fallait
937,2,fer
938,2,fermeté
939,2,feront
940,2,fidèle
941,2,font
942,2,forcer
943,2,forme
944,2,forte
945,2,fortifier
946,2,fortifié
947,2,fortune
948,2,fortunés
949,2,foule
950,2,franchise
951,2,frapper
952,2,frappés
953,2,fuir
954,2,fuit
955,2,fuite
956,2,fumant
957,2,gagné
958,2,gardant
959,2,garde
960,2,garderai
961,2,gardes
962,2,gens
963,2,guerre
964,2,habitude
965,2,hait
966,2,harangue
967,2,héros
968,2,idole
969,2,image
970,2,immoler
971,2,immolé
972,2,imparfait
973,2,implore
974,2,importe
975,2,infâme
976,2,inhumanité
977,2,injure
978,2,injurieux
979,2,insolent
980,2,inspire
981,2,instants
982,2,invincible
983,2,irais
984,2,irriter
985,2,jamais
986,2,joignant
987,2,joignit
988,2,jouir
989,2,jouis
990,2,jugement
991,2,jugez
992,2,jure
993,2,juré
994,2,justice
995,2,laissant
996,2,laissent
997,2,laissez
998,2,langage
999,2,langue
1000,2,las
1001,2,lequel
1002,2,licence
1003,2,lois
1004,2,longue
1005,2,lâches
1006,2,légitime
1007,2,magie
1008,2,maison
1009,2,malheureuse
1010,2,malice
1011,2,malices
1012,2,marque
1013,2,massacrer
1014,2,matière
1015,2,maître
1016,2,maîtres
1017,2,mettez
1018,2,miens
1019,2,milieu
1020,2,miracles
1021,2,misérables
1022,2,montant
1023,2,monte
1024,2,morte
1025,2,mourants
1026,2,mourrez
1027,2,mérite
1028,2,mêmes
1029,2,nuit
1030,2,obliger
1031,2,obstacles
1032,2,obéis
1033,2,occasion
1034,2,ombre
1035,2,orgueilleux
1036,2,osant
1037,2,oublié
1038,2,ouvert
1039,2,ouvrage
1040,2,ouvre
1041,2,ouvrir
1042,2,parait
1043,2,parfait
1044,2,partage
1045,2,patience
1046,2,peines
1047,2,perdront
1048,2,perds
1049,2,permets
1050,2,perse
1051,2,persécuter
1052,2,perte
1053,2,peuvent
1054,2,pire
1055,2,plairait
1056,2,pleinement
1057,2,pleurs
1058,2,portant
1059,2,portrait
1060,2,portraits
1061,2,possède
1062,2,pourquoi
1063,2,pourras
1064,2,pouvais
1065,2,prendre
1066,2,prenez
1067,2,prennent
1068,2,presse
1069,2,prie
1070,2,prier
1071,2,prise
1072,2,prison
1073,2,prisonnier
1074,2,prisonnière
1075,2,profane
1076,2,prépare
1077,2,prêt
1078,2,prête
1079,2,prêts
1080,2,puisses
1081,2,put
1082,2,pâme
1083,2,péché
1084,2,péril
1085,2,périrai
1086,2,périsse
1087,2,quitter
1088,2,quérir
1089,2,ravi
1090,2,recevait
1091,2,recherche
1092,2,recours
1093,2,redoute
1094,2,redouter
1095,2,regarder
1096,2,remis
1097,2,rencontré
1098,2,rendit
1099,2,rendons
1100,2,rendrez
1101,2,rendrons
1102,2,rentre
1103,2,reprend
1104,2,repris
1105,2,ressent
1106,2,ressentir
1107,2,retourner
1108,2,reverrai
1109,2,reçut
1110,2,rigoureux
1111,2,rompre
1112,2,rue
1113,2,récompense
1114,2,sachez
1115,2,sachons
1116,2,saisi
1117,2,sanglant
1118,2,sauve
1119,2,semblable
1120,2,semblables
1121,2,sentant
1122,2,serais
1123,2,serez
1124,2,seriez
1125,2,serment
1126,2,sers
1127,2,seuls
1128,2,soins
1129,2,sois
1130,2,songe
1131,2,songez
1132,2,sorte
1133,2,sortie
1134,2,souffert
1135,2,souillé
1136,2,soupçon
1137,2,soutenez
1138,2,souverain
1139,2,stances
1140,2,successeurs
1141,2,suite
1142,2,suive
1143,2,suivra
1144,2,suivre
1145,2,sujet
1146,2,sujets
1147,2,surmonter
1148,2,surprise
1149,2,séjour
1150,2,sépulcre
1151,2,tas
1152,2,tenant
1153,2,tienne
1154,2,tonnerre
1155,2,touche
1156,2,tourments
1157,2,toutes
1158,2,trahir
1159,2,trahison
1160,2,traitant
1161,2,traite
1162,2,traitement
1163,2,traiter
1164,2,travers
1165,2,traverser
1166,2,traversé
1167,2,trembler
1168,2,trouble
1169,2,trouvé
1170,2,tyran
1171,2,tyrans
1172,2,témoignage
1173,2,témoigner
1174,2,téméraire
1175,2,union
1176,2,valeur
1177,2,vas
1178,2,venge
1179,2,venue
1180,2,verra
1181,2,verras
1182,2,verse
1183,2,verser
1184,2,versé
1185,2,vertus
1186,2,veulent
1187,2,victimes
1188,2,viendra
1189,2,viendront
1190,2,vint
1191,2,visible
1192,2,visions
1193,2,vit
1194,2,vivant
1195,2,vive
1196,2,voit
1197,2,vole
1198,2,volontaire
1199,2,volé
1200,2,voudrez
1201,2,voulais
1202,2,voulait
1203,2,voulant
1204,2,véhément
1205,2,zèle
1206,2,échange
1207,2,échelles
1208,2,éclat
1209,2,éclate
1210,2,écouter
1211,2,égaler
1212,2,égaux
1213,2,éloignement
1214,2,élève
1215,2,émouvoir
1216,2,épouvantable
1217,2,établis
1218,2,états
1219,2,étendards
1220,2,éternité
1221,2,étrange
1222,2,ôta
1223,2,ôté
1224,1,abandonnai
1225,1,abandonnais
1226,1,abandonnant
1227,1,abandonner
1228,1,abandonneriez
1229,1,abandonnez
1230,1,abandonnée
1231,1,abhorraient
1232,1,abhorre
1233,1,abject
1234,1,abri
1235,1,absolu
1236,1,absolue
1237,1,abusé
1238,1,abîme
1239,1,abîmer
1240,1,abîmes
1241,1,accablez
1242,1,accepte
1243,1,accident
1244,1,accompagner
1245,1,accordent
1246,1,accorderez
1247,1,accroissant
1248,1,accroitre
1249,1,accroît
1250,1,accroître
1251,1,accrue
1252,1,accueil
1253,1,accusait
1254,1,achever
1255,1,achèverai
1256,1,acquittée
1257,1,acquière
1258,1,acquérir
1259,1,action
1260,1,admire
1261,1,adore
1262,1,adorera
1263,1,affaiblir
1264,1,affaiblissons
1265,1,affaire
1266,1,affection
1267,1,affermie
1268,1,afflige
1269,1,affliger
1270,1,affligés
1271,1,affreux
1272,1,affronter
1273,1,agi
1274,1,agirait
1275,1,agissais
1276,1,agissant
1277,1,agit
1278,1,agréable
1279,1,agréer
1280,1,agréerait
1281,1,aide
1282,1,aient
1283,1,ailes
1284,1,aimables
1285,1,aimai
1286,1,aimais
1287,1,aimerez
1288,1,aimez
1289,1,aimé
1290,1,aisément
1291,1,alla
1292,1,allai
1293,1,allié
1294,1,alliés
1295,1,allégeance
1296,1,allégresse
1297,1,altère
1298,1,altéra
1299,1,altérai
1300,1,altération
1301,1,amas
1302,1,amena
1303,1,ami
1304,1,amoureusement
1305,1,animé
1306,1,animée
1307,1,annonce
1308,1,annoncer
1309,1,anéantie
1310,1,apaiser
1311,1,apaisé
1312,1,apparence
1313,1,apparente
1314,1,appeler
1315,1,appelle
1316,1,apporte
1317,1,apprendre
1318,1,apprentissage
1319,1,approchaient
1320,1,approchent
1321,1,approchez
1322,1,ardie
1323,1,armai
1324,1,armant
1325,1,armer
1326,1,arrachant
1327,1,arrache
1328,1,arrachera
1329,1,arrachez
1330,1,arrivent
1331,1,arrivé
1332,1,arrêta
1333,1,arrêts
1334,1,art
1335,1,artisane
1336,1,aspect
1337,1,aspire
1338,1,assaillie
1339,1,assaut
1340,1,assemble
1341,1,assemblé
1342,1,assemblés
1343,1,assise
1344,1,assistance
1345,1,assorti
1346,1,assoupi
1347,1,assouvissement
1348,1,assujettir
1349,1,assurés
1350,1,attache
1351,1,attachés
1352,1,attaquants
1353,1,attendait
1354,1,attendent
1355,1,attendrai
1356,1,attentif
1357,1,attirez
1358,1,augmentant
1359,1,auprès
1360,1,aurais
1361,1,aurons
1362,1,aussitôt
1363,1,austère
1364,1,autant
1365,1,autels
1366,1,auteur
1367,1,autorité
1368,1,autrui
1369,1,avance
1370,1,avancer
1371,1,avancez
1372,1,avantages
1373,1,aversion
1374,1,averti
1375,1,avertir
1376,1,avertis
1377,1,aveugler
1378,1,avides
1379,1,avidité
1380,1,avions
1381,1,avouer
1382,1,ayez
1383,1,aïeux
1384,1,baigne
1385,1,baiser
1386,1,bas
1387,1,bassesse
1388,1,beauté
1389,1,beautés
1390,1,berceau
1391,1,besoin
1392,1,bienfaiteurs
1393,1,blâmant
1394,1,bon
1395,1,bonté
1396,1,bontés
1397,1,borne
1398,1,bourreaux
1399,1,braver
1400,1,briguent
1401,1,brillant
1402,1,briser
1403,1,brisez
1404,1,brèches
1405,1,burin
1406,1,béliers
1407,1,cache
1408,1,caché
1409,1,capables
1410,1,caprice
1411,1,causé
1412,1,celer
1413,1,cessant
1414,1,chambre
1415,1,chancelants
1416,1,chanceler
1417,1,chancelle
1418,1,changeai
1419,1,changée
1420,1,charge
1421,1,chasser
1422,1,chaînes
1423,1,chefs
1424,1,chemin
1425,1,chercher
1426,1,cherchiez
1427,1,choisi
1428,1,choisis
1429,1,choisissait
1430,1,choquant
1431,1,chère
1432,1,chérir
1433,1,cohortan
1434,1,combattants
1435,1,combattez
1436,1,combien
1437,1,comble
1438,1,combler
1439,1,comblé
1440,1,commandements
1441,1,commander
1442,1,commencements
1443,1,commencent
1444,1,commencer
1445,1,comment
1446,1,commun
1447,1,communs
1448,1,comparez
1449,1,compassion
1450,1,complaire
1451,1,complaisante
1452,1,complices
1453,1,compliment
1454,1,composez
1455,1,concourant
1456,1,concurrente
1457,1,condamnée
1458,1,conditions
1459,1,confesse
1460,1,confidente
1461,1,confidents
1462,1,confié
1463,1,confondant
1464,1,confondez
1465,1,confondons
1466,1,confusion
1467,1,conférence
1468,1,conjurer
1469,1,connais
1470,1,connaissez
1471,1,connait
1472,1,connu
1473,1,conquérants
1474,1,conquête
1475,1,conseillers
1476,1,conseillé
1477,1,consent
1478,1,consente
1479,1,consentez
1480,1,conservation
1481,1,conservent
1482,1,conservé
1483,1,considère
1484,1,considéraient
1485,1,considérer
1486,1,considérez
1487,1,consister
1488,1,consolés
1489,1,consomme
1490,1,consommé
1491,1,consultez
1492,1,contemple
1493,1,contenter
1494,1,contentons
1495,1,contents
1496,1,contestent
1497,1,contesterons
1498,1,continuant
1499,1,contraire
1500,1,contrefaire
1501,1,contrefait
1502,1,contribue
1503,1,convertir
1504,1,convertit
1505,1,corrompre
1506,1,corrompue
1507,1,coupables
1508,1,courant
1509,1,courir
1510,1,couronne
1511,1,couronner
1512,1,courrait
1513,1,couvrant
1514,1,craignait
1515,1,craindre
1516,1,craint
1517,1,criminelle
1518,1,croirai
1519,1,croit
1520,1,croyant
1521,1,croyons
1522,1,cru
1523,1,cruauté
1524,1,crus
1525,1,créature
1526,1,créneaux
1527,1,curieux
1528,1,cède
1529,1,célèbrent
1530,1,côtés
1531,1,daignant
1532,1,dangereux
1533,1,dards
1534,1,darie
1535,1,degrés
1536,1,demain
1537,1,demandaient
1538,1,demandant
1539,1,demanderait
1540,1,demanderont
1541,1,demandé
1542,1,demeurant
1543,1,depuis
1544,1,derniers
1545,1,descendons
1546,1,descendre
1547,1,descente
1548,1,desseins
1549,1,destinée
1550,1,devenez
1551,1,deviendrait
1552,1,deviendrons
1553,1,deviennent
1554,1,devinent
1555,1,deviner
1556,1,devinrent
1557,1,devriez
1558,1,diadème
1559,1,difficile
1560,1,différents
1561,1,diligence
1562,1,dirai
1563,1,dirait
1564,1,disait
1565,1,dise
1566,1,disgrâce
1567,1,dispense
1568,1,dispose
1569,1,disposer
1570,1,disposez
1571,1,disputer
1572,1,dissensions
1573,1,dissimuler
1574,1,dissipa
1575,1,divers
1576,1,diverti
1577,1,divisions
1578,1,divisé
1579,1,dix
1580,1,domptant
1581,1,domptés
1582,1,donnaient
1583,1,donnent
1584,1,donnons
1585,1,dons
1586,1,doublement
1587,1,douceur
1588,1,douteux
1589,1,drapeaux
1590,1,dressant
1591,1,droits
1592,1,durant
1593,1,dures
1594,1,dureté
1595,1,dussé
1596,1,dut
1597,1,débris
1598,1,décevant
1599,1,déchirant
1600,1,déchiré
1601,1,déchirés
1602,1,décidons
1603,1,déclare
1604,1,découvert
1605,1,découvre
1606,1,décret
1607,1,dédaigne
1608,1,dédaigné
1609,1,dédain
1610,1,défaillir
1611,1,défaire
1612,1,défauts
1613,1,défendez
1614,1,défendrai
1615,1,défends
1616,1,défendus
1617,1,défie
1618,1,défier
1619,1,déférence
1620,1,déguisé
1621,1,délaissai
1622,1,délaissiez
1623,1,délaissé
1624,1,délibère
1625,1,délibérez
1626,1,délices
1627,1,délivrance
1628,1,délivrés
1629,1,démens
1630,1,dénués
1631,1,départ
1632,1,dépend
1633,1,dépends
1634,1,déplaire
1635,1,déplaisent
1636,1,déplaît
1637,1,déplorable
1638,1,dépouillons
1639,1,dépouillé
1640,1,dérobez
1641,1,désarmé
1642,1,désaveu
1643,1,désavouerait
1644,1,déserteurs
1645,1,désespérés
1646,1,désirai
1647,1,désiré
1648,1,désordre
1649,1,désunie
1650,1,détachant
1651,1,détachés
1652,1,déteste
1653,1,détrempée
1654,1,détruirai
1655,1,détruisant
1656,1,détruit
1657,1,dévorait
1658,1,dû
1659,1,dût
1660,1,e
1661,1,efforce
1662,1,efforcer
1663,1,effroyables
1664,1,embrassements
1665,1,emplois
1666,1,employez
1667,1,empruntant
1668,1,emprunte
1669,1,empêchement
1670,1,endroit
1671,1,endurant
1672,1,endurcissement
1673,1,endurer
1674,1,enflammer
1675,1,enflammé
1676,1,engage
1677,1,engager
1678,1,enlevant
1679,1,enseveli
1680,1,entassée
1681,1,entend
1682,1,entendront
1683,1,entends
1684,1,enterrer
1685,1,entier
1686,1,entière
1687,1,entourait
1688,1,entoure
1689,1,entraînez
1690,1,entreprendre
1691,1,entreprenons
1692,1,entretiens
1693,1,entrevue
1694,1,entrouvrant
1695,1,entrouvrira
1696,1,entrés
1697,1,envelopper
1698,1,enverra
1699,1,envers
1700,1,envieillie
1701,1,environne
1702,1,envisage
1703,1,envoie
1704,1,erreur
1705,1,erré
1706,1,escalader
1707,1,escalier
1708,1,espace
1709,1,espère
1710,1,espérance
1711,1,essai
1712,1,eu
1713,1,exauçant
1714,1,exemple
1715,1,exercez
1716,1,exige
1717,1,exigeons
1718,1,exilé
1719,1,expier
1720,1,expliquer
1721,1,expose
1722,1,exposer
1723,1,exposez
1724,1,exposons
1725,1,extase
1726,1,extases
1727,1,extasiée
1728,1,extrémité
1729,1,extrémités
1730,1,extrême
1731,1,face
1732,1,facile
1733,1,faciliter
1734,1,faibles
1735,1,faite
1736,1,fallut
1737,1,fassent
1738,1,faudrait
1739,1,faute
1740,1,fautes
1741,1,favorable
1742,1,façons
1743,1,feindrait
1744,1,feins
1745,1,feinte
1746,1,fera
1747,1,feraient
1748,1,feras
1749,1,feriez
1750,1,ferme
1751,1,ferons
1752,1,fiers
1753,1,figurant
1754,1,figure
1755,1,figures
1756,1,figuré
1757,1,fini
1758,1,fière
1759,1,flambeau
1760,1,flatter
1761,1,flatterie
1762,1,flattes
1763,1,flots
1764,1,flèches
1765,1,fondait
1766,1,fondement
1767,1,fonds
1768,1,fondue
1769,1,forces
1770,1,forcé
1771,1,forcée
1772,1,formant
1773,1,former
1774,1,formidable
1775,1,fortuné
1776,1,força
1777,1,fossés
1778,1,fouler
1779,1,foulé
1780,1,fournissait
1781,1,frappée
1782,1,frayeur
1783,1,front
1784,1,frère
1785,1,frémis
1786,1,frémissant
1787,1,fuiras
1788,1,funérailles
1789,1,fuyez
1790,1,galerie
1791,1,gardez
1792,1,gardé
1793,1,gardées
1794,1,gendarmes
1795,1,glisse
1796,1,glorieux
1797,1,goûter
1798,1,goûteront
1799,1,grandes
1800,1,grandeurs
1801,1,grec
1802,1,grossi
1803,1,grossir
1804,1,grâces
1805,1,grèce
1806,1,grêle
1807,1,guerres
1808,1,géhennent
1809,1,gémit
1810,1,générosité
1811,1,habite
1812,1,hardie
1813,1,hasardant
1814,1,hasarder
1815,1,hasardeux
1816,1,hautes
1817,1,haïssable
1818,1,haïssiez
1819,1,hermione
1820,1,heureuse
1821,1,heureusement
1822,1,histoire
1823,1,hommage
1824,1,humain
1825,1,humanité
1826,1,humble
1827,1,humilier
1828,1,humilité
1829,1,hyménée
1830,1,hôte
1831,1,idolâtre
1832,1,idolâtrie
1833,1,idées
1834,1,ignorez
1835,1,illusions
1836,1,illustre
1837,1,illustres
1838,1,imaginaire
1839,1,imaginative
1840,1,imités
1841,1,immobile
1842,1,immolait
1843,1,immortalité
1844,1,immortel
1845,1,impitoyable
1846,1,impiété
1847,1,implacable
1848,1,implorer
1849,1,important
1850,1,importante
1851,1,impose
1852,1,imposer
1853,1,imposera
1854,1,impostures
1855,1,imprudemment
1856,1,impuissant
1857,1,impuissante
1858,1,impunité
1859,1,impunément
1860,1,imputaient
1861,1,imputer
1862,1,impérieuse
1863,1,inconsolable
1864,1,inconstant
1865,1,indifférent
1866,1,indignation
1867,1,indignes
1868,1,indignité
1869,1,indignée
1870,1,indiscret
1871,1,indiscrétion
1872,1,infaillible
1873,1,infamie
1874,1,infidèles
1875,1,infini
1876,1,infinie
1877,1,infortunée
1878,1,infortunés
1879,1,ingratitude
1880,1,ingénieuse
1881,1,inhumanités
1882,1,inimitable
1883,1,inimitié
1884,1,innombrable
1885,1,insatiable
1886,1,insensé
1887,1,insignes
1888,1,insolemment
1889,1,insolente
1890,1,insolents
1891,1,instrument
1892,1,insulter
1893,1,intelligence
1894,1,interdit
1895,1,interrompre
1896,1,interrompue
1897,1,intéressant
1898,1,intérêts
1899,1,inutile
1900,1,inutiles
1901,1,invulnérable
1902,1,ira
1903,1,irait
1904,1,irrité
1905,1,jette
1906,1,jeté
1907,1,joignez
1908,1,joignirent
1909,1,jouira
1910,1,jugeant
1911,1,juger
1912,1,justifiais
1913,1,justifier
1914,1,jà
1915,1,laissai
1916,1,laisses
1917,1,laissons
1918,1,laissé
1919,1,langages
1920,1,languir
1921,1,lavé
1922,1,lendemain
1923,1,libre
1924,1,libéral
1925,1,libéralité
1926,1,ligués
1927,1,lis
1928,1,loge
1929,1,loisir
1930,1,longueur
1931,1,lâcheté
1932,1,léger
1933,1,légitimes
1934,1,légère
1935,1,léthargie
1936,1,magnanime
1937,1,maintenant
1938,1,maintenez
1939,1,malaisé
1940,1,manquerais
1941,1,manqué
1942,1,marchent
1943,1,mari
1944,1,maximes
1945,1,menace
1946,1,menacez
1947,1,menacé
1948,1,mener
1949,1,mensonge
1950,1,messagers
1951,1,mesuré
1952,1,mette
1953,1,mettrai
1954,1,mettre
1955,1,meurtres
1956,1,mienne
1957,1,misse
1958,1,misérable
1959,1,mit
1960,1,moindres
1961,1,monstre
1962,1,monter
1963,1,montre
1964,1,montrer
1965,1,montres
1966,1,montrons
1967,1,monté
1968,1,monument
1969,1,mortels
1970,1,mourant
1971,1,mourons
1972,1,mourrais
1973,1,mourrait
1974,1,mourrons
1975,1,moyen
1976,1,muette
1977,1,multipliés
1978,1,murmurai
1979,1,murmure
1980,1,murmurer
1981,1,murmuré
1982,1,mystère
1983,1,méconnaissant
1984,1,ménages
1985,1,méprisant
1986,1,méprisez
1987,1,méritai
1988,1,mérites
1989,1,mêlait
1990,1,mêlant
1991,1,mêle
1992,1,mêler
1993,1,mêlez
1994,1,mêlé
1995,1,mêlée
1996,1,mîtes
1997,1,na
1998,1,nage
1999,1,nait
2000,1,naît
2001,1,naître
2002,1,noble
2003,1,noie
2004,1,noir
2005,1,nommer
2006,1,nourri
2007,1,nourrie
2008,1,nouveau
2009,1,nouveaux
2010,1,nouvel
2011,1,nul
2012,1,néander
2013,1,nécessaire
2014,1,nécessaires
2015,1,née
2016,1,négligeons
2017,1,obligé
2018,1,obligés
2019,1,observer
2020,1,observez
2021,1,obstacle
2022,1,obstinez
2023,1,obstiné
2024,1,obstinée
2025,1,obtenait
2026,1,obtenir
2027,1,obtins
2028,1,obéissance
2029,1,obéissons
2030,1,offensez
2031,1,offensée
2032,1,offerts
2033,1,offrait
2034,1,offrant
2035,1,offres
2036,1,offrit
2037,1,offrons
2038,1,opposez
2039,1,ordonnance
2040,1,ordonne
2041,1,ordonné
2042,1,oreilles
2043,1,orgueil
2044,1,orgueilleuse
2045,1,osait
2046,1,oser
2047,1,oserai
2048,1,oseront
2049,1,osez
2050,1,osâtes
2051,1,osé
2052,1,oubli
2053,1,oublions
2054,1,outre
2055,1,ouvertement
2056,1,ouïs
2057,1,paisible
2058,1,palpitant
2059,1,palpiterait
2060,1,paraît
2061,1,paraître
2062,1,pardonnant
2063,1,pardonner
2064,1,pareil
2065,1,parfaite
2066,1,parfaits
2067,1,parizatis
2068,1,parlant
2069,1,parlera
2070,1,parlerai
2071,1,parleront
2072,1,parlé
2073,1,parricides
2074,1,partagea
2075,1,partagiez
2076,1,partagions
2077,1,partagé
2078,1,partir
2079,1,partirai
2080,1,partisan
2081,1,paru
2082,1,parut
2083,1,parvenir
2084,1,parvenu
2085,1,passe
2086,1,passetemps
2087,1,passons
2088,1,passé
2089,1,patrie
2090,1,payer
2091,1,pendent
2092,1,pensa
2093,1,pensais
2094,1,pensent
2095,1,pensée
2096,1,perdant
2097,1,perdent
2098,1,perdez
2099,1,perdons
2100,1,perdrez
2101,1,perdu
2102,1,perdue
2103,1,perfide
2104,1,permet
2105,1,permettre
2106,1,permis
2107,1,pers
2108,1,persistez
2109,1,persécuteurs
2110,1,persévérez
2111,1,pesant
2112,1,peuple
2113,1,peur
2114,1,pied
2115,1,placer
2116,1,plaie
2117,1,plaigne
2118,1,plaindre
2119,1,plains
2120,1,plais
2121,1,plait
2122,1,plantaient
2123,1,plante
2124,1,planter
2125,1,plaça
2126,1,plaît
2127,1,plein
2128,1,pleurera
2129,1,plongent
2130,1,plût
2131,1,poison
2132,1,populaires
2133,1,portent
2134,1,portez
2135,1,porté
2136,1,possesseur
2137,1,possesseurs
2138,1,possession
2139,1,posséder
2140,1,posture
2141,1,poudre
2142,1,pourraient
2143,1,pourront
2144,1,poursuis
2145,1,poursuivre
2146,1,pourtant
2147,1,pourvue
2148,1,poussaient
2149,1,poussez
2150,1,pouvait
2151,1,pouvez
2152,1,pouvons
2153,1,pratique
2154,1,premiers
2155,1,premières
2156,1,prenant
2157,1,prendras
2158,1,prenons
2159,1,prescrire
2160,1,pressent
2161,1,pressé
2162,1,preuve
2163,1,princes
2164,1,principe
2165,1,prirent
2166,1,privée
2167,1,privés
2168,1,prochain
2169,1,proche
2170,1,procure
2171,1,procurer
2172,1,prodigieux
2173,1,prodigué
2174,1,profusion
2175,1,projets
2176,1,projeté
2177,1,prolongent
2178,1,promis
2179,1,promise
2180,1,prompte
2181,1,prompts
2182,1,propice
2183,1,proposes
2184,1,proposé
2185,1,prosterner
2186,1,protection
2187,1,protège
2188,1,protéger
2189,1,protégerai
2190,1,protégé
2191,1,protégée
2192,1,prouver
2193,1,précieux
2194,1,précipice
2195,1,précipices
2196,1,précéderait
2197,1,préférez
2198,1,préparer
2199,1,préparé
2200,1,présage
2201,1,présents
2202,1,préside
2203,1,présomption
2204,1,prétendez
2205,1,prétendrai
2206,1,prétexte
2207,1,prévalez
2208,1,prévenons
2209,1,prévu
2210,1,prêchez
2211,1,prêtez
2212,1,prêtée
2213,1,prîmes
2214,1,puissants
2215,1,punir
2216,1,punis
2217,1,pâtir
2218,1,pécher
2219,1,pénitence
2220,1,pénétrer
2221,1,péri
2222,1,péricas
2223,1,qualités
2224,1,quantité
2225,1,quatre
2226,1,quelques
2227,1,querelle
2228,1,quittent
2229,1,quittes
2230,1,quitté
2231,1,quittés
2232,1,raidit
2233,1,raisonnable
2234,1,ramassée
2235,1,rappelant
2236,1,rapports
2237,1,rare
2238,1,rassasiée
2239,1,rassure
2240,1,rassurer
2241,1,ravirez
2242,1,ravissant
2243,1,ravissements
2244,1,ravissent
2245,1,ravisseur
2246,1,ravoir
2247,1,rebelles
2248,1,rebuter
2249,1,rebuterez
2250,1,rebutez
2251,1,recevant
2252,1,recevez
2253,1,recevrait
2254,1,reconduisez
2255,1,reconnaissais
2256,1,reconnaître
2257,1,recouvrer
2258,1,recule
2259,1,reculer
2260,1,redescends
2261,1,redire
2262,1,redisait
2263,1,redonner
2264,1,redonné
2265,1,redoubla
2266,1,redoubler
2267,1,redoublés
2268,1,redoutables
2269,1,refrapper
2270,1,refus
2271,1,refuser
2272,1,regardant
2273,1,regrets
2274,1,rejaillisse
2275,1,rejoindre
2276,1,relâche
2277,1,remarquer
2278,1,remarqué
2279,1,remercier
2280,1,remets
2281,1,remplie
2282,1,remplir
2283,1,rencontrer
2284,1,rencontrez
2285,1,rendait
2286,1,rendrai
2287,1,rendrais
2288,1,rendus
2289,1,renforts
2290,1,renonce
2291,1,renonçons
2292,1,rentrez
2293,1,renverse
2294,1,renvoyé
2295,1,repasse
2296,1,repentirez
2297,1,repoussé
2298,1,repoussés
2299,1,reprendre
2300,1,reprenez
2301,1,reproche
2302,1,reprocher
2303,1,repu
2304,1,respecte
2305,1,respects
2306,1,ressemble
2307,1,ressens
2308,1,ressouviendras
2309,1,restait
2310,1,retardé
2311,1,retenu
2312,1,retiens
2313,1,retient
2314,1,retire
2315,1,retirer
2316,1,retombant
2317,1,retombe
2318,1,retomber
2319,1,retournons
2320,1,reverrait
2321,1,revers
2322,1,reviennent
2323,1,revivant
2324,1,revois
2325,1,revêtu
2326,1,reçoivent
2327,1,reçu
2328,1,reçûtes
2329,1,rigueurs
2330,1,rois
2331,1,rompant
2332,1,rompez
2333,1,rompit
2334,1,rompons
2335,1,rompra
2336,1,romps
2337,1,rougirai
2338,1,royale
2339,1,ruine
2340,1,ruiner
2341,1,ruiné
2342,1,rusé
2343,1,récompenser
2344,1,réels
2345,1,réflexion
2346,1,réglions
2347,1,répandant
2348,1,répandre
2349,1,réparer
2350,1,répond
2351,1,répondez
2352,1,réponse
2353,1,répugne
2354,1,réservant
2355,1,réserve
2356,1,réservée
2357,1,résolue
2358,1,résoudrez
2359,1,résous
2360,1,réuni
2361,1,révoltée
2362,1,révoltés
2363,1,révoquer
2364,1,sacrifiant
2365,1,sacrifier
2366,1,sacrés
2367,1,saisir
2368,1,sanglante
2369,1,sanguinaire
2370,1,saouler
2371,1,satisfait
2372,1,satrape
2373,1,saurait
2374,1,saurez
2375,1,sauront
2376,1,sauverait
2377,1,sauvez
2378,1,savent
2379,1,saviez
2380,1,savoir
2381,1,sceller
2382,1,scythe
2383,1,scélérats
2384,1,secondé
2385,1,secrets
2386,1,selon
2387,1,semblait
2388,1,seraient
2389,1,serf
2390,1,seront
2391,1,sert
2392,1,servant
2393,1,servent
2394,1,servez
2395,1,servi
2396,1,servie
2397,1,servitude
2398,1,signal
2399,1,simples
2400,1,six
2401,1,soeurs
2402,1,soif
2403,1,sollicite
2404,1,sommes
2405,1,sondé
2406,1,sors
2407,1,sortable
2408,1,sortes
2409,1,sortîmes
2410,1,souffrance
2411,1,souffrirais
2412,1,souiller
2413,1,soulager
2414,1,soumettre
2415,1,soumis
2416,1,soupire
2417,1,soupirer
2418,1,soupçons
2419,1,sourire
2420,1,soutenir
2421,1,soutiens
2422,1,souvenez
2423,1,souveraine
2424,1,souviens
2425,1,souvient
2426,1,soyons
2427,1,stratagème
2428,1,stupides
2429,1,successeur
2430,1,succombant
2431,1,succomber
2432,1,suffit
2433,1,suffrage
2434,1,suivaient
2435,1,suivants
2436,1,suivrai
2437,1,supplices
2438,1,supposent
2439,1,surpasse
2440,1,surpassent
2441,1,surpris
2442,1,surtout
2443,1,sus
2444,1,suscité
2445,1,suspendait
2446,1,suspendre
2447,1,suspendue
2448,1,sut
2449,1,séduisait
2450,1,sépare
2451,1,séparer
2452,1,tableau
2453,1,tairai
2454,1,taire
2455,1,tais
2456,1,tardons
2457,1,tempêtes
2458,1,tenez
2459,1,tenter
2460,1,tentons
2461,1,tenu
2462,1,termes
2463,1,terrassé
2464,1,terres
2465,1,terreur
2466,1,tien
2467,1,tiennent
2468,1,timide
2469,1,timides
2470,1,tirant
2471,1,tire
2472,1,tirons
2473,1,titre
2474,1,tomba
2475,1,tombant
2476,1,tombé
2477,1,torrent
2478,1,torture
2479,1,toucher
2480,1,tourment
2481,1,tournant
2482,1,toutefois
2483,1,tracer
2484,1,trahi
2485,1,trahisons
2486,1,trahissant
2487,1,traitez
2488,1,trame
2489,1,transport
2490,1,travaillez
2491,1,traînant
2492,1,traîne
2493,1,traîner
2494,1,tremblante
2495,1,tremblez
2496,1,trempée
2497,1,tristes
2498,1,trompée
2499,1,tronçon
2500,1,troubler
2501,1,troubles
2502,1,troublé
2503,1,troupe
2504,1,troupes
2505,1,trouvai
2506,1,trouvent
2507,1,trouves
2508,1,trouvez
2509,1,trouvons
2510,1,très
2511,1,tuerai
2512,1,tué
2513,1,tyrannie
2514,1,témoigne
2515,1,têtes
2516,1,unie
2517,1,unis
2518,1,usage
2519,1,utile
2520,1,vaincrais
2521,1,vaincus
2522,1,vainqueurs
2523,1,valez
2524,1,vanité
2525,1,vante
2526,1,vaudraient
2527,1,venait
2528,1,venez
2529,1,vengeances
2530,1,venger
2531,1,venu
2532,1,verraient
2533,1,verrait
2534,1,verront
2535,1,versez
2536,1,veuille
2537,1,victorieux
2538,1,vieille
2539,1,vieux
2540,1,vif
2541,1,vigueur
2542,1,violent
2543,1,vision
2544,1,visite
2545,1,vivaient
2546,1,vivement
2547,1,vivra
2548,1,vivront
2549,1,voie
2550,1,volant
2551,1,voler
2552,1,vont
2553,1,voudrais
2554,1,voulûtes
2555,1,voyez
2556,1,voyons
2557,1,vrai
2558,1,vraie
2559,1,vôtres
2560,1,ébranlement
2561,1,échappai
2562,1,échapperiez
2563,1,échappez
2564,1,échappé
2565,1,éclaircissent
2566,1,éclatante
2567,1,écoulé
2568,1,écouté
2569,1,égarés
2570,1,élargirais
2571,1,élire
2572,1,éloge
2573,1,éminemment
2574,1,émotion
2575,1,épargnant
2576,1,épargne
2577,1,épargnent
2578,1,épargné
2579,1,éperdue
2580,1,épouvantait
2581,1,épouvanter
2582,1,époux
2583,1,épris
2584,1,épuiser
2585,1,érige
2586,1,établit
2587,1,étaient
2588,1,étale
2589,1,étaler
2590,1,étendraient
2591,1,étendre
2592,1,éternels
2593,1,étonnement
2594,1,étonner
2595,1,étonnes
2596,1,étonnée
2597,1,étonnés
2598,1,étouffer
2599,1,évanouir
2600,1,évitez
2601,1,évité
2602,1,ôtant
