1,528,et
2,482,de
3,407,vous
4,348,à
5,342,l
6,323,je
7,305,que
8,291,en
9,252,est
10,245,la
11,234,qu
12,229,un
13,227,le
14,216,il
15,215,d
16,211,ce
17,174,pour
18,158,ne
19,148,elle
20,146,si
21,142,me
22,138,n
23,130,plus
24,114,qui
25,113,son
26,112,j
27,107,mais
28,104,mon
29,103,m
30,101,sa
31,99,a
32,93,lui
33,93,on
34,92,ma
35,90,une
36,88,les
37,87,votre
38,86,par
39,82,c
40,76,s
41,74,pas
42,71,des
43,70,moi
44,63,dans
45,62,ai
46,62,cette
47,62,sans
48,61,tout
49,59,fait
50,57,du
51,56,au
52,54,ses
53,53,bien
54,53,marcelle
55,53,ou
56,50,même
57,50,où
58,50,tu
59,49,avec
60,49,coeur
61,49,placide
62,49,théodore
63,48,amour
64,47,point
65,47,se
66,47,y
67,46,sur
68,45,peut
69,43,être
70,42,âme
71,41,seigneur
72,40,aux
73,40,comme
74,40,dont
75,40,rien
76,40,trop
77,40,vos
78,37,encore
79,36,ces
80,36,tous
81,35,donc
82,35,quelque
83,34,mes
84,34,sang
85,33,faut
86,33,flavie
87,33,peu
88,32,autre
89,32,dieux
90,32,tant
91,32,voir
92,31,faire
93,31,non
94,30,ah
95,29,t
96,28,madame
97,28,quoi
98,28,suis
99,28,vois
100,27,leur
101,27,moins
102,27,veut
103,27,vie
104,26,cet
105,26,didyme
106,26,doit
107,25,dieu
108,25,effet
109,25,lieu
110,25,mort
111,24,dis
112,24,grand
113,24,haine
114,24,mieux
115,24,quel
116,24,veux
117,24,yeux
118,23,deux
119,23,enfin
120,23,nous
121,23,puis
122,23,père
123,21,aime
124,21,ici
125,21,ton
126,20,pouvoir
127,20,valens
128,19,dois
129,19,honneur
130,19,ils
131,19,jusqu
132,19,quand
133,19,rendre
134,19,te
135,19,temps
136,18,après
137,18,là
138,18,mépris
139,18,sont
140,18,va
141,17,choix
142,17,fais
143,17,grâce
144,16,arrêt
145,16,crime
146,16,ni
147,16,objet
148,15,gloire
149,15,lieux
150,15,main
151,15,nos
152,15,ta
153,15,venger
154,15,vertu
155,15,vient
156,15,voeux
157,14,ainsi
158,14,amant
159,14,craindre
160,14,fils
161,14,fureur
162,14,juste
163,14,mourir
164,14,oui
165,14,puisque
166,14,sais
167,14,seul
168,14,soit
169,14,sort
170,14,toute
171,13,assez
172,13,ciel
173,13,colère
174,13,courroux
175,13,faveur
176,13,infamie
177,13,mal
178,13,paulin
179,13,peine
180,13,quelle
181,13,sous
182,13,vain
183,12,aimer
184,12,aussi
185,12,chrétienne
186,12,contre
187,12,doux
188,12,effort
189,12,fera
190,12,honte
191,12,lois
192,12,moment
193,12,ont
194,12,porte
195,12,supplice
196,12,toujours
197,11,allez
198,11,avez
199,11,courage
200,11,généreux
201,11,mien
202,11,perte
203,11,pu
204,11,punir
205,11,triste
206,11,viens
207,11,zèle
208,11,éclat
209,10,ardeur
210,10,as
211,10,donne
212,10,esprit
213,10,horreur
214,10,jaloux
215,10,leurs
216,10,ordre
217,10,orgueil
218,10,ose
219,10,prendre
220,10,périr
221,10,rang
222,10,vais
223,10,était
224,9,ait
225,9,bras
226,9,cher
227,9,coup
228,9,craint
229,9,digne
230,9,donner
231,9,déjà
232,9,empereur
233,9,fille
234,9,flamme
235,9,intérêt
236,9,jamais
237,9,jour
238,9,jours
239,9,laisse
240,9,obtenir
241,9,oeil
242,9,part
243,9,porter
244,9,puisqu
245,9,puissance
246,9,péril
247,9,reste
248,9,tes
249,9,toi
250,9,voyez
251,9,époux
252,9,êtes
253,8,ailleurs
254,8,aurait
255,8,avoir
256,8,chrétiens
257,8,cléobule
258,8,cruelle
259,8,devoir
260,8,dit
261,8,douleur
262,8,désespoir
263,8,ennemie
264,8,espoir
265,8,faites
266,8,fureurs
267,8,heureux
268,8,illustre
269,8,indigne
270,8,joie
271,8,juge
272,8,jusque
273,8,loin
274,8,morte
275,8,mérite
276,8,perdu
277,8,peur
278,8,pieds
279,8,rage
280,8,sauver
281,8,secret
282,8,servir
283,8,soin
284,8,souffrir
285,8,souvent
286,8,tourments
287,8,tâche
288,8,tête
289,8,victime
290,8,vu
291,8,vôtre
292,7,amis
293,7,appui
294,7,aucun
295,7,audace
296,7,aujourd
297,7,aurais
298,7,autels
299,7,avais
300,7,aveugle
301,7,beaucoup
302,7,bonheur
303,7,celui
304,7,cependant
305,7,crains
306,7,croire
307,7,empire
308,7,entre
309,7,feux
310,7,fidèle
311,7,honteux
312,7,hui
313,7,humeur
314,7,malheur
315,7,menace
316,7,perdre
317,7,prenez
318,7,puisse
319,7,raison
320,7,rends
321,7,rigueur
322,7,rome
323,7,vengeance
324,7,vivre
325,7,voulez
326,7,état
327,6,alors
328,6,auprès
329,6,autorité
330,6,ayant
331,6,beau
332,6,cause
333,6,chose
334,6,crois
335,6,demande
336,6,demeure
337,6,destin
338,6,dire
339,6,douceur
340,6,doute
341,6,déplaisirs
342,6,désirs
343,6,entretenir
344,6,espérer
345,6,femme
346,6,flatte
347,6,fort
348,6,fuite
349,6,grandeurs
350,6,haut
351,6,haute
352,6,homme
353,6,ignominie
354,6,immoler
355,6,jugez
356,6,laisser
357,6,laissez
358,6,lorsque
359,6,mettre
360,6,mêmes
361,6,nom
362,6,notre
363,6,obstacle
364,6,parle
365,6,parler
366,6,place
367,6,prix
368,6,puissant
369,6,rare
370,6,respect
371,6,retenir
372,6,saurai
373,6,secours
374,6,sens
375,6,souffrez
376,6,tel
377,6,triomphe
378,6,trépas
379,6,égypte
380,5,adieu
381,5,adore
382,5,agit
383,5,ami
384,5,appas
385,5,arrête
386,5,attendre
387,5,attends
388,5,aura
389,5,aurai
390,5,autres
391,5,avait
392,5,bientôt
393,5,bon
394,5,braver
395,5,changer
396,5,chaque
397,5,chez
398,5,choisir
399,5,chrétien
400,5,conduire
401,5,coupable
402,5,cours
403,5,craignez
404,5,cru
405,5,depuis
406,5,dessein
407,5,dessous
408,5,devez
409,5,dites
410,5,droit
411,5,dépit
412,5,encens
413,5,ensemble
414,5,eux
415,5,eût
416,5,font
417,5,forcer
418,5,forte
419,5,frère
420,5,funeste
421,5,grâces
422,5,heur
423,5,honneurs
424,5,hymen
425,5,infâme
426,5,ingrat
427,5,ingrate
428,5,insolence
429,5,jusques
430,5,loi
431,5,lors
432,5,mauvais
433,5,maux
434,5,maître
435,5,mille
436,5,mis
437,5,moyen
438,5,mère
439,5,oppose
440,5,parent
441,5,passion
442,5,payer
443,5,pitié
444,5,princesse
445,5,propre
446,5,près
447,5,pudeur
448,5,reconnaissance
449,5,rompre
450,5,satisfaire
451,5,saurait
452,5,savez
453,5,sera
454,5,serait
455,5,seulement
456,5,stéphanie
457,5,su
458,5,suivez
459,5,suivre
460,5,sûreté
461,5,toutefois
462,5,transports
463,5,trouver
464,5,vaincre
465,5,vengée
466,5,venir
467,5,voit
468,5,vue
469,5,écoutez
470,5,ô
471,4,abaisser
472,4,abuser
473,4,afin
474,4,agent
475,4,aimez
476,4,aisément
477,4,aller
478,4,amène
479,4,apprête
480,4,armez
481,4,armé
482,4,arracher
483,4,artifice
484,4,aurez
485,4,autant
486,4,avant
487,4,bas
488,4,bienfaits
489,4,bonté
490,4,bruit
491,4,charme
492,4,chercher
493,4,châtiment
494,4,connais
495,4,conserver
496,4,conservez
497,4,crainte
498,4,crimes
499,4,croyez
500,4,daigne
501,4,dangereux
502,4,douceurs
503,4,dure
504,4,dédaigne
505,4,dédains
506,4,déplaire
507,4,ennemi
508,4,entreprendre
509,4,entré
510,4,envoie
511,4,erreur
512,4,espère
513,4,exemple
514,4,fasse
515,4,faux
516,4,faveurs
517,4,foi
518,4,fortune
519,4,front
520,4,gagner
521,4,garantir
522,4,garde
523,4,grandeur
524,4,guérir
525,4,hait
526,4,haïr
527,4,illusion
528,4,immortels
529,4,importe
530,4,intelligence
531,4,irrite
532,4,jure
533,4,larmes
534,4,lit
535,4,loisir
536,4,mains
537,4,malheurs
538,4,mienne
539,4,montrer
540,4,mot
541,4,mots
542,4,naissance
543,4,nouveau
544,4,parlez
545,4,pensez
546,4,plaît
547,4,pleinement
548,4,plutôt
549,4,pourrait
550,4,pourtant
551,4,pouvez
552,4,presque
553,4,prison
554,4,prière
555,4,promis
556,4,précieux
557,4,présent
558,4,prétendre
559,4,refuse
560,4,rival
561,4,rois
562,4,récompense
563,4,sacrifice
564,4,sait
565,4,secourir
566,4,semble
567,4,sert
568,4,sien
569,4,sitôt
570,4,soldats
571,4,sortir
572,4,soudain
573,4,soupire
574,4,suffit
575,4,tandis
576,4,temple
577,4,timide
578,4,tour
579,4,traits
580,4,traître
581,4,triomphez
582,4,trouve
583,4,trouvez
584,4,verser
585,4,violence
586,4,voie
587,4,voix
588,4,également
589,4,éviter
590,3,abandonner
591,3,abois
592,3,achève
593,3,acquérir
594,3,adresse
595,3,adroit
596,3,affront
597,3,agir
598,3,alarmes
599,3,ambition
600,3,amuser
601,3,aspire
602,3,assemble
603,3,attache
604,3,attend
605,3,auraient
606,3,avenir
607,3,aversion
608,3,basse
609,3,belle
610,3,besoin
611,3,brave
612,3,celle
613,3,certes
614,3,cherche
615,3,choir
616,3,châtiments
617,3,coeurs
618,3,combat
619,3,condamnée
620,3,connaître
621,3,conquête
622,3,considérez
623,3,consoler
624,3,contraindre
625,3,coups
626,3,cour
627,3,criminel
628,3,cruel
629,3,césars
630,3,daignez
631,3,dedans
632,3,dernier
633,3,derniers
634,3,devait
635,3,devient
636,3,dignes
637,3,dignité
638,3,dirai
639,3,discours
640,3,dissimuler
641,3,douleurs
642,3,douter
643,3,droits
644,3,dédaigner
645,3,déshonore
646,3,dû
647,3,effets
648,3,eh
649,3,ennemis
650,3,entend
651,3,entends
652,3,envie
653,3,esprits
654,3,espérance
655,3,estime
656,3,excuse
657,3,expliquer
658,3,faiblesse
659,3,faisant
660,3,farouche
661,3,fausse
662,3,feindre
663,3,feinte
664,3,ferait
665,3,feu
666,3,fière
667,3,fois
668,3,fond
669,3,force
670,3,furie
671,3,gardez
672,3,gouverneur
673,3,grande
674,3,générosité
675,3,habit
676,3,habits
677,3,hais
678,3,hasard
679,3,hautement
680,3,heureuse
681,3,hors
682,3,hyménée
683,3,hélas
684,3,ignore
685,3,impuissance
686,3,impunité
687,3,insensible
688,3,insolent
689,3,jalouse
690,3,jalousie
691,3,jeté
692,3,justice
693,3,laissé
694,3,lycante
695,3,lâche
696,3,malade
697,3,martyre
698,3,mettez
699,3,meure
700,3,miens
701,3,milieu
702,3,miracle
703,3,morts
704,3,naître
705,3,nommez
706,3,offrir
707,3,orage
708,3,osez
709,3,osé
710,3,ouvrage
711,3,parce
712,3,parente
713,3,partie
714,3,passe
715,3,passions
716,3,pense
717,3,persuade
718,3,peux
719,3,plaindre
720,3,plaisir
721,3,pleine
722,3,poignard
723,3,pourrai
724,3,pourrais
725,3,pourront
726,3,pousser
727,3,presse
728,3,proche
729,3,promettre
730,3,prompt
731,3,prompte
732,3,promptement
733,3,prudence
734,3,précipiter
735,3,présence
736,3,prévenir
737,3,puissent
738,3,pur
739,3,périsse
740,3,quelques
741,3,quiconque
742,3,quitte
743,3,quoique
744,3,rebelle
745,3,redoublez
746,3,regarde
747,3,regret
748,3,rend
749,3,rendant
750,3,rendez
751,3,rendra
752,3,rendu
753,3,renonce
754,3,retienne
755,3,reçoit
756,3,règne
757,3,répondre
758,3,sainte
759,3,saura
760,3,serai
761,3,sexe
762,3,sincérité
763,3,sortant
764,3,sorte
765,3,sortez
766,3,sorti
767,3,souci
768,3,souffre
769,3,soulager
770,3,soutient
771,3,spectacle
772,3,succès
773,3,suivant
774,3,sujet
775,3,supplices
776,3,survient
777,3,syrie
778,3,sévère
779,3,sévérité
780,3,telle
781,3,tels
782,3,tiens
783,3,tombe
784,3,tombeau
785,3,touche
786,3,trahir
787,3,traite
788,3,tranchez
789,3,traîner
790,3,tremble
791,3,tromper
792,3,trouvé
793,3,tôt
794,3,univers
795,3,visage
796,3,voudrait
797,3,vouloir
798,3,voulu
799,3,voyant
800,3,vrai
801,3,échange
802,3,écoute
803,3,égaler
804,3,épargnez
805,3,épouvante
806,3,étais
807,3,étiez
808,2,abaisse
809,2,abaissement
810,2,abandonnée
811,2,accuse
812,2,action
813,2,adultère
814,2,affranchir
815,2,affreux
816,2,agréez
817,2,aimable
818,2,allons
819,2,amants
820,2,amenez
821,2,amitié
822,2,amoureux
823,2,ange
824,2,antioche
825,2,antiochus
826,2,appréhende
827,2,appréhendez
828,2,arme
829,2,arrogance
830,2,asile
831,2,assassine
832,2,assurera
833,2,attacher
834,2,atteinte
835,2,attentat
836,2,attente
837,2,autel
838,2,auteur
839,2,avertir
840,2,aveu
841,2,avide
842,2,avis
843,2,avons
844,2,bannir
845,2,barbare
846,2,blesser
847,2,blâmer
848,2,bons
849,2,bontés
850,2,bourreau
851,2,bout
852,2,brûle
853,2,butin
854,2,cacher
855,2,calomnie
856,2,caprice
857,2,cercueil
858,2,cessera
859,2,cessez
860,2,ceux
861,2,changement
862,2,charmant
863,2,chasse
864,2,choisissez
865,2,chère
866,2,cohorte
867,2,combien
868,2,commis
869,2,comprendre
870,2,compte
871,2,condamner
872,2,condamné
873,2,conjure
874,2,conseil
875,2,conseils
876,2,consens
877,2,conservant
878,2,conservé
879,2,constance
880,2,conséquent
881,2,contentements
882,2,contrainte
883,2,contraire
884,2,conçu
885,2,corps
886,2,courir
887,2,couronne
888,2,coûte
889,2,croyais
890,2,cruels
891,2,crédulité
892,2,cède
893,2,côtés
894,2,damnable
895,2,demandez
896,2,demi
897,2,descend
898,2,descendue
899,2,devant
900,2,devenez
901,2,devons
902,2,dignités
903,2,disgrâce
904,2,disposer
905,2,dompte
906,2,donnée
907,2,dédaigné
908,2,délices
909,2,déplaisir
910,2,dépôt
911,2,déshonorer
912,2,déshonorée
913,2,efforce
914,2,elles
915,2,emporte
916,2,ensuite
917,2,entendez
918,2,entière
919,2,entrepris
920,2,envi
921,2,esclave
922,2,espérez
923,2,eut
924,2,excès
925,2,exposer
926,2,exposée
927,2,extrêmes
928,2,facilité
929,2,faible
930,2,fallait
931,2,famille
932,2,fatal
933,2,fatale
934,2,favorable
935,2,favoriser
936,2,ferais
937,2,feront
938,2,fierté
939,2,finir
940,2,flatter
941,2,forcé
942,2,foudre
943,2,frayeurs
944,2,frivole
945,2,froideur
946,2,frémit
947,2,fui
948,2,fuit
949,2,fut
950,2,fuyez
951,2,garder
952,2,heure
953,2,hommage
954,2,hâter
955,2,hâtez
956,2,idolâtre
957,2,idée
958,2,ignorer
959,2,immole
960,2,immolez
961,2,impie
962,2,implacable
963,2,implore
964,2,importune
965,2,impunie
966,2,impute
967,2,impérieuse
968,2,inclination
969,2,indice
970,2,indignités
971,2,indigné
972,2,indulgence
973,2,inexorable
974,2,infâmes
975,2,ingratitude
976,2,ingrats
977,2,injuste
978,2,injustice
979,2,innocence
980,2,inquiétude
981,2,insolente
982,2,inspire
983,2,interprète
984,2,irai
985,2,irrité
986,2,jetez
987,2,jette
988,2,jeune
989,2,joindre
990,2,juger
991,2,juré
992,2,languir
993,2,lente
994,2,levez
995,2,liberté
996,2,liens
997,2,longs
998,2,longtemps
999,2,lorsqu
1000,2,louer
1001,2,louez
1002,2,lâcheté
1003,2,légitime
1004,2,malgré
1005,2,malheureux
1006,2,mande
1007,2,marcellin
1008,2,marché
1009,2,mari
1010,2,marâtre
1011,2,meilleure
1012,2,mesure
1013,2,met
1014,2,meurs
1015,2,meurt
1016,2,mise
1017,2,moindre
1018,2,monde
1019,2,mortel
1020,2,mourant
1021,2,mouvement
1022,2,mériter
1023,2,mêler
1024,2,noble
1025,2,noire
1026,2,nommer
1027,2,nouvelle
1028,2,nuire
1029,2,nôtres
1030,2,oblige
1031,2,obliger
1032,2,obstine
1033,2,obéir
1034,2,obéissez
1035,2,offense
1036,2,ombre
1037,2,or
1038,2,ordonne
1039,2,ordonnez
1040,2,oreille
1041,2,osais
1042,2,osera
1043,2,oserai
1044,2,oseront
1045,2,oublier
1046,2,oubliez
1047,2,outrage
1048,2,ouvrez
1049,2,palais
1050,2,parmi
1051,2,parole
1052,2,partout
1053,2,patience
1054,2,pensée
1055,2,perd
1056,2,peuple
1057,2,peuvent
1058,2,pied
1059,2,plainte
1060,2,plaire
1061,2,plaisirs
1062,2,plein
1063,2,pleins
1064,2,plonger
1065,2,portes
1066,2,possède
1067,2,poursuis
1068,2,pousse
1069,2,pouvais
1070,2,pouvait
1071,2,pouviez
1072,2,première
1073,2,prend
1074,2,prends
1075,2,pris
1076,2,proie
1077,2,promesse
1078,2,prononcé
1079,2,protecteur
1080,2,prétends
1081,2,prévenez
1082,2,prêter
1083,2,punie
1084,2,punis
1085,2,pureté
1086,2,quelles
1087,2,quels
1088,2,quittez
1089,2,race
1090,2,racheter
1091,2,ravi
1092,2,ravir
1093,2,recevoir
1094,2,reconnaître
1095,2,recourir
1096,2,redevable
1097,2,refuser
1098,2,regard
1099,2,regarder
1100,2,rejoindre
1101,2,rencontrer
1102,2,rendait
1103,2,rende
1104,2,renvoie
1105,2,reprenez
1106,2,reproche
1107,2,respecte
1108,2,respects
1109,2,ressentiment
1110,2,retire
1111,2,reçois
1112,2,reçu
1113,2,ridicule
1114,2,rigoureuse
1115,2,rigoureux
1116,2,rigueurs
1117,2,rougir
1118,2,ruine
1119,2,ruse
1120,2,récit
1121,2,réduire
1122,2,réduite
1123,2,réglez
1124,2,répond
1125,2,résolu
1126,2,résoudre
1127,2,résoudrez
1128,2,sacrilège
1129,2,sacrilèges
1130,2,saint
1131,2,saints
1132,2,sauve
1133,2,sauvez
1134,2,sauvée
1135,2,secrets
1136,2,secrète
1137,2,secte
1138,2,sein
1139,2,sensible
1140,2,sentiment
1141,2,seriez
1142,2,serment
1143,2,soins
1144,2,sois
1145,2,soldat
1146,2,sommes
1147,2,songez
1148,2,sortie
1149,2,souhaite
1150,2,soupir
1151,2,soupirs
1152,2,soupçonneux
1153,2,soupçonné
1154,2,souvenez
1155,2,soyez
1156,2,succombe
1157,2,suivi
1158,2,suivra
1159,2,suivrai
1160,2,superflus
1161,2,suprême
1162,2,surprendre
1163,2,suspect
1164,2,sûr
1165,2,sûre
1166,2,taire
1167,2,tantôt
1168,2,telles
1169,2,tenir
1170,2,terre
1171,2,tient
1172,2,toucher
1173,2,toutes
1174,2,traiter
1175,2,traitez
1176,2,trempée
1177,2,triomphant
1178,2,trompe
1179,2,trompez
1180,2,troublée
1181,2,troupe
1182,2,trouvent
1183,2,trône
1184,2,tue
1185,2,tyrannie
1186,2,témoignage
1187,2,vaine
1188,2,vaines
1189,2,valeur
1190,2,vanité
1191,2,vendre
1192,2,venez
1193,2,verrez
1194,2,verriez
1195,2,vers
1196,2,verse
1197,2,vertus
1198,2,victimes
1199,2,vile
1200,2,violent
1201,2,visite
1202,2,vivante
1203,2,vivez
1204,2,voici
1205,2,voilà
1206,2,volontés
1207,2,voudra
1208,2,voudras
1209,2,voudrez
1210,2,voulant
1211,2,vouliez
1212,2,vérité
1213,2,âmes
1214,2,âpre
1215,2,éblouir
1216,2,échappe
1217,2,échappée
1218,2,éclate
1219,2,égale
1220,2,élève
1221,2,épargne
1222,2,épouvanter
1223,2,épris
1224,2,épée
1225,2,éternel
1226,2,étonner
1227,2,étrange
1228,2,été
1229,2,événement
1230,2,ôte
1231,2,ôter
1232,2,ôtez
1233,1,abaissant
1234,1,abandonne
1235,1,abandonnez
1236,1,abattait
1237,1,abattre
1238,1,abattu
1239,1,abattue
1240,1,abject
1241,1,abord
1242,1,absolu
1243,1,absolue
1244,1,abusait
1245,1,abuse
1246,1,abusée
1247,1,accable
1248,1,acceptant
1249,1,accompagner
1250,1,accord
1251,1,accroît
1252,1,accuser
1253,1,achète
1254,1,acquérez
1255,1,actions
1256,1,adjuger
1257,1,adorant
1258,1,adorée
1259,1,adouci
1260,1,adoucir
1261,1,adoucira
1262,1,affaiblie
1263,1,affermit
1264,1,affligée
1265,1,agis
1266,1,agissez
1267,1,agité
1268,1,agnès
1269,1,agréable
1270,1,agréerai
1271,1,agréerez
1272,1,aigrir
1273,1,aimerai
1274,1,aimerais
1275,1,aimes
1276,1,aimé
1277,1,aimée
1278,1,ajoute
1279,1,alarmiez
1280,1,allait
1281,1,alliance
1282,1,allégresse
1283,1,amante
1284,1,amertume
1285,1,amertumes
1286,1,amollir
1287,1,amours
1288,1,amuse
1289,1,amyntas
1290,1,animer
1291,1,ans
1292,1,antipathie
1293,1,aperçois
1294,1,aperçoit
1295,1,apparence
1296,1,apparences
1297,1,appartement
1298,1,appartient
1299,1,appelle
1300,1,apporte
1301,1,apporter
1302,1,apprenant
1303,1,apprends
1304,1,approche
1305,1,approuve
1306,1,ardent
1307,1,ardeurs
1308,1,armer
1309,1,armes
1310,1,arrachaient
1311,1,arrachant
1312,1,arrachera
1313,1,arrachez
1314,1,arraché
1315,1,arrive
1316,1,arrogant
1317,1,arrêté
1318,1,aspect
1319,1,aspirer
1320,1,aspiriez
1321,1,assassiner
1322,1,assassins
1323,1,asservie
1324,1,asservit
1325,1,assiduité
1326,1,assouvie
1327,1,assouvir
1328,1,assujettie
1329,1,assurances
1330,1,assure
1331,1,assurer
1332,1,assurerai
1333,1,assurez
1334,1,assuré
1335,1,assurée
1336,1,astre
1337,1,atteintes
1338,1,attendais
1339,1,atteste
1340,1,attrait
1341,1,aucune
1342,1,audacieux
1343,1,augmentera
1344,1,auriez
1345,1,auront
1346,1,auteurs
1347,1,autrement
1348,1,avaient
1349,1,avance
1350,1,avancent
1351,1,avancer
1352,1,avantage
1353,1,avertie
1354,1,aveuglé
1355,1,avidité
1356,1,avions
1357,1,avorton
1358,1,avouant
1359,1,avoue
1360,1,avouer
1361,1,avéré
1362,1,balancer
1363,1,bannisse
1364,1,bannissement
1365,1,bannissez
1366,1,bat
1367,1,beauté
1368,1,belles
1369,1,bienfait
1370,1,biens
1371,1,blasphémer
1372,1,blesse
1373,1,blâmant
1374,1,blâme
1375,1,blâmez
1376,1,bonne
1377,1,bords
1378,1,borne
1379,1,borner
1380,1,bouillants
1381,1,bourreaux
1382,1,bravez
1383,1,bravé
1384,1,bravée
1385,1,brille
1386,1,briller
1387,1,briser
1388,1,brouillé
1389,1,brutalité
1390,1,brûler
1391,1,butte
1392,1,bénin
1393,1,bénir
1394,1,cachaient
1395,1,cachait
1396,1,caches
1397,1,cajoles
1398,1,calmer
1399,1,capable
1400,1,capables
1401,1,caresses
1402,1,carnage
1403,1,cela
1404,1,cessant
1405,1,cesse
1406,1,cessiez
1407,1,chacun
1408,1,chambre
1409,1,chancelant
1410,1,change
1411,1,changeait
1412,1,changeant
1413,1,changera
1414,1,changerai
1415,1,changez
1416,1,changé
1417,1,charmait
1418,1,charmante
1419,1,charmes
1420,1,charmées
1421,1,charmés
1422,1,chassera
1423,1,chasserai
1424,1,chassez
1425,1,chassé
1426,1,chatouillements
1427,1,chef
1428,1,chemin
1429,1,cherchant
1430,1,cherchez
1431,1,cheveux
1432,1,choisi
1433,1,choisit
1434,1,chéri
1435,1,chéris
1436,1,cieux
1437,1,clairement
1438,1,clartés
1439,1,cléante
1440,1,combattu
1441,1,combattue
1442,1,comble
1443,1,combler
1444,1,comblerai
1445,1,commandement
1446,1,commandements
1447,1,commence
1448,1,compagnons
1449,1,complaisant
1450,1,complices
1451,1,concevoir
1452,1,conclut
1453,1,confiance
1454,1,confident
1455,1,confidente
1456,1,confisqué
1457,1,confondre
1458,1,confus
1459,1,conjurez
1460,1,connaissant
1461,1,connaissez
1462,1,connaît
1463,1,connue
1464,1,conscience
1465,1,conseille
1466,1,conseiller
1467,1,consent
1468,1,consentement
1469,1,consentez
1470,1,consentir
1471,1,conservait
1472,1,conserverai
1473,1,considérait
1474,1,considérer
1475,1,considéré
1476,1,constant
1477,1,consulter
1478,1,conte
1479,1,contemple
1480,1,contentez
1481,1,contentiez
1482,1,contes
1483,1,contraigniez
1484,1,conté
1485,1,convaincrez
1486,1,convie
1487,1,coule
1488,1,couleurs
1489,1,coupables
1490,1,coupe
1491,1,couple
1492,1,courageuse
1493,1,courent
1494,1,courez
1495,1,couronner
1496,1,couronnée
1497,1,courons
1498,1,court
1499,1,couru
1500,1,couvert
1501,1,couvre
1502,1,craigne
1503,1,craindrais
1504,1,craindrez
1505,1,craintes
1506,1,croirais
1507,1,croirait
1508,1,croiriez
1509,1,croit
1510,1,croyable
1511,1,croître
1512,1,cruauté
1513,1,cruelles
1514,1,crut
1515,1,crèvera
1516,1,crédit
1517,1,crédule
1518,1,céder
1519,1,cédé
1520,1,cédée
1521,1,césar
1522,1,côté
1523,1,daigné
1524,1,davantage
1525,1,degrés
1526,1,dehors
1527,1,delà
1528,1,demandait
1529,1,demander
1530,1,demandera
1531,1,demeurez
1532,1,derechef
1533,1,dernière
1534,1,descendre
1535,1,desseins
1536,1,dessus
1537,1,destinez
1538,1,devais
1539,1,deviez
1540,1,dextérité
1541,1,diadème
1542,1,difficile
1543,1,différez
1544,1,dioclétian
1545,1,dira
1546,1,dirais
1547,1,direz
1548,1,disait
1549,1,disant
1550,1,discorde
1551,1,discrétion
1552,1,dise
1553,1,disparu
1554,1,dispose
1555,1,disposez
1556,1,dispute
1557,1,dissimule
1558,1,dissiper
1559,1,dissiperait
1560,1,diverti
1561,1,divins
1562,1,dix
1563,1,doivent
1564,1,dompter
1565,1,dompterez
1566,1,dompté
1567,1,donnent
1568,1,donnes
1569,1,donné
1570,1,doucement
1571,1,durer
1572,1,dures
1573,1,durs
1574,1,dussai
1575,1,dès
1576,1,débat
1577,1,déchirer
1578,1,décide
1579,1,découverte
1580,1,dédain
1581,1,défend
1582,1,défendrai
1583,1,défendre
1584,1,défends
1585,1,défendue
1586,1,défiance
1587,1,défierais
1588,1,défère
1589,1,déguisements
1590,1,déguiser
1591,1,déguisé
1592,1,délivre
1593,1,démon
1594,1,départir
1595,1,dépens
1596,1,déplorable
1597,1,déployez
1598,1,déployiez
1599,1,dépositaire
1600,1,dépouille
1601,1,dépouillé
1602,1,dépêche
1603,1,dérobe
1604,1,dérober
1605,1,désavouerai
1606,1,désespérer
1607,1,désespérez
1608,1,déshonneur
1609,1,déshonorez
1610,1,désir
1611,1,désobéissance
1612,1,désobéissez
1613,1,désordre
1614,1,détestable
1615,1,détournais
1616,1,détromper
1617,1,détrompera
1618,1,détruira
1619,1,détruire
1620,1,détruit
1621,1,dût
1622,1,efforts
1623,1,efforçaient
1624,1,embarrassé
1625,1,embrassant
1626,1,embrasse
1627,1,emparer
1628,1,emploi
1629,1,employer
1630,1,employée
1631,1,empêcher
1632,1,encor
1633,1,endurci
1634,1,endurer
1635,1,enfance
1636,1,enfant
1637,1,enfanter
1638,1,enfants
1639,1,enfer
1640,1,enferme
1641,1,enflais
1642,1,enflait
1643,1,enflammer
1644,1,enfonce
1645,1,engager
1646,1,enhardir
1647,1,enlève
1648,1,ennoblie
1649,1,ennui
1650,1,ennuyeux
1651,1,enrichir
1652,1,ensanglantée
1653,1,entendre
1654,1,entiers
1655,1,entreprends
1656,1,entrer
1657,1,entrerais
1658,1,entretien
1659,1,entretiens
1660,1,entretient
1661,1,entrée
1662,1,envenimé
1663,1,envié
1664,1,envoyez
1665,1,escalier
1666,1,escorte
1667,1,espèrent
1668,1,espérait
1669,1,espérances
1670,1,essayer
1671,1,estimée
1672,1,eu
1673,1,eussent
1674,1,eussiez
1675,1,exauce
1676,1,exaucer
1677,1,exciter
1678,1,excuser
1679,1,exemples
1680,1,expirants
1681,1,expire
1682,1,expliquais
1683,1,expliquant
1684,1,expliquera
1685,1,expliquez
1686,1,exposes
1687,1,exprès
1688,1,extrémités
1689,1,extrême
1690,1,exécute
1691,1,exécuter
1692,1,facile
1693,1,facilement
1694,1,faille
1695,1,faillir
1696,1,faisaient
1697,1,faite
1698,1,faits
1699,1,fassent
1700,1,faudra
1701,1,faussetés
1702,1,feignait
1703,1,feigne
1704,1,feint
1705,1,feintes
1706,1,feints
1707,1,fer
1708,1,ferez
1709,1,ferme
1710,1,fermeté
1711,1,fidèles
1712,1,fier
1713,1,figure
1714,1,figurez
1715,1,filles
1716,1,finie
1717,1,fit
1718,1,flammes
1719,1,flanc
1720,1,flatterie
1721,1,flatteur
1722,1,flattez
1723,1,flattée
1724,1,fléchir
1725,1,folle
1726,1,fondement
1727,1,fondre
1728,1,fondée
1729,1,forcez
1730,1,forcées
1731,1,forcés
1732,1,forfait
1733,1,forment
1734,1,former
1735,1,fortement
1736,1,forçant
1737,1,foudroie
1738,1,foule
1739,1,fourbe
1740,1,franchement
1741,1,franchise
1742,1,frapper
1743,1,frappé
1744,1,frappée
1745,1,frayeur
1746,1,frivoles
1747,1,fruit
1748,1,fuie
1749,1,fuir
1750,1,fuirai
1751,1,fuis
1752,1,fulminer
1753,1,fumant
1754,1,fumées
1755,1,furieuse
1756,1,fus
1757,1,fâcher
1758,1,félicité
1759,1,fît
1760,1,gagné
1761,1,garantie
1762,1,garantirai
1763,1,garantiriez
1764,1,gardée
1765,1,gendre
1766,1,genoux
1767,1,glorieux
1768,1,gouffre
1769,1,gouverner
1770,1,gouvernez
1771,1,goûte
1772,1,goûtez
1773,1,grands
1774,1,gros
1775,1,guide
1776,1,guère
1777,1,gémir
1778,1,généreuse
1779,1,gêner
1780,1,gênes
1781,1,hasardera
1782,1,hasardons
1783,1,hasards
1784,1,haussant
1785,1,heureusement
1786,1,hommes
1787,1,honore
1788,1,honorerais
1789,1,hontes
1790,1,honteusement
1791,1,horreurs
1792,1,horrible
1793,1,humilier
1794,1,humiliés
1795,1,hâtons
1796,1,héros
1797,1,idolâtrie
1798,1,ignorez
1799,1,illustres
1800,1,imagine
1801,1,imiter
1802,1,immobile
1803,1,immoles
1804,1,immolés
1805,1,impatience
1806,1,impiété
1807,1,impiétés
1808,1,impollue
1809,1,importuner
1810,1,impossibilité
1811,1,impressions
1812,1,imprime
1813,1,imprimé
1814,1,imprudent
1815,1,impudence
1816,1,impudicité
1817,1,impuissante
1818,1,impuissants
1819,1,imputent
1820,1,impétueuse
1821,1,impétueux
1822,1,incapable
1823,1,incertitude
1824,1,inceste
1825,1,indifférente
1826,1,indignement
1827,1,indiscret
1828,1,indiscrets
1829,1,inflexible
1830,1,influence
1831,1,informer
1832,1,infortune
1833,1,inhumaine
1834,1,inhumains
1835,1,inimitié
1836,1,innocents
1837,1,inquiéter
1838,1,inquiété
1839,1,insensiblement
1840,1,insensée
1841,1,insolemment
1842,1,insolents
1843,1,instant
1844,1,instruis
1845,1,instruite
1846,1,insulter
1847,1,interroge
1848,1,intimide
1849,1,intérêts
1850,1,inutile
1851,1,inutiles
1852,1,inviolable
1853,1,invoquaient
1854,1,inébranlable
1855,1,inévitables
1856,1,ira
1857,1,irais
1858,1,iront
1859,1,irriter
1860,1,irrités
1861,1,irréparable
1862,1,jeter
1863,1,jetée
1864,1,jeunesse
1865,1,joindrai
1866,1,joins
1867,1,joug
1868,1,jouir
1869,1,jouissance
1870,1,jouit
1871,1,jugent
1872,1,juges
1873,1,jugiez
1874,1,jugé
1875,1,jurez
1876,1,justes
1877,1,justifiais
1878,1,laissait
1879,1,laissant
1880,1,laissons
1881,1,laissés
1882,1,lance
1883,1,las
1884,1,lentement
1885,1,libérateur
1886,1,lien
1887,1,lire
1888,1,livra
1889,1,long
1890,1,longue
1891,1,longueur
1892,1,louera
1893,1,louerai
1894,1,luire
1895,1,lustre
1896,1,lâchement
1897,1,lève
1898,1,macule
1899,1,magie
1900,1,magnanime
1901,1,maison
1902,1,malaisé
1903,1,mander
1904,1,mandé
1905,1,manquer
1906,1,manquez
1907,1,manqué
1908,1,marque
1909,1,martyr
1910,1,masque
1911,1,matière
1912,1,maudissais
1913,1,mauvaise
1914,1,maîtres
1915,1,menacer
1916,1,mener
1917,1,message
1918,1,mets
1919,1,mettant
1920,1,ministère
1921,1,misérable
1922,1,modeste
1923,1,modestie
1924,1,moindres
1925,1,moitié
1926,1,moitiés
1927,1,molle
1928,1,molles
1929,1,mollesse
1930,1,moments
1931,1,monarque
1932,1,monte
1933,1,montrait
1934,1,montre
1935,1,montrent
1936,1,mortels
1937,1,motif
1938,1,motifs
1939,1,mourait
1940,1,mourants
1941,1,mourez
1942,1,mourra
1943,1,mourrai
1944,1,mourrais
1945,1,moyens
1946,1,murmure
1947,1,murmurer
1948,1,mutins
1949,1,mutiné
1950,1,mutinée
1951,1,mutuelle
1952,1,mâle
1953,1,mène
1954,1,mémoire
1955,1,méprisable
1956,1,méprisant
1957,1,méprise
1958,1,méritait
1959,1,méritez
1960,1,méritée
1961,1,mêlant
1962,1,mêle
1963,1,mît
1964,1,naissant
1965,1,naissent
1966,1,nobles
1967,1,noeud
1968,1,noeuds
1969,1,noires
1970,1,nomme
1971,1,nommerais
1972,1,noms
1973,1,nouveauté
1974,1,nouveaux
1975,1,nouvelles
1976,1,noyez
1977,1,nue
1978,1,nuit
1979,1,nuits
1980,1,né
1981,1,objets
1982,1,obligerez
1983,1,obligez
1984,1,obscure
1985,1,obscurités
1986,1,obstines
1987,1,obstinée
1988,1,obsédé
1989,1,obtiendraient
1990,1,obéis
1991,1,obéissance
1992,1,obéissant
1993,1,occasion
1994,1,occuper
1995,1,odieux
1996,1,offenses
1997,1,offensez
1998,1,offert
1999,1,office
2000,1,offre
2001,1,opiniâtre
2002,1,opposer
2003,1,ordinaire
2004,1,ordonner
2005,1,ordres
2006,1,orgueilleux
2007,1,origine
2008,1,ornement
2009,1,osait
2010,1,osent
2011,1,oserait
2012,1,oublierais
2013,1,outrageux
2014,1,outragée
2015,1,outre
2016,1,ouvert
2017,1,ouverte
2018,1,ouïr
2019,1,paiera
2020,1,paix
2021,1,palme
2022,1,paraît
2023,1,paraître
2024,1,pardon
2025,1,pardonnable
2026,1,pardonner
2027,1,pardonnerez
2028,1,pardonnez
2029,1,pareil
2030,1,pareilles
2031,1,pareils
2032,1,parents
2033,1,parfaite
2034,1,parjure
2035,1,parois
2036,1,paroles
2037,1,parricide
2038,1,partager
2039,1,parti
2040,1,parts
2041,1,paru
2042,1,passage
2043,1,passé
2044,1,payant
2045,1,paye
2046,1,payée
2047,1,peindra
2048,1,peint
2049,1,penche
2050,1,pensées
2051,1,perce
2052,1,percera
2053,1,perdant
2054,1,perdez
2055,1,perdrait
2056,1,perdrez
2057,1,perdue
2058,1,perfide
2059,1,permettez
2060,1,permettre
2061,1,permis
2062,1,perron
2063,1,personne
2064,1,persuadée
2065,1,persécute
2066,1,persécuter
2067,1,perçant
2068,1,petite
2069,1,piqué
2070,1,placé
2071,1,plaigne
2072,1,plains
2073,1,plaint
2074,1,plais
2075,1,pleines
2076,1,pleurer
2077,1,pleurez
2078,1,pleurs
2079,1,plongée
2080,1,plût
2081,1,poison
2082,1,pompe
2083,1,pompeux
2084,1,portais
2085,1,portait
2086,1,portent
2087,1,portera
2088,1,portez
2089,1,portons
2090,1,pourraient
2091,1,pourrez
2092,1,pourriez
2093,1,poursuit
2094,1,pourvu
2095,1,poussez
2096,1,poussée
2097,1,pouvaient
2098,1,pratique
2099,1,premières
2100,1,prenant
2101,1,pressant
2102,1,pressenti
2103,1,pressez
2104,1,priant
2105,1,prier
2106,1,prisons
2107,1,prive
2108,1,privilège
2109,1,prochaine
2110,1,procurer
2111,1,prodige
2112,1,produit
2113,1,profane
2114,1,profond
2115,1,prolonger
2116,1,promesses
2117,1,promettez
2118,1,propice
2119,1,propos
2120,1,propres
2121,1,proscrite
2122,1,proscrivit
2123,1,prostitue
2124,1,prostitution
2125,1,protéger
2126,1,précipite
2127,1,préfère
2128,1,préférer
2129,1,préférée
2130,1,prépare
2131,1,préparez
2132,1,préparé
2133,1,présents
2134,1,préservé
2135,1,préside
2136,1,présomptueux
2137,1,présume
2138,1,présumer
2139,1,présumes
2140,1,prétexte
2141,1,prévenons
2142,1,prévoir
2143,1,prévois
2144,1,prévoyance
2145,1,prévu
2146,1,prête
2147,1,prêtez
2148,1,prêts
2149,1,publier
2150,1,puissamment
2151,1,puissances
2152,1,puissants
2153,1,puissiez
2154,1,puni
2155,1,puniraient
2156,1,punirait
2157,1,punirez
2158,1,punissant
2159,1,punissez
2160,1,punition
2161,1,pusse
2162,1,pâlir
2163,1,pâlit
2164,1,pâme
2165,1,pâmoison
2166,1,périra
2167,1,périrai
2168,1,périssant
2169,1,périsses
2170,1,pût
2171,1,quelquefois
2172,1,querelle
2173,1,quittera
2174,1,quittons
2175,1,quoiqu
2176,1,rabattrai
2177,1,raillerie
2178,1,raisonnable
2179,1,raisons
2180,1,ramener
2181,1,ramène
2182,1,ranime
2183,1,rançon
2184,1,rappelle
2185,1,rappellerait
2186,1,rappelles
2187,1,rapport
2188,1,rapportant
2189,1,rarement
2190,1,ravaler
2191,1,ravalé
2192,1,ravie
2193,1,rayon
2194,1,rebut
2195,1,recevais
2196,1,recevez
2197,1,recevra
2198,1,recevrez
2199,1,recevrons
2200,1,recherche
2201,1,reconnaîtrez
2202,1,reculés
2203,1,redouble
2204,1,redoutant
2205,1,redoute
2206,1,redouter
2207,1,refusait
2208,1,refusant
2209,1,refusé
2210,1,regardé
2211,1,regrets
2212,1,rejaillit
2213,1,rejetant
2214,1,rejetons
2215,1,rejette
2216,1,remords
2217,1,remplis
2218,1,remplit
2219,1,remède
2220,1,rencontré
2221,1,rendront
2222,1,rendue
2223,1,renfermez
2224,1,renoncer
2225,1,renverser
2226,1,repaît
2227,1,repaître
2228,1,repentir
2229,1,reposer
2230,1,repousser
2231,1,reprenant
2232,1,reprend
2233,1,reprendre
2234,1,ressentiments
2235,1,resté
2236,1,retenez
2237,1,retient
2238,1,retirer
2239,1,retirez
2240,1,retournez
2241,1,retraite
2242,1,revit
2243,1,revoir
2244,1,ris
2245,1,rivale
2246,1,rocher
2247,1,romain
2248,1,romaine
2249,1,rompt
2250,1,rouges
2251,1,rougeur
2252,1,rougis
2253,1,rude
2254,1,rudement
2255,1,rudes
2256,1,réduisez
2257,1,réduit
2258,1,régner
2259,1,répand
2260,1,répandant
2261,1,répandra
2262,1,répandu
2263,1,répliquer
2264,1,répliquez
2265,1,réponde
2266,1,répondrai
2267,1,répondraient
2268,1,réponds
2269,1,résistance
2270,1,résister
2271,1,résolue
2272,1,rétablissant
2273,1,réuni
2274,1,révolte
2275,1,révèle
2276,1,révéler
2277,1,rêverie
2278,1,sachant
2279,1,sachez
2280,1,sacrifiait
2281,1,sacrés
2282,1,sain
2283,1,saine
2284,1,sainement
2285,1,saintes
2286,1,sainteté
2287,1,saisi
2288,1,saisie
2289,1,saisir
2290,1,saisis
2291,1,salaire
2292,1,sales
2293,1,sanglant
2294,1,sanglante
2295,1,satisfaite
2296,1,sauvant
2297,1,sauvé
2298,1,sauvés
2299,1,savoir
2300,1,scrupule
2301,1,seconder
2302,1,secouru
2303,1,semblait
2304,1,semblent
2305,1,sembler
2306,1,semblez
2307,1,sent
2308,1,sentiments
2309,1,sentir
2310,1,seraient
2311,1,serais
2312,1,serez
2313,1,serments
2314,1,serve
2315,1,servez
2316,1,service
2317,1,services
2318,1,servie
2319,1,serviez
2320,1,sienne
2321,1,siens
2322,1,silence
2323,1,sincère
2324,1,soi
2325,1,soient
2326,1,sollicite
2327,1,sortirons
2328,1,souffert
2329,1,soufferte
2330,1,souffrirai
2331,1,souiller
2332,1,soulevés
2333,1,soumettez
2334,1,soumise
2335,1,soupirer
2336,1,soupirez
2337,1,soupçons
2338,1,sourde
2339,1,soustrait
2340,1,soutenir
2341,1,soutien
2342,1,soutiendrai
2343,1,souvenir
2344,1,souverain
2345,1,souviendrais
2346,1,souvienne
2347,1,souvient
2348,1,soûler
2349,1,spectacles
2350,1,splendeur
2351,1,subisse
2352,1,subissez
2353,1,submissions
2354,1,suivras
2355,1,suivrez
2356,1,sujets
2357,1,suppliant
2358,1,supposer
2359,1,suprêmes
2360,1,surmonter
2361,1,surprend
2362,1,surpris
2363,1,surprise
2364,1,suscite
2365,1,susciter
2366,1,suspend
2367,1,sut
2368,1,sème
2369,1,séduire
2370,1,séjour
2371,1,tache
2372,1,tard
2373,1,tarde
2374,1,tarder
2375,1,tarir
2376,1,temples
2377,1,tempête
2378,1,tempêtes
2379,1,tendresse
2380,1,tends
2381,1,teniez
2382,1,termine
2383,1,terminé
2384,1,tien
2385,1,tiendrait
2386,1,tienne
2387,1,tigres
2388,1,tigresse
2389,1,tirant
2390,1,tire
2391,1,tirer
2392,1,titre
2393,1,titres
2394,1,tombant
2395,1,tombent
2396,1,tomber
2397,1,tonne
2398,1,tonnerre
2399,1,touché
2400,1,tourne
2401,1,tournerait
2402,1,trahis
2403,1,trahit
2404,1,traitement
2405,1,traitements
2406,1,traitiez
2407,1,traitée
2408,1,tranche
2409,1,trancher
2410,1,travailler
2411,1,traînante
2412,1,traînée
2413,1,tremblant
2414,1,tremblante
2415,1,trembler
2416,1,trente
2417,1,triomphante
2418,1,tristes
2419,1,tristesse
2420,1,trompant
2421,1,trompé
2422,1,trophée
2423,1,troubles
2424,1,troublé
2425,1,trouvera
2426,1,trouverai
2427,1,trouverais
2428,1,trouvée
2429,1,truchements
2430,1,tuer
2431,1,turbulent
2432,1,tyran
2433,1,tâcher
2434,1,tâchez
2435,1,témoigne
2436,1,témoigner
2437,1,témoin
2438,1,téméraire
2439,1,témérité
2440,1,témérités
2441,1,têtes
2442,1,uni
2443,1,unions
2444,1,unir
2445,1,unirait
2446,1,unit
2447,1,usage
2448,1,user
2449,1,usez
2450,1,utile
2451,1,utilement
2452,1,valets
2453,1,vante
2454,1,vanter
2455,1,vantez
2456,1,vapeurs
2457,1,vaudra
2458,1,venge
2459,1,vengeances
2460,1,vengerai
2461,1,vengerait
2462,1,vengez
2463,1,vengeât
2464,1,vengé
2465,1,verrai
2466,1,verrait
2467,1,verras
2468,1,versez
2469,1,veuille
2470,1,victoire
2471,1,vide
2472,1,vieille
2473,1,viendrons
2474,1,vienne
2475,1,vierge
2476,1,violente
2477,1,violents
2478,1,violer
2479,1,violés
2480,1,virginité
2481,1,vision
2482,1,visites
2483,1,vit
2484,1,vivras
2485,1,voler
2486,1,voleur
2487,1,volontaire
2488,1,vomir
2489,1,vont
2490,1,voudraient
2491,1,voulait
2492,1,voulue
2493,1,vrais
2494,1,vulgaires
2495,1,vénérable
2496,1,vînt
2497,1,éblouit
2498,1,ébranler
2499,1,échapper
2500,1,éclaircir
2501,1,éclairer
2502,1,éclatez
2503,1,école
2504,1,écoutée
2505,1,écrite
2506,1,égalent
2507,1,égaliez
2508,1,égalité
2509,1,égarait
2510,1,élevé
2511,1,éloigner
2512,1,élèvent
2513,1,émouvoir
2514,1,épande
2515,1,épargner
2516,1,épargnerai
2517,1,épargné
2518,1,épouse
2519,1,épousez
2520,1,épreuve
2521,1,éprouver
2522,1,érigerons
2523,1,étaleront
2524,1,étant
2525,1,états
2526,1,éteindre
2527,1,étend
2528,1,éternité
2529,1,étincelants
2530,1,étonne
2531,1,étonnement
2532,1,étonné
2533,1,étouffent
2534,1,étranges
2535,1,évité
2536,1,ôterai
2537,1,ôterez
2538,1,ôté
