1,359,de
2,355,et
3,279,que
4,276,je
5,272,le
6,260,vous
7,243,la
8,216,en
9,214,l
10,191,un
11,182,est
12,178,d
13,160,il
14,156,ce
15,155,mon
16,148,qu
17,141,me
18,139,à
19,135,ne
20,124,qui
21,109,ma
22,108,si
23,96,mais
24,87,m
25,85,bien
26,83,les
27,82,n
28,78,plus
29,76,j
30,72,nous
31,69,votre
32,67,a
33,64,dans
34,64,on
35,64,pour
36,61,sans
37,60,pas
38,56,point
39,56,son
40,54,philante
41,52,elle
42,48,une
43,46,des
44,46,s
45,45,au
46,45,du
47,43,amour
48,43,moi
49,42,sa
50,41,lui
51,41,par
52,39,ai
53,39,esprit
54,39,tout
55,39,voir
56,38,coeur
57,38,peut
58,36,se
59,33,mes
60,33,être
61,32,c
62,32,cette
63,32,non
64,31,comme
65,30,faut
66,29,faire
67,29,âme
68,28,fait
69,28,où
70,27,ô
71,26,mal
72,26,tu
73,25,oronte
74,24,cet
75,24,fils
76,24,soit
77,24,ton
78,24,vos
79,23,avec
80,23,suis
81,22,autre
82,22,quelque
83,22,ses
84,22,y
85,22,yeux
86,21,père
87,21,t
88,20,douleur
89,20,jamais
90,20,même
91,19,ainsi
92,19,ces
93,19,fille
94,19,notre
95,19,raison
96,18,bélise
97,18,fortune
98,17,aux
99,17,leur
100,17,puis
101,17,puisse
102,17,quoi
103,17,tous
104,16,dessein
105,16,doriste
106,16,moins
107,16,nos
108,16,ou
109,16,quand
110,16,rien
111,16,seul
112,15,avez
113,15,belle
114,15,deux
115,15,enfin
116,15,ha
117,15,ici
118,15,ta
119,15,te
120,14,aussi
121,14,celui
122,14,discours
123,14,encore
124,14,gloire
125,14,honneur
126,14,mourir
127,14,quel
128,14,rival
129,14,sont
130,14,trépas
131,13,almedor
132,13,courage
133,13,dedans
134,13,dois
135,13,doit
136,13,dont
137,13,espoir
138,13,loin
139,13,nom
140,13,toi
141,13,trop
142,13,veux
143,13,vie
144,12,allons
145,12,après
146,12,assez
147,12,avant
148,12,ciel
149,12,destin
150,12,foi
151,12,luciane
152,12,pouvoir
153,12,sur
154,12,temps
155,12,va
156,12,veut
157,12,viens
158,12,étant
159,11,avoir
160,11,car
161,11,donne
162,11,homme
163,11,malheur
164,11,perdre
165,11,rosandre
166,11,soeur
167,11,sous
168,11,toujours
169,11,trouve
170,11,verra
171,11,visage
172,11,êtes
173,10,aime
174,10,amitié
175,10,cruel
176,10,dieu
177,10,ils
178,10,maux
179,10,mien
180,10,mieux
181,10,mort
182,10,oui
183,10,paris
184,10,peine
185,10,pitié
186,10,respect
187,10,voeux
188,10,voyez
189,9,aimer
190,9,amant
191,9,bon
192,9,coup
193,9,doute
194,9,force
195,9,fort
196,9,infidèle
197,9,jour
198,9,maître
199,9,milieu
200,9,monsieur
201,9,nature
202,9,oeil
203,9,plaisir
204,9,sentir
205,9,sort
206,9,vient
207,9,vois
208,9,voyant
209,8,aurait
210,8,avecques
211,8,ayant
212,8,bonheur
213,8,bras
214,8,crime
215,8,dit
216,8,donc
217,8,espère
218,8,fais
219,8,flamme
220,8,frère
221,8,fut
222,8,heureux
223,8,hélas
224,8,joie
225,8,jugement
226,8,lieu
227,8,maîtresse
228,8,ni
229,8,objet
230,8,quelle
231,8,saurait
232,8,savoir
233,8,verrai
234,8,voit
235,8,volage
236,8,était
237,7,afin
238,7,aimez
239,7,cela
240,7,cherche
241,7,chose
242,7,devenue
243,7,désirs
244,7,envie
245,7,espérance
246,7,faites
247,7,fin
248,7,inconnu
249,7,juste
250,7,là
251,7,peu
252,7,plaisirs
253,7,plutôt
254,7,porte
255,7,pourquoi
256,7,sais
257,7,sait
258,7,sera
259,7,seule
260,7,trois
261,7,voici
262,7,vrai
263,7,vu
264,7,état
265,6,amoureux
266,6,aura
267,6,beau
268,6,bientôt
269,6,braside
270,6,chacun
271,6,colère
272,6,connais
273,6,conseil
274,6,contre
275,6,crois
276,6,croyez
277,6,demande
278,6,devoir
279,6,dire
280,6,encor
281,6,ennemi
282,6,entre
283,6,espérer
284,6,excès
285,6,extrême
286,6,faute
287,6,fit
288,6,forcer
289,6,généreux
290,6,leurs
291,6,loi
292,6,main
293,6,parler
294,6,peux
295,6,prend
296,6,remède
297,6,repos
298,6,scène
299,6,sens
300,6,seulement
301,6,sortir
302,6,tant
303,6,tort
304,6,traits
305,6,trompée
306,6,trouver
307,6,vainqueur
308,6,venir
309,6,vertu
310,6,vertus
311,6,voyons
312,6,épée
313,5,accident
314,5,air
315,5,ami
316,5,aujourd
317,5,autant
318,5,avis
319,5,cacher
320,5,celle
321,5,change
322,5,chemin
323,5,cher
324,5,connaître
325,5,constance
326,5,crainte
327,5,croire
328,5,cède
329,5,depuis
330,5,devons
331,5,dites
332,5,doux
333,5,droit
334,5,démon
335,5,désormais
336,5,empire
337,5,fera
338,5,finir
339,5,fois
340,5,gens
341,5,guérir
342,5,hui
343,5,hyménée
344,5,importune
345,5,jugez
346,5,lieux
347,5,lois
348,5,long
349,5,malgré
350,5,mauvais
351,5,mer
352,5,mépris
353,5,obéir
354,5,ont
355,5,passion
356,5,perdu
357,5,place
358,5,plainte
359,5,plaire
360,5,plein
361,5,pourra
362,5,prendre
363,5,pris
364,5,puisqu
365,5,punir
366,5,reste
367,5,rigueur
368,5,sein
369,5,souffrir
370,5,suit
371,5,tiens
372,5,toute
373,5,toutes
374,5,tyran
375,5,âge
376,4,abuse
377,4,adieu
378,4,adore
379,4,aimable
380,4,aimons
381,4,aisément
382,4,apparence
383,4,appas
384,4,artifice
385,4,as
386,4,aventure
387,4,bas
388,4,blâme
389,4,bonne
390,4,bonté
391,4,brûler
392,4,certes
393,4,changer
394,4,chez
395,4,choix
396,4,chère
397,4,commande
398,4,commence
399,4,conduite
400,4,crains
401,4,dangereux
402,4,desseins
403,4,donnez
404,4,douceur
405,4,déjà
406,4,empêcher
407,4,erreur
408,4,estime
409,4,faux
410,4,feu
411,4,franchise
412,4,fuite
413,4,funeste
414,4,fureur
415,4,grand
416,4,habillement
417,4,haut
418,4,hors
419,4,humeur
420,4,importe
421,4,ingrate
422,4,intérêt
423,4,jours
424,4,longtemps
425,4,légitime
426,4,madame
427,4,maison
428,4,malheureux
429,4,mettre
430,4,meure
431,4,miens
432,4,mille
433,4,misérable
434,4,moyen
435,4,mémoire
436,4,méprise
437,4,naître
438,4,oblige
439,4,orage
440,4,ose
441,4,pardon
442,4,part
443,4,partons
444,4,peines
445,4,penser
446,4,pensée
447,4,perfide
448,4,plaisant
449,4,port
450,4,portrait
451,4,pourtant
452,4,premier
453,4,prends
454,4,propos
455,4,puisque
456,4,péril
457,4,rare
458,4,rendre
459,4,repentir
460,4,réduite
461,4,répondez
462,4,résoudre
463,4,secours
464,4,sensible
465,4,servir
466,4,soin
467,4,sorte
468,4,souffrez
469,4,suivre
470,4,superflus
471,4,séjour
472,4,tel
473,4,terre
474,4,traître
475,4,trompe
476,4,trompeur
477,4,trompé
478,4,trouvai
479,4,unique
480,4,usage
481,4,vain
482,4,valeur
483,4,vaut
484,4,vengeance
485,4,vent
486,4,vit
487,4,vivre
488,4,voulez
489,3,abord
490,3,absent
491,3,affliction
492,3,affliger
493,3,agir
494,3,aimé
495,3,aller
496,3,amante
497,3,amis
498,3,ardeur
499,3,argent
500,3,arrivé
501,3,art
502,3,attend
503,3,aurai
504,3,aurais
505,3,autres
506,3,avais
507,3,avait
508,3,avons
509,3,barbare
510,3,beaucoup
511,3,belles
512,3,blâmable
513,3,bois
514,3,brave
515,3,bretagne
516,3,canon
517,3,causé
518,3,cent
519,3,cesser
520,3,chercher
521,3,cherchez
522,3,clairement
523,3,clorian
524,3,coeurs
525,3,consens
526,3,conserver
527,3,content
528,3,contraire
529,3,corps
530,3,coupable
531,3,couvert
532,3,cru
533,3,danger
534,3,demeure
535,3,dessus
536,3,devant
537,3,devez
538,3,dis
539,3,donné
540,3,défend
541,3,défendre
542,3,désert
543,3,désespoir
544,3,elles
545,3,emporte
546,3,enfant
547,3,engage
548,3,ennemis
549,3,ennuis
550,3,entretien
551,3,envoie
552,3,es
553,3,esprits
554,3,eut
555,3,fasse
556,3,fatale
557,3,faveurs
558,3,façon
559,3,feindre
560,3,ferai
561,3,ferez
562,3,fidèle
563,3,flatter
564,3,foudre
565,3,fourbe
566,3,front
567,3,fus
568,3,fâcheux
569,3,galère
570,3,habit
571,3,haine
572,3,heur
573,3,honte
574,3,important
575,3,imposteur
576,3,inconstant
577,3,inconstante
578,3,injuste
579,3,innocence
580,3,insensible
581,3,invention
582,3,irrité
583,3,jadis
584,3,laissez
585,3,larmes
586,3,libre
587,3,longue
588,3,lors
589,3,lorsqu
590,3,lâche
591,3,manquer
592,3,manquez
593,3,meurt
594,3,mienne
595,3,moment
596,3,monde
597,3,moquer
598,3,mouvements
599,3,mérité
600,3,naissance
601,3,nomme
602,3,nouveau
603,3,nue
604,3,obéissance
605,3,oser
606,3,ouvert
607,3,ouvre
608,3,paraître
609,3,pardonne
610,3,parle
611,3,parti
612,3,passée
613,3,pauvre
614,3,pensé
615,3,perte
616,3,peur
617,3,pieds
618,3,pique
619,3,plaindre
620,3,prenez
621,3,propose
622,3,prudence
623,3,pu
624,3,puissance
625,3,qualités
626,3,rage
627,3,rebelle
628,3,rechange
629,3,refuser
630,3,reine
631,3,revoir
632,3,reçoive
633,3,rit
634,3,roi
635,3,rompre
636,3,résolu
637,3,sachant
638,3,sache
639,3,sachez
640,3,saison
641,3,saurais
642,3,sauve
643,3,sauver
644,3,savez
645,3,secondé
646,3,secret
647,3,semble
648,3,sentiments
649,3,serai
650,3,serais
651,3,serez
652,3,silence
653,3,sois
654,3,soleil
655,3,songe
656,3,souffre
657,3,soupçon
658,3,soyez
659,3,stances
660,3,suivi
661,3,sujet
662,3,sépulture
663,3,tes
664,3,torture
665,3,trahir
666,3,travers
667,3,troubler
668,3,trouvant
669,3,tâche
670,3,témoins
671,3,univers
672,3,vers
673,3,veuillez
674,3,victoire
675,3,vingt
676,3,volonté
677,3,vouloir
678,3,vîtes
679,3,éprouve
680,3,étonnement
681,3,éviter
682,3,ôte
683,2,abandonne
684,2,abandonner
685,2,abattu
686,2,absence
687,2,abuser
688,2,accompagne
689,2,accord
690,2,accorde
691,2,accusez
692,2,achever
693,2,achevez
694,2,acquiert
695,2,acquise
696,2,adonis
697,2,afflige
698,2,agit
699,2,agréable
700,2,ailes
701,2,aimée
702,2,alentour
703,2,allait
704,2,allez
705,2,allégeance
706,2,amener
707,2,amoureuse
708,2,amène
709,2,années
710,2,aperçois
711,2,appelez
712,2,apprendre
713,2,apprends
714,2,apprenez
715,2,armes
716,2,assassin
717,2,asservie
718,2,assure
719,2,attaque
720,2,atteinte
721,2,attendu
722,2,attente
723,2,aurez
724,2,auriez
725,2,aussitôt
726,2,auteur
727,2,avance
728,2,avertir
729,2,aveugle
730,2,avoue
731,2,balance
732,2,banni
733,2,battre
734,2,beautés
735,2,beaux
736,2,bel
737,2,besoin
738,2,blâmer
739,2,blâmé
740,2,bonnes
741,2,bouche
742,2,bout
743,2,braves
744,2,bronze
745,2,cache
746,2,caché
747,2,campagne
748,2,capable
749,2,caprice
750,2,cause
751,2,cependant
752,2,certain
753,2,cessez
754,2,changé
755,2,changée
756,2,charmes
757,2,cheval
758,2,chiourme
759,2,cieux
760,2,clarté
761,2,climat
762,2,combat
763,2,combats
764,2,combattre
765,2,combien
766,2,commander
767,2,commise
768,2,comparaison
769,2,conjure
770,2,connaissance
771,2,connaissez
772,2,connue
773,2,conquérant
774,2,conseiller
775,2,constant
776,2,contente
777,2,contentement
778,2,contenter
779,2,contents
780,2,continue
781,2,couronner
782,2,courroux
783,2,cours
784,2,coutume
785,2,craignant
786,2,craignez
787,2,craindre
788,2,criminel
789,2,cris
790,2,croit
791,2,croyant
792,2,côté
793,2,dame
794,2,dessous
795,2,destinée
796,2,devais
797,2,devait
798,2,devenant
799,2,devenir
800,2,différons
801,2,dise
802,2,disent
803,2,donnant
804,2,douleurs
805,2,douter
806,2,dures
807,2,décevoir
808,2,découvre
809,2,découvrons
810,2,défaut
811,2,défauts
812,2,défendant
813,2,déplaisir
814,2,désir
815,2,efface
816,2,effet
817,2,effort
818,2,embrasser
819,2,endormi
820,2,enfants
821,2,ennui
822,2,enseigne
823,2,entreprendre
824,2,entreprise
825,2,entretenir
826,2,esclave
827,2,eus
828,2,excellente
829,2,exprimer
830,2,extrémité
831,2,faibles
832,2,failli
833,2,faillir
834,2,faisons
835,2,fameux
836,2,famille
837,2,feinte
838,2,femme
839,2,ferme
840,2,finissez
841,2,fondé
842,2,font
843,2,forte
844,2,foule
845,2,france
846,2,frappé
847,2,fruits
848,2,gentil
849,2,gré
850,2,guerre
851,2,guide
852,2,guérissez
853,2,générosité
854,2,hasardeux
855,2,histoire
856,2,homicide
857,2,honteux
858,2,hymen
859,2,hé
860,2,héritier
861,2,illicite
862,2,illustre
863,2,illégitime
864,2,impitoyable
865,2,importance
866,2,inconnue
867,2,inquiétude
868,2,insolence
869,2,insolente
870,2,inspire
871,2,instant
872,2,invincible
873,2,irai
874,2,jaloux
875,2,juge
876,2,jusqu
877,2,justes
878,2,justice
879,2,laissant
880,2,laisse
881,2,langage
882,2,las
883,2,lettre
884,2,librement
885,2,logis
886,2,lorsque
887,2,lutter
888,2,maintenant
889,2,maisons
890,2,malheurs
891,2,manque
892,2,mari
893,2,masque
894,2,menace
895,2,menacez
896,2,mis
897,2,montre
898,2,more
899,2,mot
900,2,mourant
901,2,mourra
902,2,mourrai
903,2,mère
904,2,mérite
905,2,métier
906,2,noble
907,2,nuit
908,2,né
909,2,obliger
910,2,offense
911,2,or
912,2,oreille
913,2,osmin
914,2,oyant
915,2,paraît
916,2,parents
917,2,parjure
918,2,paroisse
919,2,parque
920,2,partie
921,2,passe
922,2,patrie
923,2,peinte
924,2,pensant
925,2,pensées
926,2,perd
927,2,perdrez
928,2,permettez
929,2,permis
930,2,personnes
931,2,peuvent
932,2,plaignez
933,2,plaira
934,2,plaît
935,2,pleurs
936,2,ployer
937,2,porter
938,2,porté
939,2,possible
940,2,posséder
941,2,pourvu
942,2,prison
943,2,prisonnier
944,2,prisons
945,2,procès
946,2,proie
947,2,projet
948,2,promis
949,2,promise
950,2,prés
951,2,prétends
952,2,puissants
953,2,pur
954,2,pût
955,2,quatre
956,2,quiconque
957,2,quitte
958,2,ramer
959,2,range
960,2,ranger
961,2,rapport
962,2,ravir
963,2,rayon
964,2,recevant
965,2,refuse
966,2,remarque
967,2,rempart
968,2,rendrait
969,2,rends
970,2,retenir
971,2,retenu
972,2,retenue
973,2,retire
974,2,revenir
975,2,revient
976,2,reçois
977,2,riche
978,2,rivage
979,2,romps
980,2,route
981,2,royaume
982,2,ruse
983,2,réparer
984,2,réponds
985,2,réponse
986,2,résistance
987,2,salut
988,2,sang
989,2,second
990,2,secourir
991,2,serait
992,2,serments
993,2,sers
994,2,services
995,2,serviteur
996,2,sien
997,2,soins
998,2,soldats
999,2,solitude
1000,2,songer
1001,2,sorti
1002,2,souci
1003,2,souffert
1004,2,souffrais
1005,2,soupire
1006,2,sourd
1007,2,souvenir
1008,2,souvent
1009,2,suffit
1010,2,suite
1011,2,suivons
1012,2,suivra
1013,2,suivrai
1014,2,sévérité
1015,2,taille
1016,2,taire
1017,2,tenir
1018,2,terminer
1019,2,tienne
1020,2,tient
1021,2,tiers
1022,2,tigre
1023,2,tirer
1024,2,tombent
1025,2,torrent
1026,2,toucha
1027,2,touché
1028,2,tourment
1029,2,transport
1030,2,travaux
1031,2,triomphe
1032,2,triste
1033,2,tristesse
1034,2,tromper
1035,2,trompeuse
1036,2,trouvent
1037,2,trouvé
1038,2,trésor
1039,2,trône
1040,2,tyrannie
1041,2,témoigner
1042,2,téméraire
1043,2,témérité
1044,2,tête
1045,2,user
1046,2,utile
1047,2,vaincrai
1048,2,vaisseau
1049,2,venant
1050,2,venez
1051,2,verrez
1052,2,veuille
1053,2,vice
1054,2,viendra
1055,2,ville
1056,2,violente
1057,2,voix
1058,2,voler
1059,2,voudrais
1060,2,voyais
1061,2,âmes
1062,2,éclair
1063,2,éclaircir
1064,2,écoutant
1065,2,écrit
1066,2,égal
1067,2,élever
1068,2,épreuve
1069,2,éteindre
1070,2,éternel
1071,2,étrange
1072,2,étranger
1073,2,ôter
1074,2,ôté
1075,1,abandonné
1076,1,abandonnée
1077,1,abois
1078,1,aborde
1079,1,abrège
1080,1,absolue
1081,1,abusé
1082,1,abîme
1083,1,accablé
1084,1,accablée
1085,1,accompliront
1086,1,accorder
1087,1,accroissant
1088,1,accuser
1089,1,acheter
1090,1,adorable
1091,1,adorent
1092,1,adorer
1093,1,adorera
1094,1,adoucis
1095,1,adresse
1096,1,adroit
1097,1,advenu
1098,1,adversaire
1099,1,adversaires
1100,1,advienne
1101,1,affaire
1102,1,affection
1103,1,affligée
1104,1,affreux
1105,1,afrique
1106,1,agis
1107,1,agissant
1108,1,agisse
1109,1,agitée
1110,1,agréer
1111,1,aide
1112,1,aider
1113,1,aile
1114,1,aille
1115,1,ailleurs
1116,1,aimait
1117,1,aimant
1118,1,aimerais
1119,1,aimât
1120,1,airain
1121,1,aise
1122,1,ait
1123,1,alexandre
1124,1,alger
1125,1,allant
1126,1,allume
1127,1,allé
1128,1,allégresse
1129,1,ambitieux
1130,1,amenez
1131,1,amer
1132,1,amertume
1133,1,amiral
1134,1,amortir
1135,1,amours
1136,1,ample
1137,1,amuse
1138,1,amuser
1139,1,amère
1140,1,ange
1141,1,animaux
1142,1,anime
1143,1,ans
1144,1,antique
1145,1,antoine
1146,1,antre
1147,1,appeler
1148,1,appelle
1149,1,appellent
1150,1,applique
1151,1,apprenne
1152,1,approche
1153,1,appréhender
1154,1,ardent
1155,1,ardeurs
1156,1,armont
1157,1,arrivée
1158,1,arrière
1159,1,arrêt
1160,1,arrête
1161,1,arrêter
1162,1,arrêté
1163,1,aspic
1164,1,aspirer
1165,1,assaillir
1166,1,assistance
1167,1,assouvit
1168,1,assurera
1169,1,assurez
1170,1,assuré
1171,1,astre
1172,1,attaquez
1173,1,attendant
1174,1,attendre
1175,1,attesterai
1176,1,aucun
1177,1,aucune
1178,1,augmentant
1179,1,augmente
1180,1,auparavant
1181,1,auprès
1182,1,auraient
1183,1,aurons
1184,1,auront
1185,1,autorisez
1186,1,autrement
1187,1,avancement
1188,1,avantageuse
1189,1,avarice
1190,1,avertissez
1191,1,aveuglée
1192,1,avouer
1193,1,ayez
1194,1,baisers
1195,1,bannis
1196,1,bannissons
1197,1,barrières
1198,1,basse
1199,1,battrais
1200,1,beauté
1201,1,bienvenu
1202,1,blanchi
1203,1,blesse
1204,1,blesser
1205,1,blessez
1206,1,blessure
1207,1,blessé
1208,1,blessée
1209,1,blessés
1210,1,blois
1211,1,bord
1212,1,bornais
1213,1,borner
1214,1,bornes
1215,1,boulet
1216,1,brutal
1217,1,brûlant
1218,1,brûle
1219,1,bâtir
1220,1,bénir
1221,1,cachai
1222,1,cachez
1223,1,cachée
1224,1,cachés
1225,1,calme
1226,1,cap
1227,1,capables
1228,1,capital
1229,1,captif
1230,1,captive
1231,1,caresse
1232,1,causait
1233,1,cavalier
1234,1,celez
1235,1,celles
1236,1,cendres
1237,1,censeur
1238,1,certaine
1239,1,cessant
1240,1,cesse
1241,1,cessera
1242,1,champ
1243,1,champs
1244,1,chancelante
1245,1,changeant
1246,1,changeante
1247,1,changeons
1248,1,changeriez
1249,1,chantent
1250,1,chants
1251,1,chaque
1252,1,char
1253,1,charge
1254,1,chargé
1255,1,charmant
1256,1,charmante
1257,1,charmants
1258,1,charment
1259,1,charmer
1260,1,chassant
1261,1,chasse
1262,1,chasseur
1263,1,chassez
1264,1,chaume
1265,1,cherchais
1266,1,cherchant
1267,1,chimère
1268,1,choisissez
1269,1,choquer
1270,1,choses
1271,1,chute
1272,1,château
1273,1,châtiment
1274,1,chéris
1275,1,cimeterre
1276,1,clair
1277,1,clin
1278,1,coloré
1279,1,combattions
1280,1,combattons
1281,1,combattrez
1282,1,combattus
1283,1,combler
1284,1,comité
1285,1,commandements
1286,1,commandez
1287,1,commencement
1288,1,commencer
1289,1,commença
1290,1,commis
1291,1,commun
1292,1,compagnon
1293,1,compagnons
1294,1,complaisance
1295,1,concevoir
1296,1,condamne
1297,1,condamnez
1298,1,condamnées
1299,1,conduire
1300,1,confesse
1301,1,confesser
1302,1,confessez
1303,1,confidence
1304,1,confondons
1305,1,confondre
1306,1,confus
1307,1,confuse
1308,1,confusion
1309,1,congé
1310,1,connaissant
1311,1,connaissent
1312,1,connaît
1313,1,connu
1314,1,conquête
1315,1,conseillant
1316,1,conseille
1317,1,consentir
1318,1,conservant
1319,1,conservation
1320,1,conserve
1321,1,conservez
1322,1,considérant
1323,1,considéré
1324,1,console
1325,1,consoler
1326,1,consomme
1327,1,consomment
1328,1,constante
1329,1,contentez
1330,1,contentât
1331,1,contester
1332,1,contestez
1333,1,contraint
1334,1,convie
1335,1,corsaire
1336,1,coucher
1337,1,coulerons
1338,1,coups
1339,1,cour
1340,1,courages
1341,1,courageuse
1342,1,courcie
1343,1,couronne
1344,1,couronnés
1345,1,course
1346,1,courtisan
1347,1,coutelas
1348,1,couvrirait
1349,1,coûter
1350,1,coûté
1351,1,craindrez
1352,1,craint
1353,1,craintive
1354,1,criminelle
1355,1,criminelles
1356,1,crisolite
1357,1,cristal
1358,1,croirai
1359,1,croirais
1360,1,croissants
1361,1,croyons
1362,1,cruauté
1363,1,cruelle
1364,1,crédit
1365,1,crédulité
1366,1,crûtes
1367,1,cédant
1368,1,céder
1369,1,céleste
1370,1,côtés
1371,1,daigna
1372,1,dais
1373,1,darder
1374,1,dehors
1375,1,demain
1376,1,demandant
1377,1,demander
1378,1,demandez
1379,1,demeurait
1380,1,demeurer
1381,1,dents
1382,1,derniers
1383,1,dernière
1384,1,derrière
1385,1,descende
1386,1,descendrais
1387,1,destinées
1388,1,devenais
1389,1,deviens
1390,1,deviez
1391,1,devoirs
1392,1,devrai
1393,1,devrais
1394,1,devrait
1395,1,devriez
1396,1,difficulté
1397,1,différents
1398,1,différer
1399,1,digne
1400,1,diminue
1401,1,dira
1402,1,direz
1403,1,discerner
1404,1,discourir
1405,1,discret
1406,1,discrète
1407,1,discrétion
1408,1,disiez
1409,1,disparu
1410,1,dispose
1411,1,disposer
1412,1,disputais
1413,1,distraire
1414,1,divers
1415,1,diverses
1416,1,divin
1417,1,divine
1418,1,doive
1419,1,doivent
1420,1,dommage
1421,1,dompte
1422,1,domptez
1423,1,donnait
1424,1,donner
1425,1,donnerais
1426,1,donnerait
1427,1,donnèrent
1428,1,donnée
1429,1,données
1430,1,doré
1431,1,doubla
1432,1,douceurs
1433,1,douteux
1434,1,duper
1435,1,dure
1436,1,durer
1437,1,dès
1438,1,débile
1439,1,décharge
1440,1,découvert
1441,1,découverte
1442,1,découvrir
1443,1,découvrirait
1444,1,dédale
1445,1,défaite
1446,1,défendent
1447,1,défense
1448,1,déguisement
1449,1,déguiser
1450,1,délices
1451,1,déloyale
1452,1,démêler
1453,1,dénie
1454,1,départ
1455,1,dépeigne
1456,1,dépeignez
1457,1,dépend
1458,1,dépit
1459,1,dépite
1460,1,dépitera
1461,1,déplaisirs
1462,1,dérobe
1463,1,déréglée
1464,1,dés
1465,1,désarme
1466,1,désavantage
1467,1,désire
1468,1,désirez
1469,1,désiré
1470,1,désobliger
1471,1,désobéir
1472,1,détruisez
1473,1,détruit
1474,1,détruits
1475,1,déçu
1476,1,déçue
1477,1,eau
1478,1,effacerait
1479,1,effacées
1480,1,efforts
1481,1,effronterie
1482,1,effroyable
1483,1,embarquer
1484,1,embarrasse
1485,1,employez
1486,1,employons
1487,1,emporta
1488,1,emporter
1489,1,emprunte
1490,1,emprunter
1491,1,emprunté
1492,1,empêche
1493,1,empêchement
1494,1,endroit
1495,1,endure
1496,1,endurez
1497,1,enduré
1498,1,enfer
1499,1,enferma
1500,1,enfermant
1501,1,enfermez
1502,1,enfla
1503,1,enflammer
1504,1,enflammée
1505,1,enfuit
1506,1,engagé
1507,1,engloutir
1508,1,engloutit
1509,1,enlevée
1510,1,ensevelir
1511,1,entends
1512,1,entendu
1513,1,entier
1514,1,entra
1515,1,entreprendrait
1516,1,entrer
1517,1,entretenue
1518,1,entretiendrez
1519,1,envoya
1520,1,espérais
1521,1,espérant
1522,1,espérez
1523,1,essayons
1524,1,estimer
1525,1,eu
1526,1,eux
1527,1,exact
1528,1,excessive
1529,1,excuse
1530,1,excuser
1531,1,excusera
1532,1,excuserais
1533,1,excusez
1534,1,excède
1535,1,exemple
1536,1,exercer
1537,1,expirerait
1538,1,expose
1539,1,exprime
1540,1,expérience
1541,1,extrémités
1542,1,exécuter
1543,1,face
1544,1,facile
1545,1,facilement
1546,1,faible
1547,1,faiblesse
1548,1,faisant
1549,1,faix
1550,1,fallait
1551,1,fantaisie
1552,1,fantasque
1553,1,fard
1554,1,fardeau
1555,1,fassent
1556,1,faste
1557,1,fatal
1558,1,fatalités
1559,1,faudrait
1560,1,fautes
1561,1,favoriser
1562,1,feignez
1563,1,feint
1564,1,fer
1565,1,fermes
1566,1,ferons
1567,1,feront
1568,1,fers
1569,1,feux
1570,1,fidélité
1571,1,fier
1572,1,figure
1573,1,filles
1574,1,finissant
1575,1,finissons
1576,1,firent
1577,1,flambeau
1578,1,flammes
1579,1,flattent
1580,1,flatteur
1581,1,flatteurs
1582,1,flattez
1583,1,fleur
1584,1,flexible
1585,1,flottante
1586,1,fléchir
1587,1,flétrie
1588,1,fonde
1589,1,fonder
1590,1,fondée
1591,1,forcées
1592,1,forme
1593,1,formé
1594,1,fortifier
1595,1,forts
1596,1,fortunes
1597,1,francs
1598,1,français
1599,1,frappe
1600,1,frayeur
1601,1,frisé
1602,1,froideurs
1603,1,fronts
1604,1,frêle
1605,1,fugitif
1606,1,fuis
1607,1,fuit
1608,1,fumée
1609,1,furent
1610,1,furie
1611,1,fuyant
1612,1,fuyons
1613,1,fâcher
1614,1,fâcherait
1615,1,fâché
1616,1,félicités
1617,1,fête
1618,1,fût
1619,1,gage
1620,1,gagnai
1621,1,gagner
1622,1,gagnera
1623,1,galerie
1624,1,garantir
1625,1,garde
1626,1,garder
1627,1,gendre
1628,1,genoux
1629,1,gentilhomme
1630,1,germain
1631,1,glace
1632,1,glaçon
1633,1,glorieux
1634,1,gouverne
1635,1,gouvernez
1636,1,grandeur
1637,1,grandeurs
1638,1,grands
1639,1,gronde
1640,1,gros
1641,1,grotte
1642,1,grâce
1643,1,grêle
1644,1,guider
1645,1,guérison
1646,1,gémi
1647,1,gémir
1648,1,h
1649,1,hais
1650,1,hardi
1651,1,hasards
1652,1,haute
1653,1,heure
1654,1,heureuse
1655,1,honnêtes
1656,1,honorable
1657,1,honorer
1658,1,honoré
1659,1,horreur
1660,1,humains
1661,1,humbles
1662,1,humilité
1663,1,hyères
1664,1,hôte
1665,1,hôtesse
1666,1,idée
1667,1,ignorez
1668,1,illusion
1669,1,image
1670,1,imaginaire
1671,1,imitateur
1672,1,importants
1673,1,importun
1674,1,impossible
1675,1,impérieux
1676,1,incertitude
1677,1,inclination
1678,1,incomparable
1679,1,inconstance
1680,1,indiscret
1681,1,indubitablement
1682,1,industrie
1683,1,infidèles
1684,1,infini
1685,1,infiniment
1686,1,infortune
1687,1,infâme
1688,1,infâmes
1689,1,ingrat
1690,1,ingratitude
1691,1,inhumain
1692,1,inhumaines
1693,1,injure
1694,1,injurieux
1695,1,innocente
1696,1,insensée
1697,1,insensées
1698,1,insignes
1699,1,inspirent
1700,1,instinct
1701,1,instruire
1702,1,insuffisante
1703,1,intention
1704,1,intrigue
1705,1,intérêts
1706,1,inventer
1707,1,inventé
1708,1,investi
1709,1,investir
1710,1,invisible
1711,1,inégal
1712,1,irais
1713,1,irons
1714,1,irrite
1715,1,irriter
1716,1,issue
1717,1,ivoire
1718,1,jalousie
1719,1,jeu
1720,1,jeunesse
1721,1,joint
1722,1,joints
1723,1,journée
1724,1,juger
1725,1,junon
1726,1,jure
1727,1,jurer
1728,1,juré
1729,1,laissait
1730,1,laisserez
1731,1,laissons
1732,1,large
1733,1,lassez
1734,1,lassé
1735,1,lassée
1736,1,laurier
1737,1,lauriers
1738,1,lente
1739,1,lentes
1740,1,lequel
1741,1,levant
1742,1,lever
1743,1,levez
1744,1,levé
1745,1,libertin
1746,1,lie
1747,1,lien
1748,1,ligue
1749,1,limité
1750,1,lingots
1751,1,lira
1752,1,lis
1753,1,loisir
1754,1,louange
1755,1,louche
1756,1,loue
1757,1,louera
1758,1,luit
1759,1,luth
1760,1,lâches
1761,1,léger
1762,1,mains
1763,1,malheureuse
1764,1,malice
1765,1,malices
1766,1,malin
1767,1,manger
1768,1,manie
1769,1,manquant
1770,1,mariage
1771,1,marier
1772,1,marquera
1773,1,mars
1774,1,marseille
1775,1,martyr
1776,1,martyre
1777,1,matelots
1778,1,matière
1779,1,mauvaise
1780,1,maîtrise
1781,1,meilleure
1782,1,meilleurs
1783,1,menaces
1784,1,mentir
1785,1,mené
1786,1,merveilleux
1787,1,met
1788,1,mets
1789,1,mette
1790,1,mettez
1791,1,mettrai
1792,1,meurs
1793,1,miracle
1794,1,mire
1795,1,miroir
1796,1,miséricorde
1797,1,mode
1798,1,modestie
1799,1,moindre
1800,1,mois
1801,1,monarque
1802,1,monarques
1803,1,monseigneur
1804,1,montagne
1805,1,montrera
1806,1,montré
1807,1,monté
1808,1,moque
1809,1,mordre
1810,1,morne
1811,1,morte
1812,1,mortelle
1813,1,mortels
1814,1,morts
1815,1,mourants
1816,1,mourons
1817,1,mourrons
1818,1,mourut
1819,1,mouvant
1820,1,murailles
1821,1,mutuel
1822,1,myrtes
1823,1,mystère
1824,1,méchant
1825,1,médisance
1826,1,médisants
1827,1,méprisée
1828,1,méritai
1829,1,méritez
1830,1,métal
1831,1,mêlez
1832,1,mêlons
1833,1,nage
1834,1,narcisse
1835,1,natale
1836,1,naufrage
1837,1,navire
1838,1,neuf
1839,1,noblesse
1840,1,noeuds
1841,1,noie
1842,1,noir
1843,1,noire
1844,1,noires
1845,1,nombre
1846,1,nommer
1847,1,nonobstant
1848,1,nourrir
1849,1,nouveaux
1850,1,nouvelle
1851,1,nouvelles
1852,1,nullement
1853,1,nécessaire
1854,1,nécessaires
1855,1,née
1856,1,nées
1857,1,négligent
1858,1,nôtre
1859,1,objets
1860,1,obligera
1861,1,obscurcit
1862,1,obscurité
1863,1,obstinez
1864,1,obtenir
1865,1,obtenu
1866,1,obtienne
1867,1,obéira
1868,1,obéisse
1869,1,occupe
1870,1,occuper
1871,1,octroie
1872,1,offenser
1873,1,office
1874,1,offrant
1875,1,offrez
1876,1,ois
1877,1,oiseau
1878,1,oit
1879,1,ombre
1880,1,oncle
1881,1,onde
1882,1,opinion
1883,1,opportune
1884,1,opposer
1885,1,oppresse
1886,1,opprime
1887,1,ordonnance
1888,1,ordonne
1889,1,ordonnée
1890,1,orgueil
1891,1,original
1892,1,origine
1893,1,osais
1894,1,osant
1895,1,oserai
1896,1,oses
1897,1,oublie
1898,1,oublier
1899,1,oublions
1900,1,outrage
1901,1,ouverture
1902,1,ouvrez
1903,1,ouvrons
1904,1,ouïr
1905,1,ouïs
1906,1,oyez
1907,1,paix
1908,1,palme
1909,1,parait
1910,1,pardonnable
1911,1,pardonnez
1912,1,pareil
1913,1,parer
1914,1,parlant
1915,1,parlent
1916,1,parlera
1917,1,parlons
1918,1,parmi
1919,1,parole
1920,1,parques
1921,1,partage
1922,1,partagent
1923,1,partager
1924,1,partant
1925,1,partir
1926,1,partout
1927,1,parut
1928,1,passager
1929,1,passiez
1930,1,passions
1931,1,passées
1932,1,passés
1933,1,paternel
1934,1,patience
1935,1,payant
1936,1,pencher
1937,1,pendant
1938,1,pensa
1939,1,pense
1940,1,pensez
1941,1,percés
1942,1,perdant
1943,1,perdra
1944,1,perdras
1945,1,perdus
1946,1,perles
1947,1,permettra
1948,1,persistez
1949,1,personne
1950,1,persuader
1951,1,persécute
1952,1,persécuter
1953,1,pervers
1954,1,pesant
1955,1,peste
1956,1,petite
1957,1,pirate
1958,1,pitoyable
1959,1,piège
1960,1,plaindrais
1961,1,plaise
1962,1,pleure
1963,1,plonge
1964,1,plongé
1965,1,plume
1966,1,poignard
1967,1,poignardons
1968,1,poil
1969,1,poing
1970,1,pointe
1971,1,poison
1972,1,poltronne
1973,1,pompe
1974,1,porta
1975,1,portail
1976,1,portraits
1977,1,possesseur
1978,1,possède
1979,1,possédez
1980,1,poupe
1981,1,pourrai
1982,1,pourrais
1983,1,pourront
1984,1,poursuivre
1985,1,poussez
1986,1,pouvant
1987,1,pouvez
1988,1,prendra
1989,1,prendrez
1990,1,prendrons
1991,1,prennent
1992,1,presque
1993,1,pressante
1994,1,pressée
1995,1,preste
1996,1,preuve
1997,1,prier
1998,1,prince
1999,1,princes
2000,1,prise
2001,1,prit
2002,1,privé
2003,1,projeter
2004,1,promesse
2005,1,promet
2006,1,promettez
2007,1,promettiez
2008,1,promettre
2009,1,prompte
2010,1,prononce
2011,1,prononcé
2012,1,propice
2013,1,proposez
2014,1,propre
2015,1,prose
2016,1,protée
2017,1,proue
2018,1,prouver
2019,1,province
2020,1,provinces
2021,1,près
2022,1,précipice
2023,1,préfixe
2024,1,prépare
2025,1,préparés
2026,1,présage
2027,1,présent
2028,1,présente
2029,1,prétendre
2030,1,prêter
2031,1,prêtez
2032,1,prêts
2033,1,prîtes
2034,1,puissai
2035,1,puissais
2036,1,puissant
2037,1,puissiez
2038,1,punissant
2039,1,punit
2040,1,pureté
2041,1,pus
2042,1,pâlissants
2043,1,pâmer
2044,1,pères
2045,1,péris
2046,1,pérou
2047,1,pêché
2048,1,quartier
2049,1,quelles
2050,1,quelques
2051,1,quels
2052,1,quittant
2053,1,quitter
2054,1,quitterai
2055,1,quittez
2056,1,quittons
2057,1,quoique
2058,1,raisonnable
2059,1,raisonnement
2060,1,rallumera
2061,1,ramenant
2062,1,rang
2063,1,rangée
2064,1,ranimé
2065,1,rançon
2066,1,ravie
2067,1,ravit
2068,1,rebelles
2069,1,rebuté
2070,1,recevoir
2071,1,recevra
2072,1,rechanger
2073,1,reconnaît
2074,1,recoure
2075,1,recourir
2076,1,recouvrez
2077,1,recueillera
2078,1,recueillir
2079,1,reculé
2080,1,redonner
2081,1,redoutez
2082,1,refusant
2083,1,regard
2084,1,regardant
2085,1,regarde
2086,1,regardez
2087,1,regards
2088,1,regret
2089,1,regrets
2090,1,regretter
2091,1,rejetant
2092,1,rejoindre
2093,1,relève
2094,1,remarquez
2095,1,remarqué
2096,1,remords
2097,1,remplir
2098,1,remplira
2099,1,rencontrai
2100,1,rencontrant
2101,1,rencontre
2102,1,rencontré
2103,1,rende
2104,1,rendu
2105,1,rendus
2106,1,renier
2107,1,rennes
2108,1,renomme
2109,1,renommée
2110,1,renouvelant
2111,1,repartir
2112,1,repentez
2113,1,reprenant
2114,1,reprendre
2115,1,reprenne
2116,1,reprocher
2117,1,reprochez
2118,1,requête
2119,1,respects
2120,1,respirant
2121,1,respiriez
2122,1,ressemble
2123,1,ressemblez
2124,1,ressent
2125,1,ressentiment
2126,1,ressouvenir
2127,1,ressusciter
2128,1,ressusciterait
2129,1,ressuscitez
2130,1,rester
2131,1,restes
2132,1,resté
2133,1,restée
2134,1,retarde
2135,1,retirer
2136,1,retirez
2137,1,retirons
2138,1,retomber
2139,1,retour
2140,1,retourner
2141,1,retournez
2142,1,retrace
2143,1,retâtes
2144,1,revenant
2145,1,revenez
2146,1,revenu
2147,1,revienne
2148,1,reviens
2149,1,revins
2150,1,reçu
2151,1,rigoureux
2152,1,rigueurs
2153,1,rire
2154,1,ris
2155,1,rocher
2156,1,rochers
2157,1,rome
2158,1,rompant
2159,1,rompent
2160,1,rompra
2161,1,rond
2162,1,roseau
2163,1,roses
2164,1,royale
2165,1,rusé
2166,1,règne
2167,1,règnent
2168,1,récit
2169,1,récuse
2170,1,réduit
2171,1,régnez
2172,1,réjouir
2173,1,réplique
2174,1,répondre
2175,1,résiste
2176,1,résolus
2177,1,résolvez
2178,1,réussir
2179,1,réussira
2180,1,réveiller
2181,1,sable
2182,1,sacrifice
2183,1,sagement
2184,1,sain
2185,1,saint
2186,1,sainte
2187,1,saisi
2188,1,sale
2189,1,saluai
2190,1,salue
2191,1,samaritaine
2192,1,sanglant
2193,1,satisfaisons
2194,1,saurai
2195,1,sauront
2196,1,saute
2197,1,sauvage
2198,1,sauvera
2199,1,savant
2200,1,sceptre
2201,1,seconde
2202,1,secrets
2203,1,selon
2204,1,sembler
2205,1,semonce
2206,1,semond
2207,1,sent
2208,1,sentence
2209,1,sentier
2210,1,sentiers
2211,1,serment
2212,1,serons
2213,1,seront
2214,1,serpent
2215,1,serrés
2216,1,sert
2217,1,servage
2218,1,service
2219,1,servirez
2220,1,seules
2221,1,siens
2222,1,sifflant
2223,1,signalé
2224,1,sil
2225,1,simple
2226,1,simplicité
2227,1,sinon
2228,1,siècle
2229,1,soi
2230,1,soient
2231,1,soif
2232,1,soldat
2233,1,solennel
2234,1,solides
2235,1,solitaire
2236,1,sollicitant
2237,1,somment
2238,1,songez
2239,1,songé
2240,1,sortes
2241,1,sortez
2242,1,sortie
2243,1,souche
2244,1,soucis
2245,1,souffles
2246,1,souffrance
2247,1,souffrant
2248,1,souffrirons
2249,1,souhaitais
2250,1,souhaite
2251,1,soulait
2252,1,souper
2253,1,soupir
2254,1,soupirer
2255,1,soupiriez
2256,1,soupirs
2257,1,soupçonnez
2258,1,soupçons
2259,1,sourde
2260,1,soutenir
2261,1,souvenance
2262,1,souverain
2263,1,souverainement
2264,1,souviens
2265,1,souvient
2266,1,soyons
2267,1,su
2268,1,subtile
2269,1,successeur
2270,1,succomba
2271,1,suffira
2272,1,suivais
2273,1,suivez
2274,1,suivis
2275,1,supplice
2276,1,supposons
2277,1,surprend
2278,1,surprendre
2279,1,suspect
2280,1,suspends
2281,1,sut
2282,1,séparer
2283,1,séparés
2284,1,tache
2285,1,taisant
2286,1,talonne
2287,1,tard
2288,1,tarde
2289,1,teinture
2290,1,telle
2291,1,tempête
2292,1,tenaient
2293,1,tenez
2294,1,tenter
2295,1,tenu
2296,1,terme
2297,1,termes
2298,1,terminant
2299,1,ternit
2300,1,terreur
2301,1,thésée
2302,1,timide
2303,1,timidité
2304,1,timon
2305,1,tirais
2306,1,tirait
2307,1,tirons
2308,1,toit
2309,1,tombai
2310,1,tombeau
2311,1,tomber
2312,1,tonnerre
2313,1,touche
2314,1,touchée
2315,1,tour
2316,1,tourne
2317,1,tours
2318,1,toutefois
2319,1,trace
2320,1,tracé
2321,1,tragique
2322,1,trahi
2323,1,trahirez
2324,1,trahison
2325,1,trahisse
2326,1,trait
2327,1,traite
2328,1,traitement
2329,1,traiter
2330,1,traiterai
2331,1,traitez
2332,1,traité
2333,1,tranquille
2334,1,tranquillité
2335,1,transporte
2336,1,travail
2337,1,traverses
2338,1,traversez
2339,1,tressailli
2340,1,tressauts
2341,1,triompher
2342,1,tristes
2343,1,trompait
2344,1,trompez
2345,1,troublée
2346,1,troublés
2347,1,troupe
2348,1,trouvera
2349,1,trouvons
2350,1,trésors
2351,1,turc
2352,1,turcs
2353,1,tutélaire
2354,1,tâchez
2355,1,témoignons
2356,1,union
2357,1,uniquement
2358,1,unir
2359,1,usant
2360,1,vaillante
2361,1,vaincre
2362,1,vaincrons
2363,1,vaine
2364,1,vainement
2365,1,vais
2366,1,vaisseaux
2367,1,valent
2368,1,vanité
2369,1,vanités
2370,1,vanter
2371,1,vapeur
2372,1,vas
2373,1,vendit
2374,1,venge
2375,1,venger
2376,1,venin
2377,1,vents
2378,1,venu
2379,1,venue
2380,1,verre
2381,1,verrons
2382,1,verront
2383,1,veulent
2384,1,vices
2385,1,victime
2386,1,victimes
2387,1,vienne
2388,1,viennent
2389,1,villanelle
2390,1,villes
2391,1,violence
2392,1,vis
2393,1,visiblement
2394,1,visitez
2395,1,vivant
2396,1,vive
2397,1,vivement
2398,1,vives
2399,1,vivez
2400,1,vivra
2401,1,vivrai
2402,1,voie
2403,1,voila
2404,1,voiles
2405,1,voilà
2406,1,vol
2407,1,volant
2408,1,voleur
2409,1,volontés
2410,1,voudra
2411,1,voulant
2412,1,voulu
2413,1,vus
2414,1,vénus
2415,1,véritable
2416,1,vérité
2417,1,vôtre
2418,1,ébats
2419,1,ébranlant
2420,1,échappe
2421,1,échappé
2422,1,échauffer
2423,1,échos
2424,1,éclaircie
2425,1,éclat
2426,1,éclatant
2427,1,éclate
2428,1,écoute
2429,1,écoutez
2430,1,écrivit
2431,1,écueil
2432,1,également
2433,1,égalité
2434,1,élire
2435,1,élise
2436,1,éloignant
2437,1,éloigne
2438,1,éloignent
2439,1,éloigner
2440,1,éloigné
2441,1,émeut
2442,1,émouvoir
2443,1,énée
2444,1,épands
2445,1,épousai
2446,1,épouse
2447,1,épouser
2448,1,épouvantent
2449,1,établir
2450,1,étaient
2451,1,étais
2452,1,éteignez
2453,1,étendit
2454,1,éternelle
2455,1,éternelles
2456,1,étiez
2457,1,étoiles
2458,1,étonne
2459,1,étonner
2460,1,étonnez
2461,1,étrangère
2462,1,éveillé
2463,1,évitent
2464,1,île
2465,1,îles
