1,515,vous
2,506,de
3,502,et
4,343,en
5,341,que
6,321,à
7,317,l
8,305,je
9,262,il
10,250,qu
11,238,un
12,234,le
13,224,d
14,203,la
15,200,ce
16,187,pour
17,180,est
18,155,ne
19,149,m
20,147,n
21,133,si
22,123,j
23,116,mon
24,112,mais
25,108,ma
26,107,a
27,104,me
28,104,plus
29,102,votre
30,101,son
31,96,on
32,93,elle
33,92,les
34,92,qui
35,90,s
36,90,sa
37,87,des
38,85,lui
39,85,moi
40,78,tout
41,72,pas
42,71,ai
43,71,du
44,70,au
45,69,point
46,66,une
47,64,amour
48,63,par
49,63,vos
50,62,nous
51,61,sans
52,60,dans
53,59,avec
54,57,fait
55,57,même
56,52,cette
57,52,seigneur
58,51,être
59,50,bien
60,49,coeur
61,49,leur
62,48,c
63,44,peut
64,43,se
65,43,y
66,42,ou
67,42,peu
68,41,ont
69,40,quand
70,39,madame
71,37,carthage
72,37,mes
73,37,ses
74,36,comme
75,36,voir
76,35,autre
77,35,faire
78,35,rien
79,35,suis
80,35,trop
81,34,aux
82,34,âme
83,33,cet
84,33,roi
85,32,faut
86,31,sur
87,30,avez
88,29,encor
89,29,quelque
90,28,grand
91,28,massinisse
92,28,romains
93,27,gloire
94,27,ils
95,26,ces
96,26,tant
97,25,hymen
98,25,moins
99,25,toute
100,24,foi
101,24,nos
102,24,où
103,24,rome
104,24,syphax
105,24,yeux
106,23,deux
107,22,assez
108,22,quoi
109,22,temps
110,21,avoir
111,21,reine
112,21,état
113,20,aime
114,20,eût
115,20,non
116,20,notre
117,20,tous
118,20,époux
119,19,doit
120,19,dont
121,19,jamais
122,19,scipion
123,19,vu
124,18,dire
125,18,ici
126,18,là
127,18,paix
128,18,t
129,17,donc
130,17,dès
131,17,mal
132,17,mieux
133,17,moment
134,17,quel
135,16,ait
136,16,allez
137,16,ciel
138,16,fers
139,16,main
140,16,ni
141,16,ose
142,16,puis
143,16,régner
144,16,soit
145,16,sort
146,15,avant
147,15,dit
148,15,laisse
149,15,lélius
150,15,peine
151,15,pouvoir
152,15,veux
153,15,vois
154,15,était
155,14,aimer
156,14,après
157,14,choix
158,14,dieux
159,14,effet
160,14,faveur
161,14,jusqu
162,14,mains
163,14,maître
164,14,sais
165,14,tu
166,13,doux
167,13,enfin
168,13,joie
169,13,prince
170,13,pris
171,13,sceptre
172,13,servir
173,13,sophonisbe
174,13,vainqueur
175,13,veut
176,13,vient
177,12,ah
178,12,aujourd
179,12,destin
180,12,encore
181,12,eux
182,12,haine
183,12,hui
184,12,jour
185,12,lieu
186,12,parole
187,12,perte
188,12,reste
189,12,secours
190,12,sous
191,12,victoire
192,12,voit
193,11,aussi
194,11,camp
195,11,honneur
196,11,héros
197,11,malgré
198,11,malheurs
199,11,ordre
200,11,prendre
201,11,rendre
202,11,rois
203,11,toujours
204,11,vie
205,11,voyez
206,10,amitié
207,10,avait
208,10,aveu
209,10,bonheur
210,10,craindre
211,10,digne
212,10,entre
213,10,femme
214,10,jaloux
215,10,lois
216,10,part
217,10,place
218,10,promis
219,10,présence
220,10,pu
221,10,quelques
222,10,serait
223,10,su
224,10,éryxe
225,9,ainsi
226,9,alors
227,9,aurait
228,9,chose
229,9,contre
230,9,courage
231,9,dessein
232,9,dois
233,9,donne
234,9,espoir
235,9,feu
236,9,flamme
237,9,force
238,9,fort
239,9,fut
240,9,heure
241,9,jours
242,9,justice
243,9,liberté
244,9,malheur
245,9,mien
246,9,mot
247,9,permis
248,9,personne
249,9,plaindre
250,9,puisqu
251,9,raison
252,9,seule
253,9,sont
254,9,souffrez
255,9,triomphe
256,9,vis
257,9,vivre
258,9,éviter
259,9,êtes
260,8,appui
261,8,aucun
262,8,autant
263,8,autres
264,8,celui
265,8,ceux
266,8,couronne
267,8,croire
268,8,dessus
269,8,devoir
270,8,dites
271,8,déjà
272,8,eu
273,8,feux
274,8,fois
275,8,garder
276,8,mettre
277,8,obtenir
278,8,orgueil
279,8,perdre
280,8,pitié
281,8,pleurs
282,8,puisse
283,8,rang
284,8,rend
285,8,tel
286,8,vôtre
287,7,adieu
288,7,aimez
289,7,allons
290,7,ami
291,7,amis
292,7,ardeur
293,7,attendre
294,7,aura
295,7,changement
296,7,cher
297,7,connaître
298,7,courroux
299,7,cyrthe
300,7,côté
301,7,demain
302,7,dernier
303,7,destins
304,7,dis
305,7,don
306,7,douleur
307,7,dépit
308,7,empire
309,7,esclavage
310,7,esclave
311,7,faiblesse
312,7,grande
313,7,grands
314,7,grâce
315,7,hautement
316,7,heureux
317,7,honte
318,7,hyménée
319,7,illustre
320,7,juste
321,7,laisser
322,7,leurs
323,7,lorsque
324,7,mérite
325,7,parler
326,7,porte
327,7,présent
328,7,quelle
329,7,rends
330,7,sait
331,7,sang
332,7,seul
333,7,supplice
334,7,telle
335,7,tour
336,7,toutes
337,7,étais
338,6,ailleurs
339,6,arbitre
340,6,bras
341,6,braver
342,6,captive
343,6,captivité
344,6,chagrin
345,6,charmes
346,6,coeurs
347,6,connais
348,6,conquête
349,6,crime
350,6,discours
351,6,donner
352,6,esprit
353,6,espérance
354,6,excès
355,6,fera
356,6,fortune
357,6,fus
358,6,guerre
359,6,jalouse
360,6,joint
361,6,laissez
362,6,loi
363,6,maîtresse
364,6,montrer
365,6,mourir
366,6,offrir
367,6,paraître
368,6,parle
369,6,plaît
370,6,poison
371,6,pourrait
372,6,première
373,6,prix
374,6,père
375,6,savez
376,6,sert
377,6,souci
378,6,souvenir
379,6,suivre
380,6,surprise
381,6,tiens
382,6,titre
383,6,triste
384,6,trône
385,6,va
386,6,vain
387,6,vers
388,6,voeux
389,6,voulu
390,6,vue
391,6,éclat
392,6,états
393,5,adore
394,5,agir
395,5,annibal
396,5,asdrubal
397,5,aspire
398,5,auprès
399,5,aurai
400,5,aurais
401,5,aurez
402,5,avais
403,5,aviez
404,5,batailles
405,5,beau
406,5,celles
407,5,chez
408,5,coup
409,5,cours
410,5,craint
411,5,cru
412,5,dedans
413,5,devait
414,5,devez
415,5,diadème
416,5,dirai
417,5,donné
418,5,doute
419,5,douter
420,5,dû
421,5,effort
422,5,entretien
423,5,envoie
424,5,estime
425,5,eut
426,5,exprès
427,5,facile
428,5,faites
429,5,fierté
430,5,front
431,5,haïr
432,5,impatience
433,5,infidèle
434,5,injure
435,5,intérêt
436,5,lieux
437,5,lâche
438,5,lépide
439,5,met
440,5,montrez
441,5,mourrai
442,5,nouvel
443,5,obéir
444,5,occasion
445,5,passé
446,5,perdez
447,5,plein
448,5,pourrez
449,5,pouvez
450,5,prend
451,5,prenez
452,5,propre
453,5,puisque
454,5,quitte
455,5,remettre
456,5,remise
457,5,rendu
458,5,rompre
459,5,saurait
460,5,semble
461,5,sentiments
462,5,sera
463,5,soin
464,5,souhaits
465,5,souvent
466,5,succès
467,5,surpris
468,5,sûreté
469,5,tient
470,5,trouble
471,5,vouloir
472,5,égal
473,5,égale
474,4,aisé
475,4,aller
476,4,amant
477,4,as
478,4,aspect
479,4,assurer
480,4,aucune
481,4,auriez
482,4,avantage
483,4,avis
484,4,avons
485,4,capitole
486,4,cependant
487,4,comble
488,4,commun
489,4,commune
490,4,conserver
491,4,console
492,4,consoler
493,4,demander
494,4,disgrâce
495,4,divorce
496,4,donnez
497,4,douleurs
498,4,dédaigne
499,4,déplaisir
500,4,dérober
501,4,empêcher
502,4,ennemi
503,4,ensemble
504,4,entière
505,4,exemple
506,4,extrême
507,4,face
508,4,faible
509,4,fais
510,4,fidèle
511,4,fond
512,4,forces
513,4,forts
514,4,franchise
515,4,généreux
516,4,gêne
517,4,haut
518,4,honteux
519,4,hors
520,4,hélas
521,4,importe
522,4,intérêts
523,4,jalousie
524,4,jusque
525,4,jusques
526,4,lit
527,4,livrer
528,4,milieu
529,4,moitié
530,4,moments
531,4,mort
532,4,moyens
533,4,murailles
534,4,mépris
535,4,mézétulle
536,4,nom
537,4,nouveau
538,4,objet
539,4,offerte
540,4,offre
541,4,ordres
542,4,oui
543,4,ouvrage
544,4,ouvrir
545,4,pareille
546,4,pareils
547,4,patrie
548,4,penser
549,4,peuple
550,4,plaisir
551,4,plutôt
552,4,prépare
553,4,puissance
554,4,péril
555,4,rare
556,4,recevoir
557,4,reconnaissance
558,4,redouter
559,4,refus
560,4,refuser
561,4,respect
562,4,restes
563,4,retour
564,4,revers
565,4,reçu
566,4,rival
567,4,rivale
568,4,rougir
569,4,rude
570,4,secret
571,4,sens
572,4,serais
573,4,soins
574,4,sortir
575,4,souffert
576,4,suffit
577,4,sénat
578,4,trahir
579,4,trépas
580,4,union
581,4,vaincre
582,4,vais
583,4,venir
584,4,verra
585,4,visage
586,4,voilà
587,4,voulez
588,4,voyant
589,4,âge
590,4,éteint
591,3,abandonner
592,3,absence
593,3,accorder
594,3,acquitter
595,3,affranchir
596,3,afin
597,3,africains
598,3,afrique
599,3,aimiez
600,3,aisément
601,3,ambition
602,3,appas
603,3,appris
604,3,armes
605,3,armée
606,3,art
607,3,artifice
608,3,assuré
609,3,attache
610,3,attendez
611,3,audace
612,3,aurois
613,3,autorité
614,3,balance
615,3,bas
616,3,bataille
617,3,beaucoup
618,3,besoin
619,3,bonne
620,3,bonté
621,3,bontés
622,3,briser
623,3,cause
624,3,celle
625,3,cessez
626,3,changer
627,3,changé
628,3,char
629,3,chaînes
630,3,chef
631,3,chercher
632,3,choisir
633,3,chute
634,3,combat
635,3,concevoir
636,3,conquérant
637,3,consens
638,3,crains
639,3,crois
640,3,daigne
641,3,dangereux
642,3,dehors
643,3,demande
644,3,destinée
645,3,devant
646,3,deviez
647,3,dignité
648,3,disposer
649,3,douceur
650,3,douceurs
651,3,douteux
652,3,droit
653,3,droits
654,3,dur
655,3,durant
656,3,dure
657,3,défaite
658,3,déloyauté
659,3,dépend
660,3,déplaire
661,3,déroute
662,3,effets
663,3,emporte
664,3,emporter
665,3,entrer
666,3,envie
667,3,erreur
668,3,espagne
669,3,eus
670,3,eusse
671,3,fasse
672,3,fausse
673,3,ferait
674,3,ferez
675,3,fit
676,3,forcer
677,3,fût
678,3,grandeur
679,3,haute
680,3,hommes
681,3,imprudence
682,3,impuissance
683,3,impute
684,3,incertitude
685,3,indignité
686,3,infamie
687,3,infidélité
688,3,ingratitude
689,3,intéresse
690,3,juge
691,3,juger
692,3,libre
693,3,lien
694,3,longtemps
695,3,lors
696,3,lorsqu
697,3,magnanime
698,3,malheureux
699,3,manque
700,3,mis
701,3,moindre
702,3,mourant
703,3,murs
704,3,méritait
705,3,mêmes
706,3,noeuds
707,3,noir
708,3,office
709,3,ordonne
710,3,oublier
711,3,outrage
712,3,palais
713,3,parjure
714,3,parlez
715,3,partager
716,3,passe
717,3,pays
718,3,perd
719,3,perfide
720,3,peur
721,3,porter
722,3,portez
723,3,pourrai
724,3,pourriez
725,3,pouvait
726,3,pouviez
727,3,premier
728,3,prends
729,3,promesse
730,3,prompt
731,3,prompte
732,3,préfère
733,3,prévenez
734,3,périr
735,3,quels
736,3,rage
737,3,recevra
738,3,regarde
739,3,ressentiments
740,3,retraite
741,3,reçue
742,3,romain
743,3,règne
744,3,répondre
745,3,réponds
746,3,satisfaire
747,3,saura
748,3,saurai
749,3,savoir
750,3,sentiment
751,3,serments
752,3,seulement
753,3,souffre
754,3,souffrir
755,3,souhaite
756,3,soupirs
757,3,soutenir
758,3,souveraine
759,3,souvient
760,3,soyez
761,3,suivi
762,3,sûr
763,3,tandis
764,3,temple
765,3,tendresse
766,3,tenir
767,3,touchant
768,3,toutefois
769,3,traité
770,3,tranquille
771,3,troubler
772,3,trouver
773,3,témoins
774,3,tête
775,3,unir
776,3,utique
777,3,vaincu
778,3,vainqueurs
779,3,veuille
780,3,voie
781,3,vole
782,3,voulait
783,3,voyiez
784,3,vrai
785,3,véritable
786,3,échappe
787,3,éclate
788,3,écouter
789,3,épouse
790,3,étant
791,3,éteindre
792,3,étois
793,3,été
794,2,abord
795,2,absolu
796,2,absolue
797,2,accabler
798,2,accepte
799,2,accepter
800,2,accepté
801,2,accord
802,2,acquitte
803,2,affront
804,2,aide
805,2,aigri
806,2,aigrir
807,2,aimai
808,2,aimé
809,2,aimée
810,2,air
811,2,alarmes
812,2,alliance
813,2,amants
814,2,amorces
815,2,apparence
816,2,applaudit
817,2,apprête
818,2,arrêter
819,2,asie
820,2,attachée
821,2,attentat
822,2,attente
823,2,aurions
824,2,auront
825,2,avance
826,2,avenir
827,2,aversion
828,2,avouer
829,2,ayant
830,2,balancer
831,2,bannir
832,2,barcée
833,2,basse
834,2,bassesse
835,2,beaux
836,2,biens
837,2,bientôt
838,2,bons
839,2,bout
840,2,brise
841,2,calme
842,2,car
843,2,carthaginoise
844,2,cela
845,2,cent
846,2,cesse
847,2,cessé
848,2,change
849,2,chargez
850,2,chargé
851,2,cherche
852,2,cheveux
853,2,chère
854,2,cohortes
855,2,colère
856,2,commencer
857,2,commerce
858,2,compatible
859,2,conditions
860,2,confiance
861,2,confondre
862,2,conférence
863,2,connu
864,2,conseils
865,2,consentement
866,2,consentir
867,2,considérer
868,2,consul
869,2,craignez
870,2,croirai
871,2,croit
872,2,crue
873,2,crédit
874,2,crédule
875,2,cède
876,2,céder
877,2,davantage
878,2,dernière
879,2,devenir
880,2,deviendrai
881,2,différer
882,2,dignement
883,2,dirais
884,2,disposa
885,2,dispose
886,2,disposez
887,2,douce
888,2,durer
889,2,dureté
890,2,dédaigner
891,2,dédire
892,2,défense
893,2,dégage
894,2,déplorable
895,2,désespoir
896,2,déshonorer
897,2,désirs
898,2,désordre
899,2,détrompez
900,2,détruit
901,2,détrôné
902,2,déçu
903,2,effroi
904,2,emportement
905,2,engage
906,2,enlever
907,2,ennui
908,2,ennuis
909,2,entendre
910,2,envers
911,2,enviez
912,2,espère
913,2,espérons
914,2,excuser
915,2,expresse
916,2,fameux
917,2,fassiez
918,2,fatal
919,2,favorable
920,2,favoriser
921,2,façon
922,2,feindre
923,2,fille
924,2,finisse
925,2,fière
926,2,flatte
927,2,flatter
928,2,flattée
929,2,forcé
930,2,forcée
931,2,forcés
932,2,forte
933,2,fruit
934,2,fuir
935,2,fît
936,2,fûtes
937,2,garde
938,2,gardez
939,2,gendre
940,2,gris
941,2,gémir
942,2,générosité
943,2,hannon
944,2,hasarder
945,2,hauteur
946,2,homme
947,2,honore
948,2,horreur
949,2,hyarbée
950,2,hâter
951,2,ignominie
952,2,implacable
953,2,importance
954,2,importuner
955,2,inconstant
956,2,inconstante
957,2,indigne
958,2,infâme
959,2,ingrat
960,2,injuste
961,2,inquiéter
962,2,inquiétude
963,2,insulte
964,2,jette
965,2,joindre
966,2,juré
967,2,justifier
968,2,laissent
969,2,long
970,2,lâches
971,2,majesté
972,2,manqué
973,2,matière
974,2,maux
975,2,maîtres
976,2,menace
977,2,meurs
978,2,meurt
979,2,miens
980,2,miracle
981,2,miracles
982,2,mise
983,2,misère
984,2,monarque
985,2,montré
986,2,mots
987,2,ménager
988,2,naissance
989,2,nation
990,2,naître
991,2,nombre
992,2,nomme
993,2,nouveaux
994,2,nouvelle
995,2,nuire
996,2,numidie
997,2,nécessité
998,2,nôtre
999,2,observer
1000,2,obsède
1001,2,obtenu
1002,2,ombre
1003,2,opprobre
1004,2,osais
1005,2,osez
1006,2,osé
1007,2,ouverte
1008,2,pardonne
1009,2,pareil
1010,2,parfaite
1011,2,parlons
1012,2,parlé
1013,2,parmi
1014,2,partage
1015,2,parti
1016,2,paru
1017,2,passage
1018,2,passer
1019,2,passion
1020,2,pensez
1021,2,perdu
1022,2,perdue
1023,2,perfidie
1024,2,peuples
1025,2,peuvent
1026,2,pieds
1027,2,plaira
1028,2,plaire
1029,2,plu
1030,2,poids
1031,2,politique
1032,2,pompe
1033,2,portes
1034,2,possible
1035,2,pourroit
1036,2,pourront
1037,2,pourtant
1038,2,presque
1039,2,presse
1040,2,pressentiment
1041,2,pressez
1042,2,prie
1043,2,prier
1044,2,princes
1045,2,princesse
1046,2,prisonnière
1047,2,prière
1048,2,prié
1049,2,produit
1050,2,proie
1051,2,promet
1052,2,promise
1053,2,propice
1054,2,propres
1055,2,prudence
1056,2,près
1057,2,précieux
1058,2,précipité
1059,2,préférence
1060,2,préparez
1061,2,prévenir
1062,2,prévu
1063,2,prête
1064,2,puissant
1065,2,puissent
1066,2,punie
1067,2,punir
1068,2,pût
1069,2,quant
1070,2,quelqu
1071,2,quelquefois
1072,2,quitter
1073,2,raisons
1074,2,rallumer
1075,2,range
1076,2,rapporte
1077,2,ravir
1078,2,redouble
1079,2,redoute
1080,2,refuse
1081,2,regard
1082,2,regret
1083,2,reines
1084,2,rendrai
1085,2,rendront
1086,2,rendue
1087,2,renvoie
1088,2,reprendre
1089,2,ressentiment
1090,2,retient
1091,2,rigueur
1092,2,rigueurs
1093,2,rompt
1094,2,royale
1095,2,ruine
1096,2,réduit
1097,2,régnez
1098,2,répond
1099,2,république
1100,2,résolue
1101,2,sacrifice
1102,2,saisir
1103,2,sanglots
1104,2,satisfait
1105,2,savons
1106,2,seconde
1107,2,secrète
1108,2,serai
1109,2,serez
1110,2,servent
1111,2,services
1112,2,sienne
1113,2,siège
1114,2,sois
1115,2,sombre
1116,2,sommes
1117,2,soucis
1118,2,soudain
1119,2,soupir
1120,2,souviens
1121,2,stratagème
1122,2,succomber
1123,2,suffire
1124,2,suffrage
1125,2,suivrai
1126,2,sujet
1127,2,sujets
1128,2,superflus
1129,2,surprendre
1130,2,surprises
1131,2,sévère
1132,2,sûre
1133,2,te
1134,2,tenez
1135,2,terre
1136,2,tirer
1137,2,tomber
1138,2,tourner
1139,2,trahis
1140,2,traitez
1141,2,traits
1142,2,tranquillité
1143,2,trembler
1144,2,triompher
1145,2,troisième
1146,2,troubles
1147,2,trouverez
1148,2,téméraire
1149,2,usage
1150,2,vaincus
1151,2,valeur
1152,2,vantez
1153,2,venge
1154,2,vengeance
1155,2,verrez
1156,2,vertu
1157,2,ville
1158,2,vit
1159,2,voici
1160,2,voix
1161,2,vol
1162,2,volonté
1163,2,voudra
1164,2,voudrais
1165,2,voudrait
1166,2,voudront
1167,2,vouliez
1168,2,voulions
1169,2,voyais
1170,2,vraiment
1171,2,vrais
1172,2,vît
1173,2,échapper
1174,2,également
1175,2,égarés
1176,2,épargner
1177,2,épargnez
1178,2,épousée
1179,2,éteints
1180,2,étiez
1181,2,étoit
1182,2,étrangers
1183,2,évite
1184,2,ô
1185,2,ôta
1186,2,ôte
1187,1,abandon
1188,1,abandonnée
1189,1,abattre
1190,1,abattu
1191,1,abois
1192,1,abîmer
1193,1,accablement
1194,1,accablé
1195,1,acceptant
1196,1,acceptez
1197,1,accorde
1198,1,accordent
1199,1,accueil
1200,1,acheté
1201,1,achète
1202,1,acquise
1203,1,acquérir
1204,1,actions
1205,1,admire
1206,1,adorai
1207,1,adorer
1208,1,adorés
1209,1,adouci
1210,1,adoucir
1211,1,adoucisse
1212,1,adoucit
1213,1,adresse
1214,1,adroitement
1215,1,affaibli
1216,1,affaire
1217,1,affectant
1218,1,affermisse
1219,1,affreux
1220,1,agréait
1221,1,aider
1222,1,aidoit
1223,1,aimait
1224,1,aimois
1225,1,aimons
1226,1,ajoutez
1227,1,ajuster
1228,1,alarmé
1229,1,alarmée
1230,1,alecton
1231,1,allaient
1232,1,allie
1233,1,alliés
1234,1,allume
1235,1,allumé
1236,1,allât
1237,1,allé
1238,1,alléguez
1239,1,altière
1240,1,amante
1241,1,ambitieuse
1242,1,ambitieux
1243,1,amener
1244,1,amené
1245,1,amer
1246,1,amertume
1247,1,amertumes
1248,1,amie
1249,1,amitiés
1250,1,ample
1251,1,amère
1252,1,ancien
1253,1,anima
1254,1,antipathie
1255,1,apercevoir
1256,1,appareil
1257,1,appartement
1258,1,appartient
1259,1,appartint
1260,1,apportez
1261,1,apprendra
1262,1,apprendre
1263,1,apprêtoit
1264,1,appuyer
1265,1,ardents
1266,1,ardeurs
1267,1,argent
1268,1,arrachai
1269,1,arrachais
1270,1,arracher
1271,1,arrive
1272,1,arrivent
1273,1,arriver
1274,1,arrivée
1275,1,arrosé
1276,1,arrêt
1277,1,arrêté
1278,1,asile
1279,1,assaut
1280,1,assemblage
1281,1,asservie
1282,1,asservir
1283,1,assiéger
1284,1,assujettis
1285,1,assurance
1286,1,assurez
1287,1,astre
1288,1,astres
1289,1,attacher
1290,1,attachez
1291,1,attachoit
1292,1,attale
1293,1,attaque
1294,1,attendant
1295,1,attendions
1296,1,attendrai
1297,1,attendrons
1298,1,attends
1299,1,attentes
1300,1,attentif
1301,1,attirer
1302,1,attirerais
1303,1,augmenter
1304,1,augure
1305,1,augurer
1306,1,auparavant
1307,1,auraient
1308,1,auroit
1309,1,aussitôt
1310,1,autel
1311,1,autels
1312,1,autorise
1313,1,autour
1314,1,autrefois
1315,1,autrui
1316,1,avaient
1317,1,avancer
1318,1,avertir
1319,1,avidité
1320,1,avouerez
1321,1,bannit
1322,1,barbare
1323,1,basses
1324,1,bassesses
1325,1,beauté
1326,1,bienfait
1327,1,bienheureux
1328,1,blesse
1329,1,blessée
1330,1,blocus
1331,1,bon
1332,1,borné
1333,1,bouche
1334,1,bravait
1335,1,brave
1336,1,briguer
1337,1,briguèrent
1338,1,brisaient
1339,1,brisez
1340,1,brisé
1341,1,brouiller
1342,1,bruit
1343,1,brûlais
1344,1,brûler
1345,1,butin
1346,1,butte
1347,1,cachait
1348,1,cachant
1349,1,cacher
1350,1,cachez
1351,1,camps
1352,1,caprice
1353,1,captif
1354,1,caractère
1355,1,caresser
1356,1,carthaginois
1357,1,cas
1358,1,causes
1359,1,causés
1360,1,certain
1361,1,certes
1362,1,cessant
1363,1,cesser
1364,1,chagrins
1365,1,chambre
1366,1,champ
1367,1,chancelants
1368,1,charge
1369,1,charmant
1370,1,charmants
1371,1,charmé
1372,1,charmés
1373,1,chaîne
1374,1,chefs
1375,1,chemins
1376,1,cherchait
1377,1,chercheraient
1378,1,chers
1379,1,choir
1380,1,choisisse
1381,1,choses
1382,1,chéri
1383,1,chérie
1384,1,ci
1385,1,citoyens
1386,1,climats
1387,1,combats
1388,1,commandait
1389,1,commandera
1390,1,commandiez
1391,1,commandons
1392,1,commandé
1393,1,commence
1394,1,commencés
1395,1,commençant
1396,1,communs
1397,1,compassion
1398,1,compliment
1399,1,comprends
1400,1,compris
1401,1,concerter
1402,1,concertez
1403,1,conclue
1404,1,conduire
1405,1,conduise
1406,1,conduit
1407,1,conduite
1408,1,confesse
1409,1,confusion
1410,1,conférer
1411,1,conjoncture
1412,1,conjugal
1413,1,conjugale
1414,1,conjure
1415,1,connaît
1416,1,consentent
1417,1,consentez
1418,1,conserve
1419,1,conserverez
1420,1,considère
1421,1,considérez
1422,1,conspire
1423,1,constance
1424,1,constante
1425,1,consultez
1426,1,contemple
1427,1,content
1428,1,contente
1429,1,contentements
1430,1,contraindre
1431,1,contrainte
1432,1,contraints
1433,1,contraire
1434,1,convaincra
1435,1,convaincre
1436,1,convie
1437,1,conçois
1438,1,conçu
1439,1,corps
1440,1,couleur
1441,1,coupable
1442,1,coupant
1443,1,coups
1444,1,couronner
1445,1,couronné
1446,1,couvres
1447,1,couvrir
1448,1,craindra
1449,1,criminel
1450,1,croiraient
1451,1,croyant
1452,1,croyez
1453,1,croyons
1454,1,croître
1455,1,cruel
1456,1,cruelles
1457,1,cuisant
1458,1,cèle
1459,1,cédèrent
1460,1,danger
1461,1,dards
1462,1,demandent
1463,1,demandé
1464,1,demeurer
1465,1,depuis
1466,1,derniers
1467,1,deveniez
1468,1,devers
1469,1,deviendrez
1470,1,devienne
1471,1,devint
1472,1,devroit
1473,1,devront
1474,1,devînt
1475,1,die
1476,1,dieu
1477,1,difficile
1478,1,difficultés
1479,1,différent
1480,1,dignes
1481,1,dira
1482,1,diront
1483,1,disait
1484,1,dissensions
1485,1,dissipé
1486,1,distrait
1487,1,diverse
1488,1,divertira
1489,1,doive
1490,1,domine
1491,1,donnais
1492,1,donnent
1493,1,donniez
1494,1,donnée
1495,1,dot
1496,1,double
1497,1,douces
1498,1,douterai
1499,1,douterez
1500,1,durent
1501,1,débris
1502,1,décevant
1503,1,déchaînait
1504,1,déclare
1505,1,dédaignez
1506,1,dédirais
1507,1,dédis
1508,1,dédit
1509,1,défaites
1510,1,défendre
1511,1,défends
1512,1,défendu
1513,1,défendue
1514,1,défiance
1515,1,défère
1516,1,dégager
1517,1,déguise
1518,1,démenti
1519,1,dépendance
1520,1,dépens
1521,1,déplaît
1522,1,dépouillé
1523,1,dépêche
1524,1,déraciné
1525,1,déroba
1526,1,désabuser
1527,1,désabusée
1528,1,désavantage
1529,1,désaveu
1530,1,désavouaient
1531,1,désavouerait
1532,1,désespère
1533,1,désolé
1534,1,détachai
1535,1,détachez
1536,1,détours
1537,1,détruire
1538,1,détruise
1539,1,détruite
1540,1,dévoiler
1541,1,efforts
1542,1,eh
1543,1,elles
1544,1,embarras
1545,1,embarrassant
1546,1,embrassai
1547,1,emmener
1548,1,empara
1549,1,empare
1550,1,employé
1551,1,empoisonneur
1552,1,emporta
1553,1,emportez
1554,1,emporté
1555,1,empressement
1556,1,empressements
1557,1,emprunter
1558,1,enchaîné
1559,1,enchaînée
1560,1,enfantera
1561,1,enfermer
1562,1,enflés
1563,1,enhardie
1564,1,enhardir
1565,1,ennemis
1566,1,entendrez
1567,1,entends
1568,1,entier
1569,1,entièrement
1570,1,entreprenait
1571,1,entrevue
1572,1,envahit
1573,1,enveloppé
1574,1,envié
1575,1,envoyer
1576,1,escalier
1577,1,espérer
1578,1,espérez
1579,1,essai
1580,1,essayer
1581,1,estimez
1582,1,europe
1583,1,examine
1584,1,excuse
1585,1,excusez
1586,1,exemples
1587,1,exempter
1588,1,exige
1589,1,exigeai
1590,1,exiger
1591,1,exigez
1592,1,expliquera
1593,1,expliqué
1594,1,expose
1595,1,exposer
1596,1,exposée
1597,1,exprimer
1598,1,expérience
1599,1,extrémité
1600,1,faiblesses
1601,1,faille
1602,1,faisais
1603,1,faisait
1604,1,faisiez
1605,1,faits
1606,1,fallait
1607,1,fallu
1608,1,fallût
1609,1,fantômes
1610,1,farouche
1611,1,fastueux
1612,1,faudrait
1613,1,faute
1614,1,favorisée
1615,1,feint
1616,1,ferai
1617,1,ferme
1618,1,fermer
1619,1,fermeté
1620,1,ferons
1621,1,figurer
1622,1,figurez
1623,1,finir
1624,1,finira
1625,1,finit
1626,1,fièrement
1627,1,flatteuse
1628,1,fleur
1629,1,flux
1630,1,fléchiront
1631,1,flétrie
1632,1,folle
1633,1,fondre
1634,1,forcez
1635,1,forfait
1636,1,forme
1637,1,formé
1638,1,fortement
1639,1,fortunés
1640,1,força
1641,1,frappé
1642,1,frivoles
1643,1,froid
1644,1,froide
1645,1,froidement
1646,1,froideurs
1647,1,fuite
1648,1,fumée
1649,1,fureurs
1650,1,furie
1651,1,fussiez
1652,1,fâcheux
1653,1,félicité
1654,1,gagner
1655,1,gain
1656,1,gardai
1657,1,garderait
1658,1,gardes
1659,1,genoux
1660,1,gens
1661,1,glace
1662,1,glacées
1663,1,glorieux
1664,1,gouffre
1665,1,grandes
1666,1,gré
1667,1,gémit
1668,1,général
1669,1,gétulie
1670,1,gétuliens
1671,1,gêner
1672,1,hais
1673,1,hait
1674,1,haleine
1675,1,hasard
1676,1,hasarde
1677,1,hasardez
1678,1,hautaine
1679,1,hauts
1680,1,herminie
1681,1,heur
1682,1,histoire
1683,1,hommage
1684,1,honteuse
1685,1,hospitalité
1686,1,hâté
1687,1,hérissés
1688,1,héroïque
1689,1,hésiter
1690,1,hôte
1691,1,idée
1692,1,ignorer
1693,1,illustres
1694,1,image
1695,1,imaginer
1696,1,imbécile
1697,1,immolai
1698,1,immolé
1699,1,imparfait
1700,1,impatiente
1701,1,importer
1702,1,importune
1703,1,importuné
1704,1,imprévus
1705,1,imputant
1706,1,imputer
1707,1,imputez
1708,1,impérieux
1709,1,incapable
1710,1,incertain
1711,1,inconstants
1712,1,indifférence
1713,1,indifférent
1714,1,indifférente
1715,1,indompté
1716,1,industrie
1717,1,indépendance
1718,1,infidélités
1719,1,inflexible
1720,1,informes
1721,1,infortunée
1722,1,ingrate
1723,1,ingénieux
1724,1,inimitié
1725,1,injustice
1726,1,inquiet
1727,1,inquiète
1728,1,inquiétée
1729,1,insensible
1730,1,insolemment
1731,1,intelligence
1732,1,intimide
1733,1,intrépide
1734,1,intéressé
1735,1,intéressés
1736,1,invite
1737,1,irai
1738,1,irais
1739,1,irois
1740,1,irrite
1741,1,irrité
1742,1,irritée
1743,1,irréparable
1744,1,irrésolue
1745,1,issue
1746,1,jettent
1747,1,jetât
1748,1,joug
1749,1,jouissez
1750,1,journalière
1751,1,journée
1752,1,jugez
1753,1,jugé
1754,1,justifiera
1755,1,laissaient
1756,1,laissons
1757,1,laissé
1758,1,laissée
1759,1,laquelle
1760,1,larmes
1761,1,las
1762,1,lauriers
1763,1,lettre
1764,1,lever
1765,1,libéraux
1766,1,lie
1767,1,liens
1768,1,lisez
1769,1,livrez
1770,1,loin
1771,1,longueur
1772,1,lâchement
1773,1,lâcheté
1774,1,léger
1775,1,légèreté
1776,1,maintenant
1777,1,maltraité
1778,1,manquera
1779,1,manquez
1780,1,marcher
1781,1,mari
1782,1,mariage
1783,1,marquaient
1784,1,marque
1785,1,marques
1786,1,marqué
1787,1,mars
1788,1,mauvais
1789,1,meilleurs
1790,1,mendier
1791,1,message
1792,1,mets
1793,1,mettait
1794,1,mienne
1795,1,mille
1796,1,montant
1797,1,montraient
1798,1,montrais
1799,1,montrant
1800,1,montre
1801,1,montriez
1802,1,morte
1803,1,motif
1804,1,moyen
1805,1,munie
1806,1,murmurer
1807,1,mystère
1808,1,mène
1809,1,méchant
1810,1,mélange
1811,1,mémoire
1812,1,ménagé
1813,1,méprendre
1814,1,mériter
1815,1,mêle
1816,1,mêlez
1817,1,naquit
1818,1,natal
1819,1,nations
1820,1,naturaliser
1821,1,naîtra
1822,1,neutre
1823,1,noble
1824,1,noeud
1825,1,noircir
1826,1,nommer
1827,1,nommerai
1828,1,nommerais
1829,1,nommeront
1830,1,nommez
1831,1,nommée
1832,1,noms
1833,1,nourri
1834,1,nouveauté
1835,1,numide
1836,1,numides
1837,1,nuptial
1838,1,né
1839,1,néglige
1840,1,obliger
1841,1,obligée
1842,1,obscure
1843,1,obstacle
1844,1,obstacles
1845,1,obstinais
1846,1,obstination
1847,1,obstine
1848,1,obstinée
1849,1,obsédée
1850,1,obtenez
1851,1,obtienne
1852,1,obéie
1853,1,occupe
1854,1,odieux
1855,1,offense
1856,1,offensera
1857,1,offensé
1858,1,offrent
1859,1,offrez
1860,1,offrirai
1861,1,offrit
1862,1,oppose
1863,1,opposent
1864,1,opprime
1865,1,orage
1866,1,ordonnez
1867,1,oreille
1868,1,ornement
1869,1,osait
1870,1,oser
1871,1,osera
1872,1,oserai
1873,1,oserait
1874,1,oserez
1875,1,otages
1876,1,oublie
1877,1,oubliez
1878,1,outragez
1879,1,outre
1880,1,outré
1881,1,paraient
1882,1,paraît
1883,1,paraîtront
1884,1,pardonner
1885,1,pardonnez
1886,1,parfait
1887,1,paroles
1888,1,partant
1889,1,partez
1890,1,partout
1891,1,parts
1892,1,parut
1893,1,passent
1894,1,passés
1895,1,penchant
1896,1,pense
1897,1,pensent
1898,1,pensé
1899,1,pensée
1900,1,perds
1901,1,perdues
1902,1,permettez
1903,1,permît
1904,1,peux
1905,1,pied
1906,1,piques
1907,1,places
1908,1,plaine
1909,1,plains
1910,1,plainte
1911,1,plairiez
1912,1,plaisent
1913,1,pleinement
1914,1,pleurant
1915,1,pleurante
1916,1,pleurer
1917,1,plupart
1918,1,pompes
1919,1,pompeux
1920,1,pont
1921,1,porta
1922,1,portant
1923,1,porté
1924,1,possesseur
1925,1,posséder
1926,1,poster
1927,1,pourquoi
1928,1,pourra
1929,1,pourrais
1930,1,pourrons
1931,1,pourvoir
1932,1,pourvu
1933,1,pourvus
1934,1,pouvaient
1935,1,pouvais
1936,1,pouvant
1937,1,pratique
1938,1,premiers
1939,1,prenant
1940,1,prendra
1941,1,prendrais
1942,1,prendriez
1943,1,prendrons
1944,1,prenne
1945,1,prennent
1946,1,prenoit
1947,1,pressant
1948,1,pressât
1949,1,preuve
1950,1,priait
1951,1,prise
1952,1,prisonnier
1953,1,prisonniers
1954,1,prochaine
1955,1,produire
1956,1,produisait
1957,1,profiter
1958,1,profond
1959,1,profonds
1960,1,projeté
1961,1,promets
1962,1,promettait
1963,1,promettiez
1964,1,promettre
1965,1,propices
1966,1,propose
1967,1,proposée
1968,1,protestez
1969,1,province
1970,1,prusias
1971,1,précipice
1972,1,préférer
1973,1,préférez
1974,1,préparait
1975,1,préparer
1976,1,présage
1977,1,présente
1978,1,préserve
1979,1,présume
1980,1,prétendait
1981,1,prétends
1982,1,prétexte
1983,1,prévaloir
1984,1,prévient
1985,1,prévois
1986,1,prêt
1987,1,prêtiez
1988,1,prêtoit
1989,1,prêtés
1990,1,puissiez
1991,1,puissé
1992,1,puni
1993,1,punira
1994,1,punissez
1995,1,pussent
1996,1,pâleur
1997,1,pénible
1998,1,pénétrer
1999,1,périls
2000,1,périrai
2001,1,querelle
2002,1,quittai
2003,1,quittant
2004,1,quitterais
2005,1,quittée
2006,1,racheter
2007,1,raffermis
2008,1,ralenti
2009,1,rallumés
2010,1,ramassées
2011,1,rapport
2012,1,rapporter
2013,1,rapporterai
2014,1,rassurez
2015,1,rattacher
2016,1,ravaler
2017,1,ravi
2018,1,ravie
2019,1,ravisseur
2020,1,rebelle
2021,1,rebute
2022,1,recevez
2023,1,recevrai
2024,1,reconnaître
2025,1,reconnoît
2026,1,reconquis
2027,1,redevable
2028,1,redoutable
2029,1,reflux
2030,1,refuge
2031,1,refusez
2032,1,refusée
2033,1,regagner
2034,1,regardent
2035,1,regarder
2036,1,regardez
2037,1,regards
2038,1,regretter
2039,1,rejaillir
2040,1,rejetez
2041,1,rejette
2042,1,rejoins
2043,1,relever
2044,1,remarquer
2045,1,remerciement
2046,1,remises
2047,1,rempli
2048,1,remplir
2049,1,remplis
2050,1,remède
2051,1,remît
2052,1,renaissante
2053,1,renaître
2054,1,rendaient
2055,1,rendait
2056,1,rende
2057,1,rendez
2058,1,rendues
2059,1,renferme
2060,1,renonce
2061,1,rentre
2062,1,rentrer
2063,1,renvoyer
2064,1,renvoyez
2065,1,renvoyé
2066,1,reportez
2067,1,repousse
2068,1,repousser
2069,1,reprenant
2070,1,reprend
2071,1,reprenons
2072,1,repris
2073,1,reproche
2074,1,reprocher
2075,1,reprochez
2076,1,reprît
2077,1,respecte
2078,1,respectent
2079,1,respirer
2080,1,retardement
2081,1,retenue
2082,1,retourner
2083,1,revenu
2084,1,revenue
2085,1,reviendra
2086,1,revient
2087,1,revoie
2088,1,revoir
2089,1,revoyais
2090,1,revu
2091,1,reçois
2092,1,reçoit
2093,1,reçoivent
2094,1,reçus
2095,1,reçut
2096,1,ridicule
2097,1,ridé
2098,1,romaine
2099,1,rompit
2100,1,rompra
2101,1,romps
2102,1,rompue
2103,1,route
2104,1,royaume
2105,1,règle
2106,1,réduire
2107,1,réfléchit
2108,1,régla
2109,1,réglez
2110,1,régnerez
2111,1,régniez
2112,1,réparable
2113,1,répare
2114,1,répondait
2115,1,réponde
2116,1,répondrai
2117,1,répondrais
2118,1,réponse
2119,1,réserve
2120,1,résolus
2121,1,résolviez
2122,1,résoudre
2123,1,rétabli
2124,1,réuni
2125,1,réunit
2126,1,révélé
2127,1,sachez
2128,1,sacrifier
2129,1,sacrifiés
2130,1,sacré
2131,1,saint
2132,1,saintes
2133,1,saisi
2134,1,saisie
2135,1,saisissent
2136,1,saisit
2137,1,saison
2138,1,salutaire
2139,1,satisfaite
2140,1,sauraient
2141,1,sauriez
2142,1,saurions
2143,1,saurons
2144,1,sauront
2145,1,sauvent
2146,1,sauver
2147,1,sauvez
2148,1,savent
2149,1,scrupule
2150,1,secourable
2151,1,secourir
2152,1,secrètes
2153,1,sein
2154,1,semblaient
2155,1,semblait
2156,1,semblent
2157,1,sentiez
2158,1,sentirait
2159,1,sentiriez
2160,1,sentis
2161,1,serment
2162,1,serons
2163,1,sers
2164,1,servais
2165,1,servi
2166,1,service
2167,1,servie
2168,1,servitude
2169,1,seuls
2170,1,sexe
2171,1,sied
2172,1,sien
2173,1,siens
2174,1,signalé
2175,1,silence
2176,1,sillons
2177,1,sincère
2178,1,sitôt
2179,1,siérait
2180,1,soi
2181,1,soient
2182,1,soir
2183,1,soldat
2184,1,soldats
2185,1,soleil
2186,1,solides
2187,1,solliciter
2188,1,sorte
2189,1,sortis
2190,1,sortons
2191,1,souffrance
2192,1,souffrent
2193,1,souhaiter
2194,1,souhaitez
2195,1,soulager
2196,1,soulever
2197,1,soumettez
2198,1,soumis
2199,1,soumise
2200,1,soupire
2201,1,soupçonner
2202,1,soupçonné
2203,1,soupçons
2204,1,sourire
2205,1,souris
2206,1,souscrire
2207,1,soustraire
2208,1,soutienne
2209,1,soutient
2210,1,souvenu
2211,1,souverain
2212,1,spectacle
2213,1,splendeur
2214,1,succède
2215,1,sueur
2216,1,suffira
2217,1,suit
2218,1,suive
2219,1,suivis
2220,1,suivra
2221,1,suivrez
2222,1,sujette
2223,1,suprême
2224,1,surcroît
2225,1,surprenant
2226,1,surprend
2227,1,surprit
2228,1,sus
2229,1,suspecte
2230,1,suspects
2231,1,séduire
2232,1,séjour
2233,1,sépare
2234,1,séparer
2235,1,sûrement
2236,1,table
2237,1,taches
2238,1,tantôt
2239,1,tarde
2240,1,tardé
2241,1,temples
2242,1,tend
2243,1,tendait
2244,1,tendant
2245,1,tentes
2246,1,tenu
2247,1,terminer
2248,1,tiendrai
2249,1,tiendrez
2250,1,tirais
2251,1,toi
2252,1,tombe
2253,1,tombée
2254,1,tonnerre
2255,1,tort
2256,1,toucher
2257,1,touché
2258,1,tourment
2259,1,tourmenter
2260,1,tracer
2261,1,trahie
2262,1,trahira
2263,1,trahison
2264,1,trahisons
2265,1,trahit
2266,1,traitable
2267,1,traitait
2268,1,traitée
2269,1,trancher
2270,1,travaux
2271,1,traînant
2272,1,traîner
2273,1,traînez
2274,1,traînée
2275,1,traître
2276,1,traîtres
2277,1,tremblé
2278,1,tribuns
2279,1,triomphant
2280,1,triomphante
2281,1,trompe
2282,1,tromper
2283,1,trompette
2284,1,trompée
2285,1,troublé
2286,1,troupes
2287,1,trouva
2288,1,trouve
2289,1,trouvent
2290,1,trouvera
2291,1,trouverai
2292,1,trouvoit
2293,1,trouvé
2294,1,trébucher
2295,1,trésor
2296,1,trêve
2297,1,trônes
2298,1,tyr
2299,1,tyranniser
2300,1,tyrans
2301,1,tyriens
2302,1,tâchez
2303,1,témoigniez
2304,1,témoin
2305,1,témérité
2306,1,tôt
2307,1,unique
2308,1,ur
2309,1,use
2310,1,usent
2311,1,user
2312,1,usurpateur
2313,1,vagabond
2314,1,vaillance
2315,1,vaillant
2316,1,vaincrons
2317,1,vaine
2318,1,vanité
2319,1,vanter
2320,1,vantiez
2321,1,vanté
2322,1,vaut
2323,1,veines
2324,1,venait
2325,1,venez
2326,1,venger
2327,1,vengez
2328,1,vengé
2329,1,venois
2330,1,verrais
2331,1,verrait
2332,1,verrons
2333,1,verront
2334,1,versa
2335,1,versé
2336,1,vertus
2337,1,veulent
2338,1,vicissitude
2339,1,vieille
2340,1,vieillesse
2341,1,viendra
2342,1,vienne
2343,1,viens
2344,1,vieux
2345,1,vif
2346,1,villes
2347,1,violence
2348,1,violé
2349,1,violée
2350,1,visite
2351,1,vivant
2352,1,vive
2353,1,vivez
2354,1,vivrez
2355,1,voisin
2356,1,volant
2357,1,voler
2358,1,volée
2359,1,vont
2360,1,voudraient
2361,1,voudrez
2362,1,voulut
2363,1,voyaient
2364,1,voyons
2365,1,vérités
2366,1,vînt
2367,1,vôtres
2368,1,ébranler
2369,1,échappé
2370,1,éclaircissements
2371,1,éclatante
2372,1,éclater
2373,1,écoutait
2374,1,écoute
2375,1,écoutez
2376,1,écoutée
2377,1,écrire
2378,1,écrit
2379,1,égalité
2380,1,éloignant
2381,1,éloigner
2382,1,éloigné
2383,1,éperdue
2384,1,épousai
2385,1,épousera
2386,1,épreuve
2387,1,étale
2388,1,étaler
2389,1,éteigne
2390,1,éteignit
2391,1,éteinte
2392,1,étend
2393,1,éternelles
2394,1,étonne
2395,1,étonné
2396,1,étonnée
2397,1,étouffez
2398,1,étrange
2399,1,étranges
2400,1,étreindre
2401,1,étudiée
2402,1,éviterez
2403,1,événement
2404,1,événements
2405,1,ôtait
2406,1,ôtant
2407,1,ôté
