#Word Types: 2261
#Word Tokens: 13713
#Search Hits: 0
1	419	de	
2	340	vous	
3	304	et	
4	278	que	
5	254	l	
6	240	à	
7	232	je	
8	218	le	
9	211	il	
10	192	un	
11	190	qu	
12	189	en	
13	176	la	
14	162	d	
15	130	ne	
16	125	son	
17	124	les	
18	117	qui	
19	115	est	
20	108	ce	
21	101	n	
22	101	sa	
23	98	si	
24	96	vos	
25	93	mon	
26	93	ses	
27	92	pour	
28	91	des	
29	88	me	
30	86	mais	
31	79	m	
32	78	lui	
33	76	une	
34	75	au	
35	74	votre	
36	71	on	
37	71	porus	
38	67	coeur	
39	66	a	
40	66	nous	
41	60	point	
42	59	dans	
43	59	s	
44	59	seigneur	
45	57	moi	
46	57	plus	
47	57	se	
48	56	alexandre	
49	54	gloire	
50	54	j	
51	52	même	
52	52	tout	
53	50	bien	
54	50	pas	
55	50	peut	
56	50	sans	
57	48	ma	
58	48	mes	
59	47	du	
60	47	tant	
61	45	par	
62	45	sur	
63	44	c	
64	41	madame	
65	37	taxile	
66	37	yeux	
67	34	faut	
68	34	vainqueur	
69	34	victoire	
70	32	nos	
71	32	ont	
72	32	rois	
73	30	ai	
74	30	être	
75	29	amour	
76	29	leur	
77	28	contre	
78	28	seul	
79	27	avec	
80	27	ces	
81	27	fait	
82	27	tu	
83	26	aux	
84	26	quoi	
85	26	roi	
86	25	ah	
87	25	elle	
88	25	encor	
89	25	ou	
90	25	tous	
91	24	ils	
92	24	où	
93	24	âme	
94	23	cette	
95	23	sous	
96	23	trop	
97	23	veut	
98	23	vu	
99	23	états	
100	22	bras	
101	22	grand	
102	22	moins	
103	22	non	
104	22	te	
105	21	oui	
106	21	soeur	
107	20	maître	
108	20	rien	
109	20	soins	
110	19	courroux	
111	19	ennemi	
112	19	hé	
113	19	t	
114	19	y	
115	18	ardeur	
116	17	allez	
117	17	donc	
118	17	leurs	
119	17	quand	
120	17	valeur	
121	17	voulez	
122	16	aime	
123	16	amitié	
124	16	après	
125	16	dont	
126	16	enfin	
127	16	ennemis	
128	16	frère	
129	16	quelque	
130	16	toujours	
131	16	veux	
132	16	était	
133	15	autre	
134	15	bientôt	
135	15	comme	
136	15	entre	
137	15	haine	
138	15	nom	
139	15	orgueil	
140	15	partout	
141	15	peuples	
142	15	soupirs	
143	15	vient	
144	15	voeux	
145	14	courage	
146	14	déjà	
147	14	héros	
148	14	ici	
149	14	main	
150	14	pu	
151	14	puis	
152	14	rival	
153	14	ta	
154	14	ton	
155	14	univers	
156	14	vain	
157	14	voir	
158	13	aujourd	
159	13	cet	
160	13	cherche	
161	13	combat	
162	13	exploits	
163	13	hui	
164	13	lieux	
165	13	paix	
166	13	sais	
167	13	tes	
168	13	toi	
169	12	amant	
170	12	axiane	
171	12	croyez	
172	12	deux	
173	12	dit	
174	12	empire	
175	12	encore	
176	12	faire	
177	12	fers	
178	12	fois	
179	12	font	
180	12	jamais	
181	12	mort	
182	12	prince	
183	12	soin	
184	12	sort	
185	12	temps	
186	11	armes	
187	11	armée	
188	11	arrêter	
189	11	bruit	
190	11	eût	
191	11	jusqu	
192	11	lois	
193	11	mains	
194	11	malgré	
195	11	reine	
196	11	reste	
197	11	sang	
198	11	sont	
199	11	éclat	
200	10	appui	
201	10	avait	
202	10	camp	
203	10	dire	
204	10	esclave	
205	10	pourquoi	
206	10	rendre	
207	10	tombeau	
208	10	vais	
209	10	vertu	
210	9	assez	
211	9	autant	
212	9	beaux	
213	9	bonheur	
214	9	cent	
215	9	chercher	
216	9	combattre	
217	9	coups	
218	9	doit	
219	9	hélas	
220	9	loin	
221	9	ose	
222	9	princes	
223	9	provinces	
224	9	prêt	
225	9	puisse	
226	9	quelle	
227	9	rang	
228	9	soldats	
229	9	suis	
230	9	terre	
231	9	va	
232	9	vie	
233	8	attaquer	
234	8	attend	
235	8	aussi	
236	8	avoir	
237	8	connaître	
238	8	conquête	
239	8	cours	
240	8	crainte	
241	8	donne	
242	8	doute	
243	8	guerre	
244	8	heureux	
245	8	inde	
246	8	jour	
247	8	lauriers	
248	8	lieu	
249	8	mieux	
250	8	noble	
251	8	offrir	
252	8	parle	
253	8	pouvoir	
254	8	quel	
255	8	soit	
256	8	sujets	
257	8	tour	
258	8	toute	
259	8	trépas	
260	7	autres	
261	7	beau	
262	7	charmes	
263	7	ciel	
264	7	coeurs	
265	7	colère	
266	7	combats	
267	7	conseils	
268	7	crains	
269	7	crime	
270	7	digne	
271	7	dois	
272	7	douceur	
273	7	faveur	
274	7	fierté	
275	7	fit	
276	7	foi	
277	7	mien	
278	7	moindres	
279	7	peu	
280	7	pieds	
281	7	sauver	
282	7	semble	
283	7	souffrez	
284	7	suivre	
285	7	tyran	
286	7	vertus	
287	6	adieu	
288	6	afin	
289	6	aurait	
290	6	avant	
291	6	avez	
292	6	belle	
293	6	champ	
294	6	croit	
295	6	dites	
296	6	douleur	
297	6	douter	
298	6	doux	
299	6	désirs	
300	6	efforts	
301	6	envie	
302	6	espoir	
303	6	exemple	
304	6	front	
305	6	garde	
306	6	grands	
307	6	indigne	
308	6	jours	
309	6	lâche	
310	6	malheur	
311	6	monde	
312	6	morts	
313	6	mépris	
314	6	ni	
315	6	paraître	
316	6	princesse	
317	6	puisqu	
318	6	repos	
319	6	secours	
320	6	sert	
321	6	seulement	
322	6	traître	
323	6	trône	
324	6	vaincu	
325	6	vôtre	
326	6	éclater	
327	6	état	
328	5	ainsi	
329	5	alarmes	
330	5	amis	
331	5	apprête	
332	5	armé	
333	5	avaient	
334	5	avouerai	
335	5	calme	
336	5	captif	
337	5	ceux	
338	5	choix	
339	5	conquêtes	
340	5	courir	
341	5	court	
342	5	croire	
343	5	crois	
344	5	dessein	
345	5	dis	
346	5	donner	
347	5	doutez	
348	5	dès	
349	5	défaite	
350	5	effet	
351	5	effroi	
352	5	espérez	
353	5	estime	
354	5	faits	
355	5	feu	
356	5	fidèle	
357	5	flatte	
358	5	guerriers	
359	5	hommage	
360	5	hydaspe	
361	5	jaloux	
362	5	juste	
363	5	laisse	
364	5	laissez	
365	5	magnanime	
366	5	maîtresse	
367	5	mettre	
368	5	notre	
369	5	ordonne	
370	5	oubliez	
371	5	parler	
372	5	parmi	
373	5	passage	
374	5	perdre	
375	5	perte	
376	5	peuple	
377	5	pitié	
378	5	plaisir	
379	5	pleurs	
380	5	plutôt	
381	5	presque	
382	5	prix	
383	5	présenter	
384	5	puisque	
385	5	rend	
386	5	régner	
387	5	seule	
388	5	siens	
389	5	tandis	
390	5	tomber	
391	5	tranquille	
392	5	triste	
393	5	troubler	
394	5	tyrans	
395	5	tête	
396	5	têtes	
397	5	vaincre	
398	5	vaincus	
399	5	venir	
400	5	vivre	
401	5	vois	
402	5	voit	
403	5	voulu	
404	5	voyez	
405	5	éphestion	
406	4	abord	
407	4	accablé	
408	4	adorer	
409	4	ait	
410	4	alarmée	
411	4	allons	
412	4	asie	
413	4	attendre	
414	4	attends	
415	4	autour	
416	4	bontés	
417	4	bords	
418	4	cependant	
419	4	cesse	
420	4	chaleur	
421	4	charmant	
422	4	cherchez	
423	4	cléofile	
424	4	combattu	
425	4	conquérir	
426	4	craindre	
427	4	croyais	
428	4	darius	
429	4	demeurer	
430	4	disputer	
431	4	défendre	
432	4	défenseur	
433	4	effort	
434	4	engage	
435	4	entends	
436	4	entraîne	
437	4	entreprendre	
438	4	entretien	
439	4	extrême	
440	4	faible	
441	4	fais	
442	4	fatal	
443	4	ferait	
444	4	feux	
445	4	fier	
446	4	flamme	
447	4	forcer	
448	4	fort	
449	4	foudre	
450	4	fuite	
451	4	funeste	
452	4	fut	
453	4	généreux	
454	4	hais	
455	4	illustre	
456	4	impatience	
457	4	ingrate	
458	4	invincible	
459	4	joie	
460	4	joug	
461	4	liberté	
462	4	longtemps	
463	4	malheurs	
464	4	maux	
465	4	milieu	
466	4	mille	
467	4	moment	
468	4	mortels	
469	4	mourant	
470	4	mourir	
471	4	mériter	
472	4	mêmes	
473	4	nouveaux	
474	4	obéir	
475	4	oeil	
476	4	pays	
477	4	persans	
478	4	personne	
479	4	plains	
480	4	plaire	
481	4	pourrai	
482	4	pourrait	
483	4	prisonnière	
484	4	promis	
485	4	près	
486	4	quelques	
487	4	rends	
488	4	renommée	
489	4	rigueur	
490	4	régnez	
491	4	sait	
492	4	secret	
493	4	sein	
494	4	sensible	
495	4	serait	
496	4	servir	
497	4	seuls	
498	4	souffrir	
499	4	soumis	
500	4	surprendre	
501	4	tient	
502	4	traite	
503	4	vanter	
504	4	verra	
505	4	verrez	
506	4	verriez	
507	4	vers	
508	4	vit	
509	4	voici	
510	4	voix	
511	4	voler	
512	4	vrai	
513	4	vue	
514	4	éclate	
515	4	écoute	
516	4	êtes	
517	3	abandonne	
518	3	abandonner	
519	3	accabler	
520	3	admirer	
521	3	adore	
522	3	affranchir	
523	3	aille	
524	3	ailleurs	
525	3	aimer	
526	3	aimé	
527	3	alors	
528	3	appas	
529	3	appelle	
530	3	apprendre	
531	3	arbitre	
532	3	arracher	
533	3	arrête	
534	3	attacher	
535	3	attendez	
536	3	attraits	
537	3	aucun	
538	3	audace	
539	3	autels	
540	3	balancer	
541	3	barbare	
542	3	bataille	
543	3	bout	
544	3	brave	
545	3	brûlant	
546	3	cacher	
547	3	cendre	
548	3	chaîne	
549	3	cherchant	
550	3	chez	
551	3	combien	
552	3	connais	
553	3	connaissez	
554	3	conquis	
555	3	consens	
556	3	courages	
557	3	courant	
558	3	couvert	
559	3	demander	
560	3	descendre	
561	3	desseins	
562	3	devant	
563	3	deviendrait	
564	3	devoir	
565	3	dieux	
566	3	discours	
567	3	disposez	
568	3	divers	
569	3	doivent	
570	3	douleurs	
571	3	droit	
572	3	désordre	
573	3	détruire	
574	3	engagé	
575	3	entendre	
576	3	espère	
577	3	eux	
578	3	facile	
579	3	faibles	
580	3	fallait	
581	3	fasse	
582	3	fer	
583	3	fin	
584	3	fière	
585	3	fortune	
586	3	foule	
587	3	guerrier	
588	3	haute	
589	3	humains	
590	3	inspire	
591	3	intéresse	
592	3	inutiles	
593	3	jette	
594	3	jusques	
595	3	justes	
596	3	laissé	
597	3	languir	
598	3	larmes	
599	3	lassé	
600	3	liens	
601	3	livrer	
602	3	loi	
603	3	lorsque	
604	3	là	
605	3	maintenant	
606	3	mal	
607	3	marcher	
608	3	marchez	
609	3	menace	
610	3	met	
611	3	miens	
612	3	moitié	
613	3	montrer	
614	3	mémoire	
615	3	nombre	
616	3	objets	
617	3	obtenir	
618	3	odieux	
619	3	parlez	
620	3	pensez	
621	3	perdant	
622	3	permettez	
623	3	peux	
624	3	place	
625	3	plaindre	
626	3	plein	
627	3	porte	
628	3	pourriez	
629	3	pouvez	
630	3	prendre	
631	3	pris	
632	3	promet	
633	3	propre	
634	3	propres	
635	3	présence	
636	3	prétend	
637	3	prétends	
638	3	prévenir	
639	3	punir	
640	3	périr	
641	3	reconnaître	
642	3	refusé	
643	3	reines	
644	3	rendent	
645	3	résistance	
646	3	satisfait	
647	3	savez	
648	3	semblait	
649	3	sens	
650	3	sentiments	
651	3	silence	
652	3	sommes	
653	3	songez	
654	3	souillé	
655	3	souvenez	
656	3	souvenir	
657	3	souvent	
658	3	su	
659	3	succès	
660	3	suivi	
661	3	sûreté	
662	3	taire	
663	3	terreur	
664	3	tiens	
665	3	titre	
666	3	tombant	
667	3	toucher	
668	3	toutefois	
669	3	traitement	
670	3	transports	
671	3	travaille	
672	3	traverser	
673	3	tremblant	
674	3	triomphe	
675	3	triomphez	
676	3	trouble	
677	3	venait	
678	3	venge	
679	3	venger	
680	3	venu	
681	3	verrai	
682	3	victime	
683	3	vigueur	
684	3	vivez	
685	3	voudrait	
686	3	voyant	
687	3	voyons	
688	3	zèle	
689	3	écouter	
690	3	égal	
691	3	épargner	
692	3	éprouver	
693	3	étais	
694	3	éviter	
695	3	ôter	
696	2	abaisser	
697	2	abattre	
698	2	abattu	
699	2	abattus	
700	2	accorder	
701	2	accuser	
702	2	achever	
703	2	admire	
704	2	aidez	
705	2	aimez	
706	2	allait	
707	2	aller	
708	2	alliés	
709	2	allume	
710	2	ami	
711	2	amoureux	
712	2	apporte	
713	2	appris	
714	2	approche	
715	2	appuyant	
716	2	arme	
717	2	arment	
718	2	arrachant	
719	2	arrêtez	
720	2	asile	
721	2	assure	
722	2	assurent	
723	2	attachée	
724	2	atteinte	
725	2	attendrai	
726	2	auprès	
727	2	aura	
728	2	aurais	
729	2	aurez	
730	2	aurons	
731	2	autrefois	
732	2	avantage	
733	2	aveugle	
734	2	avoue	
735	2	beaucoup	
736	2	beauté	
737	2	bonté	
738	2	bouillant	
739	2	braves	
740	2	briller	
741	2	briser	
742	2	brûle	
743	2	captive	
744	2	car	
745	2	carrière	
746	2	certaine	
747	2	chaque	
748	2	chaînes	
749	2	cher	
750	2	cherchait	
751	2	cherchiez	
752	2	choisissez	
753	2	chute	
754	2	chère	
755	2	combattez	
756	2	commun	
757	2	compte	
758	2	compter	
759	2	condamne	
760	2	conduite	
761	2	confesse	
762	2	constante	
763	2	content	
764	2	contentez	
765	2	contents	
766	2	contraindre	
767	2	contrainte	
768	2	contrée	
769	2	courez	
770	2	couronne	
771	2	couronnes	
772	2	coûte	
773	2	coûtent	
774	2	craignais	
775	2	craignez	
776	2	craint	
777	2	cris	
778	2	croître	
779	2	cruel	
780	2	cruelle	
781	2	crédule	
782	2	cède	
783	2	céder	
784	2	danger	
785	2	demande	
786	2	demeure	
787	2	demi	
788	2	dernier	
789	2	dessous	
790	2	destin	
791	2	devenus	
792	2	diadèmes	
793	2	dieu	
794	2	dirai	
795	2	divins	
796	2	don	
797	2	donné	
798	2	drapeaux	
799	2	découvre	
800	2	dédains	
801	2	défend	
802	2	défense	
803	2	démentir	
804	2	dépouille	
805	2	déserts	
806	2	désespérer	
807	2	détourner	
808	2	détruisent	
809	2	dévore	
810	2	encens	
811	2	encourager	
812	2	enfermée	
813	2	engagée	
814	2	ennuis	
815	2	entier	
816	2	entière	
817	2	entières	
818	2	entretenir	
819	2	envers	
820	2	esclaves	
821	2	esprit	
822	2	euphrate	
823	2	excité	
824	2	expirer	
825	2	expliquer	
826	2	exposer	
827	2	faiblesse	
828	2	faisait	
829	2	faix	
830	2	fameux	
831	2	favorable	
832	2	ferai	
833	2	ferme	
834	2	feront	
835	2	fiers	
836	2	fils	
837	2	flatter	
838	2	flattons	
839	2	fléchir	
840	2	forces	
841	2	forcé	
842	2	forçait	
843	2	fureur	
844	2	gage	
845	2	gagner	
846	2	gange	
847	2	garantir	
848	2	garder	
849	2	genoux	
850	2	grandeur	
851	2	généreuse	
852	2	hasards	
853	2	haï	
854	2	haïr	
855	2	heureuse	
856	2	honoré	
857	2	honte	
858	2	honteux	
859	2	illustres	
860	2	immortelle	
861	2	imparfaite	
862	2	inconnus	
863	2	indiens	
864	2	infaillible	
865	2	infidèle	
866	2	infortuné	
867	2	injurieux	
868	2	injuste	
869	2	inquiéter	
870	2	insensible	
871	2	insolence	
872	2	irai	
873	2	irais	
874	2	irriter	
875	2	jeune	
876	2	joint	
877	2	juge	
878	2	juré	
879	2	jusque	
880	2	laissant	
881	2	langueur	
882	2	libre	
883	2	lire	
884	2	livre	
885	2	livré	
886	2	loisir	
887	2	long	
888	2	lorsqu	
889	2	lâches	
890	2	légitime	
891	2	malheureux	
892	2	menaces	
893	2	mette	
894	2	moindre	
895	2	mourants	
896	2	murmures	
897	2	murs	
898	2	mérite	
899	2	naître	
900	2	noeuds	
901	2	noire	
902	2	nomme	
903	2	nuire	
904	2	nôtres	
905	2	objet	
906	2	océan	
907	2	offensée	
908	2	offre	
909	2	ombre	
910	2	oppose	
911	2	opposés	
912	2	or	
913	2	orage	
914	2	osez	
915	2	oubliant	
916	2	oublier	
917	2	ouvre	
918	2	ouvrir	
919	2	pardon	
920	2	part	
921	2	parts	
922	2	passe	
923	2	patrie	
924	2	peine	
925	2	penses	
926	2	perdez	
927	2	perse	
928	2	persécuter	
929	2	plairont	
930	2	plaît	
931	2	pleurer	
932	2	portait	
933	2	porter	
934	2	poursuite	
935	2	pourtant	
936	2	pousser	
937	2	prenez	
938	2	prison	
939	2	profonde	
940	2	progrès	
941	2	prononcer	
942	2	province	
943	2	précipités	
944	2	présente	
945	2	puissance	
946	2	puissants	
947	2	périsse	
948	2	quels	
949	2	querelle	
950	2	quittant	
951	2	quittez	
952	2	quoique	
953	2	rare	
954	2	rassemble	
955	2	recherché	
956	2	refus	
957	2	refusent	
958	2	regarde	
959	2	regards	
960	2	rendons	
961	2	rendra	
962	2	reprocher	
963	2	respecte	
964	2	respects	
965	2	retenir	
966	2	retour	
967	2	retournez	
968	2	revoir	
969	2	rigueurs	
970	2	rivières	
971	2	rompre	
972	2	rougir	
973	2	rude	
974	2	règne	
975	2	répandue	
976	2	répondre	
977	2	résoudre	
978	2	saurait	
979	2	savent	
980	2	sceptre	
981	2	sceptres	
982	2	scythe	
983	2	secourus	
984	2	secrets	
985	2	sera	
986	2	seraient	
987	2	serez	
988	2	serment	
989	2	sers	
990	2	servez	
991	2	sincères	
992	2	soient	
993	2	sois	
994	2	sortir	
995	2	souhaite	
996	2	soupire	
997	2	soutenir	
998	2	souviens	
999	2	spectacle	
1000	2	suit	
1001	2	suite	
1002	2	suivez	
1003	2	suivra	
1004	2	superbe	
1005	2	superflus	
1006	2	suspendue	
1007	2	séduit	
1008	2	tard	
1009	2	tel	
1010	2	telle	
1011	2	tenir	
1012	2	tenter	
1013	2	timide	
1014	2	toutes	
1015	2	trahi	
1016	2	trahir	
1017	2	trahis	
1018	2	trahison	
1019	2	traits	
1020	2	transport	
1021	2	traîner	
1022	2	tremble	
1023	2	trembler	
1024	2	tristes	
1025	2	troublé	
1026	2	tâchent	
1027	2	témoins	
1028	2	téméraire	
1029	2	vaillance	
1030	2	vainement	
1031	2	vendre	
1032	2	vengés	
1033	2	verrais	
1034	2	verrait	
1035	2	victorieux	
1036	2	vingt	
1037	2	visage	
1038	2	voie	
1039	2	voilà	
1040	2	vole	
1041	2	vont	
1042	2	voudra	
1043	2	vît	
1044	2	âmes	
1045	2	échapper	
1046	2	éclatants	
1047	2	également	
1048	2	égalent	
1049	2	élève	
1050	2	émouvoir	
1051	2	épargne	
1052	2	étaient	
1053	2	étendus	
1054	1	abaisse	
1055	1	abaissée	
1056	1	abandonnez	
1057	1	abandonniez	
1058	1	abandonné	
1059	1	abandonnée	
1060	1	aborder	
1061	1	abri	
1062	1	absence	
1063	1	absolu	
1064	1	abusé	
1065	1	abîme	
1066	1	accablait	
1067	1	accable	
1068	1	accablez	
1069	1	accablée	
1070	1	accablés	
1071	1	accepter	
1072	1	accompagne	
1073	1	accueil	
1074	1	accusez	
1075	1	accusé	
1076	1	achetez	
1077	1	achetés	
1078	1	achevant	
1079	1	achevez	
1080	1	achevons	
1081	1	achève	
1082	1	acquitter	
1083	1	admirait	
1084	1	admirions	
1085	1	adorable	
1086	1	adorateur	
1087	1	adorateurs	
1088	1	adorez	
1089	1	adoucir	
1090	1	adresse	
1091	1	affaiblie	
1092	1	affaiblit	
1093	1	affermi	
1094	1	affermie	
1095	1	affermir	
1096	1	affermis	
1097	1	affermissez	
1098	1	affronter	
1099	1	agir	
1100	1	agitée	
1101	1	aideras	
1102	1	aigri	
1103	1	aigrit	
1104	1	aimables	
1105	1	aimai	
1106	1	aimais	
1107	1	aimée	
1108	1	air	
1109	1	aisée	
1110	1	alarmer	
1111	1	alarmé	
1112	1	allaient	
1113	1	alliance	
1114	1	alliez	
1115	1	allé	
1116	1	amants	
1117	1	ambitieux	
1118	1	amener	
1119	1	amènent	
1120	1	anime	
1121	1	animent	
1122	1	animé	
1123	1	animées	
1124	1	annoncer	
1125	1	apaisez	
1126	1	apparence	
1127	1	appellent	
1128	1	applaudir	
1129	1	approcher	
1130	1	approcherait	
1131	1	approuve	
1132	1	appuyer	
1133	1	appuyons	
1134	1	ardent	
1135	1	ardents	
1136	1	arma	
1137	1	armez	
1138	1	armées	
1139	1	arraché	
1140	1	arrosés	
1141	1	arrêt	
1142	1	arrêta	
1143	1	arrêtant	
1144	1	arrêté	
1145	1	artifice	
1146	1	aspect	
1147	1	aspirent	
1148	1	assauts	
1149	1	assemblant	
1150	1	assemble	
1151	1	asservi	
1152	1	asservir	
1153	1	asservis	
1154	1	assiette	
1155	1	assurait	
1156	1	assurance	
1157	1	assurer	
1158	1	assurez	
1159	1	assuré	
1160	1	attaquant	
1161	1	attaqueront	
1162	1	attaquez	
1163	1	attaquiez	
1164	1	attaqué	
1165	1	attendait	
1166	1	attendent	
1167	1	attendions	
1168	1	attendons	
1169	1	attendrais	
1170	1	attendu	
1171	1	attendue	
1172	1	attente	
1173	1	attira	
1174	1	attirais	
1175	1	aucune	
1176	1	auguste	
1177	1	aurai	
1178	1	avais	
1179	1	avantages	
1180	1	avecque	
1181	1	avenir	
1182	1	aveu	
1183	1	aveuglée	
1184	1	aveuglés	
1185	1	avide	
1186	1	aviez	
1187	1	avons	
1188	1	avouaient	
1189	1	avouer	
1190	1	avoueriez	
1191	1	avouez	
1192	1	baiser	
1193	1	balance	
1194	1	barbarie	
1195	1	barrières	
1196	1	bas	
1197	1	basse	
1198	1	bataillons	
1199	1	beautés	
1200	1	bessus	
1201	1	bienfaits	
1202	1	bienheureux	
1203	1	biens	
1204	1	blesse	
1205	1	blessures	
1206	1	blessée	
1207	1	blâmant	
1208	1	blâmer	
1209	1	bons	
1210	1	bornait	
1211	1	borner	
1212	1	borné	
1213	1	bouts	
1214	1	bravant	
1215	1	bravent	
1216	1	bravé	
1217	1	brigue	
1218	1	briguer	
1219	1	brigueront	
1220	1	brisa	
1221	1	brisent	
1222	1	brisés	
1223	1	brûlants	
1224	1	brûlez	
1225	1	brûliez	
1226	1	cachais	
1227	1	cache	
1228	1	campagnes	
1229	1	camps	
1230	1	captifs	
1231	1	captiver	
1232	1	captives	
1233	1	caresser	
1234	1	causa	
1235	1	causait	
1236	1	cause	
1237	1	causée	
1238	1	celui	
1239	1	certain	
1240	1	certes	
1241	1	cesser	
1242	1	chargés	
1243	1	charmé	
1244	1	charmée	
1245	1	charmés	
1246	1	chassée	
1247	1	chefs	
1248	1	chemin	
1249	1	cherchais	
1250	1	cherchions	
1251	1	cherchât	
1252	1	cherché	
1253	1	chers	
1254	1	choisis	
1255	1	climats	
1256	1	colonnes	
1257	1	combatte	
1258	1	combattent	
1259	1	comble	
1260	1	combler	
1261	1	commandez	
1262	1	commence	
1263	1	commencez	
1264	1	comment	
1265	1	commençant	
1266	1	commune	
1267	1	compagnons	
1268	1	complaire	
1269	1	comptent	
1270	1	compterai	
1271	1	condamnait	
1272	1	conduire	
1273	1	conduiriez	
1274	1	conduise	
1275	1	confident	
1276	1	confie	
1277	1	confondez	
1278	1	confus	
1279	1	connaissais	
1280	1	connaît	
1281	1	connaîtront	
1282	1	connue	
1283	1	connus	
1284	1	connut	
1285	1	conquérant	
1286	1	conquérants	
1287	1	conseil	
1288	1	consentez	
1289	1	conserver	
1290	1	consolait	
1291	1	consoler	
1292	1	conspirât	
1293	1	consulter	
1294	1	consume	
1295	1	consumée	
1296	1	contenter	
1297	1	conter	
1298	1	corps	
1299	1	corrompt	
1300	1	couler	
1301	1	couleront	
1302	1	coupable	
1303	1	cour	
1304	1	couronnez	
1305	1	couronné	
1306	1	couronnés	
1307	1	courroucés	
1308	1	course	
1309	1	couverts	
1310	1	couvrir	
1311	1	coûtaient	
1312	1	craignait	
1313	1	craigniez	
1314	1	cri	
1315	1	criminelle	
1316	1	croyait	
1317	1	croyant	
1318	1	cru	
1319	1	crus	
1320	1	crût	
1321	1	cyrus	
1322	1	cédant	
1323	1	cédez	
1324	1	côté	
1325	1	daigne	
1326	1	davantage	
1327	1	delà	
1328	1	demandaient	
1329	1	demandant	
1330	1	demandera	
1331	1	demandez	
1332	1	depuis	
1333	1	dernière	
1334	1	descendrait	
1335	1	descendu	
1336	1	descendue	
1337	1	destinez	
1338	1	destins	
1339	1	destiné	
1340	1	destinée	
1341	1	devaient	
1342	1	devais	
1343	1	devait	
1344	1	devenant	
1345	1	devez	
1346	1	devienne	
1347	1	deviens	
1348	1	devient	
1349	1	deviez	
1350	1	devint	
1351	1	devoirs	
1352	1	devons	
1353	1	différence	
1354	1	différend	
1355	1	différents	
1356	1	différer	
1357	1	différez	
1358	1	dignement	
1359	1	dignes	
1360	1	dirais	
1361	1	dise	
1362	1	disgrâce	
1363	1	dispersés	
1364	1	disposait	
1365	1	dispose	
1366	1	disposer	
1367	1	disputant	
1368	1	dispute	
1369	1	disputé	
1370	1	dissipez	
1371	1	divine	
1372	1	doive	
1373	1	dompter	
1374	1	dompté	
1375	1	domptés	
1376	1	donnant	
1377	1	donnera	
1378	1	donnés	
1379	1	douce	
1380	1	douceurs	
1381	1	doutent	
1382	1	douteuse	
1383	1	douteux	
1384	1	douté	
1385	1	drapeau	
1386	1	dresse	
1387	1	dresser	
1388	1	droits	
1389	1	durs	
1390	1	duré	
1391	1	dussiez	
1392	1	débris	
1393	1	déclare	
1394	1	déclarer	
1395	1	découvrant	
1396	1	découvrez	
1397	1	découvrirait	
1398	1	dédaigne	
1399	1	dédaigner	
1400	1	défait	
1401	1	défaut	
1402	1	défendait	
1403	1	défends	
1404	1	défendue	
1405	1	défenses	
1406	1	défenseurs	
1407	1	défiances	
1408	1	dégage	
1409	1	dégagé	
1410	1	déguisé	
1411	1	délibèrent	
1412	1	démarche	
1413	1	démentez	
1414	1	dépendre	
1415	1	dépends	
1416	1	dépens	
1417	1	dépit	
1418	1	déplaisirs	
1419	1	dépouilles	
1420	1	dérobe	
1421	1	dérober	
1422	1	déréglée	
1423	1	désabusé	
1424	1	désarmer	
1425	1	désarmez	
1426	1	désarmé	
1427	1	désarmée	
1428	1	désespoir	
1429	1	désire	
1430	1	désoler	
1431	1	désolés	
1432	1	désunir	
1433	1	détourne	
1434	1	détours	
1435	1	déçus	
1436	1	dû	
1437	1	ecoutez	
1438	1	effaceront	
1439	1	effacée	
1440	1	effets	
1441	1	efforce	
1442	1	effrayer	
1443	1	embrase	
1444	1	embrasse	
1445	1	embrasés	
1446	1	emporte	
1447	1	emporter	
1448	1	empresse	
1449	1	empressé	
1450	1	empressée	
1451	1	emprisonner	
1452	1	empêchait	
1453	1	empêcher	
1454	1	enchaîne	
1455	1	enchaînée	
1456	1	enchaînés	
1457	1	endormi	
1458	1	endormie	
1459	1	endormis	
1460	1	enferme	
1461	1	enfermé	
1462	1	enflamme	
1463	1	enflammée	
1464	1	enfler	
1465	1	enflé	
1466	1	engageant	
1467	1	engageas	
1468	1	engager	
1469	1	engagées	
1470	1	enlever	
1471	1	ennui	
1472	1	ennuyeux	
1473	1	ensanglante	
1474	1	ensanglantez	
1475	1	ensanglanté	
1476	1	enseignent	
1477	1	ensemble	
1478	1	enseveli	
1479	1	ensevelir	
1480	1	entende	
1481	1	entendrons	
1482	1	entiers	
1483	1	entourés	
1484	1	entraîné	
1485	1	entraînés	
1486	1	entrepris	
1487	1	entreprise	
1488	1	entrer	
1489	1	entrée	
1490	1	envelopper	
1491	1	enveloppée	
1492	1	enviez	
1493	1	environne	
1494	1	envoie	
1495	1	erreur	
1496	1	es	
1497	1	escadrons	
1498	1	esclavage	
1499	1	esprits	
1500	1	espérer	
1501	1	essayez	
1502	1	estima	
1503	1	eussiez	
1504	1	eut	
1505	1	excitaient	
1506	1	excite	
1507	1	exciter	
1508	1	excuse	
1509	1	exemples	
1510	1	exemptez	
1511	1	exerce	
1512	1	exige	
1513	1	expirants	
1514	1	expliquaient	
1515	1	expliquais	
1516	1	explique	
1517	1	expliquez	
1518	1	faiblement	
1519	1	faiblesses	
1520	1	faisons	
1521	1	faites	
1522	1	fasses	
1523	1	fatigués	
1524	1	fausse	
1525	1	faveurs	
1526	1	favorisez	
1527	1	favorisé	
1528	1	façon	
1529	1	femme	
1530	1	fera	
1531	1	ferais	
1532	1	feras	
1533	1	ferment	
1534	1	fermes	
1535	1	fermiez	
1536	1	finir	
1537	1	flattant	
1538	1	flattez	
1539	1	fleurs	
1540	1	flotter	
1541	1	flotteraient	
1542	1	fléchissez	
1543	1	fond	
1544	1	fondement	
1545	1	forcez	
1546	1	forcés	
1547	1	forgé	
1548	1	formant	
1549	1	formeriez	
1550	1	forte	
1551	1	força	
1552	1	forçant	
1553	1	forçons	
1554	1	frappe	
1555	1	frappé	
1556	1	frayeur	
1557	1	froideur	
1558	1	frontière	
1559	1	frontières	
1560	1	fronts	
1561	1	fruit	
1562	1	fruits	
1563	1	fuit	
1564	1	furie	
1565	1	furieux	
1566	1	fus	
1567	1	fâché	
1568	1	fît	
1569	1	fût	
1570	1	gardé	
1571	1	gardés	
1572	1	glacée	
1573	1	grande	
1574	1	grecs	
1575	1	gros	
1576	1	grossi	
1577	1	grâce	
1578	1	grèce	
1579	1	gré	
1580	1	guerres	
1581	1	guerrière	
1582	1	guides	
1583	1	gémi	
1584	1	gémir	
1585	1	gémissait	
1586	1	gémissements	
1587	1	habitants	
1588	1	habitude	
1589	1	hait	
1590	1	hardis	
1591	1	hasarde	
1592	1	hasarder	
1593	1	hautaines	
1594	1	hauts	
1595	1	histoire	
1596	1	homme	
1597	1	hommes	
1598	1	honneur	
1599	1	honorez	
1600	1	honorons	
1601	1	honteuse	
1602	1	horribles	
1603	1	humble	
1604	1	héroïque	
1605	1	ignorait	
1606	1	ignore	
1607	1	ignoriez	
1608	1	ignorons	
1609	1	image	
1610	1	imite	
1611	1	immole	
1612	1	immolez	
1613	1	implore	
1614	1	importants	
1615	1	importunée	
1616	1	impose	
1617	1	imprime	
1618	1	impuissantes	
1619	1	impuissants	
1620	1	impunément	
1621	1	imputer	
1622	1	impétueux	
1623	1	inanimé	
1624	1	incertain	
1625	1	incertaine	
1626	1	inconnu	
1627	1	inconnue	
1628	1	inconstance	
1629	1	inconstant	
1630	1	indignes	
1631	1	infidèles	
1632	1	inflexible	
1633	1	informez	
1634	1	infâmes	
1635	1	ingrats	
1636	1	inhumaine	
1637	1	inondé	
1638	1	inquiet	
1639	1	inquiétait	
1640	1	inquiétude	
1641	1	inquiétée	
1642	1	inspirer	
1643	1	inspireront	
1644	1	inspirez	
1645	1	instruise	
1646	1	interrompu	
1647	1	intéressée	
1648	1	intérêt	
1649	1	intérêts	
1650	1	inutile	
1651	1	irait	
1652	1	irritée	
1653	1	irrités	
1654	1	jalouse	
1655	1	jalousie	
1656	1	jetant	
1657	1	jeter	
1658	1	jetés	
1659	1	jeunesse	
1660	1	joints	
1661	1	jonchées	
1662	1	jouir	
1663	1	jouissaient	
1664	1	journée	
1665	1	jugeons	
1666	1	jugez	
1667	1	jupiter	
1668	1	jure	
1669	1	jurer	
1670	1	justement	
1671	1	justice	
1672	1	laissai	
1673	1	laisserai	
1674	1	laisserons	
1675	1	laissons	
1676	1	laissât	
1677	1	langage	
1678	1	languira	
1679	1	lasser	
1680	1	lassée	
1681	1	laver	
1682	1	lavera	
1683	1	lent	
1684	1	libertés	
1685	1	libres	
1686	1	livrant	
1687	1	longue	
1688	1	lors	
1689	1	luire	
1690	1	lâchetés	
1691	1	légère	
1692	1	majesté	
1693	1	malien	
1694	1	marchant	
1695	1	marche	
1696	1	marchera	
1697	1	marcheront	
1698	1	marchons	
1699	1	marque	
1700	1	marques	
1701	1	matière	
1702	1	menacer	
1703	1	mendier	
1704	1	mers	
1705	1	messages	
1706	1	mettaient	
1707	1	mettait	
1708	1	meurtres	
1709	1	mienne	
1710	1	miracle	
1711	1	mis	
1712	1	modeste	
1713	1	moissons	
1714	1	molle	
1715	1	mollesse	
1716	1	moments	
1717	1	monarque	
1718	1	montre	
1719	1	montrez	
1720	1	montré	
1721	1	mouriez	
1722	1	mourus	
1723	1	mouvement	
1724	1	murmurant	
1725	1	murmure	
1726	1	murmurer	
1727	1	mutinés	
1728	1	mâle	
1729	1	mène	
1730	1	mère	
1731	1	méconnaître	
1732	1	ménage	
1733	1	ménagez	
1734	1	méprendre	
1735	1	méprisent	
1736	1	mépriser	
1737	1	mériteraient	
1738	1	mérité	
1739	1	naissance	
1740	1	nations	
1741	1	nature	
1742	1	naît	
1743	1	noblement	
1744	1	nommé	
1745	1	noms	
1746	1	nouveau	
1747	1	nouvelle	
1748	1	nouvelles	
1749	1	nue	
1750	1	oblige	
1751	1	observe	
1752	1	obstacles	
1753	1	obstinera	
1754	1	obstinée	
1755	1	obtiendraient	
1756	1	occasion	
1757	1	occupe	
1758	1	octroie	
1759	1	offensaient	
1760	1	offense	
1761	1	offert	
1762	1	offerte	
1763	1	oisiveté	
1764	1	omphis	
1765	1	onde	
1766	1	opposait	
1767	1	opposer	
1768	1	opposeront	
1769	1	opposez	
1770	1	oracles	
1771	1	ordonnez	
1772	1	ordres	
1773	1	orgueilleux	
1774	1	osait	
1775	1	oubli	
1776	1	outrage	
1777	1	ouvert	
1778	1	ouverts	
1779	1	ouvrage	
1780	1	ouvrages	
1781	1	ouvrez	
1782	1	ouïr	
1783	1	paisible	
1784	1	palme	
1785	1	pardonne	
1786	1	pardonner	
1787	1	pare	
1788	1	parfaite	
1789	1	parfumer	
1790	1	parjure	
1791	1	parlé	
1792	1	partage	
1793	1	partager	
1794	1	partir	
1795	1	paru	
1796	1	passaient	
1797	1	passant	
1798	1	passé	
1799	1	passée	
1800	1	payer	
1801	1	peignez	
1802	1	penchant	
1803	1	pense	
1804	1	percé	
1805	1	perdent	
1806	1	perdit	
1807	1	perdrais	
1808	1	perds	
1809	1	perdus	
1810	1	perfide	
1811	1	permis	
1812	1	persan	
1813	1	persane	
1814	1	persécutez	
1815	1	persécuté	
1816	1	perçant	
1817	1	peuvent	
1818	1	piller	
1819	1	piège	
1820	1	placer	
1821	1	placé	
1822	1	placée	
1823	1	plaignent	
1824	1	plaindrez	
1825	1	plaine	
1826	1	plairais	
1827	1	plantés	
1828	1	pleine	
1829	1	pleurent	
1830	1	pleurons	
1831	1	pleuré	
1832	1	plongé	
1833	1	plongée	
1834	1	ployer	
1835	1	poids	
1836	1	portais	
1837	1	possible	
1838	1	possédez	
1839	1	pourra	
1840	1	pourrais	
1841	1	pourrez	
1842	1	poursuit	
1843	1	poursuivie	
1844	1	poursuivre	
1845	1	pourvu	
1846	1	pousse	
1847	1	poussez	
1848	1	poussière	
1849	1	pouvais	
1850	1	prenant	
1851	1	prenne	
1852	1	presse	
1853	1	pressez	
1854	1	prie	
1855	1	prodigue	
1856	1	prodiguez	
1857	1	produit	
1858	1	profond	
1859	1	proie	
1860	1	projet	
1861	1	projets	
1862	1	promets	
1863	1	promettent	
1864	1	promettiez	
1865	1	promettre	
1866	1	prononcez	
1867	1	propose	
1868	1	précipitant	
1869	1	précipitez	
1870	1	précipité	
1871	1	précipitée	
1872	1	préfère	
1873	1	préféré	
1874	1	préparait	
1875	1	prépare	
1876	1	préparer	
1877	1	présage	
1878	1	présentées	
1879	1	prétendaient	
1880	1	prétendent	
1881	1	prétendez	
1882	1	prétendrait	
1883	1	prétendre	
1884	1	prétexte	
1885	1	prévenez	
1886	1	prévenons	
1887	1	prévenus	
1888	1	prévoir	
1889	1	prévu	
1890	1	prévus	
1891	1	puissant	
1892	1	puissante	
1893	1	puissantes	
1894	1	puissent	
1895	1	péril	
1896	1	périls	
1897	1	périront	
1898	1	périssant	
1899	1	périt	
1900	1	pût	
1901	1	quelquefois	
1902	1	quitter	
1903	1	quitterai	
1904	1	quoiqu	
1905	1	raffermi	
1906	1	rage	
1907	1	raison	
1908	1	raisons	
1909	1	ramener	
1910	1	ramené	
1911	1	ramène	
1912	1	rangent	
1913	1	rangez	
1914	1	rangées	
1915	1	ranimant	
1916	1	rappelle	
1917	1	rassurez	
1918	1	ravageât	
1919	1	ravit	
1920	1	rebelle	
1921	1	recevant	
1922	1	recevez	
1923	1	recevoir	
1924	1	reconnaisse	
1925	1	recouvrer	
1926	1	redonnant	
1927	1	redoublée	
1928	1	redoublés	
1929	1	refusant	
1930	1	refuse	
1931	1	refuser	
1932	1	refusez	
1933	1	refusât	
1934	1	regard	
1935	1	regardant	
1936	1	regarder	
1937	1	regardez	
1938	1	regret	
1939	1	regrette	
1940	1	regretter	
1941	1	regrettez	
1942	1	rejoindre	
1943	1	relever	
1944	1	relevé	
1945	1	relâchent	
1946	1	remarque	
1947	1	remarquer	
1948	1	remplir	
1949	1	remporter	
1950	1	rendant	
1951	1	rendez	
1952	1	rendront	
1953	1	rendu	
1954	1	rendus	
1955	1	renoncer	
1956	1	renouvelée	
1957	1	renversés	
1958	1	renvoyez	
1959	1	repaître	
1960	1	repentir	
1961	1	reposait	
1962	1	repousser	
1963	1	reprendre	
1964	1	reprendrons	
1965	1	reprochent	
1966	1	reproches	
1967	1	respectait	
1968	1	respectant	
1969	1	respire	
1970	1	respirent	
1971	1	ressentiments	
1972	1	ressuscite	
1973	1	restes	
1974	1	retenu	
1975	1	retiendra	
1976	1	retienne	
1977	1	retiens	
1978	1	retient	
1979	1	retire	
1980	1	retirons	
1981	1	retombent	
1982	1	retourna	
1983	1	retranchements	
1984	1	reverra	
1985	1	reviens	
1986	1	revivre	
1987	1	revivront	
1988	1	reçois	
1989	1	reçus	
1990	1	rit	
1991	1	rivaux	
1992	1	rives	
1993	1	rocher	
1994	1	rompant	
1995	1	rompus	
1996	1	rougiraient	
1997	1	rougit	
1998	1	rudes	
1999	1	ruse	
2000	1	ruses	
2001	1	règle	
2002	1	règnent	
2003	1	récit	
2004	1	récompense	
2005	1	réduite	
2006	1	réduits	
2007	1	régnerait	
2008	1	régnerions	
2009	1	régnons	
2010	1	répand	
2011	1	répandre	
2012	1	répandus	
2013	1	réponde	
2014	1	réponds	
2015	1	résiste	
2016	1	résolu	
2017	1	réunis	
2018	1	réveiller	
2019	1	sachez	
2020	1	sacrilège	
2021	1	sacrilèges	
2022	1	sages	
2023	1	saisi	
2024	1	salut	
2025	1	satisfaire	
2026	1	saurai	
2027	1	sauriez	
2028	1	sauront	
2029	1	sauvage	
2030	1	sauvages	
2031	1	sauvés	
2032	1	savais	
2033	1	savoir	
2034	1	savons	
2035	1	scythes	
2036	1	seconder	
2037	1	secourir	
2038	1	secrète	
2039	1	secrètes	
2040	1	sembla	
2041	1	semblent	
2042	1	semblé	
2043	1	semences	
2044	1	semé	
2045	1	sent	
2046	1	sentez	
2047	1	sentiez	
2048	1	sentiment	
2049	1	sentir	
2050	1	serais	
2051	1	seras	
2052	1	serons	
2053	1	serve	
2054	1	servira	
2055	1	sien	
2056	1	signalant	
2057	1	signalent	
2058	1	signaler	
2059	1	sincère	
2060	1	sitôt	
2061	1	soldat	
2062	1	solitaire	
2063	1	solitude	
2064	1	solitudes	
2065	1	sombre	
2066	1	songerez	
2067	1	sortait	
2068	1	sortant	
2069	1	souffrirez	
2070	1	souhaitent	
2071	1	souhaiter	
2072	1	souhaitez	
2073	1	souhaits	
2074	1	souhaité	
2075	1	souille	
2076	1	souiller	
2077	1	soulever	
2078	1	soulevé	
2079	1	soumissions	
2080	1	soupir	
2081	1	soupirait	
2082	1	soupirant	
2083	1	soupirer	
2084	1	soupçonnez	
2085	1	soupçons	
2086	1	souscrirais	
2087	1	soutenait	
2088	1	soutenez	
2089	1	soutiendrai	
2090	1	soutient	
2091	1	souverain	
2092	1	souveraine	
2093	1	souveraines	
2094	1	souverains	
2095	1	splendeur	
2096	1	stérile	
2097	1	subjugués	
2098	1	successeur	
2099	1	succombe	
2100	1	succomber	
2101	1	succomberait	
2102	1	suffit	
2103	1	suive	
2104	1	supplice	
2105	1	suprême	
2106	1	surmontées	
2107	1	surprenne	
2108	1	surtout	
2109	1	survivre	
2110	1	suspecte	
2111	1	suspend	
2112	1	suspendu	
2113	1	séduire	
2114	1	séparez	
2115	1	sévère	
2116	1	tache	
2117	1	taches	
2118	1	tardez	
2119	1	tels	
2120	1	temples	
2121	1	tempête	
2122	1	tenais	
2123	1	tenait	
2124	1	tend	
2125	1	tendre	
2126	1	tendrement	
2127	1	tendresse	
2128	1	tenez	
2129	1	termine	
2130	1	terrasser	
2131	1	terrassé	
2132	1	terres	
2133	1	tien	
2134	1	tiennent	
2135	1	timides	
2136	1	tint	
2137	1	tombe	
2138	1	tomberaient	
2139	1	tombé	
2140	1	torrent	
2141	1	touche	
2142	1	touchent	
2143	1	touché	
2144	1	tourment	
2145	1	tourmente	
2146	1	tourmenter	
2147	1	tourner	
2148	1	trace	
2149	1	trahirai	
2150	1	traitant	
2151	1	tranchées	
2152	1	tranquillité	
2153	1	travers	
2154	1	traînaient	
2155	1	traînant	
2156	1	traîne	
2157	1	traînerez	
2158	1	traîtres	
2159	1	tributs	
2160	1	triomphants	
2161	1	triompher	
2162	1	triompherait	
2163	1	trois	
2164	1	trompait	
2165	1	trompe	
2166	1	tromper	
2167	1	trompeuse	
2168	1	trompée	
2169	1	trompés	
2170	1	trophée	
2171	1	troublaient	
2172	1	troublent	
2173	1	troublerais	
2174	1	troupes	
2175	1	trouvais	
2176	1	trouve	
2177	1	trouver	
2178	1	trouverez	
2179	1	trouvez	
2180	1	trouvé	
2181	1	trônes	
2182	1	tyrannisent	
2183	1	tâchais	
2184	1	témoin	
2185	1	tôt	
2186	1	user	
2187	1	vaincront	
2188	1	vaine	
2189	1	vains	
2190	1	vantent	
2191	1	vantez	
2192	1	vastes	
2193	1	veillant	
2194	1	venant	
2195	1	vendu	
2196	1	vengez	
2197	1	venus	
2198	1	verras	
2199	1	verront	
2200	1	verser	
2201	1	versé	
2202	1	vestiges	
2203	1	victoires	
2204	1	viendra	
2205	1	vienne	
2206	1	viens	
2207	1	villes	
2208	1	violence	
2209	1	violente	
2210	1	violents	
2211	1	vivra	
2212	1	voisins	
2213	1	volât	
2214	1	voudrais	
2215	1	voudrez	
2216	1	voudriez	
2217	1	vouer	
2218	1	voulais	
2219	1	voulait	
2220	1	voulons	
2221	1	voulusse	
2222	1	voulut	
2223	1	voyait	
2224	1	vus	
2225	1	vôtres	
2226	1	âpre	
2227	1	ébloui	
2228	1	éblouis	
2229	1	éblouisse	
2230	1	ébranlant	
2231	1	ébranlés	
2232	1	échappé	
2233	1	éclairer	
2234	1	éclairé	
2235	1	éclatante	
2236	1	éclats	
2237	1	écoutant	
2238	1	écoutez	
2239	1	écueil	
2240	1	égale	
2241	1	élever	
2242	1	éloignement	
2243	1	élèvent	
2244	1	élément	
2245	1	épargnais	
2246	1	épargniez	
2247	1	épargné	
2248	1	épars	
2249	1	épouvanter	
2250	1	éprouvez	
2251	1	établir	
2252	1	étale	
2253	1	étendards	
2254	1	étendraient	
2255	1	étonne	
2256	1	étonnée	
2257	1	étouffe	
2258	1	étouffée	
2259	1	étrange	
2260	1	évitait	
2261	1	ôte	
