1,529,et
2,484,de
3,415,que
4,356,je
5,339,le
6,320,il
7,303,l
8,287,est
9,279,qu
10,274,un
11,272,à
12,270,la
13,212,d
14,209,en
15,207,vous
16,187,pour
17,176,qui
18,173,ce
19,163,ne
20,163,si
21,149,les
22,149,mon
23,147,on
24,134,me
25,128,tu
26,124,mais
27,118,pas
28,115,par
29,114,j
30,114,sa
31,113,des
32,111,ma
33,111,son
34,102,bien
35,102,plus
36,101,m
37,97,n
38,95,roi
39,90,moi
40,90,te
41,89,une
42,78,c
43,78,ton
44,77,t
45,76,où
46,74,lui
47,73,même
48,72,amour
49,72,du
50,71,au
51,71,elle
52,71,ta
53,70,coeur
54,70,gloire
55,69,ai
56,66,dans
57,65,a
58,63,comme
59,63,s
60,60,enfin
61,58,ses
62,58,thémistocle
63,54,cette
64,54,sans
65,52,mes
66,52,se
67,50,fait
68,50,nous
69,49,toi
70,49,votre
71,47,faire
72,46,grand
73,46,peut
74,44,donc
75,44,tout
76,43,veux
77,42,haine
78,42,veut
79,41,voir
80,40,aux
81,40,ou
82,40,point
83,39,quand
84,38,faut
85,37,être
86,36,aime
87,36,non
88,35,victoire
89,33,artabaze
90,33,grèce
91,32,moins
92,32,sort
93,31,contre
94,31,grec
95,31,honneur
96,31,vos
97,30,ainsi
98,30,suis
99,30,âme
100,29,avoir
101,29,doit
102,28,dont
103,28,ici
104,28,leur
105,28,mort
106,28,quoi
107,28,vertu
108,27,bras
109,27,prix
110,27,trop
111,26,cet
112,26,sais
113,25,aimer
114,25,donner
115,24,glorieux
116,24,ils
117,24,mieux
118,23,dieux
119,23,eût
120,23,grands
121,23,ni
122,23,sont
123,23,tous
124,22,esprit
125,22,extrême
126,22,faveur
127,22,fortune
128,22,palmis
129,22,pays
130,21,cambise
131,21,roxane
132,21,tant
133,20,avec
134,20,oui
135,20,puis
136,19,aussi
137,19,ces
138,19,grecs
139,19,madame
140,19,puisque
141,19,sur
142,19,tes
143,19,yeux
144,18,crois
145,18,donne
146,18,main
147,18,sire
148,18,toujours
149,18,était
150,18,ô
151,17,crime
152,17,quel
153,17,rien
154,17,soit
155,17,vainqueur
156,16,aujourd
157,16,courage
158,16,défense
159,16,encore
160,16,ennemis
161,16,force
162,16,fut
163,16,hui
164,16,lorsque
165,16,mandane
166,16,objet
167,16,ont
168,16,persans
169,16,plutôt
170,16,princesse
171,16,rendre
172,16,sera
173,16,vois
174,16,état
175,15,jusqu
176,15,là
177,15,malheureux
178,15,perse
179,15,peu
180,15,rois
181,15,y
182,14,cour
183,14,ha
184,14,juste
185,14,maux
186,14,montrer
187,14,sang
188,14,servir
189,14,venger
190,14,vie
191,13,dessus
192,13,gagner
193,13,heureux
194,13,nos
195,12,afin
196,12,biens
197,12,celui
198,12,coeurs
199,12,destin
200,12,dit
201,12,dois
202,12,espoir
203,12,honte
204,12,illustre
205,12,mal
206,12,odieux
207,12,peine
208,12,peux
209,12,rend
210,12,terre
211,12,trône
212,12,zèle
213,11,assez
214,11,avait
215,11,ciel
216,11,croit
217,11,devoir
218,11,déjà
219,11,ennemi
220,11,généreux
221,11,noble
222,11,parmi
223,11,perdre
224,11,prince
225,11,puissants
226,11,secours
227,11,seulement
228,11,toute
229,11,va
230,10,après
231,10,autre
232,10,avecque
233,10,bonheur
234,10,chez
235,10,effets
236,10,envie
237,10,estime
238,10,eux
239,10,jour
240,10,jusques
241,10,lorsqu
242,10,mains
243,10,mère
244,10,parce
245,10,propre
246,10,rang
247,10,rendu
248,10,reste
249,10,récompense
250,10,vient
251,10,été
252,9,adversaire
253,9,ambition
254,9,avant
255,9,coup
256,9,coupable
257,9,coups
258,9,croire
259,9,dessein
260,9,dire
261,9,défendre
262,9,effet
263,9,espérance
264,9,fais
265,9,faites
266,9,fasse
267,9,fers
268,9,fille
269,9,foi
270,9,funeste
271,9,fureur
272,9,haut
273,9,jours
274,9,loin
275,9,lâche
276,9,met
277,9,patrie
278,9,puissance
279,9,raison
280,9,serait
281,9,service
282,9,sous
283,9,vaincre
284,8,ami
285,8,appas
286,8,attends
287,8,autres
288,8,avais
289,8,avez
290,8,besoin
291,8,cependant
292,8,certes
293,8,chère
294,8,dedans
295,8,destins
296,8,deux
297,8,désire
298,8,efforts
299,8,empire
300,8,faible
301,8,fois
302,8,garde
303,8,jamais
304,8,juge
305,8,malgré
306,8,misérable
307,8,notre
308,8,nouvelle
309,8,paraître
310,8,perte
311,8,pourrais
312,8,pouvoir
313,8,puissant
314,8,puisse
315,8,quelque
316,8,quelques
317,8,seigneur
318,8,soeur
319,8,temps
320,8,trouve
321,8,vouloir
322,8,ôter
323,7,aide
324,7,aimé
325,7,aller
326,7,armes
327,7,aura
328,7,aversion
329,7,ayant
330,7,banni
331,7,charmes
332,7,chose
333,7,dis
334,7,doute
335,7,détruire
336,7,envieux
337,7,fameux
338,7,furie
339,7,guerre
340,7,hélas
341,7,leurs
342,7,lieux
343,7,maintenant
344,7,moindre
345,7,monarque
346,7,mériter
347,7,naître
348,7,pense
349,7,pitié
350,7,près
351,7,regarde
352,7,semble
353,7,soin
354,7,soins
355,7,soupçon
356,7,succès
357,7,tâche
358,7,vain
359,7,victorieux
360,7,vrai
361,6,adversaires
362,6,affection
363,6,aisément
364,6,alors
365,6,appui
366,6,aurais
367,6,autrefois
368,6,bienfaits
369,6,bientôt
370,6,car
371,6,cent
372,6,cercueil
373,6,ceux
374,6,colère
375,6,confesse
376,6,considère
377,6,contente
378,6,couronne
379,6,danger
380,6,demande
381,6,douleur
382,6,eaux
383,6,erreur
384,6,espérer
385,6,ferai
386,6,fit
387,6,flamme
388,6,foudre
389,6,gouffre
390,6,grande
391,6,grandeur
392,6,haute
393,6,hommes
394,6,indigne
395,6,ingrat
396,6,injuste
397,6,innocence
398,6,justes
399,6,laisse
400,6,lauriers
401,6,magnanime
402,6,malheur
403,6,mourir
404,6,mérite
405,6,mérité
406,6,naufrage
407,6,obliger
408,6,obtenir
409,6,obéissance
410,6,parler
411,6,plaire
412,6,porter
413,6,pourrait
414,6,puisqu
415,6,quels
416,6,raisons
417,6,repos
418,6,sage
419,6,secret
420,6,secrets
421,6,sentiment
422,6,seul
423,6,seule
424,6,sois
425,6,souhaits
426,6,vertus
427,6,voeux
428,6,voici
429,6,voudrais
430,6,voulez
431,6,voulu
432,6,ôte
433,5,aider
434,5,aimez
435,5,ait
436,5,amis
437,5,appuyer
438,5,attente
439,5,aurai
440,5,auraient
441,5,aurait
442,5,aussitôt
443,5,aveugle
444,5,bas
445,5,belle
446,5,cause
447,5,conseil
448,5,contenter
449,5,corps
450,5,courroux
451,5,crains
452,5,cru
453,5,devez
454,5,devons
455,5,digne
456,5,dirai
457,5,dites
458,5,donné
459,5,défiance
460,5,désormais
461,5,effort
462,5,entre
463,5,exemple
464,5,expose
465,5,faiblesse
466,5,favorable
467,5,favori
468,5,fort
469,5,fruit
470,5,grâce
471,5,haïr
472,5,hé
473,5,infortuné
474,5,instant
475,5,langue
476,5,lieu
477,5,lois
478,5,longtemps
479,5,mettre
480,5,ose
481,5,outrager
482,5,part
483,5,pourquoi
484,5,pouvez
485,5,prend
486,5,protection
487,5,punir
488,5,quelle
489,5,refus
490,5,respect
491,5,rigueur
492,5,ruiner
493,5,serai
494,5,songe
495,5,souffrir
496,5,soupçons
497,5,souvent
498,5,sujets
499,5,tort
500,5,traître
501,5,vaisseaux
502,5,venge
503,5,vengeance
504,5,vengée
505,5,veuille
506,5,voit
507,5,éclat
508,5,étais
509,5,étrange
510,4,abaissement
511,4,abattu
512,4,accable
513,4,achève
514,4,actions
515,4,adorable
516,4,adresse
517,4,aimable
518,4,aimes
519,4,amant
520,4,apparence
521,4,apprenais
522,4,apprendre
523,4,as
524,4,asile
525,4,auguste
526,4,avis
527,4,beau
528,4,blesse
529,4,but
530,4,cela
531,4,chaque
532,4,chaîne
533,4,choir
534,4,choix
535,4,cieux
536,4,combat
537,4,combattu
538,4,combien
539,4,commandez
540,4,connaître
541,4,couvert
542,4,craint
543,4,croirais
544,4,desseins
545,4,doive
546,4,donna
547,4,doux
548,4,débris
549,4,déteste
550,4,exposer
551,4,feu
552,4,font
553,4,front
554,4,fruits
555,4,fus
556,4,fût
557,4,gagne
558,4,homme
559,4,honneurs
560,4,immortelle
561,4,importe
562,4,ingrats
563,4,innocent
564,4,inutiles
565,4,justement
566,4,laisser
567,4,loi
568,4,monde
569,4,mémoire
570,4,mépris
571,4,noires
572,4,nom
573,4,nombre
574,4,occasion
575,4,oeil
576,4,offense
577,4,orage
578,4,ordre
579,4,orgueil
580,4,outrage
581,4,outragée
582,4,ouvrez
583,4,paix
584,4,payé
585,4,permets
586,4,peuple
587,4,place
588,4,plaisir
589,4,possède
590,4,pourriez
591,4,pratiques
592,4,promets
593,4,prospérité
594,4,précieux
595,4,quelquefois
596,4,rares
597,4,refuser
598,4,rigoureux
599,4,rival
600,4,ruine
601,4,résister
602,4,sache
603,4,sait
604,4,saurait
605,4,sensible
606,4,sentiments
607,4,services
608,4,sorte
609,4,souffre
610,4,soutien
611,4,sujet
612,4,tient
613,4,tomber
614,4,tour
615,4,toutefois
616,4,toutes
617,4,traite
618,4,triste
619,4,trépas
620,4,tête
621,4,vaine
622,4,vas
623,4,venir
624,4,viennent
625,4,vigueur
626,4,vit
627,4,voyant
628,4,vu
629,4,élève
630,4,équitable
631,3,abord
632,3,achever
633,3,adore
634,3,aidé
635,3,aima
636,3,aimais
637,3,ajouter
638,3,ambitieux
639,3,amitié
640,3,amoureux
641,3,armé
642,3,assurance
643,3,attaquer
644,3,attend
645,3,attentat
646,3,audacieux
647,3,auprès
648,3,avantage
649,3,avouer
650,3,blâme
651,3,bons
652,3,bref
653,3,cache
654,3,cacher
655,3,celle
656,3,certain
657,3,cesse
658,3,chacun
659,3,charme
660,3,charmé
661,3,combattant
662,3,comble
663,3,commandements
664,3,comment
665,3,commune
666,3,condamner
667,3,condamné
668,3,confusion
669,3,conquêtes
670,3,conserver
671,3,consiste
672,3,conçoit
673,3,craindre
674,3,crut
675,3,davantage
676,3,depuis
677,3,destine
678,3,devant
679,3,dieu
680,3,donnez
681,3,durant
682,3,découvrir
683,3,délices
684,3,dépendait
685,3,dépit
686,3,déplaire
687,3,déshonore
688,3,détourner
689,3,effroi
690,3,effroyable
691,3,emporte
692,3,enfant
693,3,ennemie
694,3,entendre
695,3,esclave
696,3,espion
697,3,estimé
698,3,eusse
699,3,excuse
700,3,faibles
701,3,fatal
702,3,faveurs
703,3,feint
704,3,feux
705,3,fidèle
706,3,fortement
707,3,fuite
708,3,fureurs
709,3,genoux
710,3,hais
711,3,hautement
712,3,horreur
713,3,ignore
714,3,infidèle
715,3,invincible
716,3,jouis
717,3,langage
718,3,légitime
719,3,majesté
720,3,manquer
721,3,maître
722,3,menacé
723,3,mets
724,3,mien
725,3,mille
726,3,monte
727,3,montrez
728,3,mortelle
729,3,morts
730,3,moyens
731,3,nouveau
732,3,nouveaux
733,3,nuire
734,3,né
735,3,obstinée
736,3,obtiendra
737,3,oppose
738,3,ouverts
739,3,parais
740,3,parle
741,3,parlerai
742,3,partage
743,3,parti
744,3,partout
745,3,passion
746,3,passions
747,3,perdu
748,3,permet
749,3,permettez
750,3,persécuter
751,3,persécuté
752,3,pire
753,3,plaindre
754,3,porte
755,3,pourtant
756,3,premiers
757,3,première
758,3,presque
759,3,princes
760,3,promesses
761,3,promettre
762,3,propose
763,3,propres
764,3,protéger
765,3,protégé
766,3,prête
767,3,pu
768,3,puissent
769,3,père
770,3,péril
771,3,périr
772,3,périsse
773,3,quiconque
774,3,redoutable
775,3,rende
776,3,rendit
777,3,rendrait
778,3,retenir
779,3,retire
780,3,reviens
781,3,réduit
782,3,régner
783,3,résoudre
784,3,salaire
785,3,saurai
786,3,saurons
787,3,sauvé
788,3,seraient
789,3,sert
790,3,sienne
791,3,souci
792,3,souhaiter
793,3,souhaité
794,3,soumettre
795,3,soupire
796,3,soupçonne
797,3,soupçonner
798,3,souveraine
799,3,succombe
800,3,suffit
801,3,suit
802,3,suivre
803,3,supporte
804,3,tel
805,3,telle
806,3,tombe
807,3,touche
808,3,tourment
809,3,trahir
810,3,trahit
811,3,traits
812,3,trame
813,3,transport
814,3,transports
815,3,traverse
816,3,triomphe
817,3,triompher
818,3,tromper
819,3,trésors
820,3,utile
821,3,verrez
822,3,viens
823,3,vivant
824,3,volontés
825,3,voudra
826,3,voudrait
827,3,voyez
828,3,vue
829,3,véritable
830,3,éclater
831,3,écrites
832,3,épouvante
833,3,états
834,3,étonne
835,3,éviter
836,2,abaisse
837,2,abandonne
838,2,abat
839,2,abattre
840,2,abri
841,2,accuse
842,2,acquitter
843,2,action
844,2,adieu
845,2,adoré
846,2,adverse
847,2,affront
848,2,agir
849,2,agréable
850,2,ah
851,2,aille
852,2,ailleurs
853,2,aimerais
854,2,aimât
855,2,allez
856,2,alliance
857,2,allumer
858,2,amorces
859,2,amène
860,2,approuve
861,2,ardeur
862,2,armée
863,2,arrache
864,2,artifices
865,2,aspire
866,2,assassin
867,2,assure
868,2,atamire
869,2,attache
870,2,attacher
871,2,attaquent
872,2,atteinte
873,2,attendu
874,2,attraits
875,2,augmenter
876,2,autant
877,2,avaient
878,2,avance
879,2,avantageux
880,2,aventure
881,2,aventures
882,2,bat
883,2,beautés
884,2,bienheureux
885,2,blesseraient
886,2,blâmer
887,2,bon
888,2,borne
889,2,cachés
890,2,calamité
891,2,calmer
892,2,capable
893,2,caprice
894,2,caresses
895,2,change
896,2,changement
897,2,chargé
898,2,charmant
899,2,chasser
900,2,chassé
901,2,cherche
902,2,chérie
903,2,commandement
904,2,commence
905,2,commettre
906,2,compagnon
907,2,compassion
908,2,comprends
909,2,confondrai
910,2,confondre
911,2,confus
912,2,conjure
913,2,connaît
914,2,conquête
915,2,consent
916,2,consentement
917,2,content
918,2,contraires
919,2,corrompre
920,2,coupables
921,2,crimes
922,2,criminel
923,2,criminelle
924,2,croiras
925,2,cruel
926,2,crus
927,2,crédit
928,2,cède
929,2,céder
930,2,dangers
931,2,degré
932,2,demander
933,2,dernier
934,2,descend
935,2,descendre
936,2,devais
937,2,devait
938,2,devance
939,2,dignes
940,2,discours
941,2,doncques
942,2,donnant
943,2,droits
944,2,défaire
945,2,défaut
946,2,défend
947,2,défier
948,2,déplaît
949,2,déplorable
950,2,désirer
951,2,détruit
952,2,embrasser
953,2,employer
954,2,engage
955,2,engager
956,2,entends
957,2,envi
958,2,envier
959,2,es
960,2,espère
961,2,estimer
962,2,eu
963,2,excita
964,2,exciter
965,2,excès
966,2,exploits
967,2,exécuter
968,2,facile
969,2,faisait
970,2,faix
971,2,fallait
972,2,fallut
973,2,fardeau
974,2,favorise
975,2,feins
976,2,femme
977,2,fer
978,2,ferais
979,2,ferme
980,2,fier
981,2,fierais
982,2,fis
983,2,forces
984,2,forte
985,2,fortuné
986,2,frère
987,2,fuis
988,2,fuit
989,2,féconde
990,2,gagnons
991,2,gagné
992,2,gain
993,2,grâces
994,2,gré
995,2,guerriers
996,2,générosité
997,2,gêner
998,2,heureuse
999,2,honorable
1000,2,honorer
1001,2,honteuse
1002,2,horrible
1003,2,hymen
1004,2,hyménée
1005,2,importance
1006,2,important
1007,2,imprima
1008,2,impuissants
1009,2,incomparable
1010,2,infamie
1011,2,infidélité
1012,2,infortune
1013,2,inhumaine
1014,2,injustice
1015,2,insensible
1016,2,inspire
1017,2,intérêt
1018,2,irrite
1019,2,irrité
1020,2,joindre
1021,2,justice
1022,2,las
1023,2,liberté
1024,2,louange
1025,2,lâches
1026,2,manifeste
1027,2,manque
1028,2,marche
1029,2,marcher
1030,2,marque
1031,2,mauvais
1032,2,milieu
1033,2,mis
1034,2,misères
1035,2,monstre
1036,2,mortel
1037,2,mot
1038,2,mourut
1039,2,mêmes
1040,2,naissance
1041,2,nobles
1042,2,noeuds
1043,2,noire
1044,2,nourrir
1045,2,nuiraient
1046,2,nuit
1047,2,nécessaire
1048,2,oblige
1049,2,obligé
1050,2,obtient
1051,2,obéir
1052,2,obéis
1053,2,offert
1054,2,offrir
1055,2,ombrage
1056,2,opposa
1057,2,opprime
1058,2,opprimer
1059,2,outrageux
1060,2,ouvrage
1061,2,ouvrir
1062,2,paraît
1063,2,pardonne
1064,2,pardonnez
1065,2,partager
1066,2,partir
1067,2,parts
1068,2,passe
1069,2,passer
1070,2,payer
1071,2,pendant
1072,2,pensée
1073,2,percer
1074,2,perd
1075,2,perde
1076,2,perdrai
1077,2,perds
1078,2,permis
1079,2,petits
1080,2,peuples
1081,2,peur
1082,2,peuvent
1083,2,pieds
1084,2,plais
1085,2,plaît
1086,2,plût
1087,2,poison
1088,2,portez
1089,2,possession
1090,2,pourrai
1091,2,poursuit
1092,2,poursuivie
1093,2,pouvais
1094,2,pouvait
1095,2,prendras
1096,2,prendre
1097,2,priver
1098,2,proche
1099,2,prodige
1100,2,prodigieux
1101,2,produit
1102,2,profiter
1103,2,promptement
1104,2,propices
1105,2,protégeant
1106,2,préfère
1107,2,présent
1108,2,présente
1109,2,publiques
1110,2,puissante
1111,2,puni
1112,2,punit
1113,2,péri
1114,2,quelqu
1115,2,ravi
1116,2,ravir
1117,2,ravit
1118,2,rayon
1119,2,rebelle
1120,2,recevoir
1121,2,reconnu
1122,2,refuse
1123,2,refuseras
1124,2,regards
1125,2,relever
1126,2,remplisse
1127,2,remplit
1128,2,rencontre
1129,2,renommée
1130,2,repentez
1131,2,ressentiment
1132,2,revêtu
1133,2,reçut
1134,2,rigueurs
1135,2,saccager
1136,2,salut
1137,2,sanglant
1138,2,sanguinaire
1139,2,satisfaire
1140,2,satisfait
1141,2,saura
1142,2,saurez
1143,2,sauvés
1144,2,savais
1145,2,savent
1146,2,savez
1147,2,savoir
1148,2,sceptre
1149,2,sein
1150,2,semblable
1151,2,sens
1152,2,serais
1153,2,serment
1154,2,seront
1155,2,servent
1156,2,signale
1157,2,soient
1158,2,sollicite
1159,2,sortit
1160,2,soutienne
1161,2,soutient
1162,2,soyez
1163,2,splendeur
1164,2,su
1165,2,sublime
1166,2,suivant
1167,2,supplice
1168,2,surprend
1169,2,surpris
1170,2,sût
1171,2,taire
1172,2,tels
1173,2,tenir
1174,2,tienne
1175,2,tirer
1176,2,tiré
1177,2,titre
1178,2,travailler
1179,2,triomphant
1180,2,trompeur
1181,2,trouble
1182,2,trouver
1183,2,trésor
1184,2,tue
1185,2,tutélaires
1186,2,témoigner
1187,2,témoignerai
1188,2,téméraire
1189,2,témérités
1190,2,vaincu
1191,2,vaincus
1192,2,vais
1193,2,vaut
1194,2,vengerai
1195,2,verrais
1196,2,victoires
1197,2,ville
1198,2,vivre
1199,2,voleur
1200,2,vont
1201,2,voulant
1202,2,vécu
1203,2,xercès
1204,2,âmes
1205,2,écoute
1206,2,égaler
1207,2,élevé
1208,2,élèvent
1209,2,épargner
1210,2,épouvantable
1211,2,époux
1212,2,étaient
1213,2,étouffer
1214,2,étranger
1215,2,êtes
1216,1,abaissé
1217,1,abandonnant
1218,1,abandonner
1219,1,abandonné
1220,1,absence
1221,1,absolu
1222,1,absolument
1223,1,absolus
1224,1,absoudre
1225,1,abuser
1226,1,accablé
1227,1,accepte
1228,1,accident
1229,1,accorde
1230,1,accordé
1231,1,accoutumé
1232,1,accroire
1233,1,accueil
1234,1,accumuler
1235,1,accusent
1236,1,accuser
1237,1,achevât
1238,1,achète
1239,1,acquis
1240,1,acquitte
1241,1,acte
1242,1,actes
1243,1,admire
1244,1,adorables
1245,1,adorer
1246,1,adroite
1247,1,adversité
1248,1,adversités
1249,1,affaire
1250,1,affaires
1251,1,affections
1252,1,affermir
1253,1,affliger
1254,1,affligé
1255,1,affranchi
1256,1,affreuse
1257,1,affreux
1258,1,agissait
1259,1,agit
1260,1,aidez
1261,1,aigreur
1262,1,aimant
1263,1,aiment
1264,1,aimerai
1265,1,aimions
1266,1,air
1267,1,ajoute
1268,1,ajouté
1269,1,alarmes
1270,1,aliment
1271,1,allait
1272,1,alliez
1273,1,allié
1274,1,allons
1275,1,allumera
1276,1,allât
1277,1,allégresse
1278,1,amante
1279,1,ample
1280,1,anime
1281,1,animé
1282,1,animés
1283,1,aperçois
1284,1,appelle
1285,1,appellerait
1286,1,apporte
1287,1,apporté
1288,1,apprends
1289,1,apprenez
1290,1,appris
1291,1,appréhende
1292,1,apprêts
1293,1,appuierai
1294,1,ardents
1295,1,armerai
1296,1,armât
1297,1,arracher
1298,1,arraché
1299,1,arriver
1300,1,arrogance
1301,1,arrêt
1302,1,arrête
1303,1,arrêter
1304,1,art
1305,1,artifice
1306,1,aspect
1307,1,aspirer
1308,1,aspiré
1309,1,assis
1310,1,assistance
1311,1,assiste
1312,1,assurer
1313,1,assuré
1314,1,astres
1315,1,attachent
1316,1,attaché
1317,1,attaque
1318,1,attendais
1319,1,attende
1320,1,attenter
1321,1,atterrée
1322,1,attire
1323,1,aucun
1324,1,audace
1325,1,augmente
1326,1,augustes
1327,1,auriez
1328,1,autel
1329,1,autels
1330,1,autrement
1331,1,autrui
1332,1,avertir
1333,1,aveuglée
1334,1,aveuglés
1335,1,avides
1336,1,avons
1337,1,avouerait
1338,1,avoueras
1339,1,ayez
1340,1,baiser
1341,1,barbare
1342,1,bassesse
1343,1,batailles
1344,1,beaucoup
1345,1,beauté
1346,1,beaux
1347,1,berger
1348,1,bienfait
1349,1,blessent
1350,1,blessera
1351,1,blessé
1352,1,blâmable
1353,1,blâmé
1354,1,bonne
1355,1,bontés
1356,1,borna
1357,1,bouche
1358,1,bout
1359,1,briller
1360,1,brisé
1361,1,bruit
1362,1,brûler
1363,1,buvaient
1364,1,cacheriez
1365,1,cachez
1366,1,caché
1367,1,calamités
1368,1,captivité
1369,1,causa
1370,1,causé
1371,1,ceci
1372,1,cents
1373,1,certaine
1374,1,cessa
1375,1,chagrin
1376,1,changeant
1377,1,changer
1378,1,charger
1379,1,charma
1380,1,charmants
1381,1,charment
1382,1,charmer
1383,1,charmés
1384,1,chassa
1385,1,chemins
1386,1,cher
1387,1,chercherai
1388,1,chers
1389,1,choquer
1390,1,choses
1391,1,châtiment
1392,1,châtié
1393,1,chéri
1394,1,chérir
1395,1,chéris
1396,1,chérit
1397,1,clairement
1398,1,clos
1399,1,clémence
1400,1,colosse
1401,1,combats
1402,1,combattait
1403,1,combattants
1404,1,combattit
1405,1,combattrai
1406,1,combattre
1407,1,combler
1408,1,comblé
1409,1,combustion
1410,1,commandant
1411,1,commandé
1412,1,commencer
1413,1,commencé
1414,1,commença
1415,1,commençât
1416,1,communes
1417,1,comparable
1418,1,comparaison
1419,1,compare
1420,1,composer
1421,1,composée
1422,1,comprendre
1423,1,compris
1424,1,compte
1425,1,concevoir
1426,1,condamnable
1427,1,condamne
1428,1,condamnés
1429,1,conditions
1430,1,conduisant
1431,1,conduit
1432,1,confesser
1433,1,confidence
1434,1,confident
1435,1,confirment
1436,1,confondra
1437,1,conjurée
1438,1,conjurés
1439,1,connais
1440,1,connaisse
1441,1,connaissez
1442,1,connaîtras
1443,1,connu
1444,1,conseille
1445,1,conseilleriez
1446,1,conseils
1447,1,consens
1448,1,consente
1449,1,consentir
1450,1,consentirait
1451,1,consentirez
1452,1,conserva
1453,1,conserverai
1454,1,conservez
1455,1,considérez
1456,1,constance
1457,1,constante
1458,1,contentez
1459,1,contents
1460,1,contrainte
1461,1,contraire
1462,1,contredire
1463,1,convie
1464,1,conçois
1465,1,conçu
1466,1,conçut
1467,1,corrompt
1468,1,couler
1469,1,courageux
1470,1,couronner
1471,1,couronné
1472,1,couronnée
1473,1,cours
1474,1,course
1475,1,court
1476,1,couverte
1477,1,couvrent
1478,1,couvrir
1479,1,craindrai
1480,1,craindrais
1481,1,craindrez
1482,1,crainte
1483,1,croirai
1484,1,croyable
1485,1,croyance
1486,1,cruauté
1487,1,cruautés
1488,1,cruelle
1489,1,cueille
1490,1,cueillerai
1491,1,cuisants
1492,1,célestes
1493,1,côté
1494,1,daignez
1495,1,degrés
1496,1,demandant
1497,1,demanderais
1498,1,demandez
1499,1,demeura
1500,1,demeure
1501,1,descendant
1502,1,dessous
1503,1,destiné
1504,1,deuil
1505,1,devaient
1506,1,devenir
1507,1,devenu
1508,1,devient
1509,1,devoirs
1510,1,devrais
1511,1,diadème
1512,1,diadèmes
1513,1,différents
1514,1,différez
1515,1,dirais
1516,1,dirait
1517,1,diras
1518,1,direz
1519,1,discrétion
1520,1,dise
1521,1,disposer
1522,1,dissimulez
1523,1,dissimulé
1524,1,dissiper
1525,1,distraire
1526,1,divinité
1527,1,divins
1528,1,divisée
1529,1,divisés
1530,1,doivent
1531,1,domptable
1532,1,dompter
1533,1,domptée
1534,1,domptés
1535,1,donnas
1536,1,donnent
1537,1,donnerai
1538,1,donnerais
1539,1,donnerait
1540,1,donneront
1541,1,donnée
1542,1,douces
1543,1,douleurs
1544,1,douter
1545,1,doutez
1546,1,droit
1547,1,dès
1548,1,déclara
1549,1,déclare
1550,1,déclarerait
1551,1,découvrant
1552,1,découvrent
1553,1,dédains
1554,1,défaits
1555,1,défende
1556,1,défends
1557,1,dégager
1558,1,déguise
1559,1,déités
1560,1,délicieux
1561,1,démentent
1562,1,démentirait
1563,1,démon
1564,1,dépend
1565,1,dépendre
1566,1,déplaisir
1567,1,déplaisirs
1568,1,désir
1569,1,désirable
1570,1,désirez
1571,1,désirée
1572,1,désobéir
1573,1,désobéit
1574,1,détesta
1575,1,détestable
1576,1,détestables
1577,1,détester
1578,1,détesterez
1579,1,détrompez
1580,1,détruirai
1581,1,détruis
1582,1,efface
1583,1,effacer
1584,1,effaces
1585,1,effronté
1586,1,embrasait
1587,1,embrassant
1588,1,embrasse
1589,1,embrassez
1590,1,embrassé
1591,1,emparé
1592,1,emploi
1593,1,emporter
1594,1,empêche
1595,1,empêchement
1596,1,empêcher
1597,1,enchaîner
1598,1,endormi
1599,1,endroits
1600,1,enfante
1601,1,enfants
1602,1,enfer
1603,1,enfers
1604,1,enflammait
1605,1,enflammer
1606,1,enflés
1607,1,enfoncé
1608,1,engageait
1609,1,engagé
1610,1,engloutis
1611,1,enseignant
1612,1,entendu
1613,1,entière
1614,1,entraîner
1615,1,entreprendre
1616,1,entreprise
1617,1,entré
1618,1,envoyer
1619,1,envoyé
1620,1,espace
1621,1,esprits
1622,1,espérait
1623,1,espéré
1624,1,estimant
1625,1,estimerais
1626,1,estimeront
1627,1,eussiez
1628,1,excitant
1629,1,excités
1630,1,excuser
1631,1,excuses
1632,1,excusez
1633,1,exercer
1634,1,exige
1635,1,exigera
1636,1,exil
1637,1,expliquer
1638,1,exprimer
1639,1,exprès
1640,1,extrémité
1641,1,extrémités
1642,1,extrêmes
1643,1,faille
1644,1,faisais
1645,1,faisant
1646,1,faits
1647,1,fard
1648,1,faudra
1649,1,faudrait
1650,1,fausses
1651,1,faux
1652,1,favorablement
1653,1,favoris
1654,1,favorisé
1655,1,feigne
1656,1,feinte
1657,1,feintes
1658,1,fera
1659,1,feraient
1660,1,ferait
1661,1,feras
1662,1,fermeté
1663,1,fermé
1664,1,fertile
1665,1,ferveur
1666,1,fiers
1667,1,figurant
1668,1,figure
1669,1,figurer
1670,1,finiront
1671,1,firent
1672,1,fisse
1673,1,flambeaux
1674,1,flammes
1675,1,flatter
1676,1,flatteurs
1677,1,fleuriraient
1678,1,fleuves
1679,1,flottants
1680,1,fléchir
1681,1,fléchissent
1682,1,fléchit
1683,1,fomente
1684,1,fomenter
1685,1,fond
1686,1,fondement
1687,1,fondé
1688,1,forcer
1689,1,forcé
1690,1,forme
1691,1,formidable
1692,1,forts
1693,1,fortunée
1694,1,fortunées
1695,1,força
1696,1,foulera
1697,1,franchise
1698,1,fraude
1699,1,fraîchement
1700,1,frémir
1701,1,fui
1702,1,fuirai
1703,1,funestes
1704,1,funérailles
1705,1,furent
1706,1,furieux
1707,1,fuyant
1708,1,fâcheux
1709,1,félicités
1710,1,gagnai
1711,1,gagnant
1712,1,gagnerait
1713,1,glissants
1714,1,goûte
1715,1,grandeurs
1716,1,grave
1717,1,gronder
1718,1,grossi
1719,1,guerrier
1720,1,général
1721,1,généreuse
1722,1,habitants
1723,1,hardi
1724,1,hasardeux
1725,1,hasards
1726,1,heure
1727,1,histoire
1728,1,homicide
1729,1,honora
1730,1,honoré
1731,1,honteux
1732,1,humilié
1733,1,héros
1734,1,héroïques
1735,1,idole
1736,1,idolâtrie
1737,1,ignominie
1738,1,ignorai
1739,1,ignorée
1740,1,illustres
1741,1,illégitime
1742,1,image
1743,1,imagine
1744,1,immole
1745,1,immolerais
1746,1,impiété
1747,1,implorer
1748,1,importune
1749,1,impression
1750,1,imprimer
1751,1,imprimera
1752,1,imprudence
1753,1,imprévu
1754,1,impudence
1755,1,imputer
1756,1,in
1757,1,inclination
1758,1,inconnu
1759,1,inconstant
1760,1,inconstante
1761,1,inconstants
1762,1,indifférent
1763,1,indignité
1764,1,indomptable
1765,1,indompté
1766,1,infini
1767,1,influence
1768,1,informez
1769,1,informé
1770,1,infortunes
1771,1,infortunée
1772,1,infâme
1773,1,infâmes
1774,1,ingrate
1775,1,ingratitude
1776,1,inhumanités
1777,1,inimitié
1778,1,inique
1779,1,injure
1780,1,injurieux
1781,1,injustement
1782,1,injustices
1783,1,inouï
1784,1,inquiétude
1785,1,insigne
1786,1,inspiré
1787,1,instruire
1788,1,instruits
1789,1,insulter
1790,1,intrigue
1791,1,intéressé
1792,1,invisible
1793,1,inébranlable
1794,1,ira
1795,1,irai
1796,1,irais
1797,1,irait
1798,1,jaloux
1799,1,joignant
1800,1,joigne
1801,1,joug
1802,1,jouissance
1803,1,jouit
1804,1,journée
1805,1,journées
1806,1,jugea
1807,1,jugeai
1808,1,jugement
1809,1,juger
1810,1,jugez
1811,1,jugé
1812,1,jure
1813,1,laissez
1814,1,laissons
1815,1,laissé
1816,1,langueur
1817,1,languir
1818,1,largesses
1819,1,lassés
1820,1,lavent
1821,1,lettres
1822,1,leçons
1823,1,libre
1824,1,lien
1825,1,liens
1826,1,limité
1827,1,longs
1828,1,longue
1829,1,longues
1830,1,louable
1831,1,louanges
1832,1,louerait
1833,1,lâchement
1834,1,lâcheté
1835,1,lâchetés
1836,1,léger
1837,1,magnifiques
1838,1,maintenir
1839,1,maintenu
1840,1,malheureuse
1841,1,mander
1842,1,manier
1843,1,manquait
1844,1,marchai
1845,1,marchent
1846,1,martyre
1847,1,maxime
1848,1,maximes
1849,1,meilleur
1850,1,meilleure
1851,1,menaces
1852,1,menaçaient
1853,1,mercenaire
1854,1,mette
1855,1,meure
1856,1,meurs
1857,1,meurtre
1858,1,mienne
1859,1,misère
1860,1,modérés
1861,1,monstres
1862,1,monstrueux
1863,1,monter
1864,1,montre
1865,1,montrent
1866,1,montrât
1867,1,montré
1868,1,morceau
1869,1,mortelles
1870,1,mortels
1871,1,mourant
1872,1,mourra
1873,1,mouvement
1874,1,mouvements
1875,1,mânes
1876,1,mécontent
1877,1,médite
1878,1,méprisant
1879,1,méprise
1880,1,méritez
1881,1,naissant
1882,1,naissante
1883,1,naisse
1884,1,naquit
1885,1,natal
1886,1,naufrages
1887,1,naît
1888,1,noblement
1889,1,nommer
1890,1,nourrit
1891,1,nourriture
1892,1,nouvelles
1893,1,nuage
1894,1,nue
1895,1,nuise
1896,1,nés
1897,1,objets
1898,1,obligez
1899,1,obscurcir
1900,1,obscures
1901,1,observe
1902,1,observer
1903,1,observé
1904,1,obstacle
1905,1,obtiendrai
1906,1,obtiendrons
1907,1,obéirait
1908,1,obéissent
1909,1,offenser
1910,1,offenserait
1911,1,offensez
1912,1,offerts
1913,1,offices
1914,1,offusqua
1915,1,offusquer
1916,1,oiseaux
1917,1,ombre
1918,1,opposer
1919,1,opposerait
1920,1,opposiez
1921,1,opposât
1922,1,oppressé
1923,1,opprobre
1924,1,or
1925,1,orages
1926,1,ordonne
1927,1,ordonnât
1928,1,os
1929,1,osé
1930,1,oublier
1931,1,outrages
1932,1,outragé
1933,1,ouverte
1934,1,ouvriraient
1935,1,ouvris
1936,1,ouï
1937,1,ouïr
1938,1,ouïs
1939,1,paraisse
1940,1,paraissent
1941,1,paraîtra
1942,1,paraîtras
1943,1,pareils
1944,1,parent
1945,1,parents
1946,1,parfaite
1947,1,parfois
1948,1,parlait
1949,1,parlerait
1950,1,parleront
1951,1,parole
1952,1,paroles
1953,1,partagerez
1954,1,partisans
1955,1,paru
1956,1,passage
1957,1,passerait
1958,1,passes
1959,1,passée
1960,1,passés
1961,1,payement
1962,1,peint
1963,1,pensais
1964,1,pensait
1965,1,pensant
1966,1,penser
1967,1,penserait
1968,1,pensions
1969,1,perdrons
1970,1,perfide
1971,1,perfides
1972,1,persécuteurs
1973,1,persévérance
1974,1,petit
1975,1,petite
1976,1,pharnaspe
1977,1,pieux
1978,1,pitoyable
1979,1,placerait
1980,1,plaider
1981,1,plaignait
1982,1,plaigne
1983,1,plaignit
1984,1,plaindrai
1985,1,plaindrait
1986,1,plains
1987,1,plaint
1988,1,plairont
1989,1,plein
1990,1,pleure
1991,1,pleurer
1992,1,pleurerais
1993,1,pleurs
1994,1,pleuré
1995,1,plu
1996,1,poignard
1997,1,poisson
1998,1,politique
1999,1,porta
2000,1,portent
2001,1,porté
2002,1,postérité
2003,1,potentat
2004,1,potentats
2005,1,poudre
2006,1,pourraient
2007,1,pourras
2008,1,pourrons
2009,1,poursuis
2010,1,poursuivez
2011,1,poursuivre
2012,1,poussa
2013,1,poussait
2014,1,pousse
2015,1,pousseraient
2016,1,pouvaient
2017,1,pratique
2018,1,pratiqués
2019,1,premier
2020,1,prendrai
2021,1,prenez
2022,1,preniez
2023,1,presse
2024,1,pressé
2025,1,pris
2026,1,prisonnier
2027,1,prive
2028,1,privé
2029,1,prochaine
2030,1,prodigue
2031,1,produire
2032,1,profane
2033,1,promesse
2034,1,promettais
2035,1,promettez
2036,1,prompt
2037,1,propice
2038,1,propos
2039,1,prospérités
2040,1,protecteur
2041,1,protecteurs
2042,1,proteste
2043,1,protège
2044,1,protégeais
2045,1,protégera
2046,1,protégerai
2047,1,protégez
2048,1,provinces
2049,1,prudence
2050,1,précipice
2051,1,précipices
2052,1,précipite
2053,1,précipitez
2054,1,précède
2055,1,précèdent
2056,1,précéder
2057,1,préférer
2058,1,préférez
2059,1,prépare
2060,1,préparer
2061,1,présentait
2062,1,présenter
2063,1,présents
2064,1,présenté
2065,1,présume
2066,1,prétendez
2067,1,prétendre
2068,1,prétends
2069,1,prêt
2070,1,prêtes
2071,1,prêts
2072,1,prît
2073,1,prîtes
2074,1,puissamment
2075,1,puissiez
2076,1,puissions
2077,1,punira
2078,1,punirai
2079,1,puniraient
2080,1,punissez
2081,1,punition
2082,1,pèse
2083,1,pénètre
2084,1,pénétrez
2085,1,périls
2086,1,périra
2087,1,périt
2088,1,pût
2089,1,querelle
2090,1,quitter
2091,1,quérir
2092,1,rage
2093,1,ramasse
2094,1,rappeler
2095,1,rare
2096,1,rarement
2097,1,rayons
2098,1,recevra
2099,1,recevrai
2100,1,reconnaisse
2101,1,recueillerons
2102,1,reculer
2103,1,recèle
2104,1,redevable
2105,1,refuses
2106,1,regard
2107,1,regarder
2108,1,regarderas
2109,1,regardez
2110,1,rehaussé
2111,1,rehaussée
2112,1,relevais
2113,1,relevés
2114,1,reluire
2115,1,relève
2116,1,remettez
2117,1,remettre
2118,1,remis
2119,1,rempart
2120,1,rempli
2121,1,remporte
2122,1,rencontra
2123,1,rencontrait
2124,1,rencontrer
2125,1,rencontré
2126,1,rendant
2127,1,rendez
2128,1,rendraient
2129,1,rendrais
2130,1,rendront
2131,1,rends
2132,1,renfermé
2133,1,renommé
2134,1,renommés
2135,1,renonce
2136,1,renverse
2137,1,renverser
2138,1,repentir
2139,1,repentirs
2140,1,repose
2141,1,reprendre
2142,1,reproche
2143,1,reprocher
2144,1,représentant
2145,1,représenter
2146,1,respecter
2147,1,respirai
2148,1,ressemblât
2149,1,ressentis
2150,1,resserre
2151,1,ressorts
2152,1,rester
2153,1,restes
2154,1,retarder
2155,1,retour
2156,1,retourne
2157,1,retraçant
2158,1,retrouve
2159,1,revenait
2160,1,revenu
2161,1,revers
2162,1,revient
2163,1,revoir
2164,1,reçois
2165,1,reçoit
2166,1,reçu
2167,1,reçût
2168,1,riches
2169,1,richesses
2170,1,rit
2171,1,rompe
2172,1,rompre
2173,1,rougir
2174,1,royales
2175,1,rudes
2176,1,ruiné
2177,1,ruinée
2178,1,ruse
2179,1,rusés
2180,1,règne
2181,1,rébellion
2182,1,récompenserai
2183,1,récompenseraient
2184,1,réduire
2185,1,réduiront
2186,1,réduite
2187,1,répand
2188,1,répond
2189,1,répondra
2190,1,répondre
2191,1,réponds
2192,1,résista
2193,1,résiste
2194,1,résisté
2195,1,résolu
2196,1,résolvons
2197,1,résoudras
2198,1,résous
2199,1,rétabli
2200,1,rétablit
2201,1,réveil
2202,1,révère
2203,1,révéré
2204,1,sainte
2205,1,salamine
2206,1,salutaires
2207,1,satisferai
2208,1,saurais
2209,1,sauras
2210,1,sauva
2211,1,sauver
2212,1,sauvât
2213,1,savait
2214,1,seconde
2215,1,secrète
2216,1,selon
2217,1,semblait
2218,1,sembler
2219,1,semblera
2220,1,sensiblement
2221,1,sentir
2222,1,seras
2223,1,serez
2224,1,sers
2225,1,servait
2226,1,servant
2227,1,serve
2228,1,servi
2229,1,servile
2230,1,servirait
2231,1,seules
2232,1,signalais
2233,1,silence
2234,1,simples
2235,1,sinon
2236,1,soi
2237,1,soldats
2238,1,sollicitant
2239,1,sollicitez
2240,1,sollicités
2241,1,sommeil
2242,1,sonde
2243,1,sonder
2244,1,sondé
2245,1,songer
2246,1,sors
2247,1,sortez
2248,1,soucis
2249,1,soudain
2250,1,soufferts
2251,1,souffrant
2252,1,souffrez
2253,1,souhaitais
2254,1,soulage
2255,1,soutenez
2256,1,soutenir
2257,1,soutenu
2258,1,soutiennent
2259,1,souvenir
2260,1,souviens
2261,1,stable
2262,1,subornée
2263,1,succomber
2264,1,succède
2265,1,succéder
2266,1,suivirent
2267,1,suivis
2268,1,suivit
2269,1,suivra
2270,1,superbe
2271,1,supplices
2272,1,suprême
2273,1,suprêmes
2274,1,surmonte
2275,1,surmonter
2276,1,surmonterai
2277,1,surprendre
2278,1,suspect
2279,1,suspends
2280,1,suspens
2281,1,sut
2282,1,séjour
2283,1,séparé
2284,1,sépulcre
2285,1,sépulcres
2286,1,sépulture
2287,1,sûreté
2288,1,sûretés
2289,1,tache
2290,1,taise
2291,1,tandis
2292,1,temple
2293,1,tempêtes
2294,1,tendaient
2295,1,tendant
2296,1,tendit
2297,1,tendre
2298,1,tendresse
2299,1,tenez
2300,1,tente
2301,1,tenter
2302,1,terminer
2303,1,tien
2304,1,tiendrai
2305,1,tiendrait
2306,1,tiens
2307,1,timide
2308,1,tinssions
2309,1,tira
2310,1,tiras
2311,1,tombant
2312,1,tombeau
2313,1,tombera
2314,1,tomberait
2315,1,tombons
2316,1,tombé
2317,1,tonnerre
2318,1,toucheraient
2319,1,tourments
2320,1,tourne
2321,1,tragique
2322,1,tragiques
2323,1,trahisons
2324,1,transporte
2325,1,transporter
2326,1,travaillant
2327,1,travaille
2328,1,traîner
2329,1,tremblé
2330,1,triomphera
2331,1,triompherons
2332,1,triomphes
2333,1,tristesse
2334,1,tristesses
2335,1,trompa
2336,1,trompais
2337,1,trompe
2338,1,trompeurs
2339,1,trompeuse
2340,1,trompé
2341,1,trouvas
2342,1,trouvent
2343,1,trouveras
2344,1,trouvons
2345,1,trouvé
2346,1,tyrannique
2347,1,tâcher
2348,1,tâcherais
2349,1,tâcherons
2350,1,témoignage
2351,1,témoignant
2352,1,témoigné
2353,1,témoins
2354,1,téméraires
2355,1,tôt
2356,1,u
2357,1,union
2358,1,unique
2359,1,unis
2360,1,univers
2361,1,user
2362,1,usurpateur
2363,1,vaillance
2364,1,vaincront
2365,1,vainement
2366,1,vaines
2367,1,vains
2368,1,vaisseau
2369,1,valent
2370,1,valeur
2371,1,vapeur
2372,1,veille
2373,1,veines
2374,1,vengerais
2375,1,venges
2376,1,vengé
2377,1,vengés
2378,1,venin
2379,1,vents
2380,1,verras
2381,1,verre
2382,1,verriez
2383,1,verrons
2384,1,verser
2385,1,verseraient
2386,1,vertueux
2387,1,veuilles
2388,1,veulent
2389,1,victime
2390,1,vienne
2391,1,vieux
2392,1,villes
2393,1,violence
2394,1,vis
2395,1,visage
2396,1,vivait
2397,1,vivants
2398,1,voient
2399,1,voile
2400,1,voilà
2401,1,voix
2402,1,vol
2403,1,vole
2404,1,volonté
2405,1,voulaient
2406,1,vouliez
2407,1,voulut
2408,1,voulût
2409,1,vraie
2410,1,vrais
2411,1,vénérable
2412,1,ébranler
2413,1,échauffant
2414,1,éclaira
2415,1,éclatant
2416,1,éclatante
2417,1,écouta
2418,1,écouter
2419,1,écouterez
2420,1,écoutés
2421,1,écrit
2422,1,écueil
2423,1,également
2424,1,égalent
2425,1,égaux
2426,1,éleva
2427,1,élever
2428,1,éloigner
2429,1,éloquence
2430,1,élément
2431,1,énorme
2432,1,épargnez
2433,1,éperdu
2434,1,épouvantée
2435,1,épuisés
2436,1,étalent
2437,1,étant
2438,1,éternelles
2439,1,étonnement
2440,1,étonnerait
2441,1,étonneriez
2442,1,étonnes
2443,1,étonné
2444,1,étonnée
2445,1,étouffe
2446,1,étouffez
2447,1,étrangers
2448,1,étrangère
2449,1,ôtent
