#Word Types: 2649
#Word Tokens: 14242
#Search Hits: 0
1	425	de	
2	366	je	
3	322	et	
4	307	vous	
5	283	le	
6	227	en	
7	223	l	
8	222	un	
9	218	que	
10	215	il	
11	213	est	
12	200	la	
13	189	à	
14	169	d	
15	155	qu	
16	142	ne	
17	130	bien	
18	129	mon	
19	122	me	
20	121	on	
21	118	m	
22	116	ce	
23	114	j	
24	100	n	
25	97	qui	
26	91	les	
27	89	a	
28	89	pas	
29	85	pour	
30	84	moi	
31	84	son	
32	81	ma	
33	80	si	
34	70	elle	
35	70	tout	
36	69	plus	
37	68	s	
38	67	du	
39	66	mais	
40	64	suis	
41	63	fait	
42	62	votre	
43	59	des	
44	56	dans	
45	55	c	
46	54	sa	
47	53	lui	
48	52	don	
49	51	grand	
50	51	ou	
51	51	sans	
52	51	tu	
53	49	nous	
54	48	par	
55	47	ai	
56	47	donc	
57	47	japhet	
58	46	au	
59	45	une	
60	43	fort	
61	42	faire	
62	41	amour	
63	41	monsieur	
64	41	point	
65	40	comme	
66	38	être	
67	37	avec	
68	37	peut	
69	35	t	
70	34	bon	
71	32	faut	
72	31	où	
73	29	aussi	
74	29	foucaral	
75	29	homme	
76	29	sur	
77	28	peu	
78	28	y	
79	26	commandeur	
80	26	ha	
81	26	rien	
82	26	se	
83	26	soit	
84	26	veux	
85	25	voir	
86	24	léonore	
87	24	mes	
88	23	aime	
89	23	dieu	
90	23	oui	
91	22	car	
92	22	cette	
93	22	là	
94	22	non	
95	22	seigneur	
96	21	deux	
97	21	fou	
98	21	mal	
99	21	nièce	
100	21	vais	
101	20	autre	
102	20	dire	
103	20	entends	
104	20	même	
105	20	nom	
106	20	puis	
107	20	voilà	
108	19	chose	
109	19	esprit	
110	19	ton	
111	19	tous	
112	19	va	
113	18	ici	
114	18	orgas	
115	18	quelque	
116	17	bailli	
117	17	cour	
118	17	maître	
119	17	messieurs	
120	17	quand	
121	17	tant	
122	17	trop	
123	17	était	
124	16	autant	
125	16	coeur	
126	16	mère	
127	16	te	
128	16	ô	
129	15	ces	
130	15	encore	
131	15	fille	
132	15	ils	
133	15	notre	
134	15	pascal	
135	15	père	
136	15	temps	
137	15	toi	
138	14	assez	
139	14	beau	
140	14	bonne	
141	14	ciel	
142	14	encor	
143	14	fils	
144	14	foi	
145	14	jamais	
146	14	marine	
147	14	moins	
148	14	mort	
149	14	sais	
150	14	sont	
151	14	vos	
152	14	êtes	
153	13	aujourd	
154	13	avez	
155	13	belle	
156	13	coups	
157	13	dis	
158	13	donne	
159	13	donner	
160	13	grands	
161	13	honneur	
162	13	hui	
163	13	jeune	
164	13	maudit	
165	13	ont	
166	12	ainsi	
167	12	aux	
168	12	avoir	
169	12	césar	
170	12	empereur	
171	12	feu	
172	12	mis	
173	12	pourquoi	
174	12	quoi	
175	12	roc	
176	12	ta	
177	12	venir	
178	12	viens	
179	12	vient	
180	12	zurducaci	
181	11	bas	
182	11	bientôt	
183	11	depuis	
184	11	dit	
185	11	gens	
186	11	jour	
187	11	madame	
188	11	main	
189	11	malheur	
190	11	mieux	
191	11	serait	
192	11	trouver	
193	11	vois	
194	10	ange	
195	10	avait	
196	10	bourg	
197	10	cependant	
198	10	corps	
199	10	fais	
200	10	hélas	
201	10	ordre	
202	10	parle	
203	10	quel	
204	10	raison	
205	10	secrétaire	
206	10	seulement	
207	10	venu	
208	10	village	
209	10	vu	
210	10	yeux	
211	9	aurai	
212	9	ayant	
213	9	cavalier	
214	9	cela	
215	9	comment	
216	9	coup	
217	9	digne	
218	9	fois	
219	9	fortune	
220	9	frère	
221	9	habits	
222	9	jours	
223	9	lieu	
224	9	monseigneur	
225	9	parler	
226	9	parlez	
227	9	part	
228	9	pays	
229	9	peur	
230	9	ses	
231	9	étais	
232	8	alfonce	
233	8	alors	
234	8	aura	
235	8	autres	
236	8	avais	
237	8	beaucoup	
238	8	cousin	
239	8	dites	
240	8	doit	
241	8	déjà	
242	8	entre	
243	8	espère	
244	8	heure	
245	8	mérite	
246	8	nos	
247	8	nuit	
248	8	parent	
249	8	pourrait	
250	8	pris	
251	8	seul	
252	8	séville	
253	8	taureau	
254	8	âme	
255	8	étant	
256	7	aller	
257	7	allez	
258	7	arménie	
259	7	as	
260	7	aurais	
261	7	beauté	
262	7	bouche	
263	7	cent	
264	7	cher	
265	7	chercher	
266	7	contre	
267	7	demain	
268	7	dois	
269	7	dont	
270	7	entendez	
271	7	espérer	
272	7	fit	
273	7	grâce	
274	7	malheureux	
275	7	mille	
276	7	monde	
277	7	peste	
278	7	pu	
279	7	puisque	
280	7	riche	
281	7	roi	
282	7	tel	
283	7	toujours	
284	7	toute	
285	7	train	
286	7	veut	
287	7	voici	
288	7	échelle	
289	7	écolier	
290	7	épouser	
291	7	état	
292	6	alvare	
293	6	amant	
294	6	attend	
295	6	auprès	
296	6	aurait	
297	6	balcon	
298	6	chez	
299	6	crois	
300	6	devant	
301	6	diable	
302	6	doux	
303	6	femme	
304	6	fut	
305	6	guère	
306	6	haut	
307	6	hé	
308	6	leur	
309	6	longtemps	
310	6	madrid	
311	6	moindre	
312	6	noé	
313	6	oncle	
314	6	passé	
315	6	petit	
316	6	pourtant	
317	6	pourvu	
318	6	quelqu	
319	6	quitte	
320	6	sage	
321	6	savoir	
322	6	sera	
323	6	soeur	
324	6	sourd	
325	6	trouve	
326	6	tête	
327	6	valets	
328	6	vaut	
329	6	vie	
330	6	voudrais	
331	6	voulez	
332	5	amoureuse	
333	5	après	
334	5	argent	
335	5	battu	
336	5	beaux	
337	5	bel	
338	5	blessé	
339	5	bruit	
340	5	charles	
341	5	cornes	
342	5	courage	
343	5	dame	
344	5	dessein	
345	5	dessus	
346	5	discours	
347	5	donné	
348	5	doute	
349	5	dès	
350	5	enfin	
351	5	face	
352	5	faquin	
353	5	fasse	
354	5	fous	
355	5	grande	
356	5	harangueur	
357	5	hommes	
358	5	humeur	
359	5	hymen	
360	5	irai	
361	5	juste	
362	5	lettre	
363	5	marquis	
364	5	mots	
365	5	mourir	
366	5	ni	
367	5	oeil	
368	5	paraître	
369	5	penser	
370	5	perdre	
371	5	personne	
372	5	pis	
373	5	plaît	
374	5	pourrais	
375	5	pouvez	
376	5	promis	
377	5	quatre	
378	5	quint	
379	5	recevoir	
380	5	rend	
381	5	renifleur	
382	5	revient	
383	5	sotte	
384	5	sous	
385	5	théâtre	
386	5	tiens	
387	5	trois	
388	5	très	
389	5	trépas	
390	5	uriquis	
391	5	valet	
392	5	vers	
393	5	vertu	
394	5	villageoise	
395	5	vincent	
396	5	voleur	
397	5	vrai	
398	5	zapata	
399	5	âge	
400	5	époux	
401	4	adore	
402	4	affaire	
403	4	air	
404	4	ans	
405	4	antoine	
406	4	appelle	
407	4	arrive	
408	4	aviez	
409	4	besoin	
410	4	bonté	
411	4	brave	
412	4	cailloux	
413	4	cas	
414	4	cause	
415	4	celui	
416	4	cet	
417	4	cheval	
418	4	chère	
419	4	compliments	
420	4	connaître	
421	4	crime	
422	4	devoir	
423	4	douter	
424	4	droit	
425	4	eau	
426	4	es	
427	4	eu	
428	4	exempter	
429	4	faites	
430	4	fat	
431	4	faudrait	
432	4	façon	
433	4	ferai	
434	4	fers	
435	4	fidèle	
436	4	font	
437	4	habit	
438	4	huit	
439	4	jean	
440	4	joie	
441	4	jusqu	
442	4	lieux	
443	4	malade	
444	4	manière	
445	4	marc	
446	4	maîtresse	
447	4	meure	
448	4	mine	
449	4	mot	
450	4	naissance	
451	4	noces	
452	4	or	
453	4	ose	
454	4	oublier	
455	4	ouïr	
456	4	partir	
457	4	pauvre	
458	4	peine	
459	4	place	
460	4	pouvoir	
461	4	prend	
462	4	pressé	
463	4	prête	
464	4	reste	
465	4	reçu	
466	4	rire	
467	4	sait	
468	4	savez	
469	4	serais	
470	4	soi	
471	4	sommes	
472	4	suivez	
473	4	tantôt	
474	4	trouvé	
475	4	téméraire	
476	4	verrez	
477	4	vieille	
478	4	vitement	
479	4	vont	
480	4	vouliez	
481	4	voyez	
482	4	été	
483	3	absolu	
484	3	accident	
485	3	achever	
486	3	action	
487	3	adieu	
488	3	adorable	
489	3	afin	
490	3	ahihua	
491	3	aille	
492	3	aimez	
493	3	aise	
494	3	ait	
495	3	allons	
496	3	amadis	
497	3	amoureux	
498	3	amène	
499	3	animal	
500	3	arme	
501	3	arriver	
502	3	arrivée	
503	3	aurez	
504	3	avant	
505	3	azatèque	
506	3	baigner	
507	3	balcons	
508	3	belles	
509	3	bourreau	
510	3	braise	
511	3	chaleur	
512	3	chambre	
513	3	chaque	
514	3	chasser	
515	3	chasseurs	
516	3	chaîne	
517	3	chien	
518	3	choix	
519	3	château	
520	3	commune	
521	3	coquet	
522	3	coïa	
523	3	craindre	
524	3	crains	
525	3	criez	
526	3	croire	
527	3	croit	
528	3	côté	
529	3	dedans	
530	3	dirais	
531	3	disais	
532	3	ducat	
533	3	duègne	
534	3	désirs	
535	3	effet	
536	3	elvire	
537	3	enfant	
538	3	enfants	
539	3	enriquez	
540	3	envoie	
541	3	espagne	
542	3	esprits	
543	3	extrême	
544	3	faisant	
545	3	faudra	
546	3	ferais	
547	3	feras	
548	3	fin	
549	3	folie	
550	3	force	
551	3	frappe	
552	3	froid	
553	3	fureur	
554	3	fusil	
555	3	fâcheux	
556	3	garder	
557	3	gare	
558	3	gros	
559	3	heureux	
560	3	histoire	
561	3	holà	
562	3	importe	
563	3	infante	
564	3	jadis	
565	3	jeter	
566	3	justement	
567	3	laboureur	
568	3	laisse	
569	3	lance	
570	3	laquais	
571	3	leurs	
572	3	lion	
573	3	mains	
574	3	mari	
575	3	mariage	
576	3	marier	
577	3	marquisat	
578	3	mauvaise	
579	3	misérable	
580	3	moitié	
581	3	moment	
582	3	nez	
583	3	noble	
584	3	nobles	
585	3	noblesse	
586	3	noir	
587	3	nombre	
588	3	nommé	
589	3	noms	
590	3	nud	
591	3	objet	
592	3	obscure	
593	3	obtiendrons	
594	3	os	
595	3	parce	
596	3	pareil	
597	3	parole	
598	3	passe	
599	3	passer	
600	3	pedro	
601	3	personnage	
602	3	pieds	
603	3	pitié	
604	3	plutôt	
605	3	poignard	
606	3	poncil	
607	3	pourra	
608	3	prendre	
609	3	prenez	
610	3	prince	
611	3	prit	
612	3	procès	
613	3	promptement	
614	3	puisqu	
615	3	puisse	
616	3	pérou	
617	3	qualité	
618	3	quant	
619	3	quelle	
620	3	quelques	
621	3	quitter	
622	3	remède	
623	3	rendu	
624	3	retour	
625	3	sens	
626	3	seule	
627	3	six	
628	3	sois	
629	3	songer	
630	3	sort	
631	3	sot	
632	3	soupire	
633	3	souvient	
634	3	suivre	
635	3	surprendre	
636	3	taureaux	
637	3	tenir	
638	3	terre	
639	3	tes	
640	3	tolède	
641	3	traître	
642	3	trompe	
643	3	tue	
644	3	vaillant	
645	3	ventre	
646	3	verra	
647	3	veuille	
648	3	vieux	
649	3	vilain	
650	3	vint	
651	3	vis	
652	3	visage	
653	3	vit	
654	3	vite	
655	3	voulu	
656	3	voyant	
657	3	vêtements	
658	3	vôtre	
659	3	épris	
660	3	étrange	
661	2	abhorre	
662	2	abominable	
663	2	abord	
664	2	achemine	
665	2	affaires	
666	2	ah	
667	2	aimer	
668	2	aimerais	
669	2	aimerez	
670	2	ajouter	
671	2	allais	
672	2	almodobar	
673	2	ami	
674	2	amitié	
675	2	apaise	
676	2	aperçois	
677	2	appeler	
678	2	appelé	
679	2	armes	
680	2	arrêt	
681	2	aspirer	
682	2	assassine	
683	2	assassins	
684	2	assurément	
685	2	attendre	
686	2	attends	
687	2	aussitôt	
688	2	avis	
689	2	bagage	
690	2	basse	
691	2	battre	
692	2	bienheureux	
693	2	blesser	
694	2	bonheur	
695	2	bornes	
696	2	bourreaux	
697	2	bout	
698	2	bras	
699	2	bâton	
700	2	bête	
701	2	caché	
702	2	cacique	
703	2	canailles	
704	2	capac	
705	2	carrosse	
706	2	casse	
707	2	celer	
708	2	centième	
709	2	cents	
710	2	cervelle	
711	2	chacun	
712	2	changer	
713	2	chanter	
714	2	chantez	
715	2	charmes	
716	2	charmé	
717	2	chausse	
718	2	chef	
719	2	chemise	
720	2	chicuchiquizèque	
721	2	choisir	
722	2	choses	
723	2	chrétien	
724	2	ci	
725	2	cid	
726	2	cieux	
727	2	cinq	
728	2	combats	
729	2	combien	
730	2	compliment	
731	2	compère	
732	2	condamne	
733	2	conduit	
734	2	confesse	
735	2	connais	
736	2	connu	
737	2	content	
738	2	contraire	
739	2	coquette	
740	2	coquettes	
741	2	corne	
742	2	couche	
743	2	coucher	
744	2	courier	
745	2	courtisans	
746	2	cousine	
747	2	couvert	
748	2	coûte	
749	2	craint	
750	2	crier	
751	2	cruelle	
752	2	crêpe	
753	2	cède	
754	2	cérémonie	
755	2	dames	
756	2	danger	
757	2	danser	
758	2	degré	
759	2	demeure	
760	2	demi	
761	2	dents	
762	2	derrière	
763	2	dessous	
764	2	devais	
765	2	devenir	
766	2	devez	
767	2	devient	
768	2	deviner	
769	2	disant	
770	2	divertir	
771	2	divine	
772	2	donnez	
773	2	dos	
774	2	dose	
775	2	douleur	
776	2	drôle	
777	2	ducats	
778	2	durée	
779	2	découvrir	
780	2	déesse	
781	2	déguisé	
782	2	délices	
783	2	démon	
784	2	dépens	
785	2	déroger	
786	2	désir	
787	2	employer	
788	2	enfer	
789	2	enrage	
790	2	enrager	
791	2	entend	
792	2	entrée	
793	2	envie	
794	2	exclus	
795	2	excès	
796	2	exercice	
797	2	exprès	
798	2	exécrable	
799	2	eût	
800	2	facile	
801	2	faible	
802	2	faisait	
803	2	faisons	
804	2	faits	
805	2	famille	
806	2	faute	
807	2	faveur	
808	2	favorable	
809	2	fera	
810	2	filles	
811	2	fière	
812	2	folle	
813	2	fourbe	
814	2	franchise	
815	2	friponne	
816	2	fronde	
817	2	fréquents	
818	2	fête	
819	2	fût	
820	2	gagner	
821	2	galant	
822	2	galice	
823	2	garde	
824	2	glorieux	
825	2	gouvernante	
826	2	goût	
827	2	grandes	
828	2	gredins	
829	2	grâces	
830	2	gré	
831	2	grêle	
832	2	guet	
833	2	gâte	
834	2	hais	
835	2	hallebarde	
836	2	hardi	
837	2	hasarder	
838	2	haye	
839	2	hiver	
840	2	honore	
841	2	illustre	
842	2	impertinent	
843	2	importance	
844	2	importune	
845	2	imposteur	
846	2	incessamment	
847	2	instruire	
848	2	interroge	
849	2	ira	
850	2	jabot	
851	2	jeu	
852	2	joue	
853	2	jouer	
854	2	juge	
855	2	jugez	
856	2	justice	
857	2	laissez	
858	2	langage	
859	2	larmes	
860	2	las	
861	2	lasse	
862	2	lice	
863	2	lit	
864	2	llorente	
865	2	lorsqu	
866	2	loups	
867	2	loué	
868	2	maintenant	
869	2	maison	
870	2	manger	
871	2	mango	
872	2	manquai	
873	2	manque	
874	2	marotte	
875	2	marquise	
876	2	mauvais	
877	2	merci	
878	2	mette	
879	2	mettre	
880	2	mien	
881	2	montre	
882	2	montrer	
883	2	montrez	
884	2	mortelles	
885	2	moucher	
886	2	mourrai	
887	2	mousqueterie	
888	2	moyen	
889	2	mule	
890	2	musique	
891	2	métier	
892	2	nabot	
893	2	natal	
894	2	natif	
895	2	naître	
896	2	net	
897	2	nouvelle	
898	2	nouvelles	
899	2	nécessaire	
900	2	obliger	
901	2	offense	
902	2	offenser	
903	2	office	
904	2	ordinaire	
905	2	oreille	
906	2	ouvrir	
907	2	ouïe	
908	2	pages	
909	2	pantois	
910	2	paraît	
911	2	pardonnerez	
912	2	parfait	
913	2	parlant	
914	2	parlerai	
915	2	parlons	
916	2	parmi	
917	2	partez	
918	2	partout	
919	2	peau	
920	2	pense	
921	2	perds	
922	2	perdu	
923	2	permettez	
924	2	perroquet	
925	2	pesante	
926	2	petits	
927	2	peuple	
928	2	pied	
929	2	plaindre	
930	2	plaisant	
931	2	plaisir	
932	2	plaisirs	
933	2	plein	
934	2	pleure	
935	2	plier	
936	2	pompée	
937	2	ponce	
938	2	portait	
939	2	porter	
940	2	pourpoint	
941	2	pourrai	
942	2	pourrez	
943	2	pouvais	
944	2	pouvait	
945	2	premier	
946	2	prendra	
947	2	presse	
948	2	prié	
949	2	prochain	
950	2	profit	
951	2	promet	
952	2	promise	
953	2	prépare	
954	2	présent	
955	2	présentement	
956	2	prêt	
957	2	public	
958	2	puissance	
959	2	puissiez	
960	2	péril	
961	2	quitté	
962	2	quoique	
963	2	rage	
964	2	raille	
965	2	railleur	
966	2	ramire	
967	2	rare	
968	2	redouble	
969	2	reins	
970	2	rempli	
971	2	rends	
972	2	reniflerie	
973	2	repose	
974	2	retire	
975	2	retirer	
976	2	reçoit	
977	2	riberos	
978	2	riez	
979	2	rigueur	
980	2	rome	
981	2	rompre	
982	2	rude	
983	2	récit	
984	2	régaler	
985	2	réjouir	
986	2	réjouissance	
987	2	réponde	
988	2	réponse	
989	2	résolu	
990	2	résolution	
991	2	réussi	
992	2	sache	
993	2	sachent	
994	2	sacrifice	
995	2	saison	
996	2	sang	
997	2	sanglant	
998	2	satisfait	
999	2	saura	
1000	2	saurez	
1001	2	second	
1002	2	semblant	
1003	2	semble	
1004	2	sept	
1005	2	seront	
1006	2	sert	
1007	2	service	
1008	2	serviteur	
1009	2	serviteurs	
1010	2	sien	
1011	2	simple	
1012	2	soient	
1013	2	soin	
1014	2	soleil	
1015	2	sortir	
1016	2	sottise	
1017	2	soupir	
1018	2	soutane	
1019	2	souvent	
1020	2	su	
1021	2	suivi	
1022	2	supplices	
1023	2	séduite	
1024	2	sévère	
1025	2	tabac	
1026	2	taire	
1027	2	tard	
1028	2	telle	
1029	2	tigresse	
1030	2	tirer	
1031	2	tirez	
1032	2	torribio	
1033	2	touche	
1034	2	toutefois	
1035	2	tragique	
1036	2	traite	
1037	2	traité	
1038	2	traîtres	
1039	2	triste	
1040	2	trouva	
1041	2	trouverez	
1042	2	tâchons	
1043	2	témoins	
1044	2	témérité	
1045	2	tôt	
1046	2	usage	
1047	2	user	
1048	2	valez	
1049	2	venus	
1050	2	vieillard	
1051	2	viendront	
1052	2	viennent	
1053	2	violent	
1054	2	visite	
1055	2	vive	
1056	2	voit	
1057	2	voix	
1058	2	volontiers	
1059	2	volé	
1060	2	voudra	
1061	2	voyage	
1062	2	vue	
1063	2	vêtu	
1064	2	vôtres	
1065	2	zapatero	
1066	2	écoutez	
1067	2	écris	
1068	2	écrit	
1069	2	écrivain	
1070	2	écus	
1071	2	égal	
1072	2	élever	
1073	2	éloignons	
1074	2	épaule	
1075	2	épée	
1076	2	éviter	
1077	2	ôte	
1078	1	abandonne	
1079	1	abandonner	
1080	1	aboutissent	
1081	1	absence	
1082	1	absente	
1083	1	accabler	
1084	1	accablé	
1085	1	accommoder	
1086	1	accomplir	
1087	1	accoutumé	
1088	1	accroche	
1089	1	accueil	
1090	1	achevez	
1091	1	achevé	
1092	1	achèverez	
1093	1	acier	
1094	1	acquitter	
1095	1	admirable	
1096	1	adonis	
1097	1	adorer	
1098	1	adorée	
1099	1	adresse	
1100	1	adroits	
1101	1	affection	
1102	1	affinité	
1103	1	affliger	
1104	1	affronteur	
1105	1	affronts	
1106	1	agir	
1107	1	agréable	
1108	1	aide	
1109	1	aile	
1110	1	ailes	
1111	1	aimable	
1112	1	aimera	
1113	1	aimerai	
1114	1	aimeriez	
1115	1	aimé	
1116	1	aimée	
1117	1	airs	
1118	1	aisé	
1119	1	aisée	
1120	1	ajuster	
1121	1	alentour	
1122	1	alezan	
1123	1	alfonse	
1124	1	alla	
1125	1	allait	
1126	1	allant	
1127	1	allasse	
1128	1	allemand	
1129	1	allier	
1130	1	allobroge	
1131	1	allé	
1132	1	alléluia	
1133	1	alonzo	
1134	1	altère	
1135	1	altérer	
1136	1	alérion	
1137	1	amants	
1138	1	ambassade	
1139	1	ambassadeur	
1140	1	ambiguë	
1141	1	ambition	
1142	1	amorce	
1143	1	amplifie	
1144	1	amuse	
1145	1	amuser	
1146	1	an	
1147	1	angleterre	
1148	1	anicroche	
1149	1	anime	
1150	1	anne	
1151	1	annecy	
1152	1	annoncer	
1153	1	antiprofane	
1154	1	antiquailles	
1155	1	antique	
1156	1	apens	
1157	1	aperçu	
1158	1	aperçue	
1159	1	apostat	
1160	1	appelait	
1161	1	appelez	
1162	1	apprendra	
1163	1	apprendre	
1164	1	apprenne	
1165	1	appris	
1166	1	apprit	
1167	1	approche	
1168	1	approcher	
1169	1	approcherai	
1170	1	approchez	
1171	1	approuve	
1172	1	arche	
1173	1	ardente	
1174	1	ardents	
1175	1	armer	
1176	1	armés	
1177	1	arquebuse	
1178	1	arrivé	
1179	1	arrêté	
1180	1	art	
1181	1	arçons	
1182	1	ascension	
1183	1	assassin	
1184	1	assassiner	
1185	1	assassinez	
1186	1	assassiné	
1187	1	assignation	
1188	1	assignations	
1189	1	assomme	
1190	1	assoupi	
1191	1	assourdi	
1192	1	assure	
1193	1	assurer	
1194	1	assuré	
1195	1	assurée	
1196	1	attachement	
1197	1	attende	
1198	1	attiédissez	
1199	1	audacieux	
1200	1	augmenter	
1201	1	auras	
1202	1	auriez	
1203	1	aurons	
1204	1	autrefois	
1205	1	autrui	
1206	1	avaient	
1207	1	avancé	
1208	1	avecque	
1209	1	aventure	
1210	1	aversion	
1211	1	averti	
1212	1	aveu	
1213	1	aveugle	
1214	1	avisé	
1215	1	avocat	
1216	1	avons	
1217	1	avoue	
1218	1	ayez	
1219	1	baisera	
1220	1	baisers	
1221	1	baises	
1222	1	baisser	
1223	1	baisé	
1224	1	balais	
1225	1	ballets	
1226	1	baptisée	
1227	1	baptême	
1228	1	basque	
1229	1	bassement	
1230	1	bat	
1231	1	baume	
1232	1	bayard	
1233	1	berne	
1234	1	bienfaiteur	
1235	1	biens	
1236	1	bienséance	
1237	1	bienvenu	
1238	1	bigot	
1239	1	bijoux	
1240	1	biles	
1241	1	biscain	
1242	1	bizarre	
1243	1	bière	
1244	1	blanche	
1245	1	blanchir	
1246	1	blanchis	
1247	1	blas	
1248	1	blasphèmes	
1249	1	blessures	
1250	1	bleu	
1251	1	bois	
1252	1	bonhomme	
1253	1	bons	
1254	1	bossettes	
1255	1	bouché	
1256	1	bouffons	
1257	1	bougeons	
1258	1	bougie	
1259	1	bourgeoise	
1260	1	bouts	
1261	1	branlent	
1262	1	brasier	
1263	1	bref	
1264	1	brevet	
1265	1	brillant	
1266	1	briller	
1267	1	brique	
1268	1	bruns	
1269	1	brûlant	
1270	1	brûlez	
1271	1	burlesque	
1272	1	but	
1273	1	bénis	
1274	1	cabre	
1275	1	cachera	
1276	1	cage	
1277	1	cagou	
1278	1	calabre	
1279	1	camarade	
1280	1	camarde	
1281	1	caminante	
1282	1	campagne	
1283	1	canaille	
1284	1	canonicat	
1285	1	capital	
1286	1	caquet	
1287	1	caresser	
1288	1	carrosses	
1289	1	cartes	
1290	1	cassé	
1291	1	castille	
1292	1	cataclysme	
1293	1	causé	
1294	1	ceci	
1295	1	celle	
1296	1	certain	
1297	1	certaine	
1298	1	certains	
1299	1	ceux	
1300	1	champion	
1301	1	champs	
1302	1	change	
1303	1	changeant	
1304	1	changé	
1305	1	chanson	
1306	1	chant	
1307	1	chante	
1308	1	chanteront	
1309	1	chantres	
1310	1	chapeau	
1311	1	charger	
1312	1	chargé	
1313	1	chargés	
1314	1	charnues	
1315	1	charrette	
1316	1	chasseur	
1317	1	chat	
1318	1	chats	
1319	1	chauds	
1320	1	chauffer	
1321	1	chausson	
1322	1	chaut	
1323	1	chauve	
1324	1	cherchais	
1325	1	cherche	
1326	1	chercherai	
1327	1	cherchez	
1328	1	cherché	
1329	1	chers	
1330	1	chevaux	
1331	1	chienne	
1332	1	choir	
1333	1	choisi	
1334	1	choisirez	
1335	1	choisissez	
1336	1	christianisme	
1337	1	chrétienne	
1338	1	chrétiens	
1339	1	chute	
1340	1	châtré	
1341	1	chétif	
1342	1	cloître	
1343	1	cocaigne	
1344	1	cocus	
1345	1	cohue	
1346	1	collecteur	
1347	1	combat	
1348	1	commandez	
1349	1	commandé	
1350	1	commence	
1351	1	commencer	
1352	1	commun	
1353	1	communs	
1354	1	compagne	
1355	1	compagnie	
1356	1	compagnon	
1357	1	comparable	
1358	1	compassion	
1359	1	compatriote	
1360	1	compissé	
1361	1	complaisance	
1362	1	complaisant	
1363	1	complet	
1364	1	comprendre	
1365	1	compte	
1366	1	compter	
1367	1	comtesse	
1368	1	comédiens	
1369	1	concluez	
1370	1	concluons	
1371	1	concubine	
1372	1	condition	
1373	1	conduite	
1374	1	confonde	
1375	1	confuse	
1376	1	confusion	
1377	1	congé	
1378	1	conjecture	
1379	1	conjugal	
1380	1	connaissant	
1381	1	connaissez	
1382	1	connaîtrez	
1383	1	consens	
1384	1	consentir	
1385	1	consentira	
1386	1	conserver	
1387	1	conservé	
1388	1	consolerai	
1389	1	constant	
1390	1	constipe	
1391	1	consuegre	
1392	1	consultez	
1393	1	conter	
1394	1	contes	
1395	1	contrée	
1396	1	contrôleur	
1397	1	conté	
1398	1	convalescence	
1399	1	conversation	
1400	1	coquins	
1401	1	corbeaux	
1402	1	cornade	
1403	1	cornades	
1404	1	cornet	
1405	1	couché	
1406	1	couds	
1407	1	couleur	
1408	1	couper	
1409	1	coupé	
1410	1	courbettes	
1411	1	coureur	
1412	1	courez	
1413	1	courroucé	
1414	1	courroux	
1415	1	courte	
1416	1	courtisan	
1417	1	courtois	
1418	1	courtoises	
1419	1	courtoisie	
1420	1	couru	
1421	1	couteaux	
1422	1	couvents	
1423	1	couvre	
1424	1	couvrent	
1425	1	coûteront	
1426	1	coûté	
1427	1	cracher	
1428	1	crainte	
1429	1	craintive	
1430	1	crasse	
1431	1	crie	
1432	1	crierais	
1433	1	criminelle	
1434	1	crins	
1435	1	cris	
1436	1	crise	
1437	1	cristal	
1438	1	croirez	
1439	1	croix	
1440	1	croyable	
1441	1	croyais	
1442	1	cru	
1443	1	cruellement	
1444	1	cruels	
1445	1	cuisine	
1446	1	curieuse	
1447	1	curiosité	
1448	1	céans	
1449	1	céder	
1450	1	céleste	
1451	1	côtés	
1452	1	daigna	
1453	1	dalve	
1454	1	dam	
1455	1	davantage	
1456	1	demanda	
1457	1	demoiselles	
1458	1	dernier	
1459	1	descendant	
1460	1	descendre	
1461	1	descendu	
1462	1	desseins	
1463	1	destin	
1464	1	destiné	
1465	1	deuil	
1466	1	deviendra	
1467	1	devine	
1468	1	devint	
1469	1	devions	
1470	1	devrais	
1471	1	devrait	
1472	1	devriez	
1473	1	dextre	
1474	1	diablesse	
1475	1	diamants	
1476	1	diane	
1477	1	diffère	
1478	1	diligent	
1479	1	diligente	
1480	1	dirai	
1481	1	dirait	
1482	1	direz	
1483	1	diront	
1484	1	disait	
1485	1	discoureur	
1486	1	discourtoise	
1487	1	disette	
1488	1	dispense	
1489	1	disposer	
1490	1	dissipe	
1491	1	distants	
1492	1	divertisse	
1493	1	dommage	
1494	1	donna	
1495	1	donnais	
1496	1	donnait	
1497	1	donnant	
1498	1	donnerai	
1499	1	donniez	
1500	1	donnât	
1501	1	donnés	
1502	1	dormant	
1503	1	dorme	
1504	1	dormir	
1505	1	doré	
1506	1	double	
1507	1	doubles	
1508	1	douce	
1509	1	doucement	
1510	1	douces	
1511	1	doutai	
1512	1	douteras	
1513	1	doutez	
1514	1	drôlesse	
1515	1	duc	
1516	1	duchesse	
1517	1	dulcifier	
1518	1	dure	
1519	1	durera	
1520	1	durs	
1521	1	dussiez	
1522	1	déclaré	
1523	1	décochés	
1524	1	décollation	
1525	1	découdre	
1526	1	découvre	
1527	1	décréditait	
1528	1	décuissé	
1529	1	dédit	
1530	1	défend	
1531	1	défendre	
1532	1	défends	
1533	1	défendue	
1534	1	dégoûtants	
1535	1	dégoûté	
1536	1	déguise	
1537	1	déguisement	
1538	1	délibère	
1539	1	délier	
1540	1	délivre	
1541	1	déloger	
1542	1	délogé	
1543	1	déluge	
1544	1	démord	
1545	1	démétaphorise	
1546	1	démétaphoriser	
1547	1	départ	
1548	1	dépaulé	
1549	1	dépayser	
1550	1	dépend	
1551	1	déplaire	
1552	1	déplurent	
1553	1	dépouillent	
1554	1	dépouiller	
1555	1	dépouillez	
1556	1	dérivé	
1557	1	dés	
1558	1	désaccoutume	
1559	1	désespoir	
1560	1	désespère	
1561	1	désespéré	
1562	1	désire	
1563	1	détour	
1564	1	détêté	
1565	1	dévorer	
1566	1	dîme	
1567	1	dît	
1568	1	dût	
1569	1	eaux	
1570	1	efforce	
1571	1	effrayer	
1572	1	effronté	
1573	1	effroyable	
1574	1	elles	
1575	1	embalconné	
1576	1	embarrassées	
1577	1	embrasse	
1578	1	embrassés	
1579	1	emmarquisé	
1580	1	emporté	
1581	1	emprunter	
1582	1	empruntés	
1583	1	emérillonné	
1584	1	enclume	
1585	1	encombre	
1586	1	endormie	
1587	1	endroit	
1588	1	enfermée	
1589	1	enfers	
1590	1	enflammé	
1591	1	engager	
1592	1	engendré	
1593	1	enjoué	
1594	1	ennemi	
1595	1	ennobli	
1596	1	ennui	
1597	1	enrhumé	
1598	1	enrôlés	
1599	1	ensemble	
1600	1	ensuite	
1601	1	entassés	
1602	1	entendant	
1603	1	entendre	
1604	1	entendu	
1605	1	entiers	
1606	1	entrent	
1607	1	entreprendre	
1608	1	entrepris	
1609	1	entreprise	
1610	1	entrer	
1611	1	entrerais	
1612	1	entrerez	
1613	1	entretenir	
1614	1	entretien	
1615	1	entretienne	
1616	1	entrouvrent	
1617	1	environ	
1618	1	envoyer	
1619	1	erreur	
1620	1	escalier	
1621	1	esclave	
1622	1	espoir	
1623	1	espérait	
1624	1	espérance	
1625	1	espérerais	
1626	1	espérons	
1627	1	essai	
1628	1	essence	
1629	1	estime	
1630	1	eusse	
1631	1	eut	
1632	1	excellent	
1633	1	excessifs	
1634	1	excuse	
1635	1	exerce	
1636	1	exercer	
1637	1	expliquer	
1638	1	exploit	
1639	1	expose	
1640	1	extravagance	
1641	1	extrêmement	
1642	1	exécutes	
1643	1	fabriquées	
1644	1	factoton	
1645	1	faculté	
1646	1	facétieux	
1647	1	faiblesse	
1648	1	faim	
1649	1	faisais	
1650	1	faite	
1651	1	fameux	
1652	1	fantasque	
1653	1	faquins	
1654	1	fassent	
1655	1	fatal	
1656	1	fauteuil	
1657	1	faux	
1658	1	favorise	
1659	1	feint	
1660	1	fenêtre	
1661	1	feriez	
1662	1	ferme	
1663	1	fermerai	
1664	1	fermée	
1665	1	fernand	
1666	1	fi	
1667	1	fidel	
1668	1	fie	
1669	1	fier	
1670	1	fierté	
1671	1	figure	
1672	1	fine	
1673	1	finir	
1674	1	finira	
1675	1	firmament	
1676	1	fis	
1677	1	flamme	
1678	1	flanc	
1679	1	fleur	
1680	1	fleurée	
1681	1	fleuve	
1682	1	flotter	
1683	1	fléchir	
1684	1	foin	
1685	1	fondement	
1686	1	fonds	
1687	1	forcené	
1688	1	forcée	
1689	1	forger	
1690	1	formalités	
1691	1	formé	
1692	1	fortuit	
1693	1	força	
1694	1	foucarals	
1695	1	foudre	
1696	1	fougueux	
1697	1	foulé	
1698	1	fournaise	
1699	1	frais	
1700	1	fraise	
1701	1	francs	
1702	1	français	
1703	1	frappant	
1704	1	frappante	
1705	1	frappent	
1706	1	frapper	
1707	1	frappes	
1708	1	frappeur	
1709	1	frappeurs	
1710	1	frileux	
1711	1	fripon	
1712	1	friponné	
1713	1	frondeurs	
1714	1	frondez	
1715	1	front	
1716	1	fruits	
1717	1	fuir	
1718	1	fuite	
1719	1	funeste	
1720	1	furent	
1721	1	furtifs	
1722	1	futur	
1723	1	future	
1724	1	fuyait	
1725	1	fâché	
1726	1	fîtes	
1727	1	gages	
1728	1	gaillard	
1729	1	galicien	
1730	1	galimatias	
1731	1	galleux	
1732	1	gamme	
1733	1	garantir	
1734	1	garous	
1735	1	garçon	
1736	1	gaule	
1737	1	gendre	
1738	1	genoux	
1739	1	genre	
1740	1	gentilhomme	
1741	1	gentille	
1742	1	gentilles	
1743	1	gentilshommeaux	
1744	1	gibier	
1745	1	gibiers	
1746	1	gil	
1747	1	glaçon	
1748	1	gorges	
1749	1	gothique	
1750	1	goulus	
1751	1	gourmades	
1752	1	goutte	
1753	1	gradués	
1754	1	grandeur	
1755	1	gras	
1756	1	griffons	
1757	1	gris	
1758	1	grossiers	
1759	1	grègue	
1760	1	grégeois	
1761	1	guenon	
1762	1	guenons	
1763	1	guenuchon	
1764	1	gueules	
1765	1	gueux	
1766	1	guichot	
1767	1	guyane	
1768	1	guérirez	
1769	1	guêpe	
1770	1	gâtons	
1771	1	gâté	
1772	1	gêne	
1773	1	gîte	
1774	1	gîté	
1775	1	habitacle	
1776	1	habitants	
1777	1	habitation	
1778	1	hagarde	
1779	1	haine	
1780	1	hasard	
1781	1	hasarderait	
1782	1	haute	
1783	1	hem	
1784	1	heureuse	
1785	1	heurter	
1786	1	ho	
1787	1	hobereaux	
1788	1	homicider	
1789	1	honnête	
1790	1	honorable	
1791	1	honorera	
1792	1	honte	
1793	1	hoqueton	
1794	1	horrible	
1795	1	huants	
1796	1	huitantième	
1797	1	humain	
1798	1	humanise	
1799	1	humaniser	
1800	1	humide	
1801	1	humilier	
1802	1	hurler	
1803	1	hyménée	
1804	1	hâte	
1805	1	hâtera	
1806	1	hâtez	
1807	1	héritier	
1808	1	héros	
1809	1	héroïque	
1810	1	hôpitaux	
1811	1	icare	
1812	1	id	
1813	1	idée	
1814	1	ignorant	
1815	1	ignorez	
1816	1	immonde	
1817	1	impossible	
1818	1	impourvu	
1819	1	impromptus	
1820	1	imprévu	
1821	1	impôt	
1822	1	incivilité	
1823	1	incommode	
1824	1	inconnu	
1825	1	incontinent	
1826	1	indienne	
1827	1	indigent	
1828	1	indiqué	
1829	1	indiscrète	
1830	1	infamie	
1831	1	infect	
1832	1	informer	
1833	1	infortuné	
1834	1	infriponnable	
1835	1	infâme	
1836	1	ingénument	
1837	1	inhumain	
1838	1	inhumaine	
1839	1	injuste	
1840	1	inquinée	
1841	1	insacris	
1842	1	inscription	
1843	1	insensible	
1844	1	insipide	
1845	1	instamment	
1846	1	instruisez	
1847	1	insulte	
1848	1	inséparable	
1849	1	intelligiblement	
1850	1	intention	
1851	1	introduit	
1852	1	intéresse	
1853	1	invention	
1854	1	invisible	
1855	1	inégalité	
1856	1	irais	
1857	1	iras	
1858	1	iris	
1859	1	irrite	
1860	1	irrité	
1861	1	issue	
1862	1	italien	
1863	1	italiens	
1864	1	ithaque	
1865	1	ivoire	
1866	1	ixion	
1867	1	jaloux	
1868	1	japhets	
1869	1	japon	
1870	1	jardinier	
1871	1	jargon	
1872	1	jetez	
1873	1	jette	
1874	1	jointe	
1875	1	joints	
1876	1	jouissance	
1877	1	joué	
1878	1	juger	
1879	1	juif	
1880	1	jupon	
1881	1	juré	
1882	1	jusques	
1883	1	justaucorps	
1884	1	justifier	
1885	1	laissa	
1886	1	laisser	
1887	1	laissé	
1888	1	laissés	
1889	1	lait	
1890	1	laiton	
1891	1	lamantins	
1892	1	langue	
1893	1	langueur	
1894	1	languir	
1895	1	lançades	
1896	1	lapidation	
1897	1	lard	
1898	1	large	
1899	1	larme	
1900	1	larrons	
1901	1	lassé	
1902	1	lettres	
1903	1	liberté	
1904	1	licence	
1905	1	lien	
1906	1	lin	
1907	1	linge	
1908	1	lire	
1909	1	lirons	
1910	1	lis	
1911	1	lise	
1912	1	litière	
1913	1	livre	
1914	1	lié	
1915	1	logis	
1916	1	loin	
1917	1	long	
1918	1	longue	
1919	1	loquelle	
1920	1	lors	
1921	1	lorsque	
1922	1	louange	
1923	1	loyal	
1924	1	lutin	
1925	1	lâche	
1926	1	légitime	
1927	1	légère	
1928	1	léonor	
1929	1	magnifique	
1930	1	majordomat	
1931	1	majordome	
1932	1	malgré	
1933	1	malheureuse	
1934	1	maltraité	
1935	1	malvoisie	
1936	1	mama	
1937	1	mandais	
1938	1	mandait	
1939	1	mande	
1940	1	mange	
1941	1	manquer	
1942	1	manquez	
1943	1	manteaux	
1944	1	marauds	
1945	1	marchandez	
1946	1	maris	
1947	1	marié	
1948	1	marquisats	
1949	1	martyr	
1950	1	massive	
1951	1	matière	
1952	1	maudite	
1953	1	maudits	
1954	1	maugis	
1955	1	maux	
1956	1	meilleur	
1957	1	melon	
1958	1	mena	
1959	1	menace	
1960	1	menai	
1961	1	mentir	
1962	1	message	
1963	1	met	
1964	1	mettons	
1965	1	meurs	
1966	1	mienne	
1967	1	miens	
1968	1	mignonne	
1969	1	mil	
1970	1	milieu	
1971	1	mince	
1972	1	miros	
1973	1	mit	
1974	1	mode	
1975	1	modestie	
1976	1	modérez	
1977	1	mois	
1978	1	moites	
1979	1	monnoie	
1980	1	mont	
1981	1	monte	
1982	1	monter	
1983	1	moquera	
1984	1	moquerait	
1985	1	morceau	
1986	1	morifiques	
1987	1	mornes	
1988	1	morte	
1989	1	mortel	
1990	1	mortelle	
1991	1	morts	
1992	1	mouche	
1993	1	mourrait	
1994	1	mourras	
1995	1	mourut	
1996	1	mousquet	
1997	1	moustaches	
1998	1	muette	
1999	1	mulets	
2000	1	multiplicité	
2001	1	multiplier	
2002	1	musiciens	
2003	1	musqué	
2004	1	musquées	
2005	1	mâcher	
2006	1	méchant	
2007	1	médecin	
2008	1	médecine	
2009	1	mélancolie	
2010	1	mélancolique	
2011	1	ménager	
2012	1	mépris	
2013	1	mépriser	
2014	1	méritait	
2015	1	mériter	
2016	1	mêler	
2017	1	mêlez	
2018	1	nenni	
2019	1	nescio	
2020	1	neuf	
2021	1	nier	
2022	1	noblifié	
2023	1	noce	
2024	1	noirci	
2025	1	noircir	
2026	1	noire	
2027	1	nomme	
2028	1	nommer	
2029	1	nommez	
2030	1	nonobstant	
2031	1	nourri	
2032	1	nourrie	
2033	1	nouveau	
2034	1	nouveaux	
2035	1	nu	
2036	1	nuira	
2037	1	nul	
2038	1	nécessaires	
2039	1	nécessités	
2040	1	négligents	
2041	1	nôtre	
2042	1	nôtres	
2043	1	obligation	
2044	1	oblique	
2045	1	obscurci	
2046	1	obscurité	
2047	1	obtenir	
2048	1	obtiendra	
2049	1	obtiendrai	
2050	1	obéissance	
2051	1	occasion	
2052	1	occidentale	
2053	1	oeillade	
2054	1	oeuvres	
2055	1	offensé	
2056	1	officiers	
2057	1	offre	
2058	1	ombre	
2059	1	opulent	
2060	1	ordinaires	
2061	1	oreilles	
2062	1	origine	
2063	1	orillane	
2064	1	oses	
2065	1	oubli	
2066	1	oublia	
2067	1	oublie	
2068	1	oublierai	
2069	1	ouf	
2070	1	ours	
2071	1	ouvre	
2072	1	pair	
2073	1	paix	
2074	1	panse	
2075	1	papa	
2076	1	pape	
2077	1	papier	
2078	1	paquet	
2079	1	parais	
2080	1	parallèle	
2081	1	parangon	
2082	1	paraîtrait	
2083	1	pardon	
2084	1	pardonnable	
2085	1	pardonne	
2086	1	pardonné	
2087	1	pareille	
2088	1	parfums	
2089	1	parlent	
2090	1	parleurs	
2091	1	paroisses	
2092	1	paroles	
2093	1	pars	
2094	1	parti	
2095	1	partie	
2096	1	partit	
2097	1	paru	
2098	1	parut	
2099	1	parvenir	
2100	1	parvenus	
2101	1	paré	
2102	1	passa	
2103	1	passant	
2104	1	patience	
2105	1	patriarche	
2106	1	patte	
2107	1	payer	
2108	1	paysans	
2109	1	peaux	
2110	1	peigner	
2111	1	peines	
2112	1	peint	
2113	1	peinte	
2114	1	pendard	
2115	1	pendre	
2116	1	pendu	
2117	1	pensait	
2118	1	pensant	
2119	1	penses	
2120	1	pensées	
2121	1	percer	
2122	1	perclus	
2123	1	percé	
2124	1	perdrai	
2125	1	perfections	
2126	1	perfide	
2127	1	permet	
2128	1	permettre	
2129	1	permis	
2130	1	permise	
2131	1	perroquets	
2132	1	persévérance	
2133	1	petite	
2134	1	peuvent	
2135	1	peux	
2136	1	pisseuse	
2137	1	pistoles	
2138	1	pièce	
2139	1	pièces	
2140	1	piéton	
2141	1	plaint	
2142	1	plainte	
2143	1	plaira	
2144	1	plairait	
2145	1	plais	
2146	1	plaisante	
2147	1	planter	
2148	1	plat	
2149	1	pleurer	
2150	1	pleuvoir	
2151	1	plomb	
2152	1	plu	
2153	1	plume	
2154	1	plâtré	
2155	1	plût	
2156	1	poche	
2157	1	pochette	
2158	1	poids	
2159	1	poil	
2160	1	pointe	
2161	1	poitrine	
2162	1	port	
2163	1	porte	
2164	1	portent	
2165	1	portugais	
2166	1	portugal	
2167	1	possède	
2168	1	posséder	
2169	1	postillon	
2170	1	posément	
2171	1	pourriez	
2172	1	pourrions	
2173	1	pourriture	
2174	1	poursuivait	
2175	1	pourvoir	
2176	1	poussière	
2177	1	pouviez	
2178	1	première	
2179	1	prenant	
2180	1	prendront	
2181	1	prends	
2182	1	presque	
2183	1	pressons	
2184	1	priant	
2185	1	printanière	
2186	1	prise	
2187	1	priver	
2188	1	prière	
2189	1	prochains	
2190	1	proche	
2191	1	procure	
2192	1	produire	
2193	1	profiter	
2194	1	profits	
2195	1	profond	
2196	1	projet	
2197	1	promener	
2198	1	promené	
2199	1	promesse	
2200	1	promets	
2201	1	promettez	
2202	1	prompt	
2203	1	promptitude	
2204	1	prononcer	
2205	1	prophète	
2206	1	proposait	
2207	1	propre	
2208	1	près	
2209	1	précieux	
2210	1	précipitons	
2211	1	préfix	
2212	1	préférez	
2213	1	présence	
2214	1	présente	
2215	1	présenté	
2216	1	présomption	
2217	1	prétentions	
2218	1	prévaut	
2219	1	prêts	
2220	1	puissent	
2221	1	punirai	
2222	1	punis	
2223	1	pure	
2224	1	putréfait	
2225	1	puîné	
2226	1	pâmée	
2227	1	pèlerinage	
2228	1	pêcher	
2229	1	pôles	
2230	1	quarteron	
2231	1	quartier	
2232	1	quelquefois	
2233	1	quels	
2234	1	querelle	
2235	1	quereller	
2236	1	question	
2237	1	quiconque	
2238	1	quitterais	
2239	1	quittez	
2240	1	quérir	
2241	1	rabattrai	
2242	1	race	
2243	1	radical	
2244	1	raisonner	
2245	1	ramassés	
2246	1	ramon	
2247	1	ramènent	
2248	1	range	
2249	1	rangera	
2250	1	rangs	
2251	1	rarement	
2252	1	rase	
2253	1	rassemblé	
2254	1	rassourdissez	
2255	1	rattrape	
2256	1	ravi	
2257	1	ravis	
2258	1	recevront	
2259	1	recommandé	
2260	1	reconnais	
2261	1	reconnaît	
2262	1	reconnaître	
2263	1	reconnus	
2264	1	records	
2265	1	redire	
2266	1	redoublé	
2267	1	redoutable	
2268	1	refusai	
2269	1	refuse	
2270	1	refuser	
2271	1	regard	
2272	1	regarda	
2273	1	regarde	
2274	1	regardez	
2275	1	regret	
2276	1	reine	
2277	1	rejoindre	
2278	1	relais	
2279	1	remercier	
2280	1	remettre	
2281	1	remporte	
2282	1	rendant	
2283	1	rende	
2284	1	rendez	
2285	1	rendra	
2286	1	rendraient	
2287	1	rendre	
2288	1	reniflades	
2289	1	renifler	
2290	1	renommés	
2291	1	rente	
2292	1	renvoie	
2293	1	reparle	
2294	1	repas	
2295	1	reprochable	
2296	1	reproches	
2297	1	représailles	
2298	1	respect	
2299	1	ressemble	
2300	1	ressouvenir	
2301	1	ressuscite	
2302	1	ressusciter	
2303	1	resta	
2304	1	restait	
2305	1	retiré	
2306	1	retourne	
2307	1	retournez	
2308	1	retourné	
2309	1	retrancherai	
2310	1	retrouver	
2311	1	revenez	
2312	1	revenir	
2313	1	revenu	
2314	1	reviendrai	
2315	1	reviens	
2316	1	reçois	
2317	1	reçue	
2318	1	rhétorique	
2319	1	ribera	
2320	1	richement	
2321	1	ridée	
2322	1	rieur	
2323	1	rimé	
2324	1	rimés	
2325	1	ris	
2326	1	rit	
2327	1	rocher	
2328	1	rochesolles	
2329	1	rodrigue	
2330	1	rois	
2331	1	roland	
2332	1	romprais	
2333	1	rompu	
2334	1	rompue	
2335	1	ronde	
2336	1	rondeaux	
2337	1	rondelle	
2338	1	rose	
2339	1	rouer	
2340	1	rouge	
2341	1	rougir	
2342	1	royale	
2343	1	royaume	
2344	1	rubis	
2345	1	rue	
2346	1	rumeur	
2347	1	ruser	
2348	1	rusés	
2349	1	récidivant	
2350	1	réclame	
2351	1	régalerons	
2352	1	régler	
2353	1	réjouie	
2354	1	réjouit	
2355	1	réparer	
2356	1	répond	
2357	1	répondez	
2358	1	répondra	
2359	1	répondre	
2360	1	répète	
2361	1	résistance	
2362	1	résister	
2363	1	rétracte	
2364	1	réussir	
2365	1	révérend	
2366	1	sagement	
2367	1	sages	
2368	1	sagesse	
2369	1	saigner	
2370	1	sain	
2371	1	saisi	
2372	1	saisisse	
2373	1	salaire	
2374	1	salut	
2375	1	salutaire	
2376	1	salve	
2377	1	samson	
2378	1	sanche	
2379	1	saoul	
2380	1	satisfaire	
2381	1	saurais	
2382	1	sauve	
2383	1	sauver	
2384	1	savant	
2385	1	scandaleuse	
2386	1	scrupuliser	
2387	1	scélérat	
2388	1	secours	
2389	1	secoué	
2390	1	secret	
2391	1	secrète	
2392	1	secrétariat	
2393	1	seigneurs	
2394	1	sein	
2395	1	seing	
2396	1	selle	
2397	1	selon	
2398	1	sentence	
2399	1	sentiment	
2400	1	serai	
2401	1	sergents	
2402	1	seriez	
2403	1	seringue	
2404	1	sers	
2405	1	servante	
2406	1	servi	
2407	1	servir	
2408	1	serviront	
2409	1	servons	
2410	1	siffle	
2411	1	signifier	
2412	1	silence	
2413	1	sincérité	
2414	1	singulière	
2415	1	sobres	
2416	1	soie	
2417	1	soir	
2418	1	soleils	
2419	1	solennellement	
2420	1	soles	
2421	1	somme	
2422	1	sommeil	
2423	1	sommeille	
2424	1	sorcière	
2425	1	sortie	
2426	1	sots	
2427	1	souci	
2428	1	soudrille	
2429	1	souffrances	
2430	1	souffre	
2431	1	souffrir	
2432	1	souhaitant	
2433	1	soumettre	
2434	1	soupirer	
2435	1	soupçonnera	
2436	1	souris	
2437	1	souvenez	
2438	1	souvenir	
2439	1	souverain	
2440	1	soyez	
2441	1	spadassin	
2442	1	spadassine	
2443	1	spadassins	
2444	1	spoliation	
2445	1	stance	
2446	1	sublime	
2447	1	subsistance	
2448	1	succès	
2449	1	succédé	
2450	1	sue	
2451	1	suffit	
2452	1	suivrai	
2453	1	sujet	
2454	1	sujette	
2455	1	superflus	
2456	1	supplanté	
2457	1	supposé	
2458	1	supposée	
2459	1	surdité	
2460	1	surpris	
2461	1	suspendez	
2462	1	symphonie	
2463	1	séjour	
2464	1	séparément	
2465	1	sépulcre	
2466	1	séraphique	
2467	1	sûr	
2468	1	taches	
2469	1	taille	
2470	1	tailles	
2471	1	tais	
2472	1	taisez	
2473	1	talon	
2474	1	tarots	
2475	1	tauricider	
2476	1	tauricidez	
2477	1	telles	
2478	1	tels	
2479	1	tenait	
2480	1	tenant	
2481	1	tendre	
2482	1	tenez	
2483	1	tenté	
2484	1	tenu	
2485	1	terme	
2486	1	termes	
2487	1	terrible	
2488	1	tienne	
2489	1	tient	
2490	1	tiers	
2491	1	tirant	
2492	1	tire	
2493	1	tirerai	
2494	1	tireurs	
2495	1	tiré	
2496	1	toilette	
2497	1	tombait	
2498	1	tombée	
2499	1	tour	
2500	1	tourmente	
2501	1	tourments	
2502	1	tousser	
2503	1	toux	
2504	1	traitable	
2505	1	traitement	
2506	1	trancher	
2507	1	transgresser	
2508	1	transi	
2509	1	transir	
2510	1	travail	
2511	1	travaille	
2512	1	travers	
2513	1	traîtresse	
2514	1	tremble	
2515	1	trembler	
2516	1	tristesse	
2517	1	trompai	
2518	1	tromper	
2519	1	trompette	
2520	1	trompez	
2521	1	trotté	
2522	1	trouble	
2523	1	troubler	
2524	1	troublé	
2525	1	troupe	
2526	1	troupeau	
2527	1	trouvait	
2528	1	trouvant	
2529	1	trouvera	
2530	1	trouvez	
2531	1	trouvée	
2532	1	truand	
2533	1	trépudia	
2534	1	trépudier	
2535	1	trêve	
2536	1	trône	
2537	1	tudesque	
2538	1	tyrans	
2539	1	tâcherons	
2540	1	tâter	
2541	1	tâterai	
2542	1	ténébreuse	
2543	1	téton	
2544	1	tétons	
2545	1	tînt	
2546	1	ulcère	
2547	1	unique	
2548	1	uns	
2549	1	urine	
2550	1	utile	
2551	1	utiles	
2552	1	vain	
2553	1	vaincu	
2554	1	vainquit	
2555	1	vaisseaux	
2556	1	valeur	
2557	1	valeureux	
2558	1	vaudra	
2559	1	vauriens	
2560	1	vaux	
2561	1	venait	
2562	1	veneur	
2563	1	venez	
2564	1	venues	
2565	1	verbal	
2566	1	verras	
2567	1	verrons	
2568	1	verve	
2569	1	vezugues	
2570	1	vide	
2571	1	vieil	
2572	1	viendra	
2573	1	vienne	
2574	1	vif	
2575	1	vigoureuse	
2576	1	vilaines	
2577	1	vilains	
2578	1	ville	
2579	1	villes	
2580	1	vingt	
2581	1	vinrent	
2582	1	vins	
2583	1	visible	
2584	1	visiter	
2585	1	vivant	
2586	1	vives	
2587	1	voire	
2588	1	voirement	
2589	1	volant	
2590	1	volatil	
2591	1	voler	
2592	1	volonté	
2593	1	voudrait	
2594	1	voulais	
2595	1	voulait	
2596	1	voulant	
2597	1	vouloir	
2598	1	voulons	
2599	1	vraisemblablement	
2600	1	vulgaire	
2601	1	véhémente	
2602	1	vérifions	
2603	1	véritable	
2604	1	vêtement	
2605	1	vêtus	
2606	1	vînt	
2607	1	zodiaque	
2608	1	échange	
2609	1	échantillon	
2610	1	échappe	
2611	1	échelles	
2612	1	éclaire	
2613	1	écoute	
2614	1	écrirai	
2615	1	écrivant	
2616	1	écuyer	
2617	1	également	
2618	1	égard	
2619	1	égarés	
2620	1	église	
2621	1	égosille	
2622	1	élite	
2623	1	éloge	
2624	1	éloigné	
2625	1	énergique	
2626	1	épargnez	
2627	1	éperdument	
2628	1	épingle	
2629	1	épouse	
2630	1	épousé	
2631	1	épousée	
2632	1	épouvantail	
2633	1	éprise	
2634	1	éprouverais	
2635	1	équipage	
2636	1	étage	
2637	1	étaler	
2638	1	états	
2639	1	éteint	
2640	1	éteinte	
2641	1	étiez	
2642	1	étonnement	
2643	1	étourdi	
2644	1	étrangler	
2645	1	étranglerai	
2646	1	étriller	
2647	1	étroit	
2648	1	éveille	
2649	1	ôtera	
