#Word Types: 2831
#Word Tokens: 14550
#Search Hits: 0
1	466	de	
2	301	et	
3	280	le	
4	266	la	
5	254	l	
6	240	à	
7	229	un	
8	226	que	
9	222	je	
10	218	d	
11	195	il	
12	191	en	
13	164	qu	
14	154	est	
15	143	mon	
16	140	son	
17	133	pour	
18	127	du	
19	125	qui	
20	120	les	
21	106	au	
22	105	ce	
23	105	si	
24	103	vous	
25	100	ma	
26	97	des	
27	97	ne	
28	93	j	
29	93	mais	
30	92	tu	
31	90	ton	
32	88	par	
33	86	dans	
34	85	me	
35	84	sa	
36	81	m	
37	80	n	
38	76	te	
39	74	une	
40	65	ta	
41	63	moi	
42	63	on	
43	59	plus	
44	57	elle	
45	57	sans	
46	54	s	
47	52	mort	
48	51	sang	
49	50	nous	
50	48	pas	
51	48	ses	
52	47	t	
53	46	a	
54	45	ai	
55	45	sur	
56	44	mes	
57	42	bien	
58	42	se	
59	41	avec	
60	41	tout	
61	40	dont	
62	40	grand	
63	39	encor	
64	39	séjanus	
65	37	c	
66	37	quoi	
67	36	coeur	
68	36	point	
69	35	comme	
70	35	tibère	
71	35	toi	
72	34	quand	
73	34	être	
74	33	lui	
75	32	âme	
76	31	agrippine	
77	31	époux	
78	30	aux	
79	29	ces	
80	29	peut	
81	29	tous	
82	28	votre	
83	27	crime	
84	27	fait	
85	27	où	
86	27	tes	
87	27	veux	
88	26	cette	
89	26	dieux	
90	26	donc	
91	26	nom	
92	26	ou	
93	25	césar	
94	25	voir	
95	24	ils	
96	24	non	
97	24	trop	
98	24	yeux	
99	23	amour	
100	23	rome	
101	22	femme	
102	22	fils	
103	22	trône	
104	21	car	
105	21	contre	
106	21	coup	
107	21	enfin	
108	20	bras	
109	20	faut	
110	20	moins	
111	20	nos	
112	20	ont	
113	20	vie	
114	19	afin	
115	19	avoir	
116	19	empereur	
117	19	leurs	
118	19	main	
119	19	oui	
120	19	père	
121	19	sous	
122	19	suis	
123	18	jour	
124	17	cet	
125	17	madame	
126	17	sont	
127	16	couronne	
128	16	faire	
129	16	front	
130	16	leur	
131	16	mourir	
132	16	ni	
133	16	puis	
134	16	rien	
135	16	tyran	
136	15	peur	
137	15	vois	
138	14	empire	
139	14	esprit	
140	14	homme	
141	14	même	
142	14	rang	
143	14	seigneur	
144	14	sort	
145	14	tant	
146	14	venger	
147	14	vos	
148	14	y	
149	14	état	
150	13	après	
151	13	cent	
152	13	fais	
153	13	germanicus	
154	13	gloire	
155	13	grands	
156	13	lâche	
157	13	notre	
158	13	raison	
159	13	traître	
160	13	vengeance	
161	12	fureur	
162	12	mal	
163	12	perdre	
164	12	trépas	
165	12	tête	
166	12	vu	
167	12	était	
168	11	ah	
169	11	ceux	
170	11	ciel	
171	11	dessein	
172	11	horreur	
173	11	là	
174	11	peuple	
175	11	pouvoir	
176	11	sein	
177	11	superbe	
178	11	va	
179	11	éclat	
180	10	aime	
181	10	aussi	
182	10	autre	
183	10	corps	
184	10	coups	
185	10	courroux	
186	10	dessus	
187	10	doit	
188	10	donne	
189	10	enfants	
190	10	héros	
191	10	lieux	
192	10	mains	
193	10	quelque	
194	10	sera	
195	10	seul	
196	10	terre	
197	10	univers	
198	10	veut	
199	10	ô	
200	9	ait	
201	9	as	
202	9	coupable	
203	9	dois	
204	9	douleur	
205	9	déjà	
206	9	fortune	
207	9	haine	
208	9	jours	
209	9	jusqu	
210	9	livilla	
211	9	nature	
212	9	peu	
213	9	race	
214	9	romains	
215	9	sens	
216	9	vient	
217	8	ainsi	
218	8	deux	
219	8	discours	
220	8	ennemis	
221	8	envie	
222	8	feu	
223	8	fille	
224	8	garde	
225	8	lit	
226	8	malheur	
227	8	monter	
228	8	noble	
229	8	palais	
230	8	peine	
231	8	perfide	
232	8	personne	
233	8	romain	
234	8	sais	
235	8	tient	
236	8	tombeau	
237	8	trembler	
238	8	écoute	
239	7	assez	
240	7	bourreau	
241	7	bruit	
242	7	celui	
243	7	cependant	
244	7	combat	
245	7	complot	
246	7	courage	
247	7	craint	
248	7	desseins	
249	7	destin	
250	7	enfers	
251	7	entre	
252	7	foi	
253	7	frère	
254	7	grandeur	
255	7	joie	
256	7	mari	
257	7	maître	
258	7	moitié	
259	7	ombre	
260	7	ose	
261	7	partout	
262	7	pison	
263	7	poison	
264	7	prince	
265	7	rage	
266	7	rends	
267	7	roi	
268	7	semble	
269	7	seule	
270	7	soit	
271	7	sénat	
272	7	temps	
273	6	amitié	
274	6	aujourd	
275	6	avant	
276	6	avez	
277	6	ayant	
278	6	beau	
279	6	bouche	
280	6	cela	
281	6	cesse	
282	6	chaque	
283	6	choix	
284	6	colère	
285	6	couvert	
286	6	crains	
287	6	dieu	
288	6	effroi	
289	6	encore	
290	6	ensemble	
291	6	faible	
292	6	fer	
293	6	fit	
294	6	flamme	
295	6	flanc	
296	6	fois	
297	6	force	
298	6	fut	
299	6	grâce	
300	6	ha	
301	6	hui	
302	6	hé	
303	6	héritier	
304	6	image	
305	6	jusques	
306	6	légions	
307	6	mieux	
308	6	milieu	
309	6	monde	
310	6	morts	
311	6	parents	
312	6	parricide	
313	6	plein	
314	6	rendre	
315	6	reste	
316	6	révolte	
317	6	songe	
318	6	supplice	
319	6	tel	
320	6	toujours	
321	6	toute	
322	6	trois	
323	6	veuve	
324	6	victime	
325	6	visage	
326	5	abandonne	
327	5	adore	
328	5	affreux	
329	5	aimer	
330	5	approche	
331	5	arrête	
332	5	avecque	
333	5	bientôt	
334	5	cache	
335	5	cause	
336	5	chacun	
337	5	chose	
338	5	connais	
339	5	craindre	
340	5	croit	
341	5	dernier	
342	5	descendre	
343	5	droit	
344	5	découvert	
345	5	effroyable	
346	5	esclave	
347	5	espère	
348	5	exprimer	
349	5	eût	
350	5	faites	
351	5	famille	
352	5	fera	
353	5	fort	
354	5	glorieux	
355	5	gré	
356	5	haut	
357	5	heure	
358	5	honte	
359	5	immoler	
360	5	lieu	
361	5	loi	
362	5	maison	
363	5	malgré	
364	5	malheurs	
365	5	marche	
366	5	maux	
367	5	monstre	
368	5	mère	
369	5	mémoire	
370	5	neveux	
371	5	paraît	
372	5	parce	
373	5	parti	
374	5	perdu	
375	5	perte	
376	5	plaisir	
377	5	pleurs	
378	5	porte	
379	5	pourquoi	
380	5	princesse	
381	5	puisqu	
382	5	punir	
383	5	péril	
384	5	rencontre	
385	5	ruine	
386	5	règne	
387	5	sanglante	
388	5	sceptre	
389	5	secret	
390	5	secrète	
391	5	serait	
392	5	siens	
393	5	soleil	
394	5	temple	
395	5	tien	
396	5	trame	
397	5	tremble	
398	5	viens	
399	5	voilà	
400	5	vue	
401	5	épouvante	
402	5	étant	
403	4	adieu	
404	4	agir	
405	4	air	
406	4	arrêt	
407	4	aspect	
408	4	assassin	
409	4	attends	
410	4	attentat	
411	4	audace	
412	4	auguste	
413	4	aura	
414	4	autres	
415	4	beaucoup	
416	4	celle	
417	4	cercueil	
418	4	cher	
419	4	combien	
420	4	comment	
421	4	conjuré	
422	4	connaître	
423	4	course	
424	4	court	
425	4	crie	
426	4	dangereux	
427	4	demande	
428	4	demeure	
429	4	destinée	
430	4	devant	
431	4	devoir	
432	4	diadème	
433	4	digne	
434	4	dire	
435	4	dis	
436	4	dites	
437	4	donner	
438	4	douleurs	
439	4	découvrir	
440	4	entendre	
441	4	entière	
442	4	es	
443	4	estime	
444	4	eut	
445	4	exploits	
446	4	faisant	
447	4	fatal	
448	4	fers	
449	4	flatter	
450	4	forfaits	
451	4	forme	
452	4	funeste	
453	4	furieux	
454	4	gardes	
455	4	gens	
456	4	hais	
457	4	histoire	
458	4	hélas	
459	4	ici	
460	4	immolé	
461	4	importe	
462	4	jaloux	
463	4	jette	
464	4	jeune	
465	4	joindre	
466	4	joint	
467	4	lors	
468	4	lumière	
469	4	lâcheté	
470	4	malheureux	
471	4	mettre	
472	4	meurtre	
473	4	montrer	
474	4	mourra	
475	4	naissance	
476	4	nerva	
477	4	nombre	
478	4	oblige	
479	4	offre	
480	4	ordonne	
481	4	parler	
482	4	parole	
483	4	parque	
484	4	part	
485	4	passe	
486	4	pieds	
487	4	place	
488	4	pleurer	
489	4	plutôt	
490	4	poignard	
491	4	porté	
492	4	pouvant	
493	4	premier	
494	4	prends	
495	4	prix	
496	4	propos	
497	4	prêt	
498	4	puisque	
499	4	périr	
500	4	quel	
501	4	rend	
502	4	ruisseaux	
503	4	récit	
504	4	sanglants	
505	4	saurait	
506	4	sauver	
507	4	secours	
508	4	soeur	
509	4	soi	
510	4	soldat	
511	4	soupir	
512	4	soupçon	
513	4	souvient	
514	4	sujet	
515	4	surprise	
516	4	terme	
517	4	tiens	
518	4	timide	
519	4	tonnerre	
520	4	toutes	
521	4	tragique	
522	4	transport	
523	4	transports	
524	4	triste	
525	4	trouble	
526	4	trouve	
527	4	vain	
528	4	vas	
529	4	vengée	
530	4	voix	
531	4	vouloir	
532	4	écouter	
533	4	épargner	
534	4	étais	
535	3	accusateur	
536	3	accuse	
537	3	achever	
538	3	acier	
539	3	affront	
540	3	aigle	
541	3	aimez	
542	3	aimé	
543	3	alcide	
544	3	alors	
545	3	amis	
546	3	apprends	
547	3	ardeur	
548	3	armes	
549	3	arracher	
550	3	assemble	
551	3	attache	
552	3	auprès	
553	3	avait	
554	3	avance	
555	3	avancer	
556	3	aïeul	
557	3	bas	
558	3	berceau	
559	3	bourreaux	
560	3	bout	
561	3	brûle	
562	3	cadavres	
563	3	caprée	
564	3	chez	
565	3	choc	
566	3	cieux	
567	3	climats	
568	3	commune	
569	3	connaît	
570	3	conserver	
571	3	contente	
572	3	corrompu	
573	3	couler	
574	3	cour	
575	3	crimes	
576	3	crois	
577	3	cruelle	
578	3	demi	
579	3	depuis	
580	3	devient	
581	3	dit	
582	3	divers	
583	3	dix	
584	3	donné	
585	3	dormant	
586	3	droits	
587	3	effets	
588	3	efforts	
589	3	empêche	
590	3	ennemi	
591	3	eux	
592	3	exemple	
593	3	expirant	
594	3	extrême	
595	3	exécrable	
596	3	fantôme	
597	3	feindre	
598	3	ferais	
599	3	fierté	
600	3	font	
601	3	foudre	
602	3	foule	
603	3	frayeurs	
604	3	garantir	
605	3	grande	
606	3	grondant	
607	3	guerre	
608	3	généreux	
609	3	hait	
610	3	heureux	
611	3	homicide	
612	3	honneur	
613	3	honteux	
614	3	horrible	
615	3	humains	
616	3	hyménée	
617	3	illustre	
618	3	ingrate	
619	3	injure	
620	3	innocent	
621	3	innocente	
622	3	jamais	
623	3	juste	
624	3	laisse	
625	3	laissé	
626	3	lorsque	
627	3	lâches	
628	3	marchez	
629	3	maîtresse	
630	3	meure	
631	3	mille	
632	3	montre	
633	3	motif	
634	3	moyen	
635	3	murailles	
636	3	mérite	
637	3	noeuds	
638	3	oeil	
639	3	offense	
640	3	offensée	
641	3	ordre	
642	3	orgueil	
643	3	ouvrage	
644	3	ouvrir	
645	3	paix	
646	3	parle	
647	3	parmi	
648	3	passage	
649	3	patrie	
650	3	pense	
651	3	pensez	
652	3	pensée	
653	3	perds	
654	3	pis	
655	3	pitié	
656	3	pourrait	
657	3	poursuivez	
658	3	pourtant	
659	3	pourvu	
660	3	prendre	
661	3	presse	
662	3	présent	
663	3	prête	
664	3	pu	
665	3	public	
666	3	puissant	
667	3	puisse	
668	3	pût	
669	3	rayons	
670	3	refus	
671	3	regret	
672	3	renom	
673	3	reproche	
674	3	retour	
675	3	rivale	
676	3	rois	
677	3	royal	
678	3	régner	
679	3	révéler	
680	3	sache	
681	3	sage	
682	3	sagesse	
683	3	satisfait	
684	3	sauve	
685	3	savoir	
686	3	seconde	
687	3	secrets	
688	3	soif	
689	3	sois	
690	3	soldats	
691	3	sorti	
692	3	sortir	
693	3	souhaits	
694	3	soumis	
695	3	soupçons	
696	3	source	
697	3	soutient	
698	3	souvenir	
699	3	spectacle	
700	3	suffit	
701	3	table	
702	3	tire	
703	3	titans	
704	3	tombant	
705	3	tombe	
706	3	tomber	
707	3	trace	
708	3	traits	
709	3	triomphe	
710	3	tristes	
711	3	tromper	
712	3	trouver	
713	3	trouvé	
714	3	tâche	
715	3	térentius	
716	3	vaincus	
717	3	vainqueur	
718	3	vais	
719	3	verrai	
720	3	vers	
721	3	vertu	
722	3	victoire	
723	3	ville	
724	3	vivant	
725	3	voeux	
726	3	vol	
727	3	voyez	
728	3	ébranlé	
729	3	égorge	
730	3	égorger	
731	3	étonne	
732	3	été	
733	3	ôte	
734	2	abandonna	
735	2	abattu	
736	2	abhorre	
737	2	abominable	
738	2	abord	
739	2	accabler	
740	2	accablée	
741	2	accès	
742	2	acquitter	
743	2	acte	
744	2	action	
745	2	adorer	
746	2	adultère	
747	2	adversaire	
748	2	affermi	
749	2	affronte	
750	2	aie	
751	2	allais	
752	2	aller	
753	2	allez	
754	2	allons	
755	2	amant	
756	2	amène	
757	2	ans	
758	2	appareil	
759	2	apporte	
760	2	apprendront	
761	2	argent	
762	2	asile	
763	2	aspire	
764	2	assassinat	
765	2	assembler	
766	2	assemblés	
767	2	assuré	
768	2	assurée	
769	2	astre	
770	2	attacher	
771	2	attaquer	
772	2	attend	
773	2	attendons	
774	2	attenter	
775	2	augmente	
776	2	aussitôt	
777	2	autant	
778	2	autel	
779	2	auteur	
780	2	autour	
781	2	avais	
782	2	aventures	
783	2	averti	
784	2	aveu	
785	2	aveuglement	
786	2	aïeux	
787	2	balance	
788	2	bandeau	
789	2	barbare	
790	2	beaux	
791	2	bienfaits	
792	2	blessure	
793	2	bouts	
794	2	brave	
795	2	brigue	
796	2	bru	
797	2	brûlant	
798	2	brûler	
799	2	caché	
800	2	caligula	
801	2	camp	
802	2	capable	
803	2	carrière	
804	2	chair	
805	2	changé	
806	2	charge	
807	2	charmes	
808	2	chemin	
809	2	cherche	
810	2	chers	
811	2	choir	
812	2	choisit	
813	2	choquer	
814	2	choses	
815	2	cinquante	
816	2	clairement	
817	2	cohortes	
818	2	combattre	
819	2	commande	
820	2	commettre	
821	2	compagnie	
822	2	complices	
823	2	conjure	
824	2	consoler	
825	2	conspire	
826	2	constance	
827	2	contemple	
828	2	contraindre	
829	2	contraint	
830	2	convaincue	
831	2	conçois	
832	2	couchant	
833	2	couple	
834	2	courait	
835	2	couronner	
836	2	couronné	
837	2	cours	
838	2	couteau	
839	2	couvre	
840	2	criminel	
841	2	criminels	
842	2	croire	
843	2	croître	
844	2	cru	
845	2	cruel	
846	2	crut	
847	2	cède	
848	2	césars	
849	2	côté	
850	2	dedans	
851	2	degrés	
852	2	demander	
853	2	derniers	
854	2	dessous	
855	2	destiné	
856	2	deuil	
857	2	diligent	
858	2	dirai	
859	2	dispute	
860	2	doivent	
861	2	don	
862	2	donnait	
863	2	doute	
864	2	douteux	
865	2	débris	
866	2	déchire	
867	2	défaite	
868	2	défendre	
869	2	défends	
870	2	déguisement	
871	2	démon	
872	2	désespoir	
873	2	désordre	
874	2	dévotion	
875	2	effet	
876	2	effort	
877	2	empereurs	
878	2	emploi	
879	2	emporte	
880	2	enchaîné	
881	2	endormi	
882	2	enfant	
883	2	enfer	
884	2	enflamme	
885	2	engage	
886	2	engager	
887	2	ennuyé	
888	2	entends	
889	2	entraîne	
890	2	entreprend	
891	2	entrer	
892	2	envahit	
893	2	espérer	
894	2	eusse	
895	2	exécuteur	
896	2	faiblesse	
897	2	faisait	
898	2	fameux	
899	2	fatale	
900	2	faux	
901	2	faveur	
902	2	feins	
903	2	feint	
904	2	ferai	
905	2	feraient	
906	2	ferme	
907	2	feront	
908	2	fin	
909	2	fièvre	
910	2	flétrit	
911	2	forcer	
912	2	formés	
913	2	frappons	
914	2	fruit	
915	2	frères	
916	2	fuis	
917	2	fût	
918	2	genre	
919	2	germain	
920	2	goûter	
921	2	gémir	
922	2	génie	
923	2	généreuse	
924	2	hallebardes	
925	2	hautement	
926	2	haïr	
927	2	hercule	
928	2	horreurs	
929	2	humain	
930	2	hymen	
931	2	hâtons	
932	2	hérissé	
933	2	ignore	
934	2	ignorer	
935	2	imprévu	
936	2	incapable	
937	2	infernales	
938	2	informe	
939	2	infâme	
940	2	ingrat	
941	2	innocence	
942	2	insolemment	
943	2	instant	
944	2	instruit	
945	2	instrument	
946	2	intention	
947	2	invisible	
948	2	irait	
949	2	irrité	
950	2	jadis	
951	2	jetant	
952	2	joindra	
953	2	juge	
954	2	jupiter	
955	2	justice	
956	2	justifiant	
957	2	laisser	
958	2	liqueur	
959	2	lis	
960	2	livre	
961	2	loge	
962	2	loin	
963	2	lois	
964	2	léger	
965	2	machine	
966	2	malice	
967	2	marcher	
968	2	massacrant	
969	2	massacrer	
970	2	mauvais	
971	2	menace	
972	2	meurtriers	
973	2	mien	
974	2	miracle	
975	2	moindre	
976	2	mois	
977	2	moisson	
978	2	moment	
979	2	monarchique	
980	2	monarque	
981	2	monte	
982	2	mortelle	
983	2	mouvoir	
984	2	mânes	
985	2	mériter	
986	2	mêle	
987	2	mêmes	
988	2	naufrage	
989	2	naître	
990	2	nord	
991	2	nouveaux	
992	2	nouvel	
993	2	nue	
994	2	nuit	
995	2	néant	
996	2	objet	
997	2	observe	
998	2	occuper	
999	2	offensé	
1000	2	orgueilleuse	
1001	2	orient	
1002	2	osa	
1003	2	osait	
1004	2	osera	
1005	2	outrage	
1006	2	outragée	
1007	2	paraître	
1008	2	pardonne	
1009	2	partirons	
1010	2	partis	
1011	2	passer	
1012	2	paternel	
1013	2	pensers	
1014	2	penses	
1015	2	percer	
1016	2	percera	
1017	2	percé	
1018	2	peuvent	
1019	2	plaines	
1020	2	plaît	
1021	2	pleine	
1022	2	pleuré	
1023	2	plonger	
1024	2	poids	
1025	2	poignarder	
1026	2	pompe	
1027	2	populace	
1028	2	port	
1029	2	porter	
1030	2	portes	
1031	2	portrait	
1032	2	pourra	
1033	2	pourraient	
1034	2	poursuit	
1035	2	poursuivie	
1036	2	pousse	
1037	2	pouvait	
1038	2	privé	
1039	2	proches	
1040	2	profond	
1041	2	profonde	
1042	2	prolonger	
1043	2	promener	
1044	2	promets	
1045	2	promis	
1046	2	prompt	
1047	2	propres	
1048	2	prudence	
1049	2	précipice	
1050	2	précipiter	
1051	2	prédécesseurs	
1052	2	présage	
1053	2	présence	
1054	2	présenter	
1055	2	prétends	
1056	2	prétoriens	
1057	2	prévoir	
1058	2	puissance	
1059	2	puissions	
1060	2	punis	
1061	2	purger	
1062	2	pâlit	
1063	2	pères	
1064	2	pêle	
1065	2	quelle	
1066	2	querelle	
1067	2	quiconque	
1068	2	rapport	
1069	2	ravi	
1070	2	reconnu	
1071	2	recours	
1072	2	refuser	
1073	2	regards	
1074	2	rempli	
1075	2	repentir	
1076	2	respect	
1077	2	respecte	
1078	2	respire	
1079	2	reçu	
1080	2	romaines	
1081	2	rompre	
1082	2	rouge	
1083	2	royale	
1084	2	règle	
1085	2	république	
1086	2	résolu	
1087	2	rétrograde	
1088	2	sait	
1089	2	sanglant	
1090	2	sanglot	
1091	2	sanglots	
1092	2	sentir	
1093	2	seraient	
1094	2	seras	
1095	2	serment	
1096	2	serons	
1097	2	seront	
1098	2	serpents	
1099	2	services	
1100	2	sexe	
1101	2	sied	
1102	2	sien	
1103	2	sienne	
1104	2	sincère	
1105	2	soleils	
1106	2	somme	
1107	2	sommeil	
1108	2	sors	
1109	2	sorte	
1110	2	souffle	
1111	2	souffrir	
1112	2	soumise	
1113	2	soupirer	
1114	2	soupçonné	
1115	2	su	
1116	2	succombe	
1117	2	succès	
1118	2	suite	
1119	2	suivre	
1120	2	suivront	
1121	2	suprême	
1122	2	sursaut	
1123	2	suspects	
1124	2	suspens	
1125	2	sûre	
1126	2	tableau	
1127	2	tableaux	
1128	2	tache	
1129	2	tendresse	
1130	2	terrasser	
1131	2	tiendrai	
1132	2	tienne	
1133	2	tirer	
1134	2	tombent	
1135	2	tort	
1136	2	tour	
1137	2	tracé	
1138	2	trahit	
1139	2	trait	
1140	2	travaux	
1141	2	tremblé	
1142	2	triomphants	
1143	2	troupes	
1144	2	tue	
1145	2	tué	
1146	2	témoigne	
1147	2	témoin	
1148	2	têtes	
1149	2	tôt	
1150	2	vaines	
1151	2	vanité	
1152	2	vastes	
1153	2	venge	
1154	2	vengeant	
1155	2	vengé	
1156	2	verras	
1157	2	victimes	
1158	2	vint	
1159	2	vit	
1160	2	volante	
1161	2	voulais	
1162	2	voulut	
1163	2	voyait	
1164	2	voyant	
1165	2	vrai	
1166	2	vécu	
1167	2	vôtre	
1168	2	âmes	
1169	2	éclate	
1170	2	égal	
1171	2	égale	
1172	2	élever	
1173	2	élevé	
1174	2	élevés	
1175	2	émeut	
1176	2	énorme	
1177	2	épargne	
1178	2	épouseras	
1179	2	équité	
1180	2	éteindra	
1181	2	éternel	
1182	2	étonner	
1183	2	étonnés	
1184	2	étouffer	
1185	1	abaisse	
1186	1	abaissement	
1187	1	abaisser	
1188	1	abandonner	
1189	1	abandonnés	
1190	1	abattaient	
1191	1	abattant	
1192	1	abattre	
1193	1	abject	
1194	1	abois	
1195	1	abreuver	
1196	1	absence	
1197	1	absolu	
1198	1	acceptant	
1199	1	accepter	
1200	1	accepterait	
1201	1	accepté	
1202	1	accessible	
1203	1	accidents	
1204	1	accompagnerai	
1205	1	accompagné	
1206	1	accorder	
1207	1	accorderais	
1208	1	accords	
1209	1	accourcirais	
1210	1	accourir	
1211	1	accoutumée	
1212	1	accroîtra	
1213	1	accroître	
1214	1	accuser	
1215	1	accusé	
1216	1	accusée	
1217	1	achevons	
1218	1	achevé	
1219	1	achète	
1220	1	acquiert	
1221	1	acquitteront	
1222	1	acquérir	
1223	1	adieux	
1224	1	admire	
1225	1	adopta	
1226	1	adresse	
1227	1	adversaires	
1228	1	affable	
1229	1	affaibli	
1230	1	affaiblirait	
1231	1	affaires	
1232	1	affermira	
1233	1	affliger	
1234	1	afrique	
1235	1	agirait	
1236	1	agité	
1237	1	agonie	
1238	1	aider	
1239	1	aient	
1240	1	aigrir	
1241	1	aiguës	
1242	1	aille	
1243	1	ailleurs	
1244	1	aimable	
1245	1	aimai	
1246	1	aimant	
1247	1	airain	
1248	1	airs	
1249	1	alarmes	
1250	1	alarmées	
1251	1	alexandre	
1252	1	aliment	
1253	1	alla	
1254	1	allemand	
1255	1	allemands	
1256	1	alliance	
1257	1	allonger	
1258	1	allongera	
1259	1	allumant	
1260	1	allume	
1261	1	allumé	
1262	1	allé	
1263	1	altérés	
1264	1	amante	
1265	1	amants	
1266	1	amazone	
1267	1	ambitieuse	
1268	1	ami	
1269	1	anime	
1270	1	animer	
1271	1	annonce	
1272	1	annoncer	
1273	1	annonçant	
1274	1	apaisez	
1275	1	aperçois	
1276	1	aposté	
1277	1	apparence	
1278	1	appelais	
1279	1	appellent	
1280	1	appellerai	
1281	1	appelles	
1282	1	appelé	
1283	1	appendait	
1284	1	applique	
1285	1	apporter	
1286	1	apporteront	
1287	1	apprenez	
1288	1	apprivoiser	
1289	1	approcha	
1290	1	approchent	
1291	1	approcher	
1292	1	approchée	
1293	1	appréhende	
1294	1	appréhendes	
1295	1	apprête	
1296	1	appui	
1297	1	appuyé	
1298	1	arbitre	
1299	1	ardent	
1300	1	ardente	
1301	1	argus	
1302	1	aristocratique	
1303	1	armai	
1304	1	arme	
1305	1	armerait	
1306	1	armée	
1307	1	armées	
1308	1	arrive	
1309	1	arriveront	
1310	1	arrivé	
1311	1	arrière	
1312	1	arrêtant	
1313	1	arrêter	
1314	1	arrêtez	
1315	1	arrêtons	
1316	1	arrêté	
1317	1	artifice	
1318	1	artères	
1319	1	aruspice	
1320	1	arène	
1321	1	assassiner	
1322	1	assassinera	
1323	1	assassins	
1324	1	assemblé	
1325	1	assemblées	
1326	1	assiette	
1327	1	assis	
1328	1	assisté	
1329	1	assiège	
1330	1	assomme	
1331	1	assouvie	
1332	1	assouvir	
1333	1	assouvissant	
1334	1	assurance	
1335	1	assurant	
1336	1	assure	
1337	1	astreint	
1338	1	attachent	
1339	1	attaches	
1340	1	attaché	
1341	1	attachée	
1342	1	attaquera	
1343	1	atteindra	
1344	1	atteint	
1345	1	attendais	
1346	1	attendez	
1347	1	attendre	
1348	1	attendrir	
1349	1	attendu	
1350	1	attente	
1351	1	attirer	
1352	1	attirerait	
1353	1	attirât	
1354	1	attroupe	
1355	1	aucun	
1356	1	augmentent	
1357	1	augmenter	
1358	1	augmenté	
1359	1	augure	
1360	1	auparavant	
1361	1	aurai	
1362	1	aurais	
1363	1	aurait	
1364	1	aurons	
1365	1	aurore	
1366	1	autels	
1367	1	auteurs	
1368	1	autrefois	
1369	1	autrement	
1370	1	avaient	
1371	1	aveugle	
1372	1	aveugler	
1373	1	aveuglé	
1374	1	aviez	
1375	1	avis	
1376	1	avons	
1377	1	avorté	
1378	1	avoue	
1379	1	avéré	
1380	1	baigner	
1381	1	balancer	
1382	1	balançait	
1383	1	bandes	
1384	1	barrière	
1385	1	base	
1386	1	bat	
1387	1	bataille	
1388	1	batailles	
1389	1	bataillons	
1390	1	battu	
1391	1	beauté	
1392	1	belle	
1393	1	besoin	
1394	1	bienfait	
1395	1	bienheureux	
1396	1	blanchis	
1397	1	blasphème	
1398	1	blessera	
1399	1	blessures	
1400	1	blessée	
1401	1	blâmable	
1402	1	blâme	
1403	1	blême	
1404	1	boeuf	
1405	1	bon	
1406	1	bonheur	
1407	1	bonne	
1408	1	bonté	
1409	1	borne	
1410	1	bornent	
1411	1	borné	
1412	1	boucher	
1413	1	bouillons	
1414	1	bourbeux	
1415	1	bouton	
1416	1	brasier	
1417	1	bravant	
1418	1	braver	
1419	1	bravera	
1420	1	braves	
1421	1	bravez	
1422	1	briarées	
1423	1	brigues	
1424	1	brillants	
1425	1	brisons	
1426	1	brisées	
1427	1	brutus	
1428	1	brûlante	
1429	1	brûlé	
1430	1	brûlés	
1431	1	butte	
1432	1	bâtis	
1433	1	bêtes	
1434	1	cabanes	
1435	1	cabinet	
1436	1	cachait	
1437	1	cacher	
1438	1	cachez	
1439	1	cachée	
1440	1	calmera	
1441	1	campagne	
1442	1	candeur	
1443	1	caractères	
1444	1	caresse	
1445	1	carnages	
1446	1	cas	
1447	1	casse	
1448	1	cassé	
1449	1	catastrophe	
1450	1	catons	
1451	1	causait	
1452	1	causes	
1453	1	causé	
1454	1	cendre	
1455	1	certains	
1456	1	cessât	
1457	1	chaleur	
1458	1	char	
1459	1	charger	
1460	1	charges	
1461	1	chargé	
1462	1	chassent	
1463	1	chasser	
1464	1	chasses	
1465	1	chassé	
1466	1	chaud	
1467	1	chaudes	
1468	1	chaume	
1469	1	chaîne	
1470	1	chemins	
1471	1	chercher	
1472	1	cherchez	
1473	1	chevet	
1474	1	cheveux	
1475	1	chimères	
1476	1	choisir	
1477	1	choque	
1478	1	chu	
1479	1	châtiment	
1480	1	cicatrices	
1481	1	clin	
1482	1	coeurs	
1483	1	col	
1484	1	colosse	
1485	1	combats	
1486	1	combattants	
1487	1	comble	
1488	1	combler	
1489	1	commander	
1490	1	commence	
1491	1	commencer	
1492	1	commet	
1493	1	commun	
1494	1	compagnons	
1495	1	complaire	
1496	1	complice	
1497	1	complotait	
1498	1	comprenne	
1499	1	comprise	
1500	1	compte	
1501	1	comète	
1502	1	conclure	
1503	1	condamner	
1504	1	condamnez	
1505	1	condamné	
1506	1	conditions	
1507	1	conduis	
1508	1	conduisait	
1509	1	confesser	
1510	1	confiance	
1511	1	confidents	
1512	1	confirme	
1513	1	confondus	
1514	1	confuse	
1515	1	conjuration	
1516	1	conjurer	
1517	1	conjurés	
1518	1	connaissant	
1519	1	connaisse	
1520	1	connaissez	
1521	1	connaîtrez	
1522	1	connue	
1523	1	connut	
1524	1	conquête	
1525	1	consacrant	
1526	1	consacre	
1527	1	conservant	
1528	1	conserve	
1529	1	conservez	
1530	1	considère	
1531	1	considérer	
1532	1	consolés	
1533	1	conspiration	
1534	1	conspirer	
1535	1	consul	
1536	1	contagieux	
1537	1	contemplé	
1538	1	contentements	
1539	1	contenter	
1540	1	conter	
1541	1	contrainte	
1542	1	contraire	
1543	1	contrat	
1544	1	convaincre	
1545	1	convaincu	
1546	1	conviction	
1547	1	convoqués	
1548	1	conçue	
1549	1	cornélie	
1550	1	corrompe	
1551	1	couche	
1552	1	couleur	
1553	1	coupe	
1554	1	coupons	
1555	1	couraient	
1556	1	couronnera	
1557	1	couronneront	
1558	1	couronnées	
1559	1	courtoisie	
1560	1	cousine	
1561	1	couverts	
1562	1	couvrait	
1563	1	craignez	
1564	1	craindra	
1565	1	craindrez	
1566	1	creux	
1567	1	cri	
1568	1	criait	
1569	1	criminelle	
1570	1	criminelles	
1571	1	crié	
1572	1	croyant	
1573	1	croyez	
1574	1	crût	
1575	1	cueillerai	
1576	1	cuisants	
1577	1	cuivre	
1578	1	céleste	
1579	1	célèbre	
1580	1	côtés	
1581	1	daigne	
1582	1	damnable	
1583	1	dangers	
1584	1	davantage	
1585	1	degré	
1586	1	delà	
1587	1	demain	
1588	1	demanda	
1589	1	demandes	
1590	1	dernière	
1591	1	derrière	
1592	1	descendu	
1593	1	descente	
1594	1	desserrant	
1595	1	dessillant	
1596	1	destine	
1597	1	destins	
1598	1	destinées	
1599	1	devait	
1600	1	devance	
1601	1	devança	
1602	1	devenez	
1603	1	devenu	
1604	1	devez	
1605	1	deviendra	
1606	1	deviendraient	
1607	1	deviendrais	
1608	1	deviendrez	
1609	1	devienne	
1610	1	devoirs	
1611	1	deçà	
1612	1	dictateurs	
1613	1	diffame	
1614	1	direz	
1615	1	discord	
1616	1	discorde	
1617	1	disgrâce	
1618	1	dispensiez	
1619	1	dispose	
1620	1	disposer	
1621	1	disputer	
1622	1	dissipera	
1623	1	distillait	
1624	1	distinct	
1625	1	distribuer	
1626	1	divertir	
1627	1	divinité	
1628	1	divisé	
1629	1	doive	
1630	1	donna	
1631	1	donnent	
1632	1	donnes	
1633	1	dors	
1634	1	dot	
1635	1	doucement	
1636	1	douter	
1637	1	doutez	
1638	1	doux	
1639	1	droite	
1640	1	due	
1641	1	durant	
1642	1	durer	
1643	1	dès	
1644	1	débauches	
1645	1	décernait	
1646	1	déchirions	
1647	1	déchiré	
1648	1	décidera	
1649	1	déclaré	
1650	1	décoche	
1651	1	découverte	
1652	1	découvraient	
1653	1	découvrant	
1654	1	découvriras	
1655	1	décèle	
1656	1	dédire	
1657	1	défaut	
1658	1	défectueux	
1659	1	défier	
1660	1	défigurés	
1661	1	dégorge	
1662	1	délivrera	
1663	1	déloyale	
1664	1	déloyales	
1665	1	démentir	
1666	1	dépens	
1667	1	dépit	
1668	1	déplaisant	
1669	1	déplorable	
1670	1	dépose	
1671	1	déposer	
1672	1	dépouillé	
1673	1	déprend	
1674	1	déprendre	
1675	1	dépôt	
1676	1	dérober	
1677	1	déroberez	
1678	1	dérobé	
1679	1	désaccoutumé	
1680	1	désastre	
1681	1	désaveu	
1682	1	déserts	
1683	1	désespéré	
1684	1	désigner	
1685	1	désiré	
1686	1	désobliger	
1687	1	désolée	
1688	1	désormais	
1689	1	désunir	
1690	1	désunissant	
1691	1	détestable	
1692	1	détourne	
1693	1	détourné	
1694	1	détrompez	
1695	1	détruire	
1696	1	détruisant	
1697	1	détruit	
1698	1	dévidais	
1699	1	dû	
1700	1	effacer	
1701	1	effacé	
1702	1	effarouche	
1703	1	effaçant	
1704	1	efforce	
1705	1	effraie	
1706	1	effrayé	
1707	1	embarras	
1708	1	embarrassée	
1709	1	embrasse	
1710	1	emmène	
1711	1	emparent	
1712	1	emparer	
1713	1	empiète	
1714	1	emplissait	
1715	1	emplit	
1716	1	emploie	
1717	1	empoisonneur	
1718	1	emportement	
1719	1	emporterais	
1720	1	emportés	
1721	1	emprunta	
1722	1	empêcher	
1723	1	encelade	
1724	1	encens	
1725	1	encensoir	
1726	1	enchérir	
1727	1	endort	
1728	1	endroit	
1729	1	enfance	
1730	1	enferme	
1731	1	enflent	
1732	1	enflés	
1733	1	enfoncé	
1734	1	enfuit	
1735	1	engloutir	
1736	1	engraissa	
1737	1	enlacés	
1738	1	ennemie	
1739	1	ensanglantée	
1740	1	enseigna	
1741	1	ensuite	
1742	1	entassés	
1743	1	entendez	
1744	1	entendue	
1745	1	enterrer	
1746	1	entier	
1747	1	entrailles	
1748	1	entremettre	
1749	1	entreprendrai	
1750	1	entreprendre	
1751	1	entreprenne	
1752	1	entreprise	
1753	1	entretenir	
1754	1	entretien	
1755	1	entretient	
1756	1	entés	
1757	1	envers	
1758	1	envi	
1759	1	envier	
1760	1	environner	
1761	1	envoie	
1762	1	envola	
1763	1	errante	
1764	1	erreurs	
1765	1	escadrons	
1766	1	esclaves	
1767	1	escorte	
1768	1	escorté	
1769	1	espace	
1770	1	espion	
1771	1	espoir	
1772	1	espèces	
1773	1	estimer	
1774	1	estimes	
1775	1	estimé	
1776	1	estomac	
1777	1	eu	
1778	1	europe	
1779	1	eus	
1780	1	eussiez	
1781	1	examiner	
1782	1	exception	
1783	1	excite	
1784	1	exciter	
1785	1	excuse	
1786	1	excès	
1787	1	expier	
1788	1	expirer	
1789	1	expireront	
1790	1	exploit	
1791	1	exposez	
1792	1	exprès	
1793	1	extase	
1794	1	exterminer	
1795	1	extrémité	
1796	1	exécute	
1797	1	fabuleux	
1798	1	face	
1799	1	facile	
1800	1	faits	
1801	1	faix	
1802	1	fallut	
1803	1	familles	
1804	1	fantasque	
1805	1	fardeau	
1806	1	fasse	
1807	1	fastes	
1808	1	fatiguera	
1809	1	fauché	
1810	1	fautes	
1811	1	faveurs	
1812	1	feignant	
1813	1	feindra	
1814	1	feindrai	
1815	1	feinte	
1816	1	femmes	
1817	1	fermant	
1818	1	fermer	
1819	1	fermes	
1820	1	fermé	
1821	1	ferrées	
1822	1	festins	
1823	1	feuillets	
1824	1	fidèle	
1825	1	fiers	
1826	1	figure	
1827	1	filet	
1828	1	filles	
1829	1	fini	
1830	1	fière	
1831	1	flambeau	
1832	1	flamboie	
1833	1	flancs	
1834	1	flatte	
1835	1	flattera	
1836	1	flatteur	
1837	1	flatté	
1838	1	fleur	
1839	1	flots	
1840	1	flotte	
1841	1	fléchir	
1842	1	flétris	
1843	1	fond	
1844	1	fontaines	
1845	1	forces	
1846	1	forcez	
1847	1	forcé	
1848	1	forcée	
1849	1	forfait	
1850	1	forment	
1851	1	former	
1852	1	formé	
1853	1	formées	
1854	1	fortes	
1855	1	foudroie	
1856	1	foudroyer	
1857	1	foudroyé	
1858	1	fouler	
1859	1	fourbe	
1860	1	fournit	
1861	1	foyers	
1862	1	franc	
1863	1	frappe	
1864	1	frappent	
1865	1	frappez	
1866	1	frissons	
1867	1	froide	
1868	1	frémir	
1869	1	frémit	
1870	1	fuite	
1871	1	fumer	
1872	1	fumées	
1873	1	funèbre	
1874	1	funèbres	
1875	1	funérailles	
1876	1	fureurs	
1877	1	furie	
1878	1	furnie	
1879	1	féconde	
1880	1	gage	
1881	1	gagne	
1882	1	gagner	
1883	1	gagnes	
1884	1	gardait	
1885	1	garderez	
1886	1	gardons	
1887	1	gauchissons	
1888	1	gendarmes	
1889	1	germains	
1890	1	geôlier	
1891	1	glaives	
1892	1	gorge	
1893	1	goûtent	
1894	1	grandes	
1895	1	grave	
1896	1	graver	
1897	1	gros	
1898	1	guères	
1899	1	guérissez	
1900	1	guérit	
1901	1	géants	
1902	1	géhenne	
1903	1	gémissant	
1904	1	généralement	
1905	1	générosité	
1906	1	haleine	
1907	1	harmonie	
1908	1	hasarderai	
1909	1	hautaine	
1910	1	haute	
1911	1	hauts	
1912	1	heureuse	
1913	1	heurtait	
1914	1	hier	
1915	1	hiver	
1916	1	hommes	
1917	1	honteuse	
1918	1	hormis	
1919	1	hors	
1920	1	hostie	
1921	1	hosties	
1922	1	humaines	
1923	1	humeur	
1924	1	hâtes	
1925	1	hécatombe	
1926	1	héritage	
1927	1	héréditaire	
1928	1	hésiter	
1929	1	idole	
1930	1	idolâtre	
1931	1	idolâtrie	
1932	1	ignorant	
1933	1	illégitime	
1934	1	images	
1935	1	imagines	
1936	1	imiter	
1937	1	imiterai	
1938	1	immole	
1939	1	immolerai	
1940	1	immolés	
1941	1	immortelle	
1942	1	impatience	
1943	1	implorer	
1944	1	impossible	
1945	1	imprudent	
1946	1	impudente	
1947	1	impunément	
1948	1	incertitude	
1949	1	indice	
1950	1	indigne	
1951	1	indulgence	
1952	1	infamie	
1953	1	infecta	
1954	1	infidèle	
1955	1	infortuné	
1956	1	infortunés	
1957	1	inhumain	
1958	1	inhumains	
1959	1	injures	
1960	1	injuste	
1961	1	injustes	
1962	1	inquiétude	
1963	1	insensible	
1964	1	insensibles	
1965	1	insensée	
1966	1	insinuer	
1967	1	insolent	
1968	1	instinct	
1969	1	instruite	
1970	1	insulter	
1971	1	intelligence	
1972	1	intelligible	
1973	1	interprète	
1974	1	interrègne	
1975	1	intimide	
1976	1	intimider	
1977	1	intrigue	
1978	1	intérêt	
1979	1	intérêts	
1980	1	invente	
1981	1	inventer	
1982	1	invisibles	
1983	1	inégal	
1984	1	irai	
1985	1	irais	
1986	1	iront	
1987	1	irritée	
1988	1	irrévocablement	
1989	1	issue	
1990	1	jaillir	
1991	1	jalousie	
1992	1	jason	
1993	1	joignant	
1994	1	joindrait	
1995	1	joindront	
1996	1	joins	
1997	1	joints	
1998	1	joug	
1999	1	jouissent	
2000	1	jugé	
2001	1	juré	
2002	1	jusque	
2003	1	justes	
2004	1	laissait	
2005	1	lamentable	
2006	1	langage	
2007	1	langue	
2008	1	larges	
2009	1	largesses	
2010	1	larmes	
2011	1	lasserez	
2012	1	lassé	
2013	1	lent	
2014	1	lente	
2015	1	lentement	
2016	1	lents	
2017	1	lettre	
2018	1	lever	
2019	1	leçons	
2020	1	liberté	
2021	1	libérale	
2022	1	lie	
2023	1	lien	
2024	1	liens	
2025	1	ligue	
2026	1	lion	
2027	1	lirait	
2028	1	lire	
2029	1	liée	
2030	1	logement	
2031	1	logé	
2032	1	logées	
2033	1	longs	
2034	1	longtemps	
2035	1	longues	
2036	1	longueur	
2037	1	lorsqu	
2038	1	lu	
2039	1	luirait	
2040	1	lâcher	
2041	1	lâchetés	
2042	1	lève	
2043	1	légers	
2044	1	légionnaires	
2045	1	légitimes	
2046	1	légère	
2047	1	magnanimes	
2048	1	magnifique	
2049	1	maintenir	
2050	1	maintenu	
2051	1	maisons	
2052	1	majesté	
2053	1	mandée	
2054	1	manger	
2055	1	manifeste	
2056	1	manque	
2057	1	manquer	
2058	1	manqueras	
2059	1	marbre	
2060	1	marchait	
2061	1	maris	
2062	1	marquaient	
2063	1	marque	
2064	1	mars	
2065	1	masqué	
2066	1	massacre	
2067	1	massacré	
2068	1	matin	
2069	1	matière	
2070	1	maudit	
2071	1	mauvaise	
2072	1	membres	
2073	1	menacé	
2074	1	menacés	
2075	1	menais	
2076	1	mensonge	
2077	1	mer	
2078	1	mesure	
2079	1	met	
2080	1	mettra	
2081	1	meures	
2082	1	meurtres	
2083	1	meurtri	
2084	1	meurtrier	
2085	1	meut	
2086	1	meuvent	
2087	1	mienne	
2088	1	ministre	
2089	1	moitiés	
2090	1	mollement	
2091	1	mollesse	
2092	1	monceau	
2093	1	monceaux	
2094	1	montant	
2095	1	montes	
2096	1	montrent	
2097	1	monument	
2098	1	moquer	
2099	1	mortalité	
2100	1	mortel	
2101	1	mortellement	
2102	1	mortels	
2103	1	mot	
2104	1	mots	
2105	1	mouille	
2106	1	mourant	
2107	1	mourrai	
2108	1	mourras	
2109	1	mourut	
2110	1	moyens	
2111	1	muet	
2112	1	muette	
2113	1	murmure	
2114	1	mutin	
2115	1	mutinez	
2116	1	mutins	
2117	1	mystère	
2118	1	mystères	
2119	1	mâle	
2120	1	mène	
2121	1	mènent	
2122	1	mènes	
2123	1	méditait	
2124	1	ménager	
2125	1	méritaient	
2126	1	mériteraient	
2127	1	mérites	
2128	1	métal	
2129	1	mêlée	
2130	1	mûrement	
2131	1	naguère	
2132	1	naissante	
2133	1	naquis	
2134	1	naîtrait	
2135	1	nièce	
2136	1	noeud	
2137	1	noir	
2138	1	noirceur	
2139	1	noircir	
2140	1	noire	
2141	1	nommaient	
2142	1	nommait	
2143	1	nomme	
2144	1	nommé	
2145	1	nourri	
2146	1	nourrir	
2147	1	nourriture	
2148	1	nouveau	
2149	1	nouvelle	
2150	1	noyer	
2151	1	nuire	
2152	1	nuits	
2153	1	né	
2154	1	nôtres	
2155	1	obligée	
2156	1	obligés	
2157	1	obscurité	
2158	1	observez	
2159	1	obstacle	
2160	1	obtenir	
2161	1	obtiendrait	
2162	1	obéir	
2163	1	obéis	
2164	1	obéissant	
2165	1	occasion	
2166	1	occupée	
2167	1	offenser	
2168	1	offenserais	
2169	1	offensez	
2170	1	offerte	
2171	1	offrande	
2172	1	offrant	
2173	1	offrir	
2174	1	offris	
2175	1	oiseaux	
2176	1	ombres	
2177	1	oncle	
2178	1	opposer	
2179	1	opprimer	
2180	1	opulentes	
2181	1	or	
2182	1	orage	
2183	1	oreille	
2184	1	orgueilleux	
2185	1	osais	
2186	1	osent	
2187	1	oser	
2188	1	oserait	
2189	1	osé	
2190	1	oubliant	
2191	1	oublier	
2192	1	ourse	
2193	1	outragé	
2194	1	ouvert	
2195	1	ouverts	
2196	1	ouverture	
2197	1	ouvre	
2198	1	oyait	
2199	1	paisible	
2200	1	parais	
2201	1	parait	
2202	1	paraîtraient	
2203	1	pardonnera	
2204	1	pareil	
2205	1	parente	
2206	1	parlante	
2207	1	parlent	
2208	1	parlera	
2209	1	parlez	
2210	1	partage	
2211	1	partagé	
2212	1	partant	
2213	1	parthe	
2214	1	parties	
2215	1	partir	
2216	1	parut	
2217	1	passant	
2218	1	passera	
2219	1	passerait	
2220	1	passée	
2221	1	pasteur	
2222	1	patrimoine	
2223	1	paupière	
2224	1	pavillons	
2225	1	pavots	
2226	1	payait	
2227	1	paye	
2228	1	payera	
2229	1	payes	
2230	1	pays	
2231	1	peindre	
2232	1	peinture	
2233	1	penchant	
2234	1	pendant	
2235	1	pensais	
2236	1	penser	
2237	1	pensionnaires	
2238	1	pensé	
2239	1	perdant	
2240	1	perde	
2241	1	perdis	
2242	1	perdit	
2243	1	perdront	
2244	1	perdue	
2245	1	permets	
2246	1	permis	
2247	1	persuadée	
2248	1	persécuté	
2249	1	perçant	
2250	1	pesante	
2251	1	peux	
2252	1	philosophe	
2253	1	pied	
2254	1	piquer	
2255	1	pires	
2256	1	plaie	
2257	1	plaindra	
2258	1	plaindrez	
2259	1	plaine	
2260	1	plaint	
2261	1	plaintives	
2262	1	plaire	
2263	1	pleinement	
2264	1	pleins	
2265	1	pleurent	
2266	1	plier	
2267	1	poings	
2268	1	pointes	
2269	1	politique	
2270	1	pompeux	
2271	1	portiez	
2272	1	posait	
2273	1	possession	
2274	1	postérité	
2275	1	poumons	
2276	1	pourrai	
2277	1	pourrais	
2278	1	pourras	
2279	1	pourri	
2280	1	pourriez	
2281	1	pourris	
2282	1	poursuivrons	
2283	1	pousser	
2284	1	poussé	
2285	1	pouvais	
2286	1	prenais	
2287	1	prenait	
2288	1	prendra	
2289	1	presqu	
2290	1	presque	
2291	1	preuve	
2292	1	pris	
2293	1	prise	
2294	1	prison	
2295	1	prisonnière	
2296	1	prit	
2297	1	privant	
2298	1	priver	
2299	1	proche	
2300	1	procès	
2301	1	prodiguons	
2302	1	produisit	
2303	1	profaner	
2304	1	proie	
2305	1	projet	
2306	1	projets	
2307	1	promesses	
2308	1	promettre	
2309	1	prompte	
2310	1	prompts	
2311	1	promènera	
2312	1	prononcer	
2313	1	prononcez	
2314	1	prophétique	
2315	1	propose	
2316	1	proposes	
2317	1	propre	
2318	1	protecteur	
2319	1	proteste	
2320	1	protestez	
2321	1	province	
2322	1	provoquerait	
2323	1	près	
2324	1	préfère	
2325	1	préjugeant	
2326	1	préparer	
2327	1	préparé	
2328	1	présages	
2329	1	prétexte	
2330	1	prévenir	
2331	1	préviens	
2332	1	prévois	
2333	1	puante	
2334	1	publie	
2335	1	puissante	
2336	1	puissantes	
2337	1	puni	
2338	1	punition	
2339	1	pâle	
2340	1	pâlis	
2341	1	pâlissante	
2342	1	pâmer	
2343	1	pénètre	
2344	1	périrai	
2345	1	périrons	
2346	1	périsse	
2347	1	périssez	
2348	1	périssions	
2349	1	pétillante	
2350	1	pôle	
2351	1	qualité	
2352	1	quatre	
2353	1	quelques	
2354	1	quels	
2355	1	racheter	
2356	1	raisons	
2357	1	rajuste	
2358	1	rampent	
2359	1	ramène	
2360	1	rangée	
2361	1	rangées	
2362	1	rançon	
2363	1	rapporter	
2364	1	rapports	
2365	1	rarement	
2366	1	rassurer	
2367	1	ravie	
2368	1	recommandé	
2369	1	reconnaissance	
2370	1	reconnaître	
2371	1	reconnus	
2372	1	recueilleraient	
2373	1	recule	
2374	1	reculer	
2375	1	redevient	
2376	1	redoublées	
2377	1	redoublés	
2378	1	redoutables	
2379	1	redoutant	
2380	1	reflux	
2381	1	refusant	
2382	1	refuse	
2383	1	regard	
2384	1	regardait	
2385	1	regarde	
2386	1	regardons	
2387	1	regardé	
2388	1	regorgent	
2389	1	regretter	
2390	1	regrettât	
2391	1	reine	
2392	1	rejaillir	
2393	1	rejaillit	
2394	1	relever	
2395	1	remettait	
2396	1	remis	
2397	1	remonté	
2398	1	remords	
2399	1	remparts	
2400	1	remplir	
2401	1	renaissant	
2402	1	renaître	
2403	1	rencontrera	
2404	1	rende	
2405	1	rendent	
2406	1	rendit	
2407	1	rendrais	
2408	1	renferme	
2409	1	renomme	
2410	1	renommé	
2411	1	renonce	
2412	1	rentrée	
2413	1	renverse	
2414	1	renverser	
2415	1	renverserait	
2416	1	renverseront	
2417	1	renversé	
2418	1	renversés	
2419	1	repasse	
2420	1	repaître	
2421	1	repose	
2422	1	reposer	
2423	1	repousser	
2424	1	reprends	
2425	1	reproduire	
2426	1	reproduise	
2427	1	requête	
2428	1	respectant	
2429	1	respectes	
2430	1	respirer	
2431	1	ressentiment	
2432	1	ressuscité	
2433	1	ressuscités	
2434	1	restes	
2435	1	restituerez	
2436	1	retenir	
2437	1	retentir	
2438	1	retenue	
2439	1	retienne	
2440	1	retient	
2441	1	retombera	
2442	1	retracer	
2443	1	reviendront	
2444	1	reçoit	
2445	1	reçue	
2446	1	rhin	
2447	1	riant	
2448	1	riens	
2449	1	rigueur	
2450	1	rival	
2451	1	rives	
2452	1	rivières	
2453	1	robe	
2454	1	roc	
2455	1	rocher	
2456	1	rochers	
2457	1	romaine	
2458	1	rond	
2459	1	ronde	
2460	1	ronge	
2461	1	rougir	
2462	1	rougirait	
2463	1	rougissez	
2464	1	route	
2465	1	rusé	
2466	1	réchauffe	
2467	1	réchauffé	
2468	1	réclamais	
2469	1	réconcilier	
2470	1	récuse	
2471	1	réduit	
2472	1	réfléchissait	
2473	1	régaler	
2474	1	régales	
2475	1	régir	
2476	1	réglez	
2477	1	régnant	
2478	1	répand	
2479	1	répandre	
2480	1	répandu	
2481	1	répare	
2482	1	réplique	
2483	1	réponse	
2484	1	réserve	
2485	1	résolvez	
2486	1	résoudre	
2487	1	résoudrez	
2488	1	résoudront	
2489	1	résout	
2490	1	rétablies	
2491	1	réveille	
2492	1	réveillent	
2493	1	révolter	
2494	1	saccagé	
2495	1	sacrifiai	
2496	1	sacrificateur	
2497	1	sacrifice	
2498	1	sacrilège	
2499	1	sacrés	
2500	1	saisit	
2501	1	salut	
2502	1	sangloter	
2503	1	sanguinaire	
2504	1	satisfaisait	
2505	1	satisfaite	
2506	1	saurai	
2507	1	saurez	
2508	1	sauva	
2509	1	sauveur	
2510	1	savait	
2511	1	savante	
2512	1	sceau	
2513	1	sec	
2514	1	secondant	
2515	1	secourable	
2516	1	selon	
2517	1	semblable	
2518	1	semblais	
2519	1	semblent	
2520	1	semblez	
2521	1	semence	
2522	1	semé	
2523	1	sensiblement	
2524	1	sensés	
2525	1	sente	
2526	1	senti	
2527	1	sentiront	
2528	1	serai	
2529	1	serais	
2530	1	serez	
2531	1	sert	
2532	1	serve	
2533	1	serviez	
2534	1	servir	
2535	1	serviteur	
2536	1	seulement	
2537	1	signal	
2538	1	signale	
2539	1	signe	
2540	1	simple	
2541	1	sinistre	
2542	1	six	
2543	1	siècles	
2544	1	siège	
2545	1	solennel	
2546	1	solitude	
2547	1	solliciter	
2548	1	sollicité	
2549	1	sommet	
2550	1	sonder	
2551	1	songent	
2552	1	songer	
2553	1	sortaient	
2554	1	sortent	
2555	1	sortez	
2556	1	sortilège	
2557	1	soucis	
2558	1	soufferte	
2559	1	soufferts	
2560	1	souffre	
2561	1	soulevé	
2562	1	soumettant	
2563	1	soupirant	
2564	1	soupçonne	
2565	1	soupçonner	
2566	1	sourd	
2567	1	soutien	
2568	1	soutiendrai	
2569	1	soutint	
2570	1	souvent	
2571	1	souverain	
2572	1	souveraine	
2573	1	souviens	
2574	1	soûler	
2575	1	spectre	
2576	1	spécieux	
2577	1	statue	
2578	1	stériles	
2579	1	subi	
2580	1	subit	
2581	1	succédant	
2582	1	suer	
2583	1	suit	
2584	1	suivant	
2585	1	superbes	
2586	1	superflus	
2587	1	supplices	
2588	1	supporteras	
2589	1	surprend	
2590	1	surprendra	
2591	1	survivant	
2592	1	survivre	
2593	1	suspect	
2594	1	suspendu	
2595	1	suçât	
2596	1	sème	
2597	1	séparés	
2598	1	sépultures	
2599	1	sûr	
2600	1	sûreté	
2601	1	sût	
2602	1	tables	
2603	1	tandis	
2604	1	tard	
2605	1	telles	
2606	1	tels	
2607	1	tend	
2608	1	tendant	
2609	1	tendent	
2610	1	tendre	
2611	1	tenir	
2612	1	tenterait	
2613	1	tenu	
2614	1	terminant	
2615	1	terminé	
2616	1	ternissait	
2617	1	ternit	
2618	1	terrassé	
2619	1	terreur	
2620	1	terrible	
2621	1	testament	
2622	1	timidité	
2623	1	tison	
2624	1	tissue	
2625	1	tissure	
2626	1	titre	
2627	1	toison	
2628	1	toit	
2629	1	tomberas	
2630	1	tombons	
2631	1	tombât	
2632	1	tombé	
2633	1	tonné	
2634	1	torrent	
2635	1	torrents	
2636	1	tournant	
2637	1	tourner	
2638	1	toutefois	
2639	1	tragiques	
2640	1	trahie	
2641	1	trahir	
2642	1	trahison	
2643	1	trahissent	
2644	1	trahissons	
2645	1	tramez	
2646	1	tranchant	
2647	1	transportée	
2648	1	travailla	
2649	1	travaillant	
2650	1	travaille	
2651	1	travers	
2652	1	traînait	
2653	1	traîne	
2654	1	trembla	
2655	1	tremblait	
2656	1	tremblante	
2657	1	trempe	
2658	1	tremperai	
2659	1	tribun	
2660	1	tribune	
2661	1	triomphes	
2662	1	tristesse	
2663	1	trompes	
2664	1	trompé	
2665	1	tronc	
2666	1	troncs	
2667	1	troubler	
2668	1	troubles	
2669	1	troublé	
2670	1	troublée	
2671	1	troubléeb	
2672	1	trouvait	
2673	1	trouvera	
2674	1	trouverons	
2675	1	trésor	
2676	1	trêve	
2677	1	tuant	
2678	1	tuer	
2679	1	tyrans	
2680	1	témoignage	
2681	1	témoignait	
2682	1	témoins	
2683	1	téméraire	
2684	1	ténèbres	
2685	1	ténébreux	
2686	1	unanime	
2687	1	uni	
2688	1	unie	
2689	1	unir	
2690	1	unirait	
2691	1	unirent	
2692	1	usurpant	
2693	1	usurpateur	
2694	1	usurper	
2695	1	usurpé	
2696	1	utile	
2697	1	vaincre	
2698	1	vaincu	
2699	1	vaine	
2700	1	vainement	
2701	1	vains	
2702	1	vassal	
2703	1	vaste	
2704	1	vaut	
2705	1	veillait	
2706	1	veille	
2707	1	veines	
2708	1	venez	
2709	1	vengeait	
2710	1	vengera	
2711	1	vengerez	
2712	1	vengeront	
2713	1	venges	
2714	1	vengeur	
2715	1	vengeurs	
2716	1	vengez	
2717	1	venin	
2718	1	venir	
2719	1	ver	
2720	1	verra	
2721	1	verrons	
2722	1	verseriez	
2723	1	vestiges	
2724	1	veulent	
2725	1	victimaire	
2726	1	victorieux	
2727	1	vieillard	
2728	1	viendrait	
2729	1	viendront	
2730	1	vienne	
2731	1	vigueur	
2732	1	vil	
2733	1	vingt	
2734	1	violer	
2735	1	vipère	
2736	1	vis	
2737	1	vitale	
2738	1	vivantes	
2739	1	vivants	
2740	1	vivre	
2741	1	voeu	
2742	1	voici	
2743	1	voiles	
2744	1	voit	
2745	1	volais	
2746	1	volait	
2747	1	voleur	
2748	1	volé	
2749	1	voudra	
2750	1	voudrais	
2751	1	voulait	
2752	1	vouliez	
2753	1	voyage	
2754	1	voûte	
2755	1	voûtés	
2756	1	vulgaire	
2757	1	vulgaires	
2758	1	vus	
2759	1	vécut	
2760	1	véritable	
2761	1	véritablement	
2762	1	vîmes	
2763	1	zèle	
2764	1	âge	
2765	1	ébranle	
2766	1	ébranler	
2767	1	échange	
2768	1	échappant	
2769	1	échappe	
2770	1	échapper	
2771	1	échauffa	
2772	1	échauffé	
2773	1	écho	
2774	1	éclairs	
2775	1	éclatante	
2776	1	éclore	
2777	1	écoutée	
2778	1	écrasées	
2779	1	écrier	
2780	1	écrit	
2781	1	écueils	
2782	1	écume	
2783	1	écus	
2784	1	éleva	
2785	1	élevez	
2786	1	élevée	
2787	1	éloigner	
2788	1	élève	
2789	1	émeuve	
2790	1	émouvoir	
2791	1	émue	
2792	1	énerve	
2793	1	épaisseur	
2794	1	épargnerait	
2795	1	épargnes	
2796	1	épier	
2797	1	épouser	
2798	1	épouserai	
2799	1	épouserais	
2800	1	épouvantable	
2801	1	épouvantés	
2802	1	épreuve	
2803	1	éprouve	
2804	1	épuisez	
2805	1	épuisé	
2806	1	épée	
2807	1	équitable	
2808	1	étaient	
2809	1	étanchée	
2810	1	états	
2811	1	éteignez	
2812	1	éteindre	
2813	1	éteint	
2814	1	éteinte	
2815	1	étendue	
2816	1	étincelante	
2817	1	étonnent	
2818	1	étouffants	
2819	1	étouffe	
2820	1	étrange	
2821	1	étudie	
2822	1	évanouie	
2823	1	éveilla	
2824	1	éveiller	
2825	1	évente	
2826	1	évite	
2827	1	êtes	
2828	1	île	
2829	1	ôtait	
2830	1	ôter	
2831	1	ôtes	
