1,461,et
2,458,de
3,411,l
4,358,que
5,336,à
6,323,vous
7,320,en
8,311,il
9,305,un
10,283,d
11,283,qu
12,282,le
13,259,je
14,241,est
15,235,la
16,225,pour
17,187,ce
18,155,si
19,149,m
20,146,mon
21,141,n
22,136,ne
23,136,qui
24,128,j
25,123,son
26,122,me
27,121,ma
28,121,sa
29,119,a
30,114,dans
31,105,mais
32,105,s
33,93,par
34,91,les
35,90,plus
36,86,c
37,85,on
38,83,tout
39,82,moi
40,80,au
41,80,tu
42,79,coeur
43,77,lui
44,75,trop
45,74,elle
46,71,sans
47,67,amour
48,64,une
49,63,fait
50,63,peut
51,61,ai
52,59,ses
53,59,sur
54,59,votre
55,57,du
56,57,pas
57,57,quoi
58,54,se
59,53,voir
60,52,bien
61,50,rien
62,49,ton
63,46,empereur
64,46,y
65,44,nous
66,44,où
67,43,des
68,42,t
69,41,gloire
70,40,madame
71,39,être
72,38,point
73,38,ta
74,38,vertu
75,37,peu
76,35,enfin
77,35,laetus
78,35,mort
79,35,électus
80,34,avec
81,34,cette
82,34,même
83,33,dieux
84,32,ah
85,32,toujours
86,31,mes
87,31,quand
88,30,ait
89,30,doit
90,30,hymen
91,30,pu
92,30,seul
93,29,moins
94,29,toi
95,29,tyran
96,28,pouvoir
97,28,seigneur
98,28,zèle
99,28,âme
100,27,assez
101,27,crime
102,27,non
103,27,rome
104,27,te
105,27,vain
106,27,vois
107,27,vos
108,26,choix
109,26,ose
110,26,ou
111,26,trône
112,25,dont
113,25,espoir
114,25,helvie
115,25,sort
116,24,commode
117,24,dois
118,24,faire
119,24,faut
120,24,foi
121,23,aime
122,23,ces
123,23,cet
124,23,sang
125,23,éclat
126,22,flamme
127,22,leur
128,22,soeur
129,21,autre
130,21,encor
131,21,pertinax
132,21,su
133,20,comme
134,20,indigne
135,20,là
136,20,mieux
137,20,tes
138,19,avoir
139,19,contre
140,19,destin
141,19,eût
142,19,ici
143,19,jamais
144,19,oser
145,19,quelque
146,19,sais
147,19,vie
148,19,voeux
149,19,yeux
150,18,beau
151,18,coupable
152,18,déjà
153,18,jusqu
154,17,juste
155,17,ordre
156,17,orgueil
157,17,peine
158,17,suis
159,17,tant
160,17,veut
161,17,ô
162,16,aux
163,16,croire
164,16,doute
165,16,droit
166,16,empire
167,16,flavian
168,16,intérêt
169,16,malgré
170,16,toute
171,15,audace
172,15,aujourd
173,15,effet
174,15,grand
175,15,haine
176,15,horreur
177,15,hui
178,15,marcia
179,15,maître
180,15,nom
181,15,secret
182,14,ardeur
183,14,aussi
184,14,ciel
185,14,envie
186,14,fureur
187,14,glorieux
188,14,hélas
189,14,lâche
190,14,prix
191,14,puisque
192,14,punir
193,14,refus
194,13,devoir
195,13,donner
196,13,doux
197,13,feu
198,13,obéir
199,13,presse
200,13,rage
201,13,rang
202,13,tous
203,13,veux
204,12,bras
205,12,coup
206,12,courroux
207,12,craindre
208,12,dessein
209,12,jour
210,12,oui
211,12,rigueur
212,12,sentiments
213,12,soit
214,12,vient
215,12,voit
216,11,aimer
217,11,attentat
218,11,aurais
219,11,ayant
220,11,dû
221,11,effort
222,11,faiblesse
223,11,funeste
224,11,ils
225,11,main
226,11,mal
227,11,mériter
228,11,offre
229,11,ont
230,11,perdre
231,11,plein
232,11,puis
233,11,raison
234,11,souffrir
235,11,trahir
236,11,vu
237,11,vôtre
238,11,était
239,10,ainsi
240,10,aurait
241,10,aveu
242,10,avez
243,10,donc
244,10,estime
245,10,fais
246,10,faites
247,10,faveur
248,10,illustre
249,10,loin
250,10,montre
251,10,puisse
252,10,père
253,10,quel
254,10,quelle
255,10,redouter
256,10,respect
257,10,sait
258,10,sous
259,10,temps
260,10,va
261,10,viens
262,10,vrai
263,10,êtes
264,9,appas
265,9,apprête
266,9,arrêt
267,9,avais
268,9,cru
269,9,digne
270,9,donne
271,9,extrême
272,9,fier
273,9,force
274,9,honneur
275,9,injure
276,9,injustice
277,9,joie
278,9,jours
279,9,malheur
280,9,mérite
281,9,noble
282,9,offrir
283,9,outrage
284,9,porter
285,9,puisqu
286,9,rendre
287,9,sont
288,9,souffre
289,9,transport
290,9,état
291,8,assurer
292,8,belle
293,8,cent
294,8,cesse
295,8,connaître
296,8,contrainte
297,8,croit
298,8,désespoir
299,8,désirs
300,8,esprit
301,8,faible
302,8,fierté
303,8,fut
304,8,injuste
305,8,justice
306,8,laisse
307,8,lieu
308,8,mien
309,8,moment
310,8,paraître
311,8,part
312,8,prendre
313,8,prompt
314,8,rend
315,8,tel
316,8,tient
317,8,trouver
318,8,tête
319,8,vengeance
320,7,abandonne
321,7,apprendre
322,7,as
323,7,assurance
324,7,attendre
325,7,auprès
326,7,autres
327,7,braver
328,7,craint
329,7,crainte
330,7,crois
331,7,donné
332,7,douceur
333,7,défendre
334,7,déplaire
335,7,entreprise
336,7,forcer
337,7,grâce
338,7,hommage
339,7,ingrate
340,7,maux
341,7,nos
342,7,passion
343,7,poison
344,7,règle
345,7,sens
346,7,soins
347,7,soupçon
348,7,sénat
349,7,tien
350,7,tort
351,7,triomphe
352,7,univers
353,7,vouloir
354,7,voyez
355,7,été
356,6,ailleurs
357,6,après
358,6,aura
359,6,avait
360,6,avantage
361,6,barbare
362,6,bas
363,6,cause
364,6,cependant
365,6,chacun
366,6,combattre
367,6,connaît
368,6,crains
369,6,cruel
370,6,céder
371,6,deux
372,6,dit
373,6,désordre
374,6,engage
375,6,eut
376,6,eux
377,6,exposer
378,6,femme
379,6,fît
380,6,grands
381,6,heureux
382,6,honte
383,6,ingrat
384,6,jaloux
385,6,juger
386,6,jugez
387,6,lois
388,6,lorsque
389,6,mépris
390,6,ni
391,6,notre
392,6,obstacle
393,6,osais
394,6,osé
395,6,palais
396,6,parler
397,6,plaire
398,6,projets
399,6,prêt
400,6,rudes
401,6,secrets
402,6,servir
403,6,soi
404,6,soupir
405,6,souvent
406,6,succès
407,6,supplice
408,6,surprise
409,6,taire
410,6,tenir
411,6,titre
412,6,traître
413,6,trouble
414,6,trouve
415,6,venger
416,6,vers
417,6,voudrais
418,5,accable
419,5,alors
420,5,appui
421,5,aucun
422,5,avecque
423,5,aveugle
424,5,beaucoup
425,5,bonheur
426,5,capable
427,5,charme
428,5,combattu
429,5,connais
430,5,conseils
431,5,consentir
432,5,constance
433,5,cède
434,5,demande
435,5,demeure
436,5,dire
437,5,dites
438,5,erreur
439,5,espérance
440,5,espérer
441,5,exemple
442,5,expliquer
443,5,faux
444,5,feindre
445,5,flatter
446,5,font
447,5,forfaits
448,5,fuir
449,5,grandeur
450,5,impératrice
451,5,intéresse
452,5,loi
453,5,légitime
454,5,menace
455,5,monde
456,5,mourir
457,5,murmure
458,5,partager
459,5,partout
460,5,penser
461,5,perte
462,5,plaindre
463,5,pourrait
464,5,pouvez
465,5,premier
466,5,pressant
467,5,presser
468,5,princesse
469,5,pris
470,5,projet
471,5,prudence
472,5,puissance
473,5,pure
474,5,respects
475,5,réduite
476,5,sacrifice
477,5,saurait
478,5,savez
479,5,savoir
480,5,scrupule
481,5,sentiment
482,5,sera
483,5,sincère
484,5,sitôt
485,5,songe
486,5,soumis
487,5,soupire
488,5,suite
489,5,surpris
490,5,temple
491,5,transports
492,5,tyrans
493,5,vaine
494,5,vais
495,5,violence
496,5,voici
497,5,voulu
498,5,éclatant
499,5,élever
500,5,épargner
501,5,étant
502,4,abandonner
503,4,abord
504,4,admire
505,4,agir
506,4,aigrir
507,4,aller
508,4,ambition
509,4,amis
510,4,anime
511,4,apparence
512,4,applaudir
513,4,appréhende
514,4,assure
515,4,atteinte
516,4,attenter
517,4,auguste
518,4,avant
519,4,avis
520,4,avouerai
521,4,besoin
522,4,bienfaits
523,4,blâme
524,4,bout
525,4,bruit
526,4,celui
527,4,charmer
528,4,cherche
529,4,clémence
530,4,coeurs
531,4,colère
532,4,complaisance
533,4,conquête
534,4,conseil
535,4,content
536,4,cour
537,4,cours
538,4,cris
539,4,croyez
540,4,cruautés
541,4,demain
542,4,devant
543,4,devons
544,4,diadème
545,4,dis
546,4,douter
547,4,doutez
548,4,dès
549,4,déclarer
550,4,défaut
551,4,déguiser
552,4,emploie
553,4,emporte
554,4,empêcher
555,4,encore
556,4,enflamme
557,4,entière
558,4,entreprendre
559,4,envi
560,4,faisait
561,4,fatal
562,4,fidèle
563,4,fois
564,4,fût
565,4,hasarder
566,4,haut
567,4,haute
568,4,hautement
569,4,haïr
570,4,homme
571,4,honteux
572,4,humeur
573,4,injustes
574,4,intérêts
575,4,juge
576,4,julie
577,4,justes
578,4,justifier
579,4,longtemps
580,4,lorsqu
581,4,lâchement
582,4,manquer
583,4,mettre
584,4,montrer
585,4,motif
586,4,mérité
587,4,naissance
588,4,nature
589,4,nobles
590,4,noir
591,4,noire
592,4,nouvelle
593,4,nécessaire
594,4,objet
595,4,office
596,4,ordonne
597,4,ordres
598,4,oublier
599,4,paraît
600,4,parfait
601,4,parle
602,4,pense
603,4,permettre
604,4,peuple
605,4,peux
606,4,pieds
607,4,plaint
608,4,plutôt
609,4,porte
610,4,pouvant
611,4,pressé
612,4,préférer
613,4,refuser
614,4,regret
615,4,remède
616,4,rends
617,4,respecte
618,4,reste
619,4,reçu
620,4,rude
621,4,règne
622,4,régner
623,4,résout
624,4,satisfaire
625,4,semble
626,4,serait
627,4,serez
628,4,servie
629,4,seulement
630,4,seuls
631,4,songer
632,4,soudain
633,4,souffrez
634,4,soupirer
635,4,soupirs
636,4,soupçons
637,4,souvenir
638,4,suit
639,4,suprême
640,4,tendresse
641,4,tremble
642,4,triste
643,4,tâche
644,4,vif
645,4,éclater
646,4,étonne
647,4,ôte
648,3,abus
649,3,accorder
650,3,achever
651,3,actions
652,3,affront
653,3,afin
654,3,aimable
655,3,aimant
656,3,alarmer
657,3,allez
658,3,allons
659,3,amant
660,3,ambitieux
661,3,approche
662,3,aspire
663,3,assuré
664,3,atteint
665,3,attendez
666,3,avoue
667,3,avouer
668,3,balancer
669,3,belles
670,3,bientôt
671,3,brillante
672,3,charmé
673,3,commander
674,3,commence
675,3,complice
676,3,condamner
677,3,consent
678,3,contraint
679,3,courage
680,3,coûte
681,3,crimes
682,3,criminel
683,3,criminelle
684,3,daigné
685,3,dehors
686,3,depuis
687,3,desseins
688,3,disgrâce
689,3,dispense
690,3,dissimuler
691,3,droits
692,3,dédain
693,3,déguisements
694,3,déplaît
695,3,effets
696,3,empêche
697,3,ennui
698,3,entendre
699,3,entrepris
700,3,envoie
701,3,es
702,3,essai
703,3,estimer
704,3,expier
705,3,explique
706,3,exécuter
707,3,fasse
708,3,fausse
709,3,feinte
710,3,fers
711,3,fille
712,3,fils
713,3,fin
714,3,fière
715,3,forcez
716,3,forcé
717,3,fort
718,3,forte
719,3,foudre
720,3,fête
721,3,généreux
722,3,gêne
723,3,honneurs
724,3,honore
725,3,hyménée
726,3,immoler
727,3,infidèle
728,3,injurieux
729,3,innocent
730,3,insolence
731,3,inspire
732,3,laisser
733,3,laissé
734,3,leurs
735,3,liberté
736,3,lâcheté
737,3,maxime
738,3,maximes
739,3,mille
740,3,obstine
741,3,obéissance
742,3,odieux
743,3,oppose
744,3,oserai
745,3,outrager
746,3,parole
747,3,pensée
748,3,perd
749,3,permis
750,3,peur
751,3,pitié
752,3,plains
753,3,plaisir
754,3,pompe
755,3,pourquoi
756,3,pourrez
757,3,prenant
758,3,prend
759,3,prince
760,3,profond
761,3,promis
762,3,propice
763,3,prouver
764,3,préparer
765,3,prétendre
766,3,prévenir
767,3,prête
768,3,péril
769,3,quelques
770,3,regards
771,3,rendu
772,3,retire
773,3,régler
774,3,réponse
775,3,résister
776,3,résolu
777,3,secrète
778,3,sein
779,3,semblent
780,3,seule
781,3,soin
782,3,songez
783,3,souhaite
784,3,soumettre
785,3,soutenir
786,3,soutien
787,3,souverains
788,3,suffit
789,3,suivez
790,3,suivi
791,3,suivre
792,3,sujets
793,3,surprendre
794,3,sûr
795,3,tienne
796,3,tour
797,3,toutefois
798,3,toutes
799,3,trahi
800,3,trahison
801,3,tumulte
802,3,tôt
803,3,vaincre
804,3,vanité
805,3,venir
806,3,victime
807,3,victoire
808,3,vit
809,3,voudrait
810,3,voulez
811,3,vue
812,3,écoute
813,3,écouter
814,3,éteindre
815,3,éviter
816,2,abaissement
817,2,abaissée
818,2,abandonnée
819,2,abattre
820,2,absolu
821,2,abuser
822,2,accepter
823,2,accord
824,2,accroître
825,2,accuser
826,2,achève
827,2,acquitter
828,2,acquérir
829,2,adieu
830,2,adoucir
831,2,affecte
832,2,affreux
833,2,agit
834,2,aide
835,2,aigrit
836,2,aisé
837,2,ajouter
838,2,alarme
839,2,allégresse
840,2,altière
841,2,ami
842,2,amène
843,2,appelle
844,2,apprends
845,2,approuve
846,2,approuver
847,2,arbitre
848,2,armer
849,2,armé
850,2,arrache
851,2,arrête
852,2,arrêter
853,2,arrêté
854,2,art
855,2,ascendant
856,2,asservie
857,2,attache
858,2,attachée
859,2,attaquer
860,2,attend
861,2,atteste
862,2,attraits
863,2,aurai
864,2,aurèle
865,2,aussitôt
866,2,autant
867,2,auteurs
868,2,autoriser
869,2,autrui
870,2,avancé
871,2,avorter
872,2,ayez
873,2,balance
874,2,basse
875,2,beaux
876,2,bel
877,2,brigue
878,2,brigué
879,2,brille
880,2,briller
881,2,but
882,2,cacher
883,2,calme
884,2,certain
885,2,ceux
886,2,chagrin
887,2,chaleur
888,2,charmes
889,2,cher
890,2,chercher
891,2,chose
892,2,chère
893,2,combat
894,2,combats
895,2,commande
896,2,commandé
897,2,comment
898,2,commis
899,2,condamne
900,2,conduite
901,2,confidence
902,2,confier
903,2,confus
904,2,connu
905,2,conseillant
906,2,contemple
907,2,contraire
908,2,convaincre
909,2,conçois
910,2,conçoit
911,2,corrompre
912,2,couleurs
913,2,coups
914,2,couronner
915,2,craignez
916,2,crus
917,2,crédit
918,2,crût
919,2,césars
920,2,daignez
921,2,descendre
922,2,destine
923,2,destiné
924,2,destinée
925,2,devient
926,2,deviez
927,2,devoirs
928,2,devrait
929,2,dirai
930,2,doive
931,2,donnent
932,2,découvrir
933,2,dédaigne
934,2,défiance
935,2,déguisant
936,2,dépens
937,2,déplorable
938,2,dérober
939,2,détestable
940,2,efforts
941,2,embrasser
942,2,emploi
943,2,emplois
944,2,employer
945,2,emporter
946,2,enflammer
947,2,ennemi
948,2,entier
949,2,entre
950,2,esclave
951,2,espérez
952,2,eusse
953,2,examinant
954,2,examine
955,2,examiner
956,2,excès
957,2,expire
958,2,expirer
959,2,expliquent
960,2,expose
961,2,fallait
962,2,farouche
963,2,faveurs
964,2,fer
965,2,fera
966,2,ferveur
967,2,finir
968,2,flammes
969,2,flatte
970,2,fléchir
971,2,garant
972,2,garantir
973,2,goûter
974,2,guide
975,2,gêné
976,2,heure
977,2,hors
978,2,illégitime
979,2,image
980,2,impatiente
981,2,impitoyable
982,2,impuissance
983,2,impuissante
984,2,impérieux
985,2,indignes
986,2,inexorable
987,2,infâme
988,2,inhumaine
989,2,injustement
990,2,innocence
991,2,inquiet
992,2,inquiète
993,2,inutile
994,2,irrite
995,2,jalouse
996,2,janus
997,2,jette
998,2,joindre
999,2,jurer
1000,2,laisses
1001,2,lente
1002,2,lu
1003,2,lâches
1004,2,magnanime
1005,2,mains
1006,2,majesté
1007,2,malheureux
1008,2,malheurs
1009,2,manque
1010,2,marc
1011,2,marque
1012,2,maîtresse
1013,2,meilleurs
1014,2,met
1015,2,mets
1016,2,meurs
1017,2,meurtre
1018,2,mienne
1019,2,moindre
1020,2,montré
1021,2,mourant
1022,2,ménager
1023,2,méprisant
1024,2,noeuds
1025,2,noires
1026,2,noirs
1027,2,nommez
1028,2,nouveau
1029,2,nue
1030,2,oblige
1031,2,obstiner
1032,2,obtenir
1033,2,obtenu
1034,2,obéissez
1035,2,odieuse
1036,2,oeil
1037,2,offensée
1038,2,offert
1039,2,opprobre
1040,2,ordonner
1041,2,ordonnez
1042,2,ordonné
1043,2,osait
1044,2,oserais
1045,2,osât
1046,2,oubli
1047,2,outragé
1048,2,ouvert
1049,2,ouvrage
1050,2,ouvrir
1051,2,pardon
1052,2,pardonner
1053,2,parlez
1054,2,parts
1055,2,passe
1056,2,peines
1057,2,perfide
1058,2,personne
1059,2,pieux
1060,2,place
1061,2,plainte
1062,2,plaît
1063,2,pleine
1064,2,poignard
1065,2,pompeux
1066,2,portant
1067,2,porté
1068,2,pourra
1069,2,pourrai
1070,2,pourrais
1071,2,poursuit
1072,2,pouvais
1073,2,pouvait
1074,2,premiers
1075,2,prends
1076,2,presque
1077,2,pressera
1078,2,procédé
1079,2,profonde
1080,2,profonds
1081,2,promettre
1082,2,propose
1083,2,propre
1084,2,proscriptions
1085,2,provinces
1086,2,précipice
1087,2,précipiter
1088,2,prépare
1089,2,présume
1090,2,présumer
1091,2,prévoir
1092,2,prêts
1093,2,publique
1094,2,puissant
1095,2,punie
1096,2,punissant
1097,2,pur
1098,2,périr
1099,2,quels
1100,2,quitte
1101,2,raisons
1102,2,rebelle
1103,2,rebut
1104,2,redoublés
1105,2,refuse
1106,2,regagner
1107,2,regard
1108,2,regretter
1109,2,remets
1110,2,remettre
1111,2,remords
1112,2,rempli
1113,2,remplit
1114,2,rendent
1115,2,renonce
1116,2,repentir
1117,2,repos
1118,2,respecter
1119,2,respectueux
1120,2,respecté
1121,2,retenir
1122,2,retour
1123,2,revers
1124,2,rigoureux
1125,2,rougir
1126,2,récompense
1127,2,réduisez
1128,2,réduit
1129,2,réparer
1130,2,répond
1131,2,résolue
1132,2,résoudre
1133,2,sachant
1134,2,salut
1135,2,savons
1136,2,secourir
1137,2,secours
1138,2,sensible
1139,2,sent
1140,2,servi
1141,2,sois
1142,2,sollicite
1143,2,sorte
1144,2,souffrais
1145,2,souffrant
1146,2,souhaits
1147,2,soupires
1148,2,soupirez
1149,2,soupçonner
1150,2,soutenu
1151,2,soutiens
1152,2,soutient
1153,2,souverain
1154,2,souviens
1155,2,splendeur
1156,2,suivant
1157,2,suivie
1158,2,suivrait
1159,2,sujet
1160,2,surtout
1161,2,sévère
1162,2,sûreté
1163,2,tache
1164,2,tantôt
1165,2,tels
1166,2,tempête
1167,2,ternit
1168,2,terre
1169,2,tiens
1170,2,tomber
1171,2,touche
1172,2,tourment
1173,2,traits
1174,2,traité
1175,2,trame
1176,2,trembler
1177,2,triomphé
1178,2,trouverais
1179,2,trépas
1180,2,tyrannie
1181,2,tâché
1182,2,téméraire
1183,2,union
1184,2,unique
1185,2,usurpé
1186,2,vainqueur
1187,2,vains
1188,2,vanter
1189,2,vaste
1190,2,venez
1191,2,venge
1192,2,vengé
1193,2,verra
1194,2,vertus
1195,2,viennent
1196,2,vil
1197,2,vivre
1198,2,voie
1199,2,voix
1200,2,volonté
1201,2,voudrez
1202,2,voulait
1203,2,voulant
1204,2,voyais
1205,2,voyant
1206,2,vécu
1207,2,vôtres
1208,2,âmes
1209,2,éblouir
1210,2,éclatante
1211,2,éloigner
1212,2,élève
1213,2,épouser
1214,2,époux
1215,2,étaler
1216,2,étendre
1217,2,éternel
1218,1,abaissa
1219,1,abaissent
1220,1,abaisser
1221,1,abandonnais
1222,1,abandonnant
1223,1,abandonné
1224,1,abat
1225,1,abattue
1226,1,abuse
1227,1,abuserait
1228,1,abuses
1229,1,abusé
1230,1,abusés
1231,1,accablez
1232,1,accepté
1233,1,accident
1234,1,accompagner
1235,1,accomplisse
1236,1,accorde
1237,1,accordez
1238,1,accoutumées
1239,1,accroît
1240,1,accuse
1241,1,achevait
1242,1,achevez
1243,1,acquitterai
1244,1,acquitté
1245,1,acte
1246,1,admirais
1247,1,adore
1248,1,adorer
1249,1,adouci
1250,1,adoucisse
1251,1,adoucit
1252,1,adresse
1253,1,affaiblir
1254,1,affectons
1255,1,affermit
1256,1,affranchit
1257,1,affreuse
1258,1,affronte
1259,1,affronts
1260,1,agents
1261,1,agis
1262,1,agitations
1263,1,aidera
1264,1,aie
1265,1,aigreur
1266,1,aigrisse
1267,1,aimes
1268,1,aimez
1269,1,aimé
1270,1,aimée
1271,1,aisément
1272,1,ajoute
1273,1,alarmes
1274,1,alarmons
1275,1,alarmée
1276,1,allait
1277,1,altérer
1278,1,amener
1279,1,animait
1280,1,animant
1281,1,animer
1282,1,animés
1283,1,aperçois
1284,1,appareil
1285,1,applaudissements
1286,1,apporte
1287,1,apprenant
1288,1,apprendra
1289,1,appris
1290,1,approchant
1291,1,approché
1292,1,appréhendez
1293,1,appuyaient
1294,1,appuyant
1295,1,appuyez
1296,1,appuyât
1297,1,ardemment
1298,1,ardent
1299,1,ardente
1300,1,ardeurs
1301,1,arien
1302,1,armant
1303,1,arme
1304,1,armerait
1305,1,armes
1306,1,armée
1307,1,arracher
1308,1,arrive
1309,1,arriver
1310,1,arène
1311,1,aspirait
1312,1,aspirant
1313,1,aspiré
1314,1,assassine
1315,1,assauts
1316,1,assembler
1317,1,assidus
1318,1,assieds
1319,1,assise
1320,1,assouvir
1321,1,assurait
1322,1,attends
1323,1,attendu
1324,1,attentats
1325,1,attente
1326,1,attenté
1327,1,attire
1328,1,attirer
1329,1,auparavant
1330,1,auraient
1331,1,aurez
1332,1,auront
1333,1,auspices
1334,1,autorise
1335,1,autorisés
1336,1,autorité
1337,1,autrefois
1338,1,avaient
1339,1,avance
1340,1,avantages
1341,1,avarice
1342,1,aversion
1343,1,avertir
1344,1,avertirez
1345,1,aveugler
1346,1,aveugles
1347,1,aveuglée
1348,1,avions
1349,1,avons
1350,1,avorté
1351,1,avoua
1352,1,avouant
1353,1,avouez
1354,1,aïeux
1355,1,bannir
1356,1,barbarie
1357,1,bassesse
1358,1,beauté
1359,1,biens
1360,1,bizarre
1361,1,blanchi
1362,1,blanchir
1363,1,blasphémant
1364,1,blasphémer
1365,1,blesser
1366,1,blesseraient
1367,1,blâmer
1368,1,blâmez
1369,1,blâmé
1370,1,bon
1371,1,bonté
1372,1,bontés
1373,1,bord
1374,1,bornant
1375,1,borner
1376,1,bornera
1377,1,bourreaux
1378,1,brave
1379,1,breuvage
1380,1,brigues
1381,1,brillant
1382,1,brutale
1383,1,brûlants
1384,1,brûlât
1385,1,cache
1386,1,calmer
1387,1,captivant
1388,1,car
1389,1,caractère
1390,1,causent
1391,1,causés
1392,1,ceci
1393,1,celer
1394,1,celle
1395,1,censeur
1396,1,certaine
1397,1,cessant
1398,1,chanceler
1399,1,chancelle
1400,1,changer
1401,1,changez
1402,1,chaque
1403,1,charger
1404,1,charmant
1405,1,charmante
1406,1,charmants
1407,1,charmée
1408,1,chassent
1409,1,chasser
1410,1,chef
1411,1,chemin
1412,1,chemins
1413,1,cherchais
1414,1,cherchait
1415,1,cherchons
1416,1,choisi
1417,1,choisir
1418,1,choquer
1419,1,cieux
1420,1,citoyens
1421,1,comblerai
1422,1,commandez
1423,1,commencer
1424,1,commerce
1425,1,commettre
1426,1,commun
1427,1,commune
1428,1,comprendre
1429,1,compris
1430,1,compte
1431,1,compter
1432,1,concerté
1433,1,concevoir
1434,1,condamnable
1435,1,condamné
1436,1,condamnée
1437,1,confesse
1438,1,confiance
1439,1,confident
1440,1,confirmé
1441,1,confirmée
1442,1,confirmées
1443,1,confié
1444,1,confiée
1445,1,confondant
1446,1,confuse
1447,1,conjure
1448,1,conjurés
1449,1,connaissais
1450,1,connaissant
1451,1,connaîtrais
1452,1,connut
1453,1,consacre
1454,1,consacrer
1455,1,conseillais
1456,1,conseille
1457,1,conseiller
1458,1,conseillez
1459,1,consente
1460,1,consentez
1461,1,consentiez
1462,1,conservant
1463,1,conserver
1464,1,conservé
1465,1,considère
1466,1,considérer
1467,1,considérez
1468,1,conspirant
1469,1,conspiration
1470,1,conspirer
1471,1,conspiré
1472,1,consultant
1473,1,consulter
1474,1,contentant
1475,1,contenter
1476,1,contraindre
1477,1,contrains
1478,1,contretemps
1479,1,convainc
1480,1,convaincs
1481,1,convaincue
1482,1,convie
1483,1,conçu
1484,1,corrompent
1485,1,corrompu
1486,1,couler
1487,1,coupe
1488,1,couple
1489,1,couronnant
1490,1,couronne
1491,1,couronnée
1492,1,court
1493,1,couru
1494,1,coutume
1495,1,coûter
1496,1,craignais
1497,1,craindrais
1498,1,criminels
1499,1,croie
1500,1,croira
1501,1,croirai
1502,1,croiraient
1503,1,croirais
1504,1,croirait
1505,1,croirez
1506,1,croiriez
1507,1,croyais
1508,1,croyant
1509,1,croître
1510,1,cruauté
1511,1,cruelle
1512,1,crédule
1513,1,crédulité
1514,1,crûtes
1515,1,cèle
1516,1,cédant
1517,1,célébrez
1518,1,cérémonie
1519,1,côtés
1520,1,davantage
1521,1,delà
1522,1,demandant
1523,1,demandez
1524,1,demeurant
1525,1,demeurez
1526,1,demi
1527,1,dernier
1528,1,derniers
1529,1,descend
1530,1,dessus
1531,1,destinait
1532,1,destinez
1533,1,destins
1534,1,destructions
1535,1,devaient
1536,1,devais
1537,1,devait
1538,1,devez
1539,1,deviné
1540,1,devrais
1541,1,devînt
1542,1,diffamé
1543,1,difficilement
1544,1,différence
1545,1,différents
1546,1,différé
1547,1,dignes
1548,1,dignité
1549,1,dirais
1550,1,dirait
1551,1,direz
1552,1,disait
1553,1,discret
1554,1,dise
1555,1,dispenser
1556,1,disposer
1557,1,disposeront
1558,1,disputent
1559,1,disputer
1560,1,divers
1561,1,divin
1562,1,doivent
1563,1,domine
1564,1,donnerait
1565,1,donneras
1566,1,donnez
1567,1,donniez
1568,1,donnés
1569,1,douce
1570,1,douterais
1571,1,douteux
1572,1,due
1573,1,dur
1574,1,décharger
1575,1,déclare
1576,1,déclarés
1577,1,découverte
1578,1,décret
1579,1,dédaigner
1580,1,dédaignes
1581,1,dédaignez
1582,1,dédire
1583,1,défends
1584,1,déférence
1585,1,dégage
1586,1,dégager
1587,1,dégagé
1588,1,déguise
1589,1,déguisiez
1590,1,délivrer
1591,1,démente
1592,1,démentirai
1593,1,dépend
1594,1,dépendait
1595,1,dépit
1596,1,déploie
1597,1,déplu
1598,1,dépouiller
1599,1,dépouillé
1600,1,dépouillées
1601,1,dérobe
1602,1,dérobent
1603,1,désarmer
1604,1,désaveu
1605,1,désavouons
1606,1,déshonorant
1607,1,désir
1608,1,détermine
1609,1,déteste
1610,1,détourner
1611,1,efforçait
1612,1,effroi
1613,1,embarras
1614,1,embarrasser
1615,1,emparé
1616,1,empereurs
1617,1,emploierais
1618,1,employais
1619,1,emportement
1620,1,emportements
1621,1,emportes
1622,1,empressements
1623,1,empresserait
1624,1,empruntait
1625,1,empêcherai
1626,1,empêcheraient
1627,1,enfants
1628,1,enfer
1629,1,enflé
1630,1,engagement
1631,1,engagent
1632,1,engager
1633,1,ennemis
1634,1,ennoblir
1635,1,ennuis
1636,1,enorgueillis
1637,1,enrichir
1638,1,ensevelie
1639,1,ensuite
1640,1,entassant
1641,1,entièrement
1642,1,entières
1643,1,entreprend
1644,1,entreprenne
1645,1,entretenir
1646,1,entretien
1647,1,entretiens
1648,1,entré
1649,1,enveloppés
1650,1,envier
1651,1,erreurs
1652,1,esclavage
1653,1,escorte
1654,1,estimant
1655,1,eu
1656,1,eus
1657,1,exactement
1658,1,examinai
1659,1,excitaient
1660,1,excite
1661,1,exciter
1662,1,excusent
1663,1,exercent
1664,1,expié
1665,1,exploits
1666,1,exposerait
1667,1,exposé
1668,1,exposée
1669,1,expresses
1670,1,exprès
1671,1,expérience
1672,1,extrémité
1673,1,exécuterai
1674,1,exécutez
1675,1,exécuté
1676,1,facile
1677,1,faibles
1678,1,faisant
1679,1,faisons
1680,1,faits
1681,1,fard
1682,1,fasses
1683,1,faudrait
1684,1,faustine
1685,1,favoriser
1686,1,feins
1687,1,feint
1688,1,ferais
1689,1,feras
1690,1,feriez
1691,1,ferme
1692,1,feux
1693,1,fidélité
1694,1,finissant
1695,1,fis
1696,1,fières
1697,1,flanc
1698,1,flattant
1699,1,flatté
1700,1,flexible
1701,1,fléchit
1702,1,folle
1703,1,folles
1704,1,fondre
1705,1,fondés
1706,1,forcerait
1707,1,forces
1708,1,forcée
1709,1,fortes
1710,1,força
1711,1,forçait
1712,1,forçant
1713,1,foule
1714,1,fournir
1715,1,frapper
1716,1,frappés
1717,1,froideur
1718,1,front
1719,1,frère
1720,1,frémit
1721,1,fuite
1722,1,furieux
1723,1,fus
1724,1,fusses
1725,1,fussiez
1726,1,fuyant
1727,1,fuyez
1728,1,gagner
1729,1,gagné
1730,1,garants
1731,1,garde
1732,1,gardez
1733,1,gardés
1734,1,glace
1735,1,gladiateur
1736,1,gladiateurs
1737,1,gouffre
1738,1,goûte
1739,1,grandeurs
1740,1,gratitude
1741,1,gré
1742,1,guidées
1743,1,gémit
1744,1,généreuse
1745,1,gêner
1746,1,gênes
1747,1,gênée
1748,1,hais
1749,1,hait
1750,1,hardie
1751,1,hasard
1752,1,hasarde
1753,1,hauts
1754,1,haï
1755,1,haïssez
1756,1,heureuse
1757,1,heureusement
1758,1,hier
1759,1,histoire
1760,1,hommes
1761,1,honorer
1762,1,hâter
1763,1,hé
1764,1,idées
1765,1,ignorance
1766,1,ignore
1767,1,ignorez
1768,1,imagines
1769,1,imiter
1770,1,immolant
1771,1,immuable
1772,1,imparfait
1773,1,impatience
1774,1,impatient
1775,1,impie
1776,1,important
1777,1,importants
1778,1,importun
1779,1,importuns
1780,1,imprudence
1781,1,impuissant
1782,1,imputer
1783,1,incapable
1784,1,incertain
1785,1,incertaine
1786,1,incessamment
1787,1,inconnu
1788,1,inconstance
1789,1,inconstant
1790,1,indignation
1791,1,indignité
1792,1,indiscret
1793,1,indispensable
1794,1,indomptable
1795,1,indubitable
1796,1,indulgence
1797,1,indépendant
1798,1,infatigable
1799,1,infidélité
1800,1,inflexible
1801,1,infortuné
1802,1,infâmes
1803,1,ingratitude
1804,1,inhumain
1805,1,inhumains
1806,1,inquiéter
1807,1,insensible
1808,1,insigne
1809,1,inspirer
1810,1,inspiriez
1811,1,insu
1812,1,intelligence
1813,1,interdit
1814,1,intéressant
1815,1,inutilement
1816,1,inébranlable
1817,1,inévitable
1818,1,irait
1819,1,irrité
1820,1,irrésolu
1821,1,irrésolue
1822,1,jeter
1823,1,jeté
1824,1,joins
1825,1,joug
1826,1,jouir
1827,1,jouisse
1828,1,jugeant
1829,1,jugera
1830,1,juré
1831,1,jusques
1832,1,justement
1833,1,justifiant
1834,1,justifié
1835,1,laissa
1836,1,laissant
1837,1,laissez
1838,1,languit
1839,1,laver
1840,1,limité
1841,1,lis
1842,1,lit
1843,1,livrez
1844,1,longs
1845,1,longue
1846,1,lors
1847,1,lucie
1848,1,lucilla
1849,1,lustre
1850,1,lâchetés
1851,1,légèreté
1852,1,malaisé
1853,1,maligne
1854,1,maltraité
1855,1,manie
1856,1,manquait
1857,1,marche
1858,1,marcher
1859,1,marquaient
1860,1,marquer
1861,1,marques
1862,1,marqué
1863,1,matière
1864,1,matières
1865,1,menaces
1866,1,mettez
1867,1,meure
1868,1,meurt
1869,1,miens
1870,1,miracles
1871,1,mis
1872,1,mise
1873,1,modérer
1874,1,moeurs
1875,1,moindres
1876,1,moitié
1877,1,molle
1878,1,monte
1879,1,monter
1880,1,montez
1881,1,montraient
1882,1,montrez
1883,1,montrés
1884,1,morte
1885,1,mot
1886,1,mouvements
1887,1,moyen
1888,1,moyens
1889,1,murmures
1890,1,mutins
1891,1,médite
1892,1,mémoire
1893,1,méprisez
1894,1,méritais
1895,1,méritant
1896,1,méritée
1897,1,mêle
1898,1,naturel
1899,1,naît
1900,1,naître
1901,1,noblement
1902,1,noeud
1903,1,noircissait
1904,1,nommer
1905,1,nommes
1906,1,nommiez
1907,1,nouveaux
1908,1,nuit
1909,1,nuls
1910,1,né
1911,1,née
1912,1,nôtre
1913,1,objets
1914,1,obligation
1915,1,obliger
1916,1,obscur
1917,1,obscurité
1918,1,observe
1919,1,obstacles
1920,1,obstinez
1921,1,obstiné
1922,1,obstinée
1923,1,obteniez
1924,1,obtiendra
1925,1,obtiennent
1926,1,obéirez
1927,1,obéisse
1928,1,occasion
1929,1,occasions
1930,1,offense
1931,1,offenses
1932,1,officieux
1933,1,offrait
1934,1,offrant
1935,1,ombre
1936,1,opposait
1937,1,oppressée
1938,1,opprime
1939,1,ordonnait
1940,1,ordonniez
1941,1,ordonnèrent
1942,1,ordonnés
1943,1,oreille
1944,1,orgueilleuse
1945,1,orgueilleux
1946,1,osa
1947,1,osez
1948,1,osiez
1949,1,oublierai
1950,1,oubliez
1951,1,outragée
1952,1,outre
1953,1,ouvrages
1954,1,ouvrait
1955,1,ouvre
1956,1,paix
1957,1,parais
1958,1,paraîtrait
1959,1,pareil
1960,1,pareils
1961,1,parfaite
1962,1,parlant
1963,1,parliez
1964,1,parlé
1965,1,parmi
1966,1,parricide
1967,1,partage
1968,1,partagerait
1969,1,parti
1970,1,paru
1971,1,parut
1972,1,passerait
1973,1,passions
1974,1,patrie
1975,1,peindraient
1976,1,peins
1977,1,pensez
1978,1,pensées
1979,1,perce
1980,1,percer
1981,1,perdant
1982,1,perds
1983,1,perdues
1984,1,perfidie
1985,1,permettait
1986,1,persuader
1987,1,perçant
1988,1,pillées
1989,1,piqué
1990,1,pitoyable
1991,1,placer
1992,1,placé
1993,1,plaignant
1994,1,plaignez
1995,1,plaindrait
1996,1,plausible
1997,1,pleinement
1998,1,pleurer
1999,1,plût
2000,1,poids
2001,1,pompes
2002,1,portait
2003,1,portent
2004,1,possession
2005,1,possible
2006,1,pourtant
2007,1,pourvu
2008,1,pousse
2009,1,pousses
2010,1,poussez
2011,1,pouvoirs
2012,1,pouvons
2013,1,prenait
2014,1,prendraient
2015,1,prenez
2016,1,prescrire
2017,1,pressaient
2018,1,pressais
2019,1,pressantes
2020,1,pressentir
2021,1,pressez
2022,1,prie
2023,1,prier
2024,1,prit
2025,1,privant
2026,1,priver
2027,1,prière
2028,1,prié
2029,1,proclamé
2030,1,produire
2031,1,proie
2032,1,projeté
2033,1,promet
2034,1,promettait
2035,1,promettez
2036,1,prompte
2037,1,promptitude
2038,1,prononce
2039,1,prononcer
2040,1,proprement
2041,1,proscrire
2042,1,proscrit
2043,1,protecteurs
2044,1,précieux
2045,1,précipite
2046,1,préfères
2047,1,préférence
2048,1,préparé
2049,1,présence
2050,1,présents
2051,1,présumiez
2052,1,prétend
2053,1,prétendrait
2054,1,prétexte
2055,1,prétextes
2056,1,prévenant
2057,1,prévenu
2058,1,prévoyant
2059,1,prévu
2060,1,prêtera
2061,1,public
2062,1,publier
2063,1,publiera
2064,1,publié
2065,1,puissants
2066,1,puni
2067,1,punition
2068,1,pureté
2069,1,purge
2070,1,purger
2071,1,purgera
2072,1,pénètre
2073,1,pénétrer
2074,1,pénétré
2075,1,périrai
2076,1,périsse
2077,1,pût
2078,1,quiconque
2079,1,quittant
2080,1,quitter
2081,1,quittez
2082,1,quittiez
2083,1,quoiqu
2084,1,quoique
2085,1,ramassées
2086,1,rappelez
2087,1,rarement
2088,1,ravage
2089,1,rayon
2090,1,recevoir
2091,1,reconnaître
2092,1,recourir
2093,1,recule
2094,1,reculer
2095,1,redouble
2096,1,redoubler
2097,1,redoublât
2098,1,redoutable
2099,1,redoutez
2100,1,redouté
2101,1,refroidi
2102,1,refusait
2103,1,refusent
2104,1,refusiez
2105,1,regardant
2106,1,regarde
2107,1,regardions
2108,1,rejeter
2109,1,rejetez
2110,1,rejette
2111,1,rejeté
2112,1,relever
2113,1,relevé
2114,1,relâchant
2115,1,relâche
2116,1,remis
2117,1,remplir
2118,1,remplissent
2119,1,remplissons
2120,1,remporté
2121,1,renaît
2122,1,rende
2123,1,rendez
2124,1,rendons
2125,1,rendra
2126,1,rendrai
2127,1,rendront
2128,1,rendus
2129,1,renonçant
2130,1,rentre
2131,1,repousse
2132,1,reproche
2133,1,reprocher
2134,1,respirer
2135,1,ressemblance
2136,1,ressentiment
2137,1,ressentir
2138,1,restera
2139,1,restes
2140,1,resté
2141,1,retardement
2142,1,retraite
2143,1,revoir
2144,1,revêtu
2145,1,revêtus
2146,1,reçoit
2147,1,reçue
2148,1,reçus
2149,1,rigueurs
2150,1,rival
2151,1,romain
2152,1,romaine
2153,1,rompre
2154,1,rougiras
2155,1,rougis
2156,1,récompenser
2157,1,réduis
2158,1,réglait
2159,1,réglerai
2160,1,régnait
2161,1,répandre
2162,1,répandu
2163,1,répandues
2164,1,répondent
2165,1,répondre
2166,1,réponds
2167,1,répéter
2168,1,réserve
2169,1,résistance
2170,1,résiste
2171,1,résolution
2172,1,réussir
2173,1,réveillent
2174,1,révoltés
2175,1,révoquer
2176,1,révère
2177,1,rêver
2178,1,sachons
2179,1,sacrifiais
2180,1,sacrifices
2181,1,sacrifier
2182,1,sacré
2183,1,sacrés
2184,1,saisi
2185,1,saisit
2186,1,sanglant
2187,1,sanglants
2188,1,satisfait
2189,1,satisfaite
2190,1,saura
2191,1,sauver
2192,1,sauvé
2193,1,sceptre
2194,1,science
2195,1,second
2196,1,secondant
2197,1,secondent
2198,1,seconder
2199,1,seconds
2200,1,secondés
2201,1,secrètement
2202,1,secrètes
2203,1,selon
2204,1,sembles
2205,1,sentant
2206,1,sente
2207,1,senti
2208,1,sentier
2209,1,sentir
2210,1,serai
2211,1,serais
2212,1,seras
2213,1,serments
2214,1,sers
2215,1,servant
2216,1,serve
2217,1,servent
2218,1,service
2219,1,sexe
2220,1,sied
2221,1,sien
2222,1,sienne
2223,1,siens
2224,1,signaler
2225,1,signe
2226,1,signer
2227,1,signerai
2228,1,silence
2229,1,sincérité
2230,1,soient
2231,1,soldats
2232,1,solide
2233,1,songeant
2234,1,sortir
2235,1,souci
2236,1,soufferts
2237,1,souffres
2238,1,souffrit
2239,1,souffrons
2240,1,souhaiter
2241,1,souillé
2242,1,soulage
2243,1,soupira
2244,1,soupirant
2245,1,soupçonné
2246,1,soupçonnée
2247,1,sourd
2248,1,soutenait
2249,1,souveraine
2250,1,soyez
2251,1,spectacle
2252,1,statuts
2253,1,sublime
2254,1,suborneur
2255,1,succombe
2256,1,sue
2257,1,suffisait
2258,1,suffrage
2259,1,suivent
2260,1,suivis
2261,1,suivit
2262,1,suivra
2263,1,suivraient
2264,1,superbes
2265,1,surmonte
2266,1,suscitée
2267,1,suspect
2268,1,suspecte
2269,1,suspendre
2270,1,suspendu
2271,1,séduire
2272,1,séduit
2273,1,sévères
2274,1,sévérité
2275,1,tablettes
2276,1,tandis
2277,1,tarder
2278,1,telle
2279,1,tempêtes
2280,1,tenais
2281,1,tendre
2282,1,tenez
2283,1,tenons
2284,1,tenter
2285,1,tenté
2286,1,tiendrai
2287,1,tire
2288,1,tombe
2289,1,tonnerre
2290,1,toucher
2291,1,trahissent
2292,1,traitable
2293,1,traitais
2294,1,traiter
2295,1,trajan
2296,1,tremper
2297,1,tribut
2298,1,triompher
2299,1,triomphes
2300,1,tristement
2301,1,tristesse
2302,1,trompe
2303,1,tromper
2304,1,trompeur
2305,1,trompé
2306,1,troublant
2307,1,troubler
2308,1,troupe
2309,1,trouvait
2310,1,trouvera
2311,1,trouves
2312,1,trônes
2313,1,tue
2314,1,tyrannise
2315,1,tâchait
2316,1,témoignage
2317,1,témoins
2318,1,têtes
2319,1,uni
2320,1,unir
2321,1,unis
2322,1,user
2323,1,usurper
2324,1,vainc
2325,1,vas
2326,1,vaut
2327,1,veines
2328,1,vendre
2329,1,vengeur
2330,1,vengée
2331,1,venu
2332,1,verraient
2333,1,verrez
2334,1,verriez
2335,1,verser
2336,1,vertueux
2337,1,veuille
2338,1,veulent
2339,1,victimes
2340,1,vieillis
2341,1,viendrons
2342,1,vieux
2343,1,vigueur
2344,1,ville
2345,1,vils
2346,1,violent
2347,1,violenter
2348,1,violée
2349,1,visage
2350,1,vive
2351,1,vivrai
2352,1,voilà
2353,1,vole
2354,1,volontés
2355,1,vomir
2356,1,voudra
2357,1,voudraient
2358,1,voudras
2359,1,voyons
2360,1,vraiment
2361,1,véritable
2362,1,âge
2363,1,âpre
2364,1,éblouiront
2365,1,éblouit
2366,1,ébranlé
2367,1,échappe
2368,1,échappé
2369,1,éclatantes
2370,1,éclatants
2371,1,écoutai
2372,1,écoutiez
2373,1,écouté
2374,1,écrit
2375,1,écriée
2376,1,égalent
2377,1,égare
2378,1,élevant
2379,1,élevé
2380,1,éloigne
2381,1,éloignement
2382,1,éloignons
2383,1,élu
2384,1,émouvoir
2385,1,ému
2386,1,émue
2387,1,épargne
2388,1,épargnât
2389,1,épargné
2390,1,épousé
2391,1,éprouver
2392,1,équipage
2393,1,établit
2394,1,étaient
2395,1,étais
2396,1,étale
2397,1,étende
2398,1,étonnant
2399,1,étonnent
2400,1,étonnée
2401,1,étouffer
2402,1,étouffé
2403,1,étroit
2404,1,évite
2405,1,ôtait
2406,1,ôtent
2407,1,ôterai
