1,424,vous
2,380,de
3,366,je
4,343,est
5,296,que
6,285,et
7,271,il
8,248,l
9,235,en
10,222,qu
11,221,à
12,215,d
13,211,le
14,204,un
15,197,n
16,184,ce
17,180,ne
18,175,j
19,172,pour
20,171,la
21,146,si
22,136,elle
23,131,m
24,129,me
25,128,mais
26,126,bien
27,126,tu
28,121,ai
29,119,pas
30,115,c
31,110,mon
32,108,qui
33,102,plus
34,101,on
35,98,tout
36,96,a
37,91,moi
38,87,monsieur
39,86,sans
40,82,lui
41,76,rien
42,72,au
43,72,son
44,70,nous
45,70,s
46,66,ma
47,66,peut
48,64,sa
49,63,point
50,62,une
51,61,fait
52,57,être
53,56,votre
54,53,les
55,53,trop
56,50,avec
57,50,faire
58,48,des
59,47,y
60,46,donc
61,46,isabelle
62,46,quoi
63,46,se
64,46,t
65,45,du
66,45,par
67,44,encor
68,44,fille
69,44,non
70,43,veux
71,42,enfin
72,41,voir
73,40,eh
74,39,coeur
75,39,là
76,38,même
77,37,ah
78,37,dire
79,36,moins
80,36,peu
81,35,te
82,34,amour
83,34,dans
84,34,père
85,34,suis
86,33,comme
87,32,cela
88,32,crois
89,32,quel
90,32,ton
91,31,mieux
92,31,où
93,31,sais
94,30,marquis
95,29,bon
96,28,fort
97,28,grand
98,28,mes
99,28,quelque
100,27,dit
101,27,madame
102,26,après
103,26,dis
104,26,faut
105,26,laurette
106,26,soin
107,25,ainsi
108,25,aussi
109,25,homme
110,25,tant
111,24,cousin
112,24,jamais
113,24,époux
114,23,cette
115,23,maître
116,23,mère
117,22,aime
118,22,mort
119,22,oui
120,22,sur
121,20,assez
122,20,encore
123,20,puis
124,20,vu
125,19,avait
126,19,mal
127,19,pu
128,19,ta
129,19,va
130,19,vois
131,19,était
132,18,ces
133,18,deux
134,18,dont
135,18,doux
136,18,esprit
137,18,ici
138,18,veut
139,18,vrai
140,17,avez
141,17,avoir
142,17,doute
143,17,maîtresse
144,17,ou
145,17,quand
146,17,ses
147,17,toi
148,17,vient
149,16,autre
150,16,billet
151,16,fut
152,16,jusqu
153,16,soins
154,16,sont
155,16,surtout
156,16,toujours
157,15,comment
158,15,contre
159,15,honneur
160,15,importe
161,15,jeune
162,15,notre
163,15,parler
164,15,secret
165,15,tous
166,14,abord
167,14,acante
168,14,ans
169,14,aurais
170,14,bonne
171,14,fais
172,14,ingrate
173,14,ont
174,14,peine
175,14,serait
176,14,temps
177,14,vos
178,14,âme
179,13,champagne
180,13,choix
181,13,croire
182,13,fils
183,13,fois
184,13,grâce
185,13,pourrait
186,13,soit
187,13,tort
188,13,âge
189,12,aimer
190,12,as
191,12,beau
192,12,belle
193,12,cet
194,12,chez
195,12,dieu
196,12,dès
197,12,dépit
198,12,extrême
199,12,eût
200,12,foi
201,12,gens
202,12,honte
203,12,laisse
204,12,pourquoi
205,12,sortir
206,12,êtes
207,11,allez
208,11,aux
209,11,doit
210,11,ils
211,11,jeunesse
212,11,monde
213,11,pense
214,11,plaît
215,11,savoir
216,11,su
217,11,vieillard
218,10,beaucoup
219,10,cent
220,10,entre
221,10,eu
222,10,galant
223,10,jour
224,10,laissez
225,10,peur
226,10,plaire
227,10,vieux
228,10,voyez
229,10,yeux
230,9,adresse
231,9,ait
232,9,ami
233,9,chambre
234,9,colère
235,9,dessus
236,9,déjà
237,9,entends
238,9,mari
239,9,page
240,9,parle
241,9,prendre
242,9,sait
243,9,sorte
244,9,tel
245,9,tendresse
246,9,toute
247,9,trouve
248,9,vais
249,9,vaut
250,9,voilà
251,9,épouser
252,8,argent
253,8,art
254,8,aujourd
255,8,beauté
256,8,besoin
257,8,chose
258,8,ciel
259,8,connaître
260,8,croyez
261,8,cru
262,8,dites
263,8,effet
264,8,hui
265,8,hélas
266,8,manteau
267,8,pourriez
268,8,regret
269,8,rival
270,8,savez
271,8,taire
272,8,veuve
273,8,voici
274,8,voulez
275,7,allons
276,7,amis
277,7,appas
278,7,bas
279,7,bientôt
280,7,cependant
281,7,certain
282,7,chagrin
283,7,coup
284,7,courroux
285,7,douleur
286,7,défunt
287,7,engage
288,7,faites
289,7,ferai
290,7,fût
291,7,guère
292,7,haine
293,7,laisser
294,7,malgré
295,7,mystère
296,7,nos
297,7,ose
298,7,parlez
299,7,parlé
300,7,prenez
301,7,près
302,7,rendez
303,7,sage
304,7,scrupule
305,7,soir
306,7,sort
307,7,trouble
308,7,trouver
309,7,vue
310,7,étant
311,6,affaire
312,6,ailleurs
313,6,amant
314,6,ardeur
315,6,aurait
316,6,auriez
317,6,autant
318,6,avais
319,6,chercher
320,6,consoler
321,6,cour
322,6,davantage
323,6,dessein
324,6,dois
325,6,donner
326,6,espère
327,6,faible
328,6,famille
329,6,façon
330,6,fit
331,6,font
332,6,heureux
333,6,ingrat
334,6,longtemps
335,6,mariage
336,6,mettre
337,6,mépris
338,6,nom
339,6,petit
340,6,peux
341,6,porte
342,6,pourrais
343,6,pouvoir
344,6,prie
345,6,puisqu
346,6,quelle
347,6,querelle
348,6,raisons
349,6,rendre
350,6,retire
351,6,retour
352,6,sera
353,6,seul
354,6,tiens
355,6,trahir
356,6,vie
357,6,vouloir
358,5,aimez
359,5,air
360,5,aisément
361,5,amants
362,5,aucun
363,5,aurai
364,5,autrement
365,5,avance
366,5,aveu
367,5,aviez
368,5,bonheur
369,5,bout
370,5,celui
371,5,chère
372,5,coeurs
373,5,compte
374,5,conseils
375,5,courage
376,5,croit
377,5,douter
378,5,effort
379,5,entendre
380,5,entrer
381,5,esclavage
382,5,espérance
383,5,eus
384,5,faiblesse
385,5,fasse
386,5,faute
387,5,faux
388,5,faveur
389,5,feu
390,5,gloire
391,5,honnête
392,5,jours
393,5,juste
394,5,leur
395,5,lieu
396,5,lieux
397,5,malheur
398,5,morbleu
399,5,ni
400,5,oh
401,5,oser
402,5,passe
403,5,personne
404,5,pitié
405,5,plaisir
406,5,prix
407,5,quelqu
408,5,rend
409,5,sert
410,5,servir
411,5,seule
412,5,sexe
413,5,souhaite
414,5,sous
415,5,souvent
416,5,sûr
417,5,tôt
418,5,venger
419,5,viens
420,5,vivre
421,5,voeux
422,5,vérité
423,5,étais
424,5,état
425,4,adieu
426,4,aimable
427,4,amitié
428,4,arrête
429,4,assurer
430,4,assurément
431,4,auprès
432,4,autrefois
433,4,avertir
434,4,avis
435,4,avoue
436,4,beaux
437,4,brave
438,4,brouiller
439,4,changer
440,4,chaque
441,4,cherche
442,4,compliment
443,4,conduit
444,4,confondre
445,4,connais
446,4,cours
447,4,craindre
448,4,crains
449,4,côté
450,4,dernier
451,4,die
452,4,empire
453,4,empêcher
454,4,ensemble
455,4,espoir
456,4,feint
457,4,femme
458,4,fond
459,4,fâcheux
460,4,galanterie
461,4,garde
462,4,garder
463,4,grande
464,4,grands
465,4,gris
466,4,huit
467,4,hymen
468,4,importance
469,4,infidèle
470,4,intérêt
471,4,laissons
472,4,louis
473,4,lâche
474,4,main
475,4,maintenant
476,4,matin
477,4,maux
478,4,mentir
479,4,mille
480,4,mis
481,4,moindre
482,4,mot
483,4,mots
484,4,mou
485,4,moyen
486,4,noeuds
487,4,nouveau
488,4,nouvelle
489,4,nul
490,4,objet
491,4,oublier
492,4,paraître
493,4,passé
494,4,pauvre
495,4,perd
496,4,perdre
497,4,perte
498,4,possible
499,4,pourtant
500,4,pouvez
501,4,premier
502,4,première
503,4,pris
504,4,promis
505,4,puisse
506,4,quels
507,4,raison
508,4,reste
509,4,saurais
510,4,saviez
511,4,second
512,4,sens
513,4,seulement
514,4,simple
515,4,songe
516,4,songer
517,4,sot
518,4,soupçon
519,4,sujet
520,4,surpris
521,4,tard
522,4,tendre
523,4,tes
524,4,tienne
525,4,tient
526,4,titre
527,4,touche
528,4,tour
529,4,toutefois
530,4,trahison
531,4,transport
532,4,trouvez
533,4,tâche
534,4,témoin
535,4,venez
536,4,voit
537,4,volage
538,4,voudrait
539,4,voulu
540,4,vraiment
541,4,éclairci
542,4,étiez
543,4,été
544,3,accord
545,3,afin
546,3,aider
547,3,amuser
548,3,arracher
549,3,assurance
550,3,atteinte
551,3,attendez
552,3,attendre
553,3,attraits
554,3,avons
555,3,ayant
556,3,bruit
557,3,cabinet
558,3,cacher
559,3,cas
560,3,charme
561,3,combat
562,3,content
563,3,conter
564,3,couvrir
565,3,craignez
566,3,crue
567,3,crédit
568,3,cède
569,3,dedans
570,3,degré
571,3,devait
572,3,devez
573,3,dirai
574,3,donne
575,3,douce
576,3,doucement
577,3,douceurs
578,3,défendre
579,3,défends
580,3,dépense
581,3,désespoir
582,3,désire
583,3,désormais
584,3,empressement
585,3,enfant
586,3,enfermer
587,3,ensuite
588,3,envie
589,3,erreur
590,3,es
591,3,espérer
592,3,estime
593,3,faits
594,3,fallait
595,3,ferez
596,3,flamme
597,3,fortune
598,3,franchement
599,3,fus
600,3,goût
601,3,gré
602,3,gueux
603,3,haïr
604,3,hier
605,3,hommes
606,3,honteux
607,3,hors
608,3,humeur
609,3,inconstante
610,3,indigne
611,3,innocence
612,3,inquiète
613,3,intelligence
614,3,interdite
615,3,irai
616,3,irrité
617,3,jaloux
618,3,joie
619,3,jusque
620,3,lire
621,3,lit
622,3,loin
623,3,long
624,3,lorsqu
625,3,mérite
626,3,nier
627,3,nécessaire
628,3,ordinaire
629,3,osais
630,3,outrage
631,3,paraît
632,3,parlons
633,3,part
634,3,parti
635,3,penser
636,3,perfide
637,3,peste
638,3,place
639,3,plutôt
640,3,porté
641,3,pouvait
642,3,prenant
643,3,prend
644,3,prenne
645,3,presque
646,3,presse
647,3,propos
648,3,propre
649,3,présent
650,3,puisque
651,3,pères
652,3,quelquefois
653,3,quoique
654,3,remède
655,3,repos
656,3,respect
657,3,rougis
658,3,ruses
659,3,récit
660,3,réparer
661,3,réussi
662,3,sache
663,3,sang
664,3,semble
665,3,silence
666,3,sitôt
667,3,souci
668,3,suivez
669,3,tais
670,3,taisez
671,3,tousser
672,3,toux
673,3,trente
674,3,triomphe
675,3,troubler
676,3,trouvé
677,3,très
678,3,unir
679,3,usage
680,3,vain
681,3,vanité
682,3,venir
683,3,venu
684,3,veuvage
685,3,viendra
686,3,vingt
687,3,vit
688,3,voyage
689,3,voyant
690,3,vôtre
691,3,zélé
692,3,éclat
693,3,écoutez
694,3,écus
695,3,étions
696,3,étonne
697,2,abuse
698,2,abuser
699,2,accorder
700,2,affaires
701,2,affligée
702,2,agir
703,2,agis
704,2,agit
705,2,aie
706,2,aigrir
707,2,aimais
708,2,aimes
709,2,alliance
710,2,alors
711,2,amoureux
712,2,amours
713,2,an
714,2,appris
715,2,approuver
716,2,appréhende
717,2,assure
718,2,attends
719,2,aucune
720,2,audace
721,2,aura
722,2,aurez
723,2,aurons
724,2,avant
725,2,avantage
726,2,aveuglement
727,2,avouer
728,2,babil
729,2,battre
730,2,beautés
731,2,bienséance
732,2,bouche
733,2,brouillés
734,2,capable
735,2,captivité
736,2,car
737,2,celer
738,2,certaine
739,2,cesse
740,2,ceux
741,2,chacun
742,2,change
743,2,changeons
744,2,changez
745,2,changé
746,2,charité
747,2,charmes
748,2,chaîne
749,2,cherchez
750,2,cheveux
751,2,coiffée
752,2,conduite
753,2,confesse
754,2,connu
755,2,conscience
756,2,conseiller
757,2,consent
758,2,considérable
759,2,conséquence
760,2,contents
761,2,contes
762,2,contraire
763,2,contredit
764,2,conçois
765,2,court
766,2,couteau
767,2,coutume
768,2,coûte
769,2,craint
770,2,croie
771,2,dangereux
772,2,demain
773,2,demande
774,2,demeurer
775,2,depuis
776,2,deuil
777,2,devenir
778,2,devoir
779,2,devons
780,2,diamant
781,2,différence
782,2,différent
783,2,discours
784,2,dise
785,2,dispense
786,2,dix
787,2,donné
788,2,donnée
789,2,doutez
790,2,dédire
791,2,défaut
792,2,déguisement
793,2,délicat
794,2,déplaire
795,2,désespère
796,2,désirs
797,2,désordre
798,2,détourner
799,2,dû
800,2,embarrasser
801,2,emporte
802,2,endroit
803,2,enfance
804,2,enfants
805,2,enfermé
806,2,engager
807,2,ennuis
808,2,entretien
809,2,envoie
810,2,erreurs
811,2,eut
812,2,eux
813,2,excuse
814,2,excusez
815,2,exprimer
816,2,exprès
817,2,expérience
818,2,facile
819,2,faite
820,2,faste
821,2,faudrait
822,2,faveurs
823,2,façons
824,2,feinte
825,2,ferait
826,2,fidèle
827,2,fin
828,2,finesse
829,2,flatter
830,2,fourbe
831,2,france
832,2,fuyez
833,2,gagner
834,2,gardez
835,2,grec
836,2,grimace
837,2,grâces
838,2,haut
839,2,heure
840,2,hâte
841,2,hé
842,2,importun
843,2,incommoderais
844,2,inconstance
845,2,inconstant
846,2,informer
847,2,injuste
848,2,instruire
849,2,instruit
850,2,interdit
851,2,intérêts
852,2,jadis
853,2,jeu
854,2,jeux
855,2,joue
856,2,jugez
857,2,jure
858,2,jusques
859,2,laissé
860,2,lettre
861,2,leçons
862,2,lorsque
863,2,lâcheté
864,2,légère
865,2,légèreté
866,2,manière
867,2,marier
868,2,marquer
869,2,marquisat
870,2,maudit
871,2,meilleur
872,2,mener
873,2,merci
874,2,moment
875,2,monte
876,2,mourra
877,2,méchante
878,2,médisance
879,2,médisants
880,2,mémoire
881,2,mêlez
882,2,naturelle
883,2,nomme
884,2,nuit
885,2,nulle
886,2,nés
887,2,oblige
888,2,obstacle
889,2,obstine
890,2,obéissance
891,2,occasion
892,2,oeil
893,2,offense
894,2,ouf
895,2,outrager
896,2,outrance
897,2,outrée
898,2,ouvre
899,2,parfois
900,2,parlant
901,2,parole
902,2,passer
903,2,patience
904,2,pays
905,2,pensez
906,2,pensé
907,2,perdez
908,2,perdu
909,2,perfidie
910,2,permis
911,2,petits
912,2,piquer
913,2,plaisirs
914,2,plein
915,2,pleure
916,2,poulet
917,2,pouviez
918,2,premières
919,2,prendrai
920,2,prends
921,2,prière
922,2,prié
923,2,profiter
924,2,prétende
925,2,prétendre
926,2,prétexte
927,2,prévoir
928,2,puissants
929,2,pût
930,2,quarante
931,2,quatre
932,2,quelques
933,2,quitte
934,2,quoiqu
935,2,rage
936,2,raille
937,2,raillerie
938,2,rare
939,2,redoubler
940,2,rencontrer
941,2,rentrez
942,2,restes
943,2,retirer
944,2,retirée
945,2,retrancher
946,2,revenu
947,2,reviendrez
948,2,reçu
949,2,rigueur
950,2,rire
951,2,rompre
952,2,rompu
953,2,rude
954,2,rue
955,2,répond
956,2,répondre
957,2,réussir
958,2,sages
959,2,santé
960,2,saurez
961,2,sauriez
962,2,secrets
963,2,seize
964,2,semblait
965,2,semblant
966,2,sensible
967,2,sept
968,2,serais
969,2,serments
970,2,service
971,2,seuls
972,2,signe
973,2,soixante
974,2,solitude
975,2,sommes
976,2,songez
977,2,sors
978,2,sorti
979,2,sotte
980,2,sou
981,2,souffre
982,2,souffrir
983,2,soumise
984,2,suffit
985,2,suit
986,2,suivant
987,2,surprise
988,2,séparer
989,2,sévère
990,2,sût
991,2,tenir
992,2,tente
993,2,terrible
994,2,tien
995,2,tirer
996,2,touchant
997,2,tourner
998,2,tousse
999,2,trahis
1000,2,traiter
1001,2,transports
1002,2,traître
1003,2,traîtres
1004,2,triste
1005,2,turcs
1006,2,turquie
1007,2,tâchez
1008,2,témoignage
1009,2,témoins
1010,2,tête
1011,2,unique
1012,2,user
1013,2,usé
1014,2,utile
1015,2,vains
1016,2,vaisseau
1017,2,valoir
1018,2,vers
1019,2,vertu
1020,2,vieil
1021,2,vin
1022,2,vivant
1023,2,voie
1024,2,volontiers
1025,2,voudrais
1026,2,voulais
1027,2,véritable
1028,2,éclaircir
1029,2,écrit
1030,2,égal
1031,2,égare
1032,2,émotion
1033,2,émouvoir
1034,2,émue
1035,2,épargne
1036,2,épousez
1037,2,étaient
1038,2,étrangement
1039,2,ô
1040,2,ôtant
1041,2,ôte
1042,2,ôter
1043,1,abandonne
1044,1,abandonner
1045,1,abois
1046,1,absence
1047,1,absolument
1048,1,abus
1049,1,abusez
1050,1,abusé
1051,1,accable
1052,1,accident
1053,1,accordé
1054,1,accordée
1055,1,accroire
1056,1,accrue
1057,1,accuser
1058,1,accuserais
1059,1,achever
1060,1,achevez
1061,1,achève
1062,1,acquittai
1063,1,admirable
1064,1,admire
1065,1,admirez
1066,1,adorait
1067,1,adore
1068,1,adorée
1069,1,adouci
1070,1,adroit
1071,1,affaiblir
1072,1,affectez
1073,1,affection
1074,1,affliger
1075,1,affront
1076,1,agréable
1077,1,aigre
1078,1,aigrisse
1079,1,aille
1080,1,aimaient
1081,1,aimiez
1082,1,aimât
1083,1,aimé
1084,1,aise
1085,1,aisée
1086,1,allaient
1087,1,allais
1088,1,allait
1089,1,aller
1090,1,allume
1091,1,amener
1092,1,amplement
1093,1,amuse
1094,1,amusements
1095,1,amusez
1096,1,anime
1097,1,apercevoir
1098,1,apparence
1099,1,appartienne
1100,1,appartient
1101,1,apporte
1102,1,apprendre
1103,1,apprends
1104,1,apprenez
1105,1,apprenne
1106,1,approcher
1107,1,appréhendons
1108,1,ardemment
1109,1,arrachée
1110,1,arrivai
1111,1,arrivons
1112,1,arrêta
1113,1,arrêter
1114,1,arrêtez
1115,1,arrêté
1116,1,artifice
1117,1,assurais
1118,1,assuré
1119,1,attachement
1120,1,attachements
1121,1,attachée
1122,1,attaquer
1123,1,attend
1124,1,attendais
1125,1,attendu
1126,1,attire
1127,1,attirer
1128,1,attraper
1129,1,augmenté
1130,1,aussitôt
1131,1,autorité
1132,1,avale
1133,1,avançait
1134,1,avions
1135,1,avisait
1136,1,avocat
1137,1,avouais
1138,1,avouerai
1139,1,avouez
1140,1,avoué
1141,1,avoués
1142,1,ayez
1143,1,babillard
1144,1,badin
1145,1,badinage
1146,1,bagatelle
1147,1,baigneurs
1148,1,baisers
1149,1,baises
1150,1,baisé
1151,1,ballets
1152,1,bals
1153,1,bats
1154,1,battrai
1155,1,battrait
1156,1,battrons
1157,1,bel
1158,1,bizarre
1159,1,blanc
1160,1,blanche
1161,1,blancs
1162,1,blonds
1163,1,blâme
1164,1,blâmer
1165,1,blâmiez
1166,1,bonhomme
1167,1,bonjour
1168,1,bonjours
1169,1,bons
1170,1,bonsoir
1171,1,bonté
1172,1,bouffi
1173,1,bouton
1174,1,bras
1175,1,bravoure
1176,1,brette
1177,1,briguer
1178,1,brisez
1179,1,brisons
1180,1,bruits
1181,1,brûle
1182,1,bâille
1183,1,bâton
1184,1,bénir
1185,1,cachais
1186,1,cache
1187,1,caches
1188,1,cachez
1189,1,caché
1190,1,cachés
1191,1,calèche
1192,1,caquet
1193,1,cassé
1194,1,catarrhes
1195,1,causant
1196,1,cause
1197,1,causer
1198,1,cdme
1199,1,ceci
1200,1,celle
1201,1,cents
1202,1,cercueil
1203,1,certainement
1204,1,certains
1205,1,cervelle
1206,1,cesser
1207,1,cessez
1208,1,cessé
1209,1,chagrine
1210,1,chaleur
1211,1,champs
1212,1,changeant
1213,1,changeante
1214,1,changement
1215,1,changerait
1216,1,changeriez
1217,1,chansons
1218,1,chapeau
1219,1,chapitre
1220,1,chapitré
1221,1,charge
1222,1,chargea
1223,1,charmait
1224,1,charmant
1225,1,charmer
1226,1,charmé
1227,1,charmée
1228,1,charmés
1229,1,chasser
1230,1,chaud
1231,1,chaussant
1232,1,chemise
1233,1,cher
1234,1,cherchions
1235,1,chimère
1236,1,choisir
1237,1,choquer
1238,1,chrétien
1239,1,chérie
1240,1,chérit
1241,1,ci
1242,1,cinq
1243,1,civil
1244,1,civilités
1245,1,clair
1246,1,clarté
1247,1,coiffure
1248,1,combien
1249,1,comble
1250,1,combler
1251,1,comblé
1252,1,commence
1253,1,commettre
1254,1,commode
1255,1,commun
1256,1,commune
1257,1,comparable
1258,1,complaisante
1259,1,compliments
1260,1,composer
1261,1,compris
1262,1,comptant
1263,1,compté
1264,1,comtesse
1265,1,concert
1266,1,condamniez
1267,1,conduire
1268,1,confidence
1269,1,confie
1270,1,confiez
1271,1,confirmé
1272,1,confus
1273,1,confuse
1274,1,confusion
1275,1,connaissais
1276,1,connaissait
1277,1,connaissance
1278,1,connaissiez
1279,1,conquête
1280,1,consens
1281,1,considère
1282,1,considéré
1283,1,consolations
1284,1,consolerez
1285,1,constance
1286,1,constante
1287,1,consulter
1288,1,conte
1289,1,contente
1290,1,contentement
1291,1,contentent
1292,1,conteste
1293,1,continue
1294,1,contraigne
1295,1,contraindre
1296,1,contraint
1297,1,corps
1298,1,corriger
1299,1,corrigé
1300,1,corrompre
1301,1,corsaires
1302,1,couche
1303,1,coucher
1304,1,couler
1305,1,couleur
1306,1,couleuvres
1307,1,coupable
1308,1,coups
1309,1,courbé
1310,1,cousins
1311,1,couvent
1312,1,couvert
1313,1,couvre
1314,1,couvrons
1315,1,crache
1316,1,craignant
1317,1,craindrais
1318,1,crainte
1319,1,crier
1320,1,crime
1321,1,croira
1322,1,croirai
1323,1,croirais
1324,1,croirait
1325,1,croiras
1326,1,croiriez
1327,1,croyable
1328,1,croyait
1329,1,croyiez
1330,1,croître
1331,1,cruel
1332,1,cruelle
1333,1,crédule
1334,1,crû
1335,1,curieux
1336,1,cédant
1337,1,cérémonie
1338,1,côtés
1339,1,da
1340,1,dame
1341,1,danger
1342,1,dehors
1343,1,demander
1344,1,demi
1345,1,dernière
1346,1,descend
1347,1,descendons
1348,1,desseins
1349,1,destiné
1350,1,destinée
1351,1,devais
1352,1,devant
1353,1,deviez
1354,1,devines
1355,1,devrait
1356,1,diable
1357,1,difficile
1358,1,difficulté
1359,1,diffère
1360,1,digne
1361,1,diligence
1362,1,dirais
1363,1,diras
1364,1,discernement
1365,1,discourir
1366,1,discret
1367,1,discrétion
1368,1,disgrâce
1369,1,dispose
1370,1,distinguer
1371,1,distraire
1372,1,diviser
1373,1,doivent
1374,1,dommage
1375,1,donnais
1376,1,donnerez
1377,1,donnez
1378,1,donnés
1379,1,dons
1380,1,dos
1381,1,dose
1382,1,dot
1383,1,double
1384,1,douc
1385,1,douceur
1386,1,douleurs
1387,1,doutant
1388,1,doutes
1389,1,douteuse
1390,1,douteux
1391,1,droit
1392,1,droits
1393,1,duchesse
1394,1,dupe
1395,1,durant
1396,1,dureté
1397,1,débonda
1398,1,déchire
1399,1,déchirée
1400,1,déclaré
1401,1,déclin
1402,1,découvrir
1403,1,décrié
1404,1,dédira
1405,1,défait
1406,1,défend
1407,1,défendu
1408,1,défense
1409,1,dégage
1410,1,dégager
1411,1,déguisez
1412,1,délicate
1413,1,délivrance
1414,1,délivrer
1415,1,déloyal
1416,1,démangeaison
1417,1,démens
1418,1,démentirais
1419,1,démêlons
1420,1,démêlés
1421,1,dépaysé
1422,1,dépendrait
1423,1,déplairqit
1424,1,déplaise
1425,1,déplaît
1426,1,déplu
1427,1,dépouiller
1428,1,déraciner
1429,1,désespérer
1430,1,désir
1431,1,désunis
1432,1,détournant
1433,1,détournent
1434,1,détromper
1435,1,détruit
1436,1,dévore
1437,1,déçu
1438,1,déçus
1439,1,e
1440,1,effacent
1441,1,efforcer
1442,1,effroi
1443,1,efféminé
1444,1,embarquer
1445,1,embarqué
1446,1,embarras
1447,1,embarrassée
1448,1,embrassades
1449,1,embrasse
1450,1,emploi
1451,1,emploie
1452,1,employé
1453,1,emportement
1454,1,emprunt
1455,1,empruntés
1456,1,empêcherai
1457,1,empêchés
1458,1,endroits
1459,1,endurcir
1460,1,enferme
1461,1,enflure
1462,1,engageant
1463,1,engages
1464,1,engagez
1465,1,engagé
1466,1,engagés
1467,1,enlaidir
1468,1,ennui
1469,1,enrager
1470,1,ensorcelé
1471,1,entend
1472,1,entendez
1473,1,entendu
1474,1,enterrera
1475,1,entrais
1476,1,entrent
1477,1,entretenir
1478,1,entretient
1479,1,entrons
1480,1,entré
1481,1,envelopper
1482,1,envers
1483,1,environ
1484,1,escalier
1485,1,esclave
1486,1,essai
1487,1,essaie
1488,1,essayer
1489,1,essayerais
1490,1,estimez
1491,1,estimé
1492,1,estropier
1493,1,eusse
1494,1,exacte
1495,1,examine
1496,1,examiner
1497,1,examinons
1498,1,excuser
1499,1,excès
1500,1,exemple
1501,1,exempt
1502,1,explique
1503,1,expliquez
1504,1,exposait
1505,1,expose
1506,1,exprimaient
1507,1,exprime
1508,1,extrêmement
1509,1,exécuté
1510,1,fable
1511,1,faiblesses
1512,1,faille
1513,1,faisais
1514,1,faisait
1515,1,faisiez
1516,1,familièrement
1517,1,farde
1518,1,fardeau
1519,1,farouche
1520,1,faudra
1521,1,favorable
1522,1,fera
1523,1,ferais
1524,1,ferions
1525,1,fermer
1526,1,fermé
1527,1,ferraillé
1528,1,feux
1529,1,fier
1530,1,fierté
1531,1,fiez
1532,1,fine
1533,1,finement
1534,1,fines
1535,1,finir
1536,1,fins
1537,1,fière
1538,1,flatte
1539,1,flatteriez
1540,1,flattez
1541,1,fleur
1542,1,flots
1543,1,folie
1544,1,forme
1545,1,formés
1546,1,fortement
1547,1,fortunés
1548,1,fourber
1549,1,fourberie
1550,1,fracas
1551,1,frais
1552,1,français
1553,1,fripon
1554,1,fripons
1555,1,frivoles
1556,1,fui
1557,1,fuit
1558,1,fuite
1559,1,furie
1560,1,furieux
1561,1,fussent
1562,1,fâche
1563,1,fâchez
1564,1,félicité
1565,1,fête
1566,1,fûmes
1567,1,fûtes
1568,1,gageons
1569,1,gagerais
1570,1,galants
1571,1,garderai
1572,1,garniture
1573,1,garçon
1574,1,gestes
1575,1,gesticule
1576,1,goguenard
1577,1,gourmades
1578,1,goutte
1579,1,goûté
1580,1,gronder
1581,1,gros
1582,1,grosse
1583,1,grossir
1584,1,grèce
1585,1,guet
1586,1,guéri
1587,1,guérir
1588,1,généreux
1589,1,gêne
1590,1,habile
1591,1,habille
1592,1,habiller
1593,1,hais
1594,1,hait
1595,1,haïriez
1596,1,hem
1597,1,heurte
1598,1,heurtons
1599,1,heurté
1600,1,histoire
1601,1,hochez
1602,1,honnêteté
1603,1,honorez
1604,1,honoré
1605,1,honteuse
1606,1,huui
1607,1,hyménée
1608,1,hériter
1609,1,ignorais
1610,1,ignorant
1611,1,ignore
1612,1,ignorez
1613,1,image
1614,1,impertinence
1615,1,impertinent
1616,1,important
1617,1,importants
1618,1,importuner
1619,1,imprévue
1620,1,impute
1621,1,incarnat
1622,1,incivilité
1623,1,incorrigible
1624,1,incrédule
1625,1,indifférence
1626,1,indifférent
1627,1,indiscret
1628,1,industrie
1629,1,infidélité
1630,1,ingrédients
1631,1,injure
1632,1,injurieux
1633,1,injustice
1634,1,innombrable
1635,1,insolent
1636,1,inspiré
1637,1,instant
1638,1,instruis
1639,1,interrogeait
1640,1,introduire
1641,1,introduis
1642,1,inutile
1643,1,invincible
1644,1,irais
1645,1,irrite
1646,1,irriter
1647,1,irréprochable
1648,1,jallais
1649,1,jambe
1650,1,jaser
1651,1,jeta
1652,1,jetait
1653,1,jettes
1654,1,jeté
1655,1,jeunes
1656,1,jeûnais
1657,1,joindre
1658,1,joli
1659,1,jouer
1660,1,jouir
1661,1,jouit
1662,1,joué
1663,1,juge
1664,1,juger
1665,1,jupe
1666,1,jurerais
1667,1,justement
1668,1,langage
1669,1,langue
1670,1,langui
1671,1,languir
1672,1,laquais
1673,1,larmes
1674,1,las
1675,1,levant
1676,1,libre
1677,1,libéral
1678,1,licence
1679,1,loisir
1680,1,longue
1681,1,lors
1682,1,louerez
1683,1,lourdaud
1684,1,lsabelle
1685,1,lâches
1686,1,mains
1687,1,maison
1688,1,malice
1689,1,malte
1690,1,mander
1691,1,manque
1692,1,manquer
1693,1,manquez
1694,1,marque
1695,1,marques
1696,1,mascarades
1697,1,matière
1698,1,maturité
1699,1,mauvais
1700,1,meilleure
1701,1,meilleures
1702,1,meilleurs
1703,1,mer
1704,1,messieurs
1705,1,mesures
1706,1,mets
1707,1,mettez
1708,1,mettra
1709,1,meure
1710,1,meurs
1711,1,meurtre
1712,1,meurtrissez
1713,1,mien
1714,1,miens
1715,1,mignons
1716,1,miracle
1717,1,miracles
1718,1,miroir
1719,1,mit
1720,1,mode
1721,1,modeste
1722,1,montrer
1723,1,moquez
1724,1,morceau
1725,1,mortel
1726,1,mortelle
1727,1,morts
1728,1,mouche
1729,1,mouvement
1730,1,moyennant
1731,1,moyens
1732,1,mystères
1733,1,mène
1734,1,méchant
1735,1,méchants
1736,1,méconnu
1737,1,médire
1738,1,ménage
1739,1,ménagé
1740,1,méprise
1741,1,mépriser
1742,1,méprisée
1743,1,métré
1744,1,mêle
1745,1,mêler
1746,1,naissance
1747,1,nature
1748,1,naturel
1749,1,naît
1750,1,naître
1751,1,nest
1752,1,neveu
1753,1,neveux
1754,1,nez
1755,1,niaise
1756,1,nie
1757,1,noir
1758,1,noirci
1759,1,nombre
1760,1,nomma
1761,1,nouvelles
1762,1,nu
1763,1,nuire
1764,1,nullement
1765,1,négliger
1766,1,négligée
1767,1,nôtre
1768,1,obligerait
1769,1,obligeras
1770,1,obligez
1771,1,obligée
1772,1,observe
1773,1,obstacles
1774,1,obéir
1775,1,obéirez
1776,1,obéisse
1777,1,occuper
1778,1,odieux
1779,1,offensez
1780,1,offerts
1781,1,office
1782,1,offrant
1783,1,offre
1784,1,offrir
1785,1,opposer
1786,1,or
1787,1,ordinairement
1788,1,ordonné
1789,1,ordre
1790,1,ordres
1791,1,oreille
1792,1,orgueilleuse
1793,1,ornements
1794,1,oserait
1795,1,oses
1796,1,osé
1797,1,oubli
1798,1,oubliais
1799,1,oublierai
1800,1,oublieriez
1801,1,oublions
1802,1,oublié
1803,1,outrages
1804,1,outré
1805,1,ouvrais
1806,1,ouvrir
1807,1,ouï
1808,1,panneau
1809,1,paraissez
1810,1,parait
1811,1,paraitre
1812,1,pardonne
1813,1,pardonner
1814,1,pareils
1815,1,parent
1816,1,parents
1817,1,parenté
1818,1,parfaite
1819,1,paris
1820,1,parisien
1821,1,parlent
1822,1,parlerez
1823,1,parles
1824,1,parois
1825,1,partage
1826,1,partis
1827,1,parure
1828,1,parvenir
1829,1,paré
1830,1,passera
1831,1,passerez
1832,1,passés
1833,1,patiemment
1834,1,paya
1835,1,peignures
1836,1,penchant
1837,1,penses
1838,1,pensionnaire
1839,1,pensée
1840,1,pente
1841,1,perce
1842,1,percé
1843,1,perdras
1844,1,perds
1845,1,permets
1846,1,permette
1847,1,permettre
1848,1,perruque
1849,1,personnage
1850,1,persuader
1851,1,persuadez
1852,1,pesté
1853,1,peuvent
1854,1,pique
1855,1,pis
1856,1,pistoles
1857,1,pièce
1858,1,pièces
1859,1,pié
1860,1,plaindras
1861,1,plaindre
1862,1,plains
1863,1,plainte
1864,1,plaira
1865,1,plais
1866,1,plaise
1867,1,plait
1868,1,pleine
1869,1,pleurer
1870,1,pleurerez
1871,1,pleurs
1872,1,plongée
1873,1,plu
1874,1,plusieurs
1875,1,plût
1876,1,poil
1877,1,poing
1878,1,porter
1879,1,portes
1880,1,portez
1881,1,portrait
1882,1,possède
1883,1,possédée
1884,1,pouilles
1885,1,pourra
1886,1,pourraient
1887,1,pourrons
1888,1,poursuivez
1889,1,pousses
1890,1,pouvons
1891,1,pratiquer
1892,1,premiers
1893,1,prendra
1894,1,prier
1895,1,prit
1896,1,probité
1897,1,prochaine
1898,1,produisent
1899,1,profit
1900,1,profité
1901,1,promenades
1902,1,promet
1903,1,promets
1904,1,promettre
1905,1,prompt
1906,1,proprement
1907,1,propres
1908,1,proteste
1909,1,précautions
1910,1,préférer
1911,1,prépare
1912,1,préparée
1913,1,présence
1914,1,prétend
1915,1,prétends
1916,1,prétendu
1917,1,prévaloir
1918,1,prévaut
1919,1,prêché
1920,1,prêt
1921,1,prêterez
1922,1,publics
1923,1,pudeur
1924,1,puissance
1925,1,puissant
1926,1,puissiez
1927,1,punir
1928,1,pur
1929,1,pure
1930,1,péchés
1931,1,péril
1932,1,qualité
1933,1,queue
1934,1,quittant
1935,1,quittez
1936,1,rabattre
1937,1,racheté
1938,1,racquitté
1939,1,radouci
1940,1,railles
1941,1,raisonnable
1942,1,raisonne
1943,1,raisonnements
1944,1,raisonneur
1945,1,rajeunir
1946,1,rajuste
1947,1,rallumé
1948,1,ramassé
1949,1,ramène
1950,1,rappelle
1951,1,rapport
1952,1,rapports
1953,1,ravir
1954,1,rebuts
1955,1,rechercher
1956,1,recherché
1957,1,reconnu
1958,1,reculer
1959,1,redevable
1960,1,refermer
1961,1,refoncer
1962,1,refuser
1963,1,regains
1964,1,regards
1965,1,regardé
1966,1,regrets
1967,1,rejetais
1968,1,rejeter
1969,1,remarier
1970,1,remets
1971,1,remette
1972,1,remue
1973,1,rencontre
1974,1,rencontré
1975,1,rendais
1976,1,rendra
1977,1,rendrai
1978,1,rends
1979,1,rendu
1980,1,renonce
1981,1,renouer
1982,1,renouvelle
1983,1,rentre
1984,1,rentrer
1985,1,rentrée
1986,1,reprends
1987,1,reproche
1988,1,reprocher
1989,1,ressayez
1990,1,ressouviens
1991,1,retenir
1992,1,retiendras
1993,1,retienne
1994,1,retirent
1995,1,retirez
1996,1,retraite
1997,1,revanche
1998,1,revenais
1999,1,revenait
2000,1,revenir
2001,1,revenue
2002,1,reviendra
2003,1,reviendras
2004,1,revienne
2005,1,reviens
2006,1,revient
2007,1,revoir
2008,1,revînt
2009,1,reçoit
2010,1,reçus
2011,1,rhumatisme
2012,1,ri
2013,1,ridicule
2014,1,riez
2015,1,rigueurs
2016,1,ris
2017,1,rit
2018,1,robe
2019,1,rompez
2020,1,rompt
2021,1,rompus
2022,1,ronde
2023,1,rougeur
2024,1,rougir
2025,1,rudes
2026,1,ruse
2027,1,rusé
2028,1,rusée
2029,1,règne
2030,1,réduire
2031,1,réformer
2032,1,répondons
2033,1,répondrai
2034,1,réponds
2035,1,répondu
2036,1,résistance
2037,1,résolue
2038,1,résoudre
2039,1,résous
2040,1,rétablir
2041,1,sacrifié
2042,1,sacs
2043,1,sagement
2044,1,sagesse
2045,1,sain
2046,1,salle
2047,1,salutaire
2048,1,saluts
2049,1,sanglots
2050,1,satisfait
2051,1,satisfasse
2052,1,saurait
2053,1,sauras
2054,1,saurions
2055,1,sauve
2056,1,sauver
2057,1,savais
2058,1,savons
2059,1,scandale
2060,1,scrupuleux
2061,1,seconde
2062,1,secrète
2063,1,sein
2064,1,semblaient
2065,1,semblez
2066,1,sent
2067,1,senti
2068,1,sentiments
2069,1,sentir
2070,1,sentis
2071,1,serez
2072,1,seriez
2073,1,serrer
2074,1,serrure
2075,1,serviteur
2076,1,simplement
2077,1,sincère
2078,1,sincérité
2079,1,siècle
2080,1,soapeade
2081,1,soeurs
2082,1,soi
2083,1,solidité
2084,1,somme
2085,1,sommeil
2086,1,songeais
2087,1,sortable
2088,1,sortais
2089,1,sortez
2090,1,sortira
2091,1,sortirez
2092,1,sortons
2093,1,soucier
2094,1,soudain
2095,1,souder
2096,1,souffert
2097,1,soufflet
2098,1,souffrez
2099,1,souhaité
2100,1,soupire
2101,1,soupirions
2102,1,soupçonne
2103,1,soupçons
2104,1,sourd
2105,1,souvenez
2106,1,souvenue
2107,1,souvienne
2108,1,soyez
2109,1,spécieux
2110,1,ssi
2111,1,style
2112,1,subtil
2113,1,succès
2114,1,suffire
2115,1,suffrage
2116,1,suisse
2117,1,suite
2118,1,suive
2119,1,suivi
2120,1,suivre
2121,1,supplice
2122,1,supporta
2123,1,supposer
2124,1,surent
2125,1,surmonte
2126,1,surmonter
2127,1,surprendre
2128,1,survint
2129,1,sus
2130,1,sut
2131,1,sécher
2132,1,séduit
2133,1,séparé
2134,1,séparés
2135,1,sûreté
2136,1,taches
2137,1,taira
2138,1,talent
2139,1,talons
2140,1,tandis
2141,1,teint
2142,1,telle
2143,1,temple
2144,1,tenait
2145,1,tendrement
2146,1,tenez
2147,1,tenter
2148,1,terme
2149,1,terrain
2150,1,terriblement
2151,1,tiendrai
2152,1,tiennent
2153,1,tint
2154,1,toilette
2155,1,tombe
2156,1,tomber
2157,1,toucher
2158,1,tourmente
2159,1,tourné
2160,1,toutes
2161,1,trahi
2162,1,trahissais
2163,1,trahissez
2164,1,trahit
2165,1,train
2166,1,traité
2167,1,travaux
2168,1,triompher
2169,1,triompherait
2170,1,trompe
2171,1,tromper
2172,1,trompeurs
2173,1,trompez
2174,1,trophée
2175,1,trou
2176,1,troubles
2177,1,trouvant
2178,1,trouverez
2179,1,trêve
2180,1,turc
2181,1,tâcher
2182,1,tâchons
2183,1,tâché
2184,1,tâté
2185,1,témoignait
2186,1,témoigner
2187,1,témoignez
2188,1,téméraire
2189,1,union
2190,1,unis
2191,1,unit
2192,1,use
2193,1,vaine
2194,1,vainement
2195,1,valent
2196,1,valet
2197,1,valets
2198,1,valois
2199,1,vaudra
2200,1,vaudrait
2201,1,vaux
2202,1,venant
2203,1,vendu
2204,1,venge
2205,1,vengeance
2206,1,veniez
2207,1,vent
2208,1,venue
2209,1,vermeil
2210,1,verrez
2211,1,verriez
2212,1,veuvev
2213,1,vice
2214,1,victoire
2215,1,vider
2216,1,vieille
2217,1,vieilles
2218,1,vieillesse
2219,1,vieillit
2220,1,viendrait
2221,1,viendrons
2222,1,vienne
2223,1,vif
2224,1,vint
2225,1,violence
2226,1,visage
2227,1,vite
2228,1,vivacité
2229,1,vivants
2230,1,vive
2231,1,voila
2232,1,voisinage
2233,1,volontés
2234,1,volume
2235,1,volée
2236,1,voudras
2237,1,vouliez
2238,1,voulus
2239,1,voyages
2240,1,voyais
2241,1,voyait
2242,1,voyions
2243,1,vrais
2244,1,vînt
2245,1,zèle
2246,1,ébloui
2247,1,éblouir
2248,1,écart
2249,1,échapper
2250,1,échappé
2251,1,échauffe
2252,1,éclaircissement
2253,1,éclate
2254,1,éclaté
2255,1,écoute
2256,1,écouter
2257,1,écrire
2258,1,égale
2259,1,éloigner
2260,1,éloigné
2261,1,émeus
2262,1,émeut
2263,1,ému
2264,1,énorme
2265,1,épais
2266,1,épargnerai
2267,1,épargnez
2268,1,épingle
2269,1,épousailles
2270,1,épousant
2271,1,épouse
2272,1,épousiez
2273,1,épousée
2274,1,épreuve
2275,1,épris
2276,1,éprise
2277,1,éprouvé
2278,1,épée
2279,1,équipage
2280,1,érige
2281,1,établisse
2282,1,établit
2283,1,éternelle
2284,1,étoffe
2285,1,étonnant
2286,1,étouffer
2287,1,étourdi
2288,1,étourdit
2289,1,étrange
2290,1,étranglez
2291,1,évanouis
2292,1,éveiller
2293,1,éveillé
2294,1,évitant
2295,1,évite
2296,1,éviter
2297,1,î
