#Word Types: 2440
#Word Tokens: 17954
#Search Hits: 0
1	585	vous	
2	513	de	
3	502	et	
4	389	que	
5	379	à	
6	351	l	
7	328	il	
8	327	je	
9	315	en	
10	275	qu	
11	257	un	
12	252	d	
13	234	le	
14	229	est	
15	205	la	
16	201	ne	
17	191	ce	
18	191	pour	
19	189	si	
20	173	n	
21	152	plus	
22	149	qui	
23	146	j	
24	146	m	
25	133	me	
26	125	ma	
27	122	mon	
28	113	s	
29	109	votre	
30	100	seigneur	
31	98	les	
32	97	mais	
33	95	nous	
34	92	moi	
35	91	a	
36	88	lui	
37	88	pas	
38	87	amour	
39	86	son	
40	84	une	
41	82	des	
42	82	on	
43	82	tout	
44	80	coeur	
45	77	peut	
46	71	elle	
47	69	sa	
48	69	y	
49	67	bien	
50	67	ou	
51	63	fait	
52	61	ai	
53	61	point	
54	60	comme	
55	59	soeur	
56	58	avec	
57	58	c	
58	58	même	
59	58	par	
60	58	vos	
61	57	au	
62	56	autre	
63	55	du	
64	55	mes	
65	53	sans	
66	52	être	
67	51	roi	
68	50	ses	
69	47	faire	
70	47	moins	
71	46	se	
72	44	aime	
73	44	rien	
74	43	trop	
75	42	cotys	
76	42	quand	
77	40	leur	
78	40	voir	
79	39	deux	
80	39	faut	
81	38	assez	
82	38	cette	
83	37	ils	
84	37	sur	
85	36	peu	
86	35	âme	
87	34	grand	
88	34	yeux	
89	33	tous	
90	32	lysander	
91	31	dont	
92	29	aimer	
93	29	ces	
94	29	dans	
95	29	où	
96	29	sont	
97	28	père	
98	28	quelque	
99	27	aux	
100	27	avez	
101	27	devoir	
102	27	encor	
103	27	gloire	
104	27	suis	
105	27	tant	
106	26	agésilas	
107	26	cet	
108	26	ont	
109	25	choix	
110	25	foi	
111	25	mal	
112	25	veux	
113	24	elpinice	
114	24	non	
115	24	quoi	
116	23	notre	
117	23	rois	
118	22	dire	
119	22	donc	
120	22	spitridate	
121	22	voyez	
122	21	dites	
123	21	donne	
124	21	ici	
125	21	madame	
126	20	mieux	
127	20	pouvoir	
128	20	sais	
129	20	toute	
130	20	voeux	
131	19	enfin	
132	19	flamme	
133	19	mandane	
134	19	ni	
135	19	quel	
136	18	puis	
137	18	état	
138	17	ainsi	
139	17	donner	
140	17	doux	
141	17	nos	
142	17	rendre	
143	17	t	
144	17	trône	
145	16	amant	
146	16	doit	
147	16	entre	
148	16	grâce	
149	16	soit	
150	16	sparte	
151	16	vois	
152	16	êtes	
153	15	aglatide	
154	15	ah	
155	15	après	
156	15	avoir	
157	15	choisir	
158	15	digne	
159	15	eût	
160	15	heureux	
161	15	jour	
162	15	objet	
163	15	temps	
164	15	veut	
165	14	dit	
166	14	honneur	
167	14	hymen	
168	14	là	
169	14	main	
170	14	part	
171	14	raison	
172	14	sang	
173	14	tour	
174	14	vrai	
175	13	ailleurs	
176	13	autres	
177	13	bonheur	
178	13	crime	
179	13	dois	
180	13	espoir	
181	13	fort	
182	13	jamais	
183	13	mettre	
184	13	mérite	
185	13	parler	
186	13	sort	
187	13	vouloir	
188	12	aurais	
189	12	ciel	
190	12	désirs	
191	12	frère	
192	12	laisse	
193	12	leurs	
194	12	lieu	
195	12	lois	
196	12	ordre	
197	12	ose	
198	12	peine	
199	12	place	
200	12	secret	
201	12	sert	
202	12	souffrir	
203	12	sous	
204	12	vôtre	
205	12	était	
206	11	accord	
207	11	allez	
208	11	ardeur	
209	11	aussi	
210	11	avant	
211	11	aveu	
212	11	eux	
213	11	gendre	
214	11	grèce	
215	11	haine	
216	11	jusqu	
217	11	loi	
218	11	maître	
219	11	mien	
220	11	oui	
221	11	parole	
222	11	perse	
223	11	toutes	
224	10	aimez	
225	10	appui	
226	10	aucun	
227	10	aura	
228	10	celui	
229	10	cependant	
230	10	chose	
231	10	couronne	
232	10	font	
233	10	haut	
234	10	justice	
235	10	laissez	
236	10	mains	
237	10	nom	
238	10	plaire	
239	10	pourrait	
240	10	puissance	
241	10	rend	
242	10	serait	
243	10	su	
244	10	toujours	
245	9	ait	
246	9	bontés	
247	9	coeurs	
248	9	crois	
249	9	droit	
250	9	déjà	
251	9	faveurs	
252	9	feu	
253	9	feux	
254	9	malheur	
255	9	obéir	
256	9	parle	
257	9	pouvez	
258	9	prix	
259	9	reconnaissance	
260	9	refus	
261	9	seul	
262	9	va	
263	9	vain	
264	9	voulez	
265	9	vu	
266	9	éclat	
267	9	époux	
268	8	aujourd	
269	8	autant	
270	8	beaucoup	
271	8	contre	
272	8	courage	
273	8	demander	
274	8	destin	
275	8	effet	
276	8	elles	
277	8	exemple	
278	8	flatte	
279	8	fut	
280	8	général	
281	8	hui	
282	8	humeur	
283	8	hyménée	
284	8	illustre	
285	8	injustice	
286	8	mépris	
287	8	parlez	
288	8	puisque	
289	8	quelle	
290	8	rang	
291	8	reine	
292	8	sait	
293	8	savez	
294	8	souvent	
295	8	sujet	
296	8	sûr	
297	8	voilà	
298	8	vue	
299	7	agir	
300	7	aimé	
301	7	assurer	
302	7	avons	
303	7	beau	
304	7	belle	
305	7	bon	
306	7	cause	
307	7	cru	
308	7	céder	
309	7	dépit	
310	7	effort	
311	7	empire	
312	7	encore	
313	7	entendre	
314	7	fais	
315	7	fasse	
316	7	filles	
317	7	fond	
318	7	grande	
319	7	intérêt	
320	7	jaloux	
321	7	lorsqu	
322	7	malgré	
323	7	moment	
324	7	naître	
325	7	obéissance	
326	7	passe	
327	7	pensez	
328	7	perdre	
329	7	persane	
330	7	perte	
331	7	plaindre	
332	7	pourrais	
333	7	prendre	
334	7	prince	
335	7	près	
336	7	résoudre	
337	7	sentiments	
338	7	sera	
339	7	souffrez	
340	7	souverain	
341	7	trois	
342	7	vie	
343	7	voit	
344	7	xénoclès	
345	6	accorder	
346	6	attache	
347	6	attendre	
348	6	aurait	
349	6	avait	
350	6	aviez	
351	6	ayez	
352	6	charmant	
353	6	commun	
354	6	cour	
355	6	craindre	
356	6	croire	
357	6	cède	
358	6	devez	
359	6	dieux	
360	6	donnez	
361	6	donné	
362	6	dès	
363	6	défendre	
364	6	ennui	
365	6	facile	
366	6	fallait	
367	6	faveur	
368	6	fille	
369	6	force	
370	6	froideur	
371	6	grandeur	
372	6	hasard	
373	6	hautement	
374	6	haïr	
375	6	joie	
376	6	juste	
377	6	lieux	
378	6	mis	
379	6	ordres	
380	6	personne	
381	6	plaît	
382	6	porte	
383	6	possible	
384	6	pourquoi	
385	6	pourra	
386	6	prenez	
387	6	promis	
388	6	pu	
389	6	puisqu	
390	6	quels	
391	6	regarde	
392	6	rendez	
393	6	services	
394	6	silence	
395	6	soin	
396	6	soupire	
397	6	supplice	
398	6	tel	
399	6	toutefois	
400	6	venez	
401	6	vers	
402	6	vertus	
403	6	éclater	
404	6	éphèse	
405	5	accepter	
406	5	aimable	
407	5	apprendre	
408	5	attacher	
409	5	avais	
410	5	aînée	
411	5	besoin	
412	5	bientôt	
413	5	cherche	
414	5	chez	
415	5	chère	
416	5	consent	
417	5	dessein	
418	5	dirai	
419	5	don	
420	5	déférence	
421	5	déplaire	
422	5	espère	
423	5	finir	
424	5	fois	
425	5	gêne	
426	5	homme	
427	5	honteux	
428	5	hélas	
429	5	idée	
430	5	intelligence	
431	5	intérêts	
432	5	jeune	
433	5	jours	
434	5	justes	
435	5	laisser	
436	5	liberté	
437	5	malheureux	
438	5	manque	
439	5	obtenir	
440	5	offre	
441	5	partage	
442	5	pense	
443	5	peuples	
444	5	politique	
445	5	pourrez	
446	5	prend	
447	5	prétendre	
448	5	prête	
449	5	puissant	
450	5	regards	
451	5	reste	
452	5	rival	
453	5	rougir	
454	5	régner	
455	5	sacrifice	
456	5	savoir	
457	5	serai	
458	5	service	
459	5	soi	
460	5	soyez	
461	5	taire	
462	5	tiens	
463	5	trouve	
464	5	tyrans	
465	5	vient	
466	5	voulait	
467	5	voulu	
468	5	véritable	
469	5	zèle	
470	5	épouser	
471	4	aide	
472	4	aider	
473	4	alliance	
474	4	ambition	
475	4	ami	
476	4	amis	
477	4	ans	
478	4	aucune	
479	4	aurai	
480	4	avantage	
481	4	bas	
482	4	beaux	
483	4	belles	
484	4	capable	
485	4	celle	
486	4	ceux	
487	4	charmer	
488	4	chaînes	
489	4	chercher	
490	4	connaître	
491	4	conquête	
492	4	coup	
493	4	craignez	
494	4	croit	
495	4	crédit	
496	4	davantage	
497	4	demande	
498	4	destins	
499	4	destinée	
500	4	dis	
501	4	donnée	
502	4	douceur	
503	4	doute	
504	4	droits	
505	4	dépend	
506	4	emploi	
507	4	ennemi	
508	4	ennemis	
509	4	entier	
510	4	envie	
511	4	esprit	
512	4	espérer	
513	4	exil	
514	4	faites	
515	4	faudra	
516	4	fera	
517	4	ferai	
518	4	flatter	
519	4	franchise	
520	4	grecs	
521	4	hasarder	
522	4	hommage	
523	4	honneurs	
524	4	illustres	
525	4	immoler	
526	4	importe	
527	4	juge	
528	4	jusque	
529	4	livre	
530	4	légitime	
531	4	matière	
532	4	met	
533	4	mienne	
534	4	montre	
535	4	montrer	
536	4	mot	
537	4	moyen	
538	4	mêmes	
539	4	occasion	
540	4	oeil	
541	4	offrir	
542	4	orgueil	
543	4	ouverte	
544	4	paraître	
545	4	parlé	
546	4	partager	
547	4	partez	
548	4	passion	
549	4	permettez	
550	4	plaise	
551	4	plaisirs	
552	4	plein	
553	4	plu	
554	4	plutôt	
555	4	porter	
556	4	pourtant	
557	4	pourvu	
558	4	presque	
559	4	promettre	
560	4	prudence	
561	4	présence	
562	4	puisse	
563	4	quelques	
564	4	raisons	
565	4	recevoir	
566	4	refuse	
567	4	ressentiments	
568	4	reçu	
569	4	réponds	
570	4	sauriez	
571	4	secours	
572	4	semble	
573	4	sens	
574	4	serez	
575	4	servi	
576	4	servir	
577	4	sitôt	
578	4	souhaits	
579	4	soupirs	
580	4	souvenir	
581	4	succès	
582	4	suivre	
583	4	sujets	
584	4	sénat	
585	4	tard	
586	4	trouver	
587	4	tu	
588	4	tête	
589	4	unique	
590	4	vaine	
591	4	vengeance	
592	4	victoire	
593	4	violence	
594	4	voyais	
595	4	âmes	
596	4	écoute	
597	4	étaient	
598	4	étrange	
599	3	abord	
600	3	accable	
601	3	accuser	
602	3	achevez	
603	3	adieu	
604	3	aimait	
605	3	aimiez	
606	3	aisément	
607	3	aller	
608	3	amants	
609	3	amitié	
610	3	appas	
611	3	attend	
612	3	attendait	
613	3	attentat	
614	3	auprès	
615	3	auraient	
616	3	aurez	
617	3	auriez	
618	3	aurons	
619	3	autorité	
620	3	avoue	
621	3	bonne	
622	3	bons	
623	3	caprice	
624	3	car	
625	3	cesse	
626	3	chagrin	
627	3	change	
628	3	cherchons	
629	3	choisissez	
630	3	choisit	
631	3	civilité	
632	3	complaisance	
633	3	confidence	
634	3	confusion	
635	3	consentir	
636	3	considère	
637	3	considérez	
638	3	croirais	
639	3	devenir	
640	3	devient	
641	3	deviner	
642	3	diadème	
643	3	dispose	
644	3	dissimuler	
645	3	double	
646	3	défaut	
647	3	désespoir	
648	3	désir	
649	3	entière	
650	3	entretien	
651	3	envers	
652	3	esclaves	
653	3	estime	
654	3	eu	
655	3	explique	
656	3	expose	
657	3	faiblesse	
658	3	faux	
659	3	ferez	
660	3	fidèle	
661	3	forte	
662	3	fruit	
663	3	garant	
664	3	garde	
665	3	garder	
666	3	gendres	
667	3	grands	
668	3	harangue	
669	3	haute	
670	3	hercule	
671	3	heureuse	
672	3	héros	
673	3	impatience	
674	3	importune	
675	3	indigne	
676	3	ingrat	
677	3	ingrate	
678	3	injuste	
679	3	insensible	
680	3	inspire	
681	3	joug	
682	3	juger	
683	3	jugez	
684	3	loin	
685	3	malheurs	
686	3	maux	
687	3	meilleurs	
688	3	moindre	
689	3	monarque	
690	3	mort	
691	3	murmure	
692	3	mécontent	
693	3	mémoire	
694	3	mériter	
695	3	noble	
696	3	nouveau	
697	3	nouvelle	
698	3	objets	
699	3	obstacle	
700	3	oppose	
701	3	ordonne	
702	3	pareil	
703	3	pareille	
704	3	parti	
705	3	passions	
706	3	payer	
707	3	pensée	
708	3	perd	
709	3	pieds	
710	3	pitié	
711	3	plains	
712	3	plaint	
713	3	pourriez	
714	3	premier	
715	3	première	
716	3	presse	
717	3	prière	
718	3	projet	
719	3	propre	
720	3	prépare	
721	3	présent	
722	3	publique	
723	3	périls	
724	3	qualité	
725	3	rare	
726	3	rares	
727	3	ravi	
728	3	regret	
729	3	remet	
730	3	remplir	
731	3	rentrer	
732	3	repos	
733	3	retenir	
734	3	rigoureux	
735	3	rude	
736	3	satisfaire	
737	3	saurait	
738	3	sentis	
739	3	seoir	
740	3	seront	
741	3	sexe	
742	3	sien	
743	3	siens	
744	3	sincérité	
745	3	soudain	
746	3	souffre	
747	3	soumis	
748	3	soupirer	
749	3	souveraine	
750	3	suffrage	
751	3	suprême	
752	3	surprise	
753	3	surtout	
754	3	sûreté	
755	3	te	
756	3	tendres	
757	3	tenir	
758	3	tient	
759	3	tort	
760	3	trouble	
761	3	trouvez	
762	3	tyran	
763	3	tyrannie	
764	3	utile	
765	3	vaincre	
766	3	vais	
767	3	venger	
768	3	verrez	
769	3	viens	
770	3	voici	
771	3	voudront	
772	3	vouliez	
773	3	voyait	
774	3	vrais	
775	3	vôtres	
776	3	échange	
777	3	éclate	
778	3	écouter	
779	3	égal	
780	3	étonne	
781	3	ô	
782	2	abattus	
783	2	accablée	
784	2	acquitter	
785	2	adore	
786	2	adoucir	
787	2	adresse	
788	2	affaire	
789	2	affermir	
790	2	affranchir	
791	2	agréable	
792	2	aimables	
793	2	aimais	
794	2	aiment	
795	2	aimons	
796	2	aimée	
797	2	air	
798	2	aisé	
799	2	allie	
800	2	allumé	
801	2	alors	
802	2	apprend	
803	2	apprends	
804	2	apprenez	
805	2	armée	
806	2	arsidas	
807	2	art	
808	2	asile	
809	2	aspire	
810	2	assiduité	
811	2	attendez	
812	2	attente	
813	2	attraits	
814	2	auparavant	
815	2	autoriser	
816	2	aversion	
817	2	aveugle	
818	2	avis	
819	2	avouera	
820	2	avouez	
821	2	balance	
822	2	barbare	
823	2	bassesse	
824	2	bonté	
825	2	borner	
826	2	bout	
827	2	bras	
828	2	brûle	
829	2	cachez	
830	2	causer	
831	2	causes	
832	2	changement	
833	2	changer	
834	2	changez	
835	2	chaque	
836	2	cher	
837	2	choir	
838	2	choisi	
839	2	choses	
840	2	clairement	
841	2	cléon	
842	2	colère	
843	2	comble	
844	2	comblée	
845	2	commandé	
846	2	complice	
847	2	condamnée	
848	2	conduite	
849	2	confiance	
850	2	consacrer	
851	2	consentement	
852	2	convaincre	
853	2	conçois	
854	2	courir	
855	2	court	
856	2	couvert	
857	2	coûte	
858	2	coûter	
859	2	crains	
860	2	craint	
861	2	cratès	
862	2	croyez	
863	2	cruelle	
864	2	côté	
865	2	damis	
866	2	depuis	
867	2	dernier	
868	2	dessous	
869	2	dessus	
870	2	destine	
871	2	devait	
872	2	devant	
873	2	différend	
874	2	dignes	
875	2	dirait	
876	2	doive	
877	2	douleur	
878	2	douter	
879	2	doutez	
880	2	dure	
881	2	déclare	
882	2	dédaigner	
883	2	défère	
884	2	déférer	
885	2	dégager	
886	2	dépens	
887	2	déplaisirs	
888	2	déplorable	
889	2	désavouerez	
890	2	désordre	
891	2	emporte	
892	2	emportement	
893	2	engage	
894	2	engagée	
895	2	ennuis	
896	2	entends	
897	2	envi	
898	2	envier	
899	2	esclavage	
900	2	esclave	
901	2	espérance	
902	2	eusse	
903	2	eut	
904	2	exiger	
905	2	face	
906	2	faible	
907	2	faits	
908	2	fameux	
909	2	familles	
910	2	fatal	
911	2	favorable	
912	2	feindre	
913	2	ferait	
914	2	feriez	
915	2	ferme	
916	2	fermer	
917	2	fers	
918	2	flammes	
919	2	flatteuse	
920	2	forcer	
921	2	forcez	
922	2	former	
923	2	forts	
924	2	fortune	
925	2	froideurs	
926	2	félicité	
927	2	gage	
928	2	glace	
929	2	grandes	
930	2	grâces	
931	2	guide	
932	2	guérison	
933	2	généreux	
934	2	hautes	
935	2	heur	
936	2	heure	
937	2	honorer	
938	2	hyménées	
939	2	illusion	
940	2	immole	
941	2	incertaine	
942	2	inclination	
943	2	indifférence	
944	2	indiscret	
945	2	indiscrète	
946	2	infaillible	
947	2	ingratitude	
948	2	injustices	
949	2	inquiète	
950	2	interprète	
951	2	inégalité	
952	2	irriter	
953	2	jalouse	
954	2	jalousie	
955	2	joindre	
956	2	laissent	
957	2	ligue	
958	2	limité	
959	2	lire	
960	2	lit	
961	2	lorsque	
962	2	lumière	
963	2	lâche	
964	2	légère	
965	2	maintenir	
966	2	manquement	
967	2	marque	
968	2	maîtres	
969	2	mercenaire	
970	2	mets	
971	2	mette	
972	2	miens	
973	2	milieu	
974	2	mille	
975	2	miracles	
976	2	moitié	
977	2	moments	
978	2	mourrai	
979	2	mystère	
980	2	ménager	
981	2	mêler	
982	2	naissance	
983	2	nobles	
984	2	noeud	
985	2	noms	
986	2	nouveaux	
987	2	nuire	
988	2	nécessaire	
989	2	obstacles	
990	2	obtiendrez	
991	2	obtienne	
992	2	obtient	
993	2	odieux	
994	2	offrirait	
995	2	opposer	
996	2	ordonnez	
997	2	ordonniez	
998	2	oreille	
999	2	osait	
1000	2	oserais	
1001	2	osez	
1002	2	ouvrage	
1003	2	ouvrent	
1004	2	paraît	
1005	2	parce	
1006	2	pareilles	
1007	2	parlons	
1008	2	parmi	
1009	2	partis	
1010	2	passer	
1011	2	perdez	
1012	2	persan	
1013	2	petite	
1014	2	peuvent	
1015	2	plaisir	
1016	2	pleine	
1017	2	plupart	
1018	2	plut	
1019	2	possède	
1020	2	pourvoir	
1021	2	pouvais	
1022	2	pouvait	
1023	2	pouvons	
1024	2	premiers	
1025	2	presser	
1026	2	pris	
1027	2	promets	
1028	2	promise	
1029	2	prompt	
1030	2	protecteur	
1031	2	province	
1032	2	précieux	
1033	2	préside	
1034	2	prétend	
1035	2	prévoir	
1036	2	punir	
1037	2	pénètre	
1038	2	périr	
1039	2	qualités	
1040	2	quant	
1041	2	quelquefois	
1042	2	quitte	
1043	2	quoique	
1044	2	ravir	
1045	2	rebut	
1046	2	refuser	
1047	2	remets	
1048	2	remis	
1049	2	remède	
1050	2	rends	
1051	2	renonce	
1052	2	reprendre	
1053	2	reproche	
1054	2	retraite	
1055	2	rudes	
1056	2	règle	
1057	2	règne	
1058	2	récompense	
1059	2	réduire	
1060	2	réduit	
1061	2	régler	
1062	2	répond	
1063	2	répondez	
1064	2	répondre	
1065	2	sachez	
1066	2	satisfait	
1067	2	saurai	
1068	2	saurais	
1069	2	saviez	
1070	2	sceptre	
1071	2	scrupule	
1072	2	seconde	
1073	2	semblent	
1074	2	seriez	
1075	2	servit	
1076	2	seulement	
1077	2	seuls	
1078	2	sienne	
1079	2	sincère	
1080	2	soient	
1081	2	soins	
1082	2	sommes	
1083	2	songez	
1084	2	souhaite	
1085	2	soupir	
1086	2	splendeur	
1087	2	suite	
1088	2	suivant	
1089	2	surpris	
1090	2	sut	
1091	2	sénateur	
1092	2	sûrs	
1093	2	ta	
1094	2	tantôt	
1095	2	telle	
1096	2	tels	
1097	2	tenait	
1098	2	tendresses	
1099	2	tire	
1100	2	titre	
1101	2	ton	
1102	2	toucher	
1103	2	tourner	
1104	2	trahir	
1105	2	traitement	
1106	2	traiter	
1107	2	travaux	
1108	2	trente	
1109	2	triompher	
1110	2	triomphez	
1111	2	trouvera	
1112	2	trépas	
1113	2	tâche	
1114	2	témoin	
1115	2	têtes	
1116	2	union	
1117	2	use	
1118	2	vanter	
1119	2	verrons	
1120	2	vertu	
1121	2	veuille	
1122	2	veulent	
1123	2	vieille	
1124	2	vies	
1125	2	voix	
1126	2	volé	
1127	2	vont	
1128	2	voudrez	
1129	2	voyons	
1130	2	véritablement	
1131	2	écouté	
1132	2	écrire	
1133	2	égale	
1134	2	également	
1135	2	épargne	
1136	2	éphore	
1137	2	éphores	
1138	2	épousez	
1139	2	éprise	
1140	2	étais	
1141	2	états	
1142	2	éteindre	
1143	2	étrangère	
1144	2	ôte	
1145	2	ôter	
1146	1	abaissiez	
1147	1	abandonne	
1148	1	abandonner	
1149	1	abat	
1150	1	abjects	
1151	1	absolus	
1152	1	abusez	
1153	1	accablé	
1154	1	acceptais	
1155	1	acceptant	
1156	1	acceptâmes	
1157	1	acceptés	
1158	1	accommoderais	
1159	1	accompagné	
1160	1	accorde	
1161	1	accordent	
1162	1	accordé	
1163	1	accordée	
1164	1	accueil	
1165	1	accusez	
1166	1	accès	
1167	1	acheter	
1168	1	achever	
1169	1	acquiert	
1170	1	acquitte	
1171	1	acquittez	
1172	1	acquitté	
1173	1	acquérir	
1174	1	action	
1175	1	actions	
1176	1	admirable	
1177	1	admire	
1178	1	adoption	
1179	1	adroite	
1180	1	affaires	
1181	1	affecter	
1182	1	affermit	
1183	1	afin	
1184	1	agirai	
1185	1	agissent	
1186	1	agréé	
1187	1	aidée	
1188	1	aie	
1189	1	aigreur	
1190	1	aigrir	
1191	1	aigris	
1192	1	aille	
1193	1	aimant	
1194	1	aimerait	
1195	1	aimeriez	
1196	1	aimés	
1197	1	aise	
1198	1	aisée	
1199	1	ajuster	
1200	1	alarmerait	
1201	1	alarmes	
1202	1	allais	
1203	1	alliés	
1204	1	allons	
1205	1	allumer	
1206	1	allumée	
1207	1	amassé	
1208	1	amenant	
1209	1	amer	
1210	1	amitiés	
1211	1	amorces	
1212	1	amortir	
1213	1	ample	
1214	1	amusement	
1215	1	amuser	
1216	1	amène	
1217	1	ancêtres	
1218	1	animant	
1219	1	années	
1220	1	antipathie	
1221	1	antique	
1222	1	apaiser	
1223	1	apparemment	
1224	1	apparence	
1225	1	apparences	
1226	1	appartient	
1227	1	appeler	
1228	1	appelle	
1229	1	applaudir	
1230	1	applaudis	
1231	1	applique	
1232	1	apportais	
1233	1	apporte	
1234	1	apprendront	
1235	1	approuver	
1236	1	appréhendez	
1237	1	apprête	
1238	1	appuis	
1239	1	arbitre	
1240	1	ardemment	
1241	1	armera	
1242	1	armez	
1243	1	armées	
1244	1	arrachent	
1245	1	arraché	
1246	1	arrachés	
1247	1	arrive	
1248	1	arrivé	
1249	1	arrivée	
1250	1	arrivés	
1251	1	arrête	
1252	1	arrêteriez	
1253	1	artifice	
1254	1	as	
1255	1	asiatiques	
1256	1	asie	
1257	1	aspect	
1258	1	aspirent	
1259	1	asservi	
1260	1	asservir	
1261	1	assiette	
1262	1	assise	
1263	1	assorties	
1264	1	assujettis	
1265	1	assurance	
1266	1	assure	
1267	1	assuré	
1268	1	assurés	
1269	1	attachiez	
1270	1	attachés	
1271	1	attaque	
1272	1	atteinte	
1273	1	attendais	
1274	1	attendant	
1275	1	attends	
1276	1	attendu	
1277	1	attentats	
1278	1	attenter	
1279	1	attire	
1280	1	attirer	
1281	1	attiré	
1282	1	aucuns	
1283	1	audace	
1284	1	augmenter	
1285	1	aurions	
1286	1	auront	
1287	1	aussitôt	
1288	1	auteur	
1289	1	autorise	
1290	1	autorisât	
1291	1	autrement	
1292	1	autrui	
1293	1	avaient	
1294	1	avare	
1295	1	averti	
1296	1	avouer	
1297	1	avouerai	
1298	1	avouerait	
1299	1	avoué	
1300	1	ayant	
1301	1	bagatelle	
1302	1	balancé	
1303	1	balancée	
1304	1	balança	
1305	1	bannissez	
1306	1	bienheureux	
1307	1	bienséance	
1308	1	bizarrerie	
1309	1	blesse	
1310	1	blesser	
1311	1	bonnes	
1312	1	bord	
1313	1	borne	
1314	1	bornée	
1315	1	bravade	
1316	1	brave	
1317	1	braver	
1318	1	braves	
1319	1	bravez	
1320	1	bravons	
1321	1	brillants	
1322	1	brisai	
1323	1	brisé	
1324	1	bruit	
1325	1	bruits	
1326	1	brutalement	
1327	1	cabale	
1328	1	cachais	
1329	1	cacher	
1330	1	caché	
1331	1	cachés	
1332	1	capital	
1333	1	captifs	
1334	1	captivité	
1335	1	cas	
1336	1	cela	
1337	1	celer	
1338	1	certaine	
1339	1	cesserons	
1340	1	cesseront	
1341	1	cessons	
1342	1	chacun	
1343	1	chacune	
1344	1	chagrins	
1345	1	chaleur	
1346	1	changements	
1347	1	changent	
1348	1	changé	
1349	1	changée	
1350	1	chapitre	
1351	1	charme	
1352	1	charmes	
1353	1	charmé	
1354	1	charmés	
1355	1	chasse	
1356	1	chassé	
1357	1	chatouilleux	
1358	1	chaîne	
1359	1	cherchait	
1360	1	cherchions	
1361	1	chers	
1362	1	choisis	
1363	1	choquera	
1364	1	chéris	
1365	1	cieux	
1366	1	civilités	
1367	1	climats	
1368	1	colorent	
1369	1	colosse	
1370	1	combat	
1371	1	combattre	
1372	1	combler	
1373	1	commandements	
1374	1	commandez	
1375	1	commence	
1376	1	commencez	
1377	1	commune	
1378	1	complices	
1379	1	compte	
1380	1	concert	
1381	1	concevoir	
1382	1	condamne	
1383	1	confesse	
1384	1	confiances	
1385	1	confidemment	
1386	1	confident	
1387	1	confus	
1388	1	conférence	
1389	1	conférer	
1390	1	conjoncture	
1391	1	conjugale	
1392	1	conjure	
1393	1	connais	
1394	1	connaisse	
1395	1	conquérants	
1396	1	conquêtes	
1397	1	conseillers	
1398	1	consens	
1399	1	consentira	
1400	1	conserver	
1401	1	conservés	
1402	1	considérable	
1403	1	considéraient	
1404	1	considérer	
1405	1	considériez	
1406	1	consoler	
1407	1	consolé	
1408	1	conspire	
1409	1	conspirent	
1410	1	constance	
1411	1	consultés	
1412	1	conséquence	
1413	1	contemplais	
1414	1	contemple	
1415	1	content	
1416	1	contente	
1417	1	contentements	
1418	1	contentez	
1419	1	contraindre	
1420	1	contrains	
1421	1	contrainte	
1422	1	contraire	
1423	1	convient	
1424	1	copie	
1425	1	couleur	
1426	1	couleurs	
1427	1	coupable	
1428	1	coups	
1429	1	courages	
1430	1	couronnera	
1431	1	couronnée	
1432	1	couvrira	
1433	1	coûté	
1434	1	craigne	
1435	1	craindrai	
1436	1	craindrais	
1437	1	crainte	
1438	1	craintes	
1439	1	criminel	
1440	1	croît	
1441	1	croître	
1442	1	cruelles	
1443	1	crus	
1444	1	créature	
1445	1	créatures	
1446	1	crûmes	
1447	1	céderai	
1448	1	cédez	
1449	1	cédée	
1450	1	côtés	
1451	1	daigna	
1452	1	daignait	
1453	1	daignant	
1454	1	daigne	
1455	1	daignerez	
1456	1	daignez	
1457	1	daigniez	
1458	1	daigné	
1459	1	degré	
1460	1	dehors	
1461	1	demandait	
1462	1	demandâmes	
1463	1	demandé	
1464	1	demeurez	
1465	1	demeuriez	
1466	1	demi	
1467	1	dernière	
1468	1	descendre	
1469	1	desseins	
1470	1	desservir	
1471	1	destinait	
1472	1	destinées	
1473	1	dette	
1474	1	devenez	
1475	1	deviendra	
1476	1	deviendrez	
1477	1	deviez	
1478	1	devinssent	
1479	1	devint	
1480	1	devoirs	
1481	1	devons	
1482	1	die	
1483	1	difficile	
1484	1	différence	
1485	1	différends	
1486	1	différentes	
1487	1	différents	
1488	1	différé	
1489	1	dignement	
1490	1	dignité	
1491	1	disaient	
1492	1	disait	
1493	1	discerner	
1494	1	discours	
1495	1	discret	
1496	1	disparaît	
1497	1	disparaître	
1498	1	disposer	
1499	1	disposez	
1500	1	dissimule	
1501	1	dissipe	
1502	1	dissiper	
1503	1	diverse	
1504	1	diverses	
1505	1	divisions	
1506	1	dix	
1507	1	docte	
1508	1	domine	
1509	1	dompte	
1510	1	dompter	
1511	1	donna	
1512	1	donnait	
1513	1	dorénavant	
1514	1	dot	
1515	1	douces	
1516	1	douceurs	
1517	1	douleurs	
1518	1	douteux	
1519	1	due	
1520	1	durer	
1521	1	dures	
1522	1	durs	
1523	1	dussé	
1524	1	débarrasser	
1525	1	décide	
1526	1	décider	
1527	1	déclarer	
1528	1	déclaré	
1529	1	déclarés	
1530	1	découvert	
1531	1	dédaigneuses	
1532	1	dédains	
1533	1	dédira	
1534	1	dédire	
1535	1	dédit	
1536	1	défaire	
1537	1	défend	
1538	1	défends	
1539	1	défendu	
1540	1	défense	
1541	1	dégagez	
1542	1	dégagée	
1543	1	déguisent	
1544	1	délaissée	
1545	1	délibère	
1546	1	délivrerait	
1547	1	démenti	
1548	1	démêler	
1549	1	démêlé	
1550	1	dénie	
1551	1	dépendance	
1552	1	dépendre	
1553	1	dépends	
1554	1	déplairait	
1555	1	déplaise	
1556	1	déplaisir	
1557	1	déplaît	
1558	1	déploie	
1559	1	dépôt	
1560	1	dérobait	
1561	1	dérobe	
1562	1	dérobent	
1563	1	désabuser	
1564	1	désavoue	
1565	1	désavoué	
1566	1	désolé	
1567	1	déterminer	
1568	1	détruire	
1569	1	détruis	
1570	1	détruisez	
1571	1	dû	
1572	1	effacer	
1573	1	effets	
1574	1	efforce	
1575	1	efforcent	
1576	1	efforts	
1577	1	eh	
1578	1	embarras	
1579	1	embarrasse	
1580	1	embarrasser	
1581	1	embrasse	
1582	1	empara	
1583	1	emplois	
1584	1	emporteraient	
1585	1	empresse	
1586	1	empêche	
1587	1	empêchent	
1588	1	empêcher	
1589	1	endurci	
1590	1	endurer	
1591	1	enflammés	
1592	1	engager	
1593	1	engagez	
1594	1	enhardie	
1595	1	enjoué	
1596	1	enlève	
1597	1	ennoblir	
1598	1	ennuyez	
1599	1	ensemble	
1600	1	entend	
1601	1	entendait	
1602	1	entende	
1603	1	entendez	
1604	1	entières	
1605	1	entreprise	
1606	1	entrer	
1607	1	enveloppez	
1608	1	envieuse	
1609	1	enviez	
1610	1	environ	
1611	1	environne	
1612	1	envisage	
1613	1	envoyant	
1614	1	envoyez	
1615	1	espoirs	
1616	1	espèce	
1617	1	espérances	
1618	1	espérez	
1619	1	espérons	
1620	1	essai	
1621	1	estimerai	
1622	1	estimé	
1623	1	eurent	
1624	1	eus	
1625	1	examine	
1626	1	excite	
1627	1	excusable	
1628	1	excuser	
1629	1	excès	
1630	1	exhale	
1631	1	exigez	
1632	1	exilez	
1633	1	expliquer	
1634	1	expliquera	
1635	1	expliquez	
1636	1	exprime	
1637	1	expérience	
1638	1	extrême	
1639	1	exténue	
1640	1	facilité	
1641	1	faille	
1642	1	faisait	
1643	1	faisons	
1644	1	faite	
1645	1	fallu	
1646	1	fallut	
1647	1	famille	
1648	1	fantaisie	
1649	1	fantôme	
1650	1	fard	
1651	1	faudrait	
1652	1	favorables	
1653	1	favorise	
1654	1	façon	
1655	1	feinte	
1656	1	femme	
1657	1	feraient	
1658	1	ferais	
1659	1	fermé	
1660	1	feront	
1661	1	fidèlement	
1662	1	fidèles	
1663	1	fiers	
1664	1	figurais	
1665	1	figurer	
1666	1	fils	
1667	1	fini	
1668	1	fissiez	
1669	1	fit	
1670	1	flattent	
1671	1	flatteur	
1672	1	flottante	
1673	1	fléchir	
1674	1	fléchissez	
1675	1	fléchit	
1676	1	folles	
1677	1	fondements	
1678	1	forcent	
1679	1	forces	
1680	1	forcée	
1681	1	forfait	
1682	1	formez	
1683	1	formée	
1684	1	foudre	
1685	1	fournir	
1686	1	frivole	
1687	1	froid	
1688	1	froide	
1689	1	fugitive	
1690	1	fuit	
1691	1	fuite	
1692	1	fumées	
1693	1	funeste	
1694	1	fussiez	
1695	1	fâcheuse	
1696	1	fâcheux	
1697	1	fîtes	
1698	1	fût	
1699	1	gagnai	
1700	1	galanterie	
1701	1	gardent	
1702	1	gardons	
1703	1	gardée	
1704	1	glorieuses	
1705	1	glorieux	
1706	1	gouvernent	
1707	1	goûter	
1708	1	gratitude	
1709	1	grecque	
1710	1	grossir	
1711	1	grossit	
1712	1	gré	
1713	1	guerre	
1714	1	guerrier	
1715	1	généralat	
1716	1	gêner	
1717	1	haines	
1718	1	hais	
1719	1	halicarnasse	
1720	1	hasardaient	
1721	1	hasarde	
1722	1	hasards	
1723	1	hasardé	
1724	1	hauteur	
1725	1	heureusement	
1726	1	heureuses	
1727	1	histoire	
1728	1	hommages	
1729	1	hors	
1730	1	humains	
1731	1	ignominie	
1732	1	ignore	
1733	1	ignorons	
1734	1	imiter	
1735	1	immoleront	
1736	1	immolez	
1737	1	impitoyable	
1738	1	important	
1739	1	importun	
1740	1	importunité	
1741	1	importunités	
1742	1	importuns	
1743	1	imposer	
1744	1	imposeront	
1745	1	impossibles	
1746	1	impression	
1747	1	imprimé	
1748	1	impute	
1749	1	imputer	
1750	1	imputez	
1751	1	incertains	
1752	1	incertitude	
1753	1	incomparable	
1754	1	incompatible	
1755	1	inconstant	
1756	1	indifféremment	
1757	1	indifférent	
1758	1	indifférente	
1759	1	indignités	
1760	1	indignés	
1761	1	indépendance	
1762	1	inexorable	
1763	1	infidèle	
1764	1	infortune	
1765	1	infâme	
1766	1	ingrats	
1767	1	injure	
1768	1	inquiétude	
1769	1	insatiable	
1770	1	inscription	
1771	1	insensibilité	
1772	1	insolemment	
1773	1	inspirer	
1774	1	instant	
1775	1	instruira	
1776	1	instruisent	
1777	1	instruit	
1778	1	instruite	
1779	1	insupportable	
1780	1	interdit	
1781	1	intéresse	
1782	1	intéressées	
1783	1	inutilement	
1784	1	inutiles	
1785	1	inviolable	
1786	1	invite	
1787	1	inégal	
1788	1	inégalités	
1789	1	irait	
1790	1	irrité	
1791	1	irritée	
1792	1	irrités	
1793	1	irrésolus	
1794	1	irrévocable	
1795	1	jadis	
1796	1	jalouses	
1797	1	jette	
1798	1	joignait	
1799	1	joue	
1800	1	jouez	
1801	1	jugent	
1802	1	juré	
1803	1	laide	
1804	1	laissait	
1805	1	lancer	
1806	1	langage	
1807	1	langue	
1808	1	langueur	
1809	1	lequel	
1810	1	lettre	
1811	1	lettres	
1812	1	libre	
1813	1	librement	
1814	1	licence	
1815	1	liens	
1816	1	lieutenant	
1817	1	livrer	
1818	1	loisir	
1819	1	long	
1820	1	longtemps	
1821	1	loue	
1822	1	loué	
1823	1	lumières	
1824	1	léotychide	
1825	1	magnanime	
1826	1	magnanimité	
1827	1	malaisé	
1828	1	malheureuse	
1829	1	mande	
1830	1	mandé	
1831	1	manière	
1832	1	manquer	
1833	1	manquez	
1834	1	manquons	
1835	1	mariez	
1836	1	marques	
1837	1	mauvais	
1838	1	mauvaise	
1839	1	maxime	
1840	1	maîtresse	
1841	1	meilleur	
1842	1	menace	
1843	1	menaçant	
1844	1	mesure	
1845	1	mettez	
1846	1	mettrez	
1847	1	meurent	
1848	1	miennes	
1849	1	miracle	
1850	1	mois	
1851	1	montrez	
1852	1	monté	
1853	1	morte	
1854	1	mortelles	
1855	1	mots	
1856	1	mourir	
1857	1	mourraient	
1858	1	muette	
1859	1	murmurait	
1860	1	murmurant	
1861	1	murmurer	
1862	1	murmures	
1863	1	mutinait	
1864	1	mystérieuses	
1865	1	méconnaissais	
1866	1	mécontentements	
1867	1	mécontenter	
1868	1	mécontents	
1869	1	mégarde	
1870	1	ménage	
1871	1	méprisons	
1872	1	méritait	
1873	1	mérites	
1874	1	mérité	
1875	1	mésintelligence	
1876	1	mêle	
1877	1	naissant	
1878	1	nature	
1879	1	naturel	
1880	1	naturelle	
1881	1	noire	
1882	1	nombre	
1883	1	nommer	
1884	1	nommez	
1885	1	nouveauté	
1886	1	nouvel	
1887	1	nouvelles	
1888	1	nuit	
1889	1	nullement	
1890	1	né	
1891	1	nécessité	
1892	1	née	
1893	1	nées	
1894	1	néglige	
1895	1	négligence	
1896	1	négligeons	
1897	1	nôtre	
1898	1	oblige	
1899	1	obligeante	
1900	1	obligeants	
1901	1	obligez	
1902	1	obscurité	
1903	1	obscurs	
1904	1	obstinée	
1905	1	obstinément	
1906	1	obsède	
1907	1	obtenu	
1908	1	obtiendra	
1909	1	obtiendrait	
1910	1	obtiens	
1911	1	obéirai	
1912	1	obéissante	
1913	1	obéisse	
1914	1	obéit	
1915	1	occasions	
1916	1	offenser	
1917	1	offenseriez	
1918	1	offerte	
1919	1	offices	
1920	1	offrez	
1921	1	offrirent	
1922	1	offririez	
1923	1	offrît	
1924	1	opprimés	
1925	1	or	
1926	1	orage	
1927	1	orateur	
1928	1	ordonner	
1929	1	orne	
1930	1	osais	
1931	1	oser	
1932	1	oserez	
1933	1	oseront	
1934	1	osé	
1935	1	oublier	
1936	1	oubliez	
1937	1	oublié	
1938	1	ouvert	
1939	1	ouvertement	
1940	1	ouvre	
1941	1	oyez	
1942	1	paisibles	
1943	1	palais	
1944	1	paquet	
1945	1	pardonnez	
1946	1	parentes	
1947	1	parents	
1948	1	parlerai	
1949	1	partagent	
1950	1	partagée	
1951	1	partie	
1952	1	partir	
1953	1	partout	
1954	1	parts	
1955	1	paru	
1956	1	passent	
1957	1	passera	
1958	1	paternel	
1959	1	paternelle	
1960	1	patience	
1961	1	pausanias	
1962	1	payassent	
1963	1	payé	
1964	1	payés	
1965	1	peines	
1966	1	peinture	
1967	1	pencher	
1968	1	pencherait	
1969	1	penchez	
1970	1	pensées	
1971	1	pentes	
1972	1	perdant	
1973	1	perdons	
1974	1	perdrait	
1975	1	perdriez	
1976	1	perds	
1977	1	perdue	
1978	1	permet	
1979	1	permettais	
1980	1	permettre	
1981	1	permis	
1982	1	permit	
1983	1	perses	
1984	1	persécuté	
1985	1	perçant	
1986	1	pester	
1987	1	petit	
1988	1	peuple	
1989	1	peur	
1990	1	peux	
1991	1	pharnabaze	
1992	1	pique	
1993	1	placer	
1994	1	plaintes	
1995	1	plaira	
1996	1	plairait	
1997	1	plais	
1998	1	plaisait	
1999	1	plausibles	
2000	1	poids	
2001	1	pompe	
2002	1	populaire	
2003	1	portait	
2004	1	portent	
2005	1	porterez	
2006	1	pourrons	
2007	1	pourront	
2008	1	pourvue	
2009	1	pouviez	
2010	1	prenaient	
2011	1	prenant	
2012	1	prendrai	
2013	1	prendront	
2014	1	prends	
2015	1	prenne	
2016	1	prenons	
2017	1	pressait	
2018	1	pressante	
2019	1	pressentir	
2020	1	pressé	
2021	1	prient	
2022	1	prier	
2023	1	princes	
2024	1	priverais	
2025	1	prodigue	
2026	1	produirait	
2027	1	produisent	
2028	1	produit	
2029	1	profane	
2030	1	profanent	
2031	1	proie	
2032	1	projets	
2033	1	promesse	
2034	1	promesses	
2035	1	promet	
2036	1	promette	
2037	1	promettez	
2038	1	promettront	
2039	1	promit	
2040	1	prompts	
2041	1	prononce	
2042	1	propos	
2043	1	propose	
2044	1	proposé	
2045	1	proposée	
2046	1	propres	
2047	1	protecteurs	
2048	1	protection	
2049	1	proteste	
2050	1	protéger	
2051	1	provinces	
2052	1	précieuse	
2053	1	précipice	
2054	1	précis	
2055	1	préfère	
2056	1	préférer	
2057	1	préparai	
2058	1	préparer	
2059	1	présumer	
2060	1	prétendez	
2061	1	prétexte	
2062	1	prévenant	
2063	1	prévenir	
2064	1	prévienne	
2065	1	prévu	
2066	1	prévus	
2067	1	prêtes	
2068	1	prît	
2069	1	pudeur	
2070	1	puissamment	
2071	1	puissants	
2072	1	puissent	
2073	1	pure	
2074	1	pusse	
2075	1	pussiez	
2076	1	péril	
2077	1	pût	
2078	1	quatre	
2079	1	quelles	
2080	1	quereller	
2081	1	quiconque	
2082	1	quittai	
2083	1	quitter	
2084	1	quittez	
2085	1	quitté	
2086	1	quittée	
2087	1	quoiqu	
2088	1	race	
2089	1	raillerie	
2090	1	raisonnements	
2091	1	raisonner	
2092	1	ramper	
2093	1	range	
2094	1	rappelez	
2095	1	rapport	
2096	1	ravale	
2097	1	ravaler	
2098	1	ravie	
2099	1	ravies	
2100	1	ravissements	
2101	1	recevant	
2102	1	recevrai	
2103	1	rechercher	
2104	1	reconnaissant	
2105	1	reconnaître	
2106	1	reconnu	
2107	1	redemander	
2108	1	redonne	
2109	1	redoutable	
2110	1	redoute	
2111	1	redouter	
2112	1	refusais	
2113	1	refusez	
2114	1	refusiez	
2115	1	refusé	
2116	1	regagner	
2117	1	regard	
2118	1	regarder	
2119	1	regarderais	
2120	1	regardée	
2121	1	reines	
2122	1	rejetant	
2123	1	remettez	
2124	1	remporter	
2125	1	rencontre	
2126	1	rencontrez	
2127	1	rencontré	
2128	1	rendait	
2129	1	rendant	
2130	1	rende	
2131	1	rendit	
2132	1	rendons	
2133	1	rendra	
2134	1	rendrait	
2135	1	rendront	
2136	1	rendu	
2137	1	renfermer	
2138	1	renommée	
2139	1	renoncer	
2140	1	renonciez	
2141	1	renonçais	
2142	1	renouement	
2143	1	renverse	
2144	1	renverser	
2145	1	renvoie	
2146	1	renvoyait	
2147	1	repassez	
2148	1	reposez	
2149	1	reprocher	
2150	1	reprochez	
2151	1	respect	
2152	1	ressemble	
2153	1	retenu	
2154	1	retenue	
2155	1	retient	
2156	1	retire	
2157	1	retraites	
2158	1	retranche	
2159	1	revancher	
2160	1	reçoit	
2161	1	reçus	
2162	1	rigueurs	
2163	1	rire	
2164	1	rivales	
2165	1	rivaux	
2166	1	rompre	
2167	1	rompt	
2168	1	royale	
2169	1	royauté	
2170	1	ruine	
2171	1	règlent	
2172	1	règles	
2173	1	règnent	
2174	1	réduira	
2175	1	réduisons	
2176	1	réduite	
2177	1	régnâtes	
2178	1	réplique	
2179	1	répondais	
2180	1	répondait	
2181	1	réponde	
2182	1	répondiez	
2183	1	répondrais	
2184	1	répondrait	
2185	1	république	
2186	1	républiques	
2187	1	réserve	
2188	1	réservé	
2189	1	réservée	
2190	1	résoudra	
2191	1	résous	
2192	1	réussir	
2193	1	révoltés	
2194	1	révère	
2195	1	sache	
2196	1	sacrifie	
2197	1	sacrifierai	
2198	1	sage	
2199	1	saintes	
2200	1	saisir	
2201	1	saisissez	
2202	1	saison	
2203	1	salaires	
2204	1	saper	
2205	1	satisfaite	
2206	1	satisferait	
2207	1	sauraient	
2208	1	sauvez	
2209	1	savait	
2210	1	savent	
2211	1	scrupuleuse	
2212	1	secoué	
2213	1	secrète	
2214	1	secrètes	
2215	1	secrétaire	
2216	1	semblez	
2217	1	sensible	
2218	1	sentez	
2219	1	sentiment	
2220	1	sentir	
2221	1	serais	
2222	1	serments	
2223	1	serons	
2224	1	sers	
2225	1	servent	
2226	1	servira	
2227	1	servirait	
2228	1	servitude	
2229	1	servons	
2230	1	seule	
2231	1	simple	
2232	1	simplement	
2233	1	sinon	
2234	1	soeurs	
2235	1	sois	
2236	1	songe	
2237	1	songer	
2238	1	sors	
2239	1	sorte	
2240	1	sortez	
2241	1	souffrait	
2242	1	souffrance	
2243	1	souffrirai	
2244	1	souhait	
2245	1	souhaiter	
2246	1	souhaitiez	
2247	1	souille	
2248	1	souiller	
2249	1	soulevait	
2250	1	soulève	
2251	1	soumettent	
2252	1	soupçons	
2253	1	soutenir	
2254	1	soutien	
2255	1	soutiendront	
2256	1	soutient	
2257	1	souveraines	
2258	1	souverains	
2259	1	souviendrez	
2260	1	subir	
2261	1	subjugués	
2262	1	sublime	
2263	1	subtilités	
2264	1	succède	
2265	1	suffire	
2266	1	suffisamment	
2267	1	suffrages	
2268	1	suggère	
2269	1	suit	
2270	1	suive	
2271	1	suivi	
2272	1	suivie	
2273	1	suivrait	
2274	1	sujette	
2275	1	supercherie	
2276	1	superflus	
2277	1	surprenait	
2278	1	surprises	
2279	1	sus	
2280	1	sympathie	
2281	1	sympathies	
2282	1	séparent	
2283	1	sévère	
2284	1	sûre	
2285	1	sûres	
2286	1	sûretés	
2287	1	tache	
2288	1	taise	
2289	1	tempête	
2290	1	tendre	
2291	1	tendresse	
2292	1	tenez	
2293	1	teniez	
2294	1	tenons	
2295	1	tenu	
2296	1	terminer	
2297	1	thémistocle	
2298	1	tiendrai	
2299	1	tiendrais	
2300	1	tienne	
2301	1	tiennent	
2302	1	tirant	
2303	1	tirons	
2304	1	tiré	
2305	1	titres	
2306	1	toi	
2307	1	tombe	
2308	1	tombeau	
2309	1	tomber	
2310	1	tombé	
2311	1	touche	
2312	1	tourment	
2313	1	tournent	
2314	1	tournera	
2315	1	tracer	
2316	1	trahit	
2317	1	trait	
2318	1	traite	
2319	1	traitements	
2320	1	traitera	
2321	1	traitez	
2322	1	traitons	
2323	1	trancher	
2324	1	tranquille	
2325	1	travers	
2326	1	traverse	
2327	1	traînées	
2328	1	tremble	
2329	1	triomphe	
2330	1	triple	
2331	1	triste	
2332	1	tristes	
2333	1	trompez	
2334	1	trompée	
2335	1	troubler	
2336	1	troupes	
2337	1	trouva	
2338	1	trouvais	
2339	1	trouvâtes	
2340	1	trouvé	
2341	1	truchements	
2342	1	trésors	
2343	1	tue	
2344	1	tyrannies	
2345	1	tyrannise	
2346	1	tâchez	
2347	1	tâchons	
2348	1	témoignait	
2349	1	téméraire	
2350	1	tôt	
2351	1	unir	
2352	1	unit	
2353	1	univers	
2354	1	user	
2355	1	userai	
2356	1	usez	
2357	1	usés	
2358	1	vaincra	
2359	1	vainqueur	
2360	1	vains	
2361	1	valez	
2362	1	vanité	
2363	1	vaut	
2364	1	vend	
2365	1	vengeances	
2366	1	venir	
2367	1	venons	
2368	1	verrais	
2369	1	verrait	
2370	1	verriez	
2371	1	verser	
2372	1	vertueux	
2373	1	victoires	
2374	1	vienne	
2375	1	viennent	
2376	1	vif	
2377	1	villes	
2378	1	vingt	
2379	1	visibles	
2380	1	vit	
2381	1	vive	
2382	1	vivement	
2383	1	vivrai	
2384	1	vivre	
2385	1	voie	
2386	1	voile	
2387	1	vol	
2388	1	vole	
2389	1	volontaire	
2390	1	voudra	
2391	1	voudrai	
2392	1	voudraient	
2393	1	voudrais	
2394	1	voudrait	
2395	1	voudriez	
2396	1	voulaient	
2397	1	voulais	
2398	1	voyant	
2399	1	vérité	
2400	1	vît	
2401	1	âge	
2402	1	éblouis	
2403	1	éblouisse	
2404	1	ébranle	
2405	1	échappe	
2406	1	éclatant	
2407	1	éclatante	
2408	1	écoutez	
2409	1	écoutés	
2410	1	écrasent	
2411	1	égaler	
2412	1	égales	
2413	1	égalez	
2414	1	élever	
2415	1	élevés	
2416	1	élire	
2417	1	éloquence	
2418	1	élève	
2419	1	émue	
2420	1	épargner	
2421	1	épargnez	
2422	1	épousant	
2423	1	épreuve	
2424	1	épris	
2425	1	éprouver	
2426	1	équité	
2427	1	érige	
2428	1	établi	
2429	1	établie	
2430	1	étaler	
2431	1	éteigne	
2432	1	éteignez	
2433	1	étincelle	
2434	1	étonnement	
2435	1	étonnée	
2436	1	étouffés	
2437	1	étranger	
2438	1	étrangères	
2439	1	ôtent	
2440	1	ôté	
