1,489,de
2,441,vous
3,370,que
4,356,à
5,354,l
6,343,il
7,336,et
8,298,est
9,295,en
10,293,qu
11,285,le
12,280,je
13,249,la
14,230,pour
15,219,d
16,205,ce
17,192,un
18,168,me
19,166,si
20,157,qui
21,142,mon
22,140,n
23,138,m
24,136,son
25,135,ne
26,125,elle
27,125,j
28,120,mais
29,118,ma
30,114,s
31,111,votre
32,108,a
33,107,c
34,96,sa
35,92,amour
36,91,sans
37,89,par
38,86,bien
39,85,moi
40,84,lui
41,82,duc
42,81,on
43,76,plus
44,72,ai
45,71,duchesse
46,69,les
47,67,coeur
48,67,quoi
49,62,fait
50,62,une
51,61,se
52,60,dans
53,59,au
54,59,pas
55,58,voix
56,58,être
57,57,peut
58,54,mes
59,52,fenise
60,52,tout
61,51,enfin
62,51,point
63,48,faut
64,48,voir
65,47,cette
66,46,carlos
67,45,sur
68,45,tu
69,44,trop
70,43,vos
71,41,quand
72,40,foi
73,40,rien
74,39,ses
75,38,seigneur
76,37,âme
77,36,ah
78,36,dont
79,36,espoir
80,36,peu
81,36,quelque
82,35,y
83,34,du
84,33,faire
85,33,nous
86,33,où
87,32,assez
88,32,avec
89,31,ici
90,31,même
91,31,vois
92,30,beauté
93,30,comme
94,30,pu
95,30,yeux
96,29,donc
97,29,madame
98,29,tant
99,27,doux
100,27,flamme
101,27,non
102,26,avoir
103,25,belle
104,25,des
105,25,jamais
106,25,là
107,24,feu
108,24,gloire
109,24,puis
110,24,toujours
111,24,vain
112,23,t
113,22,aimer
114,22,autre
115,22,aveu
116,22,cet
117,22,dire
118,22,mal
119,22,secret
120,22,su
121,22,voeux
122,22,éclat
123,21,ainsi
124,21,dois
125,20,charme
126,20,ciel
127,20,effet
128,20,mieux
129,20,tous
130,19,esprit
131,19,lors
132,19,mépris
133,19,ont
134,19,ordre
135,19,peine
136,19,quel
137,19,quelle
138,19,sais
139,19,sont
140,19,état
141,18,connaître
142,18,croire
143,18,déjà
144,18,federic
145,18,jusqu
146,18,seul
147,17,après
148,17,sens
149,16,aujourd
150,16,avez
151,16,doit
152,16,eut
153,16,hui
154,16,leur
155,16,milan
156,16,ou
157,16,rang
158,16,ô
159,15,appas
160,15,dieux
161,15,moins
162,15,suis
163,15,va
164,15,vient
165,14,ayant
166,14,car
167,14,crime
168,14,lieu
169,14,naître
170,14,parme
171,14,temps
172,13,accord
173,13,aime
174,13,ardeur
175,13,célie
176,13,donner
177,13,effort
178,13,encor
179,13,estime
180,13,hommage
181,13,hélas
182,13,jour
183,13,parler
184,13,toute
185,13,trouve
186,13,voit
187,12,ait
188,12,aussi
189,12,aux
190,12,bonheur
191,12,ces
192,12,erreur
193,12,fabrice
194,12,hymen
195,12,malheur
196,12,oui
197,12,passion
198,12,respect
199,12,sentiments
200,12,seule
201,12,soupirs
202,12,surprise
203,12,veux
204,12,vue
205,11,aurait
206,11,beau
207,11,charmes
208,11,craindre
209,11,dessein
210,11,désirs
211,11,empire
212,11,fut
213,11,laure
214,11,nom
215,11,ose
216,11,paraître
217,11,parle
218,11,pouvoir
219,11,rendre
220,11,sang
221,11,sort
222,11,ton
223,11,était
224,10,assurer
225,10,bon
226,10,caprice
227,10,croyez
228,10,dame
229,10,devoir
230,10,droit
231,10,fois
232,10,frère
233,10,grand
234,10,grâce
235,10,laisse
236,10,objet
237,10,puisque
238,10,raison
239,10,soit
240,10,te
241,10,toi
242,10,veut
243,10,vu
244,9,abord
245,9,adresse
246,9,avait
247,9,avant
248,9,chanter
249,9,choix
250,9,contre
251,9,crains
252,9,dis
253,9,dit
254,9,espérer
255,9,extrême
256,9,fort
257,9,ils
258,9,joie
259,9,juste
260,9,loin
261,9,nos
262,9,permis
263,9,plaire
264,9,plutôt
265,9,prend
266,9,père
267,9,quelques
268,9,refus
269,9,sait
270,9,semble
271,9,soins
272,9,tel
273,9,voudrais
274,9,êtes
275,8,adieu
276,8,attraits
277,8,auprès
278,8,cesse
279,8,comment
280,8,contrainte
281,8,cour
282,8,crois
283,8,deux
284,8,doute
285,8,engage
286,8,fille
287,8,honneur
288,8,intérêt
289,8,lieux
290,8,luth
291,8,malgré
292,8,ni
293,8,orgueil
294,8,plaisir
295,8,prix
296,8,rend
297,8,retour
298,8,rigueur
299,8,servir
300,8,silence
301,8,sujet
302,8,ta
303,8,zèle
304,7,abuser
305,7,aimée
306,7,alors
307,7,celle
308,7,celui
309,7,chagrin
310,7,coeurs
311,7,colère
312,7,dites
313,7,désir
314,7,entendre
315,7,espérance
316,7,fierté
317,7,fit
318,7,importe
319,7,part
320,7,pavie
321,7,pourrait
322,7,pris
323,7,puisqu
324,7,serait
325,7,soeur
326,7,soin
327,7,songer
328,7,succès
329,7,suffit
330,7,surpris
331,7,tour
332,7,trouver
333,7,vengeance
334,7,voilà
335,6,agir
336,6,aimable
337,6,aimez
338,6,arrêter
339,6,avecque
340,6,beautés
341,6,cause
342,6,couronne
343,6,cède
344,6,céder
345,6,dedans
346,6,demain
347,6,doutez
348,6,dû
349,6,enfants
350,6,ennui
351,6,faites
352,6,faux
353,6,flatter
354,6,fâcheux
355,6,haut
356,6,honte
357,6,indigne
358,6,intéresse
359,6,intérêts
360,6,lois
361,6,maîtresse
362,6,mille
363,6,notre
364,6,nouveau
365,6,obstacle
366,6,outrage
367,6,passe
368,6,presse
369,6,prétendre
370,6,puisse
371,6,rare
372,6,recevoir
373,6,remède
374,6,savoir
375,6,seulement
376,6,sien
377,6,souci
378,6,soupirer
379,6,taire
380,6,toutefois
381,6,verra
382,6,viens
383,6,voyez
384,6,éclater
385,6,écouter
386,6,épouser
387,6,états
388,5,afin
389,5,amant
390,5,amène
391,5,apprendre
392,5,arriver
393,5,arrêté
394,5,attente
395,5,aucun
396,5,aura
397,5,autant
398,5,braver
399,5,cela
400,5,cependant
401,5,chacun
402,5,chante
403,5,connais
404,5,contraire
405,5,depuis
406,5,donne
407,5,douceur
408,5,déguiser
409,5,encore
410,5,entends
411,5,entreprise
412,5,espère
413,5,fais
414,5,faveur
415,5,favorable
416,5,feindre
417,5,feux
418,5,force
419,5,froideur
420,5,hasard
421,5,inconnue
422,5,justice
423,5,maître
424,5,mis
425,5,oblige
426,5,offre
427,5,oppose
428,5,osez
429,5,ouïr
430,5,pareil
431,5,perd
432,5,perdre
433,5,peur
434,5,pouvez
435,5,prendre
436,5,quels
437,5,renonce
438,5,reproche
439,5,reste
440,5,sensible
441,5,sitôt
442,5,soi
443,5,solitude
444,5,sorte
445,5,soudain
446,5,souffrez
447,5,soulager
448,5,soupire
449,5,sous
450,5,sûr
451,5,trahir
452,5,voici
453,5,voulez
454,5,éclaircir
455,5,étonne
456,4,abandonner
457,4,accords
458,4,ailleurs
459,4,aimé
460,4,air
461,4,allons
462,4,allé
463,4,appuyer
464,4,aspire
465,4,attache
466,4,aurais
467,4,avantage
468,4,avouerai
469,4,blesse
470,4,bonne
471,4,bontés
472,4,cacher
473,4,capricieux
474,4,charmer
475,4,cher
476,4,combien
477,4,consentir
478,4,contraindre
479,4,contraint
480,4,corps
481,4,croit
482,4,devant
483,4,diable
484,4,douce
485,4,douter
486,4,découvrir
487,4,déplaire
488,4,désormais
489,4,dût
490,4,efface
491,4,elles
492,4,emporte
493,4,enflammée
494,4,enrager
495,4,entière
496,4,eussiez
497,4,eux
498,4,exprès
499,4,faiblesse
500,4,fasse
501,4,faudra
502,4,fera
503,4,forcer
504,4,haïr
505,4,heureux
506,4,humeur
507,4,injuste
508,4,inquiétude
509,4,jugez
510,4,jusques
511,4,laisser
512,4,laissez
513,4,langue
514,4,leurs
515,4,loi
516,4,lorsque
517,4,main
518,4,malheureux
519,4,mettre
520,4,mien
521,4,mort
522,4,mérite
523,4,nouvelle
524,4,ordres
525,4,osais
526,4,parlons
527,4,partage
528,4,partir
529,4,penser
530,4,permet
531,4,personne
532,4,peux
533,4,plaît
534,4,politique
535,4,portrait
536,4,pourrais
537,4,pourrez
538,4,pourriez
539,4,pouvait
540,4,première
541,4,prends
542,4,pure
543,4,quelquefois
544,4,refuser
545,4,rends
546,4,respects
547,4,satisfaire
548,4,souffre
549,4,souffrir
550,4,souhaits
551,4,soyez
552,4,surprendre
553,4,tandis
554,4,trouble
555,4,témoigner
556,4,tôt
557,4,vais
558,4,vanité
559,4,venger
560,4,venir
561,4,vie
562,4,visage
563,4,vivre
564,4,voulu
565,4,vrai
566,4,vôtre
567,4,écoute
568,4,égal
569,4,étant
570,4,étouffer
571,3,abus
572,3,accable
573,3,accuser
574,3,accès
575,3,admire
576,3,aide
577,3,alarme
578,3,aller
579,3,amorce
580,3,ans
581,3,apparence
582,3,appartement
583,3,apporte
584,3,apprends
585,3,apprenez
586,3,armes
587,3,arrête
588,3,as
589,3,assurance
590,3,assure
591,3,atteinte
592,3,attendre
593,3,audace
594,3,aurez
595,3,auriez
596,3,autorise
597,3,autres
598,3,avais
599,3,bientôt
600,3,bout
601,3,briller
602,3,bruit
603,3,caché
604,3,camille
605,3,capable
606,3,cessez
607,3,charmant
608,3,charmante
609,3,chercher
610,3,choisir
611,3,ci
612,3,comble
613,3,concevoir
614,3,confidente
615,3,confus
616,3,connaît
617,3,conserver
618,3,conte
619,3,coupable
620,3,craint
621,3,daigne
622,3,davantage
623,3,dernier
624,3,desseins
625,3,devez
626,3,différer
627,3,discours
628,3,dissimuler
629,3,douceurs
630,3,droits
631,3,défendre
632,3,défiance
633,3,emploi
634,3,employer
635,3,enflamme
636,3,engager
637,3,enrage
638,3,entend
639,3,entre
640,3,entretenir
641,3,envie
642,3,eu
643,3,exemple
644,3,explique
645,3,expliquer
646,3,eût
647,3,fin
648,3,finir
649,3,finit
650,3,flatté
651,3,folie
652,3,font
653,3,franchise
654,3,garde
655,3,gardez
656,3,glorieux
657,3,grandeur
658,3,grands
659,3,guère
660,3,gêne
661,3,honteux
662,3,irriter
663,3,jaloux
664,3,joindre
665,3,laide
666,3,laissant
667,3,louer
668,3,légitime
669,3,manque
670,3,maux
671,3,moment
672,3,montre
673,3,montrer
674,3,mot
675,3,mourir
676,3,moyen
677,3,musique
678,3,mémoire
679,3,mériter
680,3,mérité
681,3,noble
682,3,obtenir
683,3,offense
684,3,offensez
685,3,ombre
686,3,oreille
687,3,oser
688,3,oublie
689,3,oublier
690,3,paix
691,3,parlez
692,3,passer
693,3,payer
694,3,pendant
695,3,pense
696,3,pensez
697,3,plaindre
698,3,plainte
699,3,plein
700,3,pleinement
701,3,porte
702,3,porter
703,3,possède
704,3,premier
705,3,promettre
706,3,prompt
707,3,promptement
708,3,propice
709,3,prétexte
710,3,punir
711,3,pénétrer
712,3,pût
713,3,refusé
714,3,regards
715,3,regret
716,3,remettre
717,3,rendez
718,3,rentre
719,3,retardement
720,3,retire
721,3,retirer
722,3,rigoureux
723,3,rude
724,3,réduit
725,3,répondre
726,3,résoudre
727,3,rêver
728,3,sache
729,3,savez
730,3,secrètes
731,3,sincère
732,3,soumis
733,3,souvenir
734,3,teint
735,3,tiens
736,3,tient
737,3,tire
738,3,trahison
739,3,trait
740,3,traité
741,3,triste
742,3,trouvé
743,3,vas
744,3,verrai
745,3,verrait
746,3,vertu
747,3,vieux
748,3,vit
749,3,voila
750,3,égale
751,3,élever
752,3,épreuve
753,2,accueil
754,2,acquérir
755,2,adorable
756,2,adore
757,2,adresser
758,2,affaire
759,2,affligez
760,2,affront
761,2,agit
762,2,aigrir
763,2,aisément
764,2,allez
765,2,ambition
766,2,amoureux
767,2,apaiser
768,2,appelle
769,2,applaudir
770,2,applique
771,2,apporter
772,2,apprenant
773,2,approche
774,2,appui
775,2,arme
776,2,arrêtez
777,2,aspirer
778,2,asservit
779,2,assurez
780,2,assuré
781,2,attachement
782,2,attend
783,2,attire
784,2,aucune
785,2,augmente
786,2,auront
787,2,aussitôt
788,2,autrui
789,2,avance
790,2,avancer
791,2,aveugle
792,2,aveugler
793,2,avis
794,2,balancer
795,2,bannissement
796,2,beaux
797,2,besoin
798,2,blessures
799,2,bonsoir
800,2,brille
801,2,cache
802,2,ceci
803,2,certaine
804,2,cessant
805,2,change
806,2,changement
807,2,changer
808,2,chantant
809,2,chanteuse
810,2,chaque
811,2,charge
812,2,charmé
813,2,charmée
814,2,cherchant
815,2,cherchez
816,2,chose
817,2,condamnez
818,2,confondre
819,2,connaissance
820,2,connaissant
821,2,connaissez
822,2,connu
823,2,connue
824,2,conseil
825,2,consentez
826,2,conservez
827,2,considérer
828,2,continue
829,2,courage
830,2,courroux
831,2,coûte
832,2,craignant
833,2,crainte
834,2,cruel
835,2,crû
836,2,curiosité
837,2,cédant
838,2,demeure
839,2,destin
840,2,destinée
841,2,devrais
842,2,dieu
843,2,dira
844,2,disais
845,2,disiez
846,2,dispenser
847,2,disposer
848,2,divers
849,2,divertir
850,2,doive
851,2,donné
852,2,douté
853,2,douze
854,2,déclarer
855,2,déclaré
856,2,dégage
857,2,déguise
858,2,dés
859,2,désordre
860,2,détruit
861,2,dîtes
862,2,effacer
863,2,embarras
864,2,embarrasse
865,2,empêcher
866,2,engagé
867,2,ensemble
868,2,entendra
869,2,entrer
870,2,es
871,2,esprits
872,2,examine
873,2,excuser
874,2,excès
875,2,exil
876,2,face
877,2,faible
878,2,faibles
879,2,faisait
880,2,faisant
881,2,fard
882,2,fatal
883,2,ferait
884,2,fers
885,2,fidèle
886,2,figure
887,2,fils
888,2,fière
889,2,forcé
890,2,forme
891,2,fortune
892,2,fournir
893,2,friponne
894,2,frivole
895,2,fuir
896,2,fût
897,2,gagner
898,2,garder
899,2,guerre
900,2,haine
901,2,harangue
902,2,heur
903,2,heure
904,2,histoire
905,2,honneurs
906,2,hyménée
907,2,héritière
908,2,idée
909,2,ignorez
910,2,illustre
911,2,imparfaite
912,2,impression
913,2,imprévue
914,2,inconnu
915,2,inconstance
916,2,indifférence
917,2,injure
918,2,inquiet
919,2,inspire
920,2,instant
921,2,intelligence
922,2,interdit
923,2,interprètes
924,2,invincible
925,2,ira
926,2,irritez
927,2,jardin
928,2,jeune
929,2,jours
930,2,juger
931,2,justifié
932,2,liberté
933,2,lit
934,2,livre
935,2,long
936,2,longtemps
937,2,longue
938,2,lâche
939,2,lâcheté
940,2,mains
941,2,malheurs
942,2,manquer
943,2,marié
944,2,marquer
945,2,matière
946,2,mauvais
947,2,menace
948,2,merveille
949,2,merveilleux
950,2,mienne
951,2,miens
952,2,miracle
953,2,monde
954,2,montré
955,2,méprise
956,2,mêmes
957,2,nouveaux
958,2,nouvelles
959,2,nuire
960,2,obstine
961,2,obtiens
962,2,obéir
963,2,occasion
964,2,ordinaire
965,2,original
966,2,ouï
967,2,oyez
968,2,palais
969,2,parfait
970,2,parti
971,2,paru
972,2,passage
973,2,passez
974,2,pays
975,2,peint
976,2,pensé
977,2,perds
978,2,permettez
979,2,permettre
980,2,peste
981,2,pieds
982,2,pis
983,2,plaignez
984,2,plaint
985,2,plais
986,2,pompeux
987,2,pourquoi
988,2,pourtant
989,2,pourvu
990,2,pourvue
991,2,pousser
992,2,prenant
993,2,prenez
994,2,presque
995,2,pressante
996,2,prince
997,2,prison
998,2,prit
999,2,priver
1000,2,profonds
1001,2,projets
1002,2,promis
1003,2,propos
1004,2,prés
1005,2,présumer
1006,2,prétend
1007,2,prévoir
1008,2,puissant
1009,2,puissants
1010,2,puissiez
1011,2,qualités
1012,2,quitte
1013,2,quitter
1014,2,quittez
1015,2,railler
1016,2,ravi
1017,2,recevez
1018,2,regarde
1019,2,remplir
1020,2,rende
1021,2,rendent
1022,2,rentrez
1023,2,renvoie
1024,2,repos
1025,2,restera
1026,2,reçois
1027,2,reçoit
1028,2,reçu
1029,2,rire
1030,2,rit
1031,2,rompra
1032,2,réduite
1033,2,régler
1034,2,répondez
1035,2,réponds
1036,2,résolu
1037,2,réussir
1038,2,révolte
1039,2,sanglant
1040,2,saurai
1041,2,sauriez
1042,2,sauver
1043,2,saviez
1044,2,sceptre
1045,2,secours
1046,2,secrets
1047,2,semblable
1048,2,sent
1049,2,sentiment
1050,2,seriez
1051,2,serments
1052,2,servent
1053,2,servez
1054,2,servi
1055,2,seuls
1056,2,signal
1057,2,signé
1058,2,soient
1059,2,sommes
1060,2,songe
1061,2,sortir
1062,2,soupirant
1063,2,soupçon
1064,2,soupçonner
1065,2,soupçonnez
1066,2,source
1067,2,soutien
1068,2,soutient
1069,2,souvent
1070,2,souverain
1071,2,stratagème
1072,2,suit
1073,2,suivante
1074,2,suivez
1075,2,suivre
1076,2,supplice
1077,2,suspect
1078,2,sympathie
1079,2,taille
1080,2,tais
1081,2,tantôt
1082,2,telle
1083,2,tenant
1084,2,tendre
1085,2,tenir
1086,2,tes
1087,2,touche
1088,2,tourment
1089,2,toutes
1090,2,trahi
1091,2,traiter
1092,2,transport
1093,2,traversez
1094,2,triompher
1095,2,trompant
1096,2,tromper
1097,2,trompé
1098,2,trouvait
1099,2,trouvât
1100,2,tuteur
1101,2,tâchais
1102,2,tâche
1103,2,tâché
1104,2,témoignage
1105,2,union
1106,2,unique
1107,2,vaine
1108,2,vanter
1109,2,vaut
1110,2,venez
1111,2,vengée
1112,2,victoire
1113,2,vieil
1114,2,viennent
1115,2,visite
1116,2,vite
1117,2,vive
1118,2,vont
1119,2,voudra
1120,2,voudrait
1121,2,vouloir
1122,2,voyant
1123,2,voyons
1124,2,vécu
1125,2,âge
1126,2,ébloui
1127,2,écho
1128,2,éclaire
1129,2,éclatant
1130,2,écouté
1131,2,égaler
1132,2,élevé
1133,2,épousant
1134,2,éprouver
1135,2,étais
1136,2,étale
1137,2,éteindre
1138,2,éteint
1139,2,étiez
1140,2,étonner
1141,2,étonnée
1142,2,étrange
1143,2,étude
1144,2,ôter
1145,1,abaissement
1146,1,abandonne
1147,1,abandonné
1148,1,abandonnée
1149,1,abattent
1150,1,abattre
1151,1,absolu
1152,1,abusant
1153,1,abuse
1154,1,abusé
1155,1,abîmé
1156,1,accents
1157,1,accepté
1158,1,accidents
1159,1,accommoder
1160,1,accorde
1161,1,accorder
1162,1,accordez
1163,1,accourcir
1164,1,accoutume
1165,1,achever
1166,1,achevé
1167,1,achètes
1168,1,acquittant
1169,1,acquitter
1170,1,acquièrent
1171,1,admirez
1172,1,adorer
1173,1,adouci
1174,1,adoucir
1175,1,adressent
1176,1,adroitement
1177,1,affaires
1178,1,affecté
1179,1,afflige
1180,1,affranchi
1181,1,affranchie
1182,1,affranchir
1183,1,affreuse
1184,1,agi
1185,1,agissais
1186,1,agréa
1187,1,agréable
1188,1,agréera
1189,1,agréerez
1190,1,aident
1191,1,aider
1192,1,aidez
1193,1,aie
1194,1,aient
1195,1,aimais
1196,1,aimant
1197,1,aimasse
1198,1,aimera
1199,1,aimerais
1200,1,aimerait
1201,1,aimes
1202,1,aisé
1203,1,ajouter
1204,1,ajoutez
1205,1,alarmes
1206,1,alarmé
1207,1,allait
1208,1,allions
1209,1,allume
1210,1,allumé
1211,1,aloi
1212,1,altérer
1213,1,amante
1214,1,amants
1215,1,amas
1216,1,ambitieux
1217,1,ange
1218,1,anime
1219,1,animé
1220,1,animée
1221,1,animés
1222,1,année
1223,1,aperçois
1224,1,aperçue
1225,1,appelez
1226,1,applaudit
1227,1,apprend
1228,1,apprendra
1229,1,apprenne
1230,1,appris
1231,1,apprit
1232,1,approcher
1233,1,approchez
1234,1,approuver
1235,1,approuvât
1236,1,appréhende
1237,1,appréhendons
1238,1,apprête
1239,1,apprêts
1240,1,apprît
1241,1,appuierait
1242,1,appuyant
1243,1,appuyez
1244,1,arrive
1245,1,arrivons
1246,1,arrivée
1247,1,arrêtant
1248,1,art
1249,1,article
1250,1,aspirais
1251,1,assemble
1252,1,asservie
1253,1,asservir
1254,1,assidus
1255,1,assujettisse
1256,1,assurait
1257,1,assurant
1258,1,assurera
1259,1,assurât
1260,1,assurée
1261,1,astre
1262,1,attachant
1263,1,attaché
1264,1,atteints
1265,1,attendant
1266,1,attendent
1267,1,attendez
1268,1,attendrir
1269,1,attendu
1270,1,attendue
1271,1,attirer
1272,1,attirez
1273,1,attiré
1274,1,augmenter
1275,1,autel
1276,1,authentiquement
1277,1,autorisât
1278,1,autrefois
1279,1,autrement
1280,1,avaient
1281,1,avancent
1282,1,avantageuse
1283,1,aversion
1284,1,aveuglement
1285,1,avisez
1286,1,avons
1287,1,avouai
1288,1,avoue
1289,1,avouer
1290,1,avoué
1291,1,ayez
1292,1,badinage
1293,1,badinages
1294,1,bailles
1295,1,baissez
1296,1,bal
1297,1,bannir
1298,1,bat
1299,1,bats
1300,1,beaucoup
1301,1,belles
1302,1,bienheureux
1303,1,billet
1304,1,bizarre
1305,1,blancheur
1306,1,blessure
1307,1,blessé
1308,1,blâmais
1309,1,blâme
1310,1,blâmer
1311,1,blême
1312,1,bons
1313,1,bonté
1314,1,bornent
1315,1,borner
1316,1,bouche
1317,1,bouffon
1318,1,bouffonne
1319,1,bouffonner
1320,1,bouleverse
1321,1,brillant
1322,1,brillante
1323,1,brisons
1324,1,brouiller
1325,1,brûle
1326,1,brûler
1327,1,brûlera
1328,1,but
1329,1,cachera
1330,1,cachez
1331,1,cachiez
1332,1,capables
1333,1,captif
1334,1,captive
1335,1,captivé
1336,1,caractère
1337,1,cas
1338,1,caterre
1339,1,causait
1340,1,causer
1341,1,causé
1342,1,celles
1343,1,cent
1344,1,certain
1345,1,certains
1346,1,certes
1347,1,ceux
1348,1,chacune
1349,1,changez
1350,1,chantais
1351,1,chantait
1352,1,chantez
1353,1,chantiez
1354,1,chanté
1355,1,charmez
1356,1,chasse
1357,1,chasser
1358,1,chassieux
1359,1,chatouille
1360,1,chemin
1361,1,chercha
1362,1,cherchai
1363,1,cherchaient
1364,1,cherchait
1365,1,cherche
1366,1,chercherez
1367,1,cherché
1368,1,chère
1369,1,cieux
1370,1,cinq
1371,1,cinquième
1372,1,clair
1373,1,clarté
1374,1,clartés
1375,1,combats
1376,1,commence
1377,1,commun
1378,1,communs
1379,1,compagne
1380,1,compliment
1381,1,complot
1382,1,comprendriez
1383,1,comprends
1384,1,concevez
1385,1,condamne
1386,1,condamnerais
1387,1,condamnes
1388,1,conduire
1389,1,confiance
1390,1,confidence
1391,1,confier
1392,1,confirmée
1393,1,confié
1394,1,confond
1395,1,confondus
1396,1,confuse
1397,1,conquête
1398,1,conseille
1399,1,conseils
1400,1,consulter
1401,1,consultez
1402,1,consumer
1403,1,consumée
1404,1,contente
1405,1,conter
1406,1,continuez
1407,1,contraignait
1408,1,contraignent
1409,1,convaincra
1410,1,convie
1411,1,conçois
1412,1,couchez
1413,1,coule
1414,1,couleur
1415,1,coulé
1416,1,coup
1417,1,courez
1418,1,couronner
1419,1,couronnée
1420,1,court
1421,1,courte
1422,1,couru
1423,1,coûter
1424,1,crier
1425,1,criminel
1426,1,croirait
1427,1,croiriez
1428,1,croyant
1429,1,cru
1430,1,crue
1431,1,cruelle
1432,1,cruelles
1433,1,crûs
1434,1,crût
1435,1,cèdent
1436,1,cèdes
1437,1,cédera
1438,1,cédé
1439,1,côté
1440,1,daigner
1441,1,daignez
1442,1,daigniez
1443,1,demande
1444,1,demanderiez
1445,1,demandé
1446,1,demeurant
1447,1,demeurer
1448,1,demeurons
1449,1,dents
1450,1,derniers
1451,1,dernière
1452,1,deviendrez
1453,1,devient
1454,1,devinerait
1455,1,devoirs
1456,1,devrai
1457,1,devrait
1458,1,difficulté
1459,1,différence
1460,1,différent
1461,1,digne
1462,1,dirai
1463,1,dirais
1464,1,dirait
1465,1,direz
1466,1,diriez
1467,1,discret
1468,1,disgrâce
1469,1,dispensez
1470,1,dispose
1471,1,disposent
1472,1,dispute
1473,1,dissemblable
1474,1,dissimule
1475,1,dissipant
1476,1,dissiper
1477,1,dissipez
1478,1,distraire
1479,1,divin
1480,1,divine
1481,1,divins
1482,1,divisé
1483,1,doigts
1484,1,doivent
1485,1,domestique
1486,1,don
1487,1,donniez
1488,1,donnons
1489,1,donnèrent
1490,1,donnée
1491,1,douces
1492,1,drôle
1493,1,ducalement
1494,1,duché
1495,1,ducs
1496,1,dut
1497,1,dès
1498,1,décevoir
1499,1,déclarât
1500,1,découvert
1501,1,découvre
1502,1,dédaigner
1503,1,défaite
1504,1,défend
1505,1,défendrez
1506,1,défendu
1507,1,dégageant
1508,1,dégager
1509,1,dégoûter
1510,1,déguisements
1511,1,déguisé
1512,1,délai
1513,1,délicat
1514,1,délivrer
1515,1,démarier
1516,1,démon
1517,1,départ
1518,1,dépendre
1519,1,dépens
1520,1,dépit
1521,1,déploie
1522,1,déployé
1523,1,dérober
1524,1,désabuser
1525,1,désapprouvait
1526,1,désavouerez
1527,1,désavouiez
1528,1,désavoué
1529,1,désespoir
1530,1,désoblige
1531,1,détour
1532,1,détournez
1533,1,détromper
1534,1,détruire
1535,1,effacez
1536,1,effaçât
1537,1,effets
1538,1,efforts
1539,1,eh
1540,1,embarrasser
1541,1,embarrassée
1542,1,embrasse
1543,1,embrasé
1544,1,empara
1545,1,employa
1546,1,employez
1547,1,emporter
1548,1,emporté
1549,1,empressements
1550,1,empressez
1551,1,emprunté
1552,1,empêchait
1553,1,empêcherai
1554,1,empêchons
1555,1,enchante
1556,1,enchanté
1557,1,enfla
1558,1,enflammer
1559,1,enfle
1560,1,enfler
1561,1,engageait
1562,1,engagée
1563,1,engendre
1564,1,enlèvent
1565,1,ennemis
1566,1,ennuis
1567,1,ennuyé
1568,1,entassées
1569,1,entendez
1570,1,entendrez
1571,1,entier
1572,1,entrais
1573,1,entreprendre
1574,1,entreprenne
1575,1,entretenue
1576,1,entretien
1577,1,entretient
1578,1,entrouverte
1579,1,entré
1580,1,envoie
1581,1,escalier
1582,1,esclaves
1583,1,espérais
1584,1,espérez
1585,1,esquivé
1586,1,essai
1587,1,estimait
1588,1,estimer
1589,1,estimez
1590,1,estomaquer
1591,1,eurent
1592,1,exagérer
1593,1,excuse
1594,1,excusez
1595,1,exerce
1596,1,exercer
1597,1,exilée
1598,1,expliquerai
1599,1,exposant
1600,1,exposer
1601,1,exposerais
1602,1,exposé
1603,1,expresse
1604,1,exprime
1605,1,exprimer
1606,1,exprimé
1607,1,expérience
1608,1,extasiez
1609,1,extrait
1610,1,extravagance
1611,1,extrémité
1612,1,f
1613,1,facile
1614,1,facilité
1615,1,fadaise
1616,1,fades
1617,1,failli
1618,1,faillir
1619,1,faisaient
1620,1,faisiez
1621,1,faisons
1622,1,fallait
1623,1,famille
1624,1,farde
1625,1,fassiez
1626,1,fatale
1627,1,fatalité
1628,1,faudrait
1629,1,faute
1630,1,favoriser
1631,1,façon
1632,1,feignant
1633,1,feignez
1634,1,feignons
1635,1,feint
1636,1,feinte
1637,1,feintes
1638,1,femme
1639,1,ferai
1640,1,ferais
1641,1,feriez
1642,1,ferme
1643,1,fermes
1644,1,fermiez
1645,1,fidélité
1646,1,fie
1647,1,fier
1648,1,filles
1649,1,filoutage
1650,1,flammes
1651,1,flattait
1652,1,flattant
1653,1,flatte
1654,1,fleurettes
1655,1,flotter
1656,1,fléchir
1657,1,fol
1658,1,folle
1659,1,fonds
1660,1,forcez
1661,1,forcée
1662,1,former
1663,1,formée
1664,1,formés
1665,1,forte
1666,1,fortes
1667,1,fou
1668,1,fourni
1669,1,franc
1670,1,fripons
1671,1,front
1672,1,fruit
1673,1,funeste
1674,1,funestes
1675,1,furieux
1676,1,fusse
1677,1,futur
1678,1,fuyant
1679,1,fuyez
1680,1,fâche
1681,1,féderic
1682,1,fête
1683,1,fîtes
1684,1,gage
1685,1,galerie
1686,1,garants
1687,1,gardé
1688,1,genoux
1689,1,gesticule
1690,1,glisse
1691,1,goûter
1692,1,grace
1693,1,grande
1694,1,gravé
1695,1,grimacer
1696,1,grossier
1697,1,gré
1698,1,guenonne
1699,1,guérir
1700,1,guérirait
1701,1,guérison
1702,1,gâté
1703,1,gêner
1704,1,hai
1705,1,hais
1706,1,harangueur
1707,1,hasarde
1708,1,hasarder
1709,1,hasardez
1710,1,haute
1711,1,hauts
1712,1,haïssez
1713,1,heureuse
1714,1,hier
1715,1,hommages
1716,1,honore
1717,1,horreur
1718,1,hors
1719,1,huit
1720,1,humain
1721,1,hypocrite
1722,1,hâtez
1723,1,hérétique
1724,1,hôte
1725,1,ignorant
1726,1,imagination
1727,1,immole
1728,1,imparfait
1729,1,impatience
1730,1,impatiente
1731,1,imploré
1732,1,importance
1733,1,importun
1734,1,importuns
1735,1,impossible
1736,1,imposture
1737,1,imprudence
1738,1,imprévu
1739,1,impuissant
1740,1,impute
1741,1,impérieux
1742,1,incapable
1743,1,incertains
1744,1,indifférent
1745,1,indifférente
1746,1,indigestion
1747,1,indignes
1748,1,indigné
1749,1,indiscret
1750,1,indiscrètement
1751,1,inexorable
1752,1,infaillible
1753,1,infidélité
1754,1,influence
1755,1,ingrat
1756,1,injustes
1757,1,injustice
1758,1,innocent
1759,1,inquiète
1760,1,inquiéter
1761,1,insensible
1762,1,inspirer
1763,1,instinct
1764,1,instruire
1765,1,instruit
1766,1,instrument
1767,1,interdits
1768,1,interrompant
1769,1,introduire
1770,1,inventez
1771,1,inévitable
1772,1,irait
1773,1,irrité
1774,1,irréprochable
1775,1,issue
1776,1,jalouse
1777,1,jases
1778,1,jeté
1779,1,jeu
1780,1,joignez
1781,1,joint
1782,1,joug
1783,1,jouir
1784,1,jugiez
1785,1,jugé
1786,1,julie
1787,1,jure
1788,1,justifia
1789,1,laissent
1790,1,laissons
1791,1,laissât
1792,1,lancer
1793,1,langage
1794,1,languissants
1795,1,larmes
1796,1,levant
1797,1,levons
1798,1,leçons
1799,1,libre
1800,1,librement
1801,1,lire
1802,1,louera
1803,1,louez
1804,1,loyal
1805,1,lu
1806,1,lys
1807,1,lâches
1808,1,léger
1809,1,légèreté
1810,1,magnificence
1811,1,maintenant
1812,1,majesté
1813,1,manquât
1814,1,maraud
1815,1,marcher
1816,1,marché
1817,1,mariez
1818,1,marque
1819,1,martyre
1820,1,masque
1821,1,maxime
1822,1,meilleur
1823,1,menti
1824,1,mets
1825,1,meurt
1826,1,mise
1827,1,modeste
1828,1,moindre
1829,1,mois
1830,1,moments
1831,1,monte
1832,1,monter
1833,1,montrant
1834,1,montrent
1835,1,montrera
1836,1,montrez
1837,1,moque
1838,1,moraliser
1839,1,mordre
1840,1,morne
1841,1,mornes
1842,1,motif
1843,1,motifs
1844,1,mots
1845,1,mouraient
1846,1,mourrai
1847,1,mouvements
1848,1,moyens
1849,1,murmurer
1850,1,musical
1851,1,mystérieux
1852,1,mélange
1853,1,ménager
1854,1,ménagé
1855,1,mépriser
1856,1,méprisera
1857,1,méprisiez
1858,1,méritiez
1859,1,mêler
1860,1,naissent
1861,1,nargue
1862,1,narguer
1863,1,nature
1864,1,naîtra
1865,1,net
1866,1,nez
1867,1,nobles
1868,1,noces
1869,1,nourrir
1870,1,nouveautés
1871,1,nouvel
1872,1,nuit
1873,1,né
1874,1,nécessaire
1875,1,nécessaires
1876,1,née
1877,1,négligez
1878,1,nôtre
1879,1,obligea
1880,1,obligeante
1881,1,obliger
1882,1,obligé
1883,1,obscur
1884,1,obscurité
1885,1,observe
1886,1,observer
1887,1,obstinait
1888,1,obstiné
1889,1,obsède
1890,1,obtenu
1891,1,obtiennent
1892,1,obtient
1893,1,obéit
1894,1,odieux
1895,1,oeillade
1896,1,offerte
1897,1,offerts
1898,1,offrait
1899,1,offrez
1900,1,offrit
1901,1,ombrageux
1902,1,onde
1903,1,opposer
1904,1,ordonne
1905,1,oreilles
1906,1,os
1907,1,osa
1908,1,osait
1909,1,osent
1910,1,oserais
1911,1,oses
1912,1,osions
1913,1,osé
1914,1,oublierez
1915,1,oubliez
1916,1,outrageant
1917,1,outragée
1918,1,outre
1919,1,ouvrage
1920,1,ouvrant
1921,1,ouït
1922,1,pactisons
1923,1,pages
1924,1,paraissez
1925,1,paraît
1926,1,paraîtra
1927,1,parce
1928,1,pardonnez
1929,1,pareilles
1930,1,pareils
1931,1,parfaite
1932,1,parjure
1933,1,parlant
1934,1,parlé
1935,1,parois
1936,1,parole
1937,1,partager
1938,1,partira
1939,1,partis
1940,1,passant
1941,1,passé
1942,1,patience
1943,1,payé
1944,1,peindre
1945,1,pensers
1946,1,pensées
1947,1,perdons
1948,1,perdra
1949,1,perdrez
1950,1,perdu
1951,1,perfidie
1952,1,perroquet
1953,1,pers
1954,1,persécute
1955,1,perte
1956,1,petit
1957,1,petite
1958,1,piquer
1959,1,piqué
1960,1,pitoyable
1961,1,plaignait
1962,1,plaigne
1963,1,plaindrait
1964,1,plains
1965,1,plairaient
1966,1,plaisait
1967,1,plaisante
1968,1,pleine
1969,1,pleure
1970,1,plonge
1971,1,plusieurs
1972,1,plut
1973,1,plût
1974,1,pompe
1975,1,ponctuelle
1976,1,port
1977,1,porté
1978,1,possible
1979,1,possédez
1980,1,possédé
1981,1,possédée
1982,1,poste
1983,1,pourra
1984,1,pourréit
1985,1,poursuite
1986,1,poursuivront
1987,1,pourvues
1988,1,pousse
1989,1,poussé
1990,1,pouvant
1991,1,pratique
1992,1,pratiqué
1993,1,premiers
1994,1,prenait
1995,1,prescrit
1996,1,pressant
1997,1,pressentir
1998,1,pressez
1999,1,pressée
2000,1,preste
2001,1,preuve
2002,1,preuves
2003,1,preux
2004,1,prier
2005,1,priez
2006,1,priser
2007,1,prissent
2008,1,priva
2009,1,prive
2010,1,priverait
2011,1,privilège
2012,1,procédé
2013,1,produisit
2014,1,produit
2015,1,profond
2016,1,projet
2017,1,promesse
2018,1,promets
2019,1,promise
2020,1,prompte
2021,1,promène
2022,1,proposent
2023,1,propre
2024,1,proteste
2025,1,protester
2026,1,protesté
2027,1,prudence
2028,1,préférer
2029,1,préférez
2030,1,préférée
2031,1,présence
2032,1,présume
2033,1,présumiez
2034,1,prétendant
2035,1,prétendriez
2036,1,prétends
2037,1,prévaloir
2038,1,prévois
2039,1,public
2040,1,publie
2041,1,puissent
2042,1,pur
2043,1,pusse
2044,1,pussent
2045,1,put
2046,1,péril
2047,1,pétardes
2048,1,pû
2049,1,qualité
2050,1,quant
2051,1,quelqu
2052,1,question
2053,1,quittance
2054,1,quittant
2055,1,racheter
2056,1,raffinement
2057,1,rage
2058,1,raisonnement
2059,1,ramener
2060,1,ramenez
2061,1,ramène
2062,1,rappelée
2063,1,rarement
2064,1,rares
2065,1,rassasiez
2066,1,ravager
2067,1,ravir
2068,1,ravit
2069,1,recoin
2070,1,reconnaissance
2071,1,reconnaît
2072,1,reconnu
2073,1,recourir
2074,1,redoubler
2075,1,redoublé
2076,1,redoutable
2077,1,redoute
2078,1,redouter
2079,1,refuse
2080,1,regarder
2081,1,regardes
2082,1,rejaillir
2083,1,rejetant
2084,1,rejoins
2085,1,relève
2086,1,remarquais
2087,1,remener
2088,1,remets
2089,1,remettra
2090,1,remis
2091,1,remplirait
2092,1,remédier
2093,1,rencontre
2094,1,rencontrer
2095,1,rendra
2096,1,renfermer
2097,1,renfermés
2098,1,renonçant
2099,1,rentrer
2100,1,renvoyer
2101,1,repentir
2102,1,repose
2103,1,reprendre
2104,1,reprises
2105,1,respectueux
2106,1,respirer
2107,1,ressemblance
2108,1,ressemblent
2109,1,ressentiment
2110,1,ressentiments
2111,1,resserrer
2112,1,ressouvenez
2113,1,restes
2114,1,retenir
2115,1,retirons
2116,1,retomber
2117,1,retournez
2118,1,retraite
2119,1,revenue
2120,1,revers
2121,1,revoir
2122,1,revoyez
2123,1,reçoive
2124,1,reçue
2125,1,rhume
2126,1,riches
2127,1,ridicule
2128,1,ris
2129,1,roi
2130,1,rompaient
2131,1,rompant
2132,1,rompis
2133,1,rompre
2134,1,romps
2135,1,rougir
2136,1,rougis
2137,1,roulements
2138,1,ruisseaux
2139,1,réduire
2140,1,réduisait
2141,1,réduisez
2142,1,réduits
2143,1,réflexion
2144,1,réparer
2145,1,réplique
2146,1,répliquez
2147,1,répondra
2148,1,répondrai
2149,1,répondrez
2150,1,réponse
2151,1,réprimer
2152,1,réserve
2153,1,réserves
2154,1,résistais
2155,1,résister
2156,1,résolution
2157,1,résolve
2158,1,résolvez
2159,1,résout
2160,1,sachant
2161,1,sachez
2162,1,sacrifice
2163,1,sacrifier
2164,1,sage
2165,1,saine
2166,1,saisi
2167,1,satisfait
2168,1,satisfaits
2169,1,saura
2170,1,saurais
2171,1,saut
2172,1,savant
2173,1,scrupule
2174,1,scrupuleux
2175,1,seconde
2176,1,secrète
2177,1,semblent
2178,1,semblât
2179,1,sentais
2180,1,sentait
2181,1,sentant
2182,1,sente
2183,1,sentez
2184,1,sentir
2185,1,seoir
2186,1,sera
2187,1,serai
2188,1,seraient
2189,1,serez
2190,1,sert
2191,1,servait
2192,1,servant
2193,1,servira
2194,1,sexe
2195,1,seyez
2196,1,siens
2197,1,signalé
2198,1,sinon
2199,1,six
2200,1,sois
2201,1,solitaire
2202,1,sollicite
2203,1,sombre
2204,1,sonder
2205,1,songeasse
2206,1,songeons
2207,1,songez
2208,1,sorti
2209,1,sorts
2210,1,sottise
2211,1,sottises
2212,1,souffert
2213,1,souffle
2214,1,souffrant
2215,1,souffrira
2216,1,soufrons
2217,1,souhaite
2218,1,souhaité
2219,1,souiller
2220,1,souillera
2221,1,souillé
2222,1,soumettant
2223,1,soumise
2224,1,soupirez
2225,1,soupçonne
2226,1,sourcilleusement
2227,1,souris
2228,1,soutenait
2229,1,soutiendrais
2230,1,soutienne
2231,1,souvenez
2232,1,souveraine
2233,1,souviendrez
2234,1,souviens
2235,1,spectacle
2236,1,style
2237,1,sublime
2238,1,suffire
2239,1,suite
2240,1,suivi
2241,1,suivie
2242,1,suivis
2243,1,suivra
2244,1,suivrai
2245,1,sujette
2246,1,superbe
2247,1,superbes
2248,1,supercherie
2249,1,support
2250,1,suppose
2251,1,supposé
2252,1,suprêmes
2253,1,surcroîts
2254,1,surmonte
2255,1,surprenante
2256,1,surprend
2257,1,survenu
2258,1,suspendu
2259,1,sut
2260,1,sympathiquement
2261,1,séduit
2262,1,séduite
2263,1,séduits
2264,1,sûres
2265,1,tableau
2266,1,talent
2267,1,talonne
2268,1,tels
2269,1,tempérament
2270,1,tendres
2271,1,termes
2272,1,terre
2273,1,tien
2274,1,tiendrais
2275,1,tienne
2276,1,tiennent
2277,1,tint
2278,1,tomber
2279,1,tort
2280,1,toucher
2281,1,touché
2282,1,tourmenter
2283,1,tourne
2284,1,toux
2285,1,trace
2286,1,trahisse
2287,1,trahissiez
2288,1,trahit
2289,1,traitable
2290,1,traite
2291,1,traitement
2292,1,traitez
2293,1,traits
2294,1,tranche
2295,1,transporte
2296,1,transports
2297,1,traverser
2298,1,triomphe
2299,1,triompheraient
2300,1,tristesse
2301,1,trompeuse
2302,1,trompez
2303,1,trouverais
2304,1,trouverait
2305,1,trouverez
2306,1,trouvez
2307,1,très
2308,1,trésors
2309,1,tue
2310,1,tuorbe
2311,1,tyrannique
2312,1,tyranniques
2313,1,tyrannise
2314,1,tyranniser
2315,1,tâchaient
2316,1,tâcher
2317,1,tâchez
2318,1,tâchons
2319,1,tâtez
2320,1,témoin
2321,1,téméraire
2322,1,témérité
2323,1,uds
2324,1,usant
2325,1,usons
2326,1,usurper
2327,1,vacant
2328,1,vaillent
2329,1,vaincre
2330,1,valable
2331,1,valent
2332,1,valut
2333,1,vantait
2334,1,vantant
2335,1,vassal
2336,1,vaudra
2337,1,vaudrait
2338,1,vaux
2339,1,venait
2340,1,venge
2341,1,vent
2342,1,venue
2343,1,verrais
2344,1,verras
2345,1,verrez
2346,1,verrons
2347,1,vers
2348,1,victorieux
2349,1,viendra
2350,1,vif
2351,1,vifs
2352,1,vins
2353,1,violence
2354,1,violent
2355,1,violents
2356,1,virent
2357,1,vissiez
2358,1,vivacité
2359,1,vivrais
2360,1,vivrez
2361,1,voie
2362,1,volonté
2363,1,voudrez
2364,1,voudriez
2365,1,voulais
2366,1,voulait
2367,1,voulant
2368,1,voulut
2369,1,voué
2370,1,voyage
2371,1,vues
2372,1,vus
2373,1,vêt
2374,1,âpre
2375,1,éblouir
2376,1,éblouit
2377,1,ébranler
2378,1,échapper
2379,1,éclairci
2380,1,éclaircisse
2381,1,éclaircissons
2382,1,éclairer
2383,1,éclate
2384,1,école
2385,1,écoutes
2386,1,écrit
2387,1,égalant
2388,1,éloigna
2389,1,éloignant
2390,1,éloigner
2391,1,éloignez
2392,1,émouvoir
2393,1,énigme
2394,1,épandu
2395,1,épargner
2396,1,épousera
2397,1,épousez
2398,1,épousons
2399,1,époux
2400,1,épris
2401,1,éprise
2402,1,équivoqué
2403,1,étaient
2404,1,éteins
2405,1,étendra
2406,1,éternel
2407,1,étouffe
2408,1,étourdir
2409,1,étrangère
2410,1,été
2411,1,évanouirait
2412,1,évident
2413,1,éviter
2414,1,ôte
2415,1,ôtât
