---------
|Results|
---------

Format: std_dev_sg/mn(xs):	(result, vi_sum=errorsum)

mean(rs):      	98.50329418963034
std_dev_sg(rs):	(0.5402228731957954, 4.092726157978177e-12)
std_dev_mn(rs):	(0.038199525698882734, 4.092726157978177e-12)

mean(as):      	-0.7839737889100111
std_dev_sg(as):	(0.2753543579912928, -7.638334409421077e-14)
std_dev_mn(as):	(0.019470493376491135, -7.638334409421077e-14)

mean(bs):      	2.7366962775721673
std_dev_sg(bs):	(0.7221847201308207, -9.614531393253856e-14)
std_dev_mn(bs):	(0.05106617128738123, -9.614531393253856e-14)

