#Word Types: 3659
#Word Tokens: 20206
#Search Hits: 0
1	894	de	
2	575	et	
3	512	la	
4	416	le	
5	350	à	
6	331	l	
7	315	que	
8	310	qui	
9	300	il	
10	285	d	
11	265	je	
12	263	les	
13	246	elle	
14	244	un	
15	237	en	
16	236	qu	
17	213	ce	
18	202	ne	
19	199	était	
20	193	dans	
21	192	pas	
22	188	une	
23	176	n	
24	164	avait	
25	144	comme	
26	139	plus	
27	139	pour	
28	138	du	
29	134	des	
30	129	est	
31	120	mais	
32	115	son	
33	114	vous	
34	109	ils	
35	107	s	
36	105	c	
37	101	au	
38	101	on	
39	97	bien	
40	95	sa	
41	94	cette	
42	94	j	
43	94	se	
44	91	avec	
45	91	y	
46	85	me	
47	85	si	
48	82	savigny	
49	82	tout	
50	79	sur	
51	77	lui	
52	74	par	
53	69	ces	
54	69	là	
55	68	hauteclaire	
56	63	m	
57	62	docteur	
58	58	leur	
59	58	ses	
60	57	femme	
61	54	comtesse	
62	54	même	
63	54	quand	
64	49	a	
65	48	deux	
66	48	moi	
67	47	v	
68	46	être	
69	45	où	
70	44	ou	
71	40	tous	
72	39	mon	
73	38	temps	
74	37	ai	
75	37	avais	
76	37	cela	
77	37	dont	
78	35	dit	
79	35	encore	
80	35	homme	
81	35	sans	
82	35	très	
83	34	aussi	
84	33	comte	
85	33	ville	
86	32	fille	
87	32	ont	
88	32	été	
89	31	faire	
90	31	jamais	
91	31	leurs	
92	29	ma	
93	29	nous	
94	29	toujours	
95	28	château	
96	28	eulalie	
97	28	fait	
98	28	rien	
99	28	étaient	
100	27	aux	
101	27	fit	
102	27	fut	
103	26	car	
104	26	eux	
105	26	peut	
106	25	autre	
107	25	elles	
108	25	moins	
109	25	yeux	
110	24	amour	
111	24	armes	
112	24	monde	
113	24	médecin	
114	24	serlon	
115	24	stassin	
116	24	vie	
117	24	vieux	
118	24	voir	
119	23	autres	
120	23	ni	
121	23	toutes	
122	22	avaient	
123	22	chose	
124	21	aurait	
125	21	beaucoup	
126	21	jour	
127	21	point	
128	20	avoir	
129	20	dire	
130	20	peu	
131	20	sous	
132	19	après	
133	19	corps	
134	19	entre	
135	19	étais	
136	18	jeunes	
137	17	air	
138	17	alors	
139	17	cet	
140	17	chambre	
141	17	pointe	
142	17	salle	
143	16	ans	
144	16	bonheur	
145	16	coup	
146	16	femmes	
147	16	jours	
148	16	laquelle	
149	16	mes	
150	16	pays	
151	16	pouvait	
152	16	sont	
153	16	toute	
154	16	vu	
155	15	eu	
156	15	faisait	
157	15	fois	
158	15	gens	
159	15	jeune	
160	15	mlle	
161	15	personne	
162	15	quelque	
163	15	trop	
164	14	cheval	
165	14	donc	
166	14	donner	
167	14	déjà	
168	14	grand	
169	14	idée	
170	14	panthère	
171	14	presque	
172	14	torty	
173	14	vue	
174	13	ah	
175	13	beauté	
176	13	choses	
177	13	diable	
178	13	mariage	
179	13	moment	
180	13	petite	
181	13	seule	
182	12	dis	
183	12	enfant	
184	12	fût	
185	12	lequel	
186	12	longtemps	
187	12	mot	
188	11	crime	
189	11	faut	
190	11	heureux	
191	11	nom	
192	11	reste	
193	11	suis	
194	11	tant	
195	11	visage	
196	11	voilà	
197	10	ainsi	
198	10	aurais	
199	10	avez	
200	10	beau	
201	10	cher	
202	10	chez	
203	10	depuis	
204	10	devant	
205	10	eh	
206	10	eût	
207	10	fond	
208	10	histoire	
209	10	jardin	
210	10	loin	
211	10	manière	
212	10	maîtresse	
213	10	non	
214	10	pendant	
215	10	portait	
216	10	prendre	
217	10	présent	
218	10	quelques	
219	10	savait	
220	10	seulement	
221	10	venir	
222	10	veux	
223	10	voix	
224	10	vrai	
225	10	épée	
226	9	allait	
227	9	aller	
228	9	avant	
229	9	bois	
230	9	bras	
231	9	ceux	
232	9	devait	
233	9	disait	
234	9	disparu	
235	9	effet	
236	9	espèce	
237	9	filles	
238	9	fis	
239	9	grande	
240	9	hommes	
241	9	mari	
242	9	mieux	
243	9	mêmes	
244	9	premier	
245	9	pris	
246	9	pu	
247	9	regardant	
248	9	savez	
249	9	servante	
250	9	venez	
251	9	êtres	
252	8	abord	
253	8	aimait	
254	8	appelle	
255	8	assez	
256	8	autant	
257	8	balcon	
258	8	belle	
259	8	bout	
260	8	chercher	
261	8	côté	
262	8	cœur	
263	8	danger	
264	8	eut	
265	8	fort	
266	8	heure	
267	8	leçon	
268	8	main	
269	8	malgré	
270	8	oh	
271	8	porte	
272	8	possible	
273	8	prévôt	
274	8	père	
275	8	regarder	
276	8	reprit	
277	8	seul	
278	8	situation	
279	8	soir	
280	8	t	
281	8	tête	
282	8	venait	
283	8	vers	
284	8	vint	
285	8	vis	
286	8	vivre	
287	7	aimer	
288	7	ajouta	
289	7	bonne	
290	7	certain	
291	7	croire	
292	7	crois	
293	7	dieu	
294	7	double	
295	7	enfants	
296	7	faisaient	
297	7	fallait	
298	7	force	
299	7	front	
300	7	honneur	
301	7	intérêt	
302	7	jusqu	
303	7	leçons	
304	7	lit	
305	7	lorsque	
306	7	lune	
307	7	madame	
308	7	mis	
309	7	morte	
310	7	nature	
311	7	noblesse	
312	7	noir	
313	7	oui	
314	7	parlait	
315	7	parler	
316	7	partout	
317	7	passer	
318	7	place	
319	7	profond	
320	7	raison	
321	7	regard	
322	7	répondit	
323	7	savoir	
324	7	semblait	
325	7	serait	
326	7	service	
327	7	soit	
328	7	surtout	
329	7	sûr	
330	7	vingt	
331	7	voyais	
332	7	étant	
333	6	ailleurs	
334	6	aime	
335	6	ancien	
336	6	années	
337	6	auprès	
338	6	bas	
339	6	baucis	
340	6	blanc	
341	6	bleu	
342	6	celle	
343	6	celui	
344	6	cheveux	
345	6	comment	
346	6	contre	
347	6	curiosité	
348	6	derrière	
349	6	dessus	
350	6	disaient	
351	6	donnait	
352	6	dès	
353	6	entendu	
354	6	excepté	
355	6	expression	
356	6	fer	
357	6	forte	
358	6	laisser	
359	6	long	
360	6	lumière	
361	6	maison	
362	6	mort	
363	6	mouvement	
364	6	nulle	
365	6	observateur	
366	6	oreille	
367	6	passa	
368	6	peine	
369	6	petit	
370	6	pied	
371	6	pouvaient	
372	6	prise	
373	6	province	
374	6	quoi	
375	6	ressemblait	
376	6	réellement	
377	6	sais	
378	6	souvent	
379	6	terre	
380	6	visite	
381	6	vit	
382	6	vite	
383	6	éclat	
384	5	acier	
385	5	adultère	
386	5	aiment	
387	5	allé	
388	5	auraient	
389	5	autour	
390	5	bel	
391	5	bruit	
392	5	cantor	
393	5	caractère	
394	5	croyez	
395	5	cru	
396	5	davantage	
397	5	deuil	
398	5	disparition	
399	5	doigt	
400	5	dû	
401	5	empoisonnée	
402	5	encre	
403	5	enfin	
404	5	entrer	
405	5	escrime	
406	5	faite	
407	5	fausse	
408	5	fierté	
409	5	fin	
410	5	fière	
411	5	fleuret	
412	5	furent	
413	5	goût	
414	5	groupe	
415	5	imprudence	
416	5	jeunesse	
417	5	maladie	
418	5	mettre	
419	5	mille	
420	5	moindre	
421	5	mois	
422	5	montrer	
423	5	mourir	
424	5	nez	
425	5	noble	
426	5	nobles	
427	5	noire	
428	5	nuit	
429	5	or	
430	5	paris	
431	5	part	
432	5	passé	
433	5	pensée	
434	5	petites	
435	5	peur	
436	5	peuvent	
437	5	plutôt	
438	5	poignet	
439	5	poitrine	
440	5	pourquoi	
441	5	prenait	
442	5	puis	
443	5	quatre	
444	5	quelle	
445	5	raisons	
446	5	silence	
447	5	taille	
448	5	telle	
449	5	terrible	
450	5	tireurs	
451	5	trente	
452	5	venue	
453	5	visites	
454	5	voile	
455	5	voulu	
456	5	voyant	
457	5	époque	
458	5	étions	
459	5	œil	
460	4	allais	
461	4	allez	
462	4	allée	
463	4	aperçu	
464	4	appels	
465	4	apprit	
466	4	argent	
467	4	assaut	
468	4	aucun	
469	4	avice	
470	4	ayant	
471	4	bientôt	
472	4	bouche	
473	4	bruits	
474	4	brusquement	
475	4	bête	
476	4	cacher	
477	4	caché	
478	4	certainement	
479	4	compte	
480	4	concubinage	
481	4	conjugal	
482	4	connais	
483	4	connaître	
484	4	continua	
485	4	croyais	
486	4	delphine	
487	4	devint	
488	4	disparaître	
489	4	domestique	
490	4	donné	
491	4	dos	
492	4	doute	
493	4	défaut	
494	4	esprit	
495	4	eus	
496	4	famille	
497	4	fenêtre	
498	4	feu	
499	4	foi	
500	4	fus	
501	4	garde	
502	4	grave	
503	4	gros	
504	4	guère	
505	4	hasard	
506	4	hum	
507	4	impossible	
508	4	jusque	
509	4	langues	
510	4	lendemain	
511	4	lesquels	
512	4	linge	
513	4	longs	
514	4	mademoiselle	
515	4	magnifique	
516	4	malade	
517	4	maître	
518	4	menton	
519	4	monsieur	
520	4	mépris	
521	4	naturellement	
522	4	notre	
523	4	néanmoins	
524	4	obligé	
525	4	observation	
526	4	officiers	
527	4	opinion	
528	4	parce	
529	4	parmi	
530	4	partir	
531	4	passion	
532	4	penser	
533	4	perdait	
534	4	persiennes	
535	4	plaisanterie	
536	4	plantes	
537	4	plateau	
538	4	plusieurs	
539	4	pourtant	
540	4	pouvez	
541	4	pouvoir	
542	4	propre	
543	4	près	
544	4	prêtre	
545	4	quant	
546	4	quelconque	
547	4	quelquefois	
548	4	race	
549	4	regardait	
550	4	regards	
551	4	rencontrai	
552	4	route	
553	4	régiment	
554	4	réputation	
555	4	sang	
556	4	sapins	
557	4	savais	
558	4	secret	
559	4	sentiments	
560	4	sien	
561	4	simple	
562	4	sombre	
563	4	tard	
564	4	tenait	
565	4	tenue	
566	4	termes	
567	4	ton	
568	4	tournure	
569	4	tranquille	
570	4	tranquillement	
571	4	trois	
572	4	trouvait	
573	4	va	
574	4	velours	
575	4	vent	
576	4	voyait	
577	4	voyez	
578	4	vraie	
579	4	église	
580	4	élevée	
581	4	évident	
582	3	absolument	
583	3	agit	
584	3	allaient	
585	3	animal	
586	3	appartement	
587	3	appelaient	
588	3	appelait	
589	3	arrivée	
590	3	attitude	
591	3	audacieuse	
592	3	auquel	
593	3	autrefois	
594	3	avions	
595	3	bonhomme	
596	3	bord	
597	3	bouteille	
598	3	briser	
599	3	cas	
600	3	catastrophe	
601	3	celles	
602	3	cependant	
603	3	cercle	
604	3	chemins	
605	3	châteaux	
606	3	ciel	
607	3	clair	
608	3	claire	
609	3	combien	
610	3	connaissait	
611	3	conscience	
612	3	corridor	
613	3	couple	
614	3	cri	
615	3	croyait	
616	3	crus	
617	3	cuir	
618	3	cuisse	
619	3	daim	
620	3	debout	
621	3	demander	
622	3	dessein	
623	3	dessous	
624	3	devenir	
625	3	devenu	
626	3	diablesse	
627	3	difficile	
628	3	disais	
629	3	domestiques	
630	3	dura	
631	3	eau	
632	3	empoisonnement	
633	3	empêcher	
634	3	enlevée	
635	3	entendait	
636	3	expliquait	
637	3	expliquer	
638	3	fallu	
639	3	fameuse	
640	3	façon	
641	3	fiers	
642	3	finis	
643	3	firent	
644	3	fleurets	
645	3	folle	
646	3	formes	
647	3	fortes	
648	3	france	
649	3	froid	
650	3	gant	
651	3	glace	
652	3	goûts	
653	3	guérissait	
654	3	génie	
655	3	habitude	
656	3	haute	
657	3	horrible	
658	3	ici	
659	3	impatienté	
660	3	incroyable	
661	3	inférieure	
662	3	insolemment	
663	3	instant	
664	3	intimité	
665	3	intéressant	
666	3	jalouse	
667	3	jeter	
668	3	jeu	
669	3	juger	
670	3	juste	
671	3	laissa	
672	3	lentement	
673	3	lieues	
674	3	ligne	
675	3	louis	
676	3	lumineux	
677	3	maintenant	
678	3	mal	
679	3	maris	
680	3	masque	
681	3	matin	
682	3	mauvais	
683	3	maîtres	
684	3	mise	
685	3	mit	
686	3	modernes	
687	3	moitié	
688	3	montrait	
689	3	morts	
690	3	mystérieuse	
691	3	mères	
692	3	médecine	
693	3	médecins	
694	3	méprise	
695	3	mœurs	
696	3	nos	
697	3	nullement	
698	3	ombre	
699	3	ordinaire	
700	3	osé	
701	3	outre	
702	3	ouverte	
703	3	parfaitement	
704	3	parloir	
705	3	parole	
706	3	parrain	
707	3	partie	
708	3	passai	
709	3	passait	
710	3	passant	
711	3	passés	
712	3	pauvre	
713	3	permis	
714	3	philémon	
715	3	physionomie	
716	3	pieds	
717	3	plein	
718	3	politesse	
719	3	porté	
720	3	potion	
721	3	poudre	
722	3	pouls	
723	3	pouvais	
724	3	première	
725	3	prenaient	
726	3	prit	
727	3	propos	
728	3	précautions	
729	3	puisque	
730	3	pus	
731	3	pâle	
732	3	pères	
733	3	pût	
734	3	quel	
735	3	quels	
736	3	question	
737	3	quoique	
738	3	rapide	
739	3	reconnaissais	
740	3	reconnaître	
741	3	reconnue	
742	3	remplacé	
743	3	repris	
744	3	respect	
745	3	rester	
746	3	robe	
747	3	rue	
748	3	révolution	
749	3	saint	
750	3	sauver	
751	3	sentiment	
752	3	serais	
753	3	servait	
754	3	simplement	
755	3	soldats	
756	3	spectacle	
757	3	su	
758	3	surpris	
759	3	surprise	
760	3	tabac	
761	3	tablier	
762	3	tache	
763	3	talent	
764	3	tel	
765	3	tenant	
766	3	tenir	
767	3	tomba	
768	3	tourner	
769	3	traîne	
770	3	triste	
771	3	trou	
772	3	trouvai	
773	3	trouver	
774	3	tuer	
775	3	univers	
776	3	venu	
777	3	vert	
778	3	vivait	
779	3	voici	
780	3	vos	
781	3	votre	
782	3	voulais	
783	3	voulait	
784	3	vouloir	
785	3	vus	
786	3	âge	
787	3	âmes	
788	3	écriai	
789	3	épées	
790	3	état	
791	3	êtes	
792	2	absolu	
793	2	accident	
794	2	accouchement	
795	2	acteurs	
796	2	action	
797	2	admirablement	
798	2	admiration	
799	2	affection	
800	2	affreusement	
801	2	affreux	
802	2	agréable	
803	2	aimât	
804	2	aimée	
805	2	allai	
806	2	allant	
807	2	allons	
808	2	amants	
809	2	amazone	
810	2	ami	
811	2	an	
812	2	animaux	
813	2	année	
814	2	anxiété	
815	2	apercevant	
816	2	aplomb	
817	2	appeler	
818	2	appelez	
819	2	appelée	
820	2	arbres	
821	2	arrivais	
822	2	arrivait	
823	2	arrière	
824	2	arrêter	
825	2	arrêté	
826	2	art	
827	2	articulations	
828	2	atroce	
829	2	attention	
830	2	attentivement	
831	2	atteste	
832	2	aucune	
833	2	aura	
834	2	automne	
835	2	avoue	
836	2	axiome	
837	2	balle	
838	2	barreaux	
839	2	basse	
840	2	battoir	
841	2	battus	
842	2	beaux	
843	2	belles	
844	2	besoin	
845	2	blanche	
846	2	boire	
847	2	bol	
848	2	bon	
849	2	bonheurs	
850	2	bons	
851	2	botte	
852	2	boue	
853	2	bougé	
854	2	bref	
855	2	bretteuse	
856	2	broussais	
857	2	buvait	
858	2	bénédictines	
859	2	camarade	
860	2	campagne	
861	2	canova	
862	2	casque	
863	2	casser	
864	2	cause	
865	2	cavalier	
866	2	ceci	
867	2	certes	
868	2	chaise	
869	2	champs	
870	2	changé	
871	2	chapitre	
872	2	charivari	
873	2	chasse	
874	2	chat	
875	2	chausses	
876	2	chemin	
877	2	cherché	
878	2	chevalier	
879	2	chevaux	
880	2	châtelains	
881	2	cinq	
882	2	claquement	
883	2	cliquetis	
884	2	code	
885	2	coiffe	
886	2	coin	
887	2	commencé	
888	2	commença	
889	2	commençait	
890	2	compagnon	
891	2	complicité	
892	2	compliqué	
893	2	complète	
894	2	compris	
895	2	comédie	
896	2	connaissaient	
897	2	contente	
898	2	continu	
899	2	continuaient	
900	2	continuerait	
901	2	contrée	
902	2	cooper	
903	2	corsage	
904	2	costume	
905	2	cotentin	
906	2	cou	
907	2	coucher	
908	2	coude	
909	2	coupable	
910	2	coups	
911	2	cour	
912	2	courbe	
913	2	courts	
914	2	couru	
915	2	croissant	
916	2	crut	
917	2	création	
918	2	créatures	
919	2	cuirasse	
920	2	cynique	
921	2	cynisme	
922	2	côtés	
923	2	dangereux	
924	2	demanda	
925	2	demandait	
926	2	demandé	
927	2	demeurai	
928	2	dents	
929	2	dernière	
930	2	descendait	
931	2	descendre	
932	2	destinée	
933	2	devenait	
934	2	devenue	
935	2	digne	
936	2	dimanche	
937	2	disent	
938	2	disparaissant	
939	2	distance	
940	2	dix	
941	2	doigts	
942	2	doit	
943	2	domicile	
944	2	dot	
945	2	douce	
946	2	doutait	
947	2	doutez	
948	2	dubois	
949	2	duc	
950	2	dupe	
951	2	dur	
952	2	dure	
953	2	dé	
954	2	dédain	
955	2	dégager	
956	2	dégagé	
957	2	délivrance	
958	2	déplaisait	
959	2	déshonneur	
960	2	désordre	
961	2	détail	
962	2	détails	
963	2	effrayante	
964	2	embarras	
965	2	embrasure	
966	2	empire	
967	2	empêche	
968	2	engloutir	
969	2	enlever	
970	2	ensemble	
971	2	entendais	
972	2	entière	
973	2	entouré	
974	2	entrée	
975	2	envie	
976	2	environ	
977	2	environs	
978	2	envoyer	
979	2	escalier	
980	2	espèces	
981	2	eusse	
982	2	excitait	
983	2	existence	
984	2	exprimaient	
985	2	extrémité	
986	2	face	
987	2	faisais	
988	2	familles	
989	2	fatigue	
990	2	fatigué	
991	2	faudrait	
992	2	fauve	
993	2	ferait	
994	2	fermer	
995	2	fermiers	
996	2	fermées	
997	2	fier	
998	2	filer	
999	2	fils	
1000	2	fine	
1001	2	fini	
1002	2	finir	
1003	2	finissait	
1004	2	finit	
1005	2	fièvre	
1006	2	flamme	
1007	2	flanc	
1008	2	fleurs	
1009	2	font	
1010	2	formidable	
1011	2	frappé	
1012	2	fureur	
1013	2	fusil	
1014	2	félicité	
1015	2	fête	
1016	2	galop	
1017	2	gants	
1018	2	gardes	
1019	2	garçon	
1020	2	goutte	
1021	2	grands	
1022	2	gravité	
1023	2	grille	
1024	2	grisettes	
1025	2	grossièrement	
1026	2	grâce	
1027	2	généralement	
1028	2	habitudes	
1029	2	hautaine	
1030	2	hiver	
1031	2	humaine	
1032	2	hé	
1033	2	idéal	
1034	2	idées	
1035	2	ignoble	
1036	2	immobile	
1037	2	immuablement	
1038	2	immédiatement	
1039	2	importe	
1040	2	impression	
1041	2	impénétrable	
1042	2	inconnue	
1043	2	index	
1044	2	inquiétude	
1045	2	interrompis	
1046	2	interrompre	
1047	2	introduit	
1048	2	intéressé	
1049	2	irréprochable	
1050	2	jambes	
1051	2	java	
1052	2	jolies	
1053	2	jouait	
1054	2	jouer	
1055	2	joues	
1056	2	juillet	
1057	2	jupes	
1058	2	jurer	
1059	2	justement	
1060	2	justice	
1061	2	laissait	
1062	2	laissé	
1063	2	lampe	
1064	2	langue	
1065	2	languissamment	
1066	2	large	
1067	2	lieu	
1068	2	livre	
1069	2	loi	
1070	2	longue	
1071	2	longueur	
1072	2	lu	
1073	2	lâche	
1074	2	lèvres	
1075	2	maigreur	
1076	2	mailles	
1077	2	mains	
1078	2	malades	
1079	2	mariages	
1080	2	mariés	
1081	2	maroquin	
1082	2	martiale	
1083	2	masse	
1084	2	matins	
1085	2	meilleures	
1086	2	messe	
1087	2	mesure	
1088	2	meurs	
1089	2	midi	
1090	2	milieu	
1091	2	mirent	
1092	2	moments	
1093	2	monarchie	
1094	2	montre	
1095	2	moquait	
1096	2	mots	
1097	2	moulin	
1098	2	mourant	
1099	2	murs	
1100	2	musclé	
1101	2	mystère	
1102	2	mélancolie	
1103	2	mémoire	
1104	2	mêlée	
1105	2	naître	
1106	2	nerfs	
1107	2	noires	
1108	2	noirs	
1109	2	normal	
1110	2	noueux	
1111	2	nuque	
1112	2	objet	
1113	2	obligée	
1114	2	obligés	
1115	2	observateurs	
1116	2	observer	
1117	2	obstacle	
1118	2	obstinément	
1119	2	occasion	
1120	2	occupée	
1121	2	offrant	
1122	2	oisiveté	
1123	2	opinions	
1124	2	ordre	
1125	2	oreilles	
1126	2	ornée	
1127	2	outragée	
1128	2	paon	
1129	2	paraît	
1130	2	parbleu	
1131	2	pareil	
1132	2	pareille	
1133	2	parents	
1134	2	parfois	
1135	2	parla	
1136	2	parlaient	
1137	2	parlé	
1138	2	paroles	
1139	2	parti	
1140	2	passais	
1141	2	passe	
1142	2	passent	
1143	2	passionnément	
1144	2	passions	
1145	2	passèrent	
1146	2	paternel	
1147	2	pavillon	
1148	2	peau	
1149	2	pencher	
1150	2	pensai	
1151	2	pensais	
1152	2	pensez	
1153	2	perdre	
1154	2	perdu	
1155	2	perdue	
1156	2	perfection	
1157	2	philosophie	
1158	2	pinçait	
1159	2	piquante	
1160	2	piqué	
1161	2	plaisir	
1162	2	plaisirs	
1163	2	pleuré	
1164	2	poison	
1165	2	poétique	
1166	2	premières	
1167	2	prend	
1168	2	prix	
1169	2	productions	
1170	2	produit	
1171	2	profil	
1172	2	prouvait	
1173	2	provocante	
1174	2	préoccupation	
1175	2	public	
1176	2	puisqu	
1177	2	pur	
1178	2	pâleur	
1179	2	pénétrer	
1180	2	qualité	
1181	2	quarante	
1182	2	quelqu	
1183	2	questions	
1184	2	quinze	
1185	2	quittée	
1186	2	rampe	
1187	2	rangs	
1188	2	rapporté	
1189	2	rares	
1190	2	rayon	
1191	2	recevait	
1192	2	regarda	
1193	2	regardaient	
1194	2	relevait	
1195	2	relief	
1196	2	rencontrer	
1197	2	rencontré	
1198	2	rencontrés	
1199	2	rendait	
1200	2	rentrer	
1201	2	repos	
1202	2	ressemble	
1203	2	resta	
1204	2	restèrent	
1205	2	retourna	
1206	2	revenant	
1207	2	revenu	
1208	2	revinrent	
1209	2	revins	
1210	2	reçu	
1211	2	riches	
1212	2	rideaux	
1213	2	robuste	
1214	2	robustes	
1215	2	roman	
1216	2	rouge	
1217	2	routes	
1218	2	roux	
1219	2	régulier	
1220	2	répondais	
1221	2	répondant	
1222	2	réponse	
1223	2	réserve	
1224	2	rôle	
1225	2	sagacité	
1226	2	santé	
1227	2	satin	
1228	2	sauvages	
1229	2	scandale	
1230	2	selon	
1231	2	sensations	
1232	2	sentais	
1233	2	sentir	
1234	2	sept	
1235	2	servi	
1236	2	sienne	
1237	2	signe	
1238	2	simplicité	
1239	2	siècle	
1240	2	société	
1241	2	soi	
1242	2	soie	
1243	2	soins	
1244	2	soixante	
1245	2	soldat	
1246	2	soleil	
1247	2	solitaires	
1248	2	sonde	
1249	2	sorti	
1250	2	sortie	
1251	2	sortir	
1252	2	souciait	
1253	2	souffla	
1254	2	souffrance	
1255	2	souple	
1256	2	sourire	
1257	2	souvenez	
1258	2	souvenir	
1259	2	splendide	
1260	2	strictement	
1261	2	stupéfaction	
1262	2	subite	
1263	2	sublime	
1264	2	suffisait	
1265	2	suite	
1266	2	suivis	
1267	2	superbes	
1268	2	suppositions	
1269	2	supérieure	
1270	2	sûre	
1271	2	ta	
1272	2	table	
1273	2	tailler	
1274	2	telles	
1275	2	tenu	
1276	2	terres	
1277	2	thèse	
1278	2	théâtre	
1279	2	tirebouchons	
1280	2	tombait	
1281	2	tomber	
1282	2	touchait	
1283	2	toucher	
1284	2	tour	
1285	2	tourna	
1286	2	train	
1287	2	triomphante	
1288	2	trottant	
1289	2	trouva	
1290	2	trouvant	
1291	2	trouvé	
1292	2	tué	
1293	2	témoin	
1294	2	usage	
1295	2	vainement	
1296	2	vais	
1297	2	vanité	
1298	2	vaste	
1299	2	verte	
1300	2	vertu	
1301	2	veulent	
1302	2	vide	
1303	2	vieille	
1304	2	vient	
1305	2	vif	
1306	2	vinrent	
1307	2	violence	
1308	2	visages	
1309	2	vivaient	
1310	2	voiture	
1311	2	vont	
1312	2	voulant	
1313	2	voulez	
1314	2	voyaient	
1315	2	vraiment	
1316	2	vues	
1317	2	vécu	
1318	2	vêtements	
1319	2	vêtue	
1320	2	ça	
1321	2	échapper	
1322	2	éclatante	
1323	2	écoutant	
1324	2	écrit	
1325	2	écurie	
1326	2	élevé	
1327	2	éloigné	
1328	2	épais	
1329	2	épaule	
1330	2	épouvantable	
1331	2	épuisée	
1332	2	étendre	
1333	2	étonnant	
1334	2	étrange	
1335	2	étrangeté	
1336	2	étrier	
1337	2	étudier	
1338	2	événements	
1339	2	ôtait	
1340	1	abaissèrent	
1341	1	abandon	
1342	1	abandonnée	
1343	1	abandonnés	
1344	1	abat	
1345	1	abnégations	
1346	1	abominations	
1347	1	aboutissait	
1348	1	aboutît	
1349	1	absorbait	
1350	1	absorbe	
1351	1	absorbé	
1352	1	absorbés	
1353	1	abuserait	
1354	1	abusée	
1355	1	abîme	
1356	1	accepte	
1357	1	accointances	
1358	1	accompagnait	
1359	1	accompagne	
1360	1	accompagnée	
1361	1	accompagnées	
1362	1	accompli	
1363	1	accomplit	
1364	1	accouché	
1365	1	accouder	
1366	1	accourir	
1367	1	accuse	
1368	1	accusés	
1369	1	acharnement	
1370	1	acharner	
1371	1	acharnèrent	
1372	1	acharnée	
1373	1	acheter	
1374	1	achevai	
1375	1	activité	
1376	1	actrice	
1377	1	actuelle	
1378	1	admirable	
1379	1	admirant	
1380	1	admirateurs	
1381	1	admirer	
1382	1	admirée	
1383	1	adorable	
1384	1	adoraient	
1385	1	adorateurs	
1386	1	adorations	
1387	1	adorer	
1388	1	affaiblit	
1389	1	affectant	
1390	1	affectation	
1391	1	affecter	
1392	1	affirmation	
1393	1	affirmer	
1394	1	affrontés	
1395	1	affût	
1396	1	agacent	
1397	1	agacer	
1398	1	agaçait	
1399	1	agissait	
1400	1	agréablement	
1401	1	aidez	
1402	1	aie	
1403	1	aiguille	
1404	1	aiguilles	
1405	1	aiguës	
1406	1	ailes	
1407	1	aima	
1408	1	aimables	
1409	1	aimant	
1410	1	aimerais	
1411	1	aimés	
1412	1	aisance	
1413	1	aise	
1414	1	aisément	
1415	1	ait	
1416	1	ajouter	
1417	1	ajustais	
1418	1	alceste	
1419	1	alentour	
1420	1	alentours	
1421	1	alerte	
1422	1	algèbre	
1423	1	alla	
1424	1	allongeât	
1425	1	allongées	
1426	1	allumait	
1427	1	allume	
1428	1	allure	
1429	1	allusion	
1430	1	allèrent	
1431	1	altier	
1432	1	altière	
1433	1	amant	
1434	1	amateur	
1435	1	amateurs	
1436	1	amené	
1437	1	amenée	
1438	1	amer	
1439	1	amoncelé	
1440	1	amourachera	
1441	1	ampleur	
1442	1	amusent	
1443	1	améliorait	
1444	1	amérique	
1445	1	ancienne	
1446	1	anges	
1447	1	anglais	
1448	1	animale	
1449	1	animé	
1450	1	animée	
1451	1	annoncer	
1452	1	annonça	
1453	1	anoblissaient	
1454	1	antipathies	
1455	1	antique	
1456	1	anxieuse	
1457	1	anémie	
1458	1	apercevaient	
1459	1	apercevais	
1460	1	aperçue	
1461	1	apparaissaient	
1462	1	apparaissait	
1463	1	apparence	
1464	1	appartenir	
1465	1	appela	
1466	1	appellerait	
1467	1	appelons	
1468	1	appelé	
1469	1	applique	
1470	1	apprenaient	
1471	1	apprenais	
1472	1	apprenait	
1473	1	apprend	
1474	1	apprendraient	
1475	1	apprendre	
1476	1	apprennent	
1477	1	approchant	
1478	1	approuva	
1479	1	appui	
1480	1	appuyant	
1481	1	appuyer	
1482	1	appuyés	
1483	1	archet	
1484	1	ardentes	
1485	1	ardents	
1486	1	ardeur	
1487	1	aristocratique	
1488	1	armide	
1489	1	arquées	
1490	1	arracher	
1491	1	arriva	
1492	1	arrivai	
1493	1	arrive	
1494	1	arriver	
1495	1	arrivé	
1496	1	arrivés	
1497	1	arrêta	
1498	1	arrêtent	
1499	1	arrêtée	
1500	1	arrêtés	
1501	1	article	
1502	1	articulation	
1503	1	artiste	
1504	1	artistement	
1505	1	artères	
1506	1	aspira	
1507	1	assassin	
1508	1	assise	
1509	1	assises	
1510	1	assistants	
1511	1	assiste	
1512	1	assombrie	
1513	1	assouvie	
1514	1	assuérus	
1515	1	assîmes	
1516	1	athée	
1517	1	atmosphère	
1518	1	attacher	
1519	1	attaches	
1520	1	attaché	
1521	1	atteignait	
1522	1	attelage	
1523	1	attendait	
1524	1	attendant	
1525	1	attendent	
1526	1	attendit	
1527	1	attestaient	
1528	1	attestation	
1529	1	attirait	
1530	1	attitudes	
1531	1	attrapé	
1532	1	attribuait	
1533	1	audacieusement	
1534	1	augure	
1535	1	auront	
1536	1	ausculter	
1537	1	autel	
1538	1	authentiquement	
1539	1	avaler	
1540	1	avalé	
1541	1	avalées	
1542	1	avancer	
1543	1	avancé	
1544	1	avancée	
1545	1	avantage	
1546	1	avançant	
1547	1	aventure	
1548	1	avertie	
1549	1	aveugle	
1550	1	avide	
1551	1	avidité	
1552	1	aviez	
1553	1	avisèrent	
1554	1	avivait	
1555	1	avons	
1556	1	azur	
1557	1	badauder	
1558	1	baguette	
1559	1	bail	
1560	1	baisa	
1561	1	baisant	
1562	1	baisers	
1563	1	baissa	
1564	1	baisser	
1565	1	baissés	
1566	1	baisé	
1567	1	balançait	
1568	1	banc	
1569	1	bans	
1570	1	barre	
1571	1	bassesse	
1572	1	bassesses	
1573	1	batiste	
1574	1	battait	
1575	1	battements	
1576	1	batteurs	
1577	1	battoirs	
1578	1	battu	
1579	1	bavard	
1580	1	bavarder	
1581	1	bavière	
1582	1	beaumont	
1583	1	bec	
1584	1	berceau	
1585	1	berceaux	
1586	1	bible	
1587	1	biche	
1588	1	bienveillance	
1589	1	blanchir	
1590	1	blancs	
1591	1	blaser	
1592	1	blesse	
1593	1	bleuâtre	
1594	1	bloquée	
1595	1	blêmi	
1596	1	boit	
1597	1	bombé	
1598	1	bonnes	
1599	1	borde	
1600	1	bosse	
1601	1	bottes	
1602	1	bouchait	
1603	1	bouchons	
1604	1	bougeât	
1605	1	bougie	
1606	1	boule	
1607	1	boulevard	
1608	1	bourdon	
1609	1	bourdonnement	
1610	1	boutonnait	
1611	1	boutonné	
1612	1	boutonnée	
1613	1	boutons	
1614	1	boîte	
1615	1	bravais	
1616	1	brave	
1617	1	braver	
1618	1	bridon	
1619	1	brillaient	
1620	1	brillait	
1621	1	brillant	
1622	1	brillants	
1623	1	briller	
1624	1	brodequin	
1625	1	brouillard	
1626	1	broyée	
1627	1	brummell	
1628	1	brun	
1629	1	brusque	
1630	1	brûler	
1631	1	bu	
1632	1	bue	
1633	1	bulle	
1634	1	busquée	
1635	1	buste	
1636	1	bâtiment	
1637	1	bâton	
1638	1	béante	
1639	1	bégueule	
1640	1	bêtes	
1641	1	bêtises	
1642	1	cabanis	
1643	1	cachent	
1644	1	cachette	
1645	1	cadran	
1646	1	cadre	
1647	1	cage	
1648	1	cages	
1649	1	calculé	
1650	1	calendrier	
1651	1	calmé	
1652	1	calomnie	
1653	1	cambrait	
1654	1	camp	
1655	1	campa	
1656	1	candélabre	
1657	1	canon	
1658	1	cap	
1659	1	capitaine	
1660	1	capitonné	
1661	1	capotes	
1662	1	captivait	
1663	1	caractérisée	
1664	1	carda	
1665	1	caressante	
1666	1	caresses	
1667	1	carrefours	
1668	1	carrelet	
1669	1	carré	
1670	1	carrément	
1671	1	case	
1672	1	cassa	
1673	1	cassait	
1674	1	cassure	
1675	1	catholicisme	
1676	1	causer	
1677	1	causes	
1678	1	cavalerie	
1679	1	ceinture	
1680	1	cendre	
1681	1	cent	
1682	1	centaures	
1683	1	centre	
1684	1	cernés	
1685	1	certaines	
1686	1	certains	
1687	1	certitude	
1688	1	cessèrent	
1689	1	chagrin	
1690	1	chair	
1691	1	chairs	
1692	1	chamois	
1693	1	changeait	
1694	1	changement	
1695	1	changer	
1696	1	chargé	
1697	1	charlemagne	
1698	1	charles	
1699	1	charmait	
1700	1	charmant	
1701	1	charmants	
1702	1	charme	
1703	1	chasseurs	
1704	1	chats	
1705	1	chaud	
1706	1	chaude	
1707	1	chauds	
1708	1	chauffait	
1709	1	chaussent	
1710	1	chaussier	
1711	1	chaussure	
1712	1	cherchai	
1713	1	chevrons	
1714	1	chiens	
1715	1	chiffonné	
1716	1	chiffons	
1717	1	chignon	
1718	1	choisi	
1719	1	choisissent	
1720	1	choisit	
1721	1	châtain	
1722	1	châtelaine	
1723	1	cible	
1724	1	cimetière	
1725	1	cinquante	
1726	1	circassiennes	
1727	1	circonstance	
1728	1	circulation	
1729	1	circule	
1730	1	circuler	
1731	1	ciseaux	
1732	1	citadines	
1733	1	citait	
1734	1	cite	
1735	1	clairs	
1736	1	claqua	
1737	1	claquait	
1738	1	claquemurait	
1739	1	classe	
1740	1	classes	
1741	1	clergé	
1742	1	client	
1743	1	cligna	
1744	1	clignoté	
1745	1	cloaques	
1746	1	clocher	
1747	1	clorinde	
1748	1	close	
1749	1	cocarde	
1750	1	cochère	
1751	1	collant	
1752	1	colonel	
1753	1	coloriée	
1754	1	colère	
1755	1	combinaisons	
1756	1	comiquement	
1757	1	commanda	
1758	1	commandement	
1759	1	commandeur	
1760	1	commence	
1761	1	commençai	
1762	1	commençaient	
1763	1	commune	
1764	1	communiqua	
1765	1	compagnie	
1766	1	comparer	
1767	1	complet	
1768	1	complices	
1769	1	complètement	
1770	1	comprenais	
1771	1	comprendrais	
1772	1	comprennent	
1773	1	compressive	
1774	1	comprit	
1775	1	comptait	
1776	1	compter	
1777	1	comptées	
1778	1	compère	
1779	1	comtes	
1780	1	comédien	
1781	1	comédies	
1782	1	concentrai	
1783	1	concentre	
1784	1	conclure	
1785	1	concubinait	
1786	1	concubine	
1787	1	confesse	
1788	1	confesseur	
1789	1	confession	
1790	1	confiance	
1791	1	confidence	
1792	1	confidences	
1793	1	confient	
1794	1	confirmer	
1795	1	confisquée	
1796	1	congé	
1797	1	conjugale	
1798	1	connaissais	
1799	1	connaissances	
1800	1	connaisseur	
1801	1	connue	
1802	1	connues	
1803	1	connus	
1804	1	conseiller	
1805	1	considération	
1806	1	consomma	
1807	1	consommés	
1808	1	construit	
1809	1	consume	
1810	1	conséquences	
1811	1	contemplaient	
1812	1	contemporains	
1813	1	contenance	
1814	1	contenir	
1815	1	contenta	
1816	1	contentai	
1817	1	contez	
1818	1	continuai	
1819	1	continuait	
1820	1	continue	
1821	1	contour	
1822	1	contracté	
1823	1	contradictoire	
1824	1	contraires	
1825	1	contrarier	
1826	1	contrariée	
1827	1	contrées	
1828	1	convenance	
1829	1	convergent	
1830	1	convives	
1831	1	coquette	
1832	1	coquilles	
1833	1	coquin	
1834	1	corbin	
1835	1	correcte	
1836	1	correctement	
1837	1	correctes	
1838	1	corrects	
1839	1	costumes	
1840	1	cotait	
1841	1	cote	
1842	1	couchée	
1843	1	coudre	
1844	1	coulait	
1845	1	couleuvres	
1846	1	coulisses	
1847	1	coupables	
1848	1	coupait	
1849	1	coupante	
1850	1	coupe	
1851	1	couper	
1852	1	coupé	
1853	1	courage	
1854	1	courbure	
1855	1	courbée	
1856	1	courir	
1857	1	court	
1858	1	cousine	
1859	1	couture	
1860	1	couvert	
1861	1	couvrait	
1862	1	crabe	
1863	1	craignais	
1864	1	craindre	
1865	1	craquant	
1866	1	cravatés	
1867	1	crible	
1868	1	criminelle	
1869	1	crochet	
1870	1	crocheter	
1871	1	crochu	
1872	1	croient	
1873	1	croira	
1874	1	croirez	
1875	1	croisais	
1876	1	croisent	
1877	1	croiser	
1878	1	croisées	
1879	1	croupe	
1880	1	croyable	
1881	1	cruellement	
1882	1	crâne	
1883	1	crève	
1884	1	créée	
1885	1	cuivres	
1886	1	cultivait	
1887	1	cultivé	
1888	1	curieuses	
1889	1	curiosités	
1890	1	curé	
1891	1	cuvier	
1892	1	câlineries	
1893	1	célèbre	
1894	1	célébré	
1895	1	cérémonieuses	
1896	1	côtes	
1897	1	cœurs	
1898	1	dame	
1899	1	dames	
1900	1	dandy	
1901	1	danet	
1902	1	datait	
1903	1	dedans	
1904	1	degrés	
1905	1	dehors	
1906	1	demandai	
1907	1	demandaient	
1908	1	demande	
1909	1	demandez	
1910	1	demoiselles	
1911	1	dentelle	
1912	1	dernier	
1913	1	descend	
1914	1	descendant	
1915	1	descendu	
1916	1	description	
1917	1	despotique	
1918	1	dette	
1919	1	devez	
1920	1	devinait	
1921	1	deviner	
1922	1	devinée	
1923	1	devrions	
1924	1	diablement	
1925	1	diagnostic	
1926	1	diamants	
1927	1	dicté	
1928	1	difficiles	
1929	1	dilatés	
1930	1	dimension	
1931	1	diminuer	
1932	1	dirai	
1933	1	directement	
1934	1	direz	
1935	1	discernais	
1936	1	disciple	
1937	1	discret	
1938	1	discrétion	
1939	1	disiez	
1940	1	disons	
1941	1	disparaît	
1942	1	dissèque	
1943	1	distinctibilité	
1944	1	distinction	
1945	1	distinguée	
1946	1	distraite	
1947	1	distraits	
1948	1	dites	
1949	1	diva	
1950	1	dizaine	
1951	1	doctrine	
1952	1	dois	
1953	1	don	
1954	1	donna	
1955	1	donnant	
1956	1	donne	
1957	1	donnent	
1958	1	donnerait	
1959	1	donnez	
1960	1	donniez	
1961	1	données	
1962	1	dormant	
1963	1	dossier	
1964	1	doublement	
1965	1	doubler	
1966	1	doublée	
1967	1	douceur	
1968	1	douleur	
1969	1	douta	
1970	1	douterait	
1971	1	douteriez	
1972	1	doux	
1973	1	douze	
1974	1	doyen	
1975	1	dragons	
1976	1	drame	
1977	1	drapeau	
1978	1	draps	
1979	1	dressait	
1980	1	dresser	
1981	1	dressée	
1982	1	droit	
1983	1	droite	
1984	1	drôle	
1985	1	duchesses	
1986	1	duels	
1987	1	durait	
1988	1	durci	
1989	1	duré	
1990	1	dut	
1991	1	débilitation	
1992	1	déborder	
1993	1	débouchai	
1994	1	débusquai	
1995	1	décemment	
1996	1	déceptions	
1997	1	décida	
1998	1	déclarations	
1999	1	déclencher	
2000	1	décolorés	
2001	1	déconcerté	
2002	1	déconcertée	
2003	1	découplée	
2004	1	découvert	
2005	1	découvrant	
2006	1	dédaigneux	
2007	1	déesse	
2008	1	défaisant	
2009	1	défi	
2010	1	dégoûter	
2011	1	dégoûté	
2012	1	déguisement	
2013	1	déguiser	
2014	1	délicieux	
2015	1	délire	
2016	1	délivra	
2017	1	délivré	
2018	1	délivrés	
2019	1	démanché	
2020	1	démonstratrice	
2021	1	dépend	
2022	1	dépit	
2023	1	déplaisaient	
2024	1	déplaît	
2025	1	déprave	
2026	1	déranger	
2027	1	dérouler	
2028	1	désagréable	
2029	1	déshonoré	
2030	1	désintérêt	
2031	1	désir	
2032	1	désirs	
2033	1	déterminément	
2034	1	détruite	
2035	1	dévasté	
2036	1	développa	
2037	1	développement	
2038	1	développée	
2039	1	dévisagent	
2040	1	dévore	
2041	1	dévorement	
2042	1	dévote	
2043	1	dévots	
2044	1	dévoûment	
2045	1	dîner	
2046	1	effacer	
2047	1	effectivement	
2048	1	effleurée	
2049	1	effort	
2050	1	effrontément	
2051	1	effroyable	
2052	1	effroyablement	
2053	1	efféminé	
2054	1	embarrasser	
2055	1	embellissant	
2056	1	embrassant	
2057	1	emmena	
2058	1	emparer	
2059	1	empesée	
2060	1	emplissait	
2061	1	empoisonnait	
2062	1	empoisonnante	
2063	1	empoisonneur	
2064	1	empoisonneuse	
2065	1	empoisonneuses	
2066	1	empoisonné	
2067	1	emporte	
2068	1	emportement	
2069	1	emporté	
2070	1	emprisonnant	
2071	1	empêchaient	
2072	1	encadrait	
2073	1	encadré	
2074	1	enchantante	
2075	1	encolérait	
2076	1	encolérer	
2077	1	endormi	
2078	1	endormie	
2079	1	endroit	
2080	1	enfer	
2081	1	enfilée	
2082	1	enflammé	
2083	1	enfoncer	
2084	1	enfoncé	
2085	1	engagement	
2086	1	englouti	
2087	1	engourdies	
2088	1	engourdit	
2089	1	enivre	
2090	1	enivrement	
2091	1	enlacés	
2092	1	enlèvement	
2093	1	enlèvent	
2094	1	enlèvera	
2095	1	ennemi	
2096	1	ennuyer	
2097	1	ennuyée	
2098	1	ennuyées	
2099	1	enragée	
2100	1	enrouler	
2101	1	enrudir	
2102	1	enseignait	
2103	1	enseignement	
2104	1	entamer	
2105	1	entend	
2106	1	entendaient	
2107	1	entendant	
2108	1	entendisse	
2109	1	entendit	
2110	1	entends	
2111	1	entente	
2112	1	enterra	
2113	1	enthousiasme	
2114	1	entra	
2115	1	entrant	
2116	1	entraîna	
2117	1	entrelacement	
2118	1	entrepont	
2119	1	entretinssions	
2120	1	entrevis	
2121	1	entrevoyais	
2122	1	entrevu	
2123	1	enveloppait	
2124	1	enverrait	
2125	1	environnent	
2126	1	envoyassent	
2127	1	erreur	
2128	1	escaliers	
2129	1	escamotage	
2130	1	esclave	
2131	1	espionnage	
2132	1	espionnages	
2133	1	esprits	
2134	1	essuyé	
2135	1	estime	
2136	1	estompée	
2137	1	europe	
2138	1	eussent	
2139	1	exactement	
2140	1	excellent	
2141	1	excellente	
2142	1	exception	
2143	1	exceptionnelle	
2144	1	exceptionnellement	
2145	1	exceptionnelles	
2146	1	excita	
2147	1	exclamations	
2148	1	exclusivement	
2149	1	exemple	
2150	1	exercice	
2151	1	exercices	
2152	1	exerçait	
2153	1	existait	
2154	1	existeraient	
2155	1	expliquais	
2156	1	exposant	
2157	1	expéditive	
2158	1	extrême	
2159	1	extrêmement	
2160	1	extérieures	
2161	1	exécrable	
2162	1	exécuta	
2163	1	fable	
2164	1	fabuleux	
2165	1	facile	
2166	1	facilité	
2167	1	faculté	
2168	1	faiblement	
2169	1	faiblesse	
2170	1	faim	
2171	1	fais	
2172	1	faisant	
2173	1	faits	
2174	1	fallut	
2175	1	fameuses	
2176	1	fameux	
2177	1	familière	
2178	1	fanges	
2179	1	fangeux	
2180	1	fascinaient	
2181	1	fascine	
2182	1	fascinés	
2183	1	fastueusement	
2184	1	fatal	
2185	1	fatale	
2186	1	fatiguées	
2187	1	fats	
2188	1	fatuité	
2189	1	faubourg	
2190	1	faucille	
2191	1	faudra	
2192	1	faux	
2193	1	façons	
2194	1	femelle	
2195	1	femelles	
2196	1	fendre	
2197	1	fenimore	
2198	1	fenêtres	
2199	1	fera	
2200	1	ferais	
2201	1	ferme	
2202	1	fermes	
2203	1	fermât	
2204	1	fermé	
2205	1	fermée	
2206	1	ferraillais	
2207	1	ferrailler	
2208	1	feuillage	
2209	1	fiancée	
2210	1	fiertés	
2211	1	figaro	
2212	1	figure	
2213	1	figurer	
2214	1	fil	
2215	1	fillette	
2216	1	filtré	
2217	1	fiole	
2218	1	fissent	
2219	1	fixant	
2220	1	fixés	
2221	1	fières	
2222	1	fiévreuse	
2223	1	flatter	
2224	1	fleur	
2225	1	flexible	
2226	1	flottant	
2227	1	foisonnait	
2228	1	fonction	
2229	1	foncées	
2230	1	fondrières	
2231	1	fontaines	
2232	1	fonts	
2233	1	forcer	
2234	1	formait	
2235	1	formalités	
2236	1	forme	
2237	1	formèrent	
2238	1	fortement	
2239	1	forts	
2240	1	fortune	
2241	1	forêts	
2242	1	fossé	
2243	1	fou	
2244	1	foudre	
2245	1	fouetta	
2246	1	fouettait	
2247	1	fouettés	
2248	1	fourrure	
2249	1	fous	
2250	1	frais	
2251	1	franc	
2252	1	frappa	
2253	1	frappait	
2254	1	frappant	
2255	1	fredaine	
2256	1	frisant	
2257	1	frisons	
2258	1	frisés	
2259	1	froidement	
2260	1	froids	
2261	1	froissement	
2262	1	froncés	
2263	1	frottait	
2264	1	frottent	
2265	1	fruits	
2266	1	frères	
2267	1	frémissements	
2268	1	frémît	
2269	1	fréquemment	
2270	1	fuirent	
2271	1	fulvie	
2272	1	fumait	
2273	1	fumée	
2274	1	furie	
2275	1	furieuse	
2276	1	furieusement	
2277	1	futur	
2278	1	futurs	
2279	1	féliciter	
2280	1	féroces	
2281	1	fêlure	
2282	1	fît	
2283	1	gagnait	
2284	1	gagné	
2285	1	gaillard	
2286	1	gaillarde	
2287	1	gais	
2288	1	galopant	
2289	1	ganaches	
2290	1	ganté	
2291	1	garder	
2292	1	gardèrent	
2293	1	gardé	
2294	1	gardée	
2295	1	genou	
2296	1	genre	
2297	1	gentilshommes	
2298	1	georges	
2299	1	germain	
2300	1	geste	
2301	1	gestes	
2302	1	gilet	
2303	1	glissant	
2304	1	glissée	
2305	1	gloire	
2306	1	goguenard	
2307	1	gouttes	
2308	1	grade	
2309	1	grain	
2310	1	grandement	
2311	1	grandit	
2312	1	graves	
2313	1	grief	
2314	1	griffe	
2315	1	grimace	
2316	1	grincement	
2317	1	gris	
2318	1	grisant	
2319	1	grisette	
2320	1	grondement	
2321	1	grosse	
2322	1	grosses	
2323	1	guerre	
2324	1	guilloché	
2325	1	guinées	
2326	1	guérie	
2327	1	guérissais	
2328	1	guérit	
2329	1	génération	
2330	1	générations	
2331	1	générosité	
2332	1	gênaient	
2333	1	gênait	
2334	1	habit	
2335	1	habitaient	
2336	1	habitants	
2337	1	habitent	
2338	1	habiter	
2339	1	habitués	
2340	1	haineuse	
2341	1	hais	
2342	1	haleine	
2343	1	haletante	
2344	1	hantaient	
2345	1	hantises	
2346	1	hardi	
2347	1	hardiment	
2348	1	hardis	
2349	1	hautain	
2350	1	hauts	
2351	1	havre	
2352	1	hennin	
2353	1	henri	
2354	1	heures	
2355	1	heureuse	
2356	1	heureusement	
2357	1	hirondelles	
2358	1	hobereaux	
2359	1	hollande	
2360	1	homère	
2361	1	honnête	
2362	1	honte	
2363	1	honteux	
2364	1	horriblement	
2365	1	horripilations	
2366	1	horripilé	
2367	1	huiles	
2368	1	humaines	
2369	1	humanité	
2370	1	humiliait	
2371	1	humiliant	
2372	1	humiliante	
2373	1	hussards	
2374	1	hypocrisie	
2375	1	hâtivement	
2376	1	héros	
2377	1	hôpital	
2378	1	hôtels	
2379	1	idéale	
2380	1	ignominie	
2381	1	ignorais	
2382	1	ignorait	
2383	1	ignorance	
2384	1	ignorantes	
2385	1	ignorer	
2386	1	iii	
2387	1	imagina	
2388	1	imaginais	
2389	1	imaginations	
2390	1	imaginez	
2391	1	imaginée	
2392	1	imbéciles	
2393	1	immense	
2394	1	immensément	
2395	1	immobiles	
2396	1	immobilité	
2397	1	immorales	
2398	1	immoraliste	
2399	1	immortels	
2400	1	impassibilité	
2401	1	impassible	
2402	1	impatiente	
2403	1	imperceptible	
2404	1	impersonnels	
2405	1	impertinent	
2406	1	impitoyables	
2407	1	implacable	
2408	1	imposante	
2409	1	imposer	
2410	1	imposée	
2411	1	impressions	
2412	1	imprudente	
2413	1	impudente	
2414	1	impératrice	
2415	1	impérieuse	
2416	1	impérieusement	
2417	1	impétueux	
2418	1	in	
2419	1	inaccoutumé	
2420	1	inapprivoisable	
2421	1	inattendue	
2422	1	incapable	
2423	1	incendiées	
2424	1	incertaines	
2425	1	incessant	
2426	1	inclination	
2427	1	inclinée	
2428	1	incoercible	
2429	1	incomparable	
2430	1	incompréhensible	
2431	1	inconséquence	
2432	1	inconvenant	
2433	1	indestructibles	
2434	1	indifféremment	
2435	1	indifférence	
2436	1	indifférent	
2437	1	indifférentes	
2438	1	indignait	
2439	1	indignes	
2440	1	indignité	
2441	1	indignée	
2442	1	indignées	
2443	1	indéfiniment	
2444	1	indépendance	
2445	1	inexplicable	
2446	1	infidèle	
2447	1	infusion	
2448	1	inférieurs	
2449	1	innocence	
2450	1	inouïe	
2451	1	inquiet	
2452	1	inquiétant	
2453	1	insensée	
2454	1	insinuée	
2455	1	insolent	
2456	1	instants	
2457	1	insu	
2458	1	intelligence	
2459	1	intense	
2460	1	intention	
2461	1	internées	
2462	1	interrogeant	
2463	1	interrompant	
2464	1	interrompit	
2465	1	intonations	
2466	1	introduisit	
2467	1	intéressaient	
2468	1	intéresse	
2469	1	intéressez	
2470	1	inutile	
2471	1	inventé	
2472	1	inventée	
2473	1	involontaire	
2474	1	inévitable	
2475	1	inévitables	
2476	1	irai	
2477	1	irrémarquable	
2478	1	irrésistible	
2479	1	irrésistibles	
2480	1	isabeau	
2481	1	isis	
2482	1	isola	
2483	1	isolé	
2484	1	italie	
2485	1	jaloux	
2486	1	jaser	
2487	1	jetai	
2488	1	jetaient	
2489	1	jetais	
2490	1	jeté	
2491	1	joli	
2492	1	jouaient	
2493	1	jouant	
2494	1	jouent	
2495	1	jouissances	
2496	1	journal	
2497	1	journée	
2498	1	journées	
2499	1	jugeais	
2500	1	jugement	
2501	1	jugée	
2502	1	jumeaux	
2503	1	jupe	
2504	1	jurai	
2505	1	laborieux	
2506	1	lacée	
2507	1	lady	
2508	1	laisse	
2509	1	lait	
2510	1	lame	
2511	1	lames	
2512	1	langage	
2513	1	langueur	
2514	1	laquais	
2515	1	larges	
2516	1	lassait	
2517	1	lassitude	
2518	1	lassé	
2519	1	laver	
2520	1	lavoir	
2521	1	lettre	
2522	1	levai	
2523	1	levèrent	
2524	1	levée	
2525	1	liaison	
2526	1	liberté	
2527	1	libéraux	
2528	1	lissant	
2529	1	lisse	
2530	1	lissé	
2531	1	livres	
2532	1	locuste	
2533	1	logement	
2534	1	lointaine	
2535	1	lois	
2536	1	londres	
2537	1	lorsqu	
2538	1	lueurs	
2539	1	lunettes	
2540	1	lus	
2541	1	lustrait	
2542	1	lustrée	
2543	1	lys	
2544	1	lâché	
2545	1	lève	
2546	1	légers	
2547	1	légèrement	
2548	1	macbeth	
2549	1	macoubac	
2550	1	magie	
2551	1	magistralement	
2552	1	magnificence	
2553	1	magnifiques	
2554	1	magnétique	
2555	1	maigre	
2556	1	maigri	
2557	1	maintes	
2558	1	maisons	
2559	1	majesté	
2560	1	maladroits	
2561	1	malheureusement	
2562	1	malheureuses	
2563	1	malicieusement	
2564	1	manchon	
2565	1	mangeoire	
2566	1	mangerais	
2567	1	maniement	
2568	1	manières	
2569	1	manqua	
2570	1	manquait	
2571	1	marchaient	
2572	1	marchandes	
2573	1	marches	
2574	1	marché	
2575	1	marier	
2576	1	marins	
2577	1	marmot	
2578	1	marquait	
2579	1	marques	
2580	1	marqué	
2581	1	marrons	
2582	1	marteau	
2583	1	masques	
2584	1	masquée	
2585	1	mat	
2586	1	matinées	
2587	1	matois	
2588	1	matérialisme	
2589	1	meilleure	
2590	1	meilleurs	
2591	1	mensonge	
2592	1	mers	
2593	1	merveille	
2594	1	merveilleux	
2595	1	mesdemoiselles	
2596	1	mesnilgrand	
2597	1	messieurs	
2598	1	mettaient	
2599	1	mettais	
2600	1	mettait	
2601	1	mettant	
2602	1	meurent	
2603	1	meut	
2604	1	microscopiquement	
2605	1	miel	
2606	1	mien	
2607	1	mienne	
2608	1	miens	
2609	1	mignon	
2610	1	militaire	
2611	1	milton	
2612	1	mince	
2613	1	minois	
2614	1	minuit	
2615	1	minute	
2616	1	minutes	
2617	1	miracle	
2618	1	mire	
2619	1	miroir	
2620	1	miroitante	
2621	1	misanthrope	
2622	1	misanthropes	
2623	1	mises	
2624	1	mitaines	
2625	1	mme	
2626	1	modèle	
2627	1	moelleux	
2628	1	moindres	
2629	1	moirée	
2630	1	molle	
2631	1	molécules	
2632	1	monstres	
2633	1	monstrueuse	
2634	1	montais	
2635	1	montrant	
2636	1	montrèrent	
2637	1	montré	
2638	1	montèrent	
2639	1	montés	
2640	1	moral	
2641	1	moralement	
2642	1	morales	
2643	1	moraliste	
2644	1	moralistes	
2645	1	mord	
2646	1	mordante	
2647	1	mordre	
2648	1	morne	
2649	1	morsures	
2650	1	mortelles	
2651	1	moscou	
2652	1	motifs	
2653	1	mouchardais	
2654	1	moudre	
2655	1	moulait	
2656	1	moulées	
2657	1	mourait	
2658	1	mourut	
2659	1	moustache	
2660	1	moustaches	
2661	1	mouvait	
2662	1	moyen	
2663	1	moïse	
2664	1	muette	
2665	1	municipalité	
2666	1	murmures	
2667	1	muscles	
2668	1	museau	
2669	1	musique	
2670	1	musée	
2671	1	mutisme	
2672	1	mâchoire	
2673	1	mène	
2674	1	médailles	
2675	1	médicale	
2676	1	mémoires	
2677	1	méprendre	
2678	1	méprisait	
2679	1	mépriser	
2680	1	mésalliance	
2681	1	métier	
2682	1	mêla	
2683	1	nacre	
2684	1	naguère	
2685	1	naissait	
2686	1	naisse	
2687	1	napoléonien	
2688	1	narquois	
2689	1	naseaux	
2690	1	nations	
2691	1	naturaliste	
2692	1	naturel	
2693	1	naturelle	
2694	1	net	
2695	1	neuf	
2696	1	niait	
2697	1	nid	
2698	1	nie	
2699	1	nobiliaire	
2700	1	noblement	
2701	1	noie	
2702	1	noix	
2703	1	nombre	
2704	1	nommait	
2705	1	nommer	
2706	1	nommée	
2707	1	nonchalamment	
2708	1	normande	
2709	1	normandie	
2710	1	nouveau	
2711	1	nouvel	
2712	1	nouvelle	
2713	1	nouvelles	
2714	1	noyait	
2715	1	noyées	
2716	1	nu	
2717	1	nuage	
2718	1	nudité	
2719	1	nues	
2720	1	nuitamment	
2721	1	nuits	
2722	1	nul	
2723	1	nécessaire	
2724	1	nés	
2725	1	obscurité	
2726	1	observations	
2727	1	observé	
2728	1	obtiennent	
2729	1	obéie	
2730	1	occupe	
2731	1	occurrence	
2732	1	octobre	
2733	1	offense	
2734	1	offensé	
2735	1	officier	
2736	1	olivier	
2737	1	onction	
2738	1	ongles	
2739	1	ordonnance	
2740	1	ordres	
2741	1	organisation	
2742	1	organisations	
2743	1	orgueil	
2744	1	orgueilleuse	
2745	1	original	
2746	1	origines	
2747	1	ornement	
2748	1	ornière	
2749	1	orné	
2750	1	orteils	
2751	1	os	
2752	1	ouate	
2753	1	oubli	
2754	1	oubliaient	
2755	1	oubliait	
2756	1	oublient	
2757	1	oubliettes	
2758	1	oublié	
2759	1	ouvert	
2760	1	ouvrirait	
2761	1	ouvrirent	
2762	1	ovale	
2763	1	pair	
2764	1	paladins	
2765	1	pallas	
2766	1	pantalon	
2767	1	panthères	
2768	1	papier	
2769	1	parade	
2770	1	paradis	
2771	1	paraissaient	
2772	1	paraissait	
2773	1	parait	
2774	1	paraître	
2775	1	pardieu	
2776	1	pardon	
2777	1	pardonner	
2778	1	pareilles	
2779	1	parenthèse	
2780	1	parfum	
2781	1	parisien	
2782	1	parlais	
2783	1	parlant	
2784	1	parle	
2785	1	parlerez	
2786	1	parlez	
2787	1	paroissiale	
2788	1	particulière	
2789	1	partirent	
2790	1	partis	
2791	1	partit	
2792	1	parut	
2793	1	parvenir	
2794	1	passage	
2795	1	passaient	
2796	1	passes	
2797	1	passionné	
2798	1	passionnée	
2799	1	passionnées	
2800	1	passionnés	
2801	1	passive	
2802	1	passée	
2803	1	pathologiques	
2804	1	patricien	
2805	1	patriciennes	
2806	1	pattefiches	
2807	1	pattes	
2808	1	paupières	
2809	1	pavillons	
2810	1	pavé	
2811	1	peigne	
2812	1	peindre	
2813	1	peint	
2814	1	peloton	
2815	1	pelures	
2816	1	pendaient	
2817	1	pensait	
2818	1	pensionnaire	
2819	1	pensivement	
2820	1	pensé	
2821	1	pensées	
2822	1	percer	
2823	1	perdant	
2824	1	perdent	
2825	1	permettait	
2826	1	permettez	
2827	1	permettre	
2828	1	perpétuellement	
2829	1	perroquet	
2830	1	perruque	
2831	1	perscruté	
2832	1	personnel	
2833	1	personnelle	
2834	1	personnes	
2835	1	perspective	
2836	1	persuadai	
2837	1	persuasion	
2838	1	pertes	
2839	1	peste	
2840	1	pestiféré	
2841	1	petits	
2842	1	petto	
2843	1	peuple	
2844	1	philosophique	
2845	1	physiologiques	
2846	1	phénomène	
2847	1	phénoménal	
2848	1	piaffaient	
2849	1	piaffants	
2850	1	piailleries	
2851	1	piaulent	
2852	1	piauler	
2853	1	pieusement	
2854	1	pile	
2855	1	piles	
2856	1	pilier	
2857	1	pince	
2858	1	piquaient	
2859	1	piquais	
2860	1	piquets	
2861	1	pires	
2862	1	pitance	
2863	1	pièce	
2864	1	plaira	
2865	1	plairait	
2866	1	plaisait	
2867	1	plaisantait	
2868	1	planta	
2869	1	plantai	
2870	1	planter	
2871	1	plantèrent	
2872	1	planté	
2873	1	plastron	
2874	1	plate	
2875	1	plates	
2876	1	plats	
2877	1	plausibles	
2878	1	pleine	
2879	1	plia	
2880	1	pliait	
2881	1	plier	
2882	1	plis	
2883	1	plongea	
2884	1	plu	
2885	1	plumage	
2886	1	plumes	
2887	1	plupart	
2888	1	plébéien	
2889	1	plénitude	
2890	1	poignantes	
2891	1	poignardé	
2892	1	poil	
2893	1	pointes	
2894	1	poisson	
2895	1	poissons	
2896	1	poli	
2897	1	polis	
2898	1	pommettes	
2899	1	pompeusement	
2900	1	ponts	
2901	1	populace	
2902	1	populaire	
2903	1	porta	
2904	1	portaient	
2905	1	portent	
2906	1	porter	
2907	1	portières	
2908	1	portraits	
2909	1	position	
2910	1	positivement	
2911	1	postillon	
2912	1	pouce	
2913	1	pouillé	
2914	1	pourrais	
2915	1	pourrez	
2916	1	pourtour	
2917	1	poussière	
2918	1	poussé	
2919	1	poussées	
2920	1	poutrelles	
2921	1	pouvant	
2922	1	poème	
2923	1	poésie	
2924	1	prenais	
2925	1	prenant	
2926	1	prennent	
2927	1	prescrite	
2928	1	pressants	
2929	1	pressées	
2930	1	preuve	
2931	1	preux	
2932	1	prime	
2933	1	principale	
2934	1	principes	
2935	1	prisait	
2936	1	privilégiés	
2937	1	prié	
2938	1	probablement	
2939	1	problème	
2940	1	proclamer	
2941	1	prodigieusement	
2942	1	produire	
2943	1	produisit	
2944	1	profitait	
2945	1	profondeur	
2946	1	progéniture	
2947	1	prolongée	
2948	1	promenais	
2949	1	promenait	
2950	1	promener	
2951	1	promesses	
2952	1	promettais	
2953	1	promettait	
2954	1	promis	
2955	1	prononcé	
2956	1	prononçant	
2957	1	proportion	
2958	1	propriétaire	
2959	1	prouvaient	
2960	1	prouver	
2961	1	prouvé	
2962	1	proverbiale	
2963	1	provoquent	
2964	1	prudences	
2965	1	prudhomme	
2966	1	précipite	
2967	1	précipiter	
2968	1	précisions	
2969	1	précisément	
2970	1	prédicateurs	
2971	1	préférence	
2972	1	préféré	
2973	1	préjugeai	
2974	1	préparer	
2975	1	préparé	
2976	1	prépondérante	
2977	1	présence	
2978	1	présentait	
2979	1	présentant	
2980	1	présente	
2981	1	présents	
2982	1	présumais	
2983	1	prétendait	
2984	1	prétendirent	
2985	1	prétends	
2986	1	prétendu	
2987	1	prévenu	
2988	1	prévisions	
2989	1	prévoir	
2990	1	prévoyait	
2991	1	prévôts	
2992	1	prêter	
2993	1	prît	
2994	1	publicités	
2995	1	publique	
2996	1	publiquement	
2997	1	publiques	
2998	1	pudeurs	
2999	1	puissance	
3000	1	puissante	
3001	1	puissants	
3002	1	pulsations	
3003	1	puni	
3004	1	pureté	
3005	1	pusse	
3006	1	put	
3007	1	putiphar	
3008	1	pâles	
3009	1	pâleurs	
3010	1	pénétrant	
3011	1	pénétration	
3012	1	pénétré	
3013	1	péril	
3014	1	pétries	
3015	1	quadrilatère	
3016	1	quarte	
3017	1	quarts	
3018	1	querelle	
3019	1	queue	
3020	1	quittant	
3021	1	quittés	
3022	1	raconte	
3023	1	raconter	
3024	1	racontée	
3025	1	radicale	
3026	1	radieuse	
3027	1	raffolent	
3028	1	raffoler	
3029	1	railleries	
3030	1	railleusement	
3031	1	raisonner	
3032	1	raisonneur	
3033	1	ralentit	
3034	1	ramassai	
3035	1	rancune	
3036	1	rapidement	
3037	1	rapides	
3038	1	rapidité	
3039	1	rappeler	
3040	1	rappelez	
3041	1	rappelle	
3042	1	rappelèrent	
3043	1	rapportent	
3044	1	rapports	
3045	1	rapprochement	
3046	1	rarement	
3047	1	ratiocinante	
3048	1	rattrapé	
3049	1	ravages	
3050	1	rayonnent	
3051	1	rayons	
3052	1	rebelles	
3053	1	recherches	
3054	1	reconnu	
3055	1	reculer	
3056	1	redevenue	
3057	1	redingote	
3058	1	redoutable	
3059	1	redoutables	
3060	1	redoutait	
3061	1	refont	
3062	1	reforme	
3063	1	refusa	
3064	1	regagnèrent	
3065	1	regardai	
3066	1	regardais	
3067	1	regrets	
3068	1	reins	
3069	1	religieuse	
3070	1	remarqua	
3071	1	remarquai	
3072	1	remarqué	
3073	1	remarquée	
3074	1	remontèrent	
3075	1	remords	
3076	1	remplacées	
3077	1	remplaçait	
3078	1	remporta	
3079	1	remportez	
3080	1	remporté	
3081	1	remède	
3082	1	remèdes	
3083	1	rencontraient	
3084	1	rencontrais	
3085	1	rencontre	
3086	1	rencontres	
3087	1	rendent	
3088	1	rendit	
3089	1	rendre	
3090	1	rendue	
3091	1	renommée	
3092	1	renonça	
3093	1	renseignait	
3094	1	renseigner	
3095	1	rente	
3096	1	rentra	
3097	1	rentrent	
3098	1	rentrés	
3099	1	renversement	
3100	1	repartis	
3101	1	repasse	
3102	1	repaître	
3103	1	replié	
3104	1	reprendre	
3105	1	reprises	
3106	1	repus	
3107	1	respective	
3108	1	respirait	
3109	1	respiration	
3110	1	resplendit	
3111	1	ressemblaient	
3112	1	ressemblance	
3113	1	ressemblant	
3114	1	ressource	
3115	1	restait	
3116	1	restant	
3117	1	restauration	
3118	1	restent	
3119	1	restâmes	
3120	1	resté	
3121	1	restée	
3122	1	retentir	
3123	1	retenu	
3124	1	retenues	
3125	1	retiré	
3126	1	retirés	
3127	1	retour	
3128	1	retournai	
3129	1	retournait	
3130	1	retraversa	
3131	1	revanche	
3132	1	revenait	
3133	1	revenues	
3134	1	revenus	
3135	1	reviens	
3136	1	revoient	
3137	1	revoir	
3138	1	reçoit	
3139	1	reçut	
3140	1	rhumatismes	
3141	1	riant	
3142	1	riche	
3143	1	ridicule	
3144	1	rigide	
3145	1	rigueur	
3146	1	rire	
3147	1	risquai	
3148	1	risquais	
3149	1	risquait	
3150	1	risquer	
3151	1	rivale	
3152	1	rivière	
3153	1	robinson	
3154	1	rochers	
3155	1	roi	
3156	1	rois	
3157	1	romain	
3158	1	romaines	
3159	1	romanesques	
3160	1	ronde	
3161	1	ronds	
3162	1	roquentins	
3163	1	roue	
3164	1	rouler	
3165	1	roulé	
3166	1	rousseur	
3167	1	routinière	
3168	1	rouvert	
3169	1	rouvrit	
3170	1	rouvrît	
3171	1	royal	
3172	1	royale	
3173	1	royaliste	
3174	1	rudement	
3175	1	rusé	
3176	1	rutilance	
3177	1	réalisé	
3178	1	réalité	
3179	1	récemment	
3180	1	récit	
3181	1	récompensée	
3182	1	réflexion	
3183	1	réglée	
3184	1	régulièrement	
3185	1	répandant	
3186	1	répondre	
3187	1	répondu	
3188	1	réponses	
3189	1	réprimées	
3190	1	résistances	
3191	1	résolu	
3192	1	résolut	
3193	1	rétabli	
3194	1	rétracté	
3195	1	révoltant	
3196	1	révélaient	
3197	1	révélait	
3198	1	révélèrent	
3199	1	révélé	
3200	1	rêver	
3201	1	rêveuses	
3202	1	rôdant	
3203	1	sable	
3204	1	sabots	
3205	1	saccadés	
3206	1	sachant	
3207	1	sacrements	
3208	1	sacrifier	
3209	1	sacrilège	
3210	1	sacripant	
3211	1	sacré	
3212	1	sainte	
3213	1	saintes	
3214	1	saisissant	
3215	1	saison	
3216	1	sait	
3217	1	salamalecs	
3218	1	saluait	
3219	1	sandale	
3220	1	sanglant	
3221	1	sanglé	
3222	1	saphirs	
3223	1	sardonique	
3224	1	satanés	
3225	1	saurait	
3226	1	sauvai	
3227	1	sauvais	
3228	1	sauvée	
3229	1	savamment	
3230	1	savant	
3231	1	savon	
3232	1	sbogar	
3233	1	scandales	
3234	1	sceptiquement	
3235	1	scindèrent	
3236	1	scruté	
3237	1	sculptés	
3238	1	scélérate	
3239	1	secondes	
3240	1	seigneur	
3241	1	seizième	
3242	1	selle	
3243	1	seller	
3244	1	sels	
3245	1	sembla	
3246	1	semblables	
3247	1	semble	
3248	1	semblent	
3249	1	sembler	
3250	1	semblé	
3251	1	semelle	
3252	1	semé	
3253	1	sens	
3254	1	sentaient	
3255	1	sentent	
3256	1	sentimental	
3257	1	septuagénaire	
3258	1	sera	
3259	1	serai	
3260	1	serpent	
3261	1	serpents	
3262	1	serrant	
3263	1	serre	
3264	1	serré	
3265	1	serrée	
3266	1	serrés	
3267	1	sert	
3268	1	servaient	
3269	1	servant	
3270	1	services	
3271	1	servir	
3272	1	siennes	
3273	1	silencieux	
3274	1	silencé	
3275	1	silhouette	
3276	1	simplification	
3277	1	simplifie	
3278	1	singulière	
3279	1	sinistre	
3280	1	six	
3281	1	sociales	
3282	1	soient	
3283	1	soin	
3284	1	sol	
3285	1	solennellement	
3286	1	solidarité	
3287	1	solide	
3288	1	solitude	
3289	1	sombres	
3290	1	sommeillait	
3291	1	sommes	
3292	1	somptueusement	
3293	1	songé	
3294	1	sonna	
3295	1	sonnait	
3296	1	sonner	
3297	1	sort	
3298	1	sortait	
3299	1	sortant	
3300	1	sortes	
3301	1	sortôville	
3302	1	souciant	
3303	1	soucient	
3304	1	soucier	
3305	1	souffler	
3306	1	souffles	
3307	1	souffrante	
3308	1	souffrir	
3309	1	souffrît	
3310	1	souillure	
3311	1	souillé	
3312	1	soulagement	
3313	1	soulevée	
3314	1	souper	
3315	1	souplesse	
3316	1	soupçon	
3317	1	soupçonnais	
3318	1	soupçonnant	
3319	1	soupçonner	
3320	1	soupçonné	
3321	1	soupçonnée	
3322	1	soupçons	
3323	1	sourcilla	
3324	1	sourcils	
3325	1	souris	
3326	1	sourit	
3327	1	souterrainement	
3328	1	souvenirs	
3329	1	souviens	
3330	1	sphinx	
3331	1	spécial	
3332	1	spéciale	
3333	1	spécialement	
3334	1	statue	
3335	1	statues	
3336	1	staël	
3337	1	sternum	
3338	1	stockholm	
3339	1	strict	
3340	1	suaire	
3341	1	substances	
3342	1	suffit	
3343	1	suivants	
3344	1	suivi	
3345	1	suivirent	
3346	1	suivit	
3347	1	suivre	
3348	1	sujets	
3349	1	superbe	
3350	1	superbement	
3351	1	superficielles	
3352	1	supporter	
3353	1	supposaient	
3354	1	supposais	
3355	1	supposer	
3356	1	supérieures	
3357	1	surhumain	
3358	1	surnagé	
3359	1	surnom	
3360	1	surprendre	
3361	1	surveillaient	
3362	1	suspendant	
3363	1	sut	
3364	1	sveltes	
3365	1	symptômes	
3366	1	système	
3367	1	séché	
3368	1	séchée	
3369	1	sécurité	
3370	1	sérieuse	
3371	1	sérieux	
3372	1	sévèrement	
3373	1	sûrs	
3374	1	taches	
3375	1	taillebois	
3376	1	tailles	
3377	1	taillés	
3378	1	taire	
3379	1	tait	
3380	1	talons	
3381	1	tancrède	
3382	1	tandis	
3383	1	taon	
3384	1	tapage	
3385	1	tardivement	
3386	1	tassés	
3387	1	taxé	
3388	1	teint	
3389	1	teinture	
3390	1	tellement	
3391	1	tels	
3392	1	tempête	
3393	1	tenace	
3394	1	tenaient	
3395	1	tenais	
3396	1	tendit	
3397	1	tenez	
3398	1	tentation	
3399	1	tentatrice	
3400	1	tenteraient	
3401	1	tenté	
3402	1	termina	
3403	1	ternie	
3404	1	terrain	
3405	1	terrasser	
3406	1	terreur	
3407	1	terribles	
3408	1	tiens	
3409	1	tient	
3410	1	tierce	
3411	1	tigres	
3412	1	tigresse	
3413	1	timidement	
3414	1	tint	
3415	1	tirais	
3416	1	tire	
3417	1	tireuse	
3418	1	tirées	
3419	1	tissus	
3420	1	titien	
3421	1	tiède	
3422	1	toi	
3423	1	tombai	
3424	1	tombant	
3425	1	tombe	
3426	1	tombes	
3427	1	tombé	
3428	1	tonnerre	
3429	1	tordaient	
3430	1	torrent	
3431	1	tort	
3432	1	touchant	
3433	1	touché	
3434	1	touchée	
3435	1	tournai	
3436	1	tournant	
3437	1	tournures	
3438	1	tournée	
3439	1	tournées	
3440	1	tournés	
3441	1	tracassait	
3442	1	tracé	
3443	1	tragique	
3444	1	trahie	
3445	1	trahison	
3446	1	trahissait	
3447	1	trahissantes	
3448	1	traité	
3449	1	transes	
3450	1	travail	
3451	1	travaillait	
3452	1	travaillant	
3453	1	travailler	
3454	1	travers	
3455	1	traversaient	
3456	1	traînaillé	
3457	1	traînerie	
3458	1	tremblement	
3459	1	tremblements	
3460	1	tricotées	
3461	1	triomphe	
3462	1	tromper	
3463	1	trompée	
3464	1	trompés	
3465	1	trot	
3466	1	troubler	
3467	1	trouvez	
3468	1	trouvés	
3469	1	tu	
3470	1	tue	
3471	1	tutoierait	
3472	1	tutoyait	
3473	1	tuée	
3474	1	tâte	
3475	1	tératologie	
3476	1	têtes	
3477	1	unes	
3478	1	unis	
3479	1	vague	
3480	1	vagues	
3481	1	vaincu	
3482	1	vaincue	
3483	1	valût	
3484	1	vanne	
3485	1	vaporeuses	
3486	1	veiller	
3487	1	veillé	
3488	1	veines	
3489	1	veiné	
3490	1	velletri	
3491	1	venaient	
3492	1	venais	
3493	1	vengeance	
3494	1	venons	
3495	1	ventre	
3496	1	verrait	
3497	1	verre	
3498	1	verser	
3499	1	vertes	
3500	1	vertueusement	
3501	1	vertueuses	
3502	1	veuf	
3503	1	veut	
3504	1	vibraient	
3505	1	vibration	
3506	1	vice	
3507	1	vicomte	
3508	1	victime	
3509	1	victorieusement	
3510	1	vida	
3511	1	vieillard	
3512	1	vieilles	
3513	1	vieillir	
3514	1	viendrait	
3515	1	vienne	
3516	1	viennent	
3517	1	viens	
3518	1	vierge	
3519	1	vigoureux	
3520	1	villes	
3521	1	violent	
3522	1	violet	
3523	1	violon	
3524	1	violâtre	
3525	1	vissé	
3526	1	vitres	
3527	1	vitrée	
3528	1	vivantes	
3529	1	vocation	
3530	1	voient	
3531	1	voies	
3532	1	voilait	
3533	1	voiler	
3534	1	voiles	
3535	1	voilées	
3536	1	voisinage	
3537	1	voit	
3538	1	voitures	
3539	1	volcanisé	
3540	1	volonté	
3541	1	voluptueux	
3542	1	volupté	
3543	1	voulaient	
3544	1	voulurent	
3545	1	voulut	
3546	1	voyagent	
3547	1	voyons	
3548	1	vulgaire	
3549	1	vérité	
3550	1	vêtu	
3551	1	vît	
3552	1	vôtre	
3553	1	xii	
3554	1	xiv	
3555	1	xv	
3556	1	zébrées	
3557	1	âme	
3558	1	çà	
3559	1	éblouissant	
3560	1	éblouissement	
3561	1	éblouit	
3562	1	ébranlé	
3563	1	écarter	
3564	1	échafauds	
3565	1	échangèrent	
3566	1	échantillon	
3567	1	échiquier	
3568	1	éclair	
3569	1	éclaira	
3570	1	éclairait	
3571	1	éclairer	
3572	1	éclairé	
3573	1	éclipsait	
3574	1	écluse	
3575	1	école	
3576	1	écoles	
3577	1	écoula	
3578	1	écoutez	
3579	1	écouté	
3580	1	écritoire	
3581	1	écrivais	
3582	1	écueil	
3583	1	écumer	
3584	1	écusson	
3585	1	édification	
3586	1	édifice	
3587	1	égal	
3588	1	égalait	
3589	1	égale	
3590	1	égalise	
3591	1	égaré	
3592	1	égyptien	
3593	1	élancé	
3594	1	élevait	
3595	1	élevés	
3596	1	éloignant	
3597	1	élysées	
3598	1	élève	
3599	1	élèves	
3600	1	élégante	
3601	1	élégantes	
3602	1	émeraude	
3603	1	émeraudes	
3604	1	émerger	
3605	1	émeuvant	
3606	1	émigration	
3607	1	ému	
3608	1	émût	
3609	1	énergie	
3610	1	énervé	
3611	1	épaisseur	
3612	1	épaississait	
3613	1	épargne	
3614	1	épargner	
3615	1	épinglait	
3616	1	éplucha	
3617	1	éponge	
3618	1	épousa	
3619	1	épousait	
3620	1	épousant	
3621	1	épouser	
3622	1	épouserait	
3623	1	épousé	
3624	1	épousée	
3625	1	épouvanter	
3626	1	épouvanté	
3627	1	épouvantées	
3628	1	équateur	
3629	1	équestre	
3630	1	équilibre	
3631	1	équitation	
3632	1	ésaü	
3633	1	établir	
3634	1	étalant	
3635	1	étalée	
3636	1	éteint	
3637	1	étendit	
3638	1	éternelle	
3639	1	étincelant	
3640	1	étincelle	
3641	1	étoffe	
3642	1	étoilait	
3643	1	étoile	
3644	1	étoiles	
3645	1	étonna	
3646	1	étonnante	
3647	1	étonnement	
3648	1	étonné	
3649	1	étrangement	
3650	1	étranges	
3651	1	étudiait	
3652	1	étudié	
3653	1	étui	
3654	1	évita	
3655	1	évitait	
3656	1	éviter	
3657	1	île	
3658	1	ôta	
3659	1	ôter	
