#Word Types: 3359
#Word Tokens: 11462
#Search Hits: 0
1	570	de	
2	358	et	
3	320	la	
4	255	d	
5	242	les	
6	235	le	
7	214	à	
8	184	un	
9	182	l	
10	168	des	
11	165	une	
12	149	il	
13	123	en	
14	112	dans	
15	104	du	
16	103	qui	
17	99	que	
18	95	pas	
19	82	ne	
20	82	par	
21	81	se	
22	78	sur	
23	77	qu	
24	72	son	
25	68	s	
26	66	comme	
27	66	octavien	
28	62	au	
29	62	n	
30	58	ses	
31	51	plus	
32	51	sa	
33	51	était	
34	50	lui	
35	50	pour	
36	49	on	
37	44	avec	
38	43	avait	
39	43	ces	
40	42	est	
41	41	ce	
42	41	cette	
43	37	ou	
44	36	aux	
45	32	dont	
46	28	a	
47	28	mais	
48	26	si	
49	25	ils	
50	22	deux	
51	22	pompéi	
52	22	tout	
53	22	tu	
54	21	max	
55	20	dit	
56	20	je	
57	20	jeune	
58	20	leur	
59	19	arria	
60	19	elle	
61	19	fabio	
62	18	même	
63	18	où	
64	18	étaient	
65	17	ville	
66	17	être	
67	16	femme	
68	16	sous	
69	16	vie	
70	16	y	
71	15	leurs	
72	14	amour	
73	14	avaient	
74	14	c	
75	14	fit	
76	14	jour	
77	14	marbre	
78	14	nous	
79	14	sans	
80	14	temps	
81	14	yeux	
82	13	devant	
83	13	encore	
84	13	faisait	
85	13	maison	
86	13	trois	
87	13	tête	
88	12	aussi	
89	12	bras	
90	12	côté	
91	12	marcella	
92	12	nuit	
93	12	soleil	
94	12	ton	
95	12	tous	
96	11	amis	
97	11	antique	
98	11	car	
99	11	faire	
100	11	moins	
101	11	or	
102	11	près	
103	11	vers	
104	11	vin	
105	11	été	
106	10	bien	
107	10	colonnes	
108	10	cœur	
109	10	eût	
110	10	fond	
111	10	grand	
112	10	homme	
113	10	peut	
114	10	porte	
115	10	siècles	
116	10	tant	
117	10	toutes	
118	10	voir	
119	9	arrius	
120	9	beaucoup	
121	9	fait	
122	9	forme	
123	9	heure	
124	9	jusqu	
125	9	lune	
126	9	naples	
127	9	ont	
128	9	quelque	
129	9	rien	
130	9	t	
131	9	théâtre	
132	9	toute	
133	9	œil	
134	8	ainsi	
135	8	après	
136	8	avoir	
137	8	beauté	
138	8	chemin	
139	8	cheveux	
140	8	diomèdes	
141	8	guide	
142	8	lieu	
143	8	là	
144	8	m	
145	8	me	
146	8	mille	
147	8	mon	
148	8	musée	
149	8	quelques	
150	8	salle	
151	8	semblait	
152	8	ta	
153	8	travers	
154	8	voix	
155	7	air	
156	7	autre	
157	7	casina	
158	7	cependant	
159	7	donc	
160	7	empreinte	
161	7	esclaves	
162	7	femmes	
163	7	fois	
164	7	fut	
165	7	idée	
166	7	moi	
167	7	morte	
168	7	mosaïque	
169	7	parmi	
170	7	poitrine	
171	7	répondit	
172	7	scène	
173	7	table	
174	7	te	
175	7	tes	
176	7	tunique	
177	7	vésuve	
178	6	amphithéâtre	
179	6	ans	
180	6	aspect	
181	6	aurait	
182	6	autour	
183	6	azur	
184	6	bas	
185	6	bronze	
186	6	cendre	
187	6	cet	
188	6	chambre	
189	6	ciel	
190	6	coup	
191	6	demi	
192	6	depuis	
193	6	dieux	
194	6	détails	
195	6	eu	
196	6	face	
197	6	falerne	
198	6	inscription	
199	6	j	
200	6	jeunes	
201	6	lit	
202	6	lumière	
203	6	mort	
204	6	ombre	
205	6	peintes	
206	6	pendant	
207	6	pouvait	
208	6	pu	
209	6	rues	
210	6	sont	
211	6	terre	
212	6	titus	
213	6	vieillard	
214	6	vous	
215	6	voyait	
216	6	âme	
217	6	éclat	
218	6	étrange	
219	5	ai	
220	5	allons	
221	5	alors	
222	5	anciens	
223	5	aujourd	
224	5	beau	
225	5	belle	
226	5	belles	
227	5	bleu	
228	5	celle	
229	5	celui	
230	5	chaque	
231	5	contre	
232	5	fer	
233	5	fille	
234	5	gens	
235	5	gorge	
236	5	holconius	
237	5	hui	
238	5	laquelle	
239	5	latin	
240	5	lorsque	
241	5	ma	
242	5	main	
243	5	maisons	
244	5	manière	
245	5	mer	
246	5	milieu	
247	5	monde	
248	5	mur	
249	5	murailles	
250	5	ni	
251	5	noir	
252	5	noire	
253	5	non	
254	5	nos	
255	5	pavé	
256	5	peine	
257	5	petite	
258	5	petits	
259	5	peu	
260	5	pieds	
261	5	places	
262	5	pourpre	
263	5	pâle	
264	5	quand	
265	5	quatre	
266	5	rue	
267	5	réalité	
268	5	serait	
269	5	toi	
270	5	toujours	
271	5	tyché	
272	5	vit	
273	5	éruption	
274	4	abord	
275	4	acteurs	
276	4	ajouta	
277	4	allait	
278	4	ami	
279	4	amoureux	
280	4	anneaux	
281	4	art	
282	4	autres	
283	4	blanc	
284	4	blanche	
285	4	blancs	
286	4	bonne	
287	4	briques	
288	4	cave	
289	4	cendres	
290	4	ceux	
291	4	chose	
292	4	cicerone	
293	4	comment	
294	4	corps	
295	4	couleur	
296	4	coupe	
297	4	cru	
298	4	césar	
299	4	dessus	
300	4	doute	
301	4	doux	
302	4	effet	
303	4	elles	
304	4	espace	
305	4	espèce	
306	4	eux	
307	4	firent	
308	4	force	
309	4	fortune	
310	4	forum	
311	4	fou	
312	4	froid	
313	4	fût	
314	4	gradins	
315	4	hasard	
316	4	haut	
317	4	heures	
318	4	hôte	
319	4	joues	
320	4	larges	
321	4	lave	
322	4	léger	
323	4	manteau	
324	4	mari	
325	4	moment	
326	4	nom	
327	4	notre	
328	4	osteria	
329	4	paraissait	
330	4	parler	
331	4	parut	
332	4	passant	
333	4	passer	
334	4	personnages	
335	4	place	
336	4	plaisir	
337	4	plein	
338	4	pluie	
339	4	plutôt	
340	4	pompéien	
341	4	pourtant	
342	4	poussière	
343	4	premier	
344	4	presque	
345	4	prit	
346	4	quoique	
347	4	regard	
348	4	regardait	
349	4	retourna	
350	4	roses	
351	4	règne	
352	4	rêve	
353	4	rêves	
354	4	sais	
355	4	secret	
356	4	siècle	
357	4	sortir	
358	4	stalino	
359	4	statue	
360	4	studj	
361	4	suis	
362	4	surpris	
363	4	teintes	
364	4	toits	
365	4	trouva	
366	4	très	
367	4	venait	
368	4	vingt	
369	4	vivante	
370	4	volcan	
371	4	vue	
372	4	vêtu	
373	4	état	
374	4	étoiles	
375	3	affiches	
376	3	ailleurs	
377	3	airain	
378	3	anglais	
379	3	angle	
380	3	années	
381	3	antiques	
382	3	argent	
383	3	arrivèrent	
384	3	arrêté	
385	3	assez	
386	3	aucun	
387	3	aucune	
388	3	aussitôt	
389	3	bassin	
390	3	bois	
391	3	bouche	
392	3	boutiques	
393	3	brune	
394	3	chargé	
395	3	cher	
396	3	cherchait	
397	3	clair	
398	3	cléopâtre	
399	3	coin	
400	3	col	
401	3	comique	
402	3	compagnons	
403	3	conduisit	
404	3	connaissaient	
405	3	continua	
406	3	conversation	
407	3	cour	
408	3	cris	
409	3	curiosité	
410	3	dater	
411	3	debout	
412	3	dernier	
413	3	devait	
414	3	différents	
415	3	disparu	
416	3	disparus	
417	3	donne	
418	3	désir	
419	3	endroit	
420	3	ensemble	
421	3	ensuite	
422	3	entendre	
423	3	entre	
424	3	entrèrent	
425	3	es	
426	3	esclave	
427	3	eut	
428	3	existence	
429	3	explication	
430	3	festin	
431	3	fils	
432	3	fine	
433	3	fleurs	
434	3	formes	
435	3	fort	
436	3	français	
437	3	fraîcheur	
438	3	front	
439	3	grands	
440	3	grec	
441	3	grecque	
442	3	grâce	
443	3	gréco	
444	3	hôtes	
445	3	ici	
446	3	idéal	
447	3	ivoire	
448	3	ivresse	
449	3	jamais	
450	3	jules	
451	3	laisser	
452	3	lequel	
453	3	litière	
454	3	longtemps	
455	3	manque	
456	3	marché	
457	3	matin	
458	3	maître	
459	3	maîtresse	
460	3	mis	
461	3	mode	
462	3	moderne	
463	3	mot	
464	3	mystérieux	
465	3	neuf	
466	3	nouveau	
467	3	néant	
468	3	oh	
469	3	ombres	
470	3	ordre	
471	3	ornements	
472	3	ouvert	
473	3	parois	
474	3	passait	
475	3	passé	
476	3	pensée	
477	3	personnage	
478	3	petites	
479	3	pierres	
480	3	pièce	
481	3	pli	
482	3	portant	
483	3	portique	
484	3	prendre	
485	3	produit	
486	3	profonde	
487	3	proie	
488	3	puis	
489	3	pâles	
490	3	quelquefois	
491	3	rapide	
492	3	regardant	
493	3	remparts	
494	3	rendre	
495	3	repas	
496	3	représentation	
497	3	riant	
498	3	rideau	
499	3	rose	
500	3	roues	
501	3	rouge	
502	3	rouges	
503	3	rufus	
504	3	ruine	
505	3	sein	
506	3	selon	
507	3	sens	
508	3	sentait	
509	3	sentiment	
510	3	sentit	
511	3	sera	
512	3	seul	
513	3	signe	
514	3	singulier	
515	3	soit	
516	3	souvenirs	
517	3	spectacle	
518	3	station	
519	3	statues	
520	3	stuc	
521	3	théâtres	
522	3	toit	
523	3	tombeaux	
524	3	touchait	
525	3	tour	
526	3	trop	
527	3	urnes	
528	3	vagues	
529	3	vapeur	
530	3	villa	
531	3	vivre	
532	3	voie	
533	3	voit	
534	3	voulu	
535	3	voyage	
536	3	vu	
537	3	vulgaires	
538	3	écoulés	
539	3	émotion	
540	3	épaule	
541	3	éternité	
542	2	académie	
543	2	acheva	
544	2	admirable	
545	2	adresse	
546	2	affreux	
547	2	aimait	
548	2	aime	
549	2	aimer	
550	2	aimée	
551	2	aisément	
552	2	albinus	
553	2	amant	
554	2	amical	
555	2	amoureuse	
556	2	amours	
557	2	amphore	
558	2	amphores	
559	2	année	
560	2	apercevoir	
561	2	applaudissements	
562	2	appuyé	
563	2	ardente	
564	2	ardeur	
565	2	argile	
566	2	armoire	
567	2	arrivait	
568	2	arrête	
569	2	artiste	
570	2	as	
571	2	asiatiques	
572	2	atmosphère	
573	2	auberge	
574	2	auguste	
575	2	avant	
576	2	ave	
577	2	aventure	
578	2	ayant	
579	2	banales	
580	2	bancs	
581	2	bandelette	
582	2	barbare	
583	2	barbe	
584	2	barre	
585	2	biclinium	
586	2	bientôt	
587	2	bizarre	
588	2	blanches	
589	2	bon	
590	2	bonheur	
591	2	bottes	
592	2	boue	
593	2	bouffonne	
594	2	bourgeois	
595	2	bout	
596	2	boutique	
597	2	bouvier	
598	2	brillaient	
599	2	brouillard	
600	2	bruit	
601	2	bruits	
602	2	brusque	
603	2	bœufs	
604	2	cadavre	
605	2	camarades	
606	2	caprice	
607	2	catastrophe	
608	2	cavaedium	
609	2	ceinture	
610	2	cela	
611	2	certains	
612	2	champ	
613	2	champs	
614	2	changement	
615	2	changé	
616	2	chapeau	
617	2	char	
618	2	chargés	
619	2	charmants	
620	2	charme	
621	2	chaux	
622	2	chez	
623	2	chimère	
624	2	choisissait	
625	2	choses	
626	2	chrétien	
627	2	château	
628	2	clarté	
629	2	classiques	
630	2	clients	
631	2	coins	
632	2	complaisant	
633	2	composé	
634	2	comprenant	
635	2	comédie	
636	2	connais	
637	2	connaissance	
638	2	conservé	
639	2	consul	
640	2	contemplation	
641	2	contour	
642	2	contours	
643	2	correspondant	
644	2	corricolo	
645	2	costume	
646	2	couchée	
647	2	coude	
648	2	croyance	
649	2	croyances	
650	2	crut	
651	2	curieuse	
652	2	curieuses	
653	2	cursif	
654	2	célèbre	
655	2	dame	
656	2	danseuse	
657	2	degrés	
658	2	descendirent	
659	2	devenir	
660	2	dieu	
661	2	disait	
662	2	disparut	
663	2	distance	
664	2	dix	
665	2	donné	
666	2	dos	
667	2	douter	
668	2	drapé	
669	2	droite	
670	2	durs	
671	2	décorateur	
672	2	découverte	
673	2	découverts	
674	2	détail	
675	2	détruite	
676	2	dû	
677	2	eau	
678	2	ellen	
679	2	endormi	
680	2	enfin	
681	2	engagea	
682	2	enlever	
683	2	enseignes	
684	2	entendit	
685	2	entendu	
686	2	entrait	
687	2	entrer	
688	2	entrée	
689	2	espagne	
690	2	esprit	
691	2	essayé	
692	2	existe	
693	2	expliquer	
694	2	expression	
695	2	faisant	
696	2	fantaisie	
697	2	fantastique	
698	2	fantastiques	
699	2	faust	
700	2	faut	
701	2	façades	
702	2	façon	
703	2	feu	
704	2	feuilles	
705	2	filles	
706	2	folle	
707	2	fontaines	
708	2	fouilles	
709	2	fraîches	
710	2	fumées	
711	2	fureur	
712	2	fussent	
713	2	fâcheux	
714	2	galerie	
715	2	gardé	
716	2	garçon	
717	2	gaulois	
718	2	genre	
719	2	gladiateurs	
720	2	glisser	
721	2	gothique	
722	2	gradin	
723	2	grande	
724	2	grecs	
725	2	guère	
726	2	habiles	
727	2	habitations	
728	2	hallucination	
729	2	hauteur	
730	2	herse	
731	2	hier	
732	2	historiens	
733	2	hommes	
734	2	horace	
735	2	horreur	
736	2	hors	
737	2	huit	
738	2	humeur	
739	2	hélène	
740	2	hôtellerie	
741	2	idées	
742	2	illuminait	
743	2	images	
744	2	imperceptible	
745	2	impossible	
746	2	inconnu	
747	2	inconnue	
748	2	inconnus	
749	2	infini	
750	2	infâmes	
751	2	insensés	
752	2	invisible	
753	2	invisibles	
754	2	italie	
755	2	jambes	
756	2	jardins	
757	2	jaune	
758	2	jeté	
759	2	jeunesse	
760	2	jouant	
761	2	jouet	
762	2	lac	
763	2	laissait	
764	2	laissant	
765	2	laissé	
766	2	laissée	
767	2	langue	
768	2	large	
769	2	latines	
770	2	lettres	
771	2	levait	
772	2	liberté	
773	2	libre	
774	2	lignes	
775	2	linceul	
776	2	loin	
777	2	long	
778	2	luisantes	
779	2	lèvres	
780	2	légumes	
781	2	légère	
782	2	légèrement	
783	2	lézards	
784	2	maigre	
785	2	mains	
786	2	mal	
787	2	marbres	
788	2	marchait	
789	2	marchand	
790	2	masque	
791	2	merveilles	
792	2	mets	
793	2	midi	
794	2	minium	
795	2	minuit	
796	2	montagne	
797	2	monter	
798	2	morceau	
799	2	moresques	
800	2	mots	
801	2	moule	
802	2	moyen	
803	2	muraille	
804	2	murs	
805	2	myrrhin	
806	2	mélancolique	
807	2	mêmes	
808	2	nature	
809	2	naturel	
810	2	naturelle	
811	2	neige	
812	2	nez	
813	2	nocturne	
814	2	noirs	
815	2	nomenclature	
816	2	nones	
817	2	nu	
818	2	nus	
819	2	objets	
820	2	obligé	
821	2	ocre	
822	2	oiseau	
823	2	oiseaux	
824	2	oreille	
825	2	oreilles	
826	2	ornée	
827	2	orties	
828	2	oubli	
829	2	paganisme	
830	2	paille	
831	2	paraissent	
832	2	parce	
833	2	parfaitement	
834	2	parfumées	
835	2	paris	
836	2	paroles	
837	2	part	
838	2	partaient	
839	2	partie	
840	2	passion	
841	2	passionnée	
842	2	patte	
843	2	pays	
844	2	paysans	
845	2	peau	
846	2	peinture	
847	2	peintures	
848	2	pendait	
849	2	perdit	
850	2	perles	
851	2	phidias	
852	2	pied	
853	2	pincée	
854	2	placide	
855	2	plancus	
856	2	plats	
857	2	plaute	
858	2	pleine	
859	2	plis	
860	2	plumes	
861	2	portait	
862	2	portes	
863	2	pose	
864	2	poussa	
865	2	poussant	
866	2	pouvoir	
867	2	poétique	
868	2	pratiquées	
869	2	première	
870	2	prenaient	
871	2	prirent	
872	2	pris	
873	2	prix	
874	2	prodige	
875	2	prologue	
876	2	promena	
877	2	promeneur	
878	2	propos	
879	2	prosaïques	
880	2	préfères	
881	2	présence	
882	2	puisque	
883	2	pur	
884	2	pure	
885	2	pureté	
886	2	péri	
887	2	quel	
888	2	quelconque	
889	2	queue	
890	2	rappelant	
891	2	rayon	
892	2	recevait	
893	2	refroidie	
894	2	regardaient	
895	2	regards	
896	2	religion	
897	2	remarqua	
898	2	remise	
899	2	rendu	
900	2	reprendre	
901	2	reprit	
902	2	resta	
903	2	restes	
904	2	revenir	
905	2	revinrent	
906	2	rire	
907	2	romaine	
908	2	rome	
909	2	route	
910	2	rubrique	
911	2	ruines	
912	2	ruinées	
913	2	récent	
914	2	réflexion	
915	2	rétrospectif	
916	2	rêverie	
917	2	safran	
918	2	salles	
919	2	salon	
920	2	sandales	
921	2	sculptées	
922	2	semblable	
923	2	semble	
924	2	semblent	
925	2	sent	
926	2	senti	
927	2	sentiments	
928	2	sereine	
929	2	serpent	
930	2	serre	
931	2	servis	
932	2	seuil	
933	2	silence	
934	2	sillonné	
935	2	simple	
936	2	soie	
937	2	soin	
938	2	soir	
939	2	sol	
940	2	soldats	
941	2	sommeil	
942	2	sommes	
943	2	somnambule	
944	2	sons	
945	2	sortie	
946	2	sortit	
947	2	soulevant	
948	2	soupir	
949	2	soutenaient	
950	2	soutenant	
951	2	souvent	
952	2	style	
953	2	subir	
954	2	suite	
955	2	suivis	
956	2	suprême	
957	2	surprise	
958	2	surtout	
959	2	sûr	
960	2	tableaux	
961	2	taciturnes	
962	2	tandis	
963	2	taverne	
964	2	teinte	
965	2	temple	
966	2	terrasse	
967	2	tibère	
968	2	toges	
969	2	tombait	
970	2	tombeau	
971	2	tomber	
972	2	tombée	
973	2	torre	
974	2	touche	
975	2	traces	
976	2	tracée	
977	2	tranquille	
978	2	traverse	
979	2	traversèrent	
980	2	traversé	
981	2	travée	
982	2	triclinium	
983	2	tristesse	
984	2	trottoirs	
985	2	trouve	
986	2	tuiles	
987	2	types	
988	2	vase	
989	2	vaste	
990	2	venue	
991	2	vert	
992	2	vestibule	
993	2	veut	
994	2	veux	
995	2	vide	
996	2	vieilles	
997	2	vieux	
998	2	vif	
999	2	villages	
1000	2	vins	
1001	2	violettes	
1002	2	virent	
1003	2	visage	
1004	2	visitaient	
1005	2	visite	
1006	2	visiteurs	
1007	2	vitrine	
1008	2	vivace	
1009	2	vive	
1010	2	voici	
1011	2	voiles	
1012	2	voisine	
1013	2	voltigeaient	
1014	2	voluptueuse	
1015	2	vomitoires	
1016	2	vrai	
1017	2	vraie	
1018	2	vénus	
1019	2	écouter	
1020	2	écria	
1021	2	édifices	
1022	2	élargissant	
1023	2	épris	
1024	2	éprouvait	
1025	2	étage	
1026	2	étalage	
1027	2	étouffée	
1028	2	évocation	
1029	1	abaisser	
1030	1	abandonne	
1031	1	abondance	
1032	1	aboyait	
1033	1	absence	
1034	1	absentes	
1035	1	absents	
1036	1	absorbé	
1037	1	abstraite	
1038	1	abusée	
1039	1	abîma	
1040	1	abîmes	
1041	1	accablez	
1042	1	accablé	
1043	1	accent	
1044	1	accentuée	
1045	1	accepta	
1046	1	accompagné	
1047	1	accompli	
1048	1	accordait	
1049	1	accoudée	
1050	1	accroche	
1051	1	accrochée	
1052	1	acheteurs	
1053	1	achevée	
1054	1	acrotère	
1055	1	actif	
1056	1	action	
1057	1	adaptaient	
1058	1	adapté	
1059	1	adhéraient	
1060	1	admet	
1061	1	admirait	
1062	1	admiré	
1063	1	adriatique	
1064	1	advena	
1065	1	affaissés	
1066	1	affligé	
1067	1	affranchi	
1068	1	africain	
1069	1	age	
1070	1	aggravaient	
1071	1	agissent	
1072	1	agitation	
1073	1	agonie	
1074	1	ah	
1075	1	aidés	
1076	1	aies	
1077	1	aiguille	
1078	1	aiguillon	
1079	1	aile	
1080	1	aimaient	
1081	1	aimerais	
1082	1	aimé	
1083	1	alarmants	
1084	1	alarmés	
1085	1	alcyons	
1086	1	alcésimus	
1087	1	alcôves	
1088	1	ale	
1089	1	alexandre	
1090	1	alger	
1091	1	alhambra	
1092	1	allaient	
1093	1	allant	
1094	1	aller	
1095	1	allongeait	
1096	1	allongées	
1097	1	allongés	
1098	1	allègre	
1099	1	alourdie	
1100	1	amalia	
1101	1	amants	
1102	1	ambassadeurs	
1103	1	amener	
1104	1	amicales	
1105	1	amoureuses	
1106	1	ample	
1107	1	amulettes	
1108	1	amusement	
1109	1	amusera	
1110	1	an	
1111	1	analyse	
1112	1	anglaise	
1113	1	angoisse	
1114	1	angélique	
1115	1	animal	
1116	1	anime	
1117	1	annonces	
1118	1	annunziata	
1119	1	antiquaire	
1120	1	antérieure	
1121	1	anéantir	
1122	1	août	
1123	1	aperçoit	
1124	1	aperçue	
1125	1	aperçut	
1126	1	aphorisme	
1127	1	aphrodite	
1128	1	apparence	
1129	1	apparences	
1130	1	apparition	
1131	1	appartement	
1132	1	appartements	
1133	1	appartenaient	
1134	1	appartenait	
1135	1	appartenir	
1136	1	appartiennent	
1137	1	appelaient	
1138	1	appelait	
1139	1	appeler	
1140	1	appelât	
1141	1	appesanti	
1142	1	apportait	
1143	1	apportassent	
1144	1	apprendre	
1145	1	apprise	
1146	1	apprit	
1147	1	approcha	
1148	1	apulie	
1149	1	aqua	
1150	1	arabesque	
1151	1	arabesques	
1152	1	aragon	
1153	1	arbre	
1154	1	arbres	
1155	1	arcade	
1156	1	arcades	
1157	1	archaïque	
1158	1	architecte	
1159	1	architecturales	
1160	1	architecture	
1161	1	architectures	
1162	1	architraves	
1163	1	archives	
1164	1	archéologie	
1165	1	ardemment	
1166	1	argentée	
1167	1	argumentation	
1168	1	aristoloche	
1169	1	aromatisée	
1170	1	arquée	
1171	1	arrange	
1172	1	arrivaient	
1173	1	arrives	
1174	1	arrière	
1175	1	arrêtaient	
1176	1	arrêter	
1177	1	arrêtèrent	
1178	1	arrêtée	
1179	1	arènes	
1180	1	arête	
1181	1	ascendant	
1182	1	aspasie	
1183	1	aspic	
1184	1	aspirer	
1185	1	assentiment	
1186	1	assirent	
1187	1	assise	
1188	1	assises	
1189	1	assistance	
1190	1	assistant	
1191	1	atelier	
1192	1	athènes	
1193	1	athée	
1194	1	attachée	
1195	1	attaques	
1196	1	attardé	
1197	1	atteignaient	
1198	1	atteint	
1199	1	atteinte	
1200	1	attelage	
1201	1	attendaient	
1202	1	attendais	
1203	1	attendait	
1204	1	attendent	
1205	1	attendre	
1206	1	attention	
1207	1	attire	
1208	1	attirent	
1209	1	attiré	
1210	1	attitude	
1211	1	attribua	
1212	1	attribue	
1213	1	auber	
1214	1	augmentant	
1215	1	augustus	
1216	1	auraient	
1217	1	austère	
1218	1	autant	
1219	1	auteur	
1220	1	autrefois	
1221	1	avances	
1222	1	avenir	
1223	1	aventures	
1224	1	avenue	
1225	1	aversion	
1226	1	aveuglant	
1227	1	aviser	
1228	1	avouait	
1229	1	avril	
1230	1	azurées	
1231	1	aïeul	
1232	1	bagues	
1233	1	baigneurs	
1234	1	baignoires	
1235	1	bains	
1236	1	baisers	
1237	1	balance	
1238	1	ballet	
1239	1	banal	
1240	1	banc	
1241	1	bande	
1242	1	bandes	
1243	1	baroques	
1244	1	base	
1245	1	basilique	
1246	1	battu	
1247	1	beaux	
1248	1	beefsteaks	
1249	1	bella	
1250	1	besoin	
1251	1	bibliothèque	
1252	1	bienveillante	
1253	1	bifurquées	
1254	1	bijoux	
1255	1	billets	
1256	1	birmingham	
1257	1	birèmes	
1258	1	bière	
1259	1	blancheur	
1260	1	bleue	
1261	1	bleues	
1262	1	bleus	
1263	1	bleuâtre	
1264	1	boileau	
1265	1	bondon	
1266	1	bonnes	
1267	1	bons	
1268	1	bord	
1269	1	borde	
1270	1	bordent	
1271	1	bords	
1272	1	bordé	
1273	1	bordée	
1274	1	bordées	
1275	1	botocudo	
1276	1	boucher	
1277	1	bouches	
1278	1	bouchées	
1279	1	boucles	
1280	1	bouffant	
1281	1	bougies	
1282	1	bouillonnait	
1283	1	boules	
1284	1	boulevard	
1285	1	bourdonnement	
1286	1	bourres	
1287	1	bouteille	
1288	1	bouts	
1289	1	bracelets	
1290	1	branches	
1291	1	bravement	
1292	1	braves	
1293	1	brique	
1294	1	brise	
1295	1	brises	
1296	1	brisé	
1297	1	brisée	
1298	1	brodées	
1299	1	bronzes	
1300	1	brouillaient	
1301	1	brume	
1302	1	brun	
1303	1	brusquement	
1304	1	brûlant	
1305	1	brûlante	
1306	1	brûlantes	
1307	1	brûler	
1308	1	brûlées	
1309	1	bu	
1310	1	burlesques	
1311	1	but	
1312	1	buvait	
1313	1	buveurs	
1314	1	byssus	
1315	1	bâtie	
1316	1	bêtes	
1317	1	cabarets	
1318	1	cabinet	
1319	1	cacha	
1320	1	cachait	
1321	1	cachemire	
1322	1	cachet	
1323	1	cacio	
1324	1	cadencé	
1325	1	cadran	
1326	1	cailles	
1327	1	calamité	
1328	1	calcinés	
1329	1	caleçon	
1330	1	calme	
1331	1	calmer	
1332	1	calmée	
1333	1	camarade	
1334	1	campagnard	
1335	1	campaniens	
1336	1	canem	
1337	1	cannelées	
1338	1	cantilènes	
1339	1	capes	
1340	1	capiteux	
1341	1	capri	
1342	1	capricieuses	
1343	1	caractère	
1344	1	caractéristique	
1345	1	caricatures	
1346	1	carlins	
1347	1	carlo	
1348	1	carrait	
1349	1	carrefour	
1350	1	carrefours	
1351	1	cas	
1352	1	caserne	
1353	1	casque	
1354	1	casques	
1355	1	cassolette	
1356	1	causant	
1357	1	cause	
1358	1	causèrent	
1359	1	causé	
1360	1	cavalier	
1361	1	cavallo	
1362	1	ceci	
1363	1	cellier	
1364	1	centre	
1365	1	cercle	
1366	1	cercles	
1367	1	cerfs	
1368	1	certain	
1369	1	cerveau	
1370	1	cervelle	
1371	1	cessa	
1372	1	chacun	
1373	1	chair	
1374	1	chaise	
1375	1	chaleur	
1376	1	chalinus	
1377	1	chambres	
1378	1	changeait	
1379	1	changer	
1380	1	changée	
1381	1	chant	
1382	1	chapelle	
1383	1	chapiteau	
1384	1	chapiteaux	
1385	1	charbon	
1386	1	chargée	
1387	1	charmant	
1388	1	charmante	
1389	1	chars	
1390	1	chasse	
1391	1	chasseurs	
1392	1	chaude	
1393	1	chaussures	
1394	1	chaussés	
1395	1	chemins	
1396	1	chemise	
1397	1	chercha	
1398	1	cherchaient	
1399	1	chercher	
1400	1	cherché	
1401	1	chers	
1402	1	cheval	
1403	1	chevalier	
1404	1	chevelure	
1405	1	chiens	
1406	1	chirurgien	
1407	1	christ	
1408	1	christi	
1409	1	christianisme	
1410	1	chuchotements	
1411	1	chère	
1412	1	ci	
1413	1	cigare	
1414	1	cimaise	
1415	1	cimetière	
1416	1	cinq	
1417	1	cipolin	
1418	1	circonstance	
1419	1	circonstances	
1420	1	circula	
1421	1	circulaire	
1422	1	circulaires	
1423	1	circulait	
1424	1	circuler	
1425	1	citations	
1426	1	citoyen	
1427	1	cité	
1428	1	civilisation	
1429	1	civilisations	
1430	1	claire	
1431	1	clairement	
1432	1	classe	
1433	1	classique	
1434	1	cloche	
1435	1	clous	
1436	1	cloître	
1437	1	cléomène	
1438	1	coagulée	
1439	1	coiffé	
1440	1	coiffée	
1441	1	coiffés	
1442	1	collier	
1443	1	colliers	
1444	1	collines	
1445	1	collège	
1446	1	collégien	
1447	1	coloris	
1448	1	colorié	
1449	1	coloriée	
1450	1	combat	
1451	1	combats	
1452	1	combattants	
1453	1	commandement	
1454	1	commencement	
1455	1	commencer	
1456	1	commencée	
1457	1	commença	
1458	1	commise	
1459	1	commotion	
1460	1	commune	
1461	1	communes	
1462	1	communiquant	
1463	1	compagnon	
1464	1	compliquées	
1465	1	complètement	
1466	1	complétaient	
1467	1	composée	
1468	1	comprenais	
1469	1	comprenait	
1470	1	comprendrais	
1471	1	comprendre	
1472	1	comprendront	
1473	1	comprit	
1474	1	compréhensives	
1475	1	compte	
1476	1	concours	
1477	1	conducteur	
1478	1	conduisait	
1479	1	conduisant	
1480	1	conduit	
1481	1	conduite	
1482	1	confins	
1483	1	confirmer	
1484	1	confortabilité	
1485	1	confus	
1486	1	confusion	
1487	1	conique	
1488	1	conjurer	
1489	1	connu	
1490	1	conopeum	
1491	1	conquête	
1492	1	conscience	
1493	1	conserve	
1494	1	conservent	
1495	1	conserver	
1496	1	conservées	
1497	1	conservés	
1498	1	considérables	
1499	1	considérer	
1500	1	consistant	
1501	1	constatation	
1502	1	constellé	
1503	1	construction	
1504	1	consulaire	
1505	1	consule	
1506	1	conséquence	
1507	1	contempler	
1508	1	contemporains	
1509	1	contenaient	
1510	1	contenu	
1511	1	continue	
1512	1	contrastant	
1513	1	contraste	
1514	1	contrecarrer	
1515	1	convaincre	
1516	1	convaincu	
1517	1	convainquaient	
1518	1	convient	
1519	1	convives	
1520	1	copier	
1521	1	coquetterie	
1522	1	coquettes	
1523	1	cor	
1524	1	corail	
1525	1	cornes	
1526	1	correct	
1527	1	correctement	
1528	1	cortège	
1529	1	cosmétiques	
1530	1	cothurnes	
1531	1	cotonniers	
1532	1	cou	
1533	1	couchette	
1534	1	couché	
1535	1	couchés	
1536	1	couleurs	
1537	1	couleuvre	
1538	1	coulisses	
1539	1	coulé	
1540	1	coulées	
1541	1	coupant	
1542	1	couperont	
1543	1	coups	
1544	1	couraient	
1545	1	courant	
1546	1	courent	
1547	1	couronnes	
1548	1	courte	
1549	1	courts	
1550	1	courut	
1551	1	cousins	
1552	1	couvents	
1553	1	couvert	
1554	1	couverture	
1555	1	couvraient	
1556	1	coûte	
1557	1	craignant	
1558	1	craindre	
1559	1	crains	
1560	1	creuse	
1561	1	creusent	
1562	1	creusée	
1563	1	creusées	
1564	1	creux	
1565	1	crevasse	
1566	1	cri	
1567	1	cria	
1568	1	criarde	
1569	1	croire	
1570	1	crois	
1571	1	croix	
1572	1	croyable	
1573	1	croûtes	
1574	1	cruche	
1575	1	crue	
1576	1	crus	
1577	1	crète	
1578	1	créanciers	
1579	1	créature	
1580	1	crédulité	
1581	1	crépies	
1582	1	crépus	
1583	1	crêpelés	
1584	1	crête	
1585	1	cubiculum	
1586	1	cuite	
1587	1	cuivre	
1588	1	culottées	
1589	1	cultures	
1590	1	cuve	
1591	1	cyclopéen	
1592	1	cydnus	
1593	1	cyprès	
1594	1	célèbres	
1595	1	cône	
1596	1	côtoie	
1597	1	côtoyant	
1598	1	côtés	
1599	1	dalles	
1600	1	danser	
1601	1	danseuses	
1602	1	davantage	
1603	1	davus	
1604	1	dehors	
1605	1	del	
1606	1	delaroche	
1607	1	dell	
1608	1	demanda	
1609	1	demandait	
1610	1	demandes	
1611	1	demandé	
1612	1	demeures	
1613	1	demoustier	
1614	1	dentelles	
1615	1	dentelé	
1616	1	derniers	
1617	1	dernière	
1618	1	dernièrement	
1619	1	dernières	
1620	1	derrière	
1621	1	descendait	
1622	1	description	
1623	1	desserrer	
1624	1	desservait	
1625	1	dessin	
1626	1	dessins	
1627	1	destination	
1628	1	destinées	
1629	1	destinés	
1630	1	destruction	
1631	1	dettes	
1632	1	deuxième	
1633	1	deviné	
1634	1	devisant	
1635	1	diane	
1636	1	difficile	
1637	1	difficiles	
1638	1	difforme	
1639	1	diffère	
1640	1	différait	
1641	1	dignes	
1642	1	dilatées	
1643	1	diorama	
1644	1	dirai	
1645	1	dire	
1646	1	dirigea	
1647	1	dirigeaient	
1648	1	dirigeait	
1649	1	dirigeant	
1650	1	disciples	
1651	1	discussion	
1652	1	disjoignent	
1653	1	disjointe	
1654	1	disloquent	
1655	1	disparaît	
1656	1	dispersaient	
1657	1	disposition	
1658	1	dissertation	
1659	1	dissimulait	
1660	1	dissiper	
1661	1	distances	
1662	1	distinctive	
1663	1	distraite	
1664	1	distraitement	
1665	1	divers	
1666	1	divin	
1667	1	divins	
1668	1	divisaient	
1669	1	divisant	
1670	1	doigts	
1671	1	domestiques	
1672	1	donjon	
1673	1	donna	
1674	1	donnait	
1675	1	dorique	
1676	1	dormait	
1677	1	dormi	
1678	1	dorés	
1679	1	douane	
1680	1	doubles	
1681	1	douce	
1682	1	douceur	
1683	1	douze	
1684	1	drame	
1685	1	draperie	
1686	1	draperies	
1687	1	drapés	
1688	1	dressa	
1689	1	dressée	
1690	1	dressées	
1691	1	dressés	
1692	1	droit	
1693	1	duchesse	
1694	1	duilius	
1695	1	duquel	
1696	1	durait	
1697	1	durcie	
1698	1	dures	
1699	1	dut	
1700	1	dès	
1701	1	débarcadère	
1702	1	débats	
1703	1	débitait	
1704	1	débiter	
1705	1	déblayant	
1706	1	débonnaire	
1707	1	décidé	
1708	1	déclarations	
1709	1	décombres	
1710	1	décoraient	
1711	1	décorait	
1712	1	décorations	
1713	1	décorées	
1714	1	décorés	
1715	1	découpait	
1716	1	découvrir	
1717	1	dédaignant	
1718	1	dédaignent	
1719	1	dédaigneusement	
1720	1	dédaigneux	
1721	1	dédale	
1722	1	défait	
1723	1	défendent	
1724	1	défense	
1725	1	défiliaient	
1726	1	dégouttaient	
1727	1	dégoût	
1728	1	dégradation	
1729	1	dégradations	
1730	1	déguisé	
1731	1	délicieux	
1732	1	délire	
1733	1	démantelée	
1734	1	démons	
1735	1	dénouement	
1736	1	dépassé	
1737	1	déplaça	
1738	1	déploie	
1739	1	déployez	
1740	1	déportements	
1741	1	dérangeait	
1742	1	dérobée	
1743	1	dérouler	
1744	1	désert	
1745	1	déserte	
1746	1	déserts	
1747	1	désespoir	
1748	1	désignées	
1749	1	désignés	
1750	1	désirs	
1751	1	détachent	
1752	1	détachée	
1753	1	détachés	
1754	1	déterrée	
1755	1	détestable	
1756	1	détournés	
1757	1	détruisait	
1758	1	détruit	
1759	1	dîner	
1760	1	e	
1761	1	eaux	
1762	1	effacé	
1763	1	effacée	
1764	1	effaré	
1765	1	effets	
1766	1	effleura	
1767	1	effondrés	
1768	1	effrayés	
1769	1	effroi	
1770	1	effrondrés	
1771	1	embellissait	
1772	1	empereui	
1773	1	empereur	
1774	1	empires	
1775	1	empiètent	
1776	1	emplacement	
1777	1	employer	
1778	1	emporte	
1779	1	emportent	
1780	1	emporté	
1781	1	empouse	
1782	1	empressement	
1783	1	emprisonnées	
1784	1	empêchent	
1785	1	encadrer	
1786	1	encadré	
1787	1	encapuchonnait	
1788	1	encaustique	
1789	1	enceinte	
1790	1	enchaîné	
1791	1	endormir	
1792	1	enduits	
1793	1	enfant	
1794	1	enflammée	
1795	1	enivrés	
1796	1	enlève	
1797	1	ennemi	
1798	1	ennui	
1799	1	enroulait	
1800	1	enseigné	
1801	1	ensevelie	
1802	1	ensevelies	
1803	1	entamer	
1804	1	entendant	
1805	1	entende	
1806	1	enterrés	
1807	1	entières	
1808	1	entouraient	
1809	1	entourant	
1810	1	entourée	
1811	1	entraient	
1812	1	entraînait	
1813	1	entreprises	
1814	1	entreprit	
1815	1	entretient	
1816	1	entrevoyait	
1817	1	entrevues	
1818	1	entrouvrit	
1819	1	enveloppe	
1820	1	enveloppé	
1821	1	envie	
1822	1	envoyez	
1823	1	erunt	
1824	1	escalier	
1825	1	escaliers	
1826	1	espacées	
1827	1	espagnoles	
1828	1	espagnolet	
1829	1	espionnage	
1830	1	espoir	
1831	1	esprits	
1832	1	esquisse	
1833	1	essaim	
1834	1	essuyé	
1835	1	estomac	
1836	1	estompa	
1837	1	estompent	
1838	1	eues	
1839	1	eurent	
1840	1	evidemment	
1841	1	exact	
1842	1	exalter	
1843	1	examinait	
1844	1	exaspérée	
1845	1	excentrique	
1846	1	excessives	
1847	1	excitait	
1848	1	exclamations	
1849	1	exemple	
1850	1	exercé	
1851	1	exhaussée	
1852	1	exhumée	
1853	1	exhumés	
1854	1	existassent	
1855	1	exorcisme	
1856	1	exposa	
1857	1	exprimait	
1858	1	exprimât	
1859	1	extase	
1860	1	extravagant	
1861	1	extravagantes	
1862	1	extrémité	
1863	1	extrêmement	
1864	1	extérieure	
1865	1	extérieurs	
1866	1	exèdre	
1867	1	exécuté	
1868	1	exécutés	
1869	1	fabuleuses	
1870	1	facile	
1871	1	faiblement	
1872	1	fais	
1873	1	faisaient	
1874	1	faite	
1875	1	faites	
1876	1	fallait	
1877	1	familiarité	
1878	1	familièrement	
1879	1	familières	
1880	1	famille	
1881	1	fantasmagorie	
1882	1	fantôme	
1883	1	fantômes	
1884	1	faquin	
1885	1	fard	
1886	1	fasciné	
1887	1	fatigue	
1888	1	fatigues	
1889	1	faubourg	
1890	1	faune	
1891	1	fausse	
1892	1	faux	
1893	1	favoriser	
1894	1	felicitas	
1895	1	felix	
1896	1	fendent	
1897	1	fente	
1898	1	fentes	
1899	1	ferai	
1900	1	ferma	
1901	1	fermait	
1902	1	ferme	
1903	1	fermeture	
1904	1	fermier	
1905	1	fermées	
1906	1	ferraris	
1907	1	ferrugineux	
1908	1	festiner	
1909	1	feuillages	
1910	1	feuilleter	
1911	1	feuilleton	
1912	1	figuration	
1913	1	figure	
1914	1	figurent	
1915	1	figurez	
1916	1	figé	
1917	1	filets	
1918	1	fin	
1919	1	finirent	
1920	1	fixant	
1921	1	fixité	
1922	1	flacons	
1923	1	flamant	
1924	1	flamme	
1925	1	flanc	
1926	1	flanquée	
1927	1	fleur	
1928	1	fleuve	
1929	1	flotte	
1930	1	flottèrent	
1931	1	fluette	
1932	1	fluide	
1933	1	flûte	
1934	1	flûteur	
1935	1	folie	
1936	1	foncé	
1937	1	fondait	
1938	1	fondu	
1939	1	font	
1940	1	fontaine	
1941	1	fonte	
1942	1	forge	
1943	1	formait	
1944	1	forment	
1945	1	formule	
1946	1	formules	
1947	1	formulé	
1948	1	formé	
1949	1	forte	
1950	1	forts	
1951	1	fossile	
1952	1	fossiles	
1953	1	fouillés	
1954	1	foule	
1955	1	fouler	
1956	1	four	
1957	1	fourmillants	
1958	1	fourni	
1959	1	foyer	
1960	1	fragment	
1961	1	frais	
1962	1	franchissait	
1963	1	frappèrent	
1964	1	frappé	
1965	1	fraîche	
1966	1	fresque	
1967	1	fresques	
1968	1	frise	
1969	1	frises	
1970	1	frisson	
1971	1	frisés	
1972	1	froide	
1973	1	froidement	
1974	1	froides	
1975	1	froids	
1976	1	fronton	
1977	1	fructifient	
1978	1	fruits	
1979	1	frémir	
1980	1	frémissantes	
1981	1	frétillant	
1982	1	frêle	
1983	1	fuite	
1984	1	fumait	
1985	1	fume	
1986	1	funèbres	
1987	1	funéraires	
1988	1	furieuse	
1989	1	furtives	
1990	1	fuyant	
1991	1	félicita	
1992	1	féminine	
1993	1	féminins	
1994	1	féroce	
1995	1	fétides	
1996	1	fît	
1997	1	gaditanes	
1998	1	gagne	
1999	1	gagner	
2000	1	gagnèrent	
2001	1	gai	
2002	1	gaiement	
2003	1	galanteries	
2004	1	galop	
2005	1	galère	
2006	1	gand	
2007	1	garde	
2008	1	gardien	
2009	1	gastronomique	
2010	1	gauche	
2011	1	gaule	
2012	1	gaules	
2013	1	gaze	
2014	1	gestes	
2015	1	gibier	
2016	1	gingerbeer	
2017	1	gisaient	
2018	1	gisent	
2019	1	glacé	
2020	1	glissèrent	
2021	1	glorieux	
2022	1	glorifier	
2023	1	gonflait	
2024	1	gonfle	
2025	1	gosier	
2026	1	gouttelettes	
2027	1	graduellement	
2028	1	grains	
2029	1	grandes	
2030	1	gravement	
2031	1	gravure	
2032	1	gravée	
2033	1	greco	
2034	1	grenadiers	
2035	1	grenouilles	
2036	1	griffes	
2037	1	griffons	
2038	1	grimpaient	
2039	1	grise	
2040	1	grises	
2041	1	grisâtre	
2042	1	grisés	
2043	1	grossiers	
2044	1	grossière	
2045	1	grotesquement	
2046	1	groupe	
2047	1	guerre	
2048	1	guirlande	
2049	1	gynécée	
2050	1	gâteaux	
2051	1	génies	
2052	1	général	
2053	1	gêner	
2054	1	gœthe	
2055	1	habillés	
2056	1	habitant	
2057	1	habitants	
2058	1	habitat	
2059	1	habitation	
2060	1	hadès	
2061	1	haleine	
2062	1	hallucinations	
2063	1	halète	
2064	1	hameaux	
2065	1	hamlet	
2066	1	hanches	
2067	1	harnaché	
2068	1	herculanum	
2069	1	hercule	
2070	1	heureuses	
2071	1	heureux	
2072	1	hic	
2073	1	hideuse	
2074	1	histoire	
2075	1	hochait	
2076	1	hochmeyer	
2077	1	homère	
2078	1	horizon	
2079	1	horrible	
2080	1	huiles	
2081	1	humaines	
2082	1	humains	
2083	1	humide	
2084	1	huîtres	
2085	1	hémicycle	
2086	1	héritiers	
2087	1	hôtelier	
2088	1	illusion	
2089	1	illusions	
2090	1	illustribus	
2091	1	image	
2092	1	immense	
2093	1	impalpable	
2094	1	impatience	
2095	1	imperceptibles	
2096	1	impie	
2097	1	impluvium	
2098	1	importance	
2099	1	imposer	
2100	1	impression	
2101	1	impressions	
2102	1	impures	
2103	1	impérieusement	
2104	1	incident	
2105	1	inclinant	
2106	1	incommodes	
2107	1	incompréhensible	
2108	1	inconcevable	
2109	1	incroyable	
2110	1	incrustée	
2111	1	incurable	
2112	1	indes	
2113	1	indigeste	
2114	1	indigne	
2115	1	indiquait	
2116	1	indique	
2117	1	indiquer	
2118	1	indiquée	
2119	1	indistincts	
2120	1	indéfinie	
2121	1	indéfinissable	
2122	1	infidélité	
2123	1	informes	
2124	1	inférieur	
2125	1	ingres	
2126	1	ingénue	
2127	1	inimaginable	
2128	1	inquiétantes	
2129	1	insaisissables	
2130	1	inscriptions	
2131	1	insensé	
2132	1	insouciantes	
2133	1	insouciants	
2134	1	inspection	
2135	1	inspirent	
2136	1	installèrent	
2137	1	instinct	
2138	1	instrument	
2139	1	insupportable	
2140	1	intact	
2141	1	intacte	
2142	1	intactes	
2143	1	intelligible	
2144	1	intense	
2145	1	intensité	
2146	1	interrogea	
2147	1	interstice	
2148	1	interstices	
2149	1	intervention	
2150	1	intrigues	
2151	1	intégrité	
2152	1	intérieur	
2153	1	intérieure	
2154	1	invention	
2155	1	invincible	
2156	1	involontaire	
2157	1	inéluctable	
2158	1	ionique	
2159	1	ioway	
2160	1	ironie	
2161	1	irrécusable	
2162	1	isis	
2163	1	isola	
2164	1	ixion	
2165	1	jaillissait	
2166	1	jalouse	
2167	1	jardin	
2168	1	jeanne	
2169	1	jet	
2170	1	jeta	
2171	1	jetant	
2172	1	jettature	
2173	1	jetée	
2174	1	jeu	
2175	1	joie	
2176	1	joli	
2177	1	jonchaient	
2178	1	jouer	
2179	1	jouir	
2180	1	journée	
2181	1	journées	
2182	1	joyeuse	
2183	1	jumelles	
2184	1	jupes	
2185	1	jusque	
2186	1	justement	
2187	1	juxtaposés	
2188	1	labeon	
2189	1	laconie	
2190	1	lacryma	
2191	1	laffite	
2192	1	laine	
2193	1	laissa	
2194	1	laissaient	
2195	1	laisse	
2196	1	laissez	
2197	1	lait	
2198	1	lambeaux	
2199	1	lames	
2200	1	langueurs	
2201	1	lançait	
2202	1	lares	
2203	1	larme	
2204	1	larve	
2205	1	latine	
2206	1	latéral	
2207	1	latérale	
2208	1	latérales	
2209	1	lauriers	
2210	1	laves	
2211	1	lazzi	
2212	1	lents	
2213	1	lesquelles	
2214	1	lesquels	
2215	1	lever	
2216	1	leçon	
2217	1	libations	
2218	1	lierre	
2219	1	lieux	
2220	1	ligne	
2221	1	limbes	
2222	1	lion	
2223	1	lis	
2224	1	liste	
2225	1	litanie	
2226	1	livrait	
2227	1	livres	
2228	1	livret	
2229	1	livré	
2230	1	lièvres	
2231	1	locale	
2232	1	location	
2233	1	loge	
2234	1	logique	
2235	1	lointaine	
2236	1	londres	
2237	1	longe	
2238	1	longue	
2239	1	longues	
2240	1	longèrent	
2241	1	lors	
2242	1	lorsqu	
2243	1	lourd	
2244	1	lucrin	
2245	1	lucullus	
2246	1	lueur	
2247	1	lueurs	
2248	1	lugubre	
2249	1	lugubres	
2250	1	luire	
2251	1	luisait	
2252	1	lumineux	
2253	1	lumières	
2254	1	lurent	
2255	1	lutte	
2256	1	lutter	
2257	1	lutteront	
2258	1	lutèce	
2259	1	luxure	
2260	1	lycostrata	
2261	1	lyrisme	
2262	1	légères	
2263	1	lézard	
2264	1	lézardes	
2265	1	macaroni	
2266	1	machinalement	
2267	1	macérations	
2268	1	madrigal	
2269	1	magistrats	
2270	1	magnifique	
2271	1	magnétiquement	
2272	1	magnétisme	
2273	1	maintien	
2274	1	majeur	
2275	1	malaise	
2276	1	malgré	
2277	1	malheur	
2278	1	malheureuse	
2279	1	malheureux	
2280	1	malhonnête	
2281	1	mammia	
2282	1	manchester	
2283	1	mangeait	
2284	1	manger	
2285	1	manquaient	
2286	1	manquer	
2287	1	manteaux	
2288	1	marchant	
2289	1	marche	
2290	1	marchèrent	
2291	1	margaux	
2292	1	marier	
2293	1	marine	
2294	1	marié	
2295	1	mariés	
2296	1	marquait	
2297	1	marquées	
2298	1	mars	
2299	1	masques	
2300	1	massimo	
2301	1	massique	
2302	1	mat	
2303	1	mater	
2304	1	matinale	
2305	1	matrone	
2306	1	matutini	
2307	1	matériaux	
2308	1	matérielle	
2309	1	matérielles	
2310	1	mauvais	
2311	1	mauve	
2312	1	meilleurs	
2313	1	membre	
2314	1	mener	
2315	1	menton	
2316	1	mentonnière	
2317	1	merveilleuse	
2318	1	merveilleuses	
2319	1	merveilleux	
2320	1	mes	
2321	1	mesquine	
2322	1	mesure	
2323	1	mesurée	
2324	1	met	
2325	1	mette	
2326	1	mettre	
2327	1	meurt	
2328	1	mi	
2329	1	miel	
2330	1	mienne	
2331	1	miettes	
2332	1	mieux	
2333	1	milo	
2334	1	minces	
2335	1	mineur	
2336	1	miroiter	
2337	1	mit	
2338	1	modernes	
2339	1	moindre	
2340	1	moiteurs	
2341	1	moitié	
2342	1	molosse	
2343	1	monotone	
2344	1	monstre	
2345	1	mont	
2346	1	monta	
2347	1	montait	
2348	1	montant	
2349	1	monte	
2350	1	montmartre	
2351	1	montre	
2352	1	montrer	
2353	1	montèrent	
2354	1	monuments	
2355	1	morceaux	
2356	1	mordorées	
2357	1	mordre	
2358	1	morne	
2359	1	morose	
2360	1	mortes	
2361	1	morts	
2362	1	mosaïques	
2363	1	moules	
2364	1	moulée	
2365	1	mourus	
2366	1	mouvement	
2367	1	moyens	
2368	1	moët	
2369	1	mule	
2370	1	munis	
2371	1	musiciens	
2372	1	musique	
2373	1	myrtes	
2374	1	mystifiable	
2375	1	mystifié	
2376	1	mystère	
2377	1	mystères	
2378	1	mythologique	
2379	1	mâts	
2380	1	mènent	
2381	1	mères	
2382	1	mètres	
2383	1	médaille	
2384	1	méditant	
2385	1	médités	
2386	1	mélancolie	
2387	1	mélange	
2388	1	mélodieux	
2389	1	méléagre	
2390	1	ménagées	
2391	1	méridional	
2392	1	mériter	
2393	1	mêlaient	
2394	1	mêlée	
2395	1	nacre	
2396	1	naissance	
2397	1	naissante	
2398	1	napolitaine	
2399	1	narines	
2400	1	nattée	
2401	1	naturellement	
2402	1	naturelles	
2403	1	natures	
2404	1	nazaréen	
2405	1	nazaréens	
2406	1	nerfs	
2407	1	netteté	
2408	1	nevoleja	
2409	1	niches	
2410	1	noble	
2411	1	nobles	
2412	1	noces	
2413	1	nocturnes	
2414	1	nodosités	
2415	1	noirâtre	
2416	1	nombre	
2417	1	nomenclateur	
2418	1	nommait	
2419	1	nomme	
2420	1	noms	
2421	1	nonchalante	
2422	1	nord	
2423	1	nostalgie	
2424	1	nouveautés	
2425	1	novoleja	
2426	1	nuage	
2427	1	nuages	
2428	1	nues	
2429	1	nulle	
2430	1	numéros	
2431	1	nundinarium	
2432	1	nuptiale	
2433	1	nymphaeum	
2434	1	nymphes	
2435	1	négligent	
2436	1	négligé	
2437	1	néron	
2438	1	obstinait	
2439	1	obstinément	
2440	1	obstrué	
2441	1	obtenus	
2442	1	obéiras	
2443	1	occasion	
2444	1	occupaient	
2445	1	occupait	
2446	1	occuper	
2447	1	occupé	
2448	1	occupée	
2449	1	occupés	
2450	1	océan	
2451	1	ode	
2452	1	odes	
2453	1	odéon	
2454	1	offices	
2455	1	offrait	
2456	1	offre	
2457	1	offrit	
2458	1	olympio	
2459	1	ondulations	
2460	1	ondulées	
2461	1	ondés	
2462	1	opalines	
2463	1	opinions	
2464	1	optique	
2465	1	opéra	
2466	1	orages	
2467	1	orchestre	
2468	1	ordonnance	
2469	1	oreiller	
2470	1	orgueilleux	
2471	1	ornière	
2472	1	ornières	
2473	1	oscillait	
2474	1	osques	
2475	1	ossements	
2476	1	ours	
2477	1	outres	
2478	1	ouvrit	
2479	1	page	
2480	1	pains	
2481	1	paires	
2482	1	palforio	
2483	1	palpable	
2484	1	palpitant	
2485	1	pan	
2486	1	panathénée	
2487	1	panier	
2488	1	panneaux	
2489	1	pantalon	
2490	1	pantomime	
2491	1	papillonnement	
2492	1	paraître	
2493	1	parcoururent	
2494	1	parfait	
2495	1	parfaite	
2496	1	parfumait	
2497	1	parisien	
2498	1	parle	
2499	1	paroi	
2500	1	parole	
2501	1	partager	
2502	1	parterre	
2503	1	parthénon	
2504	1	parti	
2505	1	particularité	
2506	1	particulier	
2507	1	parties	
2508	1	parurent	
2509	1	parures	
2510	1	parvenue	
2511	1	passa	
2512	1	passionné	
2513	1	passionnément	
2514	1	passionnés	
2515	1	passèrent	
2516	1	passés	
2517	1	patio	
2518	1	patriciens	
2519	1	paume	
2520	1	pauvre	
2521	1	pauvres	
2522	1	pavage	
2523	1	payait	
2524	1	paysages	
2525	1	paysanne	
2526	1	païen	
2527	1	peinte	
2528	1	peints	
2529	1	pellicule	
2530	1	pencha	
2531	1	pensa	
2532	1	pense	
2533	1	penser	
2534	1	peplum	
2535	1	perceptions	
2536	1	perdrait	
2537	1	perdre	
2538	1	perdus	
2539	1	perdît	
2540	1	pergame	
2541	1	permettait	
2542	1	personnes	
2543	1	personnifications	
2544	1	perte	
2545	1	petit	
2546	1	petitesse	
2547	1	peuplait	
2548	1	peuple	
2549	1	peuplent	
2550	1	peuples	
2551	1	peuplier	
2552	1	peuplées	
2553	1	peur	
2554	1	peux	
2555	1	phallus	
2556	1	pharmacie	
2557	1	phase	
2558	1	philistins	
2559	1	philosophiques	
2560	1	philtres	
2561	1	phorkyas	
2562	1	phrase	
2563	1	phrases	
2564	1	physionomie	
2565	1	phœbé	
2566	1	piaulements	
2567	1	picoraient	
2568	1	pics	
2569	1	pierre	
2570	1	pierreries	
2571	1	piliers	
2572	1	pinceau	
2573	1	pincés	
2574	1	pipe	
2575	1	piquées	
2576	1	pitié	
2577	1	pittoresque	
2578	1	pièces	
2579	1	placards	
2580	1	placer	
2581	1	placé	
2582	1	placées	
2583	1	placés	
2584	1	plafond	
2585	1	plafonds	
2586	1	plaines	
2587	1	plais	
2588	1	plaisait	
2589	1	plaisanteries	
2590	1	plaisirs	
2591	1	planaient	
2592	1	planco	
2593	1	plantes	
2594	1	planté	
2595	1	plateau	
2596	1	pleines	
2597	1	pline	
2598	1	plomb	
2599	1	plongent	
2600	1	plongées	
2601	1	plume	
2602	1	plupart	
2603	1	plusieurs	
2604	1	plutonien	
2605	1	pluviales	
2606	1	plénitude	
2607	1	point	
2608	1	pointe	
2609	1	pointes	
2610	1	poire	
2611	1	poitiers	
2612	1	poix	
2613	1	pollux	
2614	1	polybe	
2615	1	polychromes	
2616	1	pompe	
2617	1	pompéienne	
2618	1	pondus	
2619	1	populaires	
2620	1	porche	
2621	1	porter	
2622	1	portici	
2623	1	portion	
2624	1	portions	
2625	1	portière	
2626	1	porto	
2627	1	portèrent	
2628	1	portée	
2629	1	posa	
2630	1	posant	
2631	1	positif	
2632	1	possible	
2633	1	posé	
2634	1	posées	
2635	1	posés	
2636	1	pourprées	
2637	1	pourraient	
2638	1	pourrait	
2639	1	poursuivait	
2640	1	pourvu	
2641	1	poussé	
2642	1	poutre	
2643	1	pouvaient	
2644	1	pouvais	
2645	1	pouvant	
2646	1	poésie	
2647	1	premiers	
2648	1	premières	
2649	1	prenant	
2650	1	prend	
2651	1	prennent	
2652	1	pressaient	
2653	1	prestige	
2654	1	preuve	
2655	1	priapes	
2656	1	princesse	
2657	1	problème	
2658	1	profanis	
2659	1	profil	
2660	1	profita	
2661	1	profond	
2662	1	profondes	
2663	1	profondeurs	
2664	1	projetaient	
2665	1	projetait	
2666	1	promenait	
2667	1	promesse	
2668	1	prononcés	
2669	1	prononça	
2670	1	proscenium	
2671	1	protestait	
2672	1	prouve	
2673	1	prouver	
2674	1	province	
2675	1	provocatrices	
2676	1	précautions	
2677	1	précieuses	
2678	1	précieux	
2679	1	précision	
2680	1	précédait	
2681	1	préférons	
2682	1	préjugé	
2683	1	préparés	
2684	1	présent	
2685	1	présentait	
2686	1	présentent	
2687	1	préserver	
2688	1	prétendant	
2689	1	prétendre	
2690	1	prêtresse	
2691	1	publics	
2692	1	publique	
2693	1	publius	
2694	1	puisqu	
2695	1	puissance	
2696	1	puissant	
2697	1	puissante	
2698	1	puissants	
2699	1	pures	
2700	1	put	
2701	1	pâlissaient	
2702	1	pâris	
2703	1	père	
2704	1	pères	
2705	1	pénètre	
2706	1	pénétrait	
2707	1	pénétrant	
2708	1	pénétrer	
2709	1	péristyle	
2710	1	péristyles	
2711	1	pétris	
2712	1	quadrilatère	
2713	1	qualifiées	
2714	1	quartiers	
2715	1	quarts	
2716	1	quatorze	
2717	1	quelle	
2718	1	quelqu	
2719	1	querellait	
2720	1	quiconque	
2721	1	quoi	
2722	1	quoiqu	
2723	1	quête	
2724	1	racines	
2725	1	racloir	
2726	1	raconta	
2727	1	radieux	
2728	1	radoteurs	
2729	1	rafraîchir	
2730	1	rafraîchissait	
2731	1	railway	
2732	1	rainures	
2733	1	raison	
2734	1	raisonnables	
2735	1	raisonnement	
2736	1	raisonnements	
2737	1	raisons	
2738	1	ralliement	
2739	1	rangs	
2740	1	rappelait	
2741	1	rapport	
2742	1	rapproché	
2743	1	rasade	
2744	1	rassure	
2745	1	rasée	
2746	1	rattacher	
2747	1	ravi	
2748	1	rayonnait	
2749	1	rebelles	
2750	1	rebutants	
2751	1	rebute	
2752	1	recevant	
2753	1	recherche	
2754	1	recherches	
2755	1	recommandation	
2756	1	reconnaître	
2757	1	reconnu	
2758	1	reconnue	
2759	1	reconstructeur	
2760	1	recouverte	
2761	1	recouvertes	
2762	1	recouvrent	
2763	1	recueillie	
2764	1	reculer	
2765	1	reculé	
2766	1	redevenir	
2767	1	redingote	
2768	1	reflets	
2769	1	regarde	
2770	1	regardent	
2771	1	regarder	
2772	1	regrettait	
2773	1	rejeté	
2774	1	relevaient	
2775	1	relever	
2776	1	relevé	
2777	1	relief	
2778	1	reliefs	
2779	1	relient	
2780	1	relégués	
2781	1	remarquait	
2782	1	remarquée	
2783	1	remettait	
2784	1	remis	
2785	1	remit	
2786	1	remplacera	
2787	1	rempli	
2788	1	remplissait	
2789	1	remporté	
2790	1	rencontra	
2791	1	rencontre	
2792	1	rencontrer	
2793	1	rendaient	
2794	1	rendez	
2795	1	rendra	
2796	1	rendue	
2797	1	renfort	
2798	1	renouvela	
2799	1	rentrait	
2800	1	renversée	
2801	1	repentir	
2802	1	replièrent	
2803	1	replongez	
2804	1	reportait	
2805	1	repoussaient	
2806	1	repris	
2807	1	reprises	
2808	1	reproche	
2809	1	représentait	
2810	1	représentant	
2811	1	représentations	
2812	1	représentatives	
2813	1	représenter	
2814	1	représentée	
2815	1	resina	
2816	1	ressemble	
2817	1	ressemblent	
2818	1	ressembler	
2819	1	ressenti	
2820	1	ressort	
2821	1	ressortait	
2822	1	ressuscitée	
2823	1	restauration	
2824	1	reste	
2825	1	restreint	
2826	1	restée	
2827	1	retard	
2828	1	retenir	
2829	1	retenu	
2830	1	retirèrent	
2831	1	retomba	
2832	1	retour	
2833	1	retourne	
2834	1	retroussés	
2835	1	retrouva	
2836	1	retrouve	
2837	1	retrouver	
2838	1	retrouvé	
2839	1	revenant	
2840	1	revient	
2841	1	revivre	
2842	1	revêche	
2843	1	revêtement	
2844	1	revêtu	
2845	1	reçu	
2846	1	reçut	
2847	1	riait	
2848	1	ridicules	
2849	1	rigides	
2850	1	rivage	
2851	1	robe	
2852	1	romain	
2853	1	romains	
2854	1	romantiquement	
2855	1	rondeur	
2856	1	rondeurs	
2857	1	rosa	
2858	1	roue	
2859	1	rougeauds	
2860	1	rougets	
2861	1	rougit	
2862	1	roulent	
2863	1	ruelles	
2864	1	ruisseler	
2865	1	rumeur	
2866	1	russe	
2867	1	rustique	
2868	1	récemment	
2869	1	récente	
2870	1	récit	
2871	1	récréation	
2872	1	réduite	
2873	1	réelle	
2874	1	réels	
2875	1	réflexions	
2876	1	région	
2877	1	régnaient	
2878	1	répandaient	
2879	1	répandus	
2880	1	réparation	
2881	1	réparé	
2882	1	répercurer	
2883	1	répondrait	
2884	1	répondu	
2885	1	réponse	
2886	1	répulsions	
2887	1	répétition	
2888	1	résista	
2889	1	résistances	
2890	1	résonnait	
2891	1	résumé	
2892	1	rétablir	
2893	1	rétrospective	
2894	1	réuni	
2895	1	réunir	
2896	1	réveillèrent	
2897	1	sable	
2898	1	sablier	
2899	1	sacramentelle	
2900	1	saillies	
2901	1	saisons	
2902	1	sait	
2903	1	salomon	
2904	1	saluait	
2905	1	salut	
2906	1	salutation	
2907	1	salué	
2908	1	salvator	
2909	1	salve	
2910	1	san	
2911	1	sang	
2912	1	sanglier	
2913	1	sanglé	
2914	1	sarcophages	
2915	1	sarinus	
2916	1	satisfaire	
2917	1	saupoudré	
2918	1	saut	
2919	1	sautant	
2920	1	sautiller	
2921	1	sauver	
2922	1	savoir	
2923	1	scandale	
2924	1	scarlatwine	
2925	1	scorie	
2926	1	sculptée	
2927	1	secoué	
2928	1	secrètement	
2929	1	sectateurs	
2930	1	secte	
2931	1	seins	
2932	1	selectae	
2933	1	sembla	
2934	1	semblaient	
2935	1	semblerait	
2936	1	sentaient	
2937	1	sept	
2938	1	seras	
2939	1	sereins	
2940	1	sert	
2941	1	serve	
2942	1	servirai	
2943	1	servit	
2944	1	seule	
2945	1	seuls	
2946	1	sieste	
2947	1	significations	
2948	1	sillery	
2949	1	sillonnées	
2950	1	simuler	
2951	1	sinon	
2952	1	situé	
2953	1	solidité	
2954	1	solitude	
2955	1	solution	
2956	1	sombre	
2957	1	sombres	
2958	1	sommet	
2959	1	songe	
2960	1	sonnant	
2961	1	sonnerie	
2962	1	sonnettes	
2963	1	sorcellerie	
2964	1	sort	
2965	1	sortaient	
2966	1	sortant	
2967	1	sorte	
2968	1	sortes	
2969	1	sorti	
2970	1	sosimus	
2971	1	sou	
2972	1	souci	
2973	1	souciait	
2974	1	soufflait	
2975	1	soufflant	
2976	1	soulageaient	
2977	1	souleva	
2978	1	soupirail	
2979	1	soupirs	
2980	1	souple	
2981	1	soupçonné	
2982	1	soupçons	
2983	1	sourds	
2984	1	souriait	
2985	1	souriant	
2986	1	sourire	
2987	1	soutenu	
2988	1	souvenir	
2989	1	sparterie	
2990	1	spectateurs	
2991	1	spectres	
2992	1	sphère	
2993	1	squelettes	
2994	1	statuaire	
2995	1	strapontin	
2996	1	stratagèmes	
2997	1	stries	
2998	1	strigillaire	
2999	1	strophes	
3000	1	stupeur	
3001	1	stupidité	
3002	1	stupéfaction	
3003	1	subite	
3004	1	sublimes	
3005	1	subsiste	
3006	1	suffi	
3007	1	suffisait	
3008	1	suffisamment	
3009	1	suie	
3010	1	suivaient	
3011	1	suivait	
3012	1	suivant	
3013	1	suivante	
3014	1	suivez	
3015	1	superbe	
3016	1	superstitieuses	
3017	1	superstition	
3018	1	supportent	
3019	1	supporté	
3020	1	supposèrent	
3021	1	supprimé	
3022	1	supérieurs	
3023	1	surnaturel	
3024	1	surprenants	
3025	1	surprendre	
3026	1	surprises	
3027	1	surprit	
3028	1	sursaut	
3029	1	suspendait	
3030	1	suspendus	
3031	1	susurrement	
3032	1	syllabes	
3033	1	sympathie	
3034	1	syncope	
3035	1	syriens	
3036	1	système	
3037	1	séculaires	
3038	1	séductions	
3039	1	séduire	
3040	1	séduisait	
3041	1	séduit	
3042	1	sémiramis	
3043	1	séparaient	
3044	1	sépare	
3045	1	séparée	
3046	1	séparés	
3047	1	sépulcres	
3048	1	sépultures	
3049	1	sérail	
3050	1	sérieusement	
3051	1	sévère	
3052	1	tableau	
3053	1	tache	
3054	1	taillées	
3055	1	tais	
3056	1	tamisé	
3057	1	tantes	
3058	1	tapissant	
3059	1	tarde	
3060	1	tardèrent	
3061	1	tarentule	
3062	1	taries	
3063	1	tasse	
3064	1	tassées	
3065	1	tatouages	
3066	1	taureau	
3067	1	taureaux	
3068	1	teint	
3069	1	teints	
3070	1	telle	
3071	1	telles	
3072	1	tels	
3073	1	tempes	
3074	1	temples	
3075	1	tenait	
3076	1	tendaient	
3077	1	tendait	
3078	1	tendra	
3079	1	tendre	
3080	1	tenir	
3081	1	tentait	
3082	1	terminée	
3083	1	terminés	
3084	1	terrasses	
3085	1	terreur	
3086	1	terreurs	
3087	1	terrible	
3088	1	thermes	
3089	1	thermopoles	
3090	1	thymelé	
3091	1	thème	
3092	1	tienne	
3093	1	tint	
3094	1	tinta	
3095	1	tinte	
3096	1	tinter	
3097	1	tira	
3098	1	tirait	
3099	1	tiroir	
3100	1	tiré	
3101	1	titre	
3102	1	tiède	
3103	1	toile	
3104	1	toiles	
3105	1	tomba	
3106	1	tombe	
3107	1	tombé	
3108	1	tombés	
3109	1	tonneau	
3110	1	tonnerres	
3111	1	tons	
3112	1	topazes	
3113	1	torrents	
3114	1	torses	
3115	1	torture	
3116	1	touchant	
3117	1	touché	
3118	1	tourmentait	
3119	1	tournait	
3120	1	tournant	
3121	1	tourner	
3122	1	tournèrent	
3123	1	tourné	
3124	1	toutefois	
3125	1	trace	
3126	1	tracées	
3127	1	tragique	
3128	1	tranches	
3129	1	tranquillement	
3130	1	tranquilles	
3131	1	transitions	
3132	1	transparence	
3133	1	transparente	
3134	1	transporter	
3135	1	transporté	
3136	1	transposer	
3137	1	transversale	
3138	1	travail	
3139	1	travaillé	
3140	1	traversa	
3141	1	traversaient	
3142	1	traversées	
3143	1	traîné	
3144	1	tremblaient	
3145	1	tremblantes	
3146	1	trempaient	
3147	1	tressaillir	
3148	1	tressaillit	
3149	1	tribune	
3150	1	trimalcion	
3151	1	tringle	
3152	1	triomphes	
3153	1	trirèmes	
3154	1	triste	
3155	1	tristes	
3156	1	trompe	
3157	1	tromper	
3158	1	trompeuse	
3159	1	trompés	
3160	1	tronquées	
3161	1	trottoir	
3162	1	troubla	
3163	1	trouble	
3164	1	troubler	
3165	1	troubles	
3166	1	troupe	
3167	1	trous	
3168	1	trouvait	
3169	1	trouvant	
3170	1	trouver	
3171	1	trouvé	
3172	1	trouvée	
3173	1	trouvés	
3174	1	trépassés	
3175	1	trône	
3176	1	tuile	
3177	1	turbots	
3178	1	tyndare	
3179	1	type	
3180	1	témoignage	
3181	1	témoignaient	
3182	1	tétrastyle	
3183	1	unique	
3184	1	unir	
3185	1	universel	
3186	1	université	
3187	1	uns	
3188	1	usés	
3189	1	va	
3190	1	vague	
3191	1	vaincre	
3192	1	vainqueur	
3193	1	vaisseau	
3194	1	vanter	
3195	1	vaporisée	
3196	1	variées	
3197	1	vases	
3198	1	vaut	
3199	1	veille	
3200	1	veine	
3201	1	velours	
3202	1	velouté	
3203	1	venaient	
3204	1	venir	
3205	1	venus	
3206	1	verbe	
3207	1	vernet	
3208	1	vernies	
3209	1	verre	
3210	1	verrons	
3211	1	versant	
3212	1	vertes	
3213	1	verts	
3214	1	vertu	
3215	1	vertus	
3216	1	vestales	
3217	1	vestige	
3218	1	vibrante	
3219	1	vibrer	
3220	1	vicient	
3221	1	vicieux	
3222	1	victorieuse	
3223	1	vidés	
3224	1	vieil	
3225	1	vieillards	
3226	1	viendrait	
3227	1	viennent	
3228	1	vierge	
3229	1	vil	
3230	1	villes	
3231	1	vint	
3232	1	virgilienne	
3233	1	viris	
3234	1	visages	
3235	1	visible	
3236	1	visité	
3237	1	vite	
3238	1	vitre	
3239	1	vivants	
3240	1	vogue	
3241	1	vois	
3242	1	voisinage	
3243	1	voisines	
3244	1	volcaniques	
3245	1	volontés	
3246	1	voluptueuses	
3247	1	voluptueux	
3248	1	volutes	
3249	1	volées	
3250	1	vomitoire	
3251	1	vont	
3252	1	voraces	
3253	1	vos	
3254	1	votives	
3255	1	votre	
3256	1	voulant	
3257	1	voulons	
3258	1	voulut	
3259	1	voués	
3260	1	voyageur	
3261	1	voyant	
3262	1	vraisemblance	
3263	1	vulgaire	
3264	1	vus	
3265	1	végétales	
3266	1	vénérable	
3267	1	véritablement	
3268	1	vérone	
3269	1	xixe	
3270	1	xve	
3271	1	zone	
3272	1	zéphyr	
3273	1	âge	
3274	1	âmes	
3275	1	ânes	
3276	1	çà	
3277	1	ère	
3278	1	ébène	
3279	1	écaille	
3280	1	échecs	
3281	1	échoppes	
3282	1	échos	
3283	1	écimée	
3284	1	éclairage	
3285	1	éclaircissait	
3286	1	éclairé	
3287	1	éclairée	
3288	1	éclata	
3289	1	éclipsèrent	
3290	1	école	
3291	1	écoula	
3292	1	écoutait	
3293	1	écoutant	
3294	1	écraser	
3295	1	écrire	
3296	1	écrivons	
3297	1	écrièrent	
3298	1	écrié	
3299	1	écroulé	
3300	1	écroulée	
3301	1	écume	
3302	1	écuyer	
3303	1	édilité	
3304	1	égaré	
3305	1	égratignée	
3306	1	élancée	
3307	1	élans	
3308	1	élança	
3309	1	électrique	
3310	1	élever	
3311	1	élevé	
3312	1	élevés	
3313	1	éloigna	
3314	1	éloignement	
3315	1	éloquence	
3316	1	émaillée	
3317	1	émanations	
3318	1	émeraudes	
3319	1	énigme	
3320	1	épaisse	
3321	1	épargner	
3322	1	éparpillait	
3323	1	éperdue	
3324	1	épitaphes	
3325	1	époque	
3326	1	épouse	
3327	1	époux	
3328	1	éprouver	
3329	1	éprouvèrent	
3330	1	équilibre	
3331	1	éros	
3332	1	étalant	
3333	1	étend	
3334	1	étendre	
3335	1	éternelle	
3336	1	étincelants	
3337	1	étincelles	
3338	1	étoilée	
3339	1	étonna	
3340	1	étonne	
3341	1	étonner	
3342	1	étonnerait	
3343	1	étrangers	
3344	1	étreinte	
3345	1	étroit	
3346	1	études	
3347	1	évanoui	
3348	1	évanouie	
3349	1	évanouir	
3350	1	évanouis	
3351	1	évanouissaient	
3352	1	évanouit	
3353	1	évaporé	
3354	1	évertuer	
3355	1	éviter	
3356	1	évoquer	
3357	1	êtres	
3358	1	œnologique	
3359	1	œufs	
