#Word Types: 2948
#Word Tokens: 13869
#Search Hits: 0
1	611	de	
2	365	et	
3	330	le	
4	327	la	
5	257	à	
6	227	un	
7	205	il	
8	165	d	
9	160	l	
10	155	en	
11	148	les	
12	142	vous	
13	141	que	
14	137	une	
15	134	sainte	
16	130	je	
17	128	elle	
18	126	son	
19	124	était	
20	118	qui	
21	116	se	
22	112	s	
23	111	du	
24	94	des	
25	94	est	
26	93	brand	
27	89	ne	
28	87	au	
29	87	ce	
30	86	n	
31	85	mais	
32	79	dans	
33	77	avait	
34	75	sa	
35	73	qu	
36	68	jean	
37	63	pour	
38	60	dit	
39	59	ses	
40	59	sur	
41	57	pas	
42	55	mon	
43	53	m	
44	47	plus	
45	46	saulnier	
46	45	marie	
47	45	on	
48	45	père	
49	44	avec	
50	44	c	
51	42	par	
52	42	point	
53	42	vauduy	
54	42	y	
55	41	a	
56	41	fille	
57	41	tout	
58	39	comme	
59	39	docteur	
60	39	nous	
61	38	lui	
62	37	ma	
63	36	si	
64	35	deux	
65	34	cette	
66	33	bien	
67	33	votre	
68	32	ils	
69	32	j	
70	32	me	
71	30	rené	
72	29	homme	
73	28	ai	
74	28	ces	
75	28	étaient	
76	27	jeune	
77	27	sans	
78	26	dire	
79	26	rieux	
80	26	saint	
81	25	bleu	
82	25	écria	
83	24	cœur	
84	24	médecin	
85	24	même	
86	24	répondit	
87	24	yon	
88	24	être	
89	23	moi	
90	23	où	
91	23	t	
92	22	aux	
93	22	dieu	
94	22	temps	
95	21	là	
96	21	puis	
97	21	quand	
98	20	donc	
99	20	dont	
100	20	mam	
101	20	tu	
102	20	zelle	
103	19	bedeau	
104	19	cela	
105	19	citoyen	
106	19	eût	
107	19	suis	
108	18	autre	
109	18	encore	
110	18	jour	
111	18	peut	
112	18	tous	
113	17	enfant	
114	17	fit	
115	17	fut	
116	17	monsieur	
117	17	pauvre	
118	17	tête	
119	16	aussi	
120	16	chouans	
121	16	fait	
122	16	murmura	
123	16	ou	
124	16	sous	
125	16	toute	
126	16	êtes	
127	15	coup	
128	15	entre	
129	15	main	
130	15	voix	
131	14	ainsi	
132	14	devant	
133	14	faire	
134	14	fils	
135	14	fois	
136	14	loin	
137	14	prêtre	
138	14	yeux	
139	13	curé	
140	13	frère	
141	13	jamais	
142	13	leur	
143	13	leurs	
144	13	mort	
145	13	porte	
146	13	toujours	
147	13	vie	
148	13	voir	
149	12	alors	
150	12	avaient	
151	12	bleus	
152	12	bon	
153	12	ci	
154	12	heure	
155	12	hommes	
156	12	nom	
157	12	trop	
158	11	bras	
159	11	celui	
160	11	ceux	
161	11	depuis	
162	11	faut	
163	11	fort	
164	11	jusqu	
165	11	maison	
166	11	mes	
167	11	notre	
168	11	rien	
169	11	rôle	
170	11	trois	
171	11	été	
172	10	ancien	
173	10	autrefois	
174	10	avant	
175	10	avez	
176	10	avoir	
177	10	bonne	
178	10	bourg	
179	10	cabane	
180	10	château	
181	10	contre	
182	10	front	
183	10	mieux	
184	10	moins	
185	10	nouvelles	
186	10	pays	
187	10	pitié	
188	10	reprit	
189	9	ans	
190	9	armes	
191	9	cet	
192	9	chose	
193	9	demanda	
194	9	effet	
195	9	forêt	
196	9	lentement	
197	9	milieu	
198	9	mourir	
199	9	peu	
200	9	prit	
201	9	pu	
202	9	redon	
203	9	roi	
204	9	république	
205	9	seule	
206	9	souvent	
207	9	voilà	
208	8	car	
209	8	donner	
210	8	eux	
211	8	instant	
212	8	malheureux	
213	8	mis	
214	8	parfois	
215	8	parole	
216	8	personne	
217	8	pouvait	
218	8	premier	
219	8	quelques	
220	8	regard	
221	8	sang	
222	8	semblait	
223	8	sourire	
224	8	toi	
225	8	ton	
226	8	venir	
227	8	œil	
228	7	abbé	
229	7	ah	
230	7	allait	
231	7	ami	
232	7	assez	
233	7	avais	
234	7	bientôt	
235	7	chez	
236	7	dernier	
237	7	déjà	
238	7	face	
239	7	geste	
240	7	grand	
241	7	haine	
242	7	idée	
243	7	interrompit	
244	7	jours	
245	7	kernas	
246	7	lande	
247	7	lieu	
248	7	mademoiselle	
249	7	maître	
250	7	moment	
251	7	mot	
252	7	nouveau	
253	7	nul	
254	7	paysans	
255	7	peine	
256	7	pieds	
257	7	portait	
258	7	près	
259	7	quatre	
260	7	sera	
261	7	silence	
262	7	sont	
263	7	souvenir	
264	7	trou	
265	7	vint	
266	6	adieu	
267	6	air	
268	6	ajouta	
269	6	ange	
270	6	autour	
271	6	belle	
272	6	biches	
273	6	bretagne	
274	6	caverne	
275	6	cher	
276	6	cheval	
277	6	croix	
278	6	demi	
279	6	demoiselle	
280	6	dernière	
281	6	enfin	
282	6	femme	
283	6	froid	
284	6	froideur	
285	6	hasard	
286	6	longtemps	
287	6	longue	
288	6	mal	
289	6	ni	
290	6	noble	
291	6	nos	
292	6	paix	
293	6	pendant	
294	6	plein	
295	6	plusieurs	
296	6	presque	
297	6	quelque	
298	6	route	
299	6	répéta	
300	6	seulement	
301	6	soit	
302	6	sorte	
303	6	te	
304	6	terre	
305	6	va	
306	6	venue	
307	6	veut	
308	6	visage	
309	6	vit	
310	6	vos	
311	6	voulez	
312	6	voyait	
313	5	aller	
314	5	amie	
315	5	arbres	
316	5	arrive	
317	5	asile	
318	5	autres	
319	5	blanche	
320	5	bruit	
321	5	cause	
322	5	celle	
323	5	combat	
324	5	conciliation	
325	5	corps	
326	5	costume	
327	5	crois	
328	5	derrière	
329	5	es	
330	5	eu	
331	5	ferme	
332	5	fuir	
333	5	fusil	
334	5	grands	
335	5	guerre	
336	5	heures	
337	5	jeta	
338	5	joue	
339	5	lit	
340	5	lutte	
341	5	maintenant	
342	5	manteau	
343	5	marais	
344	5	merci	
345	5	mit	
346	5	mois	
347	5	mots	
348	5	non	
349	5	not	
350	5	ouvrit	
351	5	parlez	
352	5	paroles	
353	5	partir	
354	5	petit	
355	5	plaisir	
356	5	pourtant	
357	5	prendre	
358	5	profonde	
359	5	quant	
360	5	républicaines	
361	5	républicains	
362	5	sais	
363	5	salle	
364	5	sauvé	
365	5	sentit	
366	5	serait	
367	5	service	
368	5	seuil	
369	5	soir	
370	5	sommeil	
371	5	traits	
372	5	tristes	
373	5	trouva	
374	5	vais	
375	5	venait	
376	5	vers	
377	5	veux	
378	5	vieillard	
379	5	voulait	
380	5	voulut	
381	5	âme	
382	4	abord	
383	4	aimait	
384	4	aime	
385	4	ajoncs	
386	4	amitié	
387	4	amphithéâtre	
388	4	après	
389	4	aucun	
390	4	auprès	
391	4	beau	
392	4	bout	
393	4	centre	
394	4	chapeau	
395	4	chemin	
396	4	chouan	
397	4	compagne	
398	4	coups	
399	4	dessus	
400	4	devoir	
401	4	dix	
402	4	douce	
403	4	enfants	
404	4	entendre	
405	4	espoir	
406	4	faisaient	
407	4	faisait	
408	4	femmes	
409	4	frappé	
410	4	ici	
411	4	insurgés	
412	4	lendemain	
413	4	leva	
414	4	long	
415	4	lorsqu	
416	4	luttes	
417	4	manoir	
418	4	morte	
419	4	nouvelle	
420	4	nuit	
421	4	occasions	
422	4	officier	
423	4	oh	
424	4	ombre	
425	4	ont	
426	4	opinions	
427	4	parce	
428	4	parlait	
429	4	parmi	
430	4	parti	
431	4	passèrent	
432	4	passé	
433	4	paysan	
434	4	physionomie	
435	4	pied	
436	4	pierre	
437	4	poitrine	
438	4	poursuivit	
439	4	pris	
440	4	propre	
441	4	quoi	
442	4	race	
443	4	reconnaissance	
444	4	releva	
445	4	retraite	
446	4	revoir	
447	4	répondre	
448	4	républicain	
449	4	sentait	
450	4	sentier	
451	4	serviteur	
452	4	seul	
453	4	simple	
454	4	soldat	
455	4	surprise	
456	4	sœur	
457	4	tendit	
458	4	tendresse	
459	4	toit	
460	4	tour	
461	4	toutes	
462	4	trouve	
463	4	tuer	
464	4	venez	
465	4	vive	
466	4	voyant	
467	3	abri	
468	3	adresse	
469	3	allez	
470	3	amis	
471	3	ancienne	
472	3	années	
473	3	appelle	
474	3	ardente	
475	3	armée	
476	3	arrivèrent	
477	3	arrivé	
478	3	arrêta	
479	3	aspect	
480	3	attendez	
481	3	aucune	
482	3	aurait	
483	3	aussitôt	
484	3	avons	
485	3	baiser	
486	3	bande	
487	3	bas	
488	3	bataille	
489	3	besoin	
490	3	blanc	
491	3	bonjour	
492	3	bonnet	
493	3	brave	
494	3	brigands	
495	3	bénédiction	
496	3	campagnes	
497	3	canardière	
498	3	capitaine	
499	3	cauchemar	
500	3	ceinture	
501	3	cependant	
502	3	chacun	
503	3	champ	
504	3	chassé	
505	3	chercher	
506	3	ciel	
507	3	colère	
508	3	compagnons	
509	3	comprendre	
510	3	conduite	
511	3	continua	
512	3	contraire	
513	3	cordon	
514	3	cou	
515	3	couche	
516	3	couleurs	
517	3	croire	
518	3	crosse	
519	3	côté	
520	3	danger	
521	3	davantage	
522	3	demande	
523	3	demeure	
524	3	dents	
525	3	descendre	
526	3	dette	
527	3	deviné	
528	3	diable	
529	3	dis	
530	3	disait	
531	3	disant	
532	3	doit	
533	3	donnaient	
534	3	donné	
535	3	double	
536	3	doute	
537	3	drapeau	
538	3	droit	
539	3	découvert	
540	3	dénoncer	
541	3	désormais	
542	3	efforts	
543	3	elles	
544	3	emphase	
545	3	enfance	
546	3	ennemi	
547	3	entra	
548	3	envers	
549	3	environs	
550	3	eut	
551	3	excellent	
552	3	fais	
553	3	famille	
554	3	fatigue	
555	3	feu	
556	3	fond	
557	3	force	
558	3	forme	
559	3	fracas	
560	3	frères	
561	3	fuite	
562	3	fête	
563	3	garde	
564	3	gentilhomme	
565	3	gloire	
566	3	général	
567	3	habile	
568	3	honnête	
569	3	inclina	
570	3	intendant	
571	3	jambes	
572	3	joyeux	
573	3	laquelle	
574	3	large	
575	3	larme	
576	3	larmes	
577	3	lequel	
578	3	libre	
579	3	ligne	
580	3	loup	
581	3	lèvres	
582	3	maisons	
583	3	malheur	
584	3	manière	
585	3	matin	
586	3	menhir	
587	3	merveille	
588	3	messieurs	
589	3	minutes	
590	3	motifs	
591	3	néanmoins	
592	3	objet	
593	3	obéit	
594	3	or	
595	3	outre	
596	3	ouëssant	
597	3	pain	
598	3	pardon	
599	3	pars	
600	3	part	
601	3	parut	
602	3	passa	
603	3	passage	
604	3	pensez	
605	3	pensée	
606	3	pente	
607	3	perdu	
608	3	permettez	
609	3	petite	
610	3	place	
611	3	pleura	
612	3	plutôt	
613	3	pourquoi	
614	3	preuve	
615	3	proie	
616	3	proscrit	
617	3	présence	
618	3	péril	
619	3	question	
620	3	quitte	
621	3	ramener	
622	3	rapidement	
623	3	rayons	
624	3	recevait	
625	3	reconnaître	
626	3	reconnut	
627	3	refusé	
628	3	remarqua	
629	3	rencontre	
630	3	rendre	
631	3	respect	
632	3	restait	
633	3	reste	
634	3	rester	
635	3	restez	
636	3	retira	
637	3	royaliste	
638	3	rêverie	
639	3	sabres	
640	3	salut	
641	3	sauvage	
642	3	savait	
643	3	semblaient	
644	3	sens	
645	3	sentiers	
646	3	six	
647	3	sol	
648	3	soldats	
649	3	soleil	
650	3	sort	
651	3	sourcils	
652	3	suivit	
653	3	surprendre	
654	3	sévère	
655	3	tard	
656	3	terrible	
657	3	tomba	
658	3	tomber	
659	3	tranquille	
660	3	traversa	
661	3	triste	
662	3	tristesse	
663	3	uns	
664	3	vendéens	
665	3	viens	
666	3	vieux	
667	3	voici	
668	3	volontaire	
669	3	vont	
670	3	voyez	
671	3	vue	
672	3	ça	
673	3	écoutait	
674	3	église	
675	3	élevait	
676	3	étais	
677	3	état	
678	2	abandonner	
679	2	absence	
680	2	accablée	
681	2	achever	
682	2	acte	
683	2	admiration	
684	2	afin	
685	2	agir	
686	2	agit	
687	2	aide	
688	2	aimer	
689	2	aimé	
690	2	ait	
691	2	alentours	
692	2	allaient	
693	2	amazone	
694	2	amour	
695	2	anciens	
696	2	angle	
697	2	angélique	
698	2	année	
699	2	approcher	
700	2	appuya	
701	2	ardent	
702	2	arme	
703	2	armés	
704	2	arriva	
705	2	arrivés	
706	2	as	
707	2	assis	
708	2	aurai	
709	2	aurais	
710	2	avis	
711	2	baissa	
712	2	baissée	
713	2	baissés	
714	2	balles	
715	2	basse	
716	2	beauté	
717	2	bienfaisance	
718	2	bienfaits	
719	2	blessé	
720	2	bois	
721	2	bons	
722	2	bonté	
723	2	bretonnes	
724	2	bride	
725	2	bronze	
726	2	bénisse	
727	2	cacha	
728	2	cacher	
729	2	campagne	
730	2	canon	
731	2	capable	
732	2	carrefour	
733	2	celles	
734	2	cellule	
735	2	cents	
736	2	cesse	
737	2	changé	
738	2	chasse	
739	2	chasseur	
740	2	chaîne	
741	2	choisi	
742	2	chopine	
743	2	choses	
744	2	chrétienne	
745	2	chênes	
746	2	cinq	
747	2	cinquantaine	
748	2	circonstance	
749	2	citoyenne	
750	2	cocarde	
751	2	colline	
752	2	colonnes	
753	2	combattre	
754	2	complètement	
755	2	comptais	
756	2	compte	
757	2	confier	
758	2	connaissait	
759	2	conquis	
760	2	conscience	
761	2	consolation	
762	2	content	
763	2	convention	
764	2	conversation	
765	2	cordial	
766	2	couronne	
767	2	court	
768	2	courtes	
769	2	coutume	
770	2	craignais	
771	2	crainte	
772	2	cri	
773	2	crime	
774	2	croissante	
775	2	croupe	
776	2	curiosité	
777	2	côte	
778	2	côtés	
779	2	delà	
780	2	demain	
781	2	demander	
782	2	dernières	
783	2	dessous	
784	2	devaient	
785	2	devait	
786	2	devenait	
787	2	disaient	
788	2	disparu	
789	2	disparut	
790	2	dois	
791	2	donnait	
792	2	doucement	
793	2	doux	
794	2	douze	
795	2	droite	
796	2	duquel	
797	2	débris	
798	2	décharge	
799	2	défense	
800	2	départ	
801	2	déposa	
802	2	dépourvu	
803	2	dépêchez	
804	2	déserte	
805	2	dû	
806	2	eau	
807	2	embrassez	
808	2	endormi	
809	2	engagea	
810	2	entendit	
811	2	entendu	
812	2	entouré	
813	2	entrant	
814	2	entraîné	
815	2	entrer	
816	2	entretien	
817	2	envoyaient	
818	2	escalier	
819	2	espace	
820	2	espion	
821	2	estime	
822	2	eurent	
823	2	eussiez	
824	2	excès	
825	2	exilés	
826	2	existence	
827	2	exploits	
828	2	extrêmes	
829	2	faisant	
830	2	faites	
831	2	fallait	
832	2	fera	
833	2	ferait	
834	2	ferma	
835	2	fil	
836	2	filles	
837	2	fièvre	
838	2	folle	
839	2	font	
840	2	forcé	
841	2	formaient	
842	2	foule	
843	2	franc	
844	2	franchi	
845	2	franchit	
846	2	français	
847	2	frappait	
848	2	frénésie	
849	2	fusillade	
850	2	fusiller	
851	2	fusils	
852	2	fuyards	
853	2	fût	
854	2	gars	
855	2	gens	
856	2	gigantesque	
857	2	gisait	
858	2	gourde	
859	2	gouvernement	
860	2	grande	
861	2	gratitude	
862	2	grave	
863	2	grâce	
864	2	gueule	
865	2	guère	
866	2	habitants	
867	2	haineux	
868	2	haut	
869	2	hautaine	
870	2	haute	
871	2	hauts	
872	2	haïr	
873	2	herbe	
874	2	heureuse	
875	2	hobereaux	
876	2	horrible	
877	2	huit	
878	2	hâta	
879	2	hâte	
880	2	hélas	
881	2	hésitation	
882	2	ignorait	
883	2	illustre	
884	2	implacable	
885	2	importe	
886	2	indécis	
887	2	indécise	
888	2	intelligence	
889	2	interrompez	
890	2	intrépide	
891	2	inutiles	
892	2	involontairement	
893	2	jeunes	
894	2	joie	
895	2	juste	
896	2	jésus	
897	2	laissa	
898	2	laissé	
899	2	lampe	
900	2	langue	
901	2	lard	
902	2	lecteurs	
903	2	lever	
904	2	lieues	
905	2	lis	
906	2	litière	
907	2	loi	
908	2	loire	
909	2	lors	
910	2	lorsque	
911	2	loyal	
912	2	lueurs	
913	2	lune	
914	2	lèvre	
915	2	mains	
916	2	majesté	
917	2	maniement	
918	2	marche	
919	2	marquis	
920	2	marquise	
921	2	maudit	
922	2	mauvais	
923	2	mauvaise	
924	2	mentalement	
925	2	mer	
926	2	mettant	
927	2	mettez	
928	2	mettre	
929	2	mille	
930	2	monde	
931	2	montra	
932	2	montrant	
933	2	morale	
934	2	morts	
935	2	motif	
936	2	mère	
937	2	mélancolie	
938	2	mélancolique	
939	2	naïve	
940	2	nombreux	
941	2	nulle	
942	2	obligé	
943	2	observateur	
944	2	obstacle	
945	2	opinion	
946	2	ordre	
947	2	oreille	
948	2	oui	
949	2	parle	
950	2	parler	
951	2	parlé	
952	2	partie	
953	2	partisans	
954	2	paru	
955	2	passait	
956	2	passant	
957	2	passe	
958	2	passer	
959	2	passion	
960	2	passée	
961	2	paupière	
962	2	pauvres	
963	2	payer	
964	2	payé	
965	2	payée	
966	2	pendait	
967	2	pense	
968	2	personnage	
969	2	personnages	
970	2	perte	
971	2	pistolets	
972	2	placer	
973	2	plaindre	
974	2	plaint	
975	2	pleurait	
976	2	pleurant	
977	2	politiques	
978	2	poteau	
979	2	poursuivait	
980	2	poursuivis	
981	2	pousse	
982	2	première	
983	2	premières	
984	2	prenant	
985	2	prier	
986	2	priez	
987	2	princes	
988	2	prisonnier	
989	2	prière	
990	2	profondément	
991	2	promenade	
992	2	promesse	
993	2	promettant	
994	2	prononça	
995	2	précaution	
996	2	précieuse	
997	2	précipita	
998	2	précoce	
999	2	puisque	
1000	2	pût	
1001	2	qualité	
1002	2	quel	
1003	2	querelle	
1004	2	questions	
1005	2	quinze	
1006	2	quoique	
1007	2	rabattu	
1008	2	rancune	
1009	2	rangs	
1010	2	rapide	
1011	2	reconnurent	
1012	2	redressant	
1013	2	regarda	
1014	2	regarde	
1015	2	rejoignaient	
1016	2	religion	
1017	2	remerciez	
1018	2	remplacé	
1019	2	rentra	
1020	2	resté	
1021	2	retentirent	
1022	2	revenait	
1023	2	revenir	
1024	2	revenu	
1025	2	revint	
1026	2	reçut	
1027	2	riche	
1028	2	ridicule	
1029	2	rompit	
1030	2	rougeur	
1031	2	roula	
1032	2	royalistes	
1033	2	rue	
1034	2	réalité	
1035	2	récits	
1036	2	récompensera	
1037	2	rétabli	
1038	2	rêve	
1039	2	saisir	
1040	2	saisissons	
1041	2	salon	
1042	2	salua	
1043	2	sanglier	
1044	2	sauvegarde	
1045	2	sauvés	
1046	2	saviez	
1047	2	savoir	
1048	2	scène	
1049	2	seconde	
1050	2	secret	
1051	2	seigneur	
1052	2	semaine	
1053	2	semblable	
1054	2	serai	
1055	2	serge	
1056	2	serpent	
1057	2	services	
1058	2	servir	
1059	2	sexe	
1060	2	sincère	
1061	2	singulière	
1062	2	soi	
1063	2	sombre	
1064	2	sommes	
1065	2	sommet	
1066	2	songeait	
1067	2	sortait	
1068	2	soupir	
1069	2	soupirant	
1070	2	sourdéac	
1071	2	soutenait	
1072	2	soyez	
1073	2	sublime	
1074	2	suite	
1075	2	suivirent	
1076	2	surmontée	
1077	2	surtout	
1078	2	séculaires	
1079	2	sûr	
1080	2	sûreté	
1081	2	sûrs	
1082	2	ta	
1083	2	taillis	
1084	2	talus	
1085	2	tenait	
1086	2	terrain	
1087	2	tiens	
1088	2	tombé	
1089	2	tort	
1090	2	toucha	
1091	2	touchent	
1092	2	touché	
1093	2	touffus	
1094	2	tournant	
1095	2	traiter	
1096	2	treize	
1097	2	troisième	
1098	2	trouvait	
1099	2	trône	
1100	2	tyrans	
1101	2	vaincre	
1102	2	vaincus	
1103	2	vannes	
1104	2	vaste	
1105	2	veines	
1106	2	vengeance	
1107	2	vertu	
1108	2	vigoureux	
1109	2	villes	
1110	2	vingt	
1111	2	vision	
1112	2	vite	
1113	2	vivement	
1114	2	vois	
1115	2	volonté	
1116	2	voulu	
1117	2	vrai	
1118	2	âge	
1119	2	échappé	
1120	2	éclat	
1121	2	écoutez	
1122	2	écriteau	
1123	2	écrièrent	
1124	2	éducation	
1125	2	égal	
1126	2	également	
1127	2	épaule	
1128	2	épaules	
1129	2	époque	
1130	2	épée	
1131	2	étions	
1132	2	étrange	
1133	2	étranger	
1134	2	éveilla	
1135	1	abandonnât	
1136	1	abandonné	
1137	1	abandonnées	
1138	1	abominable	
1139	1	abrite	
1140	1	absent	
1141	1	absenter	
1142	1	abîme	
1143	1	académique	
1144	1	accentuée	
1145	1	accepté	
1146	1	accolées	
1147	1	accompagnera	
1148	1	accompli	
1149	1	accomplir	
1150	1	accordait	
1151	1	accréditée	
1152	1	accueilli	
1153	1	accusait	
1154	1	acharnée	
1155	1	achat	
1156	1	acheva	
1157	1	achevant	
1158	1	acquitté	
1159	1	actes	
1160	1	actions	
1161	1	actives	
1162	1	acérac	
1163	1	admirent	
1164	1	admis	
1165	1	adorait	
1166	1	adressant	
1167	1	adroite	
1168	1	affaibli	
1169	1	affaiblissait	
1170	1	affaire	
1171	1	affaissa	
1172	1	affaissait	
1173	1	affecta	
1174	1	affectation	
1175	1	affermissait	
1176	1	affligée	
1177	1	affolé	
1178	1	affreux	
1179	1	affût	
1180	1	agenouilla	
1181	1	agenouillé	
1182	1	agent	
1183	1	agonie	
1184	1	aidé	
1185	1	aidée	
1186	1	aie	
1187	1	aiguise	
1188	1	ailes	
1189	1	ailleurs	
1190	1	aimais	
1191	1	aiment	
1192	1	aimée	
1193	1	ajonc	
1194	1	ajoutaient	
1195	1	ajoutant	
1196	1	ajouter	
1197	1	alignaient	
1198	1	allai	
1199	1	allais	
1200	1	alliance	
1201	1	alliez	
1202	1	allures	
1203	1	allégresse	
1204	1	allés	
1205	1	ambitionnait	
1206	1	amenèrent	
1207	1	amené	
1208	1	amenée	
1209	1	amer	
1210	1	amertume	
1211	1	amical	
1212	1	amollissent	
1213	1	amphibologiques	
1214	1	amènes	
1215	1	ancêtres	
1216	1	anges	
1217	1	angles	
1218	1	angleterre	
1219	1	angoisse	
1220	1	animer	
1221	1	anneau	
1222	1	annoncent	
1223	1	annoncé	
1224	1	annonçait	
1225	1	antique	
1226	1	anxiété	
1227	1	apathie	
1228	1	apercevait	
1229	1	apercevoir	
1230	1	aperçut	
1231	1	aplomb	
1232	1	apparaissait	
1233	1	apparence	
1234	1	apparition	
1235	1	apparitions	
1236	1	appelaient	
1237	1	appelez	
1238	1	appelé	
1239	1	apprenait	
1240	1	apprendre	
1241	1	approcha	
1242	1	approchait	
1243	1	approche	
1244	1	approchez	
1245	1	appuyait	
1246	1	appuyez	
1247	1	arc	
1248	1	argent	
1249	1	ariane	
1250	1	aride	
1251	1	aristocrate	
1252	1	armer	
1253	1	arpentait	
1254	1	arrivaient	
1255	1	arrivée	
1256	1	arrêtait	
1257	1	arrêter	
1258	1	arrêtèrent	
1259	1	arrêtés	
1260	1	arsenal	
1261	1	artillerie	
1262	1	assaillants	
1263	1	assirent	
1264	1	assise	
1265	1	assit	
1266	1	associations	
1267	1	assombrissait	
1268	1	assurait	
1269	1	assurée	
1270	1	atours	
1271	1	attablés	
1272	1	atteignait	
1273	1	atteinte	
1274	1	attend	
1275	1	attendais	
1276	1	attendait	
1277	1	attendant	
1278	1	attendent	
1279	1	attendit	
1280	1	attente	
1281	1	attitude	
1282	1	augmenter	
1283	1	aura	
1284	1	auraient	
1285	1	aurez	
1286	1	auriez	
1287	1	aurons	
1288	1	autant	
1289	1	autel	
1290	1	avala	
1291	1	avalant	
1292	1	avance	
1293	1	avancée	
1294	1	avenir	
1295	1	avertis	
1296	1	aveu	
1297	1	aveugle	
1298	1	avions	
1299	1	avocat	
1300	1	avoue	
1301	1	ayant	
1302	1	ayez	
1303	1	azur	
1304	1	badigeon	
1305	1	baigne	
1306	1	baisa	
1307	1	balbutia	
1308	1	banc	
1309	1	bandes	
1310	1	bascule	
1311	1	bat	
1312	1	battait	
1313	1	battons	
1314	1	battus	
1315	1	beaucoup	
1316	1	bienfait	
1317	1	bienfaiteurs	
1318	1	bienvenu	
1319	1	bienvenue	
1320	1	bizarrement	
1321	1	blancs	
1322	1	blasphématoire	
1323	1	blessés	
1324	1	bleuâtre	
1325	1	bleuâtres	
1326	1	blouse	
1327	1	boire	
1328	1	bondit	
1329	1	bonheur	
1330	1	bord	
1331	1	bordaient	
1332	1	bornes	
1333	1	bouchée	
1334	1	boudoir	
1335	1	boulevard	
1336	1	bourru	
1337	1	bouts	
1338	1	branches	
1339	1	braves	
1340	1	bravo	
1341	1	bretons	
1342	1	brick	
1343	1	brillaient	
1344	1	brillait	
1345	1	brillamment	
1346	1	brillant	
1347	1	brise	
1348	1	brisons	
1349	1	brisée	
1350	1	bronzé	
1351	1	bruits	
1352	1	brutales	
1353	1	bruyère	
1354	1	brûle	
1355	1	brûler	
1356	1	bu	
1357	1	buisson	
1358	1	buvant	
1359	1	bâillant	
1360	1	béante	
1361	1	cabanes	
1362	1	cachaient	
1363	1	cachant	
1364	1	cachée	
1365	1	calme	
1366	1	calmer	
1367	1	calmée	
1368	1	camarade	
1369	1	campagnards	
1370	1	campement	
1371	1	camps	
1372	1	candeur	
1373	1	caprice	
1374	1	caractère	
1375	1	caractéristique	
1376	1	carentoir	
1377	1	caresser	
1378	1	caresses	
1379	1	carrure	
1380	1	carrée	
1381	1	cartouche	
1382	1	cas	
1383	1	causait	
1384	1	cendre	
1385	1	cercle	
1386	1	cervelle	
1387	1	cessé	
1388	1	chacune	
1389	1	chagrins	
1390	1	chaleur	
1391	1	chambre	
1392	1	champêtre	
1393	1	chancelant	
1394	1	change	
1395	1	changeaient	
1396	1	changeant	
1397	1	changement	
1398	1	chaque	
1399	1	charge	
1400	1	chargeai	
1401	1	charité	
1402	1	charmante	
1403	1	charme	
1404	1	charrière	
1405	1	chasser	
1406	1	chaume	
1407	1	chauve	
1408	1	chef	
1409	1	cheminée	
1410	1	chenets	
1411	1	chercha	
1412	1	cherchant	
1413	1	chercherons	
1414	1	chevaliers	
1415	1	chevaux	
1416	1	cheveux	
1417	1	chouannerie	
1418	1	christ	
1419	1	chrétien	
1420	1	chrétiens	
1421	1	châteauneuf	
1422	1	châtelaine	
1423	1	cidre	
1424	1	cils	
1425	1	cimetière	
1426	1	circulaire	
1427	1	circulairement	
1428	1	civile	
1429	1	clairs	
1430	1	clairvoyants	
1431	1	cligna	
1432	1	close	
1433	1	clémence	
1434	1	coche	
1435	1	cohortes	
1436	1	coin	
1437	1	coins	
1438	1	collait	
1439	1	colorait	
1440	1	combats	
1441	1	combattait	
1442	1	comble	
1443	1	comblé	
1444	1	commandaient	
1445	1	commande	
1446	1	commencement	
1447	1	commencez	
1448	1	commencèrent	
1449	1	commensal	
1450	1	comment	
1451	1	commença	
1452	1	commun	
1453	1	commune	
1454	1	compagnes	
1455	1	comparaison	
1456	1	compatissante	
1457	1	compenser	
1458	1	complot	
1459	1	complète	
1460	1	composé	
1461	1	composée	
1462	1	comprendrez	
1463	1	comprit	
1464	1	comptiez	
1465	1	compté	
1466	1	conciliateur	
1467	1	concitoyens	
1468	1	condescendance	
1469	1	conditions	
1470	1	conducteur	
1471	1	conduire	
1472	1	condé	
1473	1	confiance	
1474	1	confie	
1475	1	confirmation	
1476	1	confié	
1477	1	confonde	
1478	1	congédia	
1479	1	conjectures	
1480	1	conjurés	
1481	1	connaissaient	
1482	1	connaissance	
1483	1	connaisse	
1484	1	connaissent	
1485	1	connaît	
1486	1	connaître	
1487	1	connue	
1488	1	connues	
1489	1	conscription	
1490	1	conseil	
1491	1	consentez	
1492	1	conservait	
1493	1	conservé	
1494	1	considération	
1495	1	consoler	
1496	1	contenait	
1497	1	contente	
1498	1	continuer	
1499	1	contracté	
1500	1	contrées	
1501	1	convenaient	
1502	1	convenir	
1503	1	convictions	
1504	1	conviennent	
1505	1	cor	
1506	1	cordons	
1507	1	coucha	
1508	1	coudes	
1509	1	coule	
1510	1	coupaient	
1511	1	cour	
1512	1	courageuse	
1513	1	couraient	
1514	1	courant	
1515	1	courbant	
1516	1	courbe	
1517	1	courroucée	
1518	1	courroux	
1519	1	couru	
1520	1	courut	
1521	1	cousin	
1522	1	couverte	
1523	1	couvertes	
1524	1	couvrait	
1525	1	couvrir	
1526	1	craignez	
1527	1	crains	
1528	1	craintive	
1529	1	cravache	
1530	1	cria	
1531	1	criaient	
1532	1	criant	
1533	1	crier	
1534	1	crimes	
1535	1	cris	
1536	1	croient	
1537	1	croisaient	
1538	1	croisement	
1539	1	croiser	
1540	1	croissant	
1541	1	croque	
1542	1	croyait	
1543	1	croyance	
1544	1	croyances	
1545	1	croyez	
1546	1	cruel	
1547	1	cruelle	
1548	1	cruelles	
1549	1	créature	
1550	1	crépuscule	
1551	1	cuir	
1552	1	cuivre	
1553	1	céder	
1554	1	céleste	
1555	1	cérémonie	
1556	1	damas	
1557	1	dame	
1558	1	dangers	
1559	1	dard	
1560	1	date	
1561	1	dehors	
1562	1	demandai	
1563	1	demeurer	
1564	1	derniers	
1565	1	descendait	
1566	1	description	
1567	1	devais	
1568	1	devenaient	
1569	1	devenir	
1570	1	devenu	
1571	1	devenus	
1572	1	devez	
1573	1	devine	
1574	1	devoirs	
1575	1	diables	
1576	1	diapason	
1577	1	diaprent	
1578	1	digne	
1579	1	dignes	
1580	1	diminuait	
1581	1	diminuer	
1582	1	diplomates	
1583	1	dirait	
1584	1	directe	
1585	1	dirigeait	
1586	1	diriger	
1587	1	dirigée	
1588	1	discipline	
1589	1	discontinuait	
1590	1	discordes	
1591	1	disparaissaient	
1592	1	disparaissait	
1593	1	disparaître	
1594	1	disperser	
1595	1	disposa	
1596	1	distinction	
1597	1	distraite	
1598	1	divergents	
1599	1	divers	
1600	1	diverses	
1601	1	divin	
1602	1	doctrines	
1603	1	doigt	
1604	1	doigts	
1605	1	dolemment	
1606	1	domaines	
1607	1	domestiques	
1608	1	dominait	
1609	1	dominant	
1610	1	donnai	
1611	1	donnant	
1612	1	donnez	
1613	1	donnée	
1614	1	dormait	
1615	1	dormir	
1616	1	dormit	
1617	1	douairière	
1618	1	doublé	
1619	1	douceur	
1620	1	douleur	
1621	1	douloureusement	
1622	1	douter	
1623	1	douves	
1624	1	douzaine	
1625	1	dressait	
1626	1	druidique	
1627	1	duel	
1628	1	dura	
1629	1	durant	
1630	1	durcit	
1631	1	dure	
1632	1	dut	
1633	1	dès	
1634	1	déchirée	
1635	1	déclamations	
1636	1	découvraient	
1637	1	découvrirent	
1638	1	découvrit	
1639	1	dédain	
1640	1	défaites	
1641	1	défaut	
1642	1	défendent	
1643	1	défendu	
1644	1	défenseur	
1645	1	défriché	
1646	1	dégainés	
1647	1	dégradation	
1648	1	délicatement	
1649	1	démarche	
1650	1	démentit	
1651	1	dénaturées	
1652	1	dénouer	
1653	1	département	
1654	1	dépensait	
1655	1	déplorable	
1656	1	dépouillant	
1657	1	dépôt	
1658	1	dérange	
1659	1	déranger	
1660	1	dérisoire	
1661	1	dérobait	
1662	1	dérobée	
1663	1	désagréable	
1664	1	désespoir	
1665	1	déshonorait	
1666	1	désignant	
1667	1	désigné	
1668	1	désintéressés	
1669	1	désir	
1670	1	désolation	
1671	1	détachement	
1672	1	déterminés	
1673	1	détesté	
1674	1	détour	
1675	1	détourner	
1676	1	détruire	
1677	1	dévoilé	
1678	1	dévorait	
1679	1	dévorer	
1680	1	dévotement	
1681	1	dévouement	
1682	1	dévoué	
1683	1	dévoués	
1684	1	effleuré	
1685	1	effort	
1686	1	effrayait	
1687	1	effrayante	
1688	1	effraye	
1689	1	effroi	
1690	1	eh	
1691	1	embarras	
1692	1	embrassant	
1693	1	embrasse	
1694	1	embrasseront	
1695	1	embrassée	
1696	1	embrasure	
1697	1	embrocher	
1698	1	empressement	
1699	1	empêcher	
1700	1	enchantement	
1701	1	enchaînement	
1702	1	enchevêtraient	
1703	1	endoctriner	
1704	1	endormis	
1705	1	endormit	
1706	1	endroit	
1707	1	enfantin	
1708	1	enfonce	
1709	1	enfoncèrent	
1710	1	enfonça	
1711	1	enfuir	
1712	1	enfumés	
1713	1	engage	
1714	1	engagé	
1715	1	engagée	
1716	1	engourdie	
1717	1	engourdissement	
1718	1	enlacés	
1719	1	ensuite	
1720	1	entendait	
1721	1	enthousiasme	
1722	1	enthousiaste	
1723	1	entier	
1724	1	entière	
1725	1	entonnoir	
1726	1	entouraient	
1727	1	entoure	
1728	1	entourée	
1729	1	entrait	
1730	1	entraînant	
1731	1	entreprendre	
1732	1	entrevoir	
1733	1	entrevue	
1734	1	entrez	
1735	1	entré	
1736	1	entrée	
1737	1	envahit	
1738	1	enveloppé	
1739	1	envie	
1740	1	envier	
1741	1	errer	
1742	1	escorté	
1743	1	espoirs	
1744	1	esprit	
1745	1	espèce	
1746	1	espère	
1747	1	espérant	
1748	1	essaya	
1749	1	essayait	
1750	1	essoufflé	
1751	1	exacte	
1752	1	exaltait	
1753	1	exauce	
1754	1	exaucer	
1755	1	exciter	
1756	1	excitée	
1757	1	excusez	
1758	1	exil	
1759	1	existait	
1760	1	expliquer	
1761	1	expression	
1762	1	exprimaient	
1763	1	extermination	
1764	1	extraordinaire	
1765	1	extraordinaires	
1766	1	exténuée	
1767	1	extérieure	
1768	1	exécuté	
1769	1	fable	
1770	1	fabuleux	
1771	1	facilement	
1772	1	faible	
1773	1	faibles	
1774	1	faiblesse	
1775	1	fallu	
1776	1	fallût	
1777	1	falmouth	
1778	1	fameux	
1779	1	familles	
1780	1	fantastique	
1781	1	fantastiques	
1782	1	fanés	
1783	1	farouches	
1784	1	fasse	
1785	1	fatal	
1786	1	fauteuil	
1787	1	fauves	
1788	1	faveur	
1789	1	favori	
1790	1	favorites	
1791	1	façons	
1792	1	fer	
1793	1	ferai	
1794	1	feraient	
1795	1	feriez	
1796	1	fermée	
1797	1	ferrée	
1798	1	fervent	
1799	1	feutre	
1800	1	fi	
1801	1	fiait	
1802	1	fidèle	
1803	1	fidèles	
1804	1	fier	
1805	1	figurer	
1806	1	figures	
1807	1	fila	
1808	1	fin	
1809	1	fine	
1810	1	fini	
1811	1	finie	
1812	1	firent	
1813	1	fixes	
1814	1	fière	
1815	1	fièrement	
1816	1	fiévreux	
1817	1	flamboyait	
1818	1	flanquaient	
1819	1	fleur	
1820	1	flots	
1821	1	fluette	
1822	1	fléchirent	
1823	1	flétris	
1824	1	foin	
1825	1	fondement	
1826	1	fondit	
1827	1	fontaine	
1828	1	formait	
1829	1	former	
1830	1	formée	
1831	1	forte	
1832	1	fortement	
1833	1	fortifiait	
1834	1	forts	
1835	1	fougue	
1836	1	fougueux	
1837	1	fous	
1838	1	frais	
1839	1	france	
1840	1	franchir	
1841	1	frapper	
1842	1	fraîche	
1843	1	fraîches	
1844	1	frissonna	
1845	1	froidement	
1846	1	froncèrent	
1847	1	froncés	
1848	1	fréquentée	
1849	1	fugitif	
1850	1	fumante	
1851	1	fumer	
1852	1	furent	
1853	1	fureurs	
1854	1	furieuse	
1855	1	furieux	
1856	1	fusillera	
1857	1	fâcheux	
1858	1	gagnait	
1859	1	gagné	
1860	1	galop	
1861	1	gardé	
1862	1	garnitures	
1863	1	garçon	
1864	1	genoux	
1865	1	genre	
1866	1	gentilhommières	
1867	1	gentillesse	
1868	1	gentillâtres	
1869	1	gerbes	
1870	1	glissa	
1871	1	glissante	
1872	1	glorifie	
1873	1	gonflaient	
1874	1	graduellement	
1875	1	gratté	
1876	1	gravées	
1877	1	grimace	
1878	1	grise	
1879	1	grises	
1880	1	grommela	
1881	1	grossiers	
1882	1	grotesque	
1883	1	grotesques	
1884	1	grouillait	
1885	1	guerres	
1886	1	gâtait	
1887	1	gâté	
1888	1	généreuse	
1889	1	généreux	
1890	1	générosité	
1891	1	habit	
1892	1	habitait	
1893	1	habitude	
1894	1	habitudes	
1895	1	habituellement	
1896	1	habitué	
1897	1	habitât	
1898	1	haillons	
1899	1	haines	
1900	1	hanche	
1901	1	hardie	
1902	1	haussa	
1903	1	hautain	
1904	1	heureusement	
1905	1	heurtent	
1906	1	hideux	
1907	1	hier	
1908	1	historiée	
1909	1	hochait	
1910	1	hochant	
1911	1	hommage	
1912	1	honneur	
1913	1	horizon	
1914	1	hostile	
1915	1	hourra	
1916	1	humains	
1917	1	humble	
1918	1	humblement	
1919	1	humilité	
1920	1	hâtons	
1921	1	héritage	
1922	1	héroïne	
1923	1	hésita	
1924	1	idées	
1925	1	ifs	
1926	1	ignorant	
1927	1	ille	
1928	1	images	
1929	1	imbu	
1930	1	immense	
1931	1	imminence	
1932	1	imparfaitement	
1933	1	impassible	
1934	1	impatient	
1935	1	imperturbable	
1936	1	impie	
1937	1	impies	
1938	1	impitoyables	
1939	1	imposer	
1940	1	impossible	
1941	1	imposé	
1942	1	impure	
1943	1	impénétrable	
1944	1	impérieuse	
1945	1	impérieux	
1946	1	inattendue	
1947	1	inclinaient	
1948	1	incognito	
1949	1	indifférence	
1950	1	indiscrètes	
1951	1	indomptée	
1952	1	inextricable	
1953	1	inflexible	
1954	1	influence	
1955	1	informait	
1956	1	informerai	
1957	1	injures	
1958	1	injustes	
1959	1	innombrables	
1960	1	inouïe	
1961	1	inouïs	
1962	1	inquiétude	
1963	1	inquiétudes	
1964	1	insensible	
1965	1	insensiblement	
1966	1	insensées	
1967	1	insolence	
1968	1	instants	
1969	1	instinctivement	
1970	1	instruction	
1971	1	insu	
1972	1	insuffisante	
1973	1	insurrection	
1974	1	intelligente	
1975	1	interroge	
1976	1	interrogeant	
1977	1	interrogerons	
1978	1	interrogé	
1979	1	intestines	
1980	1	intime	
1981	1	intimité	
1982	1	intitulée	
1983	1	intéresse	
1984	1	intérieure	
1985	1	intérêts	
1986	1	irai	
1987	1	irais	
1988	1	ironie	
1989	1	irritation	
1990	1	irrités	
1991	1	irréprochable	
1992	1	jeter	
1993	1	jetèrent	
1994	1	jeté	
1995	1	joies	
1996	1	joint	
1997	1	joué	
1998	1	joyeuse	
1999	1	juger	
2000	1	jura	
2001	1	jurait	
2002	1	jure	
2003	1	juron	
2004	1	jusque	
2005	1	justement	
2006	1	kervas	
2007	1	labyrinthe	
2008	1	lac	
2009	1	laissait	
2010	1	laisse	
2011	1	laissèrent	
2012	1	laissée	
2013	1	lambeaux	
2014	1	lambris	
2015	1	lame	
2016	1	lancé	
2017	1	landes	
2018	1	lança	
2019	1	lançaient	
2020	1	largeur	
2021	1	latérale	
2022	1	lesquels	
2023	1	lettre	
2024	1	levait	
2025	1	levant	
2026	1	liaient	
2027	1	liberté	
2028	1	liens	
2029	1	lieue	
2030	1	limites	
2031	1	lisait	
2032	1	lisière	
2033	1	lisse	
2034	1	livrait	
2035	1	livre	
2036	1	livres	
2037	1	liées	
2038	1	logique	
2039	1	logis	
2040	1	longs	
2041	1	longues	
2042	1	longueur	
2043	1	louis	
2044	1	loué	
2045	1	loyaux	
2046	1	lugubres	
2047	1	lumière	
2048	1	luttant	
2049	1	luxueusement	
2050	1	luxueux	
2051	1	lâchant	
2052	1	lâche	
2053	1	lâcher	
2054	1	lâches	
2055	1	léger	
2056	1	légitimes	
2057	1	légèrement	
2058	1	légèreté	
2059	1	machinalement	
2060	1	macles	
2061	1	magasin	
2062	1	magnifique	
2063	1	majeure	
2064	1	maladive	
2065	1	malheureusement	
2066	1	malheurs	
2067	1	malmenés	
2068	1	malveillance	
2069	1	mangé	
2070	1	manifestation	
2071	1	marbrent	
2072	1	marchait	
2073	1	marchande	
2074	1	marchant	
2075	1	marcher	
2076	1	marché	
2077	1	marquait	
2078	1	marque	
2079	1	marqué	
2080	1	masquait	
2081	1	masque	
2082	1	massif	
2083	1	mate	
2084	1	matinée	
2085	1	matière	
2086	1	maîtres	
2087	1	membres	
2088	1	menace	
2089	1	menaçant	
2090	1	menaçante	
2091	1	merveilleuse	
2092	1	mesure	
2093	1	mesurer	
2094	1	met	
2095	1	mettait	
2096	1	meurtres	
2097	1	milices	
2098	1	milicien	
2099	1	militaire	
2100	1	milliers	
2101	1	miner	
2102	1	ministère	
2103	1	minuter	
2104	1	minutieuse	
2105	1	miracle	
2106	1	mirent	
2107	1	misère	
2108	1	misérable	
2109	1	miséricorde	
2110	1	mme	
2111	1	modeste	
2112	1	modèle	
2113	1	montagne	
2114	1	montraient	
2115	1	montrait	
2116	1	monture	
2117	1	montée	
2118	1	moqueur	
2119	1	morbihan	
2120	1	morceau	
2121	1	mornes	
2122	1	mortel	
2123	1	mortelle	
2124	1	motiver	
2125	1	mouche	
2126	1	mouilla	
2127	1	mourrai	
2128	1	mousquet	
2129	1	mousse	
2130	1	mouvement	
2131	1	moyen	
2132	1	moyenne	
2133	1	munitions	
2134	1	murmures	
2135	1	murs	
2136	1	muscles	
2137	1	musculaire	
2138	1	musulmane	
2139	1	mutuelle	
2140	1	mystère	
2141	1	mystérieux	
2142	1	mélange	
2143	1	mémoire	
2144	1	mépris	
2145	1	méprisante	
2146	1	mérite	
2147	1	méritoires	
2148	1	métier	
2149	1	mêlée	
2150	1	naissance	
2151	1	naissent	
2152	1	national	
2153	1	nature	
2154	1	naturel	
2155	1	naturellement	
2156	1	navarre	
2157	1	neufs	
2158	1	neutre	
2159	1	noblement	
2160	1	nobles	
2161	1	noircie	
2162	1	noire	
2163	1	nombre	
2164	1	nonchalante	
2165	1	nourricier	
2166	1	né	
2167	1	nécessairement	
2168	1	nécessité	
2169	1	nôtre	
2170	1	obligent	
2171	1	obligés	
2172	1	obscure	
2173	1	obscurité	
2174	1	obsédante	
2175	1	obéissance	
2176	1	occasion	
2177	1	occupait	
2178	1	odieux	
2179	1	offre	
2180	1	offrirent	
2181	1	oppressait	
2182	1	opéré	
2183	1	orages	
2184	1	ordinaire	
2185	1	ordonner	
2186	1	ordres	
2187	1	oreilles	
2188	1	orgueil	
2189	1	orifice	
2190	1	original	
2191	1	origine	
2192	1	orné	
2193	1	osait	
2194	1	oser	
2195	1	otage	
2196	1	oubliée	
2197	1	ouest	
2198	1	ouvert	
2199	1	ouverte	
2200	1	ouvrir	
2201	1	paille	
2202	1	palais	
2203	1	pansait	
2204	1	pansement	
2205	1	pansements	
2206	1	panserai	
2207	1	paralysait	
2208	1	paraît	
2209	1	paraître	
2210	1	pareil	
2211	1	pareille	
2212	1	parent	
2213	1	parfait	
2214	1	parfaitement	
2215	1	parlant	
2216	1	parlent	
2217	1	partage	
2218	1	partager	
2219	1	particulière	
2220	1	parties	
2221	1	partirai	
2222	1	partirons	
2223	1	partisan	
2224	1	partit	
2225	1	partons	
2226	1	partout	
2227	1	parurent	
2228	1	parures	
2229	1	parée	
2230	1	passaient	
2231	1	passez	
2232	1	passif	
2233	1	passionné	
2234	1	passionnées	
2235	1	passions	
2236	1	pataud	
2237	1	paternel	
2238	1	paternelle	
2239	1	patiente	
2240	1	patrie	
2241	1	patrimoine	
2242	1	patronne	
2243	1	pavillon	
2244	1	pavé	
2245	1	payerai	
2246	1	peau	
2247	1	peintre	
2248	1	penchait	
2249	1	pensa	
2250	1	pensais	
2251	1	percé	
2252	1	perdait	
2253	1	perdant	
2254	1	perdre	
2255	1	perfection	
2256	1	permettait	
2257	1	permettre	
2258	1	permise	
2259	1	permission	
2260	1	personnelle	
2261	1	persévérez	
2262	1	perçant	
2263	1	pesamment	
2264	1	petits	
2265	1	peuplées	
2266	1	peur	
2267	1	phrygien	
2268	1	pinceau	
2269	1	piqûre	
2270	1	piteux	
2271	1	pittoresquement	
2272	1	pièce	
2273	1	piéton	
2274	1	placée	
2275	1	plaintes	
2276	1	plaisait	
2277	1	plans	
2278	1	plaît	
2279	1	pleine	
2280	1	pleurer	
2281	1	pleurez	
2282	1	plis	
2283	1	plomb	
2284	1	plongée	
2285	1	plumes	
2286	1	plèbe	
2287	1	plût	
2288	1	poignée	
2289	1	pointe	
2290	1	politique	
2291	1	popularité	
2292	1	population	
2293	1	porta	
2294	1	portant	
2295	1	porter	
2296	1	portion	
2297	1	portraits	
2298	1	portée	
2299	1	pose	
2300	1	positif	
2301	1	position	
2302	1	possesseur	
2303	1	possible	
2304	1	possédant	
2305	1	poste	
2306	1	posture	
2307	1	poudre	
2308	1	pourchassaient	
2309	1	pourrais	
2310	1	pourriez	
2311	1	pourrons	
2312	1	poursuite	
2313	1	poursuivaient	
2314	1	poussa	
2315	1	poussait	
2316	1	pousser	
2317	1	poussées	
2318	1	pouvaient	
2319	1	pouvant	
2320	1	pouvoir	
2321	1	pratiquent	
2322	1	pratiqué	
2323	1	premiers	
2324	1	prenait	
2325	1	prend	
2326	1	prenez	
2327	1	prennent	
2328	1	prescriptions	
2329	1	pressa	
2330	1	pressentiments	
2331	1	pria	
2332	1	priant	
2333	1	principal	
2334	1	principe	
2335	1	prise	
2336	1	prix	
2337	1	probables	
2338	1	prochaine	
2339	1	produire	
2340	1	profitant	
2341	1	profond	
2342	1	promenades	
2343	1	promis	
2344	1	prononcèrent	
2345	1	prononcé	
2346	1	prononçant	
2347	1	proposais	
2348	1	propres	
2349	1	propriétaire	
2350	1	propriété	
2351	1	prosélytes	
2352	1	protectrice	
2353	1	protocoles	
2354	1	protégé	
2355	1	prouver	
2356	1	provenance	
2357	1	prudence	
2358	1	prudent	
2359	1	précautions	
2360	1	précepte	
2361	1	précieusement	
2362	1	précipitait	
2363	1	précipitamment	
2364	1	précipiter	
2365	1	précipités	
2366	1	précéda	
2367	1	préjudice	
2368	1	préoccupation	
2369	1	prépare	
2370	1	préparé	
2371	1	préparés	
2372	1	présage	
2373	1	présages	
2374	1	présentait	
2375	1	préserva	
2376	1	prétendaient	
2377	1	prétends	
2378	1	prévenant	
2379	1	prêcher	
2380	1	prête	
2381	1	prêts	
2382	1	publique	
2383	1	puissamment	
2384	1	puissant	
2385	1	puissante	
2386	1	puisse	
2387	1	puissions	
2388	1	pullulants	
2389	1	pure	
2390	1	put	
2391	1	pâle	
2392	1	pâleur	
2393	1	pâlir	
2394	1	pères	
2395	1	pénible	
2396	1	quantité	
2397	1	quatorzième	
2398	1	quelle	
2399	1	quelles	
2400	1	quelqu	
2401	1	quenouille	
2402	1	quiconque	
2403	1	quitté	
2404	1	quotidien	
2405	1	radieux	
2406	1	raillent	
2407	1	railleur	
2408	1	raison	
2409	1	ramena	
2410	1	ranimé	
2411	1	rapidité	
2412	1	rapière	
2413	1	rappeler	
2414	1	rapporter	
2415	1	rapports	
2416	1	rapproche	
2417	1	rapprocher	
2418	1	rare	
2419	1	rassemblés	
2420	1	rassura	
2421	1	rayonna	
2422	1	recevoir	
2423	1	recevrez	
2424	1	rechange	
2425	1	recharger	
2426	1	recherches	
2427	1	recommander	
2428	1	reconnaissez	
2429	1	recourbé	
2430	1	recouverte	
2431	1	recouvraient	
2432	1	recueilli	
2433	1	recula	
2434	1	reculer	
2435	1	reculons	
2436	1	reculée	
2437	1	redressait	
2438	1	reflet	
2439	1	refusa	
2440	1	refuse	
2441	1	refuser	
2442	1	refusez	
2443	1	regardaient	
2444	1	regardait	
2445	1	regardant	
2446	1	regretter	
2447	1	rejeton	
2448	1	rejoint	
2449	1	relevée	
2450	1	religieuse	
2451	1	religieusement	
2452	1	remarquable	
2453	1	remit	
2454	1	remparts	
2455	1	remplacée	
2456	1	rempli	
2457	1	remplie	
2458	1	remplies	
2459	1	remplir	
2460	1	remèdes	
2461	1	rencontra	
2462	1	rencontrer	
2463	1	rencontrèrent	
2464	1	rend	
2465	1	rendait	
2466	1	rendit	
2467	1	rendrez	
2468	1	rendu	
2469	1	rendus	
2470	1	renforts	
2471	1	rentrer	
2472	1	rentrée	
2473	1	renvoyaient	
2474	1	renvoyer	
2475	1	repaire	
2476	1	repartait	
2477	1	repentit	
2478	1	repliaient	
2479	1	reposait	
2480	1	reposent	
2481	1	repoussées	
2482	1	reprenait	
2483	1	reprises	
2484	1	reproche	
2485	1	représentations	
2486	1	respecte	
2487	1	respecterai	
2488	1	respectiez	
2489	1	respectueusement	
2490	1	ressemblance	
2491	1	ressource	
2492	1	restai	
2493	1	restaient	
2494	1	restant	
2495	1	restes	
2496	1	restèrent	
2497	1	restée	
2498	1	retenait	
2499	1	retenir	
2500	1	retentiront	
2501	1	retentit	
2502	1	retenu	
2503	1	retirèrent	
2504	1	retour	
2505	1	retournant	
2506	1	retourne	
2507	1	retrouve	
2508	1	retrouver	
2509	1	retrouveront	
2510	1	revaudrai	
2511	1	revers	
2512	1	reviendrai	
2513	1	revient	
2514	1	revêtait	
2515	1	revêtu	
2516	1	reçu	
2517	1	ricanant	
2518	1	rideau	
2519	1	rivages	
2520	1	robes	
2521	1	robuste	
2522	1	roidissait	
2523	1	rompent	
2524	1	ronde	
2525	1	ronge	
2526	1	rougir	
2527	1	rouler	
2528	1	routes	
2529	1	routier	
2530	1	royale	
2531	1	royaumes	
2532	1	rude	
2533	1	rudement	
2534	1	rudesse	
2535	1	rugueuse	
2536	1	râtelier	
2537	1	réalisa	
2538	1	réalise	
2539	1	récemment	
2540	1	récit	
2541	1	réclamais	
2542	1	réclame	
2543	1	réclamer	
2544	1	récompensée	
2545	1	récrier	
2546	1	réduit	
2547	1	réelle	
2548	1	réfléchir	
2549	1	réfugiée	
2550	1	réguliers	
2551	1	régulières	
2552	1	réjouissait	
2553	1	répandait	
2554	1	répandre	
2555	1	répliqua	
2556	1	répliquer	
2557	1	répondait	
2558	1	répondent	
2559	1	réponse	
2560	1	républicaine	
2561	1	répugnance	
2562	1	répugnez	
2563	1	répétèrent	
2564	1	résidence	
2565	1	résignation	
2566	1	résister	
2567	1	résolu	
2568	1	résultat	
2569	1	réussir	
2570	1	révolution	
2571	1	révolutions	
2572	1	révélé	
2573	1	révérence	
2574	1	rêvait	
2575	1	rêves	
2576	1	sabots	
2577	1	sabre	
2578	1	sacrifice	
2579	1	sacrilège	
2580	1	sacré	
2581	1	saillant	
2582	1	saisi	
2583	1	saisit	
2584	1	sait	
2585	1	sarcastique	
2586	1	sardonique	
2587	1	sauf	
2588	1	saurais	
2589	1	sauriez	
2590	1	saurions	
2591	1	saut	
2592	1	sauts	
2593	1	sauver	
2594	1	savais	
2595	1	savourant	
2596	1	scellée	
2597	1	scélérats	
2598	1	second	
2599	1	secoua	
2600	1	secourir	
2601	1	secrets	
2602	1	secrètement	
2603	1	seigneurs	
2604	1	sein	
2605	1	seize	
2606	1	sellés	
2607	1	semaines	
2608	1	semblants	
2609	1	semblé	
2610	1	semi	
2611	1	sentiments	
2612	1	sentinelles	
2613	1	sentir	
2614	1	sentis	
2615	1	sept	
2616	1	septembre	
2617	1	seras	
2618	1	serez	
2619	1	serment	
2620	1	serons	
2621	1	serra	
2622	1	serrait	
2623	1	servait	
2624	1	servirai	
2625	1	serviteurs	
2626	1	seules	
2627	1	siennes	
2628	1	siens	
2629	1	signant	
2630	1	signe	
2631	1	signes	
2632	1	significative	
2633	1	signifie	
2634	1	simplement	
2635	1	sincèrement	
2636	1	singulier	
2637	1	situé	
2638	1	sobriquet	
2639	1	sociale	
2640	1	société	
2641	1	soie	
2642	1	soigneusement	
2643	1	soigné	
2644	1	soin	
2645	1	soins	
2646	1	sois	
2647	1	solitaire	
2648	1	solitude	
2649	1	sollicite	
2650	1	sollicitude	
2651	1	songea	
2652	1	sonnette	
2653	1	sortant	
2654	1	sortie	
2655	1	sortit	
2656	1	sortîmes	
2657	1	soudain	
2658	1	soudainement	
2659	1	souffle	
2660	1	souffrance	
2661	1	souffrirai	
2662	1	souhaite	
2663	1	souillé	
2664	1	soulagement	
2665	1	soulagé	
2666	1	soulevèrent	
2667	1	soulevés	
2668	1	souliers	
2669	1	soulèvement	
2670	1	souper	
2671	1	soupçon	
2672	1	soupçonner	
2673	1	soupçonné	
2674	1	sourd	
2675	1	souriait	
2676	1	souriant	
2677	1	soutenez	
2678	1	soutenir	
2679	1	souterrain	
2680	1	souterraine	
2681	1	soutiens	
2682	1	souvenait	
2683	1	souvenant	
2684	1	souvenez	
2685	1	souvenirs	
2686	1	souvenu	
2687	1	souvenue	
2688	1	souveraine	
2689	1	souviens	
2690	1	spectacle	
2691	1	spectateur	
2692	1	spirituelle	
2693	1	stature	
2694	1	strictement	
2695	1	stupéfait	
2696	1	subi	
2697	1	subite	
2698	1	successives	
2699	1	succombant	
2700	1	suffit	
2701	1	suivait	
2702	1	suivant	
2703	1	suivent	
2704	1	suivre	
2705	1	sujets	
2706	1	superstitieux	
2707	1	supporte	
2708	1	supporté	
2709	1	suppôt	
2710	1	suprême	
2711	1	supérieur	
2712	1	surgissent	
2713	1	surhumaine	
2714	1	surmonté	
2715	1	susceptibilité	
2716	1	sympathique	
2717	1	syrie	
2718	1	sécheresse	
2719	1	séduit	
2720	1	séjour	
2721	1	sépara	
2722	1	séparait	
2723	1	sépare	
2724	1	séparer	
2725	1	sérieuse	
2726	1	sérieux	
2727	1	table	
2728	1	tableau	
2729	1	tablier	
2730	1	taciturne	
2731	1	taille	
2732	1	taisez	
2733	1	talent	
2734	1	talion	
2735	1	tandis	
2736	1	tant	
2737	1	tas	
2738	1	tel	
2739	1	telle	
2740	1	tels	
2741	1	tempête	
2742	1	tenace	
2743	1	tenant	
2744	1	tendait	
2745	1	tendant	
2746	1	tenez	
2747	1	tenir	
2748	1	terme	
2749	1	terminées	
2750	1	terminés	
2751	1	terrassé	
2752	1	terreurs	
2753	1	terribles	
2754	1	tes	
2755	1	théâtrale	
2756	1	tienne	
2757	1	timidement	
2758	1	tira	
2759	1	tiraient	
2760	1	tirait	
2761	1	toises	
2762	1	tombant	
2763	1	tombe	
2764	1	tombée	
2765	1	toque	
2766	1	torse	
2767	1	torts	
2768	1	tortueusement	
2769	1	tortueux	
2770	1	tortures	
2771	1	touffe	
2772	1	touffue	
2773	1	tourillons	
2774	1	tourna	
2775	1	tournait	
2776	1	tracer	
2777	1	traces	
2778	1	tracé	
2779	1	tracée	
2780	1	traduire	
2781	1	trait	
2782	1	tramiez	
2783	1	tranquillité	
2784	1	transparente	
2785	1	traquer	
2786	1	travaillez	
2787	1	travers	
2788	1	traversent	
2789	1	tremblant	
2790	1	tremblé	
2791	1	trempés	
2792	1	tressaillements	
2793	1	tressaillit	
2794	1	triangulaire	
2795	1	tristement	
2796	1	tromblon	
2797	1	trompait	
2798	1	trompe	
2799	1	tronc	
2800	1	trophée	
2801	1	trouble	
2802	1	troubles	
2803	1	troupes	
2804	1	trouver	
2805	1	trouverez	
2806	1	trouvâmes	
2807	1	trouvé	
2808	1	très	
2809	1	trêve	
2810	1	tuera	
2811	1	tuez	
2812	1	tyrannique	
2813	1	témérité	
2814	1	ténébreuses	
2815	1	uni	
2816	1	unique	
2817	1	unissait	
2818	1	vague	
2819	1	valise	
2820	1	vas	
2821	1	vassal	
2822	1	vassaux	
2823	1	vaut	
2824	1	vedette	
2825	1	veillait	
2826	1	veille	
2827	1	velours	
2828	1	venais	
2829	1	vendant	
2830	1	vendée	
2831	1	venger	
2832	1	vengé	
2833	1	venimeux	
2834	1	venons	
2835	1	vente	
2836	1	venu	
2837	1	venus	
2838	1	verrai	
2839	1	verrons	
2840	1	vertueux	
2841	1	vertus	
2842	1	veste	
2843	1	veuf	
2844	1	veuve	
2845	1	vibrait	
2846	1	victoire	
2847	1	viendra	
2848	1	vierge	
2849	1	vigueur	
2850	1	vilaine	
2851	1	village	
2852	1	villageois	
2853	1	vin	
2854	1	vinrent	
2855	1	violence	
2856	1	violent	
2857	1	viril	
2858	1	vis	
2859	1	visitait	
2860	1	visite	
2861	1	vivacité	
2862	1	vivaient	
2863	1	vivre	
2864	1	voie	
2865	1	voile	
2866	1	voilé	
2867	1	voisinage	
2868	1	volontés	
2869	1	volé	
2870	1	voudrais	
2871	1	voudrait	
2872	1	voudras	
2873	1	voulais	
2874	1	voulant	
2875	1	vouloir	
2876	1	voyage	
2877	1	voûtée	
2878	1	vues	
2879	1	vécu	
2880	1	vérité	
2881	1	vêtue	
2882	1	vôtre	
2883	1	vœu	
2884	1	xvi	
2885	1	çà	
2886	1	éblouissant	
2887	1	écart	
2888	1	écarta	
2889	1	écartant	
2890	1	écarter	
2891	1	échapper	
2892	1	écharpe	
2893	1	écho	
2894	1	éclair	
2895	1	éclairée	
2896	1	éclater	
2897	1	écoulèrent	
2898	1	écoulé	
2899	1	écoute	
2900	1	écusson	
2901	1	égale	
2902	1	égard	
2903	1	égide	
2904	1	égoïste	
2905	1	élança	
2906	1	élevaient	
2907	1	élevée	
2908	1	éloigna	
2909	1	éloignait	
2910	1	éloigné	
2911	1	éloquence	
2912	1	émail	
2913	1	émerveillait	
2914	1	émotion	
2915	1	énergie	
2916	1	énergiquement	
2917	1	épais	
2918	1	épargnez	
2919	1	épineuses	
2920	1	épineux	
2921	1	épuisé	
2922	1	épées	
2923	1	équivoque	
2924	1	établir	
2925	1	étagent	
2926	1	éteigne	
2927	1	éteindre	
2928	1	éteinte	
2929	1	étend	
2930	1	étendaient	
2931	1	étendant	
2932	1	étiez	
2933	1	étoile	
2934	1	étonne	
2935	1	étonnement	
2936	1	étouffer	
2937	1	étourdie	
2938	1	étrangers	
2939	1	étranges	
2940	1	étreinte	
2941	1	étroit	
2942	1	étroite	
2943	1	étui	
2944	1	évangélique	
2945	1	évasée	
2946	1	éveillé	
2947	1	êtres	
2948	1	œuvre	
