1,589,et
2,442,de
3,409,que
4,373,le
5,337,un
6,327,la
7,319,je
8,315,l
9,306,vous
10,293,il
11,282,est
12,271,qu
13,238,d
14,235,à
15,233,en
16,213,ce
17,189,si
18,177,qui
19,174,pour
20,155,on
21,146,me
22,145,mon
23,139,ne
24,137,les
25,128,j
26,120,mais
27,110,pas
28,108,plus
29,107,par
30,105,n
31,95,a
32,95,amour
33,95,son
34,92,des
35,85,nous
36,84,votre
37,83,une
38,74,c
39,74,m
40,70,sans
41,69,ma
42,69,moi
43,68,se
44,67,s
45,66,ai
46,66,même
47,65,enfin
48,64,fait
49,64,non
50,63,au
51,62,bien
52,62,du
53,59,arcas
54,59,coeur
55,58,tout
56,57,dans
57,55,sa
58,54,grand
59,53,crime
60,53,gloire
61,53,ou
62,53,peut
63,53,vos
64,52,mes
65,52,roi
66,50,cette
67,50,reine
68,49,faut
69,49,où
70,47,ô
71,45,lui
72,45,quand
73,42,voir
74,41,aime
75,41,trône
76,41,tu
77,39,dieux
78,39,faire
79,39,moins
80,38,sur
81,38,t
82,37,ces
83,37,comme
84,37,elle
85,36,yeux
86,35,ici
87,35,ils
88,34,frère
89,33,prince
90,33,être
91,32,quoi
92,32,ses
93,32,te
94,31,ainsi
95,31,dit
96,30,trasile
97,30,victoire
98,30,état
99,29,aux
100,29,ta
101,28,haine
102,28,y
103,28,âme
104,27,mort
105,26,avec
106,26,bras
107,26,cet
108,26,donc
109,26,donne
110,26,leur
111,26,ton
112,26,trop
113,25,mal
114,25,rien
115,25,toujours
116,24,doit
117,24,donner
118,24,tous
119,23,couronne
120,23,dont
121,23,point
122,23,pouvoir
123,23,sceptre
124,23,veut
125,22,sang
126,22,sont
127,21,contre
128,21,madame
129,21,oui
130,20,courage
131,20,glorieux
132,20,ha
133,20,main
134,20,mains
135,20,nos
136,20,ont
137,20,quelque
138,20,rendre
139,20,rois
140,20,veux
141,19,autre
142,19,honneur
143,19,poliante
144,19,régner
145,19,soeur
146,19,toi
147,18,assez
148,18,aujourd
149,18,fureur
150,18,hui
151,18,peu
152,18,tant
153,17,alors
154,17,avoir
155,17,coupable
156,17,dire
157,17,déjà
158,17,grands
159,17,maux
160,17,peine
161,17,puis
162,17,sais
163,17,seul
164,17,voulez
165,16,avez
166,16,dois
167,16,jamais
168,16,juste
169,16,sort
170,15,ambitieux
171,15,aussi
172,15,encor
173,15,esprit
174,15,suis
175,15,tes
176,15,venger
177,14,aimer
178,14,ciel
179,14,crains
180,14,croire
181,14,crois
182,14,desseins
183,14,force
184,14,lorsque
185,14,là
186,14,mieux
187,14,puissance
188,14,temps
189,14,vertu
190,14,vu
191,13,bruit
192,13,ennemis
193,13,paix
194,12,allez
195,12,amant
196,12,armes
197,12,ceux
198,12,conseil
199,12,deux
200,12,feu
201,12,fort
202,12,fortune
203,12,fut
204,12,grandeur
205,12,heureux
206,12,jusqu
207,12,leurs
208,12,parti
209,12,plutôt
210,12,prix
211,12,puisse
212,12,soit
213,12,traître
214,12,vois
215,12,voit
216,12,était
217,11,ait
218,11,biens
219,11,bientôt
220,11,cruel
221,11,estime
222,11,innocence
223,11,monarque
224,11,parmi
225,11,punir
226,11,sauver
227,11,seigneur
228,11,sujets
229,10,amène
230,10,avait
231,10,avecque
232,10,coup
233,10,criminel
234,10,destin
235,10,extrême
236,10,fit
237,10,généreux
238,10,honteux
239,10,monde
240,10,notre
241,10,parricide
242,10,peur
243,10,toute
244,10,vient
245,10,vrai
246,10,zèle
247,10,écouter
248,10,états
249,9,as
250,9,cependant
251,9,doute
252,9,fais
253,9,foi
254,9,fois
255,9,funeste
256,9,hymen
257,9,illustre
258,9,innocent
259,9,légitime
260,9,méchant
261,9,naissance
262,9,ni
263,9,part
264,9,partout
265,9,pourquoi
266,9,proxène
267,9,puisque
268,9,rang
269,9,rend
270,9,sera
271,9,seule
272,9,sous
273,9,sujet
274,9,véritable
275,8,afin
276,8,ambition
277,8,appui
278,8,attendre
279,8,attentat
280,8,car
281,8,chez
282,8,coeurs
283,8,conseils
284,8,crimes
285,8,demande
286,8,dessein
287,8,donné
288,8,détestable
289,8,effroi
290,8,effroyable
291,8,empire
292,8,ennemi
293,8,eux
294,8,faites
295,8,horreur
296,8,jour
297,8,justice
298,8,lois
299,8,longtemps
300,8,malheureux
301,8,marques
302,8,montrer
303,8,nature
304,8,odieux
305,8,paraître
306,8,premier
307,8,quitter
308,8,secours
309,8,serait
310,8,vaincre
311,8,voeux
312,7,aimé
313,7,audace
314,7,aurait
315,7,beau
316,7,bruits
317,7,chemin
318,7,cieux
319,7,craindre
320,7,devant
321,7,digne
322,7,discours
323,7,encore
324,7,espoir
325,7,euristène
326,7,eût
327,7,faux
328,7,fidèle
329,7,grande
330,7,haïr
331,7,hélas
332,7,justement
333,7,lâche
334,7,maintenant
335,7,malgré
336,7,mille
337,7,monarques
338,7,mériter
339,7,noble
340,7,occasion
341,7,orgueil
342,7,passions
343,7,perd
344,7,permis
345,7,peuvent
346,7,proclée
347,7,propre
348,7,puissant
349,7,rapport
350,7,rendent
351,7,reste
352,7,sait
353,7,souverain
354,7,tête
355,7,veulent
356,7,vouloir
357,7,voulu
358,7,époux
359,6,apparence
360,6,après
361,6,ardeur
362,6,assassin
363,6,autorité
364,6,autres
365,6,conserver
366,6,constance
367,6,craignez
368,6,crainte
369,6,donnez
370,6,défendre
371,6,entendre
372,6,entre
373,6,esprits
374,6,fera
375,6,ferait
376,6,font
377,6,fureurs
378,6,homme
379,6,hé
380,6,indigne
381,6,ingrat
382,6,juge
383,6,loi
384,6,mis
385,6,moment
386,6,monstre
387,6,montre
388,6,nombre
389,6,oeil
390,6,offre
391,6,opinion
392,6,orage
393,6,ose
394,6,personne
395,6,perte
396,6,plein
397,6,poignard
398,6,pourrais
399,6,pourrait
400,6,présence
401,6,pu
402,6,quelques
403,6,quels
404,6,quitte
405,6,redoutable
406,6,satisfaire
407,6,souveraine
408,6,souverains
409,6,telle
410,6,terre
411,6,trouve
412,6,tôt
413,6,vain
414,6,vainqueur
415,6,vengeance
416,6,vertus
417,6,vit
418,6,voix
419,5,abattu
420,5,action
421,5,affection
422,5,aimons
423,5,aller
424,5,amitié
425,5,appas
426,5,assurer
427,5,aventure
428,5,bon
429,5,bonheur
430,5,celle
431,5,celui
432,5,chacun
433,5,charmes
434,5,châtiment
435,5,colère
436,5,connaissez
437,5,contente
438,5,coups
439,5,courroux
440,5,croiriez
441,5,croit
442,5,cruelle
443,5,céder
444,5,demander
445,5,devons
446,5,dirai
447,5,douleur
448,5,effet
449,5,erreur
450,5,espérer
451,5,espérez
452,5,fallait
453,5,fameux
454,5,femme
455,5,feux
456,5,flamme
457,5,fuit
458,5,gagner
459,5,garde
460,5,honte
461,5,indomptable
462,5,infâme
463,5,inhumain
464,5,laisser
465,5,lieu
466,5,loin
467,5,malheurs
468,5,mauvais
469,5,menace
470,5,mourant
471,5,naître
472,5,nouvelles
473,5,obtenir
474,5,obéir
475,5,parle
476,5,perdre
477,5,pourtant
478,5,première
479,5,prend
480,5,prendre
481,5,presque
482,5,publique
483,5,puissants
484,5,quiconque
485,5,rebelles
486,5,refuse
487,5,renommée
488,5,repos
489,5,secret
490,5,secrets
491,5,sein
492,5,semble
493,5,sert
494,5,servir
495,5,soi
496,5,souhaite
497,5,surpris
498,5,tour
499,5,triomphe
500,5,trouble
501,5,trouver
502,5,univers
503,5,venge
504,5,viens
505,5,voudrais
506,5,voyant
507,5,étant
508,5,êtes
509,5,ôte
510,4,accuse
511,4,accuser
512,4,achever
513,4,adorable
514,4,agir
515,4,ailleurs
516,4,aimable
517,4,aimais
518,4,aisément
519,4,amoureux
520,4,apprend
521,4,apprendre
522,4,apprends
523,4,approche
524,4,attend
525,4,attraits
526,4,aurai
527,4,aurais
528,4,autant
529,4,avis
530,4,bois
531,4,bons
532,4,bouche
533,4,bourreau
534,4,but
535,4,cache
536,4,cacher
537,4,cherche
538,4,chère
539,4,combat
540,4,combien
541,4,comment
542,4,conditions
543,4,confus
544,4,connais
545,4,contraire
546,4,corps
547,4,craint
548,4,criminelle
549,4,croirais
550,4,cru
551,4,danger
552,4,dernier
553,4,destins
554,4,devait
555,4,devez
556,4,diadème
557,4,dites
558,4,donnent
559,4,douter
560,4,douteux
561,4,droit
562,4,dès
563,4,députés
564,4,désir
565,4,désire
566,4,désirs
567,4,excuse
568,4,face
569,4,faible
570,4,fasse
571,4,fatale
572,4,faute
573,4,foudre
574,4,front
575,4,fuite
576,4,furieux
577,4,gagné
578,4,guerre
579,4,instant
580,4,justes
581,4,laisse
582,4,lequel
583,4,liberté
584,4,lorsqu
585,4,mot
586,4,nécessaire
587,4,objet
588,4,obéissance
589,4,pardonnez
590,4,passion
591,4,penser
592,4,porter
593,4,pouvait
594,4,prends
595,4,prétendre
596,4,puisqu
597,4,péril
598,4,périr
599,4,quel
600,4,quelle
601,4,raison
602,4,regarde
603,4,remords
604,4,rendu
605,4,respects
606,4,revient
607,4,revoir
608,4,sanglant
609,4,sanglante
610,4,savez
611,4,savoir
612,4,sorte
613,4,sortir
614,4,soupçon
615,4,soupçonné
616,4,souvent
617,4,su
618,4,succès
619,4,supplice
620,4,tomber
621,4,tourment
622,4,tromper
623,4,trompeur
624,4,troublé
625,4,témoins
626,4,utile
627,4,va
628,4,victorieux
629,4,vie
630,4,ville
631,3,abandonne
632,3,absence
633,3,acte
634,3,affreux
635,3,aider
636,3,aimant
637,3,aimez
638,3,alarmes
639,3,alliance
640,3,anime
641,3,apporter
642,3,arrête
643,3,aspire
644,3,attaque
645,3,atteinte
646,3,aussitôt
647,3,avais
648,3,avant
649,3,avantage
650,3,aventures
651,3,aversion
652,3,aveugle
653,3,ayant
654,3,belle
655,3,besoin
656,3,bourreaux
657,3,bref
658,3,caché
659,3,cercueil
660,3,cher
661,3,chose
662,3,conduit
663,3,confirme
664,3,connaître
665,3,conquête
666,3,constant
667,3,contenter
668,3,craignaient
669,3,croyez
670,3,céleste
671,3,côtés
672,3,degré
673,3,depuis
674,3,devoir
675,3,disait
676,3,donnant
677,3,douleurs
678,3,droits
679,3,débris
680,3,désordre
681,3,efface
682,3,effort
683,3,efforts
684,3,emporter
685,3,entièrement
686,3,envie
687,3,esclave
688,3,espère
689,3,espérance
690,3,facile
691,3,failli
692,3,faudrait
693,3,favorable
694,3,feint
695,3,feinte
696,3,fer
697,3,ferai
698,3,fidèles
699,3,fin
700,3,flammes
701,3,flatter
702,3,forte
703,3,fortuné
704,3,fruit
705,3,fruits
706,3,garder
707,3,gouffre
708,3,grandeurs
709,3,géant
710,3,générosité
711,3,haut
712,3,infidèle
713,3,injuste
714,3,insensible
715,3,inspire
716,3,intérêt
717,3,juger
718,3,jusques
719,3,marcher
720,3,marque
721,3,maximes
722,3,maître
723,3,met
724,3,mettre
725,3,meurtre
726,3,mien
727,3,monter
728,3,montrant
729,3,montrez
730,3,mémoire
731,3,mépris
732,3,mérite
733,3,mérité
734,3,mêmes
735,3,naufrage
736,3,nobles
737,3,noire
738,3,nouveaux
739,3,nécessité
740,3,ombre
741,3,ordre
742,3,oreille
743,3,outrage
744,3,paraît
745,3,parce
746,3,pareille
747,3,parfait
748,3,partage
749,3,passe
750,3,perdu
751,3,perfide
752,3,pieds
753,3,plaindre
754,3,porte
755,3,prendrai
756,3,prenez
757,3,prit
758,3,produit
759,3,prospérité
760,3,présent
761,3,prétends
762,3,prête
763,3,puissante
764,3,punition
765,3,rebelle
766,3,recevoir
767,3,reconnais
768,3,regard
769,3,regardez
770,3,remède
771,3,rendez
772,3,rendit
773,3,reçois
774,3,ruine
775,3,règne
776,3,résoudre
777,3,révoltés
778,3,sachant
779,3,sensible
780,3,seulement
781,3,silence
782,3,soin
783,3,songez
784,3,souffre
785,3,soumissions
786,3,soupçonner
787,3,soutenir
788,3,suivez
789,3,tombe
790,3,toutefois
791,3,trahir
792,3,tranquille
793,3,transport
794,3,travaux
795,3,trembler
796,3,triste
797,3,tristes
798,3,trépas
799,3,tâche
800,3,vaine
801,3,vaut
802,3,venant
803,3,venir
804,3,venu
805,3,viennent
806,3,violence
807,3,volonté
808,3,volontés
809,3,voulant
810,3,vérité
811,3,éclatant
812,3,éclater
813,3,égal
814,3,éloignement
815,3,étais
816,3,étonné
817,3,étouffer
818,3,éviter
819,3,ôter
820,2,abandonner
821,2,abord
822,2,absolu
823,2,accepte
824,2,achevez
825,2,achève
826,2,adversaire
827,2,agit
828,2,aient
829,2,ailes
830,2,aimasse
831,2,aiment
832,2,aimée
833,2,aisé
834,2,ajoutez
835,2,amis
836,2,animée
837,2,appelle
838,2,appelé
839,2,appuis
840,2,armer
841,2,armez
842,2,arrache
843,2,arracher
844,2,aspect
845,2,assouvir
846,2,assurance
847,2,attaquer
848,2,attendent
849,2,attendez
850,2,attentats
851,2,attente
852,2,auguste
853,2,aura
854,2,auteurs
855,2,autorisé
856,2,autrefois
857,2,avance
858,2,avançons
859,2,ayez
860,2,ayons
861,2,bannir
862,2,beaucoup
863,2,beauté
864,2,beaux
865,2,belles
866,2,blessures
867,2,blessé
868,2,bonne
869,2,brave
870,2,brûlé
871,2,cercueils
872,2,chaque
873,2,char
874,2,chasse
875,2,chemins
876,2,chercher
877,2,choir
878,2,choix
879,2,choses
880,2,combats
881,2,combattant
882,2,combattu
883,2,combler
884,2,commence
885,2,commencé
886,2,commettre
887,2,commis
888,2,complice
889,2,condamne
890,2,condamné
891,2,condition
892,2,conduire
893,2,connaît
894,2,conseillez
895,2,conserve
896,2,consoler
897,2,content
898,2,contraindre
899,2,contraint
900,2,contrainte
901,2,cour
902,2,courir
903,2,couronné
904,2,cours
905,2,croira
906,2,croirait
907,2,croyait
908,2,croyance
909,2,cruauté
910,2,cruels
911,2,cédait
912,2,côté
913,2,davantage
914,2,debout
915,2,dedans
916,2,demeure
917,2,demeurez
918,2,descendrai
919,2,destinée
920,2,devient
921,2,dieu
922,2,dira
923,2,dis
924,2,disent
925,2,disiez
926,2,divisé
927,2,doive
928,2,dompter
929,2,donna
930,2,donniez
931,2,douceur
932,2,découvert
933,2,découverte
934,2,découvrir
935,2,dédaigner
936,2,défaut
937,2,défend
938,2,défense
939,2,déteste
940,2,dévore
941,2,embrasser
942,2,employé
943,2,emporte
944,2,empêcher
945,2,endurer
946,2,enflammé
947,2,engage
948,2,enlève
949,2,enseigne
950,2,entend
951,2,entier
952,2,entrent
953,2,entreprise
954,2,eusse
955,2,eut
956,2,excite
957,2,exciter
958,2,excusez
959,2,expose
960,2,faisait
961,2,fatal
962,2,faveur
963,2,feindre
964,2,feriez
965,2,ferons
966,2,forcené
967,2,forces
968,2,forcé
969,2,forfait
970,2,forfaits
971,2,forme
972,2,forts
973,2,fuirai
974,2,fuirais
975,2,fuirait
976,2,furieuses
977,2,fus
978,2,fuyant
979,2,fût
980,2,gens
981,2,glorieuse
982,2,grandes
983,2,grâce
984,2,guide
985,2,heure
986,2,honneurs
987,2,honteuse
988,2,horrible
989,2,hyménée
990,2,illustres
991,2,imaginer
992,2,importance
993,2,importe
994,2,imposer
995,2,impute
996,2,incertaine
997,2,incomparable
998,2,infamie
999,2,infidélité
1000,2,infâmes
1001,2,inhumaine
1002,2,inhumains
1003,2,injure
1004,2,insolence
1005,2,inspirez
1006,2,inventé
1007,2,irrité
1008,2,jeter
1009,2,jette
1010,2,joint
1011,2,jours
1012,2,jugement
1013,2,juges
1014,2,jusque
1015,2,laissez
1016,2,librement
1017,2,liens
1018,2,lieux
1019,2,lumière
1020,2,lâcheté
1021,2,léger
1022,2,légitimes
1023,2,malheur
1024,2,manifeste
1025,2,marche
1026,2,maîtres
1027,2,meilleur
1028,2,menaçait
1029,2,meurs
1030,2,misérable
1031,2,montré
1032,2,monument
1033,2,mortelle
1034,2,mourir
1035,2,murmurer
1036,2,méchants
1037,2,noblement
1038,2,nom
1039,2,nouvelle
1040,2,nôtre
1041,2,obliger
1042,2,obstacle
1043,2,obéis
1044,2,ordres
1045,2,osé
1046,2,outrager
1047,2,ouvre
1048,2,pardon
1049,2,pareil
1050,2,parut
1051,2,payer
1052,2,pense
1053,2,pensez
1054,2,percer
1055,2,perdit
1056,2,permets
1057,2,permettez
1058,2,persécuter
1059,2,perça
1060,2,peuple
1061,2,peuples
1062,2,pitié
1063,2,place
1064,2,plaignez
1065,2,plains
1066,2,plainte
1067,2,pleins
1068,2,porté
1069,2,possession
1070,2,poursuivi
1071,2,pousse
1072,2,poussé
1073,2,poussés
1074,2,pouvais
1075,2,pouvons
1076,2,pratiques
1077,2,pressant
1078,2,pressé
1079,2,prochaine
1080,2,proche
1081,2,prodigieux
1082,2,prudence
1083,2,précipice
1084,2,précipices
1085,2,présente
1086,2,prévois
1087,2,prêt
1088,2,purgé
1089,2,quelqu
1090,2,quelquefois
1091,2,querelle
1092,2,quittez
1093,2,rage
1094,2,raisons
1095,2,rarement
1096,2,ravir
1097,2,reconnaître
1098,2,redouter
1099,2,refusé
1100,2,regarder
1101,2,releva
1102,2,reluisent
1103,2,relève
1104,2,remettre
1105,2,rempli
1106,2,rendait
1107,2,rendra
1108,2,rends
1109,2,renom
1110,2,reproche
1111,2,respect
1112,2,retournât
1113,2,reçu
1114,2,rigueurs
1115,2,rompre
1116,2,rompu
1117,2,royale
1118,2,royaume
1119,2,régnez
1120,2,réponde
1121,2,réponds
1122,2,résous
1123,2,révolte
1124,2,sache
1125,2,sachez
1126,2,sage
1127,2,sages
1128,2,saint
1129,2,sainte
1130,2,salaire
1131,2,salutaire
1132,2,sanglantes
1133,2,saurais
1134,2,saurait
1135,2,sauve
1136,2,sauvé
1137,2,sceptres
1138,2,semé
1139,2,sensibles
1140,2,sentiment
1141,2,sentiments
1142,2,serez
1143,2,serve
1144,2,servi
1145,2,services
1146,2,servie
1147,2,seules
1148,2,seuls
1149,2,sied
1150,2,soient
1151,2,soins
1152,2,sois
1153,2,soldats
1154,2,soleil
1155,2,sorti
1156,2,souffrez
1157,2,souffrir
1158,2,souhaits
1159,2,soupçonne
1160,2,soupçons
1161,2,source
1162,2,souvient
1163,2,sublime
1164,2,suit
1165,2,suivant
1166,2,suivi
1167,2,suivre
1168,2,sujette
1169,2,superbe
1170,2,supplices
1171,2,surprise
1172,2,suspect
1173,2,sépulcre
1174,2,sûreté
1175,2,taire
1176,2,tandis
1177,2,tantôt
1178,2,tard
1179,2,tempêtes
1180,2,tenir
1181,2,tente
1182,2,timides
1183,2,tirer
1184,2,tonnerre
1185,2,trahissant
1186,2,traits
1187,2,traité
1188,2,transporte
1189,2,travaille
1190,2,traîtres
1191,2,tremblante
1192,2,trompe
1193,2,troupes
1194,2,trésor
1195,2,tue
1196,2,tyran
1197,2,tyrans
1198,2,témoigner
1199,2,témoin
1200,2,têtes
1201,2,vaincu
1202,2,vainqueurs
1203,2,vaisseau
1204,2,victime
1205,2,victoires
1206,2,vienne
1207,2,vieux
1208,2,vivre
1209,2,voici
1210,2,voilà
1211,2,voudrait
1212,2,voulait
1213,2,voyez
1214,2,vue
1215,2,vénérable
1216,2,éclaircir
1217,2,éclat
1218,2,écueils
1219,2,égaux
1220,2,élever
1221,2,éloigner
1222,2,épouvantable
1223,2,épouvante
1224,2,éprouvera
1225,2,éprouvé
1226,2,étale
1227,2,éteindre
1228,2,étendu
1229,2,étonne
1230,2,étrange
1231,2,été
1232,2,événement
1233,1,abaisse
1234,1,abandonnant
1235,1,abandonnerais
1236,1,abandonné
1237,1,abattant
1238,1,abattre
1239,1,abattus
1240,1,abois
1241,1,absolus
1242,1,absoudre
1243,1,absoudrons
1244,1,abusé
1245,1,abîme
1246,1,acceptait
1247,1,acceptant
1248,1,accourut
1249,1,accusateur
1250,1,accusé
1251,1,acheter
1252,1,acheté
1253,1,achèterais
1254,1,achèvent
1255,1,acquis
1256,1,acquérir
1257,1,adore
1258,1,adoucirai
1259,1,adversaires
1260,1,adverse
1261,1,adversité
1262,1,affaire
1263,1,affectes
1264,1,affliger
1265,1,affligez
1266,1,agité
1267,1,agréable
1268,1,aidait
1269,1,aidant
1270,1,aima
1271,1,aimes
1272,1,aimiez
1273,1,aimât
1274,1,aise
1275,1,ajouter
1276,1,ajouterai
1277,1,alarme
1278,1,allais
1279,1,allié
1280,1,allons
1281,1,allumant
1282,1,amante
1283,1,amants
1284,1,amers
1285,1,ample
1286,1,animant
1287,1,animé
1288,1,annonce
1289,1,aperçois
1290,1,aperçus
1291,1,apparemment
1292,1,apparent
1293,1,appartement
1294,1,appartiendra
1295,1,appartient
1296,1,appelais
1297,1,apprendra
1298,1,apprendrons
1299,1,apprenez
1300,1,appris
1301,1,approcher
1302,1,approuve
1303,1,approuverais
1304,1,appréhende
1305,1,appréhendent
1306,1,appuyant
1307,1,arbre
1308,1,ardente
1309,1,argénis
1310,1,armée
1311,1,arrachai
1312,1,arriver
1313,1,arrêt
1314,1,arrêter
1315,1,arrêtés
1316,1,aspirer
1317,1,aspiré
1318,1,assassine
1319,1,asservie
1320,1,assis
1321,1,assister
1322,1,assujetti
1323,1,assuré
1324,1,assurés
1325,1,attaquent
1326,1,attendrait
1327,1,attendu
1328,1,atteste
1329,1,attire
1330,1,attirer
1331,1,attiré
1332,1,attirés
1333,1,audacieuse
1334,1,augmentez
1335,1,auparavant
1336,1,aurions
1337,1,autels
1338,1,auteur
1339,1,autrement
1340,1,avaient
1341,1,avantageux
1342,1,aveu
1343,1,aveugler
1344,1,aveuglément
1345,1,aviser
1346,1,avons
1347,1,avouer
1348,1,avouât
1349,1,aïeux
1350,1,banni
1351,1,bannit
1352,1,barbare
1353,1,barbaries
1354,1,bas
1355,1,bataille
1356,1,beautés
1357,1,berceau
1358,1,blesse
1359,1,blessent
1360,1,blesser
1361,1,blessure
1362,1,blessée
1363,1,bonté
1364,1,bout
1365,1,briller
1366,1,brûle
1367,1,brûler
1368,1,buissons
1369,1,cachez
1370,1,cachons
1371,1,cachât
1372,1,calme
1373,1,calmer
1374,1,calmes
1375,1,camp
1376,1,capable
1377,1,capitaines
1378,1,cause
1379,1,causer
1380,1,cendre
1381,1,cent
1382,1,certain
1383,1,certaine
1384,1,certaines
1385,1,certains
1386,1,cesse
1387,1,cesser
1388,1,cessé
1389,1,chambre
1390,1,chancelant
1391,1,changer
1392,1,changé
1393,1,charge
1394,1,charger
1395,1,charme
1396,1,charmer
1397,1,charmé
1398,1,charmée
1399,1,chasser
1400,1,chaîne
1401,1,chercha
1402,1,choisir
1403,1,choisissant
1404,1,choisit
1405,1,chères
1406,1,chérit
1407,1,clair
1408,1,clarté
1409,1,combattants
1410,1,combattrai
1411,1,combattre
1412,1,commande
1413,1,commandement
1414,1,commandez
1415,1,commandé
1416,1,commencement
1417,1,commencez
1418,1,commencèrent
1419,1,commerce
1420,1,commettrons
1421,1,commun
1422,1,commune
1423,1,compagne
1424,1,complot
1425,1,composent
1426,1,comprendre
1427,1,concernant
1428,1,conclu
1429,1,condamner
1430,1,condamnerons
1431,1,conduisis
1432,1,confessait
1433,1,confessant
1434,1,confiance
1435,1,confident
1436,1,confidente
1437,1,confirmera
1438,1,confonde
1439,1,confondiez
1440,1,conjurent
1441,1,conjurés
1442,1,consacré
1443,1,conseillant
1444,1,conseille
1445,1,conseiller
1446,1,conseillers
1447,1,consent
1448,1,consentez
1449,1,consenti
1450,1,consentir
1451,1,considérerai
1452,1,consistait
1453,1,consiste
1454,1,consolerais
1455,1,conspire
1456,1,constante
1457,1,consulté
1458,1,contentai
1459,1,contentement
1460,1,contenterai
1461,1,contenterais
1462,1,contentez
1463,1,contraintes
1464,1,convertis
1465,1,convertit
1466,1,conçois
1467,1,corrigerons
1468,1,corrompre
1469,1,corrompt
1470,1,corrompue
1471,1,corrompus
1472,1,couler
1473,1,couleur
1474,1,couleurs
1475,1,coupables
1476,1,courages
1477,1,courant
1478,1,courez
1479,1,couronnait
1480,1,couronner
1481,1,courrier
1482,1,court
1483,1,couvert
1484,1,craindrais
1485,1,craindront
1486,1,craintifs
1487,1,cri
1488,1,criais
1489,1,crie
1490,1,criminels
1491,1,croirai
1492,1,croirez
1493,1,croyais
1494,1,croyant
1495,1,croyiez
1496,1,croître
1497,1,crût
1498,1,cueillir
1499,1,cède
1500,1,cédant
1501,1,céderai
1502,1,degrés
1503,1,demain
1504,1,demandait
1505,1,demandes
1506,1,demandons
1507,1,demeura
1508,1,demeurer
1509,1,demeurera
1510,1,demeureront
1511,1,demeuré
1512,1,demi
1513,1,dernière
1514,1,descendre
1515,1,dessous
1516,1,dessus
1517,1,devaient
1518,1,devais
1519,1,devançant
1520,1,devenus
1521,1,deviendra
1522,1,deviez
1523,1,devins
1524,1,devoirs
1525,1,devra
1526,1,devrai
1527,1,die
1528,1,diffamant
1529,1,différents
1530,1,différer
1531,1,différez
1532,1,diligence
1533,1,dirait
1534,1,direz
1535,1,disais
1536,1,disant
1537,1,discord
1538,1,dise
1539,1,disgrâces
1540,1,disposer
1541,1,dispute
1542,1,disputez
1543,1,dissipe
1544,1,dissiper
1545,1,distinguer
1546,1,doivent
1547,1,domptant
1548,1,dompte
1549,1,domptés
1550,1,don
1551,1,donnerai
1552,1,donneraient
1553,1,donnerait
1554,1,donneriez
1555,1,donnée
1556,1,douce
1557,1,doucement
1558,1,douceurs
1559,1,doux
1560,1,durant
1561,1,dure
1562,1,dynamis
1563,1,déclarant
1564,1,déclare
1565,1,découvre
1566,1,défaire
1567,1,défait
1568,1,défendaient
1569,1,défendent
1570,1,défendrais
1571,1,défendrons
1572,1,défenseur
1573,1,défie
1574,1,défier
1575,1,dégageons
1576,1,déguiser
1577,1,délateur
1578,1,délices
1579,1,délivrer
1580,1,démentir
1581,1,départ
1582,1,déplorable
1583,1,déplore
1584,1,dépouillant
1585,1,déroute
1586,1,désarmé
1587,1,désespoir
1588,1,désespère
1589,1,désespérer
1590,1,déshonorait
1591,1,désiré
1592,1,désunissant
1593,1,détesta
1594,1,détestables
1595,1,détesté
1596,1,détourne
1597,1,détours
1598,1,dévorant
1599,1,eaux
1600,1,effacer
1601,1,effacés
1602,1,effets
1603,1,emploierai
1604,1,emploierez
1605,1,emprunte
1606,1,empêchements
1607,1,enchanté
1608,1,enchaîner
1609,1,enchaîné
1610,1,enflamme
1611,1,enfuit
1612,1,engagé
1613,1,enlever
1614,1,enlevé
1615,1,ennemie
1616,1,ennuis
1617,1,ensemble
1618,1,ensuite
1619,1,entendit
1620,1,entends
1621,1,entendu
1622,1,entière
1623,1,entraînèrent
1624,1,entreprendrai
1625,1,entreprendre
1626,1,entrer
1627,1,entretenir
1628,1,entretien
1629,1,entrez
1630,1,envenimé
1631,1,envenimée
1632,1,envieux
1633,1,environne
1634,1,es
1635,1,espion
1636,1,espèce
1637,1,espèrent
1638,1,espérais
1639,1,espérant
1640,1,estimant
1641,1,estimerai
1642,1,estimiez
1643,1,estimé
1644,1,eu
1645,1,eussiez
1646,1,excusable
1647,1,excusent
1648,1,excède
1649,1,excès
1650,1,exemple
1651,1,exemples
1652,1,exercez
1653,1,exil
1654,1,expirant
1655,1,expire
1656,1,exploit
1657,1,exploits
1658,1,exposer
1659,1,extrémité
1660,1,exécrable
1661,1,exécuterais
1662,1,exécutons
1663,1,facilement
1664,1,facilité
1665,1,factieux
1666,1,faction
1667,1,faiblesse
1668,1,faisais
1669,1,faite
1670,1,faits
1671,1,faix
1672,1,fantôme
1673,1,fardeau
1674,1,fausse
1675,1,fautes
1676,1,feintes
1677,1,ferais
1678,1,ferez
1679,1,ferme
1680,1,fermer
1681,1,fermé
1682,1,fertile
1683,1,fertiles
1684,1,fidélité
1685,1,figurer
1686,1,fini
1687,1,finit
1688,1,fis
1689,1,flanc
1690,1,flatta
1691,1,flattais
1692,1,flattant
1693,1,flattiez
1694,1,flatté
1695,1,fleurir
1696,1,florissant
1697,1,flots
1698,1,flottant
1699,1,flotte
1700,1,folle
1701,1,fonde
1702,1,fondement
1703,1,fondé
1704,1,forcez
1705,1,formait
1706,1,former
1707,1,formèrent
1708,1,formé
1709,1,fortes
1710,1,foudres
1711,1,foudroieront
1712,1,foudroyé
1713,1,fouler
1714,1,frappant
1715,1,frémir
1716,1,frénésie
1717,1,funestes
1718,1,funèbres
1719,1,furies
1720,1,fâcheux
1721,1,félicités
1722,1,gagna
1723,1,gagnai
1724,1,gagne
1725,1,gagnez
1726,1,gardaient
1727,1,gardant
1728,1,gardent
1729,1,gardez
1730,1,glace
1731,1,glissa
1732,1,gouffres
1733,1,gouverner
1734,1,goûter
1735,1,géants
1736,1,gémir
1737,1,généreuse
1738,1,gêne
1739,1,gêner
1740,1,habité
1741,1,hait
1742,1,halicarnasse
1743,1,hardi
1744,1,hardie
1745,1,hardis
1746,1,hasard
1747,1,hasarde
1748,1,haute
1749,1,hautement
1750,1,haïssant
1751,1,heureuse
1752,1,heureuses
1753,1,hier
1754,1,honora
1755,1,honorables
1756,1,honorer
1757,1,horreurs
1758,1,hors
1759,1,hâte
1760,1,hâtez
1761,1,hésiter
1762,1,idolâtre
1763,1,ignorance
1764,1,ignore
1765,1,illusion
1766,1,image
1767,1,imite
1768,1,immole
1769,1,immoler
1770,1,immolerions
1771,1,immortels
1772,1,impitoyables
1773,1,imposture
1774,1,imprime
1775,1,impuissance
1776,1,incertain
1777,1,incertains
1778,1,inconstance
1779,1,inconstante
1780,1,incroyable
1781,1,incurables
1782,1,indifférence
1783,1,indifférent
1784,1,indignes
1785,1,infini
1786,1,infinis
1787,1,infortune
1788,1,infortuné
1789,1,ingrate
1790,1,ingrats
1791,1,ingénieux
1792,1,inhumaines
1793,1,injures
1794,1,injurieux
1795,1,injustice
1796,1,insensibles
1797,1,insensé
1798,1,insensée
1799,1,insigne
1800,1,inspirent
1801,1,inspirer
1802,1,instrument
1803,1,intelligence
1804,1,interdit
1805,1,intéressés
1806,1,invincible
1807,1,invincibles
1808,1,invoque
1809,1,inébranlable
1810,1,iphis
1811,1,ira
1812,1,irais
1813,1,irait
1814,1,irrévocable
1815,1,jalousie
1816,1,jaloux
1817,1,jetait
1818,1,jetez
1819,1,jeune
1820,1,joignit
1821,1,jouir
1822,1,jouissez
1823,1,jugé
1824,1,laissant
1825,1,laissons
1826,1,lamentable
1827,1,lancera
1828,1,langage
1829,1,languir
1830,1,larmes
1831,1,lasse
1832,1,levai
1833,1,libres
1834,1,libéral
1835,1,licomédon
1836,1,ligdame
1837,1,limites
1838,1,lit
1839,1,livre
1840,1,lié
1841,1,long
1842,1,lors
1843,1,lycidas
1844,1,lycie
1845,1,lyciens
1846,1,lâchement
1847,1,lâches
1848,1,lève
1849,1,lé
1850,1,légions
1851,1,maintenir
1852,1,malade
1853,1,malaisé
1854,1,manque
1855,1,manqué
1856,1,maîtresses
1857,1,menaces
1858,1,menacé
1859,1,menait
1860,1,mensonges
1861,1,mercenaire
1862,1,merci
1863,1,mette
1864,1,meurtrier
1865,1,miens
1866,1,milieu
1867,1,mine
1868,1,mise
1869,1,moindre
1870,1,moindres
1871,1,monstres
1872,1,monta
1873,1,monte
1874,1,montent
1875,1,monterais
1876,1,montrent
1877,1,montrât
1878,1,mordra
1879,1,mourante
1880,1,mourrais
1881,1,mourrait
1882,1,mourut
1883,1,mystère
1884,1,mène
1885,1,méconnaîtrais
1886,1,mécontents
1887,1,méprisant
1888,1,mépriser
1889,1,mériteriez
1890,1,métier
1891,1,mêle
1892,1,naissant
1893,1,naquit
1894,1,naturel
1895,1,naufrages
1896,1,naît
1897,1,naîtra
1898,1,nierai
1899,1,noircir
1900,1,noircit
1901,1,noires
1902,1,noirs
1903,1,nommant
1904,1,noms
1905,1,nouer
1906,1,nourrir
1907,1,nouveau
1908,1,nouvel
1909,1,nuage
1910,1,nuisible
1911,1,nuit
1912,1,nuits
1913,1,né
1914,1,néant
1915,1,nécessaires
1916,1,née
1917,1,oblige
1918,1,obligez
1919,1,obscurcie
1920,1,obstiné
1921,1,obtenez
1922,1,obtiendra
1923,1,obtiendrez
1924,1,obéissant
1925,1,obéissante
1926,1,occuperai
1927,1,offense
1928,1,offrait
1929,1,offrirai
1930,1,ombres
1931,1,opinions
1932,1,opposer
1933,1,opposés
1934,1,opprime
1935,1,or
1936,1,orages
1937,1,ordinaire
1938,1,ordonne
1939,1,oreilles
1940,1,orgueilleuse
1941,1,orgueilleuses
1942,1,orgueilleux
1943,1,origine
1944,1,osa
1945,1,osent
1946,1,oublia
1947,1,oubliant
1948,1,oublier
1949,1,outrageai
1950,1,ouvrage
1951,1,ouïr
1952,1,paisible
1953,1,palmes
1954,1,paraissait
1955,1,paraisse
1956,1,paraissez
1957,1,paraîtra
1958,1,pardonné
1959,1,pareils
1960,1,parfaites
1961,1,parfaits
1962,1,parlais
1963,1,parlant
1964,1,parlent
1965,1,parler
1966,1,parlera
1967,1,parleraient
1968,1,parlerez
1969,1,parles
1970,1,parlez
1971,1,parlons
1972,1,parlé
1973,1,parole
1974,1,partager
1975,1,partez
1976,1,partisans
1977,1,paru
1978,1,passais
1979,1,passez
1980,1,passés
1981,1,patience
1982,1,paît
1983,1,peignent
1984,1,penchants
1985,1,pendant
1986,1,pensent
1987,1,penses
1988,1,pensée
1989,1,perdant
1990,1,perde
1991,1,perdons
1992,1,perdrai
1993,1,perdrait
1994,1,perdrez
1995,1,perfidie
1996,1,permettra
1997,1,permettrez
1998,1,permise
1999,1,persuadez
2000,1,pesant
2001,1,peste
2002,1,pestes
2003,1,petit
2004,1,peux
2005,1,phare
2006,1,pharnasse
2007,1,philon
2008,1,phorbas
2009,1,pilote
2010,1,pis
2011,1,plaignant
2012,1,plaire
2013,1,plaisir
2014,1,plaît
2015,1,pleine
2016,1,pleureront
2017,1,pleuré
2018,1,poids
2019,1,poignards
2020,1,poison
2021,1,poisons
2022,1,portent
2023,1,portion
2024,1,portés
2025,1,possèdent
2026,1,potentats
2027,1,poudre
2028,1,pourrai
2029,1,pourriez
2030,1,pourront
2031,1,poursuites
2032,1,poursuivais
2033,1,poursuivra
2034,1,poursuivre
2035,1,pourvu
2036,1,poussa
2037,1,poussèrent
2038,1,pouvant
2039,1,pratique
2040,1,premières
2041,1,prenais
2042,1,prescrites
2043,1,pressante
2044,1,preuves
2045,1,prier
2046,1,princesse
2047,1,prise
2048,1,prison
2049,1,priva
2050,1,prive
2051,1,privé
2052,1,probité
2053,1,prodige
2054,1,produire
2055,1,profite
2056,1,profiter
2057,1,profond
2058,1,profonde
2059,1,promet
2060,1,promettait
2061,1,promette
2062,1,promettre
2063,1,promit
2064,1,prompt
2065,1,prompte
2066,1,promptement
2067,1,promîtes
2068,1,prononcer
2069,1,propos
2070,1,propres
2071,1,prosterné
2072,1,protecteurs
2073,1,proteste
2074,1,provoqué
2075,1,prudent
2076,1,près
2077,1,précieux
2078,1,précipitèrent
2079,1,préférable
2080,1,préférât
2081,1,prépare
2082,1,préparer
2083,1,présage
2084,1,présentais
2085,1,présentant
2086,1,présenterai
2087,1,présentez
2088,1,présenté
2089,1,prétend
2090,1,prétexte
2091,1,prévu
2092,1,prêter
2093,1,prêtes
2094,1,puissantes
2095,1,puissiez
2096,1,puni
2097,1,punis
2098,1,pur
2099,1,pureté
2100,1,purger
2101,1,pus
2102,1,pussent
2103,1,père
2104,1,pères
2105,1,pèse
2106,1,périls
2107,1,périrait
2108,1,périssant
2109,1,périsse
2110,1,périssent
2111,1,périssons
2112,1,qualités
2113,1,quelles
2114,1,quitterai
2115,1,rallier
2116,1,ramène
2117,1,rappelant
2118,1,rappelle
2119,1,rayon
2120,1,rebutaient
2121,1,recevais
2122,1,recevant
2123,1,recevez
2124,1,recevrait
2125,1,recevrons
2126,1,recherche
2127,1,redevable
2128,1,redonne
2129,1,refuge
2130,1,refusent
2131,1,refuser
2132,1,refuseront
2133,1,regardons
2134,1,regards
2135,1,regardé
2136,1,regrette
2137,1,reines
2138,1,relever
2139,1,relevez
2140,1,relevé
2141,1,relèvera
2142,1,remarque
2143,1,remettront
2144,1,remontrer
2145,1,rempart
2146,1,remplir
2147,1,remplit
2148,1,remporter
2149,1,remportez
2150,1,remportât
2151,1,remporté
2152,1,renaissante
2153,1,rencontrant
2154,1,rencontre
2155,1,rencontré
2156,1,rendant
2157,1,rende
2158,1,rendraient
2159,1,rendrait
2160,1,rendrez
2161,1,renommé
2162,1,renverse
2163,1,renvoyer
2164,1,renvoyé
2165,1,repasser
2166,1,repentis
2167,1,repentit
2168,1,reposez
2169,1,reprendrez
2170,1,reproches
2171,1,repue
2172,1,respecte
2173,1,respectueux
2174,1,respire
2175,1,ressens
2176,1,ressentiment
2177,1,retenez
2178,1,retenir
2179,1,retiendront
2180,1,retient
2181,1,retint
2182,1,retirait
2183,1,retire
2184,1,retirent
2185,1,retirer
2186,1,retraite
2187,1,reverrai
2188,1,reviens
2189,1,revêtu
2190,1,reçoivent
2191,1,riante
2192,1,rigoureux
2193,1,rigueur
2194,1,risée
2195,1,rival
2196,1,robuste
2197,1,roches
2198,1,rompons
2199,1,romps
2200,1,royal
2201,1,royales
2202,1,ruiner
2203,1,ruinons
2204,1,ruiné
2205,1,ruinés
2206,1,règlement
2207,1,rébellion
2208,1,récompensant
2209,1,récompense
2210,1,réduire
2211,1,réduisez
2212,1,réduite
2213,1,régnait
2214,1,régnerons
2215,1,régnons
2216,1,régné
2217,1,répands
2218,1,répandu
2219,1,réparer
2220,1,répond
2221,1,répondez
2222,1,répondrez
2223,1,résister
2224,1,résolu
2225,1,résolve
2226,1,rétabli
2227,1,révolté
2228,1,révère
2229,1,sacrifiant
2230,1,sacré
2231,1,sain
2232,1,sainteté
2233,1,saints
2234,1,saisir
2235,1,salutaires
2236,1,sanguinaire
2237,1,satisfait
2238,1,satisfaite
2239,1,satisfaits
2240,1,saura
2241,1,saurai
2242,1,sauraient
2243,1,saurions
2244,1,saurons
2245,1,sauverai
2246,1,sauvons
2247,1,savais
2248,1,savait
2249,1,savons
2250,1,secrète
2251,1,secrètement
2252,1,secrètes
2253,1,semblait
2254,1,semblent
2255,1,sens
2256,1,serais
2257,1,seront
2258,1,servait
2259,1,service
2260,1,servit
2261,1,servitude
2262,1,sien
2263,1,simple
2264,1,sitôt
2265,1,soldat
2266,1,sombre
2267,1,sombres
2268,1,sommeil
2269,1,songe
2270,1,songeons
2271,1,songes
2272,1,sors
2273,1,sortirai
2274,1,souci
2275,1,soucis
2276,1,soudain
2277,1,souffrirez
2278,1,soulager
2279,1,soulagera
2280,1,soulever
2281,1,soumis
2282,1,soupire
2283,1,soutiendrai
2284,1,soutiendrais
2285,1,soutiendrez
2286,1,souvenir
2287,1,spectacle
2288,1,splendeur
2289,1,stable
2290,1,succède
2291,1,succéder
2292,1,suivaient
2293,1,suivons
2294,1,suivrons
2295,1,suppliant
2296,1,supporter
2297,1,supposez
2298,1,suprême
2299,1,surmonter
2300,1,surmonté
2301,1,surmontés
2302,1,surpasse
2303,1,surprend
2304,1,suspecte
2305,1,suspendons
2306,1,suspendrons
2307,1,séjourner
2308,1,sépulture
2309,1,sévère
2310,1,tarder
2311,1,tarit
2312,1,tas
2313,1,tel
2314,1,temples
2315,1,tempête
2316,1,tendent
2317,1,tends
2318,1,tenez
2319,1,tenter
2320,1,tenté
2321,1,tien
2322,1,tiendrais
2323,1,tienne
2324,1,tiennent
2325,1,tiens
2326,1,tient
2327,1,timide
2328,1,tira
2329,1,tire
2330,1,tirons
2331,1,titre
2332,1,tomba
2333,1,tombai
2334,1,tombeau
2335,1,tombera
2336,1,tort
2337,1,toucha
2338,1,toucher
2339,1,tournent
2340,1,tours
2341,1,tracer
2342,1,tragique
2343,1,tragiques
2344,1,tragédie
2345,1,trahison
2346,1,trait
2347,1,traite
2348,1,traiter
2349,1,trame
2350,1,transforme
2351,1,transports
2352,1,travail
2353,1,travaillez
2354,1,traverser
2355,1,traversé
2356,1,tremblé
2357,1,triomphent
2358,1,triomphera
2359,1,triomphé
2360,1,tristement
2361,1,trois
2362,1,tromperez
2363,1,trompeuse
2364,1,troublant
2365,1,troubler
2366,1,trouva
2367,1,trouvai
2368,1,trouverai
2369,1,trouverez
2370,1,trôner
2371,1,tumulte
2372,1,tyrannique
2373,1,témoignage
2374,1,témoignez
2375,1,téméraires
2376,1,témérité
2377,1,ténèbres
2378,1,usurper
2379,1,usurpât
2380,1,vaincra
2381,1,vaincront
2382,1,vaincus
2383,1,vainement
2384,1,vainquons
2385,1,vais
2386,1,vaisseaux
2387,1,valeur
2388,1,vante
2389,1,vanter
2390,1,vas
2391,1,veines
2392,1,venaient
2393,1,venais
2394,1,venez
2395,1,vengeant
2396,1,vengeons
2397,1,vengera
2398,1,vengerais
2399,1,vengerions
2400,1,vengiez
2401,1,vengions
2402,1,venons
2403,1,vents
2404,1,verrais
2405,1,verrait
2406,1,verras
2407,1,verrons
2408,1,versa
2409,1,verser
2410,1,verseront
2411,1,versé
2412,1,vertueuses
2413,1,vertueux
2414,1,veuille
2415,1,viendra
2416,1,viendrait
2417,1,vint
2418,1,violent
2419,1,vis
2420,1,visage
2421,1,vise
2422,1,visible
2423,1,vogué
2424,1,voient
2425,1,vol
2426,1,voluptés
2427,1,voudraient
2428,1,vouliez
2429,1,voulus
2430,1,voulut
2431,1,voulût
2432,1,voyaient
2433,1,voyait
2434,1,vrais
2435,1,vécu
2436,1,véhément
2437,1,véritables
2438,1,vôtre
2439,1,âmes
2440,1,écarté
2441,1,échauffe
2442,1,éclaircisse
2443,1,éclaire
2444,1,éclatante
2445,1,éclatantes
2446,1,éclatants
2447,1,écoute
2448,1,écoutez
2449,1,écrie
2450,1,écrier
2451,1,écueil
2452,1,égare
2453,1,éloigniez
2454,1,ému
2455,1,épargnerai
2456,1,épouse
2457,1,épouser
2458,1,épreuve
2459,1,éprouve
2460,1,éprouvent
2461,1,éprouver
2462,1,éprouvons
2463,1,épée
2464,1,équitables
2465,1,établir
2466,1,étaient
2467,1,étonnement
2468,1,étonnent
2469,1,étonner
2470,1,étonnons
2471,1,étonnés
2472,1,étouffant
2473,1,étouffe
2474,1,étoufferai
2475,1,étouffé
2476,1,étranger
2477,1,étrangers
2478,1,étranges
2479,1,étudie
2480,1,ôtera
2481,1,ôterez
2482,1,ôtez
2483,1,ôtât
