1,464,de
2,423,et
3,347,l
4,344,à
5,340,un
6,321,que
7,315,la
8,311,vous
9,304,le
10,296,qu
11,285,il
12,270,en
13,264,d
14,256,est
15,245,ce
16,227,je
17,227,pour
18,151,qui
19,145,si
20,144,mon
21,131,n
22,130,son
23,122,par
24,122,sa
25,120,s
26,117,a
27,117,ne
28,114,me
29,112,dans
30,108,j
31,103,mais
32,100,m
33,100,ma
34,91,les
35,88,nous
36,85,c
37,83,votre
38,81,lui
39,81,on
40,80,sans
41,80,une
42,76,pas
43,74,plus
44,73,coeur
45,73,fait
46,72,au
47,64,quoi
48,60,ses
49,60,timocrate
50,60,trop
51,58,être
52,57,ai
53,57,cléomène
54,56,amour
55,56,peut
56,55,moi
57,53,du
58,53,se
59,52,gloire
60,51,reine
61,51,tout
62,50,des
63,50,où
64,48,enfin
65,48,mes
66,48,roi
67,47,madame
68,47,sur
69,46,espoir
70,45,aux
71,43,bien
72,43,haine
73,42,elle
74,42,quand
75,42,voir
76,41,dont
77,41,vos
78,40,moins
79,39,dieux
80,39,tu
81,38,avec
82,37,faire
83,36,cet
84,36,cette
85,36,mort
86,36,non
87,34,ces
88,34,même
89,34,peu
90,32,contre
91,32,leur
92,32,point
93,32,rien
94,32,sang
95,31,ose
96,31,princesse
97,30,état
98,29,dois
99,29,encor
100,29,quel
101,28,ciel
102,28,ennemi
103,28,foi
104,28,hymen
105,28,seigneur
106,28,seul
107,28,sort
108,28,y
109,27,crète
110,27,grand
111,26,nos
112,26,trasille
113,26,vertu
114,26,voeux
115,25,deux
116,25,doit
117,25,doute
118,25,prix
119,25,victoire
120,24,ah
121,24,déjà
122,23,courroux
123,23,t
124,23,tel
125,22,crime
126,22,mieux
127,22,ont
128,22,peine
129,22,prince
130,22,puis
131,22,quelque
132,22,soit
133,21,assez
134,21,effet
135,21,faut
136,21,ton
137,21,toute
138,21,trône
139,21,âme
140,20,ait
141,20,comme
142,20,devoir
143,20,sont
144,20,ta
145,20,était
146,19,après
147,19,argos
148,19,car
149,19,donc
150,19,honneur
151,19,ils
152,19,ou
153,19,tant
154,19,ô
155,18,ainsi
156,18,avoir
157,18,combat
158,18,nicandre
159,18,oui
160,18,secret
161,18,vengeance
162,18,éclat
163,17,effort
164,17,eut
165,17,jamais
166,17,lâche
167,17,veut
168,17,vois
169,17,zèle
170,17,époux
171,16,aujourd
172,16,croire
173,16,hui
174,16,orgueil
175,16,rival
176,16,serments
177,16,toujours
178,16,tous
179,16,vainqueur
180,16,vient
181,16,yeux
182,15,arcas
183,15,avantage
184,15,dessein
185,15,ici
186,15,jour
187,15,là
188,15,malheur
189,15,paix
190,15,pu
191,15,puisque
192,15,rang
193,15,sentiments
194,15,toi
195,14,jusqu
196,14,juste
197,14,nom
198,14,plaindre
199,14,sujet
200,14,te
201,14,vain
202,14,vu
203,13,courage
204,13,craindre
205,13,doux
206,13,glorieux
207,13,hélas
208,13,ordre
209,13,paraître
210,13,pouvoir
211,13,princes
212,13,prise
213,13,rendre
214,13,respect
215,13,rivaux
216,13,su
217,12,avait
218,12,avant
219,12,digne
220,12,donne
221,12,fort
222,12,heureux
223,12,malgré
224,12,prisonnier
225,12,sais
226,12,trahir
227,12,veux
228,12,victime
229,11,abord
230,11,armes
231,11,aussi
232,11,avez
233,11,avis
234,11,bonheur
235,11,bras
236,11,eux
237,11,feu
238,11,flatter
239,11,funeste
240,11,lieu
241,11,lorsque
242,11,mal
243,11,perdre
244,11,raison
245,11,sous
246,11,va
247,10,alors
248,10,appas
249,10,aurait
250,10,autre
251,10,couronne
252,10,donner
253,10,exploits
254,10,flamme
255,10,illustre
256,10,ingrat
257,10,main
258,10,mains
259,10,notre
260,10,offre
261,10,parlez
262,10,parti
263,10,peuple
264,10,refus
265,10,suis
266,9,agir
267,9,amant
268,9,ayant
269,9,colère
270,9,connaître
271,9,coupable
272,9,crois
273,9,destin
274,9,dire
275,9,désirs
276,9,effroi
277,9,engage
278,9,fatal
279,9,faux
280,9,feux
281,9,guerre
282,9,intérêt
283,9,jusques
284,9,laisse
285,9,loin
286,9,lois
287,9,montrer
288,9,mériter
289,9,puisqu
290,9,savoir
291,9,servir
292,9,vaincre
293,9,vie
294,9,ville
295,9,êtes
296,8,aime
297,8,alarmes
298,8,appui
299,8,attendre
300,8,bas
301,8,bruit
302,8,cléone
303,8,confus
304,8,contraire
305,8,coup
306,8,dit
307,8,expliquer
308,8,expose
309,8,fers
310,8,fille
311,8,fois
312,8,fureur
313,8,haut
314,8,haïr
315,8,hommage
316,8,héros
317,8,indigne
318,8,joie
319,8,jugez
320,8,malheurs
321,8,naissance
322,8,outrage
323,8,perte
324,8,plutôt
325,8,prendre
326,8,puisse
327,8,quelle
328,8,rend
329,8,sceptre
330,8,serait
331,8,seule
332,8,souffrir
333,8,soupçon
334,8,suivre
335,8,vouloir
336,8,voulu
337,7,adresse
338,7,aimer
339,7,ambitieux
340,7,anime
341,7,ardeur
342,7,avecque
343,7,aveu
344,7,cause
345,7,contrainte
346,7,cru
347,7,crû
348,7,dernier
349,7,droit
350,7,démochare
351,7,ennemis
352,7,estime
353,7,faiblesse
354,7,faites
355,7,fit
356,7,flatte
357,7,fut
358,7,honte
359,7,injustice
360,7,naître
361,7,partout
362,7,plaire
363,7,premier
364,7,pris
365,7,propre
366,7,revers
367,7,rigueur
368,7,sait
369,7,serment
370,7,soutenir
371,7,succès
372,7,temps
373,7,tête
374,7,venger
375,7,voit
376,7,étouffer
377,6,accord
378,6,achever
379,6,ambassadeur
380,6,aura
381,6,aurez
382,6,belle
383,6,cacher
384,6,celui
385,6,cependant
386,6,cessez
387,6,choix
388,6,conseil
389,6,cruel
390,6,douleur
391,6,dû
392,6,entre
393,6,fortune
394,6,grands
395,6,jaloux
396,6,leurs
397,6,lieux
398,6,lorsqu
399,6,mien
400,6,montre
401,6,murmure
402,6,né
403,6,passion
404,6,perds
405,6,pieds
406,6,pourquoi
407,6,prétendre
408,6,respecter
409,6,retour
410,6,reçu
411,6,rude
412,6,semble
413,6,sens
414,6,soi
415,6,soins
416,6,surpris
417,6,temple
418,6,tiens
419,6,triomphe
420,6,trouble
421,6,vrai
422,6,vôtre
423,6,éclate
424,6,épargner
425,5,aimé
426,5,alarme
427,5,ambition
428,5,apprendre
429,5,arrêt
430,5,aspire
431,5,assurez
432,5,attaquer
433,5,attend
434,5,attentat
435,5,aucun
436,5,audace
437,5,beau
438,5,bel
439,5,bientôt
440,5,bon
441,5,capable
442,5,chacun
443,5,cherche
444,5,craignez
445,5,crainte
446,5,croit
447,5,demander
448,5,depuis
449,5,devant
450,5,discours
451,5,défendre
452,5,désespoir
453,5,désordre
454,5,entendre
455,5,entière
456,5,envie
457,5,esprit
458,5,espérer
459,5,explique
460,5,faible
461,5,fais
462,5,faisant
463,5,fausse
464,5,forcée
465,5,foudre
466,5,fourbe
467,5,fuite
468,5,hors
469,5,imposture
470,5,intéresse
471,5,intérêts
472,5,justice
473,5,lâcheté
474,5,légitime
475,5,maux
476,5,maître
477,5,mettre
478,5,mânes
479,5,mémoire
480,5,mépris
481,5,mérite
482,5,mérité
483,5,nobles
484,5,offense
485,5,offrir
486,5,ouverte
487,5,paraît
488,5,parjure
489,5,parler
490,5,partager
491,5,pitié
492,5,porter
493,5,pourrait
494,5,premiers
495,5,punir
496,5,père
497,5,péril
498,5,périr
499,5,rendu
500,5,reproche
501,5,respects
502,5,saurait
503,5,secrète
504,5,semblait
505,5,sentiment
506,5,seulement
507,5,silence
508,5,sujets
509,5,supplice
510,5,tes
511,5,tour
512,5,traître
513,5,trembler
514,5,trouve
515,5,tyran
516,5,vaincu
517,5,vaisseaux
518,5,voyez
519,5,étonne
520,4,abandonne
521,4,abattu
522,4,accuse
523,4,aigreur
524,4,allons
525,4,apaiser
526,4,apprends
527,4,apprête
528,4,assurance
529,4,assure
530,4,assurer
531,4,aurais
532,4,auriez
533,4,aussitôt
534,4,autant
535,4,autorise
536,4,autres
537,4,avais
538,4,avance
539,4,avouer
540,4,balancer
541,4,besoin
542,4,braver
543,4,certaine
544,4,ceux
545,4,chaque
546,4,chère
547,4,coeurs
548,4,combats
549,4,combattre
550,4,comprendre
551,4,conduite
552,4,connais
553,4,connaît
554,4,connu
555,4,conquête
556,4,crains
557,4,daignez
558,4,demande
559,4,dites
560,4,doive
561,4,doivent
562,4,dès
563,4,défend
564,4,détruire
565,4,entreprise
566,4,espérance
567,4,eût
568,4,fera
569,4,fierté
570,4,flotte
571,4,font
572,4,force
573,4,grandeur
574,4,grâce
575,4,grèce
576,4,généreux
577,4,hautement
578,4,honteux
579,4,horreur
580,4,immoler
581,4,ingrate
582,4,ingratitude
583,4,inspire
584,4,iphite
585,4,jette
586,4,justifier
587,4,laisser
588,4,larmes
589,4,lâchement
590,4,malheureux
591,4,marques
592,4,menace
593,4,moindres
594,4,ni
595,4,noir
596,4,objet
597,4,obstacle
598,4,obstine
599,4,osant
600,4,osé
601,4,parle
602,4,part
603,4,partage
604,4,pense
605,4,pensée
606,4,permet
607,4,pouvez
608,4,pouviez
609,4,presse
610,4,prison
611,4,projet
612,4,promis
613,4,quels
614,4,rare
615,4,redouter
616,4,regret
617,4,reste
618,4,régler
619,4,répandre
620,4,résoudre
621,4,sauver
622,4,secours
623,4,sien
624,4,songer
625,4,soumis
626,4,soupirer
627,4,soupirs
628,4,souvent
629,4,taire
630,4,terre
631,4,tient
632,4,tirer
633,4,triompher
634,4,triste
635,4,trouver
636,4,téméraire
637,4,témérité
638,4,vaillant
639,4,vainc
640,4,vers
641,4,viens
642,4,voici
643,4,égal
644,4,étant
645,4,été
646,3,absolu
647,3,abuser
648,3,accable
649,3,accuser
650,3,affermi
651,3,afin
652,3,aisé
653,3,allez
654,3,ami
655,3,amène
656,3,ans
657,3,arme
658,3,armez
659,3,armé
660,3,armée
661,3,arracher
662,3,artifice
663,3,as
664,3,aspirer
665,3,assuré
666,3,atteste
667,3,aveugle
668,3,beaucoup
669,3,bonté
670,3,bord
671,3,borner
672,3,bout
673,3,cela
674,3,celle
675,3,certes
676,3,cesse
677,3,charmes
678,3,charmée
679,3,chasser
680,3,cher
681,3,chercher
682,3,commune
683,3,complice
684,3,conduit
685,3,confond
686,3,confondre
687,3,conseils
688,3,contraindre
689,3,couleurs
690,3,courages
691,3,cours
692,3,couvrir
693,3,craint
694,3,cresphonte
695,3,croirais
696,3,croyez
697,3,cède
698,3,dedans
699,3,demain
700,3,dernières
701,3,devait
702,3,devons
703,3,dis
704,3,disais
705,3,disgrâce
706,3,donnant
707,3,donné
708,3,douceur
709,3,douter
710,3,due
711,3,déclare
712,3,découvre
713,3,défaut
714,3,défendu
715,3,défense
716,3,déguise
717,3,délivre
718,3,déplaît
719,3,détruit
720,3,effacé
721,3,effets
722,3,efforts
723,3,embrasse
724,3,empire
725,3,encore
726,3,ennui
727,3,erreur
728,3,espère
729,3,eu
730,3,excuse
731,3,exprès
732,3,extrême
733,3,fallait
734,3,fallut
735,3,fantôme
736,3,fasse
737,3,favorable
738,3,favorise
739,3,fils
740,3,forcer
741,3,forte
742,3,grandeurs
743,3,gêne
744,3,haï
745,3,illustres
746,3,image
747,3,imposteur
748,3,inconnu
749,3,indignes
750,3,injure
751,3,injuste
752,3,insolent
753,3,intelligence
754,3,inutile
755,3,laissé
756,3,liberté
757,3,livré
758,3,longtemps
759,3,lors
760,3,léger
761,3,majesté
762,3,messéniens
763,3,met
764,3,monter
765,3,mourir
766,3,noble
767,3,nouveau
768,3,nouveaux
769,3,nuit
770,3,oblige
771,3,occasion
772,3,odieux
773,3,opposer
774,3,orage
775,3,ordinaire
776,3,ordres
777,3,oser
778,3,oses
779,3,outre
780,3,ouvrage
781,3,pardonner
782,3,pareils
783,3,paru
784,3,permis
785,3,placer
786,3,plaint
787,3,plainte
788,3,port
789,3,porte
790,3,possède
791,3,poussé
792,3,prend
793,3,preuve
794,3,privilège
795,3,projets
796,3,prompte
797,3,propice
798,3,précipité
799,3,préférer
800,3,prête
801,3,puissent
802,3,quelques
803,3,rage
804,3,recevoir
805,3,refuser
806,3,remis
807,3,renommée
808,3,rois
809,3,répondre
810,3,satisfaire
811,3,satisfait
812,3,saura
813,3,scrupule
814,3,semblent
815,3,sera
816,3,sitôt
817,3,soin
818,3,soudain
819,3,souscrire
820,3,suite
821,3,surprend
822,3,surprendre
823,3,surprise
824,3,suspect
825,3,tais
826,3,tantôt
827,3,tels
828,3,tourment
829,3,toutefois
830,3,trahi
831,3,trahison
832,3,trame
833,3,tremble
834,3,trois
835,3,trompé
836,3,tâche
837,3,témoin
838,3,valeur
839,3,vaste
840,3,venez
841,3,venir
842,3,vieux
843,3,voulez
844,3,voulut
845,3,voyant
846,3,échappé
847,3,éclaircir
848,3,éclater
849,3,écouter
850,3,également
851,3,épouvante
852,3,états
853,3,éternel
854,3,étonner
855,2,absence
856,2,abusé
857,2,accabler
858,2,achève
859,2,acquérir
860,2,adoucir
861,2,affaiblit
862,2,affreuse
863,2,affront
864,2,agit
865,2,aient
866,2,ailleurs
867,2,aimai
868,2,aimes
869,2,aimez
870,2,aimée
871,2,alarmé
872,2,allait
873,2,aller
874,2,amants
875,2,amis
876,2,amoureux
877,2,animer
878,2,apprenez
879,2,armer
880,2,arrête
881,2,arrêter
882,2,assouvir
883,2,assurait
884,2,attache
885,2,attaquant
886,2,atteinte
887,2,attendait
888,2,attends
889,2,attire
890,2,audacieux
891,2,audience
892,2,augmente
893,2,auprès
894,2,aurai
895,2,aveuglement
896,2,aveuglément
897,2,aviez
898,2,avoue
899,2,avouerai
900,2,balance
901,2,basse
902,2,bataille
903,2,beaux
904,2,brave
905,2,bravons
906,2,bravé
907,2,brisé
908,2,brûle
909,2,caché
910,2,calme
911,2,causé
912,2,cent
913,2,chaleur
914,2,changer
915,2,charge
916,2,charme
917,2,chef
918,2,cherché
919,2,chez
920,2,choisir
921,2,chute
922,2,cieux
923,2,clair
924,2,combattant
925,2,commence
926,2,comment
927,2,commun
928,2,complots
929,2,compris
930,2,conduire
931,2,confirmée
932,2,confondant
933,2,confondu
934,2,connaissant
935,2,connaissez
936,2,consentir
937,2,consulter
938,2,coups
939,2,cour
940,2,couronner
941,2,craignais
942,2,criminel
943,2,criminelle
944,2,cris
945,2,croyable
946,2,curiosité
947,2,céder
948,2,céleste
949,2,daigne
950,2,dangereux
951,2,dehors
952,2,demeurant
953,2,demeure
954,2,descendre
955,2,descente
956,2,desseins
957,2,dessus
958,2,destins
959,2,deviner
960,2,devoirs
961,2,dispense
962,2,dispenser
963,2,disposer
964,2,dispute
965,2,donnent
966,2,donnez
967,2,doride
968,2,double
969,2,dut
970,2,défaite
971,2,déguiser
972,2,dépens
973,2,déploie
974,2,désaveu
975,2,désir
976,2,effacer
977,2,embrasser
978,2,emploie
979,2,empêcher
980,2,engagé
981,2,entends
982,2,entreprendre
983,2,envi
984,2,es
985,2,esclave
986,2,eus
987,2,eusse
988,2,examiner
989,2,excuser
990,2,excès
991,2,exemple
992,2,exposer
993,2,facile
994,2,faisait
995,2,faisons
996,2,faits
997,2,fameux
998,2,famille
999,2,fausses
1000,2,faveur
1001,2,fidèle
1002,2,fier
1003,2,fin
1004,2,fruit
1005,2,fût
1006,2,gagner
1007,2,garants
1008,2,gendre
1009,2,gens
1010,2,gouverneur
1011,2,grande
1012,2,hasard
1013,2,haute
1014,2,heure
1015,2,hier
1016,2,honteuse
1017,2,hâter
1018,2,ignores
1019,2,impatient
1020,2,importance
1021,2,importe
1022,2,imprévu
1023,2,infaillible
1024,2,ingrats
1025,2,inquiétude
1026,2,interdit
1027,2,inégal
1028,2,joindre
1029,2,joins
1030,2,juge
1031,2,juger
1032,2,laissent
1033,2,lasse
1034,2,lever
1035,2,louange
1036,2,louer
1037,2,lumière
1038,2,léontidas
1039,2,magnanime
1040,2,malaisément
1041,2,mauvais
1042,2,miens
1043,2,mille
1044,2,mortelle
1045,2,mots
1046,2,mouvements
1047,2,moyen
1048,2,murs
1049,2,mène
1050,2,noeuds
1051,2,noircir
1052,2,nommant
1053,2,nouvel
1054,2,nouvelle
1055,2,nôtres
1056,2,obliger
1057,2,obéir
1058,2,offert
1059,2,offrait
1060,2,oppose
1061,2,ordonner
1062,2,osais
1063,2,osait
1064,2,oserez
1065,2,osez
1066,2,oublier
1067,2,ouï
1068,2,pareil
1069,2,parfait
1070,2,parfaite
1071,2,parlé
1072,2,parole
1073,2,parut
1074,2,peindre
1075,2,perd
1076,2,perdait
1077,2,perdue
1078,2,perfide
1079,2,permettez
1080,2,peux
1081,2,plaît
1082,2,plein
1083,2,pleurs
1084,2,ports
1085,2,porté
1086,2,pourrez
1087,2,poursuit
1088,2,poursuivant
1089,2,pourtant
1090,2,pouvaient
1091,2,pouvais
1092,2,pouvait
1093,2,pressant
1094,2,pressé
1095,2,produit
1096,2,promesse
1097,2,propose
1098,2,propres
1099,2,prépare
1100,2,présence
1101,2,présumer
1102,2,prétend
1103,2,prétentions
1104,2,prévenu
1105,2,publier
1106,2,publique
1107,2,puissance
1108,2,puissants
1109,2,pur
1110,2,put
1111,2,pût
1112,2,quatre
1113,2,reconnaître
1114,2,recule
1115,2,redoutables
1116,2,regard
1117,2,regards
1118,2,rejaillir
1119,2,remords
1120,2,rempli
1121,2,remplir
1122,2,rencontre
1123,2,rends
1124,2,renonce
1125,2,renoncer
1126,2,renvoie
1127,2,reprocher
1128,2,retire
1129,2,retraite
1130,2,reviens
1131,2,revoir
1132,2,rompre
1133,2,rougir
1134,2,rudes
1135,2,ruine
1136,2,règne
1137,2,réduit
1138,2,réparer
1139,2,répondez
1140,2,révolter
1141,2,sacrifice
1142,2,salaire
1143,2,sanglant
1144,2,sauront
1145,2,sauvant
1146,2,savez
1147,2,secourir
1148,2,secrets
1149,2,semblable
1150,2,semblé
1151,2,semé
1152,2,sensible
1153,2,sent
1154,2,seront
1155,2,sert
1156,2,service
1157,2,servie
1158,2,siens
1159,2,sollicite
1160,2,songez
1161,2,souffert
1162,2,souffre
1163,2,souffrez
1164,2,souffrons
1165,2,souhaite
1166,2,souhaité
1167,2,soumettre
1168,2,soumise
1169,2,soupçonner
1170,2,soupçons
1171,2,souvenir
1172,2,souverain
1173,2,spectacle
1174,2,sue
1175,2,suffire
1176,2,suffit
1177,2,séduire
1178,2,sûr
1179,2,tache
1180,2,telle
1181,2,tempête
1182,2,tenez
1183,2,ternir
1184,2,tienne
1185,2,timide
1186,2,titre
1187,2,tort
1188,2,touche
1189,2,toucher
1190,2,tourments
1191,2,traits
1192,2,transport
1193,2,trompeur
1194,2,trompée
1195,2,tyrans
1196,2,tâché
1197,2,témoignage
1198,2,témoins
1199,2,tôt
1200,2,user
1201,2,vais
1202,2,vaisseau
1203,2,vengeurs
1204,2,verrais
1205,2,verrons
1206,2,vertus
1207,2,veulent
1208,2,violence
1209,2,visière
1210,2,vit
1211,2,voilà
1212,2,voisins
1213,2,voler
1214,2,voudriez
1215,2,voulais
1216,2,voyais
1217,2,voyons
1218,2,âmes
1219,2,éblouir
1220,2,éclairci
1221,2,éclatant
1222,2,écoute
1223,2,égale
1224,2,élever
1225,2,éloignement
1226,2,éloigner
1227,2,épandu
1228,2,éprouver
1229,2,éviter
1230,2,ôter
1231,1,abaissement
1232,1,abaisser
1233,1,abaissât
1234,1,abaissé
1235,1,abaissée
1236,1,abandonner
1237,1,abandonnez
1238,1,abattus
1239,1,abject
1240,1,abuse
1241,1,abusât
1242,1,abusée
1243,1,accablement
1244,1,accablé
1245,1,acceptant
1246,1,accepter
1247,1,accepté
1248,1,accomplir
1249,1,accorde
1250,1,accordent
1251,1,accordez
1252,1,accordé
1253,1,accourus
1254,1,accroche
1255,1,accusant
1256,1,acheter
1257,1,achevez
1258,1,achevé
1259,1,acquiert
1260,1,acquis
1261,1,acquittera
1262,1,acquérez
1263,1,actions
1264,1,adieu
1265,1,admirant
1266,1,admirer
1267,1,adoré
1268,1,affaiblissent
1269,1,affermir
1270,1,affermit
1271,1,affranchir
1272,1,affranchis
1273,1,affranchissez
1274,1,agi
1275,1,agissant
1276,1,agréerez
1277,1,agréeront
1278,1,aigrit
1279,1,aillent
1280,1,aimable
1281,1,aimerez
1282,1,aisée
1283,1,ajouter
1284,1,alarmez
1285,1,alentit
1286,1,allais
1287,1,allentit
1288,1,allions
1289,1,allumé
1290,1,altère
1291,1,altéré
1292,1,amertume
1293,1,amitié
1294,1,amoindrir
1295,1,amorce
1296,1,amorces
1297,1,amusent
1298,1,anciens
1299,1,animaient
1300,1,animait
1301,1,animant
1302,1,animé
1303,1,annoncé
1304,1,apaisée
1305,1,aperçois
1306,1,aperçoit
1307,1,appareil
1308,1,appartient
1309,1,appeler
1310,1,appelez
1311,1,applaudir
1312,1,apprenant
1313,1,apprenons
1314,1,appris
1315,1,approuve
1316,1,appréhendais
1317,1,appréhender
1318,1,appuie
1319,1,appuis
1320,1,appuyant
1321,1,appuyé
1322,1,ardeurs
1323,1,ariston
1324,1,armait
1325,1,armât
1326,1,armés
1327,1,arrêtez
1328,1,aspect
1329,1,aspirait
1330,1,aspirerait
1331,1,aspiré
1332,1,asservie
1333,1,asservit
1334,1,assis
1335,1,assiège
1336,1,assiéger
1337,1,assujettir
1338,1,assurée
1339,1,attaché
1340,1,attachée
1341,1,attaque
1342,1,atteindre
1343,1,attendu
1344,1,attentats
1345,1,attirer
1346,1,attraits
1347,1,augure
1348,1,augurer
1349,1,auguste
1350,1,auraient
1351,1,aurions
1352,1,auteur
1353,1,autrefois
1354,1,autrui
1355,1,avaient
1356,1,avancent
1357,1,avancer
1358,1,avancera
1359,1,avantages
1360,1,avenir
1361,1,avertir
1362,1,aveugles
1363,1,avidement
1364,1,avouait
1365,1,avouera
1366,1,avéré
1367,1,ayez
1368,1,balançait
1369,1,barbare
1370,1,bassesse
1371,1,bienfaits
1372,1,bizarre
1373,1,blesse
1374,1,blesser
1375,1,blessure
1376,1,blessé
1377,1,blâmant
1378,1,bonne
1379,1,bons
1380,1,bords
1381,1,borna
1382,1,bornait
1383,1,bouche
1384,1,brille
1385,1,briller
1386,1,brise
1387,1,briser
1388,1,but
1389,1,bénissons
1390,1,cachait
1391,1,cache
1392,1,cachiez
1393,1,calmer
1394,1,calomnie
1395,1,calomnier
1396,1,camp
1397,1,caprice
1398,1,caprices
1399,1,carreaux
1400,1,causent
1401,1,celles
1402,1,certain
1403,1,cessé
1404,1,chagrin
1405,1,chaleurs
1406,1,chambre
1407,1,champ
1408,1,chancelant
1409,1,change
1410,1,changement
1411,1,changé
1412,1,charger
1413,1,charmer
1414,1,charmé
1415,1,chassa
1416,1,chassant
1417,1,chasse
1418,1,chatouiller
1419,1,chefs
1420,1,cherchant
1421,1,cherchez
1422,1,cherchions
1423,1,cherchons
1424,1,chers
1425,1,choir
1426,1,choisirais
1427,1,choisis
1428,1,choquent
1429,1,chose
1430,1,châtiment
1431,1,cimetière
1432,1,clairement
1433,1,coloré
1434,1,combattants
1435,1,combattez
1436,1,combattu
1437,1,comble
1438,1,combler
1439,1,commande
1440,1,communes
1441,1,complaisance
1442,1,complot
1443,1,comptable
1444,1,condamne
1445,1,condition
1446,1,confier
1447,1,confirmer
1448,1,confondrais
1449,1,confondus
1450,1,confronte
1451,1,confusion
1452,1,conjurés
1453,1,conquis
1454,1,consacrer
1455,1,conseillent
1456,1,conseiller
1457,1,conseillé
1458,1,consens
1459,1,consente
1460,1,conservant
1461,1,conserver
1462,1,considérable
1463,1,considérer
1464,1,conspire
1465,1,constante
1466,1,content
1467,1,contenter
1468,1,contr
1469,1,contraint
1470,1,convaincre
1471,1,convaincu
1472,1,convie
1473,1,conçu
1474,1,corrompre
1475,1,couper
1476,1,courant
1477,1,courir
1478,1,couronnant
1479,1,couronnés
1480,1,court
1481,1,coûte
1482,1,coûtera
1483,1,coûté
1484,1,craindra
1485,1,croirai
1486,1,croiras
1487,1,croyais
1488,1,croyait
1489,1,croître
1490,1,cruelle
1491,1,curieux
1492,1,cédasse
1493,1,célèbres
1494,1,cérémonies
1495,1,côté
1496,1,côtés
1497,1,daignât
1498,1,degré
1499,1,delà
1500,1,demandez
1501,1,demeurer
1502,1,demi
1503,1,dernière
1504,1,descendis
1505,1,destinais
1506,1,destiner
1507,1,destinez
1508,1,destiné
1509,1,devais
1510,1,devez
1511,1,deviendrait
1512,1,devient
1513,1,devraient
1514,1,devrait
1515,1,devrez
1516,1,devrons
1517,1,diadème
1518,1,difficile
1519,1,diffère
1520,1,différa
1521,1,différence
1522,1,différents
1523,1,différer
1524,1,dirai
1525,1,discourir
1526,1,dise
1527,1,disgrâces
1528,1,disparaître
1529,1,disputer
1530,1,dissensions
1531,1,dissimulant
1532,1,dissimuler
1533,1,divers
1534,1,divine
1535,1,divisé
1536,1,dix
1537,1,donnait
1538,1,donnerais
1539,1,donnés
1540,1,douce
1541,1,douceurs
1542,1,doutant
1543,1,douteuse
1544,1,doutez
1545,1,dresser
1546,1,dur
1547,1,dure
1548,1,dussai
1549,1,dusse
1550,1,débats
1551,1,débris
1552,1,débrouiller
1553,1,décevants
1554,1,décider
1555,1,déclarant
1556,1,déclarer
1557,1,déclarés
1558,1,décoche
1559,1,découvert
1560,1,découverte
1561,1,découvrait
1562,1,découvrant
1563,1,découvrir
1564,1,décret
1565,1,décrets
1566,1,dédaignés
1567,1,défaire
1568,1,défende
1569,1,défendent
1570,1,défendez
1571,1,défendirent
1572,1,défie
1573,1,défier
1574,1,dégager
1575,1,déguisant
1576,1,déguisent
1577,1,déguisé
1578,1,délivrant
1579,1,délivrer
1580,1,délivré
1581,1,démente
1582,1,démenti
1583,1,démentir
1584,1,démêlés
1585,1,dépend
1586,1,dépendre
1587,1,déplorait
1588,1,déplorât
1589,1,dépêche
1590,1,dépêchez
1591,1,dérobent
1592,1,dérober
1593,1,désabuser
1594,1,désarmant
1595,1,désavouait
1596,1,désavouant
1597,1,désavoueraient
1598,1,désiré
1599,1,désormais
1600,1,dûs
1601,1,eaux
1602,1,efforçait
1603,1,employer
1604,1,employons
1605,1,employé
1606,1,empoisonnez
1607,1,emportement
1608,1,emporter
1609,1,emportes
1610,1,emprunte
1611,1,emprunté
1612,1,empêchais
1613,1,empêchant
1614,1,empêchez
1615,1,empêché
1616,1,encourager
1617,1,endormie
1618,1,endure
1619,1,enflammé
1620,1,enflammée
1621,1,enflés
1622,1,enfreignent
1623,1,enfreindre
1624,1,engagent
1625,1,engageriez
1626,1,ennuis
1627,1,ensemble
1628,1,ensuite
1629,1,entend
1630,1,entreprendra
1631,1,entrer
1632,1,envelopper
1633,1,envierez
1634,1,envoya
1635,1,escadrons
1636,1,esprits
1637,1,espérez
1638,1,espérons
1639,1,esquif
1640,1,essayez
1641,1,essayons
1642,1,estimable
1643,1,estimait
1644,1,eurent
1645,1,exacte
1646,1,examine
1647,1,exaucez
1648,1,exaucée
1649,1,exclus
1650,1,exhorte
1651,1,expier
1652,1,expliquent
1653,1,exploit
1654,1,exposent
1655,1,exposé
1656,1,exécute
1657,1,exécuter
1658,1,facilité
1659,1,fallût
1660,1,fard
1661,1,fatale
1662,1,fatalité
1663,1,faudrait
1664,1,favorables
1665,1,façon
1666,1,feint
1667,1,feinte
1668,1,fer
1669,1,ferais
1670,1,fermer
1671,1,ferons
1672,1,feront
1673,1,fidélité
1674,1,figure
1675,1,figurer
1676,1,figuré
1677,1,finir
1678,1,fière
1679,1,flatté
1680,1,fléchir
1681,1,fondement
1682,1,forcez
1683,1,forcé
1684,1,forma
1685,1,formant
1686,1,former
1687,1,fortifié
1688,1,forçant
1689,1,foudroyants
1690,1,fournir
1691,1,fournit
1692,1,fragilité
1693,1,frapper
1694,1,frayeur
1695,1,frayeurs
1696,1,frivole
1697,1,froide
1698,1,frémis
1699,1,fuir
1700,1,fuit
1701,1,furent
1702,1,furieux
1703,1,fâche
1704,1,fît
1705,1,gagné
1706,1,garant
1707,1,gardez
1708,1,gardé
1709,1,genoux
1710,1,goûter
1711,1,grec
1712,1,grossières
1713,1,guerriers
1714,1,guerrière
1715,1,guide
1716,1,guérir
1717,1,générosités
1718,1,gêner
1719,1,gêné
1720,1,hais
1721,1,hait
1722,1,hasardait
1723,1,hausse
1724,1,hauts
1725,1,haïra
1726,1,haïs
1727,1,heur
1728,1,honneurs
1729,1,honora
1730,1,honorer
1731,1,horreurs
1732,1,horrible
1733,1,hâte
1734,1,héritier
1735,1,héroïque
1736,1,ignorer
1737,1,ignorez
1738,1,imaginaire
1739,1,imaginais
1740,1,immole
1741,1,immolé
1742,1,immolée
1743,1,immuable
1744,1,imparfaite
1745,1,impitoyables
1746,1,implacable
1747,1,importants
1748,1,importune
1749,1,impose
1750,1,imposé
1751,1,imprimer
1752,1,imprudemment
1753,1,impute
1754,1,impérieux
1755,1,incapable
1756,1,incertaine
1757,1,incessamment
1758,1,indice
1759,1,indignation
1760,1,indigner
1761,1,indignité
1762,1,indignés
1763,1,indiscret
1764,1,indiscrètes
1765,1,infamie
1766,1,infatigables
1767,1,informer
1768,1,inhumain
1769,1,injurieuse
1770,1,injurieux
1771,1,injustement
1772,1,injustes
1773,1,innocentes
1774,1,inouï
1775,1,inquiétudes
1776,1,insensés
1777,1,insigne
1778,1,insolente
1779,1,instruit
1780,1,instruite
1781,1,instruits
1782,1,intéressent
1783,1,intéressés
1784,1,inutilement
1785,1,investir
1786,1,inviolable
1787,1,inviolables
1788,1,invitait
1789,1,inviter
1790,1,irai
1791,1,irait
1792,1,irritant
1793,1,irrite
1794,1,irriter
1795,1,irrité
1796,1,irrévocable
1797,1,issue
1798,1,joigne
1799,1,jointe
1800,1,joug
1801,1,jouir
1802,1,jours
1803,1,jurant
1804,1,jurer
1805,1,juré
1806,1,jurée
1807,1,justes
1808,1,justifie
1809,1,justifierions
1810,1,laissait
1811,1,laissant
1812,1,laissera
1813,1,laissez
1814,1,laissée
1815,1,laissés
1816,1,lancer
1817,1,las
1818,1,levant
1819,1,libre
1820,1,lis
1821,1,lit
1822,1,livrant
1823,1,livre
1824,1,loi
1825,1,long
1826,1,longueur
1827,1,lourds
1828,1,légitimes
1829,1,magnifique
1830,1,maintenant
1831,1,malice
1832,1,mandé
1833,1,mandés
1834,1,manquait
1835,1,manque
1836,1,manques
1837,1,manqué
1838,1,marchons
1839,1,martyre
1840,1,mauvaise
1841,1,maxime
1842,1,maîtres
1843,1,maîtresse
1844,1,menaces
1845,1,mené
1846,1,mer
1847,1,mers
1848,1,messénie
1849,1,mets
1850,1,mettant
1851,1,meurs
1852,1,meurtriers
1853,1,mienne
1854,1,milieu
1855,1,mine
1856,1,ministre
1857,1,misérable
1858,1,modèle
1859,1,modérer
1860,1,moitié
1861,1,moment
1862,1,monarques
1863,1,monstre
1864,1,monte
1865,1,montrerai
1866,1,montrez
1867,1,montrons
1868,1,monté
1869,1,mortellement
1870,1,morts
1871,1,mourant
1872,1,mourut
1873,1,murmurer
1874,1,mystère
1875,1,mécontents
1876,1,méritait
1877,1,méritent
1878,1,mériterais
1879,1,mêlé
1880,1,mêmes
1881,1,naissant
1882,1,nature
1883,1,nez
1884,1,noblement
1885,1,noire
1886,1,nombre
1887,1,nomme
1888,1,nommer
1889,1,noms
1890,1,nouveautés
1891,1,nuage
1892,1,nuis
1893,1,nécessaire
1894,1,nécessité
1895,1,néglige
1896,1,négliger
1897,1,obligée
1898,1,obstinant
1899,1,obstiner
1900,1,obstinez
1901,1,obtenir
1902,1,obéira
1903,1,obéit
1904,1,offenser
1905,1,offensez
1906,1,officieux
1907,1,offraient
1908,1,offrant
1909,1,offrez
1910,1,offrons
1911,1,ombrage
1912,1,ombre
1913,1,opiniâtre
1914,1,opposée
1915,1,opprimé
1916,1,ordonnent
1917,1,ordonnez
1918,1,ordonné
1919,1,orgueilleuse
1920,1,orgueilleux
1921,1,osasse
1922,1,osent
1923,1,osera
1924,1,osiez
1925,1,osât
1926,1,oubliais
1927,1,oubliant
1928,1,oubliera
1929,1,outrageant
1930,1,outragiez
1931,1,ouvrir
1932,1,oyez
1933,1,paisible
1934,1,palais
1935,1,palliez
1936,1,parce
1937,1,parents
1938,1,parla
1939,1,parlant
1940,1,parlantes
1941,1,parlerai
1942,1,parlerons
1943,1,parmi
1944,1,partagé
1945,1,partis
1946,1,passais
1947,1,passe
1948,1,passer
1949,1,passée
1950,1,payer
1951,1,payera
1952,1,payez
1953,1,payés
1954,1,peindra
1955,1,peint
1956,1,penche
1957,1,penser
1958,1,penseriez
1959,1,pensé
1960,1,pente
1961,1,percer
1962,1,perde
1963,1,perdent
1964,1,perdez
1965,1,perdiez
1966,1,perdirent
1967,1,perdras
1968,1,perfidie
1969,1,permettant
1970,1,permettront
1971,1,persiste
1972,1,persuader
1973,1,peuples
1974,1,peur
1975,1,place
1976,1,placée
1977,1,placés
1978,1,plaignez
1979,1,plaindrais
1980,1,plains
1981,1,plaçant
1982,1,pleine
1983,1,pleinement
1984,1,pleins
1985,1,plongé
1986,1,plût
1987,1,poids
1988,1,pompeux
1989,1,portaient
1990,1,portait
1991,1,portant
1992,1,portent
1993,1,portez
1994,1,poudre
1995,1,pourra
1996,1,pourriez
1997,1,poursuis
1998,1,poursuivre
1999,1,poussent
2000,1,pouvant
2001,1,prenant
2002,1,prendra
2003,1,prendrions
2004,1,prenez
2005,1,prenne
2006,1,presque
2007,1,pressait
2008,1,pressent
2009,1,presser
2010,1,principe
2011,1,privant
2012,1,prive
2013,1,privez
2014,1,privé
2015,1,prière
2016,1,prochaine
2017,1,procédé
2018,1,produisit
2019,1,profitons
2020,1,progrès
2021,1,proie
2022,1,promette
2023,1,promettre
2024,1,promise
2025,1,prononçant
2026,1,proposa
2027,1,proposant
2028,1,proposé
2029,1,protecteur
2030,1,protecteurs
2031,1,prouver
2032,1,prudence
2033,1,précipite
2034,1,précipiter
2035,1,préférence
2036,1,préparer
2037,1,préparé
2038,1,présage
2039,1,présumiez
2040,1,prévenant
2041,1,prévenir
2042,1,prévient
2043,1,prêt
2044,1,publie
2045,1,puissant
2046,1,punie
2047,1,punisse
2048,1,punit
2049,1,punition
2050,1,pure
2051,1,purgea
2052,1,purgez
2053,1,pus
2054,1,périsse
2055,1,périt
2056,1,qualité
2057,1,quelquefois
2058,1,quittant
2059,1,quitte
2060,1,quittent
2061,1,quitter
2062,1,quitté
2063,1,racheter
2064,1,raisons
2065,1,ramé
2066,1,rappelles
2067,1,rapport
2068,1,rarement
2069,1,ravit
2070,1,rebelle
2071,1,rebuter
2072,1,recevions
2073,1,reconnu
2074,1,recourir
2075,1,reculer
2076,1,reculera
2077,1,redonne
2078,1,redoubler
2079,1,redoublés
2080,1,redoutait
2081,1,refusant
2082,1,refuse
2083,1,refusez
2084,1,refusiez
2085,1,regagner
2086,1,regagné
2087,1,regarde
2088,1,regardé
2089,1,regrettait
2090,1,rejaillit
2091,1,rejeter
2092,1,rejeté
2093,1,relever
2094,1,relâcher
2095,1,relâché
2096,1,remettait
2097,1,remettre
2098,1,remplis
2099,1,remplissant
2100,1,remède
2101,1,remène
2102,1,renaître
2103,1,rencontrer
2104,1,rendant
2105,1,rendent
2106,1,rendez
2107,1,rendis
2108,1,rendra
2109,1,rendrait
2110,1,rendît
2111,1,renferme
2112,1,renommé
2113,1,renommés
2114,1,renoncé
2115,1,renouveler
2116,1,renverse
2117,1,repentir
2118,1,repose
2119,1,repousser
2120,1,repoussé
2121,1,respecte
2122,1,responsable
2123,1,ressent
2124,1,ressentiment
2125,1,restait
2126,1,rester
2127,1,retardé
2128,1,retentir
2129,1,retienne
2130,1,retourne
2131,1,retournerait
2132,1,revient
2133,1,revivre
2134,1,revêtus
2135,1,reçois
2136,1,reçoit
2137,1,reçoive
2138,1,reçue
2139,1,reçus
2140,1,rigoureuse
2141,1,rompra
2142,1,rompu
2143,1,rougi
2144,1,rougit
2145,1,royal
2146,1,ruinât
2147,1,ruses
2148,1,règlera
2149,1,réception
2150,1,récit
2151,1,récompenser
2152,1,réduirait
2153,1,réduite
2154,1,réduits
2155,1,réflexion
2156,1,réglait
2157,1,régner
2158,1,répond
2159,1,répondais
2160,1,répondrais
2161,1,réponds
2162,1,répondît
2163,1,réponse
2164,1,répugnance
2165,1,répéter
2166,1,réservait
2167,1,réserver
2168,1,réservera
2169,1,résistance
2170,1,résister
2171,1,résolvez
2172,1,résoudrez
2173,1,résout
2174,1,révéler
2175,1,révéré
2176,1,sachant
2177,1,sache
2178,1,sachez
2179,1,sacrifiez
2180,1,sacrilège
2181,1,sacré
2182,1,sacrés
2183,1,sainteté
2184,1,saisi
2185,1,satisfaisons
2186,1,satisfaite
2187,1,satisfaits
2188,1,saurais
2189,1,sautant
2190,1,saute
2191,1,sauve
2192,1,sceau
2193,1,scrupuleux
2194,1,seconde
2195,1,secondé
2196,1,sein
2197,1,selon
2198,1,semblables
2199,1,semer
2200,1,semée
2201,1,sensibles
2202,1,seoir
2203,1,serais
2204,1,seriez
2205,1,servaient
2206,1,servant
2207,1,servi
2208,1,servile
2209,1,seules
2210,1,seuls
2211,1,sied
2212,1,signala
2213,1,signaler
2214,1,signe
2215,1,signes
2216,1,six
2217,1,siècle
2218,1,siècles
2219,1,soient
2220,1,sois
2221,1,soldat
2222,1,soldats
2223,1,sollicité
2224,1,sombre
2225,1,sombres
2226,1,sondé
2227,1,songe
2228,1,sortable
2229,1,sortir
2230,1,souci
2231,1,souffrira
2232,1,souffrirait
2233,1,souhait
2234,1,souhaiter
2235,1,souhaitiez
2236,1,souhaits
2237,1,souille
2238,1,souiller
2239,1,souillé
2240,1,soumet
2241,1,soumettez
2242,1,soupire
2243,1,soupirez
2244,1,soupçonne
2245,1,source
2246,1,soustrait
2247,1,soutien
2248,1,soutienne
2249,1,soutiens
2250,1,soutint
2251,1,souveraine
2252,1,souverains
2253,1,souvienne
2254,1,souvient
2255,1,splendeur
2256,1,spécieux
2257,1,stratagème
2258,1,succomber
2259,1,suit
2260,1,suivant
2261,1,suivez
2262,1,suivi
2263,1,suivis
2264,1,suivra
2265,1,sujette
2266,1,superbement
2267,1,suppose
2268,1,supposer
2269,1,supposé
2270,1,suprême
2271,1,surprenant
2272,1,surprenez
2273,1,survenu
2274,1,sus
2275,1,suspects
2276,1,suspendu
2277,1,suspendue
2278,1,suspendus
2279,1,sut
2280,1,séduisant
2281,1,séduite
2282,1,sépare
2283,1,séparé
2284,1,sévère
2285,1,sévérité
2286,1,sûre
2287,1,sûrs
2288,1,sûtes
2289,1,tandis
2290,1,teint
2291,1,tendres
2292,1,tendresse
2293,1,tenir
2294,1,tenter
2295,1,tenu
2296,1,terme
2297,1,termina
2298,1,ternie
2299,1,théâtre
2300,1,tien
2301,1,tirant
2302,1,tiré
2303,1,tombait
2304,1,tombant
2305,1,tombe
2306,1,tombons
2307,1,tombés
2308,1,tonner
2309,1,tonnerre
2310,1,touchent
2311,1,trahie
2312,1,trahissez
2313,1,trahit
2314,1,trait
2315,1,traitable
2316,1,traitement
2317,1,transmet
2318,1,transports
2319,1,travaux
2320,1,tremblant
2321,1,tremper
2322,1,trempé
2323,1,tribut
2324,1,tristes
2325,1,trophée
2326,1,troublerait
2327,1,trouvait
2328,1,trouvé
2329,1,trépas
2330,1,tue
2331,1,tyrannie
2332,1,tyrannique
2333,1,tâchait
2334,1,tâches
2335,1,témoigner
2336,1,ténèbres
2337,1,unies
2338,1,unir
2339,1,usurpée
2340,1,vaincrais
2341,1,vaincrons
2342,1,vaincs
2343,1,vaincus
2344,1,vaine
2345,1,vaines
2346,1,valez
2347,1,vanité
2348,1,vante
2349,1,vanter
2350,1,vanté
2351,1,vas
2352,1,vaut
2353,1,veillent
2354,1,vendrait
2355,1,venge
2356,1,vengez
2357,1,vengée
2358,1,venu
2359,1,verrai
2360,1,verrait
2361,1,verras
2362,1,verrez
2363,1,verriez
2364,1,verser
2365,1,versez
2366,1,versé
2367,1,veuille
2368,1,victorieux
2369,1,vieil
2370,1,vieillard
2371,1,vieille
2372,1,viendraient
2373,1,vif
2374,1,vigueur
2375,1,violant
2376,1,violent
2377,1,violés
2378,1,vis
2379,1,vite
2380,1,vivement
2381,1,voguons
2382,1,voie
2383,1,vont
2384,1,voulons
2385,1,voyait
2386,1,vraie
2387,1,vue
2388,1,vulgaires
2389,1,vécu
2390,1,vôtres
2391,1,zélés
2392,1,âpre
2393,1,éblouissant
2394,1,éblouissent
2395,1,ébranle
2396,1,ébranler
2397,1,échappant
2398,1,échappe
2399,1,échapper
2400,1,échappés
2401,1,échauffant
2402,1,éclaircirons
2403,1,éclatante
2404,1,éclaté
2405,1,égalant
2406,1,égaler
2407,1,égare
2408,1,éloigne
2409,1,éloigné
2410,1,élève
2411,1,émeut
2412,1,épais
2413,1,épargne
2414,1,éprouverait
2415,1,éprouvons
2416,1,équipage
2417,1,érige
2418,1,étaler
2419,1,éteignent
2420,1,éteindre
2421,1,étendre
2422,1,étiez
2423,1,étions
2424,1,étonnait
2425,1,étonnons
2426,1,étonné
2427,1,étonnés
2428,1,étouffant
2429,1,étouffée
2430,1,étrangers
2431,1,étreindre
2432,1,évader
2433,1,île
2434,1,ôtant
2435,1,ôte
