#Word Types: 2399
#Word Tokens: 18446
#Search Hits: 0
1	530	vous	
2	471	et	
3	440	que	
4	423	de	
5	398	je	
6	370	l	
7	331	un	
8	313	il	
9	307	qu	
10	306	est	
11	304	à	
12	303	le	
13	249	ce	
14	234	d	
15	233	en	
16	218	mon	
17	185	la	
18	176	me	
19	171	pour	
20	169	si	
21	168	m	
22	161	ne	
23	150	j	
24	148	qui	
25	141	n	
26	137	ma	
27	134	mais	
28	121	s	
29	117	par	
30	111	son	
31	108	c	
32	101	votre	
33	100	lui	
34	99	on	
35	96	a	
36	93	moi	
37	89	sans	
38	87	plus	
39	79	coeur	
40	78	pas	
41	76	sa	
42	75	au	
43	74	quoi	
44	73	ai	
45	71	dans	
46	71	une	
47	68	se	
48	65	amour	
49	65	don	
50	65	trop	
51	64	les	
52	64	tout	
53	62	même	
54	58	point	
55	56	bien	
56	56	enfin	
57	55	fait	
58	49	elle	
59	49	nous	
60	48	du	
61	47	père	
62	47	être	
63	46	ah	
64	46	peut	
65	46	rien	
66	45	sur	
67	44	honneur	
68	44	tu	
69	43	cette	
70	42	des	
71	41	avec	
72	41	voir	
73	40	cet	
74	40	lope	
75	40	mes	
76	40	quand	
77	40	sang	
78	39	quel	
79	38	frère	
80	38	vertu	
81	37	faut	
82	35	dois	
83	35	dont	
84	34	ou	
85	33	ennemi	
86	33	faire	
87	33	où	
88	33	peu	
89	33	soeur	
90	32	donc	
91	32	gloire	
92	32	pu	
93	32	seul	
94	32	suis	
95	31	ciel	
96	31	contre	
97	31	moins	
98	31	vois	
99	31	y	
100	30	mort	
101	30	puis	
102	29	encor	
103	28	non	
104	28	toujours	
105	26	ainsi	
106	26	devoir	
107	26	fils	
108	25	espoir	
109	25	t	
110	24	ces	
111	24	grand	
112	24	hélas	
113	24	ici	
114	24	jamais	
115	24	malheur	
116	24	quelque	
117	24	sais	
118	24	vos	
119	23	affront	
120	23	ayant	
121	23	doit	
122	23	madame	
123	23	nom	
124	23	vengeance	
125	22	doute	
126	22	hymen	
127	22	secret	
128	22	ton	
129	22	vie	
130	21	assez	
131	21	autre	
132	21	fille	
133	20	avoir	
134	20	bras	
135	20	croire	
136	20	ose	
137	20	tous	
138	20	venger	
139	20	âme	
140	19	offense	
141	19	oui	
142	18	aux	
143	18	avez	
144	18	dit	
145	18	mieux	
146	18	ses	
147	18	tant	
148	18	vain	
149	17	après	
150	17	déjà	
151	17	foi	
152	17	là	
153	17	lâche	
154	17	mal	
155	17	peine	
156	17	puisque	
157	17	sort	
158	17	tel	
159	17	temps	
160	17	éclat	
161	17	était	
162	16	croit	
163	15	ami	
164	15	aujourd	
165	15	aussi	
166	15	comme	
167	15	deux	
168	15	doux	
169	15	flamme	
170	15	honte	
171	15	hui	
172	15	mien	
173	15	outrage	
174	15	puisqu	
175	15	soit	
176	15	su	
177	15	toute	
178	14	ait	
179	14	aveu	
180	14	bonheur	
181	14	bruit	
182	14	coupable	
183	14	craindre	
184	14	dire	
185	14	enrique	
186	14	jour	
187	14	viens	
188	14	yeux	
189	14	ô	
190	13	aime	
191	13	alonse	
192	13	amant	
193	13	blanche	
194	13	chez	
195	13	courage	
196	13	eut	
197	13	fernand	
198	13	haine	
199	13	honteux	
200	13	indigne	
201	13	lieu	
202	13	notre	
203	13	porte	
204	13	pouvoir	
205	13	serait	
206	13	te	
207	13	veux	
208	13	êtes	
209	12	amitié	
210	12	auteur	
211	12	disgrâce	
212	12	donner	
213	12	dû	
214	12	effet	
215	12	extrême	
216	12	eût	
217	12	funeste	
218	12	grâce	
219	12	jours	
220	12	leur	
221	12	main	
222	12	sanche	
223	12	secours	
224	12	veut	
225	12	vieillard	
226	12	voyez	
227	12	époux	
228	11	accord	
229	11	ardeur	
230	11	crime	
231	11	dessein	
232	11	estime	
233	11	feu	
234	11	jacinte	
235	11	jugez	
236	11	juste	
237	11	nos	
238	11	paraître	
239	11	rendre	
240	11	savez	
241	10	adieu	
242	10	aimer	
243	10	alvar	
244	10	bas	
245	10	beau	
246	10	confus	
247	10	connaître	
248	10	contraire	
249	10	courroux	
250	10	crois	
251	10	donne	
252	10	feux	
253	10	fut	
254	10	malheurs	
255	10	objet	
256	10	quelle	
257	10	raison	
258	10	rend	
259	10	sait	
260	10	sentiments	
261	10	souffrir	
262	10	ta	
263	10	taire	
264	9	aurait	
265	9	car	
266	9	connais	
267	9	craignez	
268	9	croyez	
269	9	erreur	
270	9	espérer	
271	9	ils	
272	9	injuste	
273	9	lors	
274	9	mérite	
275	9	obstacle	
276	9	parlez	
277	9	permis	
278	9	peux	
279	9	plaindre	
280	9	puisse	
281	9	respect	
282	9	rigueur	
283	9	soi	
284	9	sont	
285	9	surprise	
286	9	trouble	
287	9	va	
288	8	ailleurs	
289	8	amis	
290	8	apprendre	
291	8	arrête	
292	8	avait	
293	8	avant	
294	8	avis	
295	8	demande	
296	8	digne	
297	8	dis	
298	8	désespoir	
299	8	entière	
300	8	fais	
301	8	faux	
302	8	fortune	
303	8	injure	
304	8	jusqu	
305	8	loin	
306	8	lâcheté	
307	8	naître	
308	8	oser	
309	8	parler	
310	8	parole	
311	8	pouvant	
312	8	prétendre	
313	8	punir	
314	8	quelques	
315	8	remède	
316	8	reste	
317	8	savoir	
318	8	triste	
319	8	trouver	
320	8	vengé	
321	8	vient	
322	8	voyant	
323	8	vôtre	
324	7	accuser	
325	7	allez	
326	7	appas	
327	7	appui	
328	7	aucun	
329	7	besoin	
330	7	biens	
331	7	cassandre	
332	7	celui	
333	7	cherche	
334	7	chercher	
335	7	consentir	
336	7	crains	
337	7	crû	
338	7	dernier	
339	7	dieux	
340	7	droit	
341	7	défendre	
342	7	effacer	
343	7	effort	
344	7	engage	
345	7	entends	
346	7	excuse	
347	7	expliquer	
348	7	faites	
349	7	laisse	
350	7	moment	
351	7	murmure	
352	7	ni	
353	7	ont	
354	7	perdre	
355	7	plaire	
356	7	pourquoi	
357	7	pourrait	
358	7	propre	
359	7	quitter	
360	7	refus	
361	7	regret	
362	7	reproche	
363	7	retour	
364	7	revoir	
365	7	rival	
366	7	semble	
367	7	seule	
368	7	sien	
369	7	souffre	
370	7	soupirs	
371	7	souvenir	
372	7	surpris	
373	7	toi	
374	7	trahir	
375	7	vaine	
376	7	venge	
377	7	voeux	
378	7	voulez	
379	7	vrai	
380	6	abuse	
381	6	alors	
382	6	arrêt	
383	6	aura	
384	6	avais	
385	6	avouer	
386	6	blâme	
387	6	choix	
388	6	chose	
389	6	colère	
390	6	comment	
391	6	contraindre	
392	6	crainte	
393	6	criminel	
394	6	dedans	
395	6	destin	
396	6	devez	
397	6	envie	
398	6	esprit	
399	6	eusse	
400	6	fort	
401	6	gendre	
402	6	généreux	
403	6	heureux	
404	6	hier	
405	6	larmes	
406	6	lieux	
407	6	malgré	
408	6	maux	
409	6	maîtresse	
410	6	mourir	
411	6	naufrage	
412	6	nuit	
413	6	oblige	
414	6	perd	
415	6	perdez	
416	6	plainte	
417	6	pouvez	
418	6	presse	
419	6	prompt	
420	6	péril	
421	6	quitte	
422	6	rendez	
423	6	ressentiment	
424	6	reçu	
425	6	répandre	
426	6	sachant	
427	6	satisfaire	
428	6	saurai	
429	6	sens	
430	6	servir	
431	6	soupire	
432	6	sut	
433	6	trépas	
434	6	violence	
435	6	vivant	
436	6	voici	
437	6	vu	
438	6	étant	
439	6	état	
440	5	abord	
441	5	accuse	
442	5	aimé	
443	5	ans	
444	5	apprends	
445	5	assurer	
446	5	aurais	
447	5	auriez	
448	5	aussitôt	
449	5	autant	
450	5	avantage	
451	5	avouerai	
452	5	beaucoup	
453	5	blessé	
454	5	combattre	
455	5	connu	
456	5	convie	
457	5	coup	
458	5	douter	
459	5	découvrir	
460	5	effets	
461	5	ennui	
462	5	ennuis	
463	5	entendre	
464	5	esprits	
465	5	espère	
466	5	espérance	
467	5	eux	
468	5	faiblesse	
469	5	famille	
470	5	faveur	
471	5	ferai	
472	5	fier	
473	5	flore	
474	5	front	
475	5	fuir	
476	5	fuite	
477	5	fureur	
478	5	ignore	
479	5	importe	
480	5	inconnu	
481	5	inquiète	
482	5	intérêt	
483	5	juger	
484	5	montrer	
485	5	moyen	
486	5	noir	
487	5	obliger	
488	5	offensé	
489	5	oppose	
490	5	ordre	
491	5	passion	
492	5	peur	
493	5	pleurs	
494	5	pourtant	
495	5	prix	
496	5	pure	
497	5	quels	
498	5	refuse	
499	5	reprendre	
500	5	rigoureux	
501	5	soin	
502	5	soupirer	
503	5	sous	
504	5	succès	
505	5	sujet	
506	5	sûr	
507	5	telle	
508	5	tes	
509	5	tâche	
510	5	témoin	
511	5	voit	
512	5	vue	
513	4	abaisser	
514	4	abandonner	
515	4	abattu	
516	4	adore	
517	4	allons	
518	4	amante	
519	4	amène	
520	4	appris	
521	4	armes	
522	4	artifice	
523	4	assure	
524	4	attendre	
525	4	attire	
526	4	avecque	
527	4	cause	
528	4	cependant	
529	4	chacun	
530	4	charmes	
531	4	chère	
532	4	combat	
533	4	comprendre	
534	4	condamner	
535	4	confidence	
536	4	consulter	
537	4	croyant	
538	4	cruel	
539	4	cède	
540	4	davantage	
541	4	devant	
542	4	dieu	
543	4	dirai	
544	4	discours	
545	4	dites	
546	4	donnant	
547	4	douceur	
548	4	douleur	
549	4	défaut	
550	4	désirs	
551	4	dût	
552	4	embrasse	
553	4	engager	
554	4	entre	
555	4	exposer	
556	4	faible	
557	4	fasse	
558	4	favorable	
559	4	femme	
560	4	ferait	
561	4	fit	
562	4	forcer	
563	4	fuit	
564	4	fuyez	
565	4	fâcheux	
566	4	haut	
567	4	illustre	
568	4	injustice	
569	4	innocence	
570	4	innocent	
571	4	intéresse	
572	4	jaloux	
573	4	justice	
574	4	loi	
575	4	lois	
576	4	madrid	
577	4	meilleur	
578	4	mettre	
579	4	mourant	
580	4	mouvement	
581	4	nature	
582	4	noble	
583	4	nommé	
584	4	nouveau	
585	4	nouvelle	
586	4	nécessaire	
587	4	occasion	
588	4	offenseur	
589	4	parce	
590	4	pense	
591	4	perdu	
592	4	plaignez	
593	4	plaint	
594	4	plutôt	
595	4	porter	
596	4	prendre	
597	4	prenez	
598	4	presque	
599	4	procédé	
600	4	projet	
601	4	promis	
602	4	prévoir	
603	4	prêt	
604	4	périr	
605	4	pût	
606	4	querelle	
607	4	rapport	
608	4	rarement	
609	4	recevoir	
610	4	respecte	
611	4	respects	
612	4	revers	
613	4	rougir	
614	4	réduit	
615	4	répondre	
616	4	rétablir	
617	4	sache	
618	4	sachez	
619	4	saurez	
620	4	sentiment	
621	4	seulement	
622	4	sitôt	
623	4	soins	
624	4	soir	
625	4	songer	
626	4	souffrez	
627	4	soupçon	
628	4	souvent	
629	4	suivre	
630	4	surprendre	
631	4	suspect	
632	4	tient	
633	4	tort	
634	4	traits	
635	4	traître	
636	4	tristes	
637	4	vais	
638	4	vers	
639	4	violent	
640	4	vit	
641	4	voudrais	
642	4	vouloir	
643	4	écouter	
644	4	étonne	
645	4	été	
646	3	abandonne	
647	3	absence	
648	3	accable	
649	3	accepte	
650	3	acquérir	
651	3	affaire	
652	3	affermi	
653	3	afin	
654	3	apostez	
655	3	arracher	
656	3	assassins	
657	3	attend	
658	3	attends	
659	3	attentat	
660	3	attente	
661	3	aurai	
662	3	autorise	
663	3	aversion	
664	3	balancer	
665	3	billet	
666	3	bontés	
667	3	braver	
668	3	cacher	
669	3	cachez	
670	3	caché	
671	3	calme	
672	3	cent	
673	3	cesser	
674	3	changement	
675	3	charme	
676	3	charmer	
677	3	cher	
678	3	clarté	
679	3	combattu	
680	3	connue	
681	3	conseil	
682	3	constance	
683	3	contraint	
684	3	contrainte	
685	3	coups	
686	3	craint	
687	3	daigne	
688	3	demander	
689	3	différents	
690	3	disposer	
691	3	dur	
692	3	découvre	
693	3	défense	
694	3	déguiser	
695	3	dépens	
696	3	déplaisir	
697	3	dérober	
698	3	déshonore	
699	3	détour	
700	3	efface	
701	3	emporte	
702	3	empêche	
703	3	ennemis	
704	3	ensemble	
705	3	entrer	
706	3	espérez	
707	3	eu	
708	3	eussiez	
709	3	explique	
710	3	faisait	
711	3	faisant	
712	3	fallut	
713	3	fidèle	
714	3	flatte	
715	3	flatter	
716	3	font	
717	3	frivole	
718	3	frères	
719	3	frémit	
720	3	garde	
721	3	gardez	
722	3	gens	
723	3	grande	
724	3	guzmans	
725	3	hais	
726	3	hautement	
727	3	haïr	
728	3	heur	
729	3	heure	
730	3	hyménée	
731	3	infamie	
732	3	insigne	
733	3	intérêts	
734	3	joie	
735	3	jurée	
736	3	jusques	
737	3	laisser	
738	3	laissez	
739	3	laissé	
740	3	long	
741	3	lumière	
742	3	lâchement	
743	3	lâches	
744	3	léger	
745	3	malheureux	
746	3	manque	
747	3	maître	
748	3	met	
749	3	mis	
750	3	moindre	
751	3	montre	
752	3	motif	
753	3	mépris	
754	3	mériter	
755	3	mêmes	
756	3	noeuds	
757	3	obligé	
758	3	obéir	
759	3	offre	
760	3	offrir	
761	3	ombre	
762	3	orage	
763	3	osa	
764	3	oublier	
765	3	outragé	
766	3	parle	
767	3	part	
768	3	partage	
769	3	partager	
770	3	partagé	
771	3	parti	
772	3	partis	
773	3	partout	
774	3	penser	
775	3	pensez	
776	3	perdant	
777	3	personne	
778	3	perte	
779	3	possède	
780	3	pourra	
781	3	pourrai	
782	3	poursuite	
783	3	poursuivre	
784	3	pouvait	
785	3	preuve	
786	3	pris	
787	3	promesse	
788	3	promettre	
789	3	prompte	
790	3	précieux	
791	3	puissiez	
792	3	quelqu	
793	3	ramire	
794	3	rang	
795	3	ravi	
796	3	refuser	
797	3	relâche	
798	3	rencontre	
799	3	repentir	
800	3	repos	
801	3	respire	
802	3	revient	
803	3	reçoit	
804	3	riches	
805	3	rudes	
806	3	résoudre	
807	3	sachons	
808	3	sacrifice	
809	3	sanglant	
810	3	satisfait	
811	3	scrupule	
812	3	secourir	
813	3	sensible	
814	3	sera	
815	3	seuls	
816	3	sexe	
817	3	silence	
818	3	songez	
819	3	sorte	
820	3	sortez	
821	3	sorti	
822	3	soudain	
823	3	souffert	
824	3	soupçonne	
825	3	soupçonnez	
826	3	suivie	
827	3	suivrai	
828	3	supplice	
829	3	tenir	
830	3	tiens	
831	3	touche	
832	3	tour	
833	3	triomphe	
834	3	trouve	
835	3	téméraire	
836	3	unique	
837	3	vaut	
838	3	venez	
839	3	verrai	
840	3	victoire	
841	3	vis	
842	3	vivre	
843	3	voie	
844	3	voila	
845	3	voix	
846	3	voulu	
847	3	voyage	
848	3	âge	
849	3	éclater	
850	3	épandre	
851	3	étouffer	
852	2	abattre	
853	2	abuser	
854	2	accepter	
855	2	accorder	
856	2	accusant	
857	2	achève	
858	2	acquit	
859	2	actions	
860	2	admire	
861	2	admirer	
862	2	affreux	
863	2	affronter	
864	2	affronté	
865	2	aille	
866	2	aimai	
867	2	aimant	
868	2	aisé	
869	2	alarmé	
870	2	allais	
871	2	aller	
872	2	anime	
873	2	apparence	
874	2	appelle	
875	2	applaudir	
876	2	apprend	
877	2	apprendrez	
878	2	apprenez	
879	2	approuver	
880	2	apprête	
881	2	appuis	
882	2	arme	
883	2	arrache	
884	2	aspire	
885	2	assurance	
886	2	atteinte	
887	2	attendant	
888	2	aucune	
889	2	audace	
890	2	auparavant	
891	2	autorisa	
892	2	avancer	
893	2	aveugle	
894	2	aveuglement	
895	2	aviez	
896	2	ayez	
897	2	balance	
898	2	basse	
899	2	beautés	
900	2	belle	
901	2	belles	
902	2	bientôt	
903	2	blessure	
904	2	blâmer	
905	2	braves	
906	2	brisons	
907	2	brûle	
908	2	calomnie	
909	2	capable	
910	2	cavalier	
911	2	certain	
912	2	certaine	
913	2	certes	
914	2	cesse	
915	2	cessez	
916	2	ceux	
917	2	chagrin	
918	2	changer	
919	2	choisir	
920	2	combats	
921	2	concevoir	
922	2	confessez	
923	2	conjecture	
924	2	connaissance	
925	2	connaissez	
926	2	conseils	
927	2	conspire	
928	2	contente	
929	2	couler	
930	2	cour	
931	2	courages	
932	2	craignant	
933	2	croira	
934	2	daigna	
935	2	demi	
936	2	desseins	
937	2	dessus	
938	2	discret	
939	2	dispense	
940	2	donnent	
941	2	donnons	
942	2	donné	
943	2	donnée	
944	2	douleurs	
945	2	douteux	
946	2	doutez	
947	2	déclare	
948	2	dédire	
949	2	dégager	
950	2	démentir	
951	2	déplaît	
952	2	désordre	
953	2	détruit	
954	2	effacez	
955	2	effroi	
956	2	embarrasse	
957	2	emportement	
958	2	emporter	
959	2	empêchez	
960	2	encore	
961	2	enflamme	
962	2	engagée	
963	2	enrichit	
964	2	entend	
965	2	entendu	
966	2	entreprendre	
967	2	entretenir	
968	2	envers	
969	2	enviant	
970	2	envieux	
971	2	escorte	
972	2	essuyer	
973	2	estimer	
974	2	estimé	
975	2	eus	
976	2	examiner	
977	2	exemple	
978	2	exposé	
979	2	fausse	
980	2	fausses	
981	2	faute	
982	2	faveurs	
983	2	feint	
984	2	fera	
985	2	ferais	
986	2	finir	
987	2	fisse	
988	2	fière	
989	2	force	
990	2	forcé	
991	2	former	
992	2	forte	
993	2	froideur	
994	2	fuis	
995	2	fus	
996	2	fît	
997	2	garantir	
998	2	glorieux	
999	2	goûter	
1000	2	gré	
1001	2	guide	
1002	2	guzman	
1003	2	générosité	
1004	2	gêne	
1005	2	hasard	
1006	2	hasarde	
1007	2	haute	
1008	2	homme	
1009	2	hâter	
1010	2	immole	
1011	2	impérieux	
1012	2	indignes	
1013	2	indignité	
1014	2	inexorable	
1015	2	infaillible	
1016	2	infâme	
1017	2	injurieux	
1018	2	jadis	
1019	2	jetant	
1020	2	joint	
1021	2	juge	
1022	2	jugé	
1023	2	justes	
1024	2	justifié	
1025	2	laissons	
1026	2	las	
1027	2	liens	
1028	2	longtemps	
1029	2	lune	
1030	2	manquer	
1031	2	marque	
1032	2	mauvais	
1033	2	mer	
1034	2	mienne	
1035	2	milieu	
1036	2	miracle	
1037	2	moments	
1038	2	montrez	
1039	2	mots	
1040	2	mourrai	
1041	2	mouvements	
1042	2	méconnaître	
1043	2	mémoire	
1044	2	ménager	
1045	2	méritée	
1046	2	naissant	
1047	2	noire	
1048	2	nomme	
1049	2	négliger	
1050	2	obscurité	
1051	2	obstine	
1052	2	obtiens	
1053	2	oeil	
1054	2	offerte	
1055	2	offrant	
1056	2	oncle	
1057	2	opposer	
1058	2	ordonne	
1059	2	orgueilleux	
1060	2	osez	
1061	2	osé	
1062	2	oubliez	
1063	2	ouvrage	
1064	2	oyez	
1065	2	paraît	
1066	2	pardon	
1067	2	pareil	
1068	2	parjure	
1069	2	parlé	
1070	2	partie	
1071	2	paru	
1072	2	passions	
1073	2	perdons	
1074	2	permettre	
1075	2	pitié	
1076	2	piège	
1077	2	place	
1078	2	plaignant	
1079	2	pleure	
1080	2	pleurez	
1081	2	port	
1082	2	pourrais	
1083	2	pourriez	
1084	2	pousser	
1085	2	pouvais	
1086	2	prend	
1087	2	prends	
1088	2	prennent	
1089	2	pressez	
1090	2	prière	
1091	2	proche	
1092	2	promettez	
1093	2	promise	
1094	2	propice	
1095	2	propos	
1096	2	prépare	
1097	2	préparé	
1098	2	présente	
1099	2	présumer	
1100	2	prévois	
1101	2	prête	
1102	2	puissants	
1103	2	punissez	
1104	2	pureté	
1105	2	pus	
1106	2	put	
1107	2	périt	
1108	2	pûtes	
1109	2	qualité	
1110	2	quittez	
1111	2	ravir	
1112	2	recule	
1113	2	reculer	
1114	2	redire	
1115	2	redouble	
1116	2	redoutable	
1117	2	redouter	
1118	2	regarde	
1119	2	remords	
1120	2	rendrais	
1121	2	reprocher	
1122	2	retire	
1123	2	retraite	
1124	2	reçue	
1125	2	reçus	
1126	2	rigoureuse	
1127	2	rompre	
1128	2	rougit	
1129	2	rude	
1130	2	rue	
1131	2	récit	
1132	2	réduire	
1133	2	répandu	
1134	2	répond	
1135	2	répéter	
1136	2	résister	
1137	2	rêver	
1138	2	satisfasse	
1139	2	saura	
1140	2	sauras	
1141	2	secrets	
1142	2	secrète	
1143	2	semblent	
1144	2	serez	
1145	2	serments	
1146	2	sert	
1147	2	servez	
1148	2	service	
1149	2	sincère	
1150	2	sois	
1151	2	sortir	
1152	2	sortons	
1153	2	souci	
1154	2	soulager	
1155	2	soumettre	
1156	2	soupçonner	
1157	2	souvient	
1158	2	spectacle	
1159	2	stratagème	
1160	2	sublime	
1161	2	suffit	
1162	2	suffrage	
1163	2	superflus	
1164	2	surtout	
1165	2	suspendez	
1166	2	sévère	
1167	2	sûreté	
1168	2	tache	
1169	2	tantôt	
1170	2	tendresse	
1171	2	terme	
1172	2	terni	
1173	2	tiendra	
1174	2	tirez	
1175	2	tolède	
1176	2	tombeau	
1177	2	tomber	
1178	2	tourments	
1179	2	toutefois	
1180	2	trahi	
1181	2	trahison	
1182	2	transport	
1183	2	trois	
1184	2	troubles	
1185	2	tué	
1186	2	vaincre	
1187	2	vas	
1188	2	vengée	
1189	2	venir	
1190	2	verrez	
1191	2	versé	
1192	2	vertueux	
1193	2	vertus	
1194	2	vif	
1195	2	vite	
1196	2	vivrait	
1197	2	voulant	
1198	2	voulut	
1199	2	voyons	
1200	2	vrais	
1201	2	zèle	
1202	2	échapper	
1203	2	échappé	
1204	2	écoute	
1205	2	écouté	
1206	2	écrire	
1207	2	également	
1208	2	éloignez	
1209	2	épargne	
1210	2	épargner	
1211	2	épargnez	
1212	2	étaient	
1213	2	étais	
1214	2	éteint	
1215	2	éviter	
1216	1	abandonnez	
1217	1	abat	
1218	1	abois	
1219	1	absout	
1220	1	abus	
1221	1	abusant	
1222	1	abusé	
1223	1	abusée	
1224	1	accabler	
1225	1	acceptant	
1226	1	accepté	
1227	1	acceptée	
1228	1	accompagne	
1229	1	accompagnent	
1230	1	accordez	
1231	1	accroître	
1232	1	accru	
1233	1	accueil	
1234	1	accuserai	
1235	1	accuserais	
1236	1	accusez	
1237	1	accès	
1238	1	acheta	
1239	1	achetez	
1240	1	achevant	
1241	1	achevons	
1242	1	acquerrai	
1243	1	acquerrez	
1244	1	acquiert	
1245	1	acquirent	
1246	1	acquitter	
1247	1	action	
1248	1	adorable	
1249	1	adoucir	
1250	1	adoucit	
1251	1	adresse	
1252	1	adroit	
1253	1	afflige	
1254	1	affligée	
1255	1	affoiblis	
1256	1	affronte	
1257	1	affronts	
1258	1	agir	
1259	1	agiraient	
1260	1	agis	
1261	1	agit	
1262	1	agite	
1263	1	agitée	
1264	1	agrandir	
1265	1	aigreur	
1266	1	aimable	
1267	1	aimerai	
1268	1	aimeriez	
1269	1	aimes	
1270	1	aimez	
1271	1	aisément	
1272	1	ajoutez	
1273	1	alarme	
1274	1	alarmer	
1275	1	alarmes	
1276	1	alarmez	
1277	1	allait	
1278	1	allant	
1279	1	allumé	
1280	1	allé	
1281	1	amants	
1282	1	amas	
1283	1	amassé	
1284	1	an	
1285	1	animant	
1286	1	animé	
1287	1	aperçu	
1288	1	apparent	
1289	1	appartement	
1290	1	appeler	
1291	1	applique	
1292	1	apporter	
1293	1	apprendra	
1294	1	apprenne	
1295	1	approche	
1296	1	approcher	
1297	1	approcherait	
1298	1	approchez	
1299	1	appréhendais	
1300	1	appréhender	
1301	1	appuierai	
1302	1	appuyant	
1303	1	armer	
1304	1	arrive	
1305	1	arriver	
1306	1	arrêter	
1307	1	arrêtez	
1308	1	arrêté	
1309	1	art	
1310	1	as	
1311	1	asile	
1312	1	assassin	
1313	1	assassinat	
1314	1	assassiné	
1315	1	assemblée	
1316	1	asservit	
1317	1	assorties	
1318	1	assortis	
1319	1	assoupis	
1320	1	assurait	
1321	1	assurera	
1322	1	assurez	
1323	1	assuré	
1324	1	attache	
1325	1	attaquants	
1326	1	attaque	
1327	1	attaqué	
1328	1	atteint	
1329	1	attendait	
1330	1	attendez	
1331	1	attendu	
1332	1	attentent	
1333	1	atteste	
1334	1	attirant	
1335	1	augmente	
1336	1	augure	
1337	1	auras	
1338	1	aurez	
1339	1	austère	
1340	1	autour	
1341	1	autres	
1342	1	avance	
1343	1	avare	
1344	1	averti	
1345	1	avertir	
1346	1	avidement	
1347	1	avorter	
1348	1	avoue	
1349	1	avouerez	
1350	1	avouiez	
1351	1	avoués	
1352	1	aînesse	
1353	1	banc	
1354	1	bannir	
1355	1	beaux	
1356	1	bel	
1357	1	bizarre	
1358	1	blesse	
1359	1	blesser	
1360	1	blessât	
1361	1	blâmez	
1362	1	blâmé	
1363	1	borné	
1364	1	bouche	
1365	1	bouillonne	
1366	1	bout	
1367	1	brille	
1368	1	brûlant	
1369	1	brûlent	
1370	1	brûliez	
1371	1	brûlé	
1372	1	bute	
1373	1	bénir	
1374	1	cachai	
1375	1	calomnier	
1376	1	caprice	
1377	1	caprices	
1378	1	ceci	
1379	1	cents	
1380	1	cessant	
1381	1	cessiez	
1382	1	cessons	
1383	1	chambre	
1384	1	chancelle	
1385	1	change	
1386	1	changez	
1387	1	changée	
1388	1	charger	
1389	1	charmant	
1390	1	charmante	
1391	1	charmé	
1392	1	chasse	
1393	1	cherches	
1394	1	chimérique	
1395	1	choisis	
1396	1	châtiment	
1397	1	chérit	
1398	1	claire	
1399	1	clartés	
1400	1	combattais	
1401	1	combattrons	
1402	1	comble	
1403	1	commencé	
1404	1	commerce	
1405	1	commis	
1406	1	commune	
1407	1	compatible	
1408	1	complaisance	
1409	1	complice	
1410	1	comprend	
1411	1	compris	
1412	1	conclu	
1413	1	condamnant	
1414	1	condamne	
1415	1	condamné	
1416	1	conduire	
1417	1	conduit	
1418	1	conduite	
1419	1	confesses	
1420	1	confondant	
1421	1	confondez	
1422	1	confondre	
1423	1	confondu	
1424	1	confuse	
1425	1	confusion	
1426	1	confusément	
1427	1	conférence	
1428	1	conjure	
1429	1	connaissais	
1430	1	connaissiez	
1431	1	connaît	
1432	1	consens	
1433	1	consente	
1434	1	consentez	
1435	1	conserva	
1436	1	conserve	
1437	1	conserver	
1438	1	conservez	
1439	1	considérable	
1440	1	considérez	
1441	1	consiste	
1442	1	console	
1443	1	conspirer	
1444	1	constant	
1445	1	consultant	
1446	1	consulte	
1447	1	conséquence	
1448	1	content	
1449	1	contenter	
1450	1	contentez	
1451	1	conter	
1452	1	contester	
1453	1	contracter	
1454	1	contractée	
1455	1	contraints	
1456	1	convainc	
1457	1	convaincu	
1458	1	convainquez	
1459	1	corrompre	
1460	1	corrompt	
1461	1	couleur	
1462	1	courez	
1463	1	couronner	
1464	1	cours	
1465	1	couvert	
1466	1	couverte	
1467	1	couvrir	
1468	1	couvrit	
1469	1	craignais	
1470	1	craindra	
1471	1	creusait	
1472	1	croirai	
1473	1	croirait	
1474	1	croiras	
1475	1	croyais	
1476	1	croyons	
1477	1	croît	
1478	1	croître	
1479	1	cruelle	
1480	1	cruels	
1481	1	curieux	
1482	1	cédant	
1483	1	côté	
1484	1	daignez	
1485	1	dame	
1486	1	dehors	
1487	1	demain	
1488	1	demandais	
1489	1	demandait	
1490	1	demandez	
1491	1	demeure	
1492	1	demeurent	
1493	1	demeuré	
1494	1	dernière	
1495	1	descendre	
1496	1	destinant	
1497	1	destine	
1498	1	destinez	
1499	1	destiné	
1500	1	devais	
1501	1	devenons	
1502	1	deviendrait	
1503	1	deviens	
1504	1	devient	
1505	1	deviez	
1506	1	devinant	
1507	1	deviner	
1508	1	devoirs	
1509	1	devra	
1510	1	devrai	
1511	1	devrais	
1512	1	diffamer	
1513	1	differée	
1514	1	difficile	
1515	1	différez	
1516	1	diligence	
1517	1	dira	
1518	1	dise	
1519	1	dispenser	
1520	1	disposa	
1521	1	dissiper	
1522	1	dite	
1523	1	divers	
1524	1	divisez	
1525	1	doive	
1526	1	doivent	
1527	1	domine	
1528	1	dompte	
1529	1	dort	
1530	1	dot	
1531	1	double	
1532	1	doublement	
1533	1	douce	
1534	1	douces	
1535	1	douceurs	
1536	1	doutes	
1537	1	doutât	
1538	1	douté	
1539	1	due	
1540	1	dure	
1541	1	dures	
1542	1	décevant	
1543	1	décevoir	
1544	1	déchirant	
1545	1	déchirez	
1546	1	découvert	
1547	1	découverte	
1548	1	découvrant	
1549	1	découvrons	
1550	1	décrets	
1551	1	dédaigne	
1552	1	dédaigner	
1553	1	défauts	
1554	1	défence	
1555	1	défendit	
1556	1	défends	
1557	1	défier	
1558	1	dégageant	
1559	1	dégagé	
1560	1	déguisement	
1561	1	déguisé	
1562	1	dément	
1563	1	démentant	
1564	1	démentit	
1565	1	départ	
1566	1	dépend	
1567	1	dépendions	
1568	1	déploie	
1569	1	déplorable	
1570	1	déplorant	
1571	1	dépose	
1572	1	dépouille	
1573	1	dérobe	
1574	1	désabuse	
1575	1	désabuser	
1576	1	désabusé	
1577	1	désarmer	
1578	1	désavantage	
1579	1	désert	
1580	1	désespère	
1581	1	désir	
1582	1	désirant	
1583	1	déteste	
1584	1	détester	
1585	1	détourner	
1586	1	détourné	
1587	1	détrompant	
1588	1	détruise	
1589	1	déçu	
1590	1	effacé	
1591	1	embarquez	
1592	1	embarras	
1593	1	empire	
1594	1	emploi	
1595	1	emplois	
1596	1	employa	
1597	1	employais	
1598	1	employer	
1599	1	employez	
1600	1	employé	
1601	1	emportements	
1602	1	emportée	
1603	1	empressement	
1604	1	empêcher	
1605	1	empêcherai	
1606	1	empêchiez	
1607	1	encens	
1608	1	endurer	
1609	1	enfla	
1610	1	enfreindre	
1611	1	engagea	
1612	1	engagement	
1613	1	engagez	
1614	1	engagé	
1615	1	enseignez	
1616	1	entreprend	
1617	1	entreprise	
1618	1	entretien	
1619	1	entrevue	
1620	1	entrez	
1621	1	entrons	
1622	1	envoie	
1623	1	envoyait	
1624	1	esclavage	
1625	1	escortait	
1626	1	escortant	
1627	1	escorterai	
1628	1	espérant	
1629	1	espéreriez	
1630	1	essaya	
1631	1	estimassiez	
1632	1	estimez	
1633	1	eussent	
1634	1	examinais	
1635	1	exaucés	
1636	1	excusable	
1637	1	excuser	
1638	1	excuserai	
1639	1	excusez	
1640	1	excusée	
1641	1	excès	
1642	1	exigent	
1643	1	exiger	
1644	1	exigez	
1645	1	expier	
1646	1	expierait	
1647	1	expire	
1648	1	expirer	
1649	1	expliquez	
1650	1	expose	
1651	1	exposez	
1652	1	exposée	
1653	1	extrémités	
1654	1	extrêmes	
1655	1	exécute	
1656	1	exécuter	
1657	1	faibles	
1658	1	faiblesses	
1659	1	faisons	
1660	1	faite	
1661	1	fallait	
1662	1	fatal	
1663	1	faudra	
1664	1	façon	
1665	1	feignant	
1666	1	feindre	
1667	1	feinte	
1668	1	fer	
1669	1	feriez	
1670	1	ferme	
1671	1	fermer	
1672	1	ferons	
1673	1	fidèles	
1674	1	figure	
1675	1	fin	
1676	1	finissez	
1677	1	fis	
1678	1	flammes	
1679	1	flandre	
1680	1	flatta	
1681	1	flattez	
1682	1	fois	
1683	1	fondement	
1684	1	forma	
1685	1	formant	
1686	1	forment	
1687	1	fougueux	
1688	1	fournir	
1689	1	franchement	
1690	1	frayeur	
1691	1	fruit	
1692	1	fuirai	
1693	1	furent	
1694	1	fuyais	
1695	1	fuyait	
1696	1	fuyant	
1697	1	fâche	
1698	1	fût	
1699	1	fûtes	
1700	1	gagner	
1701	1	garant	
1702	1	garder	
1703	1	genoux	
1704	1	gouffre	
1705	1	goûtant	
1706	1	grands	
1707	1	graver	
1708	1	grossières	
1709	1	gêner	
1710	1	gênez	
1711	1	hait	
1712	1	hasardeux	
1713	1	heureuse	
1714	1	hommage	
1715	1	honorer	
1716	1	horreur	
1717	1	hors	
1718	1	humeurs	
1719	1	hâtez	
1720	1	ignorais	
1721	1	ignorant	
1722	1	ignorer	
1723	1	ignorez	
1724	1	illusions	
1725	1	image	
1726	1	imagine	
1727	1	imaginer	
1728	1	imiter	
1729	1	immolait	
1730	1	imparfait	
1731	1	impatient	
1732	1	impitoyable	
1733	1	importance	
1734	1	impose	
1735	1	imposer	
1736	1	impossible	
1737	1	imposteur	
1738	1	imposteurs	
1739	1	imposture	
1740	1	impressions	
1741	1	imprévue	
1742	1	impuissance	
1743	1	impunément	
1744	1	impur	
1745	1	imputer	
1746	1	incapable	
1747	1	incommodes	
1748	1	inconnue	
1749	1	inconstant	
1750	1	inconstants	
1751	1	indes	
1752	1	indigné	
1753	1	indiscret	
1754	1	indiscrets	
1755	1	indulgence	
1756	1	infidèle	
1757	1	infidélité	
1758	1	informez	
1759	1	informé	
1760	1	infortuné	
1761	1	ingrat	
1762	1	ingrate	
1763	1	ingratitude	
1764	1	ingrats	
1765	1	innocente	
1766	1	insatiable	
1767	1	insolence	
1768	1	insolent	
1769	1	instant	
1770	1	instruire	
1771	1	instruit	
1772	1	interdit	
1773	1	interdits	
1774	1	intéressé	
1775	1	intérieur	
1776	1	inutile	
1777	1	inutiles	
1778	1	invite	
1779	1	inébranlable	
1780	1	ira	
1781	1	irons	
1782	1	irriter	
1783	1	issue	
1784	1	jalouse	
1785	1	jette	
1786	1	jeune	
1787	1	jouis	
1788	1	jouissant	
1789	1	journée	
1790	1	jugeant	
1791	1	juges	
1792	1	jurât	
1793	1	justifie	
1794	1	justifier	
1795	1	justifiée	
1796	1	laissaient	
1797	1	laissant	
1798	1	laisserai	
1799	1	laisserait	
1800	1	langage	
1801	1	languide	
1802	1	lares	
1803	1	lasser	
1804	1	lettre	
1805	1	leurs	
1806	1	liberté	
1807	1	libérateur	
1808	1	lire	
1809	1	livre	
1810	1	logis	
1811	1	lumières	
1812	1	lustre	
1813	1	légitime	
1814	1	magnanime	
1815	1	mains	
1816	1	maintenant	
1817	1	maltraiter	
1818	1	mander	
1819	1	manquera	
1820	1	manquez	
1821	1	marcher	
1822	1	mari	
1823	1	mariée	
1824	1	marquait	
1825	1	marques	
1826	1	marâtre	
1827	1	matière	
1828	1	maxime	
1829	1	menacer	
1830	1	menaces	
1831	1	menais	
1832	1	mendier	
1833	1	mendié	
1834	1	mendoces	
1835	1	message	
1836	1	mesure	
1837	1	mesurer	
1838	1	mettant	
1839	1	mette	
1840	1	mettent	
1841	1	mettrai	
1842	1	meurs	
1843	1	meurt	
1844	1	miens	
1845	1	misères	
1846	1	mit	
1847	1	modeste	
1848	1	monde	
1849	1	monsieur	
1850	1	monstre	
1851	1	montrent	
1852	1	montré	
1853	1	montrée	
1854	1	monument	
1855	1	mortel	
1856	1	mortelle	
1857	1	mot	
1858	1	motifs	
1859	1	mourante	
1860	1	mourra	
1861	1	moyens	
1862	1	murmurer	
1863	1	mutiné	
1864	1	mène	
1865	1	mère	
1866	1	méditais	
1867	1	méprise	
1868	1	méritent	
1869	1	méritât	
1870	1	mérité	
1871	1	mêlant	
1872	1	mêle	
1873	1	naissance	
1874	1	nier	
1875	1	nobles	
1876	1	noblesse	
1877	1	noirci	
1878	1	nombre	
1879	1	nouveaux	
1880	1	nouvelles	
1881	1	nui	
1882	1	nuire	
1883	1	objets	
1884	1	obligation	
1885	1	obligeant	
1886	1	obligerez	
1887	1	obscur	
1888	1	obscurcie	
1889	1	obscure	
1890	1	observe	
1891	1	observer	
1892	1	obstiné	
1893	1	obtenions	
1894	1	obtiendra	
1895	1	obtiendrai	
1896	1	obtiendrais	
1897	1	obtint	
1898	1	obéi	
1899	1	obéissance	
1900	1	occasions	
1901	1	occupe	
1902	1	odieux	
1903	1	offert	
1904	1	officieux	
1905	1	ois	
1906	1	oit	
1907	1	ombrage	
1908	1	opinion	
1909	1	opposant	
1910	1	opposez	
1911	1	osais	
1912	1	osent	
1913	1	osera	
1914	1	oserai	
1915	1	oseront	
1916	1	osât	
1917	1	otait	
1918	1	oublié	
1919	1	ouir	
1920	1	outrager	
1921	1	outrages	
1922	1	outre	
1923	1	ouverte	
1924	1	ouvre	
1925	1	ouvrez	
1926	1	ouï	
1927	1	ouïr	
1928	1	paisible	
1929	1	parait	
1930	1	pardonnez	
1931	1	parent	
1932	1	parfait	
1933	1	parfaite	
1934	1	parlait	
1935	1	parlant	
1936	1	parlent	
1937	1	parlons	
1938	1	partageât	
1939	1	partit	
1940	1	passant	
1941	1	passe	
1942	1	passé	
1943	1	patience	
1944	1	payer	
1945	1	peins	
1946	1	peint	
1947	1	peints	
1948	1	penche	
1949	1	pensant	
1950	1	perdrez	
1951	1	perds	
1952	1	perdue	
1953	1	perfide	
1954	1	permet	
1955	1	permettez	
1956	1	permise	
1957	1	permit	
1958	1	persévérance	
1959	1	pesez	
1960	1	peuple	
1961	1	pire	
1962	1	pitoyable	
1963	1	plaindrais	
1964	1	plaise	
1965	1	plaisir	
1966	1	plaît	
1967	1	plein	
1968	1	pleine	
1969	1	pleinement	
1970	1	pleurerait	
1971	1	pleuré	
1972	1	plonger	
1973	1	plongé	
1974	1	plut	
1975	1	plût	
1976	1	poignard	
1977	1	points	
1978	1	poison	
1979	1	portait	
1980	1	portez	
1981	1	possible	
1982	1	pourrez	
1983	1	pourrons	
1984	1	poursuis	
1985	1	poursuivez	
1986	1	pourvoir	
1987	1	pourvu	
1988	1	poussé	
1989	1	pouviez	
1990	1	pouvions	
1991	1	pouvons	
1992	1	pratique	
1993	1	première	
1994	1	prendrai	
1995	1	pressais	
1996	1	pressant	
1997	1	pressent	
1998	1	pressé	
1999	1	pressée	
2000	1	prie	
2001	1	prit	
2002	1	prive	
2003	1	prochaine	
2004	1	prodigué	
2005	1	prononcé	
2006	1	proposant	
2007	1	propose	
2008	1	proposer	
2009	1	proposez	
2010	1	proposé	
2011	1	propres	
2012	1	prouver	
2013	1	précipice	
2014	1	précipitons	
2015	1	précipité	
2016	1	préférer	
2017	1	préférée	
2018	1	préparer	
2019	1	préposition	
2020	1	prés	
2021	1	présent	
2022	1	présents	
2023	1	préside	
2024	1	prétendez	
2025	1	prétends	
2026	1	prétexte	
2027	1	prévenue	
2028	1	prévu	
2029	1	prêtaient	
2030	1	prêtes	
2031	1	prêté	
2032	1	public	
2033	1	publie	
2034	1	publier	
2035	1	publierai	
2036	1	publique	
2037	1	puissant	
2038	1	punirais	
2039	1	pur	
2040	1	purge	
2041	1	purgé	
2042	1	pussiez	
2043	1	périra	
2044	1	périsse	
2045	1	pû	
2046	1	quartier	
2047	1	rage	
2048	1	raisons	
2049	1	rappelle	
2050	1	rapports	
2051	1	rare	
2052	1	ravie	
2053	1	ravissement	
2054	1	ravit	
2055	1	rayon	
2056	1	recevez	
2057	1	rechercher	
2058	1	reconnais	
2059	1	reconnaissance	
2060	1	reconnaissant	
2061	1	reconnaissante	
2062	1	reconnaissez	
2063	1	reconnaître	
2064	1	reconnu	
2065	1	reculez	
2066	1	reculé	
2067	1	redevable	
2068	1	redoublent	
2069	1	redoutant	
2070	1	refusa	
2071	1	refuseriez	
2072	1	refusiez	
2073	1	regardant	
2074	1	regrets	
2075	1	regrette	
2076	1	remarquer	
2077	1	remettre	
2078	1	remis	
2079	1	remplir	
2080	1	remplissant	
2081	1	remplit	
2082	1	rencontrons	
2083	1	rencontré	
2084	1	rendait	
2085	1	rendit	
2086	1	rendra	
2087	1	rendrai	
2088	1	rendrait	
2089	1	rendu	
2090	1	rentrent	
2091	1	rentrer	
2092	1	renvoie	
2093	1	renvoyait	
2094	1	repais	
2095	1	reprenez	
2096	1	reprochez	
2097	1	respecter	
2098	1	responsable	
2099	1	ressentir	
2100	1	ressort	
2101	1	rester	
2102	1	retiennent	
2103	1	retirez	
2104	1	retirons	
2105	1	retracer	
2106	1	retrouvé	
2107	1	revivre	
2108	1	revoie	
2109	1	revu	
2110	1	rigueurs	
2111	1	rompez	
2112	1	romps	
2113	1	rompu	
2114	1	rougeur	
2115	1	rougi	
2116	1	rougis	
2117	1	rougisse	
2118	1	roxas	
2119	1	ruine	
2120	1	ruiner	
2121	1	règle	
2122	1	rébellion	
2123	1	récompense	
2124	1	réduisiez	
2125	1	réglé	
2126	1	régna	
2127	1	répande	
2128	1	répare	
2129	1	réparer	
2130	1	réponde	
2131	1	répondra	
2132	1	répondrai	
2133	1	répondu	
2134	1	répètes	
2135	1	réserve	
2136	1	réserver	
2137	1	réserveriez	
2138	1	réserviez	
2139	1	résistance	
2140	1	résiste	
2141	1	résolu	
2142	1	résolution	
2143	1	résolvez	
2144	1	réveille	
2145	1	rêveur	
2146	1	sacrifiant	
2147	1	saintement	
2148	1	saisir	
2149	1	saouler	
2150	1	satisfais	
2151	1	satisfis	
2152	1	saurais	
2153	1	saurions	
2154	1	sauva	
2155	1	sauver	
2156	1	sauvé	
2157	1	secondez	
2158	1	secondé	
2159	1	secrètement	
2160	1	sein	
2161	1	selon	
2162	1	semblable	
2163	1	semblez	
2164	1	sentis	
2165	1	serai	
2166	1	serais	
2167	1	seriez	
2168	1	serment	
2169	1	servait	
2170	1	serve	
2171	1	servi	
2172	1	servira	
2173	1	servirait	
2174	1	servit	
2175	1	sienne	
2176	1	signale	
2177	1	signes	
2178	1	siège	
2179	1	sollicite	
2180	1	sollicité	
2181	1	sombre	
2182	1	sommes	
2183	1	songe	
2184	1	songeant	
2185	1	songeons	
2186	1	songes	
2187	1	sortie	
2188	1	sortit	
2189	1	souffrirais	
2190	1	souffririez	
2191	1	souhaite	
2192	1	souhaiter	
2193	1	souhaits	
2194	1	souillure	
2195	1	souillé	
2196	1	soulage	
2197	1	soumis	
2198	1	soumise	
2199	1	soupir	
2200	1	soupçonneriez	
2201	1	soupçonniez	
2202	1	source	
2203	1	sourd	
2204	1	souscris	
2205	1	soustraire	
2206	1	soutien	
2207	1	soutienne	
2208	1	soutient	
2209	1	souvenez	
2210	1	souviendrai	
2211	1	soyez	
2212	1	subir	
2213	1	subit	
2214	1	subsister	
2215	1	succède	
2216	1	succéder	
2217	1	suffira	
2218	1	suffoque	
2219	1	suit	
2220	1	suive	
2221	1	suivi	
2222	1	suivis	
2223	1	suivons	
2224	1	suivra	
2225	1	sujette	
2226	1	suppléer	
2227	1	supprime	
2228	1	supprimer	
2229	1	surmonte	
2230	1	surmonté	
2231	1	surprenant	
2232	1	surprenante	
2233	1	surprend	
2234	1	survenu	
2235	1	survenus	
2236	1	surviennent	
2237	1	survient	
2238	1	sus	
2239	1	suspendre	
2240	1	suspendue	
2241	1	sympathies	
2242	1	sème	
2243	1	séduit	
2244	1	séjour	
2245	1	séparera	
2246	1	sûre	
2247	1	tais	
2248	1	tandis	
2249	1	tante	
2250	1	tard	
2251	1	tarde	
2252	1	tellement	
2253	1	tels	
2254	1	tenaient	
2255	1	tenant	
2256	1	tendre	
2257	1	tenez	
2258	1	tenter	
2259	1	tentera	
2260	1	tenté	
2261	1	tenu	
2262	1	terminer	
2263	1	teste	
2264	1	tiendrez	
2265	1	tienne	
2266	1	tirant	
2267	1	tire	
2268	1	tirer	
2269	1	tiré	
2270	1	titre	
2271	1	tombé	
2272	1	touchant	
2273	1	toucher	
2274	1	touchez	
2275	1	tourment	
2276	1	tracer	
2277	1	trahie	
2278	1	trahirais	
2279	1	trahirait	
2280	1	traite	
2281	1	traitât	
2282	1	transports	
2283	1	traîtres	
2284	1	tremble	
2285	1	trembler	
2286	1	tribut	
2287	1	triompher	
2288	1	trompa	
2289	1	trompant	
2290	1	trompeur	
2291	1	troublé	
2292	1	troublée	
2293	1	troupe	
2294	1	trouvait	
2295	1	trouvant	
2296	1	trouvera	
2297	1	trouverais	
2298	1	trouveriez	
2299	1	trouvât	
2300	1	trésors	
2301	1	trêve	
2302	1	tuer	
2303	1	tumulte	
2304	1	tyran	
2305	1	tyrannique	
2306	1	tyranniser	
2307	1	tâchant	
2308	1	témoignage	
2309	1	témoigner	
2310	1	tôt	
2311	1	uni	
2312	1	usage	
2313	1	usais	
2314	1	use	
2315	1	user	
2316	1	vaillant	
2317	1	vaincs	
2318	1	vainement	
2319	1	vaisseau	
2320	1	vangeance	
2321	1	vaudrait	
2322	1	veille	
2323	1	venais	
2324	1	venait	
2325	1	vengent	
2326	1	vents	
2327	1	verra	
2328	1	verrait	
2329	1	verras	
2330	1	verriez	
2331	1	verrons	
2332	1	veuillez	
2333	1	veuve	
2334	1	victime	
2335	1	vieil	
2336	1	vigueur	
2337	1	vil	
2338	1	violente	
2339	1	violents	
2340	1	visage	
2341	1	vive	
2342	1	vives	
2343	1	vivez	
2344	1	vivrai	
2345	1	voudront	
2346	1	voulait	
2347	1	vraiment	
2348	1	vérité	
2349	1	âmes	
2350	1	âpres	
2351	1	éblouie	
2352	1	ébranler	
2353	1	ébranlé	
2354	1	échappait	
2355	1	échappant	
2356	1	éclaircir	
2357	1	éclaircisse	
2358	1	éclairât	
2359	1	éclairée	
2360	1	éclatant	
2361	1	éclate	
2362	1	éclaté	
2363	1	écoutant	
2364	1	écoutasse	
2365	1	écoutent	
2366	1	égal	
2367	1	égale	
2368	1	égare	
2369	1	égarée	
2370	1	élevant	
2371	1	éloignement	
2372	1	éloignent	
2373	1	éloignons	
2374	1	élève	
2375	1	élèvent	
2376	1	élément	
2377	1	émeu	
2378	1	émouvoir	
2379	1	ému	
2380	1	émue	
2381	1	épie	
2382	1	époque	
2383	1	épouse	
2384	1	épouser	
2385	1	étendait	
2386	1	éternel	
2387	1	étiez	
2388	1	étions	
2389	1	étouffe	
2390	1	étrange	
2391	1	étranger	
2392	1	étroit	
2393	1	évite	
2394	1	évitera	
2395	1	évitons	
2396	1	évènement	
2397	1	ôte	
2398	1	ôter	
2399	1	ôtez	
