#Word Types: 2346
#Word Tokens: 16219
#Search Hits: 0
1	455	vous	
2	400	je	
3	380	de	
4	337	et	
5	312	que	
6	296	à	
7	284	est	
8	279	l	
9	255	il	
10	251	un	
11	248	en	
12	246	qu	
13	235	le	
14	206	ce	
15	191	d	
16	188	pour	
17	187	me	
18	179	la	
19	172	ne	
20	152	mon	
21	150	m	
22	142	j	
23	142	si	
24	141	mais	
25	110	c	
26	109	moi	
27	109	n	
28	99	don	
29	91	ai	
30	90	elle	
31	90	on	
32	90	une	
33	90	votre	
34	88	ma	
35	86	bien	
36	84	qui	
37	84	s	
38	79	tout	
39	76	a	
40	75	point	
41	75	sans	
42	73	pas	
43	68	amour	
44	67	par	
45	67	son	
46	64	au	
47	60	tu	
48	59	cette	
49	57	enfin	
50	57	plus	
51	56	lui	
52	54	dans	
53	54	quoi	
54	53	soeur	
55	52	fait	
56	47	être	
57	45	se	
58	45	trop	
59	44	ici	
60	44	sa	
61	44	sur	
62	42	isabelle	
63	41	les	
64	40	ah	
65	40	faut	
66	40	même	
67	39	mes	
68	38	fadrique	
69	38	peut	
70	38	voir	
71	37	non	
72	36	avec	
73	35	félix	
74	34	faire	
75	34	où	
76	33	madame	
77	33	ou	
78	32	rien	
79	32	suis	
80	31	quand	
81	30	autre	
82	30	nous	
83	30	peu	
84	29	du	
85	29	moins	
86	29	quel	
87	27	ainsi	
88	27	monsieur	
89	27	ses	
90	27	vos	
91	27	y	
92	26	des	
93	26	t	
94	25	donc	
95	25	là	
96	25	mal	
97	24	dont	
98	24	jour	
99	24	sais	
100	24	âme	
101	23	dire	
102	23	honneur	
103	23	puis	
104	22	aime	
105	22	béatrix	
106	22	césar	
107	22	était	
108	22	ô	
109	21	avez	
110	21	deux	
111	21	lieu	
112	21	tant	
113	20	cet	
114	20	déjà	
115	20	esprit	
116	20	pu	
117	20	quelque	
118	20	rival	
119	20	vain	
120	19	assez	
121	19	chez	
122	19	comme	
123	19	dit	
124	19	encor	
125	19	jamais	
126	19	puisque	
127	19	veut	
128	19	vois	
129	18	effet	
130	18	espoir	
131	18	flamme	
132	18	foi	
133	18	secret	
134	17	adieu	
135	17	après	
136	17	dame	
137	17	frère	
138	17	porte	
139	17	rendre	
140	17	toujours	
141	17	va	
142	16	billet	
143	16	bon	
144	16	ces	
145	16	craindre	
146	16	crois	
147	16	dessein	
148	16	nom	
149	16	oui	
150	16	seul	
151	16	vu	
152	15	amant	
153	15	aujourd	
154	15	bas	
155	15	fort	
156	15	grâce	
157	15	hui	
158	15	malheur	
159	15	objet	
160	15	peine	
161	15	soit	
162	15	sort	
163	15	te	
164	15	tous	
165	15	veux	
166	15	yeux	
167	14	ciel	
168	14	crains	
169	14	croire	
170	14	doux	
171	14	feu	
172	14	gloire	
173	14	mieux	
174	14	notre	
175	14	nuit	
176	14	serait	
177	14	su	
178	14	surprise	
179	13	ait	
180	13	aussi	
181	13	connaître	
182	13	dois	
183	13	ignore	
184	13	ils	
185	13	inconnue	
186	13	savoir	
187	13	toi	
188	12	doit	
189	12	donner	
190	12	encore	
191	12	fois	
192	12	ont	
193	12	parler	
194	12	pouvez	
195	12	puisqu	
196	12	père	
197	12	quelle	
198	12	seulement	
199	12	souffrir	
200	12	ton	
201	11	aux	
202	11	avoir	
203	11	car	
204	11	doute	
205	11	fais	
206	11	jours	
207	11	juste	
208	11	mépris	
209	11	ordre	
210	11	ose	
211	11	péril	
212	11	rend	
213	11	sont	
214	11	sujet	
215	11	ta	
216	11	tort	
217	11	vient	
218	11	voulu	
219	11	êtes	
220	10	aimer	
221	10	allons	
222	10	ayant	
223	10	cabinet	
224	10	cause	
225	10	cependant	
226	10	contre	
227	10	crime	
228	10	dis	
229	10	donnez	
230	10	heureux	
231	10	hélas	
232	10	jusqu	
233	10	leur	
234	10	paraître	
235	10	querelle	
236	10	temps	
237	10	triste	
238	10	valet	
239	10	vite	
240	10	voyez	
241	9	abord	
242	9	adresse	
243	9	allez	
244	9	ami	
245	9	aveu	
246	9	belle	
247	9	chose	
248	9	colère	
249	9	connais	
250	9	courroux	
251	9	crainte	
252	9	célie	
253	9	destin	
254	9	dieux	
255	9	dites	
256	9	elvire	
257	9	entretien	
258	9	erreur	
259	9	ingrate	
260	9	jaloux	
261	9	lope	
262	9	lumière	
263	9	maîtresse	
264	9	part	
265	9	pouvoir	
266	9	sait	
267	9	soin	
268	9	sous	
269	9	toute	
270	9	viens	
271	9	voici	
272	9	étonne	
273	8	adore	
274	8	ardeur	
275	8	autant	
276	8	bruit	
277	8	cela	
278	8	clarin	
279	8	combat	
280	8	croyez	
281	8	depuis	
282	8	discours	
283	8	entre	
284	8	extrême	
285	8	laisse	
286	8	longtemps	
287	8	mettre	
288	8	montrer	
289	8	pourtant	
290	8	prend	
291	8	prendre	
292	8	puisse	
293	8	quitte	
294	8	rendez	
295	8	retour	
296	8	trouble	
297	8	vrai	
298	8	étant	
299	7	arrête	
300	7	as	
301	7	assurer	
302	7	aurais	
303	7	beau	
304	7	besoin	
305	7	bout	
306	7	cavalier	
307	7	cherche	
308	7	coups	
309	7	cours	
310	7	croit	
311	7	disgrâce	
312	7	donne	
313	7	dès	
314	7	eût	
315	7	faveur	
316	7	fin	
317	7	fut	
318	7	grand	
319	7	honte	
320	7	loin	
321	7	maître	
322	7	naître	
323	7	nouvelle	
324	7	oeil	
325	7	paraît	
326	7	plaindre	
327	7	plutôt	
328	7	prends	
329	7	raison	
330	7	servir	
331	7	souci	
332	7	soupire	
333	7	surprendre	
334	7	tantôt	
335	7	venir	
336	7	vie	
337	7	vôtre	
338	6	appas	
339	6	arrêtez	
340	6	attendre	
341	6	avait	
342	6	avant	
343	6	avertir	
344	6	beauté	
345	6	combien	
346	6	douter	
347	6	engage	
348	6	espère	
349	6	excuse	
350	6	fille	
351	6	flatter	
352	6	main	
353	6	mille	
354	6	ni	
355	6	nos	
356	6	obliger	
357	6	occasion	
358	6	parlez	
359	6	parti	
360	6	pense	
361	6	personne	
362	6	place	
363	6	plains	
364	6	pourrais	
365	6	quitter	
366	6	respect	
367	6	sachez	
368	6	secours	
369	6	semble	
370	6	silence	
371	6	soins	
372	6	soupçon	
373	6	souvent	
374	6	suivre	
375	6	surpris	
376	6	tel	
377	6	tiens	
378	6	trahir	
379	6	tromper	
380	6	trouvez	
381	6	tôt	
382	6	vais	
383	6	vieillard	
384	6	voeux	
385	6	éclat	
386	5	accord	
387	5	affaire	
388	5	alonse	
389	5	alors	
390	5	apprend	
391	5	apprendre	
392	5	aucun	
393	5	avais	
394	5	aventure	
395	5	avis	
396	5	beaucoup	
397	5	bonne	
398	5	celui	
399	5	choix	
400	5	comment	
401	5	confus	
402	5	connaît	
403	5	craignez	
404	5	davantage	
405	5	demander	
406	5	devez	
407	5	dieu	
408	5	discret	
409	5	donné	
410	5	déclare	
411	5	découvrir	
412	5	déplaire	
413	5	empire	
414	5	emporte	
415	5	ennemi	
416	5	ennui	
417	5	eu	
418	5	excuser	
419	5	exprès	
420	5	faites	
421	5	feindre	
422	5	fenêtre	
423	5	fâcheux	
424	5	gens	
425	5	homme	
426	5	importe	
427	5	inconnu	
428	5	joie	
429	5	juger	
430	5	logis	
431	5	lois	
432	5	lâche	
433	5	mauvais	
434	5	mien	
435	5	moment	
436	5	montre	
437	5	mort	
438	5	mot	
439	5	mérite	
440	5	outrage	
441	5	parle	
442	5	passe	
443	5	plaire	
444	5	procédé	
445	5	promptement	
446	5	propos	
447	5	quelqu	
448	5	quoique	
449	5	refus	
450	5	remède	
451	5	rencontre	
452	5	rendu	
453	5	rivaux	
454	5	secrets	
455	5	sois	
456	5	sorte	
457	5	sortez	
458	5	souffrez	
459	5	stratagème	
460	5	suffit	
461	5	taire	
462	5	tirer	
463	5	touche	
464	5	trouve	
465	5	vengeance	
466	5	visage	
467	5	voix	
468	5	voulez	
469	5	vue	
470	5	état	
471	5	été	
472	4	ailleurs	
473	4	aimé	
474	4	aller	
475	4	amis	
476	4	amène	
477	4	arrêter	
478	4	avecque	
479	4	aveuglement	
480	4	aviez	
481	4	ayez	
482	4	bouche	
483	4	cache	
484	4	chaque	
485	4	charmes	
486	4	cher	
487	4	civilité	
488	4	compte	
489	4	confesser	
490	4	confusion	
491	4	conseil	
492	4	content	
493	4	conter	
494	4	continue	
495	4	contraindre	
496	4	contrainte	
497	4	craignant	
498	4	cru	
499	4	danger	
500	4	demain	
501	4	devant	
502	4	devoir	
503	4	douleur	
504	4	désirs	
505	4	empêcher	
506	4	engager	
507	4	entends	
508	4	entière	
509	4	entrez	
510	4	explique	
511	4	expose	
512	4	facile	
513	4	faible	
514	4	fallait	
515	4	fatal	
516	4	faveurs	
517	4	feux	
518	4	finir	
519	4	font	
520	4	force	
521	4	fureur	
522	4	garde	
523	4	garder	
524	4	gardez	
525	4	généreux	
526	4	hâte	
527	4	illusion	
528	4	indigne	
529	4	infâme	
530	4	injuste	
531	4	intérêt	
532	4	jalousie	
533	4	loi	
534	4	malheureux	
535	4	manque	
536	4	mourir	
537	4	murmure	
538	4	noble	
539	4	nommer	
540	4	nouveau	
541	4	obéir	
542	4	oser	
543	4	parjure	
544	4	parlé	
545	4	passion	
546	4	perdre	
547	4	permis	
548	4	persistez	
549	4	plein	
550	4	port	
551	4	pourquoi	
552	4	première	
553	4	pressant	
554	4	presse	
555	4	preuve	
556	4	prie	
557	4	pris	
558	4	prière	
559	4	promesse	
560	4	propre	
561	4	pure	
562	4	quelques	
563	4	rare	
564	4	regret	
565	4	repos	
566	4	reproche	
567	4	retire	
568	4	reçu	
569	4	rue	
570	4	règne	
571	4	résoudre	
572	4	sache	
573	4	sens	
574	4	sensible	
575	4	serais	
576	4	seule	
577	4	sortir	
578	4	soufflet	
579	4	souffre	
580	4	soupirs	
581	4	surtout	
582	4	tais	
583	4	tandis	
584	4	tient	
585	4	toutefois	
586	4	traits	
587	4	transport	
588	4	vaincre	
589	4	venez	
590	4	ville	
591	4	visite	
592	4	vivre	
593	4	voit	
594	4	volage	
595	4	éclaircir	
596	4	étonner	
597	3	absence	
598	3	adroit	
599	3	affront	
600	3	aille	
601	3	aimant	
602	3	aimez	
603	3	alarme	
604	3	amitié	
605	3	apparence	
606	3	appartement	
607	3	aspire	
608	3	attends	
609	3	audace	
610	3	auparavant	
611	3	aurait	
612	3	aurez	
613	3	averti	
614	3	avoue	
615	3	battu	
616	3	beaux	
617	3	bonheur	
618	3	bonté	
619	3	bras	
620	3	brûler	
621	3	cacher	
622	3	causé	
623	3	celer	
624	3	cent	
625	3	cervelle	
626	3	cessez	
627	3	chaleur	
628	3	change	
629	3	charme	
630	3	cherchez	
631	3	ci	
632	3	confesse	
633	3	connu	
634	3	contester	
635	3	couleurs	
636	3	coup	
637	3	cour	
638	3	cruelle	
639	3	céder	
640	3	demande	
641	3	dernier	
642	3	derrière	
643	3	dessous	
644	3	diable	
645	3	difficile	
646	3	différer	
647	3	dise	
648	3	douceur	
649	3	droit	
650	3	découvert	
651	3	déguisé	
652	3	désabuse	
653	3	désir	
654	3	détour	
655	3	effort	
656	3	embrasse	
657	3	engagement	
658	3	ennuis	
659	3	entendre	
660	3	entrer	
661	3	entretenir	
662	3	envers	
663	3	espérer	
664	3	estime	
665	3	faiblesse	
666	3	fasse	
667	3	feignant	
668	3	feinte	
669	3	femme	
670	3	fidèle	
671	3	flammes	
672	3	franchise	
673	3	fruit	
674	3	gagner	
675	3	galant	
676	3	gré	
677	3	guérir	
678	3	haine	
679	3	hasard	
680	3	heure	
681	3	hier	
682	3	hommage	
683	3	honteux	
684	3	humeur	
685	3	important	
686	3	imposture	
687	3	infidèle	
688	3	infidélité	
689	3	invisible	
690	3	irrité	
691	3	jusques	
692	3	justice	
693	3	laisser	
694	3	laissez	
695	3	langue	
696	3	las	
697	3	lorsque	
698	3	mains	
699	3	malgré	
700	3	marche	
701	3	marque	
702	3	martyre	
703	3	matin	
704	3	menace	
705	3	mets	
706	3	mine	
707	3	misérable	
708	3	moindre	
709	3	monde	
710	3	mots	
711	3	mystère	
712	3	mépriser	
713	3	obtenir	
714	3	offense	
715	3	ordonne	
716	3	oublier	
717	3	ouvrir	
718	3	partie	
719	3	passer	
720	3	payer	
721	3	perds	
722	3	peur	
723	3	pourrait	
724	3	pouvais	
725	3	pratique	
726	3	premier	
727	3	prenne	
728	3	promis	
729	3	présumer	
730	3	prétend	
731	3	prétendre	
732	3	prétexte	
733	3	prêt	
734	3	puissance	
735	3	pût	
736	3	quels	
737	3	raisonner	
738	3	rapport	
739	3	recevoir	
740	3	refuser	
741	3	regarde	
742	3	rencontrer	
743	3	rends	
744	3	retenue	
745	3	riche	
746	3	rigoureux	
747	3	rigueur	
748	3	rompre	
749	3	saisie	
750	3	sang	
751	3	satisfaire	
752	3	satisfait	
753	3	satisfaite	
754	3	scrupule	
755	3	secrète	
756	3	semblable	
757	3	sentiment	
758	3	sera	
759	3	sert	
760	3	servi	
761	3	sincère	
762	3	soi	
763	3	soir	
764	3	sommes	
765	3	songez	
766	3	soudain	
767	3	soupirer	
768	3	soupçonne	
769	3	st	
770	3	succès	
771	3	suivante	
772	3	suivez	
773	3	suivons	
774	3	tard	
775	3	tarder	
776	3	telle	
777	3	tes	
778	3	trahison	
779	3	traître	
780	3	triompher	
781	3	trompe	
782	3	troubler	
783	3	tâche	
784	3	vaine	
785	3	vanter	
786	3	vas	
787	3	vaut	
788	3	venger	
789	3	vers	
790	3	vertu	
791	3	vienne	
792	3	violence	
793	3	voie	
794	3	voisin	
795	3	voyant	
796	3	échapper	
797	3	éclairci	
798	3	éclate	
799	3	étrange	
800	2	abandonnez	
801	2	abandonnée	
802	2	accuse	
803	2	accuser	
804	2	acquitter	
805	2	afin	
806	2	aimable	
807	2	air	
808	2	aisé	
809	2	aisément	
810	2	amants	
811	2	amoureux	
812	2	amours	
813	2	aperçois	
814	2	appeler	
815	2	appelle	
816	2	apprendrai	
817	2	appris	
818	2	approche	
819	2	approuve	
820	2	armer	
821	2	armes	
822	2	arracher	
823	2	attaquer	
824	2	attend	
825	2	attirer	
826	2	augmenter	
827	2	auprès	
828	2	aura	
829	2	autres	
830	2	avaient	
831	2	avantage	
832	2	avons	
833	2	avouerai	
834	2	bientôt	
835	2	billets	
836	2	bizarre	
837	2	blesser	
838	2	blessé	
839	2	blâme	
840	2	bourse	
841	2	brûle	
842	2	brûlez	
843	2	cachez	
844	2	caché	
845	2	capable	
846	2	ceci	
847	2	celle	
848	2	certain	
849	2	changer	
850	2	charmante	
851	2	chassez	
852	2	chat	
853	2	chercher	
854	2	clef	
855	2	combattre	
856	2	commence	
857	2	commettre	
858	2	comprendre	
859	2	comprends	
860	2	condamné	
861	2	conduire	
862	2	conduite	
863	2	confessez	
864	2	confond	
865	2	congé	
866	2	conjoncture	
867	2	conquête	
868	2	consentement	
869	2	continuez	
870	2	coupable	
871	2	courir	
872	2	court	
873	2	croirai	
874	2	crédit	
875	2	daignez	
876	2	dames	
877	2	demandez	
878	2	demi	
879	2	descendre	
880	2	desseins	
881	2	dessus	
882	2	devais	
883	2	deviez	
884	2	devoirs	
885	2	devrais	
886	2	digne	
887	2	disiez	
888	2	dispose	
889	2	doucement	
890	2	doutes	
891	2	défaut	
892	2	défense	
893	2	déguisement	
894	2	déguiser	
895	2	départ	
896	2	dépend	
897	2	dépens	
898	2	déplaît	
899	2	dépêche	
900	2	dû	
901	2	efforts	
902	2	embrasser	
903	2	empêchez	
904	2	enferme	
905	2	engagez	
906	2	ennemis	
907	2	ensemble	
908	2	entrevue	
909	2	entrons	
910	2	envi	
911	2	envie	
912	2	es	
913	2	eus	
914	2	eusse	
915	2	expliquer	
916	2	extrémité	
917	2	faisant	
918	2	faite	
919	2	faudra	
920	2	faudrait	
921	2	fausse	
922	2	faux	
923	2	feignez	
924	2	ferais	
925	2	ferait	
926	2	feriez	
927	2	fermé	
928	2	flandre	
929	2	flatte	
930	2	forcer	
931	2	forme	
932	2	fourbe	
933	2	frappe	
934	2	frivole	
935	2	front	
936	2	fuir	
937	2	fuis	
938	2	fuyant	
939	2	fuyez	
940	2	fût	
941	2	gagné	
942	2	gouvernez	
943	2	grande	
944	2	gâter	
945	2	hasarder	
946	2	haut	
947	2	haute	
948	2	holà	
949	2	huant	
950	2	hymen	
951	2	hyménée	
952	2	impatience	
953	2	imprévu	
954	2	inconstance	
955	2	indiscret	
956	2	injurieux	
957	2	injustice	
958	2	innocence	
959	2	inquiétude	
960	2	intelligence	
961	2	intéresse	
962	2	inutile	
963	2	jalouse	
964	2	jeu	
965	2	jouer	
966	2	jurer	
967	2	justifier	
968	2	langueur	
969	2	leurs	
970	2	liberté	
971	2	lieux	
972	2	lire	
973	2	lis	
974	2	lourd	
975	2	lâches	
976	2	lâcheté	
977	2	légitime	
978	2	maraud	
979	2	maux	
980	2	message	
981	2	meurs	
982	2	mines	
983	2	mis	
984	2	moments	
985	2	monnaie	
986	2	montrez	
987	2	moyen	
988	2	mériter	
989	2	naissance	
990	2	nier	
991	2	nue	
992	2	oblige	
993	2	obligé	
994	2	obscure	
995	2	obstacle	
996	2	obstiné	
997	2	obstinément	
998	2	obtiens	
999	2	odieux	
1000	2	offenser	
1001	2	offre	
1002	2	ombre	
1003	2	oppose	
1004	2	orage	
1005	2	oublierai	
1006	2	outrager	
1007	2	ouvre	
1008	2	pardonnez	
1009	2	pareil	
1010	2	parlait	
1011	2	parole	
1012	2	partagé	
1013	2	partout	
1014	2	passage	
1015	2	passionné	
1016	2	peines	
1017	2	peint	
1018	2	perd	
1019	2	perdant	
1020	2	perdez	
1021	2	perdu	
1022	2	perdue	
1023	2	perfidie	
1024	2	perte	
1025	2	peuvent	
1026	2	plaisir	
1027	2	pourrai	
1028	2	poursuit	
1029	2	pourvoir	
1030	2	pratiques	
1031	2	presque	
1032	2	pressé	
1033	2	prise	
1034	2	prix	
1035	2	prié	
1036	2	projet	
1037	2	prolonger	
1038	2	prompt	
1039	2	près	
1040	2	présence	
1041	2	présents	
1042	2	présumez	
1043	2	prévenir	
1044	2	publier	
1045	2	punir	
1046	2	pèse	
1047	2	quartier	
1048	2	quereller	
1049	2	raillerie	
1050	2	railleur	
1051	2	raisons	
1052	2	rarement	
1053	2	recevant	
1054	2	reconnu	
1055	2	redouter	
1056	2	rentre	
1057	2	repousser	
1058	2	retirez	
1059	2	retirée	
1060	2	retraite	
1061	2	reçus	
1062	2	récit	
1063	2	réduit	
1064	2	réduite	
1065	2	répond	
1066	2	répondez	
1067	2	répondre	
1068	2	réponse	
1069	2	résolue	
1070	2	rôle	
1071	2	sachant	
1072	2	sachiez	
1073	2	saison	
1074	2	saurai	
1075	2	saurez	
1076	2	sauver	
1077	2	savez	
1078	2	secourir	
1079	2	secrètes	
1080	2	sentiments	
1081	2	serez	
1082	2	serve	
1083	2	sexe	
1084	2	siens	
1085	2	sitôt	
1086	2	six	
1087	2	sollicite	
1088	2	sors	
1089	2	sot	
1090	2	soupçons	
1091	2	suborneur	
1092	2	sue	
1093	2	supplice	
1094	2	surprend	
1095	2	sûreté	
1096	2	tache	
1097	2	taille	
1098	2	tenez	
1099	2	tenir	
1100	2	termes	
1101	2	tirez	
1102	2	touchant	
1103	2	toucher	
1104	2	tours	
1105	2	traite	
1106	2	traiter	
1107	2	traité	
1108	2	tremble	
1109	2	triomphe	
1110	2	trois	
1111	2	trouver	
1112	2	trouvé	
1113	2	tyran	
1114	2	témoin	
1115	2	tête	
1116	2	use	
1117	2	vains	
1118	2	vaux	
1119	2	venu	
1120	2	venue	
1121	2	victoire	
1122	2	vit	
1123	2	vivez	
1124	2	voile	
1125	2	voilà	
1126	2	voudrais	
1127	2	voulait	
1128	2	vraie	
1129	2	zèle	
1130	2	écart	
1131	2	éclater	
1132	2	écouter	
1133	2	écrit	
1134	2	égal	
1135	2	éloigné	
1136	2	épreuve	
1137	2	éprouvé	
1138	2	étouffer	
1139	2	étrille	
1140	1	abandonne	
1141	1	abattue	
1142	1	aborde	
1143	1	absent	
1144	1	absolu	
1145	1	abus	
1146	1	abusant	
1147	1	accable	
1148	1	accepte	
1149	1	accepter	
1150	1	accommoder	
1151	1	accorder	
1152	1	accorderez	
1153	1	accueil	
1154	1	accusé	
1155	1	accès	
1156	1	achever	
1157	1	acquitte	
1158	1	action	
1159	1	admire	
1160	1	adorable	
1161	1	adorateur	
1162	1	adorez	
1163	1	adoré	
1164	1	adressaient	
1165	1	adroite	
1166	1	adroitement	
1167	1	adroits	
1168	1	affectez	
1169	1	affronte	
1170	1	agents	
1171	1	agir	
1172	1	agisse	
1173	1	agréable	
1174	1	aide	
1175	1	aie	
1176	1	aigrit	
1177	1	aimablement	
1178	1	aimables	
1179	1	aimerai	
1180	1	aimeriez	
1181	1	aimée	
1182	1	aise	
1183	1	alarmez	
1184	1	alarmé	
1185	1	albert	
1186	1	alentit	
1187	1	allait	
1188	1	allant	
1189	1	allume	
1190	1	allégeance	
1191	1	amadoué	
1192	1	amie	
1193	1	anime	
1194	1	ans	
1195	1	apaisant	
1196	1	apaiser	
1197	1	appartiens	
1198	1	appartient	
1199	1	appelez	
1200	1	apprenant	
1201	1	approuvez	
1202	1	appréhende	
1203	1	appréhendez	
1204	1	apprête	
1205	1	apprêter	
1206	1	appui	
1207	1	argent	
1208	1	arriver	
1209	1	arrêt	
1210	1	arrêtant	
1211	1	arrêté	
1212	1	artifice	
1213	1	aspirez	
1214	1	assidus	
1215	1	assignation	
1216	1	assurait	
1217	1	assurance	
1218	1	assure	
1219	1	assuré	
1220	1	assurée	
1221	1	atteint	
1222	1	atteinte	
1223	1	atteintes	
1224	1	attendais	
1225	1	attendait	
1226	1	attendant	
1227	1	attendrai	
1228	1	attentats	
1229	1	attraper	
1230	1	aucune	
1231	1	aurai	
1232	1	auraient	
1233	1	auras	
1234	1	aurore	
1235	1	aussitôt	
1236	1	auteur	
1237	1	auteurs	
1238	1	autorisez	
1239	1	autorité	
1240	1	autrefois	
1241	1	autrement	
1242	1	autrui	
1243	1	avalé	
1244	1	avançons	
1245	1	aveuglément	
1246	1	aviser	
1247	1	avisé	
1248	1	avouer	
1249	1	babiller	
1250	1	badinage	
1251	1	bandeau	
1252	1	barbier	
1253	1	bat	
1254	1	baye	
1255	1	bel	
1256	1	belles	
1257	1	blasphème	
1258	1	blesse	
1259	1	blâmable	
1260	1	blâmer	
1261	1	blâmez	
1262	1	bords	
1263	1	borne	
1264	1	bornez	
1265	1	bouillante	
1266	1	bourrez	
1267	1	boutique	
1268	1	braise	
1269	1	bravant	
1270	1	brave	
1271	1	braver	
1272	1	brillant	
1273	1	brisons	
1274	1	brouiller	
1275	1	brouillé	
1276	1	bruits	
1277	1	brutal	
1278	1	brûliez	
1279	1	but	
1280	1	cachant	
1281	1	cachée	
1282	1	cajoleur	
1283	1	calmant	
1284	1	calmé	
1285	1	caprice	
1286	1	caprices	
1287	1	capricieux	
1288	1	captif	
1289	1	caquet	
1290	1	carrosse	
1291	1	cas	
1292	1	causer	
1293	1	certaine	
1294	1	certains	
1295	1	certes	
1296	1	cessant	
1297	1	cesse	
1298	1	cesser	
1299	1	chacun	
1300	1	chacune	
1301	1	chagrin	
1302	1	chambre	
1303	1	champs	
1304	1	chance	
1305	1	chandelle	
1306	1	changement	
1307	1	charger	
1308	1	charitable	
1309	1	charité	
1310	1	charmant	
1311	1	charmants	
1312	1	charmé	
1313	1	chasser	
1314	1	chaîne	
1315	1	chemin	
1316	1	cherchent	
1317	1	cherchiez	
1318	1	cherché	
1319	1	cheveux	
1320	1	choisir	
1321	1	choisissez	
1322	1	châtiment	
1323	1	chéri	
1324	1	chérir	
1325	1	chéris	
1326	1	circonstance	
1327	1	civil	
1328	1	claire	
1329	1	close	
1330	1	coiffe	
1331	1	combattiez	
1332	1	combattu	
1333	1	commencement	
1334	1	commencé	
1335	1	commença	
1336	1	commets	
1337	1	commis	
1338	1	commission	
1339	1	comparable	
1340	1	complaisance	
1341	1	complice	
1342	1	compliment	
1343	1	comptable	
1344	1	condamner	
1345	1	conduisez	
1346	1	conduit	
1347	1	confidence	
1348	1	confidente	
1349	1	confierais	
1350	1	confié	
1351	1	confondre	
1352	1	confuse	
1353	1	conjure	
1354	1	conjurer	
1355	1	conjuré	
1356	1	connaissance	
1357	1	connaissant	
1358	1	connaissez	
1359	1	connue	
1360	1	connut	
1361	1	consens	
1362	1	consent	
1363	1	consentez	
1364	1	consenti	
1365	1	consentir	
1366	1	conservation	
1367	1	conserver	
1368	1	conservés	
1369	1	considérez	
1370	1	conspiriez	
1371	1	constant	
1372	1	consulte	
1373	1	conte	
1374	1	contentements	
1375	1	contenterez	
1376	1	conterait	
1377	1	contestez	
1378	1	contestons	
1379	1	contiez	
1380	1	continuer	
1381	1	contraint	
1382	1	contraire	
1383	1	contrepoids	
1384	1	convaincre	
1385	1	convie	
1386	1	corrompt	
1387	1	couler	
1388	1	couleur	
1389	1	coupables	
1390	1	courage	
1391	1	courez	
1392	1	couronner	
1393	1	couronnée	
1394	1	courons	
1395	1	courre	
1396	1	courroucé	
1397	1	courtisan	
1398	1	couvert	
1399	1	couvrir	
1400	1	crache	
1401	1	craignais	
1402	1	craigniez	
1403	1	craignons	
1404	1	craint	
1405	1	criminel	
1406	1	crié	
1407	1	croie	
1408	1	croyais	
1409	1	croyance	
1410	1	cruauté	
1411	1	cruel	
1412	1	crus	
1413	1	crusse	
1414	1	crédule	
1415	1	cueillir	
1416	1	curieux	
1417	1	curiosité	
1418	1	cède	
1419	1	cédant	
1420	1	côtés	
1421	1	daigne	
1422	1	daignerez	
1423	1	dea	
1424	1	dedans	
1425	1	demeure	
1426	1	demeurez	
1427	1	dernière	
1428	1	descendant	
1429	1	destinée	
1430	1	devait	
1431	1	devancer	
1432	1	deviendrai	
1433	1	deviendrons	
1434	1	devient	
1435	1	devine	
1436	1	devriez	
1437	1	différent	
1438	1	différez	
1439	1	diligence	
1440	1	diligent	
1441	1	dirai	
1442	1	dirais	
1443	1	dirait	
1444	1	disais	
1445	1	disant	
1446	1	disent	
1447	1	diseur	
1448	1	disloquement	
1449	1	disparu	
1450	1	disposé	
1451	1	dispute	
1452	1	disputer	
1453	1	disputez	
1454	1	dissimule	
1455	1	dissimuler	
1456	1	dissimulez	
1457	1	dissipé	
1458	1	doive	
1459	1	domestique	
1460	1	domestiques	
1461	1	dompter	
1462	1	donna	
1463	1	donnerai	
1464	1	donzelle	
1465	1	dors	
1466	1	dos	
1467	1	double	
1468	1	doublée	
1469	1	douce	
1470	1	douteuse	
1471	1	doutez	
1472	1	duper	
1473	1	dur	
1474	1	dussé	
1475	1	débat	
1476	1	débile	
1477	1	décevant	
1478	1	décharger	
1479	1	déclarerez	
1480	1	découvrait	
1481	1	découvrant	
1482	1	dédaigne	
1483	1	dédire	
1484	1	défait	
1485	1	défend	
1486	1	défendit	
1487	1	défendre	
1488	1	défiance	
1489	1	dégoûtante	
1490	1	délicat	
1491	1	démentir	
1492	1	déplaisir	
1493	1	déplaisirs	
1494	1	dépêchez	
1495	1	dérobe	
1496	1	dérober	
1497	1	désabuser	
1498	1	désaffronte	
1499	1	désert	
1500	1	désire	
1501	1	désordre	
1502	1	désormais	
1503	1	détalé	
1504	1	détourne	
1505	1	détourner	
1506	1	détromper	
1507	1	détruire	
1508	1	détruisez	
1509	1	dûs	
1510	1	efface	
1511	1	effacés	
1512	1	effets	
1513	1	efforçait	
1514	1	elles	
1515	1	embarrassé	
1516	1	employer	
1517	1	employiez	
1518	1	emportement	
1519	1	emportements	
1520	1	emporter	
1521	1	emportez	
1522	1	empresse	
1523	1	empressements	
1524	1	emprunt	
1525	1	emprunte	
1526	1	emprunté	
1527	1	empêchait	
1528	1	empêcherais	
1529	1	enclin	
1530	1	endure	
1531	1	endurer	
1532	1	enfermer	
1533	1	enfermons	
1534	1	enfermé	
1535	1	enfermée	
1536	1	enflez	
1537	1	engagé	
1538	1	enlever	
1539	1	enlève	
1540	1	enrager	
1541	1	ensuite	
1542	1	entasse	
1543	1	entende	
1544	1	entrant	
1545	1	entretienne	
1546	1	entretiens	
1547	1	entretient	
1548	1	entrouverte	
1549	1	envoie	
1550	1	envoyait	
1551	1	envoyer	
1552	1	escalier	
1553	1	escorte	
1554	1	escroque	
1555	1	esprits	
1556	1	espérais	
1557	1	espérance	
1558	1	espérons	
1559	1	essayé	
1560	1	estropier	
1561	1	eussent	
1562	1	eusses	
1563	1	eussé	
1564	1	examinons	
1565	1	excusent	
1566	1	excuserais	
1567	1	excusez	
1568	1	excès	
1569	1	exempt	
1570	1	exiger	
1571	1	expliquerai	
1572	1	exposer	
1573	1	exprimer	
1574	1	expérience	
1575	1	extravague	
1576	1	extravaguer	
1577	1	exécuté	
1578	1	fabrice	
1579	1	facilité	
1580	1	faisait	
1581	1	faisions	
1582	1	faisons	
1583	1	familier	
1584	1	famille	
1585	1	fantaisie	
1586	1	fardeau	
1587	1	farouche	
1588	1	fassent	
1589	1	fausser	
1590	1	fausses	
1591	1	faute	
1592	1	favorable	
1593	1	favoriser	
1594	1	façon	
1595	1	feignit	
1596	1	feignons	
1597	1	feins	
1598	1	feraient	
1599	1	ferez	
1600	1	fermer	
1601	1	fierté	
1602	1	figure	
1603	1	figurer	
1604	1	filet	
1605	1	filous	
1606	1	finirez	
1607	1	fit	
1608	1	fixez	
1609	1	flattent	
1610	1	flatteur	
1611	1	flattez	
1612	1	flattiez	
1613	1	fleuve	
1614	1	flottent	
1615	1	folie	
1616	1	follette	
1617	1	fondé	
1618	1	fondée	
1619	1	former	
1620	1	fortes	
1621	1	fortune	
1622	1	fougue	
1623	1	foule	
1624	1	fourché	
1625	1	fournit	
1626	1	frais	
1627	1	franc	
1628	1	franchement	
1629	1	fripon	
1630	1	froideur	
1631	1	frères	
1632	1	fréquents	
1633	1	fuit	
1634	1	fuite	
1635	1	funeste	
1636	1	furieux	
1637	1	fusse	
1638	1	fâcher	
1639	1	fâcheuse	
1640	1	féminin	
1641	1	gage	
1642	1	gagne	
1643	1	gagnons	
1644	1	gagnée	
1645	1	galante	
1646	1	galanterie	
1647	1	galetas	
1648	1	garantir	
1649	1	garderez	
1650	1	gardons	
1651	1	gendre	
1652	1	geôlière	
1653	1	glissant	
1654	1	grands	
1655	1	gris	
1656	1	guet	
1657	1	gâté	
1658	1	gêne	
1659	1	habillement	
1660	1	hais	
1661	1	hardie	
1662	1	hasardez	
1663	1	hauts	
1664	1	haïr	
1665	1	hermaphrodite	
1666	1	heur	
1667	1	heureuse	
1668	1	histoire	
1669	1	hors	
1670	1	huit	
1671	1	hâtai	
1672	1	ignorait	
1673	1	ignorant	
1674	1	ignorer	
1675	1	ignorez	
1676	1	illustre	
1677	1	imagine	
1678	1	impatient	
1679	1	impitoyable	
1680	1	importante	
1681	1	importer	
1682	1	importun	
1683	1	importune	
1684	1	impose	
1685	1	impossible	
1686	1	imposteurs	
1687	1	imprévue	
1688	1	impuissante	
1689	1	incapable	
1690	1	incivilité	
1691	1	incommode	
1692	1	inconstant	
1693	1	inconstante	
1694	1	indiscrète	
1695	1	indépendant	
1696	1	infamie	
1697	1	infirme	
1698	1	informer	
1699	1	ingrat	
1700	1	ingratitude	
1701	1	injure	
1702	1	innocent	
1703	1	inquiet	
1704	1	inquiète	
1705	1	inquiéter	
1706	1	insigne	
1707	1	insolence	
1708	1	insolente	
1709	1	instruisent	
1710	1	instruit	
1711	1	insu	
1712	1	insulter	
1713	1	interprète	
1714	1	interrompre	
1715	1	intrigue	
1716	1	intéressé	
1717	1	inutilement	
1718	1	invite	
1719	1	irai	
1720	1	irais	
1721	1	irait	
1722	1	irriter	
1723	1	irrévocable	
1724	1	jette	
1725	1	joint	
1726	1	joug	
1727	1	jouissance	
1728	1	joué	
1729	1	juge	
1730	1	jugez	
1731	1	jugé	
1732	1	jure	
1733	1	juré	
1734	1	jusque	
1735	1	justement	
1736	1	laisserais	
1737	1	laisseras	
1738	1	laissiez	
1739	1	laissé	
1740	1	laissée	
1741	1	languir	
1742	1	languis	
1743	1	lassé	
1744	1	lavera	
1745	1	lendemain	
1746	1	lettre	
1747	1	lever	
1748	1	libre	
1749	1	librement	
1750	1	libéral	
1751	1	libéralités	
1752	1	lit	
1753	1	long	
1754	1	lorsqu	
1755	1	lune	
1756	1	lèvera	
1757	1	légèrement	
1758	1	madrid	
1759	1	maintenant	
1760	1	maison	
1761	1	malade	
1762	1	malheure	
1763	1	malheurs	
1764	1	maltraiter	
1765	1	mandé	
1766	1	manquer	
1767	1	manquerez	
1768	1	marcher	
1769	1	marchez	
1770	1	marchons	
1771	1	marquait	
1772	1	marques	
1773	1	masculin	
1774	1	matière	
1775	1	mauvaise	
1776	1	maîtres	
1777	1	meilleur	
1778	1	menacer	
1779	1	menacé	
1780	1	mensonge	
1781	1	mer	
1782	1	merci	
1783	1	merveilles	
1784	1	met	
1785	1	mettez	
1786	1	mettrai	
1787	1	meurt	
1788	1	miens	
1789	1	minois	
1790	1	miroir	
1791	1	modérez	
1792	1	monte	
1793	1	monter	
1794	1	montrant	
1795	1	montré	
1796	1	moquer	
1797	1	mortelle	
1798	1	mouche	
1799	1	mourante	
1800	1	mourrais	
1801	1	mutin	
1802	1	mystérieux	
1803	1	méconnaître	
1804	1	méconnue	
1805	1	médecine	
1806	1	médisant	
1807	1	médite	
1808	1	ménager	
1809	1	méprise	
1810	1	méritait	
1811	1	méritant	
1812	1	mériterais	
1813	1	mérites	
1814	1	mérité	
1815	1	nature	
1816	1	nef	
1817	1	net	
1818	1	nez	
1819	1	niant	
1820	1	noce	
1821	1	noir	
1822	1	noire	
1823	1	nomme	
1824	1	nouveauté	
1825	1	nouveautés	
1826	1	nouvel	
1827	1	nouvelles	
1828	1	né	
1829	1	nécessaire	
1830	1	négligé	
1831	1	nôtre	
1832	1	obligeante	
1833	1	obligée	
1834	1	obscurité	
1835	1	observe	
1836	1	observer	
1837	1	obstine	
1838	1	obstiner	
1839	1	obtenez	
1840	1	obtiendrez	
1841	1	obtienne	
1842	1	obéie	
1843	1	obéissance	
1844	1	occupais	
1845	1	occupiez	
1846	1	occurrence	
1847	1	offenses	
1848	1	offensé	
1849	1	offerte	
1850	1	office	
1851	1	offrir	
1852	1	opposa	
1853	1	ordinaire	
1854	1	ordonner	
1855	1	ordres	
1856	1	oreille	
1857	1	orgueil	
1858	1	orgueilleux	
1859	1	os	
1860	1	osais	
1861	1	osent	
1862	1	oserais	
1863	1	oses	
1864	1	osez	
1865	1	osât	
1866	1	oubliant	
1867	1	oublie	
1868	1	oublierez	
1869	1	oubliez	
1870	1	outre	
1871	1	ouverte	
1872	1	ouvertement	
1873	1	ouvrons	
1874	1	ouïr	
1875	1	oyait	
1876	1	oyant	
1877	1	oyons	
1878	1	paieriez	
1879	1	parait	
1880	1	parcourir	
1881	1	pardon	
1882	1	pardonnée	
1883	1	pareille	
1884	1	pareils	
1885	1	parente	
1886	1	parfait	
1887	1	parfaite	
1888	1	parla	
1889	1	parlant	
1890	1	parlerons	
1891	1	parles	
1892	1	parlions	
1893	1	partageait	
1894	1	partager	
1895	1	partaient	
1896	1	paru	
1897	1	passait	
1898	1	passionnés	
1899	1	passé	
1900	1	pauvre	
1901	1	payiez	
1902	1	payés	
1903	1	peinture	
1904	1	penser	
1905	1	perdrez	
1906	1	perfections	
1907	1	perfide	
1908	1	permet	
1909	1	permets	
1910	1	permettez	
1911	1	persiste	
1912	1	personnage	
1913	1	persuade	
1914	1	perçant	
1915	1	peste	
1916	1	petit	
1917	1	petite	
1918	1	peuple	
1919	1	peux	
1920	1	pieds	
1921	1	pinceau	
1922	1	pire	
1923	1	pis	
1924	1	pitié	
1925	1	piège	
1926	1	plaignais	
1927	1	plaignez	
1928	1	plainte	
1929	1	plaintes	
1930	1	plaisirs	
1931	1	plantureux	
1932	1	plaît	
1933	1	pleinement	
1934	1	plu	
1935	1	plût	
1936	1	poitrine	
1937	1	portait	
1938	1	pourrez	
1939	1	pourriez	
1940	1	pourront	
1941	1	poursuite	
1942	1	poursuivant	
1943	1	pousser	
1944	1	premiers	
1945	1	prendrai	
1946	1	prendrons	
1947	1	prenez	
1948	1	pressais	
1949	1	presser	
1950	1	pressez	
1951	1	pressât	
1952	1	prions	
1953	1	prisonnier	
1954	1	prisonnière	
1955	1	priver	
1956	1	procède	
1957	1	produit	
1958	1	profond	
1959	1	profonds	
1960	1	promets	
1961	1	promise	
1962	1	propice	
1963	1	protester	
1964	1	prouvez	
1965	1	pré	
1966	1	précipitation	
1967	1	précipiter	
1968	1	préférable	
1969	1	préféré	
1970	1	préparer	
1971	1	présage	
1972	1	présent	
1973	1	présente	
1974	1	présume	
1975	1	prétendons	
1976	1	prétends	
1977	1	prétendus	
1978	1	prétentions	
1979	1	prête	
1980	1	prêts	
1981	1	public	
1982	1	publie	
1983	1	publiquement	
1984	1	publiques	
1985	1	puissant	
1986	1	puissants	
1987	1	punit	
1988	1	purger	
1989	1	pusse	
1990	1	pâme	
1991	1	pénétrais	
1992	1	périls	
1993	1	qualités	
1994	1	quatre	
1995	1	quelquefois	
1996	1	raffines	
1997	1	raillant	
1998	1	railler	
1999	1	raisonne	
2000	1	raisonnes	
2001	1	raisonnez	
2002	1	rang	
2003	1	rares	
2004	1	ravit	
2005	1	reconnais	
2006	1	reconnaissance	
2007	1	reconnaissez	
2008	1	reconnaître	
2009	1	recule	
2010	1	redoubler	
2011	1	redoublés	
2012	1	redoutable	
2013	1	redoutais	
2014	1	refuge	
2015	1	refusez	
2016	1	regards	
2017	1	reine	
2018	1	rejetant	
2019	1	rejoindre	
2020	1	relâche	
2021	1	remettez	
2022	1	remettre	
2023	1	remise	
2024	1	remords	
2025	1	rempli	
2026	1	remplis	
2027	1	remplissant	
2028	1	remportez	
2029	1	remène	
2030	1	rencontrerez	
2031	1	rencontré	
2032	1	rende	
2033	1	rendis	
2034	1	rendras	
2035	1	renfermer	
2036	1	renonce	
2037	1	renouvelle	
2038	1	rentrer	
2039	1	rentrée	
2040	1	reprocher	
2041	1	reproches	
2042	1	reprochez	
2043	1	reproché	
2044	1	respecte	
2045	1	respects	
2046	1	respire	
2047	1	respirer	
2048	1	ressentiment	
2049	1	reste	
2050	1	retiens	
2051	1	retient	
2052	1	retirer	
2053	1	retiré	
2054	1	retourne	
2055	1	retournerez	
2056	1	revanche	
2057	1	revenir	
2058	1	revient	
2059	1	revois	
2060	1	reçoive	
2061	1	rigoureuses	
2062	1	rire	
2063	1	ris	
2064	1	rit	
2065	1	rompu	
2066	1	rouez	
2067	1	rougeur	
2068	1	rougir	
2069	1	rougis	
2070	1	règle	
2071	1	récompense	
2072	1	réduire	
2073	1	régaler	
2074	1	répandre	
2075	1	répare	
2076	1	répondant	
2077	1	réponds	
2078	1	réserve	
2079	1	résister	
2080	1	résolu	
2081	1	résolviez	
2082	1	résoudrons	
2083	1	résout	
2084	1	résultat	
2085	1	réussi	
2086	1	rêver	
2087	1	rôtit	
2088	1	sachons	
2089	1	sacrifice	
2090	1	sacré	
2091	1	saint	
2092	1	saisissement	
2093	1	sanglant	
2094	1	sanglants	
2095	1	satisfais	
2096	1	satisfasse	
2097	1	saura	
2098	1	saurais	
2099	1	saurait	
2100	1	sauras	
2101	1	sauriez	
2102	1	saut	
2103	1	secondant	
2104	1	seconde	
2105	1	secouer	
2106	1	secrètement	
2107	1	sein	
2108	1	selon	
2109	1	semblait	
2110	1	semblera	
2111	1	sensiblement	
2112	1	sent	
2113	1	senti	
2114	1	seriez	
2115	1	seront	
2116	1	servez	
2117	1	service	
2118	1	serviez	
2119	1	sien	
2120	1	simple	
2121	1	sincérité	
2122	1	singe	
2123	1	soient	
2124	1	soirs	
2125	1	soleil	
2126	1	solennel	
2127	1	sollicité	
2128	1	sombre	
2129	1	songe	
2130	1	songeons	
2131	1	songes	
2132	1	songé	
2133	1	sortant	
2134	1	sortent	
2135	1	sorti	
2136	1	sortie	
2137	1	sortirez	
2138	1	sortis	
2139	1	sortit	
2140	1	sortons	
2141	1	sots	
2142	1	sotte	
2143	1	soufflets	
2144	1	souffrirai	
2145	1	souhaiter	
2146	1	souhaits	
2147	1	souhaité	
2148	1	soulage	
2149	1	soulager	
2150	1	soumettre	
2151	1	soupirant	
2152	1	soupirez	
2153	1	soupiré	
2154	1	soupçonnait	
2155	1	soupçonner	
2156	1	soupçonnera	
2157	1	soupçonné	
2158	1	soupçonnée	
2159	1	sour	
2160	1	sourd	
2161	1	soutenir	
2162	1	soutenu	
2163	1	soutenue	
2164	1	soutien	
2165	1	souvenez	
2166	1	souvenir	
2167	1	souverain	
2168	1	soyez	
2169	1	subsister	
2170	1	succomber	
2171	1	succède	
2172	1	sucrés	
2173	1	suffisent	
2174	1	suit	
2175	1	suite	
2176	1	suivant	
2177	1	suivent	
2178	1	suivi	
2179	1	suivie	
2180	1	suiviez	
2181	1	suivra	
2182	1	superflus	
2183	1	suppose	
2184	1	supposé	
2185	1	surnaturels	
2186	1	surprenante	
2187	1	survenus	
2188	1	survient	
2189	1	sus	
2190	1	suspecte	
2191	1	séparant	
2192	1	sépare	
2193	1	sûr	
2194	1	sûtes	
2195	1	tableau	
2196	1	taché	
2197	1	taise	
2198	1	tait	
2199	1	tapi	
2200	1	tapisserie	
2201	1	tarde	
2202	1	tardera	
2203	1	tels	
2204	1	tenais	
2205	1	tenait	
2206	1	tend	
2207	1	tendre	
2208	1	tendresse	
2209	1	terminer	
2210	1	terrasser	
2211	1	terre	
2212	1	tiendrai	
2213	1	tirant	
2214	1	tire	
2215	1	tirerais	
2216	1	tirons	
2217	1	tiré	
2218	1	tomber	
2219	1	touché	
2220	1	tour	
2221	1	toutes	
2222	1	trahi	
2223	1	trahis	
2224	1	trahisons	
2225	1	trait	
2226	1	traitiez	
2227	1	trame	
2228	1	transi	
2229	1	transporte	
2230	1	transports	
2231	1	travaillez	
2232	1	travaillé	
2233	1	traverse	
2234	1	trembleraient	
2235	1	tristes	
2236	1	troisième	
2237	1	trompant	
2238	1	trompette	
2239	1	trompeur	
2240	1	trompé	
2241	1	trouvait	
2242	1	trouvent	
2243	1	trouvons	
2244	1	très	
2245	1	trépas	
2246	1	trêve	
2247	1	tue	
2248	1	tâchons	
2249	1	tâché	
2250	1	témoignage	
2251	1	témoigne	
2252	1	témoigner	
2253	1	témoignez	
2254	1	témoins	
2255	1	téméraire	
2256	1	ténébreuse	
2257	1	uni	
2258	1	unique	
2259	1	usant	
2260	1	user	
2261	1	usera	
2262	1	userez	
2263	1	usez	
2264	1	vacarme	
2265	1	vacarmes	
2266	1	vagabonde	
2267	1	vaillant	
2268	1	vaincue	
2269	1	vainqueur	
2270	1	valeur	
2271	1	venais	
2272	1	vengeais	
2273	1	vengeances	
2274	1	vengera	
2275	1	vengez	
2276	1	venons	
2277	1	verra	
2278	1	verrez	
2279	1	verrons	
2280	1	veuille	
2281	1	vieille	
2282	1	vieillesse	
2283	1	viennent	
2284	1	vif	
2285	1	violent	
2286	1	violer	
2287	1	vis	
2288	1	visible	
2289	1	visiter	
2290	1	voisins	
2291	1	volerait	
2292	1	volonté	
2293	1	volontés	
2294	1	vont	
2295	1	vou	
2296	1	voudrez	
2297	1	vouloir	
2298	1	voux	
2299	1	véritable	
2300	1	vérité	
2301	1	âge	
2302	1	âmes	
2303	1	âpre	
2304	1	éblouir	
2305	1	éclaire	
2306	1	éclairer	
2307	1	éclipsant	
2308	1	écolier	
2309	1	écoulés	
2310	1	écouterai	
2311	1	écoutez	
2312	1	écoutons	
2313	1	égale	
2314	1	également	
2315	1	égayer	
2316	1	éloigne	
2317	1	éloignement	
2318	1	éloigner	
2319	1	éloquence	
2320	1	épargner	
2321	1	épargnez	
2322	1	épargnée	
2323	1	épier	
2324	1	épiera	
2325	1	épouse	
2326	1	épris	
2327	1	éprouver	
2328	1	établir	
2329	1	étaient	
2330	1	étamine	
2331	1	éteindra	
2332	1	éteindre	
2333	1	éteins	
2334	1	étonnement	
2335	1	étonnée	
2336	1	étonnés	
2337	1	étouffez	
2338	1	étreinte	
2339	1	étriller	
2340	1	étroitement	
2341	1	éveillé	
2342	1	évident	
2343	1	éviter	
2344	1	ôtant	
2345	1	ôter	
2346	1	ôterait	
