1,428,de
2,362,vous
3,337,je
4,331,et
5,322,l
6,304,que
7,301,le
8,294,à
9,284,est
10,268,un
11,266,il
12,243,en
13,234,la
14,223,qu
15,203,d
16,195,ce
17,150,pour
18,146,si
19,143,me
20,141,mon
21,134,ne
22,131,mais
23,128,m
24,118,on
25,118,qui
26,117,n
27,114,j
28,114,ma
29,106,c
30,106,son
31,96,s
32,96,votre
33,90,prince
34,87,moi
35,84,dans
36,83,du
37,83,plus
38,81,les
39,76,a
40,76,bien
41,75,par
42,73,sa
43,68,fédéric
44,68,tout
45,65,nous
46,64,au
47,64,une
48,62,pas
49,58,roi
50,57,lui
51,56,fait
52,54,ai
53,53,même
54,52,coeur
55,52,sans
56,52,être
57,51,peut
58,51,trop
59,49,elle
60,49,quoi
61,48,peu
62,48,point
63,47,mes
64,47,se
65,47,tu
66,44,enfin
67,44,y
68,41,avec
69,41,ces
70,41,madame
71,40,amour
72,39,cet
73,39,seigneur
74,38,cette
75,37,voir
76,37,vos
77,36,ah
78,36,faut
79,36,suis
80,35,ici
81,33,des
82,33,faire
83,32,grand
84,32,quand
85,32,sur
86,31,donc
87,30,où
88,30,sang
89,29,sais
90,29,ses
91,28,frère
92,27,aux
93,27,âme
94,26,ils
95,26,quel
96,26,rien
97,26,sort
98,25,ciel
99,25,moins
100,25,non
101,25,sicile
102,24,lieux
103,24,paix
104,23,assez
105,23,aussi
106,23,dont
107,23,mort
108,23,princesse
109,22,comme
110,22,gloire
111,22,état
112,21,infant
113,21,jamais
114,21,puis
115,21,seul
116,21,t
117,20,encor
118,20,espoir
119,20,nos
120,20,ont
121,20,oui
122,20,quelque
123,20,vertu
124,20,ô
125,19,ou
126,19,peine
127,19,rodolphe
128,19,sire
129,18,doit
130,18,nom
131,18,ose
132,18,soit
133,18,tant
134,18,veux
135,17,courroux
136,17,fort
137,17,leur
138,17,quelle
139,17,rendre
140,17,te
141,17,tous
142,16,autre
143,16,déjà
144,16,ennemi
145,16,honneur
146,16,là
147,16,mal
148,16,malheur
149,16,octave
150,16,ton
151,16,yeux
152,16,éclat
153,16,êtes
154,15,contre
155,15,haut
156,15,jour
157,15,su
158,15,toujours
159,15,toute
160,15,vient
161,15,vrai
162,14,ait
163,14,aujourd
164,14,car
165,14,connaître
166,14,effet
167,14,esprit
168,14,foi
169,14,hui
170,14,mieux
171,14,pouvoir
172,14,secret
173,14,semble
174,14,voyez
175,13,destin
176,13,loin
177,13,ordre
178,13,parler
179,13,sous
180,13,trouble
181,13,vois
182,12,ainsi
183,12,après
184,12,avez
185,12,avoir
186,12,bas
187,12,bon
188,12,courage
189,12,doute
190,12,gouverneur
191,12,guerre
192,12,juste
193,12,lâche
194,12,pu
195,12,puisque
196,12,rang
197,12,ta
198,12,va
199,11,ambassadeur
200,11,aveu
201,11,bois
202,11,cause
203,11,chacun
204,11,dit
205,11,intérêt
206,11,mains
207,11,notre
208,11,rend
209,11,tournoi
210,11,vie
211,11,était
212,10,abord
213,10,arrêter
214,10,avait
215,10,cacher
216,10,celui
217,10,coup
218,10,craindre
219,10,dois
220,10,donner
221,10,douleur
222,10,extrême
223,10,eût
224,10,fais
225,10,fortune
226,10,lieu
227,10,naissance
228,10,obstacle
229,10,parle
230,10,puisqu
231,10,puisse
232,10,raison
233,10,sens
234,10,voit
235,9,allez
236,9,appas
237,9,ardeur
238,9,autant
239,9,avant
240,9,ayant
241,9,bonheur
242,9,crois
243,9,croit
244,9,devoir
245,9,dis
246,9,donne
247,9,faites
248,9,flamme
249,9,fois
250,9,garde
251,9,gaïette
252,9,grandeur
253,9,grands
254,9,grâce
255,9,habit
256,9,heureux
257,9,hymen
258,9,illustre
259,9,isabelle
260,9,malheurs
261,9,perte
262,9,prendre
263,9,savoir
264,9,sont
265,9,trouve
266,9,veut
267,9,viens
268,8,aime
269,8,aimer
270,8,armes
271,8,assassin
272,8,contraire
273,8,desseins
274,8,disgrâce
275,8,espérer
276,8,faux
277,8,indigne
278,8,paraître
279,8,parlez
280,8,passion
281,8,pouvez
282,8,soin
283,8,temps
284,8,trahir
285,8,tête
286,8,vain
287,8,vainqueur
288,8,victoire
289,8,voeux
290,8,voici
291,8,voulu
292,7,autres
293,7,avecque
294,7,beau
295,7,chose
296,7,château
297,7,crime
298,7,devant
299,7,diable
300,7,dire
301,7,dites
302,7,désirs
303,7,engage
304,7,estime
305,7,faveur
306,7,feinte
307,7,honte
308,7,humeur
309,7,importe
310,7,jusqu
311,7,laisse
312,7,mis
313,7,mérite
314,7,oser
315,7,outrage
316,7,part
317,7,peur
318,7,pleurs
319,7,pourquoi
320,7,pris
321,7,prison
322,7,péril
323,7,savez
324,7,sera
325,7,songez
326,7,souffrir
327,7,stratagème
328,7,taire
329,7,tel
330,7,venger
331,7,zèle
332,6,adresse
333,6,allons
334,6,arrête
335,6,aurais
336,6,avais
337,6,avantage
338,6,beaucoup
339,6,brutal
340,6,choix
341,6,commune
342,6,connaît
343,6,coups
344,6,dessein
345,6,deux
346,6,digne
347,6,doux
348,6,entends
349,6,entre
350,6,fasse
351,6,feu
352,6,flatte
353,6,fut
354,6,fâcheux
355,6,habits
356,6,haute
357,6,hélas
358,6,injure
359,6,laure
360,6,loi
361,6,lois
362,6,mettre
363,6,mien
364,6,occasion
365,6,oeil
366,6,plaire
367,6,prenez
368,6,répandu
369,6,sanglier
370,6,secours
371,6,secrète
372,6,serait
373,6,souvient
374,6,surpris
375,6,surprise
376,6,toi
377,6,traître
378,6,triste
379,6,tué
380,6,vaine
381,6,vengeance
382,6,vu
383,6,équipage
384,5,abandonne
385,5,adore
386,5,amant
387,5,apprendre
388,5,appris
389,5,as
390,5,assurer
391,5,aurait
392,5,avance
393,5,avouer
394,5,belle
395,5,besoin
396,5,bientôt
397,5,bras
398,5,cela
399,5,cent
400,5,cependant
401,5,cher
402,5,chercher
403,5,cheval
404,5,connais
405,5,connaissez
406,5,connu
407,5,corps
408,5,cour
409,5,craint
410,5,croyez
411,5,dernier
412,5,douceur
413,5,dès
414,5,désir
415,5,enrique
416,5,entendre
417,5,exposer
418,5,exprès
419,5,ferai
420,5,fidèle
421,5,force
422,5,funeste
423,5,holà
424,5,ignore
425,5,inutile
426,5,jours
427,5,juger
428,5,laissez
429,5,leurs
430,5,longtemps
431,5,lorsque
432,5,noble
433,5,nouveau
434,5,nouvelle
435,5,oyez
436,5,parti
437,5,passe
438,5,personne
439,5,place
440,5,plaît
441,5,pousse
442,5,prends
443,5,prétends
444,5,père
445,5,quelqu
446,5,quels
447,5,quitte
448,5,recevoir
449,5,reste
450,5,retour
451,5,sait
452,5,satisfaire
453,5,service
454,5,servir
455,5,seule
456,5,souffrez
457,5,souvent
458,5,suivre
459,5,surprendre
460,5,tiens
461,5,tour
462,5,traiter
463,5,trouvé
464,5,vertus
465,5,voilà
466,5,étonne
467,5,été
468,4,alarmes
469,4,aller
470,4,alliance
471,4,altesse
472,4,ambassade
473,4,amène
474,4,approche
475,4,appui
476,4,attendant
477,4,attentat
478,4,bontés
479,4,bouche
480,4,braver
481,4,cache
482,4,charme
483,4,chasse
484,4,cherche
485,4,chère
486,4,coupable
487,4,craignez
488,4,crains
489,4,croire
490,4,cruel
491,4,céder
492,4,demander
493,4,depuis
494,4,discours
495,4,douter
496,4,découvrir
497,4,déplaisirs
498,4,effort
499,4,encore
500,4,ennemis
501,4,ennuis
502,4,erreur
503,4,eux
504,4,faiblesse
505,4,farouche
506,4,ferme
507,4,feux
508,4,font
509,4,foudre
510,4,fuir
511,4,garder
512,4,haine
513,4,heureuse
514,4,imprévu
515,4,inconnu
516,4,infortune
517,4,joie
518,4,julie
519,4,laisser
520,4,las
521,4,léonard
522,4,main
523,4,malheureux
524,4,maux
525,4,maître
526,4,menace
527,4,montre
528,4,mot
529,4,mémoire
530,4,mérité
531,4,nature
532,4,ni
533,4,objet
534,4,oblige
535,4,odieux
536,4,ordres
537,4,ouvrir
538,4,paraît
539,4,pardonnez
540,4,paru
541,4,peintre
542,4,perdre
543,4,plaindre
544,4,plaisir
545,4,pourra
546,4,pouvait
547,4,presque
548,4,presse
549,4,principauté
550,4,prix
551,4,propre
552,4,présent
553,4,quelquefois
554,4,regarde
555,4,reine
556,4,rencontre
557,4,respect
558,4,retraite
559,4,riche
560,4,rit
561,4,sachez
562,4,sentiments
563,4,silence
564,4,soeur
565,4,sommes
566,4,songer
567,4,soudain
568,4,souhaits
569,4,soupirs
570,4,touche
571,4,trahi
572,4,trahison
573,4,traits
574,4,trois
575,4,trouver
576,4,trouvez
577,4,tyran
578,4,vais
579,4,venir
580,4,voie
581,4,voix
582,4,vouloir
583,4,époux
584,4,épée
585,4,états
586,4,étranger
587,3,abandonner
588,3,abus
589,3,abuse
590,3,abuser
591,3,accepter
592,3,adieu
593,3,admire
594,3,afin
595,3,aimé
596,3,alors
597,3,amante
598,3,amas
599,3,appartement
600,3,applique
601,3,apprends
602,3,approuver
603,3,apprête
604,3,asile
605,3,aspect
606,3,aucun
607,3,augure
608,3,aura
609,3,auteur
610,3,autorise
611,3,aventure
612,3,avons
613,3,basse
614,3,beauté
615,3,beaux
616,3,bonne
617,3,brave
618,3,bruit
619,3,caché
620,3,caprice
621,3,cas
622,3,cessez
623,3,ceux
624,3,charge
625,3,charmes
626,3,chefs
627,3,combien
628,3,commun
629,3,compte
630,3,condamne
631,3,conduite
632,3,consentir
633,3,contrainte
634,3,conté
635,3,cours
636,3,crainte
637,3,criminel
638,3,croirais
639,3,cru
640,3,cède
641,3,daignez
642,3,davantage
643,3,dents
644,3,dessus
645,3,destinée
646,3,devez
647,3,disgrâces
648,3,douce
649,3,dure
650,3,déclare
651,3,déguisé
652,3,désordre
653,3,désormais
654,3,dût
655,3,effroi
656,3,emploi
657,3,empêcher
658,3,enchantement
659,3,ensemble
660,3,entière
661,3,envie
662,3,espère
663,3,espérance
664,3,estimer
665,3,excès
666,3,exploits
667,3,faible
668,3,fallait
669,3,faudra
670,3,faudrait
671,3,fière
672,3,folie
673,3,fou
674,3,fuit
675,3,félicité
676,3,gage
677,3,gardes
678,3,gens
679,3,glorieux
680,3,goûte
681,3,grande
682,3,gravité
683,3,guères
684,3,généreux
685,3,homme
686,3,honteux
687,3,impose
688,3,indignité
689,3,injustice
690,3,insolent
691,3,intéresse
692,3,jodelet
693,3,joug
694,3,jusques
695,3,laissé
696,3,libre
697,3,légitime
698,3,malgré
699,3,marque
700,3,marquis
701,3,mauvais
702,3,milieu
703,3,mille
704,3,montrer
705,3,mériter
706,3,nez
707,3,nommer
708,3,obliger
709,3,obéir
710,3,offerte
711,3,offre
712,3,offrir
713,3,orgueil
714,3,oses
715,3,oublier
716,3,ouverte
717,3,parmi
718,3,pays
719,3,pense
720,3,perd
721,3,perdu
722,3,permis
723,3,peuvent
724,3,pitié
725,3,plainte
726,3,pleurer
727,3,plutôt
728,3,porter
729,3,portrait
730,3,pourrait
731,3,poursuit
732,3,pourtant
733,3,pourvu
734,3,premier
735,3,preuve
736,3,prisonnier
737,3,propose
738,3,proposer
739,3,précieux
740,3,prétendre
741,3,publique
742,3,puissance
743,3,puissent
744,3,punir
745,3,périls
746,3,qualité
747,3,quelques
748,3,quoiqu
749,3,rage
750,3,rare
751,3,rares
752,3,remets
753,3,rentre
754,3,reproche
755,3,respects
756,3,revers
757,3,rude
758,3,récit
759,3,réduit
760,3,répandre
761,3,résoudre
762,3,sache
763,3,saut
764,3,servi
765,3,seulement
766,3,soins
767,3,solitude
768,3,sotte
769,3,souffre
770,3,soupire
771,3,soupçon
772,3,soupçonne
773,3,soutenez
774,3,soyez
775,3,splendeur
776,3,succès
777,3,suffit
778,3,suit
779,3,suivez
780,3,sujets
781,3,superbe
782,3,surprend
783,3,séjour
784,3,sûreté
785,3,tempête
786,3,tenir
787,3,tes
788,3,traces
789,3,traite
790,3,tristes
791,3,trésors
792,3,trêve
793,3,témoignage
794,3,témoin
795,3,témoins
796,3,utile
797,3,valeur
798,3,vaut
799,3,venez
800,3,voudrais
801,3,vôtre
802,3,éclater
803,3,écoute
804,3,écouter
805,3,écuyer
806,3,éloignement
807,3,éprouve
808,2,abaisse
809,2,abaisser
810,2,abat
811,2,accord
812,2,accorder
813,2,admirer
814,2,adroit
815,2,affaiblir
816,2,affermi
817,2,agir
818,2,agit
819,2,agréable
820,2,ailleurs
821,2,aimez
822,2,air
823,2,aise
824,2,ambitieux
825,2,amis
826,2,ans
827,2,aperçois
828,2,appareil
829,2,apparence
830,2,apprenez
831,2,armé
832,2,armée
833,2,arrache
834,2,arracher
835,2,arrive
836,2,arrêt
837,2,arrêté
838,2,assure
839,2,assuré
840,2,atteste
841,2,attirant
842,2,aucuns
843,2,audace
844,2,auprès
845,2,autrement
846,2,autrui
847,2,avienne
848,2,avoue
849,2,avouerai
850,2,bel
851,2,biens
852,2,bizarre
853,2,blesse
854,2,blessé
855,2,boire
856,2,bonté
857,2,borne
858,2,borner
859,2,cachez
860,2,caprices
861,2,caractère
862,2,causait
863,2,ceci
864,2,certain
865,2,cesse
866,2,chagrin
867,2,cherchez
868,2,chers
869,2,chevalier
870,2,colère
871,2,combats
872,2,combattant
873,2,commence
874,2,conclue
875,2,condamner
876,2,confident
877,2,confond
878,2,confus
879,2,confusion
880,2,conseils
881,2,consens
882,2,conserver
883,2,considère
884,2,consoler
885,2,constant
886,2,contraindre
887,2,contraint
888,2,conçois
889,2,courir
890,2,couronne
891,2,couvert
892,2,cuisse
893,2,curieux
894,2,danger
895,2,dea
896,2,demande
897,2,dent
898,2,devenir
899,2,dieu
900,2,dieux
901,2,dirai
902,2,dirais
903,2,disposer
904,2,doive
905,2,don
906,2,douceurs
907,2,doutez
908,2,droit
909,2,dur
910,2,découvert
911,2,défaite
912,2,défaut
913,2,défense
914,2,défiance
915,2,déguisement
916,2,déguisements
917,2,déguiser
918,2,dément
919,2,déplaire
920,2,déplaise
921,2,désaveu
922,2,dû
923,2,effets
924,2,efforts
925,2,embarrasse
926,2,embrasser
927,2,embrassez
928,2,ennemie
929,2,ennui
930,2,enrager
931,2,entendu
932,2,entier
933,2,entreprendre
934,2,envoyer
935,2,envoyés
936,2,es
937,2,espions
938,2,examine
939,2,excite
940,2,expliquer
941,2,expose
942,2,extravagant
943,2,exécuter
944,2,facile
945,2,faisant
946,2,fameux
947,2,fatale
948,2,faveurs
949,2,feignez
950,2,fer
951,2,fi
952,2,fier
953,2,filous
954,2,fils
955,2,finir
956,2,flatter
957,2,flatteur
958,2,flotte
959,2,fond
960,2,forcer
961,2,forces
962,2,forcez
963,2,forme
964,2,franchise
965,2,fus
966,2,fût
967,2,gardé
968,2,gronde
969,2,haranguer
970,2,hasard
971,2,hasardez
972,2,hasardé
973,2,hautement
974,2,heur
975,2,heure
976,2,histoire
977,2,honteuse
978,2,indiscret
979,2,inestimable
980,2,infaillible
981,2,ingratitude
982,2,injuste
983,2,inquiétude
984,2,invincible
985,2,jaloux
986,2,jaser
987,2,jouer
988,2,jouter
989,2,justice
990,2,justifier
991,2,laissons
992,2,langue
993,2,levez
994,2,lice
995,2,lion
996,2,longue
997,2,lors
998,2,lâcheté
999,2,légère
1000,2,maintenant
1001,2,marquisat
1002,2,masque
1003,2,menacé
1004,2,mesure
1005,2,met
1006,2,mettez
1007,2,mienne
1008,2,miens
1009,2,moindre
1010,2,mois
1011,2,montrant
1012,2,mystère
1013,2,ménager
1014,2,mépris
1015,2,méritait
1016,2,naples
1017,2,naître
1018,2,noir
1019,2,noircir
1020,2,nymphes
1021,2,nécessité
1022,2,née
1023,2,obscurcir
1024,2,obstine
1025,2,orage
1026,2,ordinaire
1027,2,ordonne
1028,2,osais
1029,2,oserai
1030,2,osons
1031,2,ouvrage
1032,2,ouïr
1033,2,pardon
1034,2,pardonnable
1035,2,parlons
1036,2,partager
1037,2,partout
1038,2,passer
1039,2,patience
1040,2,pauvre
1041,2,payer
1042,2,peines
1043,2,peint
1044,2,pendre
1045,2,pensée
1046,2,perdez
1047,2,perds
1048,2,permettez
1049,2,persuade
1050,2,petit
1051,2,plaignez
1052,2,plains
1053,2,plaira
1054,2,plairait
1055,2,plein
1056,2,pleure
1057,2,plu
1058,2,pompe
1059,2,port
1060,2,porte
1061,2,possible
1062,2,possède
1063,2,pourrez
1064,2,poursuite
1065,2,première
1066,2,prend
1067,2,prenons
1068,2,pressant
1069,2,prie
1070,2,princes
1071,2,prise
1072,2,privé
1073,2,prochain
1074,2,procédé
1075,2,profit
1076,2,profond
1077,2,profonde
1078,2,profonds
1079,2,projet
1080,2,promets
1081,2,promptement
1082,2,propice
1083,2,propres
1084,2,près
1085,2,préférer
1086,2,prépare
1087,2,présence
1088,2,présumer
1089,2,prêt
1090,2,prête
1091,2,prêts
1092,2,puissant
1093,2,périlleux
1094,2,périr
1095,2,quereller
1096,2,quitter
1097,2,quoique
1098,2,raillerie
1099,2,raisons
1100,2,rarement
1101,2,ravale
1102,2,ravir
1103,2,reconnaissance
1104,2,redouble
1105,2,refuser
1106,2,refusez
1107,2,regarder
1108,2,regards
1109,2,remarqué
1110,2,remis
1111,2,rempli
1112,2,remède
1113,2,rendant
1114,2,rendu
1115,2,renommée
1116,2,repos
1117,2,respecte
1118,2,retire
1119,2,revois
1120,2,reçois
1121,2,reçu
1122,2,ric
1123,2,rigueur
1124,2,rompre
1125,2,rougeur
1126,2,route
1127,2,règle
1128,2,règne
1129,2,récompense
1130,2,répandra
1131,2,répond
1132,2,répondre
1133,2,résous
1134,2,sagement
1135,2,sanglant
1136,2,satisfaite
1137,2,sauve
1138,2,sceptre
1139,2,seigneurie
1140,2,sensible
1141,2,signalé
1142,2,sincérité
1143,2,sitôt
1144,2,sois
1145,2,soldats
1146,2,solide
1147,2,sot
1148,2,soufferte
1149,2,soulager
1150,2,soupir
1151,2,source
1152,2,soutiens
1153,2,soutient
1154,2,souvenir
1155,2,spectacle
1156,2,suite
1157,2,suivant
1158,2,suivi
1159,2,surtout
1160,2,sûr
1161,2,table
1162,2,terminé
1163,2,tiendrais
1164,2,tienne
1165,2,tient
1166,2,titre
1167,2,toucher
1168,2,tourment
1169,2,tourments
1170,2,toutefois
1171,2,trait
1172,2,traité
1173,2,trompe
1174,2,tromper
1175,2,trépas
1176,2,trésor
1177,2,vaille
1178,2,verrais
1179,2,vers
1180,2,vint
1181,2,violence
1182,2,vis
1183,2,visage
1184,2,visitez
1185,2,vite
1186,2,vive
1187,2,vives
1188,2,vivre
1189,2,volontés
1190,2,voudra
1191,2,voudrait
1192,2,voulant
1193,2,voyant
1194,2,voyons
1195,2,vrais
1196,2,vue
1197,2,échange
1198,2,échapper
1199,2,éclaircir
1200,2,éclatant
1201,2,écoutez
1202,2,écouté
1203,2,éloigne
1204,2,éloquence
1205,2,épargne
1206,2,étais
1207,2,étant
1208,2,étouffer
1209,2,éviter
1210,2,ôte
1211,1,abaissement
1212,1,abandonnai
1213,1,abandonnez
1214,1,abattu
1215,1,abondance
1216,1,abusé
1217,1,accablé
1218,1,accepte
1219,1,accident
1220,1,accidents
1221,1,accolade
1222,1,accompagner
1223,1,accomplisse
1224,1,accrois
1225,1,accueil
1226,1,accuse
1227,1,accuser
1228,1,accuseriez
1229,1,accusez
1230,1,acharnés
1231,1,achever
1232,1,achevons
1233,1,acquiers
1234,1,acquitte
1235,1,acquitter
1236,1,acquérir
1237,1,admirais
1238,1,admires
1239,1,adorable
1240,1,adoucir
1241,1,adversaire
1242,1,affaire
1243,1,affaires
1244,1,affectant
1245,1,affectation
1246,1,affermirait
1247,1,affliction
1248,1,affligée
1249,1,affronter
1250,1,agent
1251,1,agissant
1252,1,agite
1253,1,agréez
1254,1,aide
1255,1,aigreur
1256,1,aigrir
1257,1,aile
1258,1,aima
1259,1,aimais
1260,1,aiment
1261,1,ajoutons
1262,1,alarmez
1263,1,alarmé
1264,1,alarmée
1265,1,alfonse
1266,1,allier
1267,1,allié
1268,1,allégresse
1269,1,alléguer
1270,1,alternativement
1271,1,amants
1272,1,amassés
1273,1,ambassadrice
1274,1,ambitieuse
1275,1,amende
1276,1,ami
1277,1,amiable
1278,1,amorce
1279,1,amoureuse
1280,1,amours
1281,1,ample
1282,1,an
1283,1,animal
1284,1,anime
1285,1,animé
1286,1,apaisent
1287,1,apaisez
1288,1,aperçue
1289,1,apostrophe
1290,1,apparemment
1291,1,appeler
1292,1,apporte
1293,1,apprenant
1294,1,apprend
1295,1,approuve
1296,1,approuvez
1297,1,appréhender
1298,1,apprêter
1299,1,apprêtez
1300,1,apprêts
1301,1,apprêté
1302,1,appuyer
1303,1,appuyez
1304,1,appuyé
1305,1,aquilin
1306,1,arbitre
1307,1,arbres
1308,1,ardents
1309,1,arme
1310,1,armer
1311,1,armure
1312,1,armés
1313,1,arrhes
1314,1,arriver
1315,1,arrière
1316,1,arrêtent
1317,1,arrêtez
1318,1,artifice
1319,1,aspire
1320,1,assaut
1321,1,assemblée
1322,1,asservie
1323,1,assiette
1324,1,assouvir
1325,1,assurance
1326,1,assurera
1327,1,astre
1328,1,attend
1329,1,attendait
1330,1,attende
1331,1,attendez
1332,1,attendre
1333,1,attendrons
1334,1,attends
1335,1,attentats
1336,1,attente
1337,1,attire
1338,1,attirer
1339,1,attiré
1340,1,aucune
1341,1,augmentant
1342,1,augmente
1343,1,aurai
1344,1,auriez
1345,1,aurons
1346,1,auteurs
1347,1,autorité
1348,1,autrefois
1349,1,avaient
1350,1,avancez
1351,1,avertir
1352,1,aveugle
1353,1,aveuglement
1354,1,aveugler
1355,1,avis
1356,1,avouant
1357,1,avoueras
1358,1,avouez
1359,1,aînesse
1360,1,badin
1361,1,baigné
1362,1,baillants
1363,1,baille
1364,1,balance
1365,1,bannir
1366,1,barbares
1367,1,barbarie
1368,1,bassesse
1369,1,bat
1370,1,bienfait
1371,1,bienfaits
1372,1,bienséance
1373,1,billet
1374,1,blasphème
1375,1,blessée
1376,1,blâmable
1377,1,blâmais
1378,1,blâmer
1379,1,blême
1380,1,bocagères
1381,1,bonace
1382,1,bonsoir
1383,1,bords
1384,1,bordure
1385,1,bornai
1386,1,bornant
1387,1,bouillants
1388,1,bourru
1389,1,bout
1390,1,bravant
1391,1,braverie
1392,1,briguer
1393,1,brillant
1394,1,brillante
1395,1,brillants
1396,1,brutalités
1397,1,brûle
1398,1,brûler
1399,1,brûliez
1400,1,bête
1401,1,cadet
1402,1,cadets
1403,1,calme
1404,1,calmera
1405,1,calmez
1406,1,canaille
1407,1,cape
1408,1,carcan
1409,1,carcasse
1410,1,caresse
1411,1,carnage
1412,1,carrière
1413,1,carême
1414,1,casse
1415,1,causé
1416,1,celer
1417,1,celle
1418,1,celles
1419,1,certitude
1420,1,cessa
1421,1,cesser
1422,1,chaise
1423,1,chaleur
1424,1,chambellan
1425,1,chambellanie
1426,1,champ
1427,1,changer
1428,1,changerez
1429,1,chante
1430,1,chaque
1431,1,charmant
1432,1,charmante
1433,1,charmants
1434,1,charmé
1435,1,charmée
1436,1,chars
1437,1,chassieux
1438,1,chauffe
1439,1,chaut
1440,1,chaînes
1441,1,chef
1442,1,chemin
1443,1,cherchais
1444,1,cherché
1445,1,choisis
1446,1,choses
1447,1,châtiment
1448,1,chéri
1449,1,chéris
1450,1,chétif
1451,1,ci
1452,1,citrouille
1453,1,clair
1454,1,coeurs
1455,1,colérisé
1456,1,combattants
1457,1,combattre
1458,1,combattu
1459,1,comble
1460,1,commande
1461,1,commandez
1462,1,comment
1463,1,commets
1464,1,communs
1465,1,comparable
1466,1,compassion
1467,1,complaisance
1468,1,complimenter
1469,1,comprendre
1470,1,compterons
1471,1,compère
1472,1,compétence
1473,1,concevrais
1474,1,conclure
1475,1,concupiscible
1476,1,condamnable
1477,1,condition
1478,1,conduire
1479,1,conduit
1480,1,confesse
1481,1,confuse
1482,1,congruité
1483,1,conjugal
1484,1,conjugale
1485,1,connaissais
1486,1,connaissance
1487,1,connaissons
1488,1,connaîtrait
1489,1,connue
1490,1,connus
1491,1,conquérant
1492,1,conquête
1493,1,consanguinité
1494,1,conscience
1495,1,conseil
1496,1,consent
1497,1,consentez
1498,1,considérer
1499,1,considéré
1500,1,consiste
1501,1,consolez
1502,1,conspire
1503,1,constance
1504,1,constants
1505,1,constipée
1506,1,consulter
1507,1,contant
1508,1,contenter
1509,1,conter
1510,1,conteste
1511,1,contesté
1512,1,contraindra
1513,1,contredit
1514,1,contresens
1515,1,convainc
1516,1,convaincrai
1517,1,convie
1518,1,conçoit
1519,1,coquine
1520,1,couler
1521,1,couleur
1522,1,couleurs
1523,1,courez
1524,1,courier
1525,1,couronner
1526,1,couronnes
1527,1,courses
1528,1,coûte
1529,1,creuse
1530,1,criminels
1531,1,cris
1532,1,croirait
1533,1,croyait
1534,1,croyance
1535,1,croîtrait
1536,1,croître
1537,1,cruelle
1538,1,crut
1539,1,crédulité
1540,1,curant
1541,1,cure
1542,1,curer
1543,1,curions
1544,1,curiosité
1545,1,cédant
1546,1,cérémonie
1547,1,césar
1548,1,côtés
1549,1,daigniez
1550,1,dam
1551,1,dame
1552,1,dehors
1553,1,demandé
1554,1,demeure
1555,1,demeurer
1556,1,demeurez
1557,1,demi
1558,1,dernière
1559,1,descendre
1560,1,dessous
1561,1,devais
1562,1,devenait
1563,1,devenant
1564,1,deviendrait
1565,1,deviez
1566,1,devrai
1567,1,devrais
1568,1,devriez
1569,1,diamants
1570,1,différence
1571,1,différente
1572,1,dignement
1573,1,dignité
1574,1,diminué
1575,1,disais
1576,1,discords
1577,1,discret
1578,1,disent
1579,1,disons
1580,1,disparaître
1581,1,dispense
1582,1,dispenser
1583,1,dispose
1584,1,dissimuler
1585,1,dissiper
1586,1,divers
1587,1,doigt
1588,1,domestiques
1589,1,domicile
1590,1,donnes
1591,1,donnez
1592,1,donné
1593,1,donnés
1594,1,dons
1595,1,donzelle
1596,1,doubler
1597,1,douleurs
1598,1,doutais
1599,1,driller
1600,1,duper
1601,1,durer
1602,1,dussé
1603,1,débonnaires
1604,1,début
1605,1,déchambellanisé
1606,1,déclaré
1607,1,découvrirais
1608,1,découvrons
1609,1,dédain
1610,1,défauts
1611,1,défend
1612,1,défendant
1613,1,défendre
1614,1,défraterniser
1615,1,défédérique
1616,1,dégrader
1617,1,déguisant
1618,1,déhanchée
1619,1,délicats
1620,1,délionnez
1621,1,démentir
1622,1,démêler
1623,1,départ
1624,1,dépend
1625,1,déploie
1626,1,déploient
1627,1,députer
1628,1,dépêche
1629,1,dépêchez
1630,1,dépêché
1631,1,dépôt
1632,1,dérobe
1633,1,dérober
1634,1,désavouer
1635,1,désavoué
1636,1,désenharnache
1637,1,désespoir
1638,1,déshonorait
1639,1,désirez
1640,1,désole
1641,1,détour
1642,1,détruirait
1643,1,déçu
1644,1,efface
1645,1,embarras
1646,1,embrasse
1647,1,empire
1648,1,emporte
1649,1,emportement
1650,1,emporter
1651,1,emporté
1652,1,emprisonnent
1653,1,emprunt
1654,1,empêchent
1655,1,enchantez
1656,1,enchantées
1657,1,enclouure
1658,1,enfants
1659,1,enfermer
1660,1,enfilez
1661,1,enflammer
1662,1,engager
1663,1,enquête
1664,1,enrage
1665,1,enragerai
1666,1,enrageriez
1667,1,entasser
1668,1,entend
1669,1,entende
1670,1,entendons
1671,1,entrais
1672,1,entrentendent
1673,1,entreprend
1674,1,entrepris
1675,1,entreprise
1676,1,entrer
1677,1,entretenir
1678,1,entretien
1679,1,entretient
1680,1,entré
1681,1,envers
1682,1,envi
1683,1,envier
1684,1,envisagement
1685,1,envisagez
1686,1,envoie
1687,1,envoyait
1688,1,envoyez
1689,1,erre
1690,1,esclavage
1691,1,escorte
1692,1,escroquer
1693,1,esprits
1694,1,essai
1695,1,essuierai
1696,1,essuyer
1697,1,estimerais
1698,1,eu
1699,1,eusse
1700,1,eussent
1701,1,eut
1702,1,examinant
1703,1,examiner
1704,1,excuse
1705,1,exemple
1706,1,exhaler
1707,1,exige
1708,1,exil
1709,1,explique
1710,1,expliqué
1711,1,expressément
1712,1,exprime
1713,1,extatique
1714,1,extravagance
1715,1,extravaguer
1716,1,faiblesses
1717,1,faim
1718,1,faisait
1719,1,faits
1720,1,faix
1721,1,falot
1722,1,faquin
1723,1,fatalité
1724,1,favorable
1725,1,favorablement
1726,1,favori
1727,1,favorise
1728,1,façon
1729,1,feindre
1730,1,feint
1731,1,femelle
1732,1,fendre
1733,1,fera
1734,1,ferez
1735,1,fermerais
1736,1,ferons
1737,1,feront
1738,1,fers
1739,1,festiner
1740,1,feuillage
1741,1,fidèles
1742,1,fidélité
1743,1,fiel
1744,1,fierté
1745,1,fille
1746,1,fin
1747,1,finis
1748,1,fis
1749,1,fièvre
1750,1,flatta
1751,1,flattent
1752,1,flatté
1753,1,fleurettes
1754,1,flore
1755,1,florence
1756,1,fléchir
1757,1,follets
1758,1,forceront
1759,1,forfaiture
1760,1,forfanteries
1761,1,forlignement
1762,1,forte
1763,1,fortement
1764,1,fortes
1765,1,forçait
1766,1,fournissent
1767,1,frais
1768,1,fraternellement
1769,1,frayeur
1770,1,fraîcheur
1771,1,friands
1772,1,frivole
1773,1,froide
1774,1,front
1775,1,fui
1776,1,fuite
1777,1,furent
1778,1,fureur
1779,1,future
1780,1,fuyait
1781,1,fuyant
1782,1,fédérics
1783,1,fédériqué
1784,1,félonne
1785,1,fête
1786,1,fît
1787,1,gagner
1788,1,gagné
1789,1,gain
1790,1,galoper
1791,1,garant
1792,1,garantir
1793,1,gard
1794,1,gardez
1795,1,garnie
1796,1,garou
1797,1,genoux
1798,1,geôlier
1799,1,geôlière
1800,1,glisser
1801,1,glorifier
1802,1,gouverne
1803,1,goût
1804,1,goûter
1805,1,goûté
1806,1,grave
1807,1,gravités
1808,1,grossière
1809,1,grossières
1810,1,grue
1811,1,grâces
1812,1,guerriers
1813,1,guerrière
1814,1,guide
1815,1,guère
1816,1,gâté
1817,1,généalogie
1818,1,généreuse
1819,1,gêne
1820,1,gêner
1821,1,gîte
1822,1,habillement
1823,1,habillé
1824,1,hais
1825,1,halte
1826,1,harangue
1827,1,harnois
1828,1,hasarde
1829,1,hasarder
1830,1,hautaine
1831,1,hautes
1832,1,hauts
1833,1,haïr
1834,1,hommes
1835,1,honneurs
1836,1,honnêtement
1837,1,honoreront
1838,1,honorez
1839,1,honoré
1840,1,hoqueton
1841,1,hormis
1842,1,horoscoper
1843,1,horreurs
1844,1,hors
1845,1,humecter
1846,1,humide
1847,1,humilier
1848,1,hyménée
1849,1,hâte
1850,1,hâtons
1851,1,héritier
1852,1,hôte
1853,1,hôtellerie
1854,1,ignorant
1855,1,ignorer
1856,1,ignores
1857,1,illusion
1858,1,illustres
1859,1,immobile
1860,1,imparfait
1861,1,implacable
1862,1,implorez
1863,1,importance
1864,1,importun
1865,1,importune
1866,1,imposez
1867,1,imposture
1868,1,imprudemment
1869,1,impuissance
1870,1,impunément
1871,1,impur
1872,1,imputons
1873,1,imputé
1874,1,impérieux
1875,1,incague
1876,1,incaguer
1877,1,incartade
1878,1,incertaines
1879,1,incertains
1880,1,incommode
1881,1,inconnue
1882,1,indignant
1883,1,indiscrétion
1884,1,infamie
1885,1,infidèle
1886,1,infinie
1887,1,ingrat
1888,1,injurier
1889,1,injurieux
1890,1,injustes
1891,1,innocence
1892,1,inopiné
1893,1,inquiet
1894,1,insigne
1895,1,insociable
1896,1,insolence
1897,1,inspire
1898,1,instruments
1899,1,insu
1900,1,intendant
1901,1,interdit
1902,1,intérêts
1903,1,irai
1904,1,irez
1905,1,irons
1906,1,irriter
1907,1,jadis
1908,1,jargon
1909,1,jargonner
1910,1,jaseriez
1911,1,jaseront
1912,1,jasé
1913,1,jettent
1914,1,jeté
1915,1,jeu
1916,1,jeunes
1917,1,joigne
1918,1,joignez
1919,1,joindrait
1920,1,joindre
1921,1,joint
1922,1,joints
1923,1,jouez
1924,1,joué
1925,1,joyaux
1926,1,juge
1927,1,jugement
1928,1,juges
1929,1,jugez
1930,1,jura
1931,1,jurer
1932,1,labile
1933,1,laide
1934,1,laisses
1935,1,lancer
1936,1,lancés
1937,1,large
1938,1,larmes
1939,1,larrons
1940,1,laver
1941,1,lavé
1942,1,lettre
1943,1,levé
1944,1,leçons
1945,1,liberté
1946,1,lien
1947,1,lignée
1948,1,limité
1949,1,lionne
1950,1,lions
1951,1,lirai
1952,1,lit
1953,1,livre
1954,1,livrera
1955,1,loge
1956,1,loisible
1957,1,long
1958,1,longs
1959,1,longues
1960,1,lorgnement
1961,1,lorsqu
1962,1,louange
1963,1,louche
1964,1,loue
1965,1,louer
1966,1,louerais
1967,1,loup
1968,1,loups
1969,1,lourde
1970,1,lumières
1971,1,lustre
1972,1,lâches
1973,1,lâchetés
1974,1,lèverez
1975,1,léoparde
1976,1,magnificence
1977,1,majestueux
1978,1,majesté
1979,1,malade
1980,1,malapprise
1981,1,malhabile
1982,1,malhonnête
1983,1,malice
1984,1,malins
1985,1,malotru
1986,1,mande
1987,1,manger
1988,1,manquant
1989,1,manque
1990,1,manqué
1991,1,marauds
1992,1,marchant
1993,1,marche
1994,1,marcher
1995,1,marché
1996,1,mariage
1997,1,marquer
1998,1,matin
1999,1,matois
2000,1,maudit
2001,1,maudite
2002,1,maudits
2003,1,maximes
2004,1,maîtresse
2005,1,maîtrise
2006,1,menacer
2007,1,menaces
2008,1,menaçait
2009,1,menaçant
2010,1,menez
2011,1,mentir
2012,1,menus
2013,1,mets
2014,1,mettent
2015,1,mettes
2016,1,mettra
2017,1,meurt
2018,1,mince
2019,1,mine
2020,1,misère
2021,1,misérable
2022,1,modérer
2023,1,molle
2024,1,moment
2025,1,moments
2026,1,monde
2027,1,montrez
2028,1,moscovie
2029,1,motif
2030,1,mourant
2031,1,mourrai
2032,1,moutons
2033,1,moyen
2034,1,moyens
2035,1,murmure
2036,1,mâcher
2037,1,méconnaissez
2038,1,méconnaît
2039,1,mémorial
2040,1,méritaient
2041,1,mêlent
2042,1,nargue
2043,1,narguer
2044,1,nasardes
2045,1,nasardé
2046,1,nettes
2047,1,neveux
2048,1,nique
2049,1,noeuds
2050,1,noirci
2051,1,noire
2052,1,nombre
2053,1,nombreuse
2054,1,nourri
2055,1,nouveautés
2056,1,nouveaux
2057,1,nouvelles
2058,1,nuage
2059,1,nuisible
2060,1,nuit
2061,1,nécessaire
2062,1,négliger
2063,1,nôtre
2064,1,nôtres
2065,1,obligeante
2066,1,observe
2067,1,obstiner
2068,1,obstiné
2069,1,obstinée
2070,1,obstinément
2071,1,obtiendrez
2072,1,obtiens
2073,1,obéissance
2074,1,obéisse
2075,1,obéit
2076,1,offense
2077,1,offenser
2078,1,offensez
2079,1,offerts
2080,1,office
2081,1,officier
2082,1,officieux
2083,1,offrande
2084,1,offrira
2085,1,ombre
2086,1,oppose
2087,1,opposer
2088,1,oppresse
2089,1,or
2090,1,orages
2091,1,ordinaires
2092,1,oreille
2093,1,os
2094,1,osait
2095,1,oseraient
2096,1,osez
2097,1,osé
2098,1,otage
2099,1,oubliais
2100,1,oubliant
2101,1,oublierai
2102,1,outré
2103,1,ouvrier
2104,1,oyons
2105,1,pacifique
2106,1,pantelant
2107,1,pantelle
2108,1,paraisse
2109,1,parce
2110,1,pardonne
2111,1,pareilles
2112,1,pareils
2113,1,parenthèse
2114,1,parfait
2115,1,parfaite
2116,1,parlais
2117,1,parlant
2118,1,parlent
2119,1,parlera
2120,1,parles
2121,1,parleur
2122,1,parlé
2123,1,parole
2124,1,pars
2125,1,partage
2126,1,partent
2127,1,passé
2128,1,passés
2129,1,payez
2130,1,payiez
2131,1,peau
2132,1,peindre
2133,1,peinture
2134,1,pendaison
2135,1,pendant
2136,1,pende
2137,1,pensais
2138,1,pensez
2139,1,percer
2140,1,perdrai
2141,1,perdras
2142,1,perfide
2143,1,perles
2144,1,permet
2145,1,permettre
2146,1,persuadé
2147,1,persécuté
2148,1,petite
2149,1,petitesse
2150,1,peuple
2151,1,peux
2152,1,pieds
2153,1,pierres
2154,1,piquer
2155,1,pire
2156,1,pitoyable
2157,1,piège
2158,1,plaignais
2159,1,plaint
2160,1,plaisant
2161,1,plaisent
2162,1,plaisez
2163,1,plaisirs
2164,1,pleine
2165,1,pleins
2166,1,plongée
2167,1,plume
2168,1,plumes
2169,1,plupart
2170,1,plusieurs
2171,1,plénipotentiaire
2172,1,plût
2173,1,poings
2174,1,poli
2175,1,pompes
2176,1,pompeux
2177,1,portez
2178,1,portiez
2179,1,porté
2180,1,possession
2181,1,poste
2182,1,pouille
2183,1,pourrai
2184,1,pourrais
2185,1,pourriez
2186,1,poursuites
2187,1,poursuivi
2188,1,pourvoir
2189,1,pratique
2190,1,pratiques
2191,1,premiers
2192,1,prendrait
2193,1,prendrons
2194,1,pressé
2195,1,prisonnière
2196,1,prive
2197,1,privez
2198,1,proche
2199,1,procéder
2200,1,produit
2201,1,proie
2202,1,promettre
2203,1,promis
2204,1,prompt
2205,1,prompte
2206,1,propos
2207,1,proposez
2208,1,prouve
2209,1,proximité
2210,1,précaution
2211,1,précipite
2212,1,précipité
2213,1,préfère
2214,1,préférable
2215,1,préoccupée
2216,1,préparer
2217,1,préparez
2218,1,préparée
2219,1,prétend
2220,1,prétendiez
2221,1,prétendriez
2222,1,prétendu
2223,1,prévenant
2224,1,prévenu
2225,1,prévenue
2226,1,prévoir
2227,1,prévois
2228,1,prêter
2229,1,prêtes
2230,1,prît
2231,1,publics
2232,1,puisant
2233,1,puisent
2234,1,puissants
2235,1,pur
2236,1,pure
2237,1,put
2238,1,pâte
2239,1,pénétrer
2240,1,périra
2241,1,périsse
2242,1,pétulante
2243,1,qualités
2244,1,quatre
2245,1,questionnants
2246,1,questions
2247,1,quittez
2248,1,quittons
2249,1,quitté
2250,1,race
2251,1,radical
2252,1,radoucis
2253,1,ragoûts
2254,1,raisonnez
2255,1,rappeler
2256,1,rappelle
2257,1,rapport
2258,1,rayonnant
2259,1,reconnais
2260,1,reconnaître
2261,1,records
2262,1,recours
2263,1,recule
2264,1,reculez
2265,1,redevable
2266,1,redoublant
2267,1,redoublés
2268,1,redoutable
2269,1,redouter
2270,1,refusant
2271,1,refuse
2272,1,regardons
2273,1,regret
2274,1,regrettez
2275,1,relevait
2276,1,relâchant
2277,1,relâche
2278,1,remarque
2279,1,remarquer
2280,1,remettra
2281,1,remettre
2282,1,remords
2283,1,remplirait
2284,1,remplissez
2285,1,remplît
2286,1,renaisse
2287,1,rende
2288,1,rendent
2289,1,rendra
2290,1,rendrais
2291,1,rengainer
2292,1,rengainera
2293,1,renoncer
2294,1,renverse
2295,1,renégat
2296,1,repas
2297,1,repentir
2298,1,repose
2299,1,repousser
2300,1,reprends
2301,1,représente
2302,1,requiert
2303,1,respira
2304,1,ressentez
2305,1,ressentiment
2306,1,ressentiments
2307,1,ressorts
2308,1,retient
2309,1,retirez
2310,1,retourne
2311,1,retournons
2312,1,retrace
2313,1,retâte
2314,1,revoir
2315,1,reçoive
2316,1,reçus
2317,1,riches
2318,1,ridicule
2319,1,riez
2320,1,rigoureux
2321,1,rigueurs
2322,1,rire
2323,1,ris
2324,1,rival
2325,1,rivale
2326,1,rivaux
2327,1,rois
2328,1,rompt
2329,1,rompu
2330,1,rondin
2331,1,rouera
2332,1,rougir
2333,1,royal
2334,1,rudes
2335,1,rudesse
2336,1,ruine
2337,1,ruse
2338,1,réflexion
2339,1,régler
2340,1,régner
2341,1,réjouir
2342,1,réminiscence
2343,1,répare
2344,1,réparez
2345,1,réplique
2346,1,répondait
2347,1,réponde
2348,1,répondez
2349,1,répondiez
2350,1,répondra
2351,1,réponds
2352,1,réponse
2353,1,réserver
2354,1,réservé
2355,1,réservés
2356,1,résistance
2357,1,résiste
2358,1,résister
2359,1,résolu
2360,1,résout
2361,1,rétablie
2362,1,réussi
2363,1,réveillé
2364,1,révolte
2365,1,rêvais
2366,1,rôder
2367,1,rôle
2368,1,sachant
2369,1,sacré
2370,1,saigne
2371,1,saigner
2372,1,saisi
2373,1,saisir
2374,1,saisis
2375,1,saison
2376,1,salerne
2377,1,sanche
2378,1,santé
2379,1,satisfait
2380,1,satisfît
2381,1,saura
2382,1,saurait
2383,1,sauras
2384,1,sauriez
2385,1,saurions
2386,1,sauvage
2387,1,sauver
2388,1,sauvé
2389,1,sceau
2390,1,sceptres
2391,1,secondez
2392,1,secouer
2393,1,secourir
2394,1,secrets
2395,1,semblaient
2396,1,semblent
2397,1,semblé
2398,1,semence
2399,1,sent
2400,1,senti
2401,1,sentier
2402,1,sentir
2403,1,seoir
2404,1,seraient
2405,1,serais
2406,1,sergents
2407,1,serions
2408,1,seront
2409,1,serrements
2410,1,serve
2411,1,servent
2412,1,servie
2413,1,serviteur
2414,1,sied
2415,1,sien
2416,1,siens
2417,1,signal
2418,1,signalant
2419,1,simple
2420,1,sincère
2421,1,six
2422,1,siècle
2423,1,soi
2424,1,soif
2425,1,soir
2426,1,solides
2427,1,sollicite
2428,1,songe
2429,1,songeais
2430,1,songeant
2431,1,songeons
2432,1,sornettes
2433,1,sors
2434,1,sorte
2435,1,sortir
2436,1,souci
2437,1,souffrant
2438,1,souffrirait
2439,1,souffris
2440,1,souffrons
2441,1,souiller
2442,1,souillé
2443,1,soulagera
2444,1,soumet
2445,1,soumets
2446,1,soumis
2447,1,soupçonnerais
2448,1,soutenant
2449,1,soutenir
2450,1,souverain
2451,1,souveraine
2452,1,souviendrai
2453,1,st
2454,1,stupidité
2455,1,subissant
2456,1,subits
2457,1,subtilité
2458,1,succède
2459,1,suffire
2460,1,suffisait
2461,1,suffoque
2462,1,suffrage
2463,1,suivaient
2464,1,suivons
2465,1,suivra
2466,1,suivrais
2467,1,superbes
2468,1,superflus
2469,1,supposé
2470,1,suprême
2471,1,surmonte
2472,1,surprenant
2473,1,surprenante
2474,1,survivre
2475,1,sus
2476,1,suspect
2477,1,séduirait
2478,1,séduit
2479,1,séparer
2480,1,sûre
2481,1,sûrement
2482,1,tableau
2483,1,tableaux
2484,1,tablettes
2485,1,tacet
2486,1,tache
2487,1,taille
2488,1,tais
2489,1,taisez
2490,1,tait
2491,1,tandis
2492,1,tantôt
2493,1,telle
2494,1,tellement
2495,1,telles
2496,1,tempêtais
2497,1,tenté
2498,1,terme
2499,1,terminer
2500,1,terminée
2501,1,terre
2502,1,terribles
2503,1,théâtre
2504,1,tiennent
2505,1,tirant
2506,1,tire
2507,1,tirez
2508,1,tombe
2509,1,tomber
2510,1,tonnerre
2511,1,touché
2512,1,touffus
2513,1,tourner
2514,1,trafic
2515,1,trafique
2516,1,trahira
2517,1,trahisse
2518,1,trahit
2519,1,traita
2520,1,traitement
2521,1,traitée
2522,1,trame
2523,1,tranquille
2524,1,transport
2525,1,transporte
2526,1,travail
2527,1,traverse
2528,1,tremblante
2529,1,tremblent
2530,1,tremblez
2531,1,tribut
2532,1,trinque
2533,1,triomphant
2534,1,triomphe
2535,1,triompher
2536,1,trisaïeuls
2537,1,tristesse
2538,1,trompée
2539,1,troublent
2540,1,troubler
2541,1,troupes
2542,1,trouvera
2543,1,trouverais
2544,1,trouverez
2545,1,trouviez
2546,1,trouvons
2547,1,trésorier
2548,1,trône
2549,1,tyranniques
2550,1,tâche
2551,1,tâchons
2552,1,tâte
2553,1,tâtements
2554,1,témoigne
2555,1,témoigner
2556,1,téméraire
2557,1,tôt
2558,1,unique
2559,1,unis
2560,1,usage
2561,1,usant
2562,1,usons
2563,1,vacant
2564,1,vaillant
2565,1,vaincre
2566,1,vaincu
2567,1,valait
2568,1,valent
2569,1,valez
2570,1,valoir
2571,1,vanité
2572,1,vante
2573,1,vanteries
2574,1,vantes
2575,1,vantées
2576,1,vas
2577,1,vaux
2578,1,veille
2579,1,venais
2580,1,venait
2581,1,venant
2582,1,vendent
2583,1,vends
2584,1,venge
2585,1,vent
2586,1,ventre
2587,1,verra
2588,1,verrez
2589,1,verser
2590,1,versé
2591,1,victime
2592,1,vifs
2593,1,vigilance
2594,1,vigueur
2595,1,vilaine
2596,1,vilaines
2597,1,village
2598,1,ville
2599,1,vin
2600,1,vingt
2601,1,visières
2602,1,vit
2603,1,vitesse
2604,1,voient
2605,1,voisin
2606,1,voler
2607,1,voleurs
2608,1,voltigeant
2609,1,voltigent
2610,1,vont
2611,1,voulait
2612,1,voulons
2613,1,voyage
2614,1,vraie
2615,1,vraiment
2616,1,vuide
2617,1,âge
2618,1,âmes
2619,1,ça
2620,1,éblouir
2621,1,éclairci
2622,1,éclairé
2623,1,éclatants
2624,1,éclate
2625,1,écorces
2626,1,écoutant
2627,1,écrit
2628,1,écueils
2629,1,égale
2630,1,également
2631,1,égratigner
2632,1,égratignez
2633,1,égrillard
2634,1,égrillarde
2635,1,éloignant
2636,1,éloigner
2637,1,éloignez
2638,1,émeut
2639,1,émotion
2640,1,ému
2641,1,épargnait
2642,1,épargnez
2643,1,épargné
2644,1,épousant
2645,1,épouse
2646,1,établir
2647,1,étaient
2648,1,étale
2649,1,éteindre
2650,1,étendait
2651,1,étendre
2652,1,éternel
2653,1,étonnait
2654,1,étonnant
2655,1,étonner
2656,1,étouffant
2657,1,étrille
2658,1,étriller
2659,1,étroite
2660,1,étude
2661,1,étudié
2662,1,événement
2663,1,ôtant
2664,1,ôtez
