#Word Types: 2316
#Word Tokens: 13886
#Search Hits: 0
1	467	de	
2	440	et	
3	232	un	
4	217	le	
5	216	que	
6	206	la	
7	202	l	
8	201	vous	
9	197	je	
10	189	à	
11	173	il	
12	172	par	
13	164	d	
14	140	est	
15	139	si	
16	138	qu	
17	135	ce	
18	132	ma	
19	132	qui	
20	126	en	
21	123	mon	
22	107	des	
23	106	pour	
24	104	sa	
25	92	brute	
26	83	les	
27	83	ne	
28	82	me	
29	81	une	
30	79	dans	
31	79	j	
32	74	m	
33	74	plus	
34	72	ces	
35	72	nous	
36	72	son	
37	70	s	
38	67	mais	
39	67	mort	
40	66	gloire	
41	64	nos	
42	61	votre	
43	60	n	
44	60	sans	
45	59	tout	
46	57	lui	
47	57	rome	
48	57	se	
49	56	a	
50	55	du	
51	52	pas	
52	51	dieux	
53	49	tu	
54	48	coeur	
55	46	au	
56	46	grand	
57	45	sang	
58	42	avec	
59	40	sort	
60	39	enfin	
61	39	notre	
62	38	on	
63	37	cette	
64	37	même	
65	37	tous	
66	36	elle	
67	36	vos	
68	35	mes	
69	35	moi	
70	35	porcie	
71	35	ses	
72	34	amour	
73	34	vois	
74	33	c	
75	33	fait	
76	32	coup	
77	32	faut	
78	32	peut	
79	32	point	
80	32	sur	
81	31	ou	
82	31	où	
83	30	tant	
84	28	trop	
85	28	voir	
86	27	ils	
87	27	leur	
88	26	ai	
89	25	aux	
90	25	âme	
91	24	madame	
92	24	mourir	
93	23	douleur	
94	23	main	
95	23	ont	
96	23	quand	
97	23	quelque	
98	22	donc	
99	22	honte	
100	22	moins	
101	22	ta	
102	22	victoire	
103	22	vie	
104	21	malheur	
105	21	maxime	
106	21	vertu	
107	20	cassie	
108	20	puis	
109	20	seigneur	
110	19	ciel	
111	19	destin	
112	19	peu	
113	19	va	
114	19	y	
115	18	aime	
116	18	dont	
117	18	désespoir	
118	18	non	
119	18	quel	
120	18	t	
121	18	ton	
122	18	yeux	
123	17	autre	
124	17	combat	
125	17	effort	
126	17	honneur	
127	17	ici	
128	17	leurs	
129	17	suis	
130	16	cet	
131	16	espoir	
132	16	malgré	
133	16	malheurs	
134	16	pleurs	
135	16	quoi	
136	16	tyrans	
137	16	zèle	
138	15	aujourd	
139	15	bien	
140	15	césar	
141	15	devoir	
142	15	hui	
143	15	mains	
144	15	maintenant	
145	15	octave	
146	15	pouvoir	
147	15	soin	
148	15	tes	
149	15	époux	
150	14	contre	
151	14	frayeurs	
152	14	jamais	
153	14	sous	
154	14	te	
155	14	voyant	
156	14	être	
157	13	caton	
158	13	courage	
159	13	doit	
160	13	efforts	
161	13	faites	
162	13	fers	
163	13	fortune	
164	13	mille	
165	13	romain	
166	13	romains	
167	13	tomber	
168	13	toujours	
169	13	valeur	
170	13	vers	
171	12	avoir	
172	12	fais	
173	12	flamme	
174	12	fuite	
175	12	julie	
176	12	lieux	
177	12	là	
178	12	ose	
179	12	sens	
180	12	sont	
181	12	toi	
182	12	éclat	
183	12	état	
184	12	ô	
185	11	après	
186	11	assez	
187	11	chute	
188	11	constance	
189	11	dessein	
190	11	ennemi	
191	11	extrême	
192	11	grands	
193	11	illustre	
194	11	ombre	
195	11	peur	
196	11	temps	
197	11	veut	
198	11	voix	
199	10	ah	
200	10	ainsi	
201	10	alors	
202	10	ardeur	
203	10	cependant	
204	10	comme	
205	10	crains	
206	10	crainte	
207	10	effet	
208	10	faveur	
209	10	généreux	
210	10	jaloux	
211	10	joie	
212	10	maux	
213	10	meurs	
214	10	nom	
215	10	oui	
216	10	présence	
217	10	périr	
218	10	rend	
219	10	seul	
220	10	soldats	
221	10	vaincre	
222	10	vrai	
223	9	beau	
224	9	dernier	
225	9	deux	
226	9	douleurs	
227	9	faiblesse	
228	9	femme	
229	9	glorieux	
230	9	liberté	
231	9	maître	
232	9	milieu	
233	9	mémoire	
234	9	pitié	
235	9	reste	
236	9	semble	
237	9	soupirs	
238	9	univers	
239	9	vain	
240	9	vainqueur	
241	9	viens	
242	9	voeux	
243	8	adieu	
244	8	amitié	
245	8	armes	
246	8	avecque	
247	8	avis	
248	8	celui	
249	8	digne	
250	8	esclave	
251	8	eux	
252	8	fameux	
253	8	fasse	
254	8	funeste	
255	8	homme	
256	8	larmes	
257	8	lâche	
258	8	propre	
259	8	puisque	
260	8	quelle	
261	8	secours	
262	8	succès	
263	8	suivre	
264	8	sujet	
265	8	toute	
266	8	triomphe	
267	8	trouble	
268	8	tyran	
269	8	venger	
270	8	êtes	
271	7	abattu	
272	7	allons	
273	7	corps	
274	7	craint	
275	7	destins	
276	7	dit	
277	7	envie	
278	7	foudre	
279	7	front	
280	7	fureur	
281	7	générosité	
282	7	haine	
283	7	horreurs	
284	7	hé	
285	7	jour	
286	7	mal	
287	7	moment	
288	7	monde	
289	7	orgueil	
290	7	plaisir	
291	7	propres	
292	7	père	
293	7	rage	
294	7	rends	
295	7	rien	
296	7	sauver	
297	7	servir	
298	7	seulement	
299	7	tombe	
300	7	triste	
301	7	trouve	
302	7	trépas	
303	7	vains	
304	7	vient	
305	7	vivre	
306	7	voilà	
307	6	abat	
308	6	ardeurs	
309	6	aussitôt	
310	6	autres	
311	6	avait	
312	6	ayant	
313	6	belle	
314	6	bruit	
315	6	camp	
316	6	ceux	
317	6	cher	
318	6	clémence	
319	6	coeurs	
320	6	coups	
321	6	courroux	
322	6	cours	
323	6	couvert	
324	6	craindre	
325	6	crime	
326	6	cède	
327	6	desseins	
328	6	dis	
329	6	discours	
330	6	dois	
331	6	désirs	
332	6	désordre	
333	6	envers	
334	6	esclavage	
335	6	exposer	
336	6	faire	
337	6	fausse	
338	6	fille	
339	6	fit	
340	6	horreur	
341	6	hélas	
342	6	héros	
343	6	juste	
344	6	justes	
345	6	libre	
346	6	loisir	
347	6	mourant	
348	6	noble	
349	6	offre	
350	6	paraître	
351	6	parents	
352	6	philipe	
353	6	plutôt	
354	6	pompée	
355	6	prendre	
356	6	prends	
357	6	quitte	
358	6	soi	
359	6	soudain	
360	6	soutenir	
361	6	toutes	
362	6	traits	
363	6	tâche	
364	6	vaincu	
365	6	vengeance	
366	6	voit	
367	6	étant	
368	5	abandonne	
369	5	ami	
370	5	aussi	
371	5	autant	
372	5	avantage	
373	5	avez	
374	5	bonheur	
375	5	chère	
376	5	combattre	
377	5	cruel	
378	5	césars	
379	5	derniers	
380	5	dernière	
381	5	différer	
382	5	dites	
383	5	donnez	
384	5	défend	
385	5	défendre	
386	5	effroyable	
387	5	encor	
388	5	ennemis	
389	5	entre	
390	5	eut	
391	5	fer	
392	5	fidèle	
393	5	font	
394	5	fort	
395	5	fut	
396	5	hasards	
397	5	honteuse	
398	5	indigne	
399	5	indignes	
400	5	jours	
401	5	laisse	
402	5	légitime	
403	5	met	
404	5	mieux	
405	5	mis	
406	5	moitié	
407	5	montre	
408	5	mourons	
409	5	objet	
410	5	oblige	
411	5	partout	
412	5	peine	
413	5	plaindre	
414	5	prompt	
415	5	punir	
416	5	remplir	
417	5	rendre	
418	5	revient	
419	5	rougir	
420	5	sais	
421	5	secourir	
422	5	sensible	
423	5	sentiments	
424	5	sers	
425	5	sert	
426	5	seule	
427	5	siens	
428	5	soins	
429	5	souffre	
430	5	suite	
431	5	superbe	
432	5	surpris	
433	5	tendresse	
434	5	triompher	
435	5	verra	
436	5	verrai	
437	5	veux	
438	5	épargnez	
439	4	ailleurs	
440	4	alarmes	
441	4	autrefois	
442	4	autrui	
443	4	avance	
444	4	avertir	
445	4	bas	
446	4	beaux	
447	4	blâmez	
448	4	bouche	
449	4	bras	
450	4	brûle	
451	4	cache	
452	4	car	
453	4	catons	
454	4	cause	
455	4	celle	
456	4	cent	
457	4	char	
458	4	cherche	
459	4	connais	
460	4	conserver	
461	4	deuil	
462	4	dieu	
463	4	dignes	
464	4	doux	
465	4	droit	
466	4	dépit	
467	4	erreur	
468	4	estime	
469	4	excès	
470	4	expose	
471	4	faible	
472	4	favorable	
473	4	feu	
474	4	fier	
475	4	flanc	
476	4	fois	
477	4	frayeur	
478	4	fuyez	
479	4	gens	
480	4	grâce	
481	4	illustres	
482	4	imiter	
483	4	immoler	
484	4	impatience	
485	4	ingrat	
486	4	injuste	
487	4	lieu	
488	4	lois	
489	4	morts	
490	4	mots	
491	4	naissance	
492	4	obstacles	
493	4	oeil	
494	4	oppose	
495	4	ordre	
496	4	pardonnez	
497	4	parmi	
498	4	perte	
499	4	pleinement	
500	4	porte	
501	4	poudre	
502	4	premières	
503	4	prenez	
504	4	produit	
505	4	promptement	
506	4	près	
507	4	présage	
508	4	péri	
509	4	péril	
510	4	quoique	
511	4	reproche	
512	4	ressens	
513	4	rigoureux	
514	4	rigueur	
515	4	résolu	
516	4	sanglants	
517	4	sauve	
518	4	sauvez	
519	4	savoir	
520	4	servez	
521	4	sois	
522	4	succomber	
523	4	survivre	
524	4	transports	
525	4	triomphant	
526	4	tristesse	
527	4	trompé	
528	4	versé	
529	4	victime	
530	4	vis	
531	4	visage	
532	4	vit	
533	4	vive	
534	4	voulez	
535	4	voulu	
536	4	vu	
537	4	vécu	
538	4	épée	
539	3	accable	
540	3	accorde	
541	3	accroît	
542	3	agir	
543	3	aimez	
544	3	air	
545	3	ait	
546	3	allez	
547	3	amis	
548	3	apprendre	
549	3	apprends	
550	3	appui	
551	3	armée	
552	3	assurance	
553	3	attend	
554	3	attends	
555	3	auprès	
556	3	aurai	
557	3	avant	
558	3	aïeux	
559	3	beaucoup	
560	3	bon	
561	3	brillant	
562	3	butte	
563	3	cachez	
564	3	carnage	
565	3	chacun	
566	3	champs	
567	3	charmes	
568	3	cheval	
569	3	chez	
570	3	civiles	
571	3	combien	
572	3	commandement	
573	3	commandez	
574	3	commun	
575	3	commune	
576	3	compte	
577	3	contraire	
578	3	court	
579	3	craintes	
580	3	crimes	
581	3	croire	
582	3	demande	
583	3	devenir	
584	3	devez	
585	3	différents	
586	3	dire	
587	3	disgrâce	
588	3	disposer	
589	3	doncques	
590	3	donner	
591	3	donnons	
592	3	doute	
593	3	dépend	
594	3	effroi	
595	3	endroit	
596	3	enfuit	
597	3	entendre	
598	3	entière	
599	3	es	
600	3	esprit	
601	3	espérer	
602	3	eus	
603	3	excuse	
604	3	exemple	
605	3	faillir	
606	3	faisant	
607	3	fin	
608	3	foi	
609	3	forte	
610	3	frappe	
611	3	garder	
612	3	guerres	
613	3	généreuse	
614	3	haines	
615	3	honteux	
616	3	hâter	
617	3	image	
618	3	ingrate	
619	3	intérêt	
620	3	invincible	
621	3	joug	
622	3	jusqu	
623	3	laissez	
624	3	loi	
625	3	loin	
626	3	longtemps	
627	3	lorsqu	
628	3	lâches	
629	3	lâcheté	
630	3	malheureux	
631	3	meilleur	
632	3	menaces	
633	3	meure	
634	3	mien	
635	3	miracles	
636	3	misérable	
637	3	noirs	
638	3	nuit	
639	3	ombres	
640	3	oses	
641	3	passer	
642	3	passé	
643	3	perd	
644	3	perdre	
645	3	perdu	
646	3	permis	
647	3	plein	
648	3	pleurez	
649	3	poison	
650	3	porter	
651	3	pourrai	
652	3	pourtant	
653	3	pousse	
654	3	pouvez	
655	3	premier	
656	3	presse	
657	3	pris	
658	3	prix	
659	3	présages	
660	3	préviens	
661	3	puissants	
662	3	puisse	
663	3	quels	
664	3	rang	
665	3	reconnais	
666	3	regarde	
667	3	renversé	
668	3	repos	
669	3	retarder	
670	3	rois	
671	3	romaine	
672	3	romaines	
673	3	règne	
674	3	régnez	
675	3	répandre	
676	3	seconde	
677	3	sent	
678	3	sera	
679	3	signaler	
680	3	soif	
681	3	soldat	
682	3	sommes	
683	3	sorte	
684	3	sortez	
685	3	souffrez	
686	3	souffrir	
687	3	souiller	
688	3	soumis	
689	3	soupir	
690	3	soutenu	
691	3	souvient	
692	3	su	
693	3	suffit	
694	3	suivi	
695	3	suprême	
696	3	surmonte	
697	3	tel	
698	3	tient	
699	3	timides	
700	3	tirer	
701	3	tombeau	
702	3	tournant	
703	3	trembler	
704	3	tristes	
705	3	trois	
706	3	trompée	
707	3	trône	
708	3	vanter	
709	3	voici	
710	3	voulut	
711	3	vue	
712	3	âmes	
713	3	ébranlé	
714	3	étonnement	
715	2	abandonner	
716	2	abandonnerez	
717	2	abattre	
718	2	accablé	
719	2	accepte	
720	2	accord	
721	2	acquérir	
722	2	adorable	
723	2	afflige	
724	2	affranchir	
725	2	affranchissez	
726	2	aille	
727	2	aimer	
728	2	aimes	
729	2	aller	
730	2	ambition	
731	2	amoureux	
732	2	animer	
733	2	annoncer	
734	2	antoine	
735	2	aperçois	
736	2	appas	
737	2	appelle	
738	2	apprenez	
739	2	appris	
740	2	approche	
741	2	approuve	
742	2	ardents	
743	2	arme	
744	2	arment	
745	2	arrêter	
746	2	aspect	
747	2	assemble	
748	2	assouvie	
749	2	attaque	
750	2	attente	
751	2	augmenter	
752	2	augures	
753	2	auparavant	
754	2	aurais	
755	2	avaient	
756	2	aveu	
757	2	avons	
758	2	avoue	
759	2	balancé	
760	2	belles	
761	2	blessé	
762	2	blâme	
763	2	bonté	
764	2	borner	
765	2	brave	
766	2	braves	
767	2	brisez	
768	2	cachait	
769	2	causent	
770	2	causé	
771	2	cesse	
772	2	chaleur	
773	2	changement	
774	2	changer	
775	2	chefs	
776	2	chemin	
777	2	chemins	
778	2	chercher	
779	2	choix	
780	2	clartés	
781	2	combats	
782	2	combattu	
783	2	commande	
784	2	condamnez	
785	2	conduit	
786	2	consens	
787	2	conserve	
788	2	considère	
789	2	consomme	
790	2	constante	
791	2	consulter	
792	2	contente	
793	2	corbeaux	
794	2	couronne	
795	2	couverts	
796	2	couvrant	
797	2	couvrir	
798	2	craignant	
799	2	craignons	
800	2	criminel	
801	2	cris	
802	2	cruauté	
803	2	cruels	
804	2	céder	
805	2	danger	
806	2	demandent	
807	2	demeure	
808	2	demeurez	
809	2	descend	
810	2	dessous	
811	2	devais	
812	2	devait	
813	2	devant	
814	2	devenu	
815	2	devenus	
816	2	disgrâces	
817	2	donne	
818	2	droits	
819	2	débris	
820	2	déchirer	
821	2	découvrir	
822	2	défait	
823	2	défaite	
824	2	défends	
825	2	dégager	
826	2	déjà	
827	2	délivrer	
828	2	démentir	
829	2	déplaisir	
830	2	déplaisirs	
831	2	dû	
832	2	efface	
833	2	embrasse	
834	2	empêcher	
835	2	ennuis	
836	2	ensemble	
837	2	entreprend	
838	2	entreprendre	
839	2	envoie	
840	2	esprits	
841	2	eu	
842	2	excite	
843	2	exiger	
844	2	exil	
845	2	exploits	
846	2	exposé	
847	2	extrémité	
848	2	faisons	
849	2	fallait	
850	2	famille	
851	2	fantôme	
852	2	fatale	
853	2	faute	
854	2	faveurs	
855	2	fera	
856	2	ferai	
857	2	ferme	
858	2	flatter	
859	2	fondre	
860	2	force	
861	2	forcer	
862	2	franchise	
863	2	frappez	
864	2	furent	
865	2	fus	
866	2	fâcheux	
867	2	garde	
868	2	glorieuse	
869	2	grande	
870	2	grandeur	
871	2	gémit	
872	2	hais	
873	2	haute	
874	2	heureusement	
875	2	hommes	
876	2	horrible	
877	2	horribles	
878	2	hymen	
879	2	images	
880	2	implore	
881	2	importe	
882	2	imprudent	
883	2	impétueux	
884	2	infidèle	
885	2	injustes	
886	2	insensible	
887	2	instrument	
888	2	irai	
889	2	jouissons	
890	2	jugez	
891	2	jusques	
892	2	justice	
893	2	justifient	
894	2	laissent	
895	2	laisser	
896	2	laver	
897	2	livre	
898	2	long	
899	2	lors	
900	2	léger	
901	2	maison	
902	2	malheureuse	
903	2	malignes	
904	2	mariage	
905	2	maîtres	
906	2	mettre	
907	2	moindre	
908	2	montrez	
909	2	mutin	
910	2	mânes	
911	2	mépris	
912	2	mériter	
913	2	mêla	
914	2	mêlant	
915	2	mêlent	
916	2	nature	
917	2	ni	
918	2	nobles	
919	2	nombre	
920	2	noms	
921	2	obstinée	
922	2	obéissance	
923	2	occasion	
924	2	offense	
925	2	offrir	
926	2	oracles	
927	2	ordres	
928	2	osent	
929	2	ossements	
930	2	outrage	
931	2	ouvrage	
932	2	pareille	
933	2	partager	
934	2	parti	
935	2	partir	
936	2	parts	
937	2	patience	
938	2	pensers	
939	2	persécute	
940	2	persécuteurs	
941	2	peux	
942	2	plaintes	
943	2	pleine	
944	2	poids	
945	2	pompe	
946	2	portez	
947	2	pourquoi	
948	2	pourras	
949	2	premiers	
950	2	prend	
951	2	pressant	
952	2	proche	
953	2	proie	
954	2	prompte	
955	2	propos	
956	2	prépare	
957	2	présentez	
958	2	prévenons	
959	2	prévoir	
960	2	prêt	
961	2	prêter	
962	2	pu	
963	2	pâle	
964	2	quelles	
965	2	querelle	
966	2	quiconque	
967	2	ranime	
968	2	ravi	
969	2	reconnaissez	
970	2	redoublez	
971	2	regardant	
972	2	regards	
973	2	regret	
974	2	relèvent	
975	2	rencontre	
976	2	rendit	
977	2	rendu	
978	2	renouvelant	
979	2	respect	
980	2	restes	
981	2	retardé	
982	2	retenir	
983	2	revois	
984	2	rigueurs	
985	2	rompre	
986	2	réglez	
987	2	réparer	
988	2	sachant	
989	2	sacrés	
990	2	sanglant	
991	2	satisfaire	
992	2	satisfait	
993	2	saurai	
994	2	sauvant	
995	2	savez	
996	2	secret	
997	2	sein	
998	2	semblable	
999	2	semblent	
1000	2	serai	
1001	2	serait	
1002	2	servage	
1003	2	servent	
1004	2	simple	
1005	2	sitôt	
1006	2	siècle	
1007	2	soit	
1008	2	songez	
1009	2	souci	
1010	2	soudaine	
1011	2	soupirez	
1012	2	source	
1013	2	soutenant	
1014	2	soutient	
1015	2	souvenez	
1016	2	souvent	
1017	2	souverain	
1018	2	soyez	
1019	2	sublime	
1020	2	succombe	
1021	2	succombé	
1022	2	suit	
1023	2	suivent	
1024	2	superflus	
1025	2	supplice	
1026	2	surprendre	
1027	2	sème	
1028	2	sépare	
1029	2	séparer	
1030	2	sévère	
1031	2	tas	
1032	2	telle	
1033	2	tendre	
1034	2	tente	
1035	2	terreur	
1036	2	terreurs	
1037	2	timide	
1038	2	tombent	
1039	2	torrent	
1040	2	tour	
1041	2	tourne	
1042	2	trahit	
1043	2	tranche	
1044	2	trancher	
1045	2	transport	
1046	2	traverser	
1047	2	triumvirat	
1048	2	tromper	
1049	2	troublé	
1050	2	troupe	
1051	2	tyrannie	
1052	2	tyrannies	
1053	2	tâchez	
1054	2	témoin	
1055	2	témoins	
1056	2	unit	
1057	2	usage	
1058	2	vaincue	
1059	2	vainqueurs	
1060	2	valère	
1061	2	venge	
1062	2	vengeant	
1063	2	vengé	
1064	2	venir	
1065	2	verrez	
1066	2	viennent	
1067	2	vigueur	
1068	2	violent	
1069	2	vole	
1070	2	vouloir	
1071	2	vôtre	
1072	2	éclater	
1073	2	élever	
1074	2	éloignement	
1075	2	épouvanté	
1076	2	épreuve	
1077	2	était	
1078	2	étouffe	
1079	2	éviter	
1080	2	ôter	
1081	1	abaissent	
1082	1	abandonnant	
1083	1	abandonnent	
1084	1	abandonnez	
1085	1	abandonnée	
1086	1	abattue	
1087	1	abord	
1088	1	aborde	
1089	1	abri	
1090	1	abrège	
1091	1	absence	
1092	1	absorbé	
1093	1	abusa	
1094	1	accablent	
1095	1	accabler	
1096	1	accables	
1097	1	accablez	
1098	1	accomplir	
1099	1	accorder	
1100	1	accords	
1101	1	accoutumer	
1102	1	accoutumée	
1103	1	accroître	
1104	1	accuse	
1105	1	achevant	
1106	1	achever	
1107	1	achevez	
1108	1	achevé	
1109	1	achève	
1110	1	acquitte	
1111	1	action	
1112	1	adieux	
1113	1	admire	
1114	1	adorables	
1115	1	adroite	
1116	1	adversités	
1117	1	affaiblie	
1118	1	affamée	
1119	1	affligeant	
1120	1	affligez	
1121	1	affranchi	
1122	1	affranchit	
1123	1	affronte	
1124	1	affronts	
1125	1	agissez	
1126	1	agitations	
1127	1	aider	
1128	1	aidez	
1129	1	aidé	
1130	1	aient	
1131	1	aigles	
1132	1	aimable	
1133	1	allait	
1134	1	alliance	
1135	1	allument	
1136	1	allumée	
1137	1	allégresse	
1138	1	altère	
1139	1	amas	
1140	1	ambitieux	
1141	1	amertume	
1142	1	amoureuse	
1143	1	amuser	
1144	1	ancienne	
1145	1	anime	
1146	1	animent	
1147	1	animés	
1148	1	annoncé	
1149	1	apaise	
1150	1	appartement	
1151	1	appeler	
1152	1	apprend	
1153	1	apprendra	
1154	1	apprenne	
1155	1	appréhender	
1156	1	appuient	
1157	1	appuyé	
1158	1	arbitre	
1159	1	arcs	
1160	1	ardent	
1161	1	arma	
1162	1	armez	
1163	1	arrachent	
1164	1	arracher	
1165	1	arrachez	
1166	1	arraché	
1167	1	arrive	
1168	1	arrivons	
1169	1	arrière	
1170	1	arrose	
1171	1	arrêt	
1172	1	arrête	
1173	1	arrêté	
1174	1	as	
1175	1	asile	
1176	1	assaillir	
1177	1	assassinat	
1178	1	asservie	
1179	1	asservir	
1180	1	assiste	
1181	1	assurent	
1182	1	assurer	
1183	1	astres	
1184	1	attachés	
1185	1	attaquer	
1186	1	attaquez	
1187	1	atteintes	
1188	1	attendit	
1189	1	attendre	
1190	1	attendris	
1191	1	attendu	
1192	1	attenter	
1193	1	aucun	
1194	1	augmentera	
1195	1	aura	
1196	1	aurait	
1197	1	auront	
1198	1	autel	
1199	1	avais	
1200	1	avancer	
1201	1	avantageuse	
1202	1	avenir	
1203	1	aventures	
1204	1	averti	
1205	1	aveuglèrent	
1206	1	avide	
1207	1	avouerai	
1208	1	baise	
1209	1	banni	
1210	1	bannir	
1211	1	bannit	
1212	1	barbare	
1213	1	bataille	
1214	1	bienfait	
1215	1	biens	
1216	1	bientôt	
1217	1	blesse	
1218	1	blesseront	
1219	1	blessure	
1220	1	blâmer	
1221	1	bonheurs	
1222	1	bontés	
1223	1	borna	
1224	1	bornée	
1225	1	bourreaux	
1226	1	bout	
1227	1	braise	
1228	1	bravant	
1229	1	braver	
1230	1	bravez	
1231	1	bride	
1232	1	brillantes	
1233	1	brillants	
1234	1	briller	
1235	1	briser	
1236	1	brûlais	
1237	1	brûlants	
1238	1	brûlent	
1239	1	brûler	
1240	1	but	
1241	1	butins	
1242	1	bénirai	
1243	1	bénissez	
1244	1	cachons	
1245	1	cachés	
1246	1	capricieux	
1247	1	caresser	
1248	1	carnages	
1249	1	carquois	
1250	1	cavalerie	
1251	1	cela	
1252	1	cendre	
1253	1	certains	
1254	1	certes	
1255	1	cessant	
1256	1	cessé	
1257	1	chambre	
1258	1	chancelant	
1259	1	chanceler	
1260	1	changez	
1261	1	changée	
1262	1	charbons	
1263	1	charmant	
1264	1	charme	
1265	1	charmée	
1266	1	chaste	
1267	1	chaîne	
1268	1	chef	
1269	1	cherchant	
1270	1	cherchez	
1271	1	chers	
1272	1	chimère	
1273	1	choc	
1274	1	choir	
1275	1	choisir	
1276	1	choisissez	
1277	1	chose	
1278	1	châtiment	
1279	1	chétives	
1280	1	cieux	
1281	1	clairement	
1282	1	clément	
1283	1	comble	
1284	1	comblé	
1285	1	commandé	
1286	1	commencé	
1287	1	comment	
1288	1	commis	
1289	1	compagnons	
1290	1	comparaison	
1291	1	compassion	
1292	1	composant	
1293	1	comète	
1294	1	comètes	
1295	1	concevoir	
1296	1	condamne	
1297	1	condamnent	
1298	1	condamner	
1299	1	confiance	
1300	1	confidence	
1301	1	confié	
1302	1	confond	
1303	1	confondue	
1304	1	confus	
1305	1	confusément	
1306	1	conjoncture	
1307	1	connaissant	
1308	1	connaissez	
1309	1	connaît	
1310	1	connaître	
1311	1	connu	
1312	1	conseil	
1313	1	consent	
1314	1	consentez	
1315	1	consentir	
1316	1	consentiras	
1317	1	conservons	
1318	1	considérables	
1319	1	considérer	
1320	1	consommons	
1321	1	consommée	
1322	1	constamment	
1323	1	constant	
1324	1	consuls	
1325	1	consultez	
1326	1	consultons	
1327	1	contempler	
1328	1	contenter	
1329	1	contrainte	
1330	1	conté	
1331	1	convertir	
1332	1	conçois	
1333	1	conçoit	
1334	1	conçu	
1335	1	corbeau	
1336	1	coule	
1337	1	courages	
1338	1	courant	
1339	1	courir	
1340	1	couronna	
1341	1	courons	
1342	1	courrez	
1343	1	courroucés	
1344	1	courte	
1345	1	couru	
1346	1	courus	
1347	1	coutume	
1348	1	couvre	
1349	1	coûte	
1350	1	coûté	
1351	1	craignent	
1352	1	craignez	
1353	1	criminelle	
1354	1	croirai	
1355	1	crois	
1356	1	croyant	
1357	1	croyez	
1358	1	croyons	
1359	1	croîtra	
1360	1	croître	
1361	1	cru	
1362	1	crut	
1363	1	cédé	
1364	1	côtés	
1365	1	dangereux	
1366	1	dangers	
1367	1	dards	
1368	1	davantage	
1369	1	debout	
1370	1	dedans	
1371	1	demain	
1372	1	demander	
1373	1	demandez	
1374	1	demeurer	
1375	1	demi	
1376	1	descendez	
1377	1	descendre	
1378	1	dessus	
1379	1	devenant	
1380	1	deviendriez	
1381	1	deviez	
1382	1	devint	
1383	1	devrais	
1384	1	différant	
1385	1	différez	
1386	1	différons	
1387	1	différé	
1388	1	dira	
1389	1	diras	
1390	1	diront	
1391	1	disputer	
1392	1	distinguer	
1393	1	divers	
1394	1	divin	
1395	1	divinité	
1396	1	divins	
1397	1	divorce	
1398	1	doivent	
1399	1	don	
1400	1	donna	
1401	1	donnant	
1402	1	donné	
1403	1	douceurs	
1404	1	douteuse	
1405	1	douteux	
1406	1	dur	
1407	1	dures	
1408	1	dès	
1409	1	décidons	
1410	1	déclare	
1411	1	déclarent	
1412	1	déclarez	
1413	1	découvre	
1414	1	découvrent	
1415	1	défaut	
1416	1	défense	
1417	1	défier	
1418	1	déférer	
1419	1	dégage	
1420	1	dégoûtant	
1421	1	délai	
1422	1	délivrance	
1423	1	délivre	
1424	1	déluge	
1425	1	démens	
1426	1	dément	
1427	1	démon	
1428	1	dépende	
1429	1	dépends	
1430	1	déplaire	
1431	1	déplorable	
1432	1	déplorer	
1433	1	dérober	
1434	1	désavoua	
1435	1	déshonoraient	
1436	1	désolé	
1437	1	désordres	
1438	1	détestable	
1439	1	détester	
1440	1	détromper	
1441	1	dévore	
1442	1	dévoriez	
1443	1	déçu	
1444	1	déçue	
1445	1	effacer	
1446	1	effets	
1447	1	efforce	
1448	1	effroyables	
1449	1	embrasser	
1450	1	emmène	
1451	1	empire	
1452	1	emportez	
1453	1	empêchez	
1454	1	enchaînée	
1455	1	enchaînées	
1456	1	endroits	
1457	1	enfle	
1458	1	engage	
1459	1	engager	
1460	1	ennemie	
1461	1	ennui	
1462	1	enorgueilli	
1463	1	ensevelie	
1464	1	ensuite	
1465	1	entassés	
1466	1	entends	
1467	1	entraîne	
1468	1	entredonnent	
1469	1	entreprendront	
1470	1	entrer	
1471	1	entretiens	
1472	1	enviez	
1473	1	errante	
1474	1	errantes	
1475	1	espions	
1476	1	espère	
1477	1	espérance	
1478	1	espérerai	
1479	1	espérez	
1480	1	examiner	
1481	1	excitent	
1482	1	exciter	
1483	1	excités	
1484	1	excusais	
1485	1	exemples	
1486	1	exempte	
1487	1	exerce	
1488	1	exhaler	
1489	1	exige	
1490	1	exigez	
1491	1	expirant	
1492	1	expire	
1493	1	expirer	
1494	1	explique	
1495	1	expliquent	
1496	1	expliquer	
1497	1	exploit	
1498	1	exposerais	
1499	1	exposez	
1500	1	extrémités	
1501	1	extrêmes	
1502	1	exécrable	
1503	1	exécuter	
1504	1	factieux	
1505	1	faiblesses	
1506	1	faille	
1507	1	failli	
1508	1	fassiez	
1509	1	fatal	
1510	1	fatalité	
1511	1	fausses	
1512	1	faux	
1513	1	façon	
1514	1	feins	
1515	1	fermes	
1516	1	fermés	
1517	1	fertiles	
1518	1	fierté	
1519	1	figure	
1520	1	fil	
1521	1	finir	
1522	1	fis	
1523	1	flammes	
1524	1	flancs	
1525	1	flattent	
1526	1	flattes	
1527	1	flattiez	
1528	1	flots	
1529	1	fléau	
1530	1	fondent	
1531	1	forces	
1532	1	forcez	
1533	1	forfait	
1534	1	forma	
1535	1	formé	
1536	1	forts	
1537	1	forçant	
1538	1	frais	
1539	1	frappé	
1540	1	frappée	
1541	1	fronts	
1542	1	fruit	
1543	1	frémir	
1544	1	frémis	
1545	1	frémit	
1546	1	fréquents	
1547	1	fugitifs	
1548	1	fui	
1549	1	fuir	
1550	1	fuis	
1551	1	fuit	
1552	1	fumée	
1553	1	funestes	
1554	1	funèbres	
1555	1	furie	
1556	1	future	
1557	1	futures	
1558	1	fuyant	
1559	1	fâcheuse	
1560	1	félicités	
1561	1	fîtes	
1562	1	fûmes	
1563	1	gagne	
1564	1	garantir	
1565	1	gardes	
1566	1	genoux	
1567	1	germain	
1568	1	globe	
1569	1	goûter	
1570	1	grave	
1571	1	grêle	
1572	1	guérir	
1573	1	gémissait	
1574	1	génies	
1575	1	hait	
1576	1	hardiment	
1577	1	hasard	
1578	1	hasarde	
1579	1	hauts	
1580	1	heureux	
1581	1	histoire	
1582	1	homicide	
1583	1	honneurs	
1584	1	honore	
1585	1	honorer	
1586	1	honorez	
1587	1	hors	
1588	1	humain	
1589	1	humilité	
1590	1	humilié	
1591	1	héritier	
1592	1	héritiers	
1593	1	idée	
1594	1	ignominie	
1595	1	ignorant	
1596	1	illusion	
1597	1	imaginaire	
1598	1	immole	
1599	1	immolez	
1600	1	immuable	
1601	1	impatiente	
1602	1	implorer	
1603	1	importune	
1604	1	imposez	
1605	1	impressions	
1606	1	inaccessible	
1607	1	incertain	
1608	1	incertains	
1609	1	inclination	
1610	1	incline	
1611	1	incomparable	
1612	1	inconsolable	
1613	1	inconstant	
1614	1	inconstants	
1615	1	indignation	
1616	1	indignement	
1617	1	indignité	
1618	1	indignée	
1619	1	indompté	
1620	1	infamie	
1621	1	inflexible	
1622	1	influence	
1623	1	informer	
1624	1	informée	
1625	1	infortunées	
1626	1	infâme	
1627	1	inique	
1628	1	injurieux	
1629	1	injustice	
1630	1	innocence	
1631	1	innocente	
1632	1	inouï	
1633	1	inquiétudes	
1634	1	insolemment	
1635	1	insolent	
1636	1	inspiraient	
1637	1	inspire	
1638	1	inspirèrent	
1639	1	instant	
1640	1	interdit	
1641	1	interprètes	
1642	1	introduit	
1643	1	intéresser	
1644	1	intérêts	
1645	1	inutile	
1646	1	inutiles	
1647	1	invincibles	
1648	1	invite	
1649	1	invité	
1650	1	inévitables	
1651	1	ira	
1652	1	irrite	
1653	1	irrités	
1654	1	issue	
1655	1	jadis	
1656	1	jalouse	
1657	1	jeter	
1658	1	jettent	
1659	1	joindre	
1660	1	jouir	
1661	1	jule	
1662	1	jure	
1663	1	juré	
1664	1	justement	
1665	1	justifier	
1666	1	justifies	
1667	1	laissant	
1668	1	lames	
1669	1	langage	
1670	1	langueur	
1671	1	languissant	
1672	1	languissante	
1673	1	languissants	
1674	1	las	
1675	1	lassent	
1676	1	lasser	
1677	1	lassons	
1678	1	lassé	
1679	1	lassés	
1680	1	lent	
1681	1	lever	
1682	1	leçons	
1683	1	libres	
1684	1	libérateurs	
1685	1	licence	
1686	1	liens	
1687	1	longue	
1688	1	lorsque	
1689	1	loue	
1690	1	louer	
1691	1	luisait	
1692	1	lumière	
1693	1	lâchent	
1694	1	lève	
1695	1	légers	
1696	1	légions	
1697	1	légitimes	
1698	1	magnanime	
1699	1	maintien	
1700	1	manque	
1701	1	manquerez	
1702	1	manques	
1703	1	marque	
1704	1	mars	
1705	1	matière	
1706	1	mauvais	
1707	1	menace	
1708	1	menacent	
1709	1	menacer	
1710	1	menacés	
1711	1	menaçants	
1712	1	mensonge	
1713	1	mettant	
1714	1	mette	
1715	1	mettez	
1716	1	meurt	
1717	1	meurtrier	
1718	1	miens	
1719	1	miracle	
1720	1	mirent	
1721	1	misères	
1722	1	misérables	
1723	1	mit	
1724	1	moments	
1725	1	monte	
1726	1	montrent	
1727	1	montrons	
1728	1	more	
1729	1	mortel	
1730	1	mortelle	
1731	1	mortelles	
1732	1	mourez	
1733	1	mourra	
1734	1	mourrai	
1735	1	mourrez	
1736	1	mourrons	
1737	1	mourut	
1738	1	mouvement	
1739	1	mouvements	
1740	1	moyens	
1741	1	muette	
1742	1	murmurer	
1743	1	mutuels	
1744	1	mâle	
1745	1	méconnaissez	
1746	1	ménageant	
1747	1	ménageons	
1748	1	ménager	
1749	1	méprisez	
1750	1	mérite	
1751	1	méritez	
1752	1	mêle	
1753	1	mêlez	
1754	1	mêlée	
1755	1	naturelle	
1756	1	naufrage	
1757	1	naître	
1758	1	noirci	
1759	1	noircit	
1760	1	noire	
1761	1	noires	
1762	1	nourris	
1763	1	nouveau	
1764	1	nouveaux	
1765	1	nouvel	
1766	1	nouvelle	
1767	1	néanmoins	
1768	1	nécessaire	
1769	1	négligiez	
1770	1	négligée	
1771	1	objets	
1772	1	obscurcie	
1773	1	obstine	
1774	1	obéis	
1775	1	occupées	
1776	1	offenser	
1777	1	office	
1778	1	offrait	
1779	1	onde	
1780	1	opposez	
1781	1	orage	
1782	1	ordinaire	
1783	1	orgueilleuse	
1784	1	ornement	
1785	1	ornements	
1786	1	oser	
1787	1	osera	
1788	1	oserait	
1789	1	osez	
1790	1	ote	
1791	1	otez	
1792	1	oubliez	
1793	1	outrager	
1794	1	ouvrant	
1795	1	ouvre	
1796	1	ouvrez	
1797	1	paix	
1798	1	palis	
1799	1	palissant	
1800	1	panique	
1801	1	paraissez	
1802	1	paraît	
1803	1	paraîtra	
1804	1	pardon	
1805	1	parent	
1806	1	parler	
1807	1	parole	
1808	1	parricide	
1809	1	parricides	
1810	1	pars	
1811	1	part	
1812	1	partageant	
1813	1	partagent	
1814	1	passage	
1815	1	passant	
1816	1	passe	
1817	1	passions	
1818	1	passés	
1819	1	peignent	
1820	1	peignez	
1821	1	pensant	
1822	1	penser	
1823	1	pensez	
1824	1	pensée	
1825	1	perdez	
1826	1	perdra	
1827	1	perds	
1828	1	perfides	
1829	1	permettez	
1830	1	persécuter	
1831	1	pertes	
1832	1	perçants	
1833	1	petits	
1834	1	peuple	
1835	1	peuvent	
1836	1	pharsale	
1837	1	philippe	
1838	1	pied	
1839	1	pieds	
1840	1	piquant	
1841	1	pire	
1842	1	pison	
1843	1	place	
1844	1	placés	
1845	1	plaines	
1846	1	plainte	
1847	1	plaît	
1848	1	pleurer	
1849	1	plupart	
1850	1	plusieurs	
1851	1	pointe	
1852	1	politique	
1853	1	pompes	
1854	1	pompeusement	
1855	1	pompées	
1856	1	portait	
1857	1	portant	
1858	1	portâtes	
1859	1	portés	
1860	1	possible	
1861	1	postérité	
1862	1	pourra	
1863	1	pourrais	
1864	1	pourris	
1865	1	poursuit	
1866	1	poursuivre	
1867	1	pourvoir	
1868	1	poussant	
1869	1	pousserai	
1870	1	poussière	
1871	1	poussés	
1872	1	pouvait	
1873	1	pouvant	
1874	1	pouvons	
1875	1	pratiques	
1876	1	première	
1877	1	prendrai	
1878	1	presque	
1879	1	pressants	
1880	1	pressez	
1881	1	pressiez	
1882	1	pressons	
1883	1	pressé	
1884	1	prie	
1885	1	priez	
1886	1	prive	
1887	1	privés	
1888	1	prière	
1889	1	procédé	
1890	1	prodiguer	
1891	1	profiter	
1892	1	profitons	
1893	1	profond	
1894	1	prolonger	
1895	1	promptes	
1896	1	prompts	
1897	1	propose	
1898	1	prudence	
1899	1	précieux	
1900	1	précipitant	
1901	1	précipite	
1902	1	précipitent	
1903	1	précipités	
1904	1	préférer	
1905	1	présente	
1906	1	présents	
1907	1	présumer	
1908	1	préviendra	
1909	1	prévois	
1910	1	prévoit	
1911	1	prévoyant	
1912	1	prêtes	
1913	1	prêtez	
1914	1	prêtre	
1915	1	publiques	
1916	1	puisqu	
1917	1	puissant	
1918	1	punie	
1919	1	punit	
1920	1	purge	
1921	1	pâlissants	
1922	1	pâlit	
1923	1	pères	
1924	1	pénétrer	
1925	1	périls	
1926	1	périsse	
1927	1	quelqu	
1928	1	quelquefois	
1929	1	quelques	
1930	1	quitter	
1931	1	quittez	
1932	1	race	
1933	1	racheter	
1934	1	raison	
1935	1	raisons	
1936	1	rallié	
1937	1	ramassant	
1938	1	rangs	
1939	1	rappelant	
1940	1	rappelez	
1941	1	rappelle	
1942	1	rappellent	
1943	1	rare	
1944	1	rares	
1945	1	ravage	
1946	1	ravie	
1947	1	ravir	
1948	1	ravisse	
1949	1	ravit	
1950	1	rebut	
1951	1	recevez	
1952	1	recevoir	
1953	1	reconnaissant	
1954	1	reconnu	
1955	1	recule	
1956	1	redouble	
1957	1	redoubler	
1958	1	redoublés	
1959	1	refuse	
1960	1	regarder	
1961	1	regardez	
1962	1	regretté	
1963	1	relevant	
1964	1	relevez	
1965	1	religion	
1966	1	remarquez	
1967	1	remets	
1968	1	remis	
1969	1	remonte	
1970	1	remords	
1971	1	rempli	
1972	1	remplissant	
1973	1	remplit	
1974	1	remède	
1975	1	rencontrer	
1976	1	rencontré	
1977	1	rendant	
1978	1	rende	
1979	1	rendent	
1980	1	rendez	
1981	1	renommée	
1982	1	renverser	
1983	1	renvoyez	
1984	1	repris	
1985	1	reprocher	
1986	1	reprochez	
1987	1	respectant	
1988	1	respecte	
1989	1	respire	
1990	1	ressentiment	
1991	1	ressouvient	
1992	1	ressuscite	
1993	1	restaient	
1994	1	restait	
1995	1	retarde	
1996	1	retardement	
1997	1	retardements	
1998	1	retient	
1999	1	retour	
2000	1	retraçant	
2001	1	revenir	
2002	1	revers	
2003	1	reviens	
2004	1	revivre	
2005	1	revoie	
2006	1	reçoit	
2007	1	reçoivent	
2008	1	reçu	
2009	1	rit	
2010	1	roi	
2011	1	rompe	
2012	1	rompez	
2013	1	rompras	
2014	1	rompt	
2015	1	rompu	
2016	1	rongé	
2017	1	rougirait	
2018	1	rougissent	
2019	1	rougit	
2020	1	rude	
2021	1	règle	
2022	1	récit	
2023	1	réduit	
2024	1	réduite	
2025	1	régler	
2026	1	réplique	
2027	1	répondent	
2028	1	répondre	
2029	1	réponds	
2030	1	république	
2031	1	réserver	
2032	1	résistance	
2033	1	résistant	
2034	1	résiste	
2035	1	résister	
2036	1	résistera	
2037	1	résolutions	
2038	1	résoudre	
2039	1	résous	
2040	1	rétablir	
2041	1	réveille	
2042	1	révolté	
2043	1	sachent	
2044	1	sachez	
2045	1	sacrificateur	
2046	1	sacrificateurs	
2047	1	sacrifice	
2048	1	saisis	
2049	1	saisissements	
2050	1	saisit	
2051	1	sait	
2052	1	salut	
2053	1	sanglante	
2054	1	sanglantes	
2055	1	satisfasse	
2056	1	saura	
2057	1	saurez	
2058	1	savons	
2059	1	scipions	
2060	1	sec	
2061	1	secondé	
2062	1	secourant	
2063	1	secrets	
2064	1	secrète	
2065	1	secs	
2066	1	sensiblement	
2067	1	sentent	
2068	1	sentiment	
2069	1	sentir	
2070	1	serein	
2071	1	serez	
2072	1	serons	
2073	1	seront	
2074	1	servant	
2075	1	serve	
2076	1	servi	
2077	1	serviles	
2078	1	servitude	
2079	1	seules	
2080	1	signale	
2081	1	silence	
2082	1	simulacre	
2083	1	soigneux	
2084	1	sollicitait	
2085	1	sollicite	
2086	1	sombre	
2087	1	songe	
2088	1	songer	
2089	1	songes	
2090	1	sors	
2091	1	sortir	
2092	1	soudainement	
2093	1	souffle	
2094	1	souffrirait	
2095	1	souffrirez	
2096	1	soumettre	
2097	1	soupire	
2098	1	soupirer	
2099	1	soupçonner	
2100	1	soupçonnez	
2101	1	sourdes	
2102	1	soustraire	
2103	1	soutenez	
2104	1	soutiendrez	
2105	1	soutiens	
2106	1	soutint	
2107	1	souvenir	
2108	1	souviens	
2109	1	soûlez	
2110	1	spectre	
2111	1	subsisté	
2112	1	sueur	
2113	1	suivant	
2114	1	suivez	
2115	1	suivis	
2116	1	suivrai	
2117	1	sujets	
2118	1	surmonter	
2119	1	surmontez	
2120	1	surmonté	
2121	1	surprise	
2122	1	surtout	
2123	1	sus	
2124	1	suspendre	
2125	1	suspendu	
2126	1	sut	
2127	1	sèment	
2128	1	sénat	
2129	1	séparons	
2130	1	sûtes	
2131	1	tantôt	
2132	1	tardez	
2133	1	tarquins	
2134	1	telles	
2135	1	tenait	
2136	1	tendres	
2137	1	tenter	
2138	1	tenté	
2139	1	terminer	
2140	1	ternir	
2141	1	terrassé	
2142	1	terre	
2143	1	théâtre	
2144	1	tibre	
2145	1	tiendra	
2146	1	tiennent	
2147	1	tira	
2148	1	tire	
2149	1	tirez	
2150	1	titre	
2151	1	titres	
2152	1	tombant	
2153	1	tombez	
2154	1	tombé	
2155	1	tonnent	
2156	1	torrents	
2157	1	tort	
2158	1	toucher	
2159	1	touché	
2160	1	tourné	
2161	1	toutefois	
2162	1	tragique	
2163	1	trahi	
2164	1	trahir	
2165	1	trahira	
2166	1	trahirai	
2167	1	trahirent	
2168	1	trahisons	
2169	1	trait	
2170	1	traitements	
2171	1	tranchez	
2172	1	transie	
2173	1	travaille	
2174	1	travailler	
2175	1	travaux	
2176	1	traînée	
2177	1	traître	
2178	1	tremblant	
2179	1	triomphent	
2180	1	triompherait	
2181	1	triomphes	
2182	1	tristement	
2183	1	trompe	
2184	1	trompez	
2185	1	tronc	
2186	1	troubler	
2187	1	troubles	
2188	1	troublée	
2189	1	troublés	
2190	1	troupes	
2191	1	trouver	
2192	1	truchements	
2193	1	tue	
2194	1	tuer	
2195	1	tyrannique	
2196	1	tâchons	
2197	1	témoignages	
2198	1	ténèbres	
2199	1	tête	
2200	1	unies	
2201	1	usent	
2202	1	usez	
2203	1	utiles	
2204	1	vainement	
2205	1	vainquent	
2206	1	vais	
2207	1	vaisseaux	
2208	1	vanité	
2209	1	vantes	
2210	1	venaient	
2211	1	venait	
2212	1	venant	
2213	1	vendez	
2214	1	venez	
2215	1	vengent	
2216	1	vengez	
2217	1	vengée	
2218	1	vent	
2219	1	vents	
2220	1	venu	
2221	1	verrait	
2222	1	verrons	
2223	1	verront	
2224	1	verse	
2225	1	versez	
2226	1	veulent	
2227	1	vice	
2228	1	vicissitudes	
2229	1	victimes	
2230	1	vide	
2231	1	vieille	
2232	1	vies	
2233	1	vieux	
2234	1	vigilance	
2235	1	ville	
2236	1	vint	
2237	1	violente	
2238	1	violents	
2239	1	visages	
2240	1	visible	
2241	1	vite	
2242	1	vivant	
2243	1	vivez	
2244	1	vivons	
2245	1	vivra	
2246	1	vivrai	
2247	1	vivrait	
2248	1	voeu	
2249	1	voile	
2250	1	voler	
2251	1	vomir	
2252	1	vont	
2253	1	voudrait	
2254	1	voulait	
2255	1	vouliez	
2256	1	voyez	
2257	1	vraiment	
2258	1	vrais	
2259	1	vulgaires	
2260	1	vénérable	
2261	1	véritable	
2262	1	vîtes	
2263	1	âge	
2264	1	âpre	
2265	1	ébloui	
2266	1	ébranlement	
2267	1	ébranler	
2268	1	ébranlée	
2269	1	écarte	
2270	1	échappez	
2271	1	échappée	
2272	1	échauffent	
2273	1	éclair	
2274	1	éclaircie	
2275	1	éclatant	
2276	1	éclatante	
2277	1	éclate	
2278	1	écoute	
2279	1	écouter	
2280	1	écoutez	
2281	1	écoutons	
2282	1	également	
2283	1	éloigner	
2284	1	éloignez	
2285	1	éloigné	
2286	1	élève	
2287	1	élèves	
2288	1	émue	
2289	1	émus	
2290	1	épaissit	
2291	1	épargna	
2292	1	épargnant	
2293	1	épargne	
2294	1	épargnent	
2295	1	épargnèrent	
2296	1	épars	
2297	1	épouse	
2298	1	épouvantable	
2299	1	épouvante	
2300	1	épouvanter	
2301	1	éprouve	
2302	1	éprouvez	
2303	1	éprouvés	
2304	1	étaler	
2305	1	étoile	
2306	1	étonne	
2307	1	étonnée	
2308	1	étouffer	
2309	1	étourdit	
2310	1	étrange	
2311	1	étudie	
2312	1	évite	
2313	1	ôte	
2314	1	ôtent	
2315	1	ôtez	
2316	1	ôté	
