1,547,de
2,528,et
3,322,l
4,282,le
5,268,un
6,262,vous
7,255,que
8,252,la
9,243,à
10,241,d
11,202,en
12,189,je
13,167,est
14,165,qui
15,152,qu
16,147,ce
17,141,les
18,141,si
19,137,il
20,130,pour
21,128,mon
22,127,plus
23,126,ne
24,122,me
25,120,des
26,107,m
27,99,votre
28,97,j
29,95,son
30,91,une
31,90,ma
32,90,nous
33,89,mais
34,88,n
35,88,par
36,83,sa
37,82,a
38,76,du
39,71,au
40,68,s
41,68,sans
42,67,vos
43,62,moi
44,59,roi
45,59,ses
46,58,pas
47,57,dans
48,57,fait
49,55,tant
50,54,ai
51,53,dont
52,53,mes
53,52,don
54,51,cette
55,51,peut
56,50,sur
57,49,bien
58,49,tout
59,48,amour
60,47,lui
61,43,même
62,43,se
63,40,où
64,40,quelque
65,39,elle
66,39,ou
67,39,ô
68,38,bernard
69,35,avec
70,35,nos
71,35,on
72,34,aux
73,33,enfin
74,32,ont
75,32,point
76,32,être
77,31,coeur
78,30,cet
79,30,encor
80,30,seul
81,30,sort
82,30,tous
83,29,comme
84,29,espoir
85,28,trop
86,27,c
87,27,état
88,26,grand
89,26,voeux
90,25,ciel
91,25,jamais
92,25,nom
93,25,puis
94,25,rien
95,25,vertu
96,24,infante
97,24,leur
98,24,moins
99,24,quoi
100,23,cour
101,23,notre
102,23,tu
103,22,fortune
104,22,honneur
105,22,malheur
106,21,bras
107,21,quand
108,20,peu
109,20,yeux
110,19,mal
111,19,pouvoir
112,18,autre
113,18,sire
114,18,sont
115,18,sous
116,18,âme
117,17,ces
118,17,faire
119,17,gloire
120,17,ils
121,17,toujours
122,17,toute
123,17,voir
124,16,ardeur
125,16,dessein
126,16,faveur
127,16,jour
128,16,lune
129,16,objet
130,16,rang
131,16,respect
132,15,après
133,15,aujourd
134,15,beau
135,15,extrême
136,15,haut
137,15,heur
138,15,hui
139,15,lope
140,15,mains
141,15,mérite
142,15,non
143,15,prince
144,15,quel
145,15,seigneur
146,15,veut
147,14,coeurs
148,14,donc
149,14,peine
150,14,temps
151,13,avoir
152,13,doit
153,13,donne
154,13,donner
155,13,empire
156,13,flamme
157,13,mieux
158,13,ose
159,13,quelle
160,13,rend
161,13,soin
162,12,aussi
163,12,autant
164,12,avez
165,12,digne
166,12,homme
167,12,main
168,12,ni
169,12,nuit
170,12,prix
171,12,suis
172,12,vain
173,12,y
174,11,ait
175,11,contre
176,11,ennemis
177,11,esprit
178,11,faites
179,11,font
180,11,heureux
181,11,rois
182,11,silence
183,11,succès
184,11,va
185,11,éclat
186,10,assez
187,10,ayant
188,10,cher
189,10,couronne
190,10,dois
191,10,fut
192,10,généreux
193,10,haine
194,10,pouvez
195,10,puisque
196,10,raison
197,10,rendre
198,10,requête
199,10,retour
200,10,sang
201,10,ton
202,10,vassal
203,9,aime
204,9,amitié
205,9,aragon
206,9,art
207,9,cent
208,9,exploits
209,9,faveurs
210,9,foi
211,9,force
212,9,frère
213,9,glorieux
214,9,grands
215,9,grâce
216,9,instant
217,9,jusqu
218,9,juste
219,9,leurs
220,9,lieu
221,9,léonor
222,9,majesté
223,9,sais
224,9,sujet
225,9,trouve
226,9,trône
227,9,valeur
228,9,veux
229,9,vie
230,9,vu
231,8,amiral
232,8,attente
233,8,avant
234,8,avecques
235,8,avis
236,8,beauté
237,8,bruit
238,8,caprice
239,8,crime
240,8,dedans
241,8,dessus
242,8,dit
243,8,effets
244,8,fort
245,8,importune
246,8,indigne
247,8,ingrate
248,8,intérêt
249,8,invincible
250,8,laisse
251,8,longtemps
252,8,madame
253,8,mépris
254,8,passion
255,8,prendre
256,8,qualité
257,8,rangs
258,8,rencontre
259,8,reste
260,8,rigueur
261,8,secret
262,8,soins
263,8,soleil
264,8,violante
265,8,voici
266,8,élève
267,8,étant
268,7,amant
269,7,ami
270,7,armes
271,7,arrive
272,7,belle
273,7,besoin
274,7,bienfaits
275,7,camp
276,7,chez
277,7,choix
278,7,combat
279,7,courroux
280,7,deux
281,7,doux
282,7,estime
283,7,eux
284,7,fais
285,7,fruit
286,7,hommage
287,7,illustre
288,7,jette
289,7,justice
290,7,lettre
291,7,lois
292,7,oeil
293,7,offense
294,7,presque
295,7,prétendre
296,7,puissance
297,7,qualités
298,7,quelques
299,7,sers
300,7,soldat
301,7,te
302,7,travail
303,7,vanité
304,6,accueil
305,6,adresse
306,6,appas
307,6,audace
308,6,autorité
309,6,aveugle
310,6,bonheur
311,6,cabrere
312,6,charmes
313,6,comte
314,6,confus
315,6,courage
316,6,crédit
317,6,dieu
318,6,disgrâce
319,6,embrassant
320,6,espérance
321,6,fameux
322,6,favorable
323,6,feux
324,6,fidèle
325,6,flatte
326,6,fois
327,6,fol
328,6,haute
329,6,ici
330,6,important
331,6,insensible
332,6,insigne
333,6,jours
334,6,lit
335,6,loi
336,6,légitime
337,6,malheureux
338,6,mauvais
339,6,maître
340,6,mériter
341,6,occasion
342,6,place
343,6,propre
344,6,regard
345,6,repos
346,6,rit
347,6,savoir
348,6,semble
349,6,sensible
350,6,sentiments
351,6,seulement
352,6,soeur
353,6,soir
354,6,soit
355,6,songe
356,6,souvent
357,6,sujets
358,6,t
359,6,vanter
360,6,vient
361,6,violence
362,6,vol
363,6,vouloir
364,6,vue
365,6,écrit
366,6,était
367,5,adieu
368,5,allons
369,5,amoureux
370,5,armée
371,5,astre
372,5,avait
373,5,aventure
374,5,bonté
375,5,bouche
376,5,bout
377,5,celui
378,5,chacun
379,5,combats
380,5,combattu
381,5,commune
382,5,confusion
383,5,corps
384,5,couronner
385,5,cru
386,5,demande
387,5,destin
388,5,discret
389,5,donnez
390,5,doute
391,5,dure
392,5,déjà
393,5,effet
394,5,effort
395,5,espérer
396,5,eut
397,5,faits
398,5,fera
399,5,fers
400,5,front
401,5,hommes
402,5,hymen
403,5,joug
404,5,libre
405,5,lieux
406,5,là
407,5,maîtresse
408,5,monarque
409,5,nobles
410,5,ordre
411,5,oreille
412,5,oui
413,5,parler
414,5,parmi
415,5,permettre
416,5,pourrait
417,5,presse
418,5,preuve
419,5,produit
420,5,puissant
421,5,quels
422,5,quoique
423,5,r
424,5,rebuts
425,5,refus
426,5,regards
427,5,récit
428,5,régner
429,5,sardaigne
430,5,sein
431,5,sens
432,5,sera
433,5,servir
434,5,siège
435,5,sois
436,5,souffrir
437,5,succéder
438,5,ta
439,5,terre
440,5,terreur
441,5,tes
442,5,toutefois
443,5,traits
444,5,travaux
445,5,traître
446,5,trouble
447,5,tête
448,5,vigueur
449,5,vois
450,5,voit
451,5,voix
452,5,zèle
453,5,élevé
454,4,abord
455,4,absolu
456,4,accès
457,4,actions
458,4,adorable
459,4,adore
460,4,ailleurs
461,4,allez
462,4,approche
463,4,atteinte
464,4,attendons
465,4,attendre
466,4,attentat
467,4,audience
468,4,biens
469,4,brûle
470,4,capable
471,4,car
472,4,cependant
473,4,champ
474,4,charge
475,4,chère
476,4,concevoir
477,4,conquête
478,4,continue
479,4,contraire
480,4,craindre
481,4,crois
482,4,desseins
483,4,dessous
484,4,destins
485,4,devient
486,4,devoir
487,4,diadème
488,4,duc
489,4,défaut
490,4,défense
491,4,emploi
492,4,encore
493,4,ennemi
494,4,entre
495,4,es
496,4,esprits
497,4,eu
498,4,excès
499,4,exemple
500,4,faible
501,4,faiblesse
502,4,faisant
503,4,faisons
504,4,faix
505,4,fatal
506,4,fatale
507,4,feu
508,4,fille
509,4,fit
510,4,flatter
511,4,former
512,4,fureur
513,4,gage
514,4,ha
515,4,hors
516,4,indompté
517,4,insolence
518,4,invite
519,4,lauriers
520,4,lazarille
521,4,libertés
522,4,licence
523,4,longs
524,4,lâche
525,4,malheurs
526,4,marche
527,4,marques
528,4,maux
529,4,mettre
530,4,mis
531,4,monarques
532,4,mortel
533,4,mot
534,4,murs
535,4,objets
536,4,oblige
537,4,obstacle
538,4,ouvrir
539,4,paraître
540,4,passe
541,4,passer
542,4,passions
543,4,peinture
544,4,perez
545,4,perfide
546,4,peuple
547,4,peuvent
548,4,peux
549,4,pieds
550,4,potentat
551,4,pouvant
552,4,propos
553,4,préférable
554,4,présent
555,4,pu
556,4,puisqu
557,4,quelqu
558,4,rage
559,4,rare
560,4,recevoir
561,4,rendez
562,4,renommée
563,4,sait
564,4,sardes
565,4,secours
566,4,secrétaire
567,4,seront
568,4,sert
569,4,servi
570,4,service
571,4,sommeil
572,4,sommes
573,4,souhaits
574,4,souverain
575,4,souveraines
576,4,soyez
577,4,suprême
578,4,taire
579,4,tel
580,4,tenez
581,4,titre
582,4,tomber
583,4,tourment
584,4,trait
585,4,triste
586,4,troupes
587,4,trouver
588,4,témérité
589,4,univers
590,4,vaincre
591,4,venez
592,4,vertus
593,4,victoire
594,4,visage
595,4,vrai
596,4,élever
597,4,étais
598,4,êtes
599,3,affront
600,3,aimer
601,3,ainsi
602,3,air
603,3,aisément
604,3,aller
605,3,alliance
606,3,apprends
607,3,ardent
608,3,aspect
609,3,attache
610,3,attends
611,3,aucun
612,3,aucune
613,3,aurai
614,3,autrefois
615,3,aviez
616,3,bientôt
617,3,cache
618,3,carlos
619,3,celle
620,3,charme
621,3,charmer
622,3,chemin
623,3,cherche
624,3,cherchons
625,3,choir
626,3,chute
627,3,cieux
628,3,commis
629,3,commission
630,3,commun
631,3,communs
632,3,compte
633,3,connais
634,3,conservé
635,3,coups
636,3,cours
637,3,créature
638,3,degrés
639,3,dernier
640,3,destinée
641,3,dignement
642,3,dignes
643,3,dire
644,3,dis
645,3,discours
646,3,divers
647,3,douleur
648,3,droit
649,3,droits
650,3,défendre
651,3,dépend
652,3,eaux
653,3,efforts
654,3,envie
655,3,exercent
656,3,fardeau
657,3,faut
658,3,faux
659,3,ferme
660,3,fin
661,3,firent
662,3,fondement
663,3,fonder
664,3,forte
665,3,foudre
666,3,frivole
667,3,funeste
668,3,gens
669,3,guerriers
670,3,histoire
671,3,honore
672,3,honorer
673,3,hélas
674,3,héros
675,3,imiter
676,3,immortel
677,3,importance
678,3,importante
679,3,inclination
680,3,injure
681,3,injustice
682,3,inquiétude
683,3,insensé
684,3,intéressée
685,3,intérêts
686,3,joie
687,3,liberté
688,3,loin
689,3,manque
690,3,manquer
691,3,marque
692,3,mars
693,3,mien
694,3,miens
695,3,moitié
696,3,moment
697,3,monter
698,3,mort
699,3,mouvement
700,3,mouvements
701,3,mêler
702,3,naissance
703,3,nature
704,3,noble
705,3,nommer
706,3,nul
707,3,nécessité
708,3,office
709,3,ordinaire
710,3,ordres
711,3,ornement
712,3,outrage
713,3,ouvert
714,3,ouvre
715,3,palais
716,3,paquet
717,3,parfait
718,3,part
719,3,parti
720,3,patience
721,3,pendant
722,3,pensée
723,3,personne
724,3,perte
725,3,pitié
726,3,plutôt
727,3,porte
728,3,porter
729,3,possède
730,3,premier
731,3,prends
732,3,pris
733,3,prière
734,3,prodigue
735,3,prompt
736,3,propres
737,3,prudence
738,3,préférence
739,3,présume
740,3,prétends
741,3,puissants
742,3,puisse
743,3,quelquefois
744,3,redouter
745,3,regardant
746,3,rends
747,3,rendu
748,3,ridicule
749,3,règne
750,3,récompense
751,3,réponse
752,3,réserve
753,3,sages
754,3,seconde
755,3,secrets
756,3,serait
757,3,seule
758,3,sexe
759,3,sien
760,3,sitôt
761,3,souffre
762,3,souffrez
763,3,soupire
764,3,soupirs
765,3,soutenir
766,3,splendeur
767,3,suit
768,3,sujette
769,3,surpris
770,3,surtout
771,3,séparent
772,3,tiens
773,3,tient
774,3,tonnerre
775,3,touche
776,3,tour
777,3,toutes
778,3,traiter
779,3,transport
780,3,tremble
781,3,tribut
782,3,tributs
783,3,vaine
784,3,vainqueur
785,3,vainqueurs
786,3,vas
787,3,viens
788,3,ville
789,3,voilà
790,3,voulu
791,3,voyez
792,3,vérité
793,3,âmes
794,3,égal
795,3,états
796,2,accable
797,2,acceptez
798,2,accorder
799,2,achevé
800,2,acquiers
801,2,acquis
802,2,acquitte
803,2,acquitter
804,2,adressent
805,2,adversaire
806,2,affection
807,2,affections
808,2,aient
809,2,aimable
810,2,aimez
811,2,alarmes
812,2,allait
813,2,allégresse
814,2,amante
815,2,ambition
816,2,appareil
817,2,apparence
818,2,appartement
819,2,apprenez
820,2,approcher
821,2,appui
822,2,arcs
823,2,ardeurs
824,2,arriver
825,2,arrogance
826,2,arrogant
827,2,ascendant
828,2,assassine
829,2,assuré
830,2,astres
831,2,attend
832,2,attendant
833,2,attendez
834,2,attentats
835,2,attentes
836,2,attraits
837,2,aura
838,2,aurais
839,2,aurait
840,2,auriez
841,2,aussitôt
842,2,austère
843,2,autorise
844,2,avais
845,2,avance
846,2,avancer
847,2,avantage
848,2,avançons
849,2,aventures
850,2,aveuglement
851,2,avons
852,2,bas
853,2,beaucoup
854,2,beaux
855,2,bois
856,2,bon
857,2,brillant
858,2,brillants
859,2,brillent
860,2,butte
861,2,caché
862,2,calaris
863,2,capables
864,2,caresse
865,2,cause
866,2,cercle
867,2,certes
868,2,ceux
869,2,chambre
870,2,champs
871,2,chaque
872,2,chasser
873,2,chaînes
874,2,chemins
875,2,chercher
876,2,choc
877,2,choisir
878,2,chose
879,2,choses
880,2,ci
881,2,col
882,2,colère
883,2,combien
884,2,compter
885,2,comptez
886,2,conditions
887,2,conduit
888,2,confirmée
889,2,constance
890,2,contemple
891,2,continuant
892,2,conçoit
893,2,couché
894,2,coupez
895,2,coûter
896,2,coûté
897,2,craint
898,2,cristal
899,2,croyais
900,2,cruauté
901,2,cruelle
902,2,créance
903,2,depuis
904,2,dernière
905,2,descend
906,2,destiné
907,2,devait
908,2,devons
909,2,devrait
910,2,dieux
911,2,dignité
912,2,dignités
913,2,discrétion
914,2,disposant
915,2,dites
916,2,diverti
917,2,divin
918,2,doivent
919,2,donnant
920,2,durer
921,2,déclaré
922,2,déférence
923,2,délibère
924,2,départ
925,2,dépendre
926,2,déplaire
927,2,désespoir
928,2,déshonore
929,2,désormais
930,2,détruit
931,2,effroyable
932,2,emplois
933,2,emporte
934,2,enfermer
935,2,engage
936,2,enragé
937,2,envoie
938,2,escadron
939,2,espions
940,2,excite
941,2,exciter
942,2,exerce
943,2,exercez
944,2,explique
945,2,expose
946,2,exprimer
947,2,expérience
948,2,extravagance
949,2,face
950,2,fameuse
951,2,fantôme
952,2,fasse
953,2,feinte
954,2,fenêtre
955,2,ferai
956,2,ferait
957,2,fermait
958,2,feront
959,2,fertile
960,2,fidèles
961,2,fie
962,2,flammes
963,2,fleurs
964,2,fondons
965,2,forme
966,2,frappe
967,2,frayeur
968,2,froideurs
969,2,fruits
970,2,fuir
971,2,fuite
972,2,fuyons
973,2,féconde
974,2,gagne
975,2,gardes
976,2,gestes
977,2,glace
978,2,gouvernement
979,2,grande
980,2,grandes
981,2,grandeur
982,2,gré
983,2,guerre
984,2,généreuse
985,2,hauts
986,2,haïr
987,2,holà
988,2,honorable
989,2,honorez
990,2,honte
991,2,honteuse
992,2,horreur
993,2,humeur
994,2,humide
995,2,illustres
996,2,implore
997,2,importun
998,2,imposez
999,2,infaillible
1000,2,infant
1001,2,infortune
1002,2,inférer
1003,2,ingrat
1004,2,inhumain
1005,2,inhumaine
1006,2,inhumains
1007,2,injuste
1008,2,inspire
1009,2,instants
1010,2,intelligence
1011,2,interdit
1012,2,investir
1013,2,invincibles
1014,2,inégale
1015,2,jalouse
1016,2,jalousie
1017,2,jeu
1018,2,jeune
1019,2,juge
1020,2,juger
1021,2,jugez
1022,2,laisser
1023,2,laissons
1024,2,lasse
1025,2,libres
1026,2,loisir
1027,2,long
1028,2,longue
1029,2,lourd
1030,2,lu
1031,2,lustre
1032,2,légions
1033,2,manqué
1034,2,marchons
1035,2,matin
1036,2,mer
1037,2,mettez
1038,2,mille
1039,2,mise
1040,2,modestie
1041,2,modérer
1042,2,moindres
1043,2,montrant
1044,2,moyens
1045,2,mélange
1046,2,mémoire
1047,2,ménagez
1048,2,mérites
1049,2,mérité
1050,2,navarre
1051,2,nomme
1052,2,nourrir
1053,2,nouveaux
1054,2,nugue
1055,2,négliger
1056,2,nôtre
1057,2,obtenir
1058,2,occasions
1059,2,offensez
1060,2,offre
1061,2,offres
1062,2,ombrage
1063,2,ombre
1064,2,opportune
1065,2,oppose
1066,2,opposer
1067,2,orage
1068,2,ordonne
1069,2,ordonnez
1070,2,ordonné
1071,2,orgueil
1072,2,orgueilleux
1073,2,osais
1074,2,parc
1075,2,parle
1076,2,parlez
1077,2,parole
1078,2,partage
1079,2,partager
1080,2,partout
1081,2,passage
1082,2,passées
1083,2,passés
1084,2,pays
1085,2,pedre
1086,2,peines
1087,2,penser
1088,2,pensées
1089,2,perdent
1090,2,perdre
1091,2,permis
1092,2,persuader
1093,2,pied
1094,2,pinceau
1095,2,plaindre
1096,2,plaine
1097,2,plaint
1098,2,plaire
1099,2,pleine
1100,2,ployer
1101,2,port
1102,2,possesseur
1103,2,possible
1104,2,possédez
1105,2,pourrais
1106,2,pourriez
1107,2,pourvue
1108,2,pouvais
1109,2,prenez
1110,2,pressant
1111,2,pressentiments
1112,2,prie
1113,2,prier
1114,2,princes
1115,2,priver
1116,2,privé
1117,2,proches
1118,2,procuré
1119,2,prodige
1120,2,produiront
1121,2,profond
1122,2,promesse
1123,2,promettre
1124,2,prophète
1125,2,propice
1126,2,proposer
1127,2,protège
1128,2,provinces
1129,2,près
1130,2,précieux
1131,2,prépare
1132,2,présente
1133,2,présomption
1134,2,prêt
1135,2,publique
1136,2,pureté
1137,2,père
1138,2,péril
1139,2,pût
1140,2,raisons
1141,2,rapport
1142,2,ravie
1143,2,reconnaissant
1144,2,recours
1145,2,relever
1146,2,remettre
1147,2,rempart
1148,2,rende
1149,2,rendons
1150,2,renom
1151,2,reproche
1152,2,restaurateur
1153,2,retourner
1154,2,revers
1155,2,revêtu
1156,2,rigoureux
1157,2,rigueurs
1158,2,rival
1159,2,rivale
1160,2,roses
1161,2,route
1162,2,royale
1163,2,rude
1164,2,réduit
1165,2,régnant
1166,2,régnez
1167,2,réparer
1168,2,réponde
1169,2,répondre
1170,2,réprimer
1171,2,résoudre
1172,2,révérés
1173,2,rêver
1174,2,sage
1175,2,saints
1176,2,sanglantes
1177,2,santé
1178,2,second
1179,2,semblent
1180,2,semer
1181,2,sentier
1182,2,serais
1183,2,serf
1184,2,servage
1185,2,sied
1186,2,siens
1187,2,sincère
1188,2,soi
1189,2,sombres
1190,2,sortir
1191,2,souffert
1192,2,soufferte
1193,2,souffrant
1194,2,souhait
1195,2,soumette
1196,2,soutien
1197,2,soutient
1198,2,souvenir
1199,2,succède
1200,2,suivant
1201,2,suivi
1202,2,suivit
1203,2,suivront
1204,2,superbe
1205,2,supplice
1206,2,surprenant
1207,2,surprise
1208,2,suspect
1209,2,sûr
1210,2,taisant
1211,2,tard
1212,2,tenter
1213,2,tirer
1214,2,toi
1215,2,tombe
1216,2,torrent
1217,2,touché
1218,2,tourner
1219,2,trahison
1220,2,traite
1221,2,traité
1222,2,trois
1223,2,trouvait
1224,2,trouvons
1225,2,trouvé
1226,2,trêve
1227,2,têtes
1228,2,tôt
1229,2,usage
1230,2,vainc
1231,2,vaincus
1232,2,vainement
1233,2,vais
1234,2,vaisseaux
1235,2,vantons
1236,2,venir
1237,2,vent
1238,2,vents
1239,2,verre
1240,2,vieille
1241,2,vienne
1242,2,viennent
1243,2,vive
1244,2,voiles
1245,2,volant
1246,2,vole
1247,2,volontaire
1248,2,vont
1249,2,voudrais
1250,2,voyons
1251,2,vulgaire
1252,2,vôtre
1253,2,éclore
1254,2,écoutez
1255,2,écrits
1256,2,écriture
1257,2,édifice
1258,2,élevant
1259,2,épargne
1260,2,épargner
1261,2,épaules
1262,2,épines
1263,2,épreuve
1264,2,épuise
1265,2,établi
1266,2,étaient
1267,2,étonnement
1268,2,étouffer
1269,2,évente
1270,2,évidence
1271,2,événement
1272,2,ôter
1273,2,ôtez
1274,1,abaisse
1275,1,abaissement
1276,1,abandonne
1277,1,abandonner
1278,1,abois
1279,1,aborder
1280,1,abri
1281,1,abrégé
1282,1,absence
1283,1,absent
1284,1,absolue
1285,1,absolument
1286,1,absolus
1287,1,abusée
1288,1,accabler
1289,1,accidents
1290,1,accomplis
1291,1,accomplissez
1292,1,accordez
1293,1,accoutumée
1294,1,accroître
1295,1,accusons
1296,1,acheter
1297,1,achetez
1298,1,acheté
1299,1,achever
1300,1,achevons
1301,1,achève
1302,1,acquiert
1303,1,acquit
1304,1,acquérir
1305,1,acte
1306,1,action
1307,1,admet
1308,1,admets
1309,1,admirable
1310,1,admire
1311,1,adoré
1312,1,adresser
1313,1,adversaires
1314,1,affaire
1315,1,affaires
1316,1,affermies
1317,1,affreuse
1318,1,affronter
1319,1,affronts
1320,1,affrontée
1321,1,agencé
1322,1,agent
1323,1,agréable
1324,1,agréerez
1325,1,aguerris
1326,1,aidant
1327,1,aide
1328,1,aider
1329,1,aimables
1330,1,aimé
1331,1,airs
1332,1,aisé
1333,1,ajustant
1334,1,alarmée
1335,1,albe
1336,1,alcale
1337,1,alentour
1338,1,aliment
1339,1,allie
1340,1,alliez
1341,1,allume
1342,1,allumées
1343,1,allégeance
1344,1,alléger
1345,1,alors
1346,1,altère
1347,1,altérant
1348,1,amants
1349,1,ambassadeurs
1350,1,ambitieuses
1351,1,amenez
1352,1,amis
1353,1,anime
1354,1,animé
1355,1,annoncent
1356,1,années
1357,1,ans
1358,1,antiquité
1359,1,apaisés
1360,1,apporte
1361,1,apprend
1362,1,apprendre
1363,1,apprirent
1364,1,approchez
1365,1,approchons
1366,1,approchés
1367,1,approuver
1368,1,apprête
1369,1,appuyer
1370,1,arbitre
1371,1,arbres
1372,1,armé
1373,1,arracher
1374,1,arrhes
1375,1,arrivé
1376,1,arrivée
1377,1,arrière
1378,1,arrêt
1379,1,arrêtant
1380,1,arrêter
1381,1,arrêtez
1382,1,arrêté
1383,1,artifice
1384,1,arts
1385,1,asile
1386,1,aspects
1387,1,aspire
1388,1,asservie
1389,1,assis
1390,1,assistance
1391,1,assoupissement
1392,1,assujettie
1393,1,assure
1394,1,attachement
1395,1,attachent
1396,1,attaque
1397,1,attaquer
1398,1,atteindre
1399,1,attentif
1400,1,attention
1401,1,attirent
1402,1,augmente
1403,1,auguste
1404,1,auprès
1405,1,auraient
1406,1,aurez
1407,1,auront
1408,1,aurore
1409,1,auteur
1410,1,autres
1411,1,avancez
1412,1,avancées
1413,1,avare
1414,1,avertie
1415,1,avoué
1416,1,aïeux
1417,1,baillant
1418,1,baisant
1419,1,barbare
1420,1,basilic
1421,1,bastions
1422,1,bel
1423,1,belles
1424,1,blessure
1425,1,blessé
1426,1,bontés
1427,1,borner
1428,1,bornez
1429,1,borné
1430,1,bornées
1431,1,bouches
1432,1,boue
1433,1,bouillant
1434,1,braves
1435,1,briller
1436,1,briser
1437,1,broncher
1438,1,brûlants
1439,1,but
1440,1,bâtir
1441,1,bâtis
1442,1,bénignes
1443,1,bénins
1444,1,cabinet
1445,1,cachaient
1446,1,cachent
1447,1,cacher
1448,1,cachons
1449,1,calme
1450,1,campagne
1451,1,camps
1452,1,candeur
1453,1,canton
1454,1,caprices
1455,1,captieux
1456,1,captif
1457,1,captivité
1458,1,caractère
1459,1,caressait
1460,1,carrière
1461,1,castillans
1462,1,catalan
1463,1,causait
1464,1,causant
1465,1,causera
1466,1,celez
1467,1,celles
1468,1,certain
1469,1,cesse
1470,1,cesser
1471,1,changer
1472,1,changeât
1473,1,changé
1474,1,chargeant
1475,1,charger
1476,1,charges
1477,1,chargé
1478,1,chargés
1479,1,charmant
1480,1,charment
1481,1,chassez
1482,1,chassé
1483,1,chaude
1484,1,chef
1485,1,cherchez
1486,1,cherché
1487,1,chers
1488,1,choisi
1489,1,châtier
1490,1,châtiment
1491,1,chères
1492,1,chéris
1493,1,chérit
1494,1,chétif
1495,1,chétives
1496,1,cimeterre
1497,1,cinq
1498,1,citoyens
1499,1,civilité
1500,1,clair
1501,1,claire
1502,1,clairs
1503,1,clarté
1504,1,clartés
1505,1,climats
1506,1,clous
1507,1,colline
1508,1,colorer
1509,1,combattant
1510,1,combler
1511,1,commande
1512,1,commencement
1513,1,commencez
1514,1,commença
1515,1,commerce
1516,1,compagnon
1517,1,compagnons
1518,1,comparaison
1519,1,complice
1520,1,composé
1521,1,composés
1522,1,comprendre
1523,1,comprends
1524,1,comtesse
1525,1,comtés
1526,1,concernant
1527,1,concerté
1528,1,condamne
1529,1,condition
1530,1,conduite
1531,1,confesse
1532,1,confidence
1533,1,confier
1534,1,confirmer
1535,1,confondais
1536,1,conforme
1537,1,connaît
1538,1,connaître
1539,1,connu
1540,1,connue
1541,1,conquérant
1542,1,conquêtes
1543,1,conseil
1544,1,consentement
1545,1,consentir
1546,1,conservant
1547,1,conservez
1548,1,considère
1549,1,considérable
1550,1,considérant
1551,1,considérer
1552,1,consiste
1553,1,consomme
1554,1,consommée
1555,1,constante
1556,1,consulterons
1557,1,conséquence
1558,1,contempler
1559,1,contenter
1560,1,contons
1561,1,contraigne
1562,1,contrainte
1563,1,convie
1564,1,conçois
1565,1,coteau
1566,1,couche
1567,1,couchez
1568,1,couchés
1569,1,couleuvre
1570,1,coup
1571,1,couper
1572,1,courages
1573,1,coureur
1574,1,courir
1575,1,couronnes
1576,1,couronné
1577,1,courrier
1578,1,court
1579,1,couvert
1580,1,couverte
1581,1,couvrent
1582,1,couvrons
1583,1,coûtent
1584,1,coûtera
1585,1,coûterait
1586,1,craignant
1587,1,craignez
1588,1,crains
1589,1,crainte
1590,1,crever
1591,1,criminel
1592,1,criminels
1593,1,croirai
1594,1,croirais
1595,1,croit
1596,1,croyant
1597,1,croyez
1598,1,croîs
1599,1,croît
1600,1,cruautés
1601,1,cruels
1602,1,crût
1603,1,cueille
1604,1,curieuses
1605,1,céder
1606,1,cédons
1607,1,célestes
1608,1,célèbre
1609,1,célèbres
1610,1,césar
1611,1,césars
1612,1,côté
1613,1,côtés
1614,1,daigne
1615,1,daigné
1616,1,dames
1617,1,dangereuse
1618,1,dangers
1619,1,davantage
1620,1,degré
1621,1,dehors
1622,1,demander
1623,1,demeure
1624,1,demi
1625,1,dents
1626,1,destine
1627,1,destinées
1628,1,destruction
1629,1,devez
1630,1,deviendrez
1631,1,deviens
1632,1,devoirs
1633,1,devrais
1634,1,dextrement
1635,1,diadèmes
1636,1,diffère
1637,1,différant
1638,1,différemment
1639,1,différentes
1640,1,différents
1641,1,différé
1642,1,diligence
1643,1,dira
1644,1,dirai
1645,1,dirait
1646,1,discernons
1647,1,dispense
1648,1,dispos
1649,1,dispose
1650,1,disposés
1651,1,dissimule
1652,1,dissipe
1653,1,distinguons
1654,1,distraction
1655,1,diverse
1656,1,divertissement
1657,1,doive
1658,1,dom
1659,1,domptaient
1660,1,donnent
1661,1,donnera
1662,1,donnons
1663,1,donné
1664,1,données
1665,1,donnés
1666,1,dort
1667,1,doré
1668,1,dorés
1669,1,dos
1670,1,douceur
1671,1,douceurs
1672,1,douter
1673,1,doutes
1674,1,douteux
1675,1,drapeaux
1676,1,dressez
1677,1,dureté
1678,1,duré
1679,1,débonnaire
1680,1,décampée
1681,1,déchirant
1682,1,déchirée
1683,1,déclare
1684,1,déclarent
1685,1,déclarer
1686,1,déconfits
1687,1,découpé
1688,1,découvert
1689,1,décrets
1690,1,décrépite
1691,1,dédaigne
1692,1,dédains
1693,1,défend
1694,1,défends
1695,1,défendu
1696,1,défier
1697,1,défis
1698,1,dégage
1699,1,dégoûtantes
1700,1,délassés
1701,1,délivrez
1702,1,démenti
1703,1,démon
1704,1,démons
1705,1,dénier
1706,1,dépendante
1707,1,déposant
1708,1,déposer
1709,1,dépourvue
1710,1,dépêches
1711,1,déradés
1712,1,dérobe
1713,1,désarmant
1714,1,désarmées
1715,1,désavoués
1716,1,déserts
1717,1,désespérer
1718,1,désir
1719,1,désoler
1720,1,déterminer
1721,1,détestable
1722,1,détestant
1723,1,détourne
1724,1,détournons
1725,1,détromper
1726,1,détruiras
1727,1,dévore
1728,1,déçue
1729,1,dû
1730,1,eau
1731,1,efface
1732,1,effacez
1733,1,effacés
1734,1,effraye
1735,1,effrayé
1736,1,effrayés
1737,1,effroi
1738,1,embarquement
1739,1,embarras
1740,1,embelli
1741,1,embrasement
1742,1,embrasé
1743,1,employez
1744,1,employé
1745,1,emporté
1746,1,emprunte
1747,1,emprunté
1748,1,empêcher
1749,1,enchanter
1750,1,encourir
1751,1,endroits
1752,1,endurcis
1753,1,enfant
1754,1,enfer
1755,1,enflammer
1756,1,enflammé
1757,1,enfle
1758,1,enfoncé
1759,1,enfreins
1760,1,engagea
1761,1,engagent
1762,1,engagez
1763,1,engendre
1764,1,ennemies
1765,1,ennui
1766,1,ennuis
1767,1,enrouillée
1768,1,ensemble
1769,1,ensevelir
1770,1,ensevelis
1771,1,ensuite
1772,1,entends
1773,1,entendu
1774,1,entreprend
1775,1,entreprenons
1776,1,entreprise
1777,1,entretien
1778,1,entretiens
1779,1,envers
1780,1,envierai
1781,1,environne
1782,1,erreur
1783,1,erreurs
1784,1,esclaves
1785,1,espagnole
1786,1,espagnols
1787,1,espérais
1788,1,espérerais
1789,1,espérez
1790,1,essuiera
1791,1,essuyé
1792,1,europe
1793,1,eus
1794,1,examiner
1795,1,exaucez
1796,1,exceptez
1797,1,excité
1798,1,excitée
1799,1,exclusion
1800,1,excuse
1801,1,excède
1802,1,exercer
1803,1,exercerais
1804,1,exercice
1805,1,exercé
1806,1,experte
1807,1,expier
1808,1,exploit
1809,1,exposant
1810,1,extravagant
1811,1,exécuté
1812,1,eût
1813,1,faiblement
1814,1,faisais
1815,1,faisait
1816,1,farouche
1817,1,farouches
1818,1,faste
1819,1,fatalité
1820,1,faudrait
1821,1,fausse
1822,1,fausseté
1823,1,favori
1824,1,favoris
1825,1,favorisé
1826,1,favorisée
1827,1,feint
1828,1,femme
1829,1,fermes
1830,1,fermez
1831,1,fermé
1832,1,fidélité
1833,1,fiers
1834,1,fierté
1835,1,filant
1836,1,fis
1837,1,flattent
1838,1,flattes
1839,1,flatté
1840,1,flattée
1841,1,fléaux
1842,1,fléchir
1843,1,fléchirai
1844,1,folie
1845,1,folles
1846,1,fondements
1847,1,fondre
1848,1,fontaines
1849,1,forcer
1850,1,forces
1851,1,forcène
1852,1,forcé
1853,1,formons
1854,1,formé
1855,1,fortuné
1856,1,forçaient
1857,1,forçons
1858,1,forêt
1859,1,foudroyé
1860,1,foulaient
1861,1,foule
1862,1,frais
1863,1,frappent
1864,1,frapper
1865,1,fraye
1866,1,freins
1867,1,frivoles
1868,1,froid
1869,1,froidement
1870,1,froideur
1871,1,fronts
1872,1,frénésie
1873,1,fumée
1874,1,furent
1875,1,furieux
1876,1,futur
1877,1,future
1878,1,futurs
1879,1,fâcheux
1880,1,féconds
1881,1,fût
1882,1,gages
1883,1,gagné
1884,1,garantir
1885,1,garantis
1886,1,garants
1887,1,gardait
1888,1,garde
1889,1,gaules
1890,1,genre
1891,1,geste
1892,1,glissants
1893,1,glorieuses
1894,1,goutte
1895,1,gouverne
1896,1,gouverné
1897,1,goûterai
1898,1,grade
1899,1,grec
1900,1,gros
1901,1,grêle
1902,1,guide
1903,1,guider
1904,1,guère
1905,1,guérir
1906,1,génie
1907,1,généraux
1908,1,habitants
1909,1,hait
1910,1,haleine
1911,1,halte
1912,1,hameçons
1913,1,hardi
1914,1,hasard
1915,1,hasarder
1916,1,hasards
1917,1,hercule
1918,1,heureuse
1919,1,heurterait
1920,1,heurtes
1921,1,hier
1922,1,histoires
1923,1,honnête
1924,1,honnêteté
1925,1,honorent
1926,1,honoré
1927,1,hormis
1928,1,horrible
1929,1,humaines
1930,1,humains
1931,1,humanité
1932,1,hyménée
1933,1,hé
1934,1,héréditaire
1935,1,hésiterait
1936,1,hôtellerie
1937,1,idole
1938,1,ignes
1939,1,ignorants
1940,1,ignorez
1941,1,ignoré
1942,1,illusion
1943,1,illégitimes
1944,1,immodérés
1945,1,immortelle
1946,1,importantes
1947,1,importants
1948,1,importe
1949,1,importuns
1950,1,impose
1951,1,imposèrent
1952,1,imprudence
1953,1,imprudente
1954,1,impuissance
1955,1,impunément
1956,1,inaccessible
1957,1,incapable
1958,1,incertaine
1959,1,inclément
1960,1,incommode
1961,1,incommoder
1962,1,incommodité
1963,1,inconnu
1964,1,inconstance
1965,1,inconstante
1966,1,incroyable
1967,1,indifférente
1968,1,indignement
1969,1,indignités
1970,1,indomptés
1971,1,inestimable
1972,1,infaillibles
1973,1,infidèle
1974,1,influence
1975,1,influences
1976,1,informe
1977,1,ingénieux
1978,1,innocence
1979,1,innocents
1980,1,inouïs
1981,1,inquiète
1982,1,inquiété
1983,1,insignes
1984,1,insinuant
1985,1,insolemment
1986,1,insolente
1987,1,insolentes
1988,1,insolents
1989,1,instance
1990,1,instruits
1991,1,insupportables
1992,1,intime
1993,1,intéresse
1994,1,intéressent
1995,1,intéresser
1996,1,inutile
1997,1,invaincu
1998,1,invention
1999,1,inégal
2000,1,inégalité
2001,1,inévitable
2002,1,irait
2003,1,irrite
2004,1,irrités
2005,1,irrésolu
2006,1,irrésolue
2007,1,issue
2008,1,ivoire
2009,1,jadis
2010,1,jaloux
2011,1,jettent
2012,1,joignez
2013,1,joint
2014,1,jointe
2015,1,joints
2016,1,joue
2017,1,jouerons
2018,1,jugements
2019,1,juges
2020,1,jugé
2021,1,justes
2022,1,justifieraient
2023,1,justifieront
2024,1,laissa
2025,1,laissant
2026,1,laissent
2027,1,laissera
2028,1,laissez
2029,1,laissé
2030,1,lame
2031,1,lancent
2032,1,langage
2033,1,languis
2034,1,lançant
2035,1,las
2036,1,lasser
2037,1,lassera
2038,1,lasserai
2039,1,lassitude
2040,1,latin
2041,1,laugarez
2042,1,lent
2043,1,lente
2044,1,lenteur
2045,1,leon
2046,1,lettres
2047,1,levant
2048,1,lever
2049,1,leçon
2050,1,leçons
2051,1,libérales
2052,1,lice
2053,1,limites
2054,1,lions
2055,1,lisant
2056,1,lisez
2057,1,livre
2058,1,livré
2059,1,lorsque
2060,1,loyale
2061,1,lâchement
2062,1,lâches
2063,1,lâcheté
2064,1,lâchetés
2065,1,léger
2066,1,légitimes
2067,1,magnificence
2068,1,maintien
2069,1,malaisément
2070,1,malgré
2071,1,malheureuse
2072,1,maligne
2073,1,malin
2074,1,maltraiter
2075,1,mandez
2076,1,manifester
2077,1,manquait
2078,1,manquez
2079,1,marcher
2080,1,marqué
2081,1,martiale
2082,1,matière
2083,1,maxime
2084,1,maximes
2085,1,meilleur
2086,1,menaces
2087,1,menez
2088,1,mensonge
2089,1,mers
2090,1,merveille
2091,1,message
2092,1,messager
2093,1,messéante
2094,1,mesurant
2095,1,mesures
2096,1,mets
2097,1,mettrai
2098,1,mienne
2099,1,ministre
2100,1,miracles
2101,1,mit
2102,1,modestes
2103,1,modique
2104,1,modèle
2105,1,modérant
2106,1,moindre
2107,1,moisson
2108,1,moissonnés
2109,1,moments
2110,1,moncade
2111,1,monde
2112,1,montre
2113,1,montré
2114,1,monts
2115,1,monté
2116,1,mordre
2117,1,mortelle
2118,1,motifs
2119,1,mots
2120,1,mouvant
2121,1,mouvoir
2122,1,moyen
2123,1,moyennez
2124,1,muette
2125,1,munir
2126,1,munit
2127,1,mur
2128,1,murcie
2129,1,murmurer
2130,1,musique
2131,1,mutin
2132,1,mutinée
2133,1,mutuels
2134,1,myrte
2135,1,myrtes
2136,1,mâle
2137,1,mène
2138,1,mère
2139,1,méconnaître
2140,1,médecine
2141,1,mégarde
2142,1,ménage
2143,1,ménager
2144,1,ménagé
2145,1,méprisez
2146,1,méprisée
2147,1,méritais
2148,1,méritez
2149,1,méritée
2150,1,métier
2151,1,naufrage
2152,1,naît
2153,1,naître
2154,1,neptune
2155,1,neveux
2156,1,nier
2157,1,noeud
2158,1,noeuds
2159,1,noir
2160,1,noire
2161,1,nombre
2162,1,nommant
2163,1,nommez
2164,1,nommée
2165,1,notable
2166,1,nuage
2167,1,nuire
2168,1,néant
2169,1,néglige
2170,1,négligence
2171,1,négligeons
2172,1,négligée
2173,1,nés
2174,1,nôtres
2175,1,obligeait
2176,1,obligeant
2177,1,obliger
2178,1,oblique
2179,1,obscurcit
2180,1,obscurité
2181,1,observer
2182,1,observé
2183,1,obstacles
2184,1,obstine
2185,1,obstinons
2186,1,obstiné
2187,1,obstinée
2188,1,obtenons
2189,1,obtiendra
2190,1,obtiens
2191,1,obtient
2192,1,obéir
2193,1,obéissance
2194,1,occupait
2195,1,oeuvre
2196,1,offensent
2197,1,offenser
2198,1,offensé
2199,1,offices
2200,1,officieux
2201,1,offrir
2202,1,ombres
2203,1,onde
2204,1,opposes
2205,1,opprobre
2206,1,or
2207,1,ordonnance
2208,1,ordonner
2209,1,oristan
2210,1,ornements
2211,1,osait
2212,1,osant
2213,1,osera
2214,1,oserait
2215,1,ossone
2216,1,otage
2217,1,oubli
2218,1,oublié
2219,1,ourdi
2220,1,ourdit
2221,1,outrages
2222,1,outre
2223,1,ouverte
2224,1,ouvrait
2225,1,ouvrant
2226,1,ouvrez
2227,1,ouvrons
2228,1,oyez
2229,1,oyons
2230,1,paissez
2231,1,paraît
2232,1,pardon
2233,1,pardonnez
2234,1,pare
2235,1,pareil
2236,1,pareille
2237,1,pareils
2238,1,parfaits
2239,1,parlant
2240,1,parlante
2241,1,parlerai
2242,1,parlé
2243,1,parque
2244,1,parsemant
2245,1,parsemé
2246,1,partagent
2247,1,partie
2248,1,partir
2249,1,partis
2250,1,partit
2251,1,paru
2252,1,paré
2253,1,parée
2254,1,passais
2255,1,passant
2256,1,passons
2257,1,passé
2258,1,patins
2259,1,pauvre
2260,1,pavons
2261,1,paya
2262,1,payer
2263,1,payez
2264,1,payons
2265,1,peint
2266,1,peintures
2267,1,pendante
2268,1,pensant
2269,1,pense
2270,1,pensé
2271,1,percent
2272,1,percer
2273,1,perd
2274,1,perdant
2275,1,perdez
2276,1,perdu
2277,1,perfides
2278,1,permet
2279,1,permettant
2280,1,permettez
2281,1,permettiez
2282,1,personnage
2283,1,persécuter
2284,1,perçants
2285,1,peur
2286,1,piège
2287,1,pièges
2288,1,piété
2289,1,placer
2290,1,plaignez
2291,1,plains
2292,1,plainte
2293,1,plaintes
2294,1,plairaient
2295,1,plaisir
2296,1,plaisirs
2297,1,planète
2298,1,plein
2299,1,pleines
2300,1,pleins
2301,1,pleut
2302,1,ploie
2303,1,pluie
2304,1,plume
2305,1,plâtre
2306,1,plût
2307,1,poche
2308,1,poignard
2309,1,poil
2310,1,poison
2311,1,pompe
2312,1,pompeux
2313,1,populaire
2314,1,porta
2315,1,portent
2316,1,porteurs
2317,1,portrait
2318,1,porté
2319,1,posséder
2320,1,posture
2321,1,poudre
2322,1,pourra
2323,1,pourraient
2324,1,pourrez
2325,1,pourrir
2326,1,poursuis
2327,1,pourvoir
2328,1,pourvoiront
2329,1,poussière
2330,1,pouvait
2331,1,pratiqué
2332,1,première
2333,1,prend
2334,1,prescrit
2335,1,prescrite
2336,1,pressent
2337,1,presser
2338,1,pressé
2339,1,princesse
2340,1,prirent
2341,1,prison
2342,1,priés
2343,1,procédait
2344,1,profitera
2345,1,profusion
2346,1,profusions
2347,1,progrès
2348,1,proie
2349,1,prolonge
2350,1,promet
2351,1,promets
2352,1,promis
2353,1,prompts
2354,1,prononcer
2355,1,proposais
2356,1,propose
2357,1,proposez
2358,1,protection
2359,1,prouver
2360,1,province
2361,1,précipiter
2362,1,précèdent
2363,1,préparais
2364,1,présents
2365,1,prétend
2366,1,prétendent
2367,1,prétention
2368,1,prétentions
2369,1,prévaudrai
2370,1,prévenir
2371,1,prévenons
2372,1,prévenu
2373,1,prévoyant
2374,1,prêtant
2375,1,prête
2376,1,prêtons
2377,1,prêts
2378,1,prêté
2379,1,prîmes
2380,1,publié
2381,1,puissantes
2382,1,puissent
2383,1,punir
2384,1,put
2385,1,pâlissant
2386,1,pénible
2387,1,pénètre
2388,1,périls
2389,1,périr
2390,1,pôles
2391,1,quartier
2392,1,quatre
2393,1,quelles
2394,1,quereller
2395,1,quoiqu
2396,1,rabattrai
2397,1,racine
2398,1,raconter
2399,1,raimond
2400,1,raisonnement
2401,1,ramassant
2402,1,ramassées
2403,1,range
2404,1,ranger
2405,1,ranimant
2406,1,rappelons
2407,1,ravale
2408,1,ravi
2409,1,ravir
2410,1,ravis
2411,1,rayon
2412,1,rebelle
2413,1,rebelles
2414,1,rebellions
2415,1,rebut
2416,1,rebute
2417,1,rebuter
2418,1,rebutez
2419,1,rebutée
2420,1,reconnaissez
2421,1,reconnaît
2422,1,reconnaîtrait
2423,1,reconnaître
2424,1,reconnu
2425,1,reconnue
2426,1,recule
2427,1,redoutable
2428,1,redoute
2429,1,refuge
2430,1,refusent
2431,1,refusez
2432,1,refusé
2433,1,regret
2434,1,reines
2435,1,rejette
2436,1,rejetée
2437,1,rejetés
2438,1,rejoignant
2439,1,rejoint
2440,1,relevé
2441,1,relâche
2442,1,relâcheraient
2443,1,relève
2444,1,remontrer
2445,1,remplir
2446,1,remplît
2447,1,remporteront
2448,1,remède
2449,1,renaît
2450,1,rencontrera
2451,1,rendaient
2452,1,rendant
2453,1,rendrai
2454,1,rendrait
2455,1,rendrez
2456,1,rentrer
2457,1,repaissent
2458,1,reposants
2459,1,repose
2460,1,reposer
2461,1,repoussa
2462,1,reprocher
2463,1,représenter
2464,1,respects
2465,1,respire
2466,1,ressens
2467,1,resserre
2468,1,ressort
2469,1,restreignant
2470,1,restreindre
2471,1,restreint
2472,1,retarder
2473,1,retenir
2474,1,retentit
2475,1,retenue
2476,1,retirons
2477,1,retourne
2478,1,retraite
2479,1,revenir
2480,1,reverrai
2481,1,reverrons
2482,1,reviens
2483,1,revivre
2484,1,reçois
2485,1,reçoit
2486,1,reçue
2487,1,reçus
2488,1,ribagorce
2489,1,riche
2490,1,richesse
2491,1,rirait
2492,1,risquez
2493,1,roche
2494,1,rocher
2495,1,romain
2496,1,romaine
2497,1,ronger
2498,1,roue
2499,1,royal
2500,1,royales
2501,1,ruiner
2502,1,ruisseau
2503,1,ruses
2504,1,rébellion
2505,1,réception
2506,1,réduise
2507,1,régis
2508,1,régit
2509,1,régnera
2510,1,répand
2511,1,répandez
2512,1,réparera
2513,1,réparti
2514,1,réprimant
2515,1,réprimez
2516,1,répugnent
2517,1,réserver
2518,1,résiste
2519,1,résister
2520,1,résolus
2521,1,rétabli
2522,1,rétablira
2523,1,réveil
2524,1,réveille
2525,1,révoltés
2526,1,révère
2527,1,révéler
2528,1,rêverie
2529,1,rêviez
2530,1,rêvons
2531,1,rôle
2532,1,sachant
2533,1,sacra
2534,1,sacrifiant
2535,1,sacré
2536,1,saint
2537,1,saisi
2538,1,saisit
2539,1,saison
2540,1,salue
2541,1,saragosse
2542,1,sassaris
2543,1,satisfaisant
2544,1,satisfait
2545,1,saura
2546,1,saurai
2547,1,saut
2548,1,sauter
2549,1,sauvez
2550,1,sauvés
2551,1,savant
2552,1,savent
2553,1,savez
2554,1,sceptre
2555,1,science
2556,1,scipions
2557,1,secrtaie
2558,1,secrète
2559,1,secrètes
2560,1,selon
2561,1,semait
2562,1,semblait
2563,1,semez
2564,1,sentiment
2565,1,seoir
2566,1,seraient
2567,1,seras
2568,1,serve
2569,1,servent
2570,1,servez
2571,1,services
2572,1,servie
2573,1,servile
2574,1,seuls
2575,1,signalai
2576,1,signalant
2577,1,signalé
2578,1,sillons
2579,1,simple
2580,1,sinon
2581,1,six
2582,1,siècles
2583,1,soc
2584,1,soeurs
2585,1,soient
2586,1,solide
2587,1,solitude
2588,1,solliciteurs
2589,1,sondons
2590,1,sora
2591,1,sortait
2592,1,sorti
2593,1,sortie
2594,1,souci
2595,1,soucis
2596,1,soufferts
2597,1,souffrons
2598,1,souhaités
2599,1,souillez
2600,1,souillé
2601,1,soumettant
2602,1,soumettre
2603,1,soumis
2604,1,soumission
2605,1,soumit
2606,1,soupçon
2607,1,soupçonnez
2608,1,soupçons
2609,1,source
2610,1,sourd
2611,1,souscris
2612,1,soutenons
2613,1,soutenu
2614,1,souverains
2615,1,spectre
2616,1,squelette
2617,1,stratagème
2618,1,stupide
2619,1,stérile
2620,1,su
2621,1,sublime
2622,1,submerge
2623,1,succombe
2624,1,suite
2625,1,suivais
2626,1,suivante
2627,1,suivent
2628,1,suivez
2629,1,suivions
2630,1,suivons
2631,1,suivra
2632,1,suivre
2633,1,superflu
2634,1,superflus
2635,1,suppléant
2636,1,suprêmes
2637,1,surnom
2638,1,surprend
2639,1,suscité
2640,1,suspecte
2641,1,sèche
2642,1,sème
2643,1,sèmera
2644,1,sénat
2645,1,sévérité
2646,1,sûre
2647,1,sûrs
2648,1,tableau
2649,1,tache
2650,1,taches
2651,1,taillis
2652,1,taisez
2653,1,talonne
2654,1,tambours
2655,1,tandis
2656,1,tarder
2657,1,telle
2658,1,telles
2659,1,temple
2660,1,tenais
2661,1,tendant
2662,1,tenir
2663,1,tenta
2664,1,tente
2665,1,tenteront
2666,1,termes
2667,1,ternir
2668,1,terrassant
2669,1,tibère
2670,1,tiendrai
2671,1,tiendrais
2672,1,tiendrez
2673,1,tienne
2674,1,tirait
2675,1,tirant
2676,1,tire
2677,1,tirera
2678,1,tirons
2679,1,toilette
2680,1,tombeau
2681,1,tonne
2682,1,tort
2683,1,toucher
2684,1,touchons
2685,1,tours
2686,1,trahis
2687,1,traitons
2688,1,trajan
2689,1,trame
2690,1,tramer
2691,1,tranché
2692,1,travaille
2693,1,travaillez
2694,1,travers
2695,1,traversaient
2696,1,traversera
2697,1,traçant
2698,1,tremblants
2699,1,trembler
2700,1,tributaire
2701,1,tributaires
2702,1,triomphe
2703,1,triomphent
2704,1,triompher
2705,1,triomphez
2706,1,tristes
2707,1,trompettes
2708,1,troubles
2709,1,trouvai
2710,1,trouverais
2711,1,trépas
2712,1,trésor
2713,1,trésors
2714,1,trônes
2715,1,tuant
2716,1,tue
2717,1,tuez
2718,1,tyran
2719,1,tyrannie
2720,1,tyrannique
2721,1,tâchais
2722,1,tâche
2723,1,témoignage
2724,1,témoigner
2725,1,téméraire
2726,1,union
2727,1,urfin
2728,1,urgel
2729,1,user
2730,1,usure
2731,1,utile
2732,1,vague
2733,1,vaillance
2734,1,vaillants
2735,1,vaincrons
2736,1,vains
2737,1,vanités
2738,1,vaste
2739,1,vaut
2740,1,veillons
2741,1,veines
2742,1,venant
2743,1,venosque
2744,1,venue
2745,1,verdissant
2746,1,verrai
2747,1,verrez
2748,1,vers
2749,1,versais
2750,1,versent
2751,1,verser
2752,1,veulent
2753,1,victimes
2754,1,victoires
2755,1,viendra
2756,1,viendrons
2757,1,vif
2758,1,vigueurs
2759,1,vins
2760,1,violent
2761,1,vis
2762,1,visibles
2763,1,vives
2764,1,vivez
2765,1,voisin
2766,1,volantes
2767,1,volontairement
2768,1,volontés
2769,1,voudra
2770,1,voudriez
2771,1,voulait
2772,1,voulant
2773,1,vouliez
2774,1,voulut
2775,1,voyage
2776,1,voyant
2777,1,vraiment
2778,1,vrais
2779,1,vérités
2780,1,vîmes
2781,1,vôtres
2782,1,zélés
2783,1,ébats
2784,1,éblouir
2785,1,ébranle
2786,1,écartés
2787,1,écharpe
2788,1,éclaircir
2789,1,éclaircissement
2790,1,éclaire
2791,1,éclairs
2792,1,éclatant
2793,1,éclate
2794,1,éclater
2795,1,écoule
2796,1,écoutée
2797,1,écrie
2798,1,écris
2799,1,écrivais
2800,1,écrivant
2801,1,écueil
2802,1,écus
2803,1,égale
2804,1,également
2805,1,égaler
2806,1,égard
2807,1,égare
2808,1,élance
2809,1,élection
2810,1,éloigne
2811,1,éloignent
2812,1,éloignez
2813,1,éloquence
2814,1,éminent
2815,1,épais
2816,1,épaisse
2817,1,épandu
2818,1,épargnez
2819,1,épousais
2820,1,épouse
2821,1,épouvanter
2822,1,époux
2823,1,épris
2824,1,éprouvant
2825,1,éprouve
2826,1,éprouvent
2827,1,éprouver
2828,1,éprouvons
2829,1,éprouvés
2830,1,épuisé
2831,1,épuisés
2832,1,équipage
2833,1,établit
2834,1,étale
2835,1,éteindra
2836,1,étendards
2837,1,étendrait
2838,1,étendre
2839,1,éternelles
2840,1,éternels
2841,1,éterniser
2842,1,étiez
2843,1,étoiles
2844,1,étonne
2845,1,étonner
2846,1,étouffés
2847,1,étude
2848,1,été
2849,1,éventer
2850,1,éventés
2851,1,éviter
2852,1,événements
2853,1,ôte
2854,1,ôtent
2855,1,ôté
