#Word Types: 2085
#Word Tokens: 16142
#Search Hits: 0
1	519	de	
2	384	et	
3	375	un	
4	368	vous	
5	298	d	
6	292	que	
7	276	je	
8	275	l	
9	273	à	
10	259	le	
11	227	mon	
12	207	ce	
13	202	la	
14	200	est	
15	190	il	
16	184	en	
17	176	qu	
18	160	pour	
19	159	j	
20	146	me	
21	141	si	
22	121	m	
23	118	ma	
24	118	mais	
25	116	qui	
26	115	roi	
27	107	votre	
28	106	une	
29	105	tout	
30	98	amour	
31	98	par	
32	93	a	
33	93	ne	
34	82	coeur	
35	81	son	
36	79	n	
37	77	moi	
38	75	plus	
39	74	trône	
40	74	valère	
41	73	s	
42	71	au	
43	68	du	
44	66	espoir	
45	64	bien	
46	63	sa	
47	62	dans	
48	61	sans	
49	61	se	
50	60	ai	
51	60	c	
52	60	gloire	
53	60	mes	
54	60	on	
55	56	cette	
56	54	les	
57	53	des	
58	53	peut	
59	53	trop	
60	52	reine	
61	51	pas	
62	50	ces	
63	50	grand	
64	50	lui	
65	49	vos	
66	47	sur	
67	46	camille	
68	46	cet	
69	46	fait	
70	44	seigneur	
71	42	enfin	
72	41	aime	
73	41	père	
74	41	quand	
75	40	faire	
76	39	avec	
77	39	fils	
78	39	même	
79	38	rang	
80	37	elle	
81	37	madame	
82	37	nous	
83	37	régner	
84	37	yeux	
85	37	être	
86	36	ah	
87	36	flamme	
88	36	rien	
89	35	fabrice	
90	35	ses	
91	35	tu	
92	34	toute	
93	33	tant	
94	32	t	
95	31	puis	
96	31	quoi	
97	30	choix	
98	30	tous	
99	30	vois	
100	29	sort	
101	28	couronne	
102	28	moins	
103	28	où	
104	28	ton	
105	27	orgueil	
106	27	victoire	
107	26	aimer	
108	26	aveu	
109	26	faut	
110	26	quel	
111	25	contre	
112	25	ou	
113	25	princesse	
114	25	va	
115	25	âme	
116	24	autre	
117	24	doit	
118	24	glorieux	
119	24	non	
120	24	nos	
121	24	pouvoir	
122	24	sexe	
123	23	fédéric	
124	23	ose	
125	23	secret	
126	23	temps	
127	21	ciel	
128	21	dois	
129	20	devoir	
130	20	doux	
131	20	faveur	
132	20	frère	
133	20	sens	
134	20	sous	
135	20	te	
136	20	voir	
137	19	dont	
138	19	peu	
139	19	toi	
140	19	vient	
141	18	ardeur	
142	18	empire	
143	18	point	
144	18	suis	
145	18	veux	
146	17	aux	
147	17	encor	
148	17	feu	
149	17	jour	
150	17	mal	
151	17	tendresse	
152	16	ambition	
153	16	aussi	
154	16	bonheur	
155	16	comme	
156	16	donne	
157	16	grandeur	
158	16	ont	
159	16	sang	
160	16	soins	
161	16	soupirs	
162	15	amant	
163	15	après	
164	15	avez	
165	15	beau	
166	15	digne	
167	15	déjà	
168	15	désirs	
169	15	grande	
170	15	jusqu	
171	15	oui	
172	15	peine	
173	15	seul	
174	15	sicile	
175	15	y	
176	15	état	
177	14	ambitieux	
178	14	donc	
179	14	rendre	
180	13	assez	
181	13	deux	
182	13	dire	
183	13	emploi	
184	13	ici	
185	13	maître	
186	13	puissance	
187	13	sceptre	
188	13	ta	
189	12	appui	
190	12	destin	
191	12	extrême	
192	12	lois	
193	12	naples	
194	12	quelque	
195	12	rois	
196	12	règne	
197	12	sujet	
198	12	était	
199	11	celui	
200	11	cour	
201	11	craindre	
202	11	faible	
203	11	hé	
204	11	jaloux	
205	11	leur	
206	11	leurs	
207	11	main	
208	11	notre	
209	11	octave	
210	11	offre	
211	11	roger	
212	11	toujours	
213	10	allons	
214	10	appas	
215	10	aspire	
216	10	aujourd	
217	10	avais	
218	10	bientôt	
219	10	honneur	
220	10	hui	
221	10	juste	
222	10	lieux	
223	10	mort	
224	10	peuple	
225	10	respect	
226	10	régnez	
227	10	sais	
228	10	savez	
229	10	transport	
230	10	transports	
231	10	voeux	
232	10	étant	
233	9	aller	
234	9	avantage	
235	9	avoir	
236	9	belle	
237	9	bras	
238	9	combat	
239	9	coup	
240	9	diadème	
241	9	espérance	
242	9	expliquer	
243	9	femme	
244	9	flatter	
245	9	force	
246	9	fortune	
247	9	haut	
248	9	malgré	
249	9	marcellin	
250	9	mieux	
251	9	près	
252	9	pu	
253	9	sait	
254	9	sont	
255	9	souffre	
256	9	toutes	
257	9	trouble	
258	9	vain	
259	9	vais	
260	9	venger	
261	9	veut	
262	9	éclat	
263	8	audace	
264	8	avant	
265	8	charmes	
266	8	cher	
267	8	connais	
268	8	courroux	
269	8	crû	
270	8	dis	
271	8	dit	
272	8	doute	
273	8	entre	
274	8	faites	
275	8	gagner	
276	8	monarque	
277	8	nom	
278	8	plein	
279	8	pouvez	
280	8	secours	
281	8	songe	
282	8	succès	
283	8	vertu	
284	8	étais	
285	8	êtes	
286	8	ôter	
287	7	ainsi	
288	7	allez	
289	7	apprête	
290	7	aurai	
291	7	bas	
292	7	bontés	
293	7	changement	
294	7	coeurs	
295	7	croit	
296	7	crédit	
297	7	facile	
298	7	fille	
299	7	fin	
300	7	garder	
301	7	gardez	
302	7	grands	
303	7	hélas	
304	7	illustre	
305	7	indigne	
306	7	ingrat	
307	7	laisse	
308	7	loi	
309	7	mains	
310	7	malheur	
311	7	mettre	
312	7	moment	
313	7	mérite	
314	7	paraît	
315	7	paraître	
316	7	parlez	
317	7	prince	
318	7	péril	
319	7	quelle	
320	7	rival	
321	7	seulement	
322	7	soupire	
323	7	suprême	
324	7	taire	
325	7	voyez	
326	7	vôtre	
327	7	zèle	
328	7	étonne	
329	7	ôte	
330	6	aimez	
331	6	aimé	
332	6	amitié	
333	6	amoureux	
334	6	ans	
335	6	artifice	
336	6	beauté	
337	6	beaux	
338	6	cache	
339	6	cependant	
340	6	charme	
341	6	choisir	
342	6	connaître	
343	6	contraire	
344	6	courage	
345	6	crainte	
346	6	crime	
347	6	croire	
348	6	dernier	
349	6	discret	
350	6	douleur	
351	6	droit	
352	6	entier	
353	6	espère	
354	6	fasse	
355	6	foi	
356	6	grandeurs	
357	6	honte	
358	6	horreur	
359	6	hymen	
360	6	ils	
361	6	intérêt	
362	6	jamais	
363	6	justice	
364	6	lieu	
365	6	loin	
366	6	majesté	
367	6	mien	
368	6	ordre	
369	6	part	
370	6	pourquoi	
371	6	prends	
372	6	prévenir	
373	6	rend	
374	6	rendez	
375	6	sachez	
376	6	sentiment	
377	6	sentiments	
378	6	servir	
379	6	silence	
380	6	soin	
381	6	souverain	
382	6	tel	
383	6	trahir	
384	6	téméraire	
385	6	valeur	
386	6	voulez	
387	6	ô	
388	5	adieu	
389	5	attends	
390	5	autant	
391	5	avouer	
392	5	billet	
393	5	bonté	
394	5	bouche	
395	5	brûle	
396	5	cacher	
397	5	charmer	
398	5	conquête	
399	5	conserver	
400	5	couronné	
401	5	crains	
402	5	depuis	
403	5	dessein	
404	5	donner	
405	5	déguisement	
406	5	déplaisirs	
407	5	désespoir	
408	5	effort	
409	5	erreur	
410	5	espérer	
411	5	faiblesse	
412	5	fais	
413	5	fallait	
414	5	fier	
415	5	fierté	
416	5	fit	
417	5	flatte	
418	5	forcer	
419	5	fut	
420	5	grâce	
421	5	haine	
422	5	heureux	
423	5	ignore	
424	5	ingrate	
425	5	laisser	
426	5	malheureux	
427	5	monde	
428	5	montrer	
429	5	mots	
430	5	mystère	
431	5	ouvrir	
432	5	perd	
433	5	perdre	
434	5	pitié	
435	5	place	
436	5	plutôt	
437	5	promptement	
438	5	préfère	
439	5	prétendre	
440	5	puissant	
441	5	quels	
442	5	raison	
443	5	relever	
444	5	rends	
445	5	retour	
446	5	saurait	
447	5	savoir	
448	5	semblait	
449	5	suffit	
450	5	surprendre	
451	5	surpris	
452	5	tantôt	
453	5	tient	
454	5	vaincre	
455	5	viens	
456	5	voulant	
457	5	voyant	
458	5	vrai	
459	5	âge	
460	4	abord	
461	4	ailleurs	
462	4	aimable	
463	4	air	
464	4	ardeurs	
465	4	as	
466	4	attache	
467	4	aurait	
468	4	blâme	
469	4	cesse	
470	4	charmé	
471	4	connaissance	
472	4	connaissiez	
473	4	conseil	
474	4	couronner	
475	4	crois	
476	4	descendre	
477	4	dessus	
478	4	destine	
479	4	devait	
480	4	devez	
481	4	discours	
482	4	douter	
483	4	dédaigner	
484	4	effet	
485	4	emporte	
486	4	ennemi	
487	4	ennuis	
488	4	entendre	
489	4	envie	
490	4	excès	
491	4	fatal	
492	4	fera	
493	4	fois	
494	4	font	
495	4	fort	
496	4	généreux	
497	4	imposture	
498	4	inutile	
499	4	joie	
500	4	larmes	
501	4	lorsque	
502	4	là	
503	4	maintenant	
504	4	malheurs	
505	4	manquer	
506	4	maux	
507	4	milieu	
508	4	murmure	
509	4	mutins	
510	4	noble	
511	4	nobles	
512	4	né	
513	4	objet	
514	4	obliger	
515	4	oppose	
516	4	opprimée	
517	4	pardonnez	
518	4	passion	
519	4	peur	
520	4	plaire	
521	4	pourra	
522	4	presse	
523	4	prix	
524	4	prétexte	
525	4	punir	
526	4	rigueur	
527	4	rougir	
528	4	sache	
529	4	sera	
530	4	serment	
531	4	siens	
532	4	soit	
533	4	souffrez	
534	4	soutenir	
535	4	souveraine	
536	4	suit	
537	4	sujets	
538	4	surprise	
539	4	tendre	
540	4	tendresses	
541	4	tenter	
542	4	titre	
543	4	trouve	
544	4	vainqueur	
545	4	vaisseaux	
546	4	vanter	
547	4	violence	
548	4	voix	
549	4	écoute	
550	4	élève	
551	4	épargner	
552	3	abandonne	
553	3	absolu	
554	3	accablé	
555	3	adore	
556	3	adorer	
557	3	adresse	
558	3	agir	
559	3	agit	
560	3	aille	
561	3	alarmes	
562	3	amiral	
563	3	aperçois	
564	3	apprend	
565	3	apprends	
566	3	apprenez	
567	3	armes	
568	3	arrache	
569	3	arracher	
570	3	assurance	
571	3	attacher	
572	3	attend	
573	3	attendre	
574	3	auprès	
575	3	aurais	
576	3	avaient	
577	3	avidité	
578	3	aviez	
579	3	avoue	
580	3	aîné	
581	3	baisser	
582	3	beaucoup	
583	3	beautés	
584	3	belles	
585	3	biens	
586	3	caché	
587	3	car	
588	3	caresses	
589	3	celle	
590	3	cessez	
591	3	change	
592	3	cherche	
593	3	chère	
594	3	colère	
595	3	comble	
596	3	confidence	
597	3	confus	
598	3	connaissez	
599	3	consoler	
600	3	conçu	
601	3	criminel	
602	3	cru	
603	3	cruel	
604	3	cruels	
605	3	cède	
606	3	céder	
607	3	dedans	
608	3	destinée	
609	3	devient	
610	3	dieu	
611	3	disgrâce	
612	3	disposer	
613	3	donnant	
614	3	donnent	
615	3	doublement	
616	3	déclarer	
617	3	dédaigne	
618	3	défend	
619	3	défendre	
620	3	départ	
621	3	dérober	
622	3	désir	
623	3	efforts	
624	3	encore	
625	3	enfants	
626	3	ennemis	
627	3	entiers	
628	3	envier	
629	3	expliquez	
630	3	faiblement	
631	3	faibles	
632	3	feint	
633	3	feinte	
634	3	feux	
635	3	flattait	
636	3	flattez	
637	3	florise	
638	3	former	
639	3	forçons	
640	3	froideur	
641	3	fruit	
642	3	fureur	
643	3	hais	
644	3	hasarde	
645	3	hasarder	
646	3	honorer	
647	3	hyménée	
648	3	imaginaire	
649	3	infidèle	
650	3	injustice	
651	3	intéresse	
652	3	jeter	
653	3	jeunesse	
654	3	jours	
655	3	laissez	
656	3	langage	
657	3	légitime	
658	3	met	
659	3	mette	
660	3	misérable	
661	3	motif	
662	3	mourir	
663	3	mémoire	
664	3	mériter	
665	3	naître	
666	3	nouveau	
667	3	nouvelle	
668	3	nécessaire	
669	3	obstacle	
670	3	parler	
671	3	parmi	
672	3	perdez	
673	3	perte	
674	3	pieds	
675	3	plainte	
676	3	porter	
677	3	premier	
678	3	premiers	
679	3	prendre	
680	3	presque	
681	3	pressé	
682	3	promet	
683	3	promis	
684	3	prompt	
685	3	propre	
686	3	préparer	
687	3	présence	
688	3	puisqu	
689	3	puisque	
690	3	périls	
691	3	quelques	
692	3	quitter	
693	3	ravi	
694	3	rebelle	
695	3	rempli	
696	3	rendant	
697	3	rendu	
698	3	repos	
699	3	retenir	
700	3	retient	
701	3	rivale	
702	3	secourir	
703	3	semble	
704	3	sensible	
705	3	sent	
706	3	seule	
707	3	sitôt	
708	3	six	
709	3	sollicite	
710	3	sortir	
711	3	souffrir	
712	3	suffrage	
713	3	surprenant	
714	3	sévère	
715	3	sûr	
716	3	telle	
717	3	terre	
718	3	tombe	
719	3	tomber	
720	3	toucher	
721	3	trahison	
722	3	traite	
723	3	traître	
724	3	tremble	
725	3	triomphe	
726	3	triomphez	
727	3	triste	
728	3	trompé	
729	3	tyran	
730	3	témérité	
731	3	tête	
732	3	vaine	
733	3	vas	
734	3	vaste	
735	3	vengeance	
736	3	verrai	
737	3	verrez	
738	3	vie	
739	3	vieillesse	
740	3	voilà	
741	3	voulu	
742	3	vu	
743	3	échapper	
744	3	éclaircir	
745	3	éclater	
746	3	éternel	
747	2	absence	
748	2	abus	
749	2	abîme	
750	2	accordé	
751	2	achever	
752	2	achève	
753	2	acquitte	
754	2	action	
755	2	admire	
756	2	adorable	
757	2	adroit	
758	2	affreux	
759	2	aider	
760	2	aidé	
761	2	aimons	
762	2	aimée	
763	2	alarmer	
764	2	alarmé	
765	2	alarmée	
766	2	amante	
767	2	ambitieuse	
768	2	années	
769	2	apaiser	
770	2	appareil	
771	2	apparence	
772	2	apprendre	
773	2	approche	
774	2	aragon	
775	2	ardents	
776	2	arme	
777	2	armez	
778	2	armée	
779	2	arrête	
780	2	aspirer	
781	2	assemblée	
782	2	assurer	
783	2	assuré	
784	2	attaquer	
785	2	attendez	
786	2	atteste	
787	2	augure	
788	2	aura	
789	2	auraient	
790	2	aurez	
791	2	autres	
792	2	avait	
793	2	aventure	
794	2	avertir	
795	2	aveugle	
796	2	aveuglement	
797	2	avons	
798	2	avouez	
799	2	ayant	
800	2	bienheureux	
801	2	bon	
802	2	bord	
803	2	brigue	
804	2	cachait	
805	2	calmé	
806	2	caprice	
807	2	captif	
808	2	cela	
809	2	celles	
810	2	cent	
811	2	certaine	
812	2	cesser	
813	2	cessons	
814	2	chaleur	
815	2	changeant	
816	2	charmant	
817	2	chemin	
818	2	chercher	
819	2	chers	
820	2	comblé	
821	2	commun	
822	2	comparable	
823	2	comprendre	
824	2	concevoir	
825	2	connaissais	
826	2	contraindre	
827	2	coups	
828	2	cours	
829	2	couvert	
830	2	couverts	
831	2	craignez	
832	2	craint	
833	2	cédez	
834	2	davantage	
835	2	demander	
836	2	devenez	
837	2	devenir	
838	2	devenu	
839	2	deviendra	
840	2	dignes	
841	2	disposez	
842	2	disputer	
843	2	dissiper	
844	2	dites	
845	2	don	
846	2	donné	
847	2	double	
848	2	douleurs	
849	2	défaut	
850	2	défends	
851	2	défiant	
852	2	déguisements	
853	2	déguiser	
854	2	délais	
855	2	dépit	
856	2	dérobe	
857	2	dû	
858	2	emprunté	
859	2	empêcher	
860	2	enfance	
861	2	enflammé	
862	2	engager	
863	2	entendez	
864	2	entends	
865	2	entraîne	
866	2	espérant	
867	2	examiner	
868	2	expose	
869	2	faisait	
870	2	faisant	
871	2	famille	
872	2	faudra	
873	2	fausses	
874	2	ferai	
875	2	fiertés	
876	2	flammes	
877	2	flatté	
878	2	força	
879	2	gardait	
880	2	garde	
881	2	grâces	
882	2	hardi	
883	2	hardiment	
884	2	hardis	
885	2	hasardez	
886	2	haute	
887	2	hommage	
888	2	homme	
889	2	hâter	
890	2	héros	
891	2	héréditaire	
892	2	illustres	
893	2	impatience	
894	2	implore	
895	2	important	
896	2	impute	
897	2	incertain	
898	2	indifférent	
899	2	indiscret	
900	2	indocile	
901	2	infortuné	
902	2	ingratitude	
903	2	insolence	
904	2	inspire	
905	2	instant	
906	2	instruite	
907	2	irrité	
908	2	joug	
909	2	juger	
910	2	jusques	
911	2	laissé	
912	2	larme	
913	2	las	
914	2	liberté	
915	2	libre	
916	2	licence	
917	2	longtemps	
918	2	lâche	
919	2	mauvaise	
920	2	maîtresse	
921	2	menace	
922	2	menacé	
923	2	miens	
924	2	mille	
925	2	mis	
926	2	mois	
927	2	monte	
928	2	montre	
929	2	montrez	
930	2	mortelles	
931	2	mot	
932	2	mourant	
933	2	mouvements	
934	2	moyen	
935	2	ménage	
936	2	méritez	
937	2	naissant	
938	2	nature	
939	2	naît	
940	2	obstine	
941	2	obtenir	
942	2	obéir	
943	2	obéissance	
944	2	ombre	
945	2	oser	
946	2	osez	
947	2	outrage	
948	2	pardonnerez	
949	2	parle	
950	2	parti	
951	2	partout	
952	2	paru	
953	2	passer	
954	2	paternel	
955	2	pensez	
956	2	perdrai	
957	2	perds	
958	2	perdu	
959	2	permet	
960	2	permis	
961	2	placer	
962	2	plaignez	
963	2	plaindre	
964	2	plains	
965	2	plaisir	
966	2	plausible	
967	2	plaît	
968	2	pleinement	
969	2	port	
970	2	ports	
971	2	pourrait	
972	2	pourras	
973	2	prend	
974	2	prenez	
975	2	pressant	
976	2	presser	
977	2	pris	
978	2	propres	
979	2	précieux	
980	2	préparé	
981	2	prévenu	
982	2	puisse	
983	2	querelle	
984	2	quitte	
985	2	rabattre	
986	2	rapport	
987	2	recevez	
988	2	reconnais	
989	2	refus	
990	2	refuse	
991	2	regarde	
992	2	regret	
993	2	remords	
994	2	remplit	
995	2	renoncer	
996	2	renversant	
997	2	renverse	
998	2	respects	
999	2	reste	
1000	2	retenue	
1001	2	reviens	
1002	2	revêtu	
1003	2	rougis	
1004	2	régnerez	
1005	2	régnons	
1006	2	saisit	
1007	2	sauraient	
1008	2	saurez	
1009	2	sauvez	
1010	2	secrets	
1011	2	secrète	
1012	2	secrètement	
1013	2	serez	
1014	2	servez	
1015	2	sien	
1016	2	soient	
1017	2	soldats	
1018	2	solennel	
1019	2	songer	
1020	2	songez	
1021	2	sortons	
1022	2	souci	
1023	2	soucis	
1024	2	souhaits	
1025	2	soupir	
1026	2	souvent	
1027	2	souviens	
1028	2	soyez	
1029	2	su	
1030	2	sublime	
1031	2	suffire	
1032	2	suivi	
1033	2	superbe	
1034	2	sut	
1035	2	tandis	
1036	2	tempête	
1037	2	tendres	
1038	2	tes	
1039	2	tort	
1040	2	tour	
1041	2	trahi	
1042	2	traits	
1043	2	triompher	
1044	2	trois	
1045	2	troubler	
1046	2	troublez	
1047	2	troublée	
1048	2	trônes	
1049	2	unir	
1050	2	vaut	
1051	2	venez	
1052	2	vengeur	
1053	2	venir	
1054	2	verrons	
1055	2	vers	
1056	2	victorieux	
1057	2	vieux	
1058	2	ville	
1059	2	vivre	
1060	2	voici	
1061	2	vouloir	
1062	2	voyons	
1063	2	vue	
1064	2	âmes	
1065	2	éblouisse	
1066	2	ébranlé	
1067	2	éclatant	
1068	2	égal	
1069	2	également	
1070	2	élever	
1071	2	éloigne	
1072	2	émeut	
1073	2	états	
1074	2	étonnant	
1075	2	été	
1076	2	évènement	
1077	2	ôtez	
1078	1	abandonner	
1079	1	abandonnez	
1080	1	abat	
1081	1	abattue	
1082	1	abordé	
1083	1	abuse	
1084	1	abusé	
1085	1	accable	
1086	1	accepte	
1087	1	accepter	
1088	1	accord	
1089	1	accoutume	
1090	1	accrochons	
1091	1	achevez	
1092	1	achevons	
1093	1	acquis	
1094	1	acquittez	
1095	1	acquérir	
1096	1	admirer	
1097	1	adorant	
1098	1	adorez	
1099	1	adresser	
1100	1	adroitement	
1101	1	affection	
1102	1	affranchir	
1103	1	afin	
1104	1	agis	
1105	1	agitent	
1106	1	aident	
1107	1	aigrit	
1108	1	aimait	
1109	1	aimant	
1110	1	aimerait	
1111	1	aimiez	
1112	1	aisément	
1113	1	ajoute	
1114	1	alarme	
1115	1	alarmez	
1116	1	allais	
1117	1	allume	
1118	1	allégresse	
1119	1	alors	
1120	1	amis	
1121	1	amours	
1122	1	animait	
1123	1	anime	
1124	1	annoncer	
1125	1	apparent	
1126	1	applaudir	
1127	1	appliquez	
1128	1	apprendrait	
1129	1	appris	
1130	1	approchait	
1131	1	approcher	
1132	1	approchez	
1133	1	appréhende	
1134	1	appuyé	
1135	1	arbitre	
1136	1	ardent	
1137	1	ardente	
1138	1	armement	
1139	1	armer	
1140	1	arrachez	
1141	1	arrachiez	
1142	1	arrachât	
1143	1	arriver	
1144	1	arrêter	
1145	1	aspect	
1146	1	aspirais	
1147	1	aspirent	
1148	1	assemblait	
1149	1	assurant	
1150	1	assure	
1151	1	assurent	
1152	1	astre	
1153	1	attachée	
1154	1	attendaient	
1155	1	attendais	
1156	1	attendu	
1157	1	attentat	
1158	1	attenter	
1159	1	attrait	
1160	1	audacieux	
1161	1	auguste	
1162	1	auparavant	
1163	1	auront	
1164	1	aussitôt	
1165	1	autorise	
1166	1	autorité	
1167	1	autrui	
1168	1	avance	
1169	1	avecque	
1170	1	aventures	
1171	1	avis	
1172	1	avouant	
1173	1	avouerai	
1174	1	ayants	
1175	1	ayez	
1176	1	aînesse	
1177	1	aïeux	
1178	1	bataille	
1179	1	besoin	
1180	1	bizarre	
1181	1	bizarres	
1182	1	blesse	
1183	1	blessé	
1184	1	blâmer	
1185	1	bords	
1186	1	bornaient	
1187	1	borne	
1188	1	brave	
1189	1	brillant	
1190	1	briller	
1191	1	bruit	
1192	1	brûlants	
1193	1	brûlé	
1194	1	but	
1195	1	bénirai	
1196	1	cachais	
1197	1	cacheriez	
1198	1	cachez	
1199	1	calme	
1200	1	calmer	
1201	1	capricieux	
1202	1	ceci	
1203	1	certain	
1204	1	ceux	
1205	1	chacun	
1206	1	chaleurs	
1207	1	champs	
1208	1	chancelante	
1209	1	changer	
1210	1	changé	
1211	1	changée	
1212	1	charge	
1213	1	charmants	
1214	1	charmés	
1215	1	chasse	
1216	1	chef	
1217	1	chefs	
1218	1	cherchais	
1219	1	cherchant	
1220	1	cherchent	
1221	1	choir	
1222	1	choisi	
1223	1	choisisse	
1224	1	chute	
1225	1	chérir	
1226	1	clairement	
1227	1	combats	
1228	1	combattre	
1229	1	combattu	
1230	1	combien	
1231	1	combler	
1232	1	comblez	
1233	1	commander	
1234	1	commence	
1235	1	commencements	
1236	1	commencera	
1237	1	commet	
1238	1	commune	
1239	1	compatir	
1240	1	complaisance	
1241	1	condamne	
1242	1	condamnez	
1243	1	conduisez	
1244	1	conduit	
1245	1	conduite	
1246	1	confident	
1247	1	confond	
1248	1	confondre	
1249	1	conférence	
1250	1	conjugal	
1251	1	connaissait	
1252	1	connaît	
1253	1	connu	
1254	1	connue	
1255	1	conquis	
1256	1	consacre	
1257	1	consentez	
1258	1	consentir	
1259	1	conservée	
1260	1	considérer	
1261	1	considérez	
1262	1	consolera	
1263	1	consulter	
1264	1	consultez	
1265	1	consume	
1266	1	contenter	
1267	1	contents	
1268	1	contenté	
1269	1	contester	
1270	1	contiendra	
1271	1	continue	
1272	1	contraignait	
1273	1	contraigne	
1274	1	contraignit	
1275	1	contraint	
1276	1	contrainte	
1277	1	contretemps	
1278	1	convaincre	
1279	1	conçoit	
1280	1	corps	
1281	1	couleurs	
1282	1	courages	
1283	1	courait	
1284	1	couronnées	
1285	1	court	
1286	1	couvrir	
1287	1	couvrons	
1288	1	coûter	
1289	1	coûté	
1290	1	craignant	
1291	1	cris	
1292	1	croirais	
1293	1	croirait	
1294	1	croyez	
1295	1	crus	
1296	1	cèdera	
1297	1	cédant	
1298	1	daigne	
1299	1	daignent	
1300	1	daignez	
1301	1	degrés	
1302	1	dehors	
1303	1	demandait	
1304	1	demandant	
1305	1	dernières	
1306	1	descendu	
1307	1	desseins	
1308	1	dessous	
1309	1	destins	
1310	1	destinées	
1311	1	devais	
1312	1	devant	
1313	1	devenus	
1314	1	deviez	
1315	1	deviner	
1316	1	devrais	
1317	1	diffère	
1318	1	différents	
1319	1	différez	
1320	1	dirai	
1321	1	discerner	
1322	1	dispense	
1323	1	disposé	
1324	1	dispute	
1325	1	dissimuler	
1326	1	doivent	
1327	1	donnerez	
1328	1	donneront	
1329	1	donnes	
1330	1	donnez	
1331	1	douces	
1332	1	douceur	
1333	1	douceurs	
1334	1	doutant	
1335	1	douteux	
1336	1	douté	
1337	1	droits	
1338	1	durerait	
1339	1	déchargez	
1340	1	découvert	
1341	1	découvre	
1342	1	découvrez	
1343	1	découvrir	
1344	1	décriait	
1345	1	défait	
1346	1	défaite	
1347	1	défendent	
1348	1	défense	
1349	1	dégager	
1350	1	déguisé	
1351	1	déguisée	
1352	1	délai	
1353	1	dément	
1354	1	démentir	
1355	1	dépend	
1356	1	déplaire	
1357	1	déplaisent	
1358	1	déplaisir	
1359	1	déplaît	
1360	1	députent	
1361	1	députés	
1362	1	dés	
1363	1	désavoue	
1364	1	désespère	
1365	1	déteste	
1366	1	détromper	
1367	1	détruit	
1368	1	détrôner	
1369	1	détrôné	
1370	1	eau	
1371	1	eaux	
1372	1	efface	
1373	1	effroi	
1374	1	effroyable	
1375	1	elles	
1376	1	embarrassés	
1377	1	embraser	
1378	1	embrasse	
1379	1	embrasser	
1380	1	embrasses	
1381	1	embrassé	
1382	1	embrasé	
1383	1	embrasée	
1384	1	emploie	
1385	1	emplois	
1386	1	empressa	
1387	1	empresser	
1388	1	emprunter	
1389	1	enfant	
1390	1	enfante	
1391	1	enflammée	
1392	1	engage	
1393	1	engagea	
1394	1	enlevant	
1395	1	entière	
1396	1	entreprise	
1397	1	entrons	
1398	1	envieriez	
1399	1	envoie	
1400	1	envoya	
1401	1	erreurs	
1402	1	esclavage	
1403	1	esclave	
1404	1	esprit	
1405	1	espérais	
1406	1	espérez	
1407	1	essayer	
1408	1	estes	
1409	1	estimer	
1410	1	eurent	
1411	1	eussent	
1412	1	eut	
1413	1	eux	
1414	1	examine	
1415	1	exauce	
1416	1	excite	
1417	1	excuse	
1418	1	excuser	
1419	1	excusez	
1420	1	exerce	
1421	1	exigea	
1422	1	expirant	
1423	1	expliquait	
1424	1	explique	
1425	1	expliquent	
1426	1	exploits	
1427	1	exposer	
1428	1	extrémité	
1429	1	eût	
1430	1	factieux	
1431	1	faiblesses	
1432	1	faisais	
1433	1	faisiez	
1434	1	faite	
1435	1	fameux	
1436	1	fatale	
1437	1	fatigué	
1438	1	faveurs	
1439	1	favori	
1440	1	faîte	
1441	1	feignais	
1442	1	feignant	
1443	1	feignez	
1444	1	feins	
1445	1	femmes	
1446	1	ferait	
1447	1	ferez	
1448	1	ferme	
1449	1	fermeté	
1450	1	feront	
1451	1	fidèle	
1452	1	fidélité	
1453	1	fiez	
1454	1	fini	
1455	1	finir	
1456	1	fière	
1457	1	fièrement	
1458	1	fié	
1459	1	flattant	
1460	1	flattiez	
1461	1	fléchit	
1462	1	fonde	
1463	1	fondements	
1464	1	fondre	
1465	1	forces	
1466	1	forcé	
1467	1	forcés	
1468	1	forte	
1469	1	fortes	
1470	1	forts	
1471	1	fortuné	
1472	1	forêt	
1473	1	franchise	
1474	1	frappé	
1475	1	frayeurs	
1476	1	froid	
1477	1	froideurs	
1478	1	front	
1479	1	frères	
1480	1	fuir	
1481	1	fuis	
1482	1	fuit	
1483	1	fus	
1484	1	fussions	
1485	1	fuyez	
1486	1	fâcheux	
1487	1	galion	
1488	1	genoux	
1489	1	gouverner	
1490	1	grandes	
1491	1	grossier	
1492	1	guerre	
1493	1	guerres	
1494	1	guérir	
1495	1	hait	
1496	1	hasard	
1497	1	hasardeux	
1498	1	hautement	
1499	1	heur	
1500	1	histoires	
1501	1	honneurs	
1502	1	honnête	
1503	1	honoré	
1504	1	honteuse	
1505	1	honteux	
1506	1	humain	
1507	1	hâte	
1508	1	hérissez	
1509	1	héritier	
1510	1	ignorais	
1511	1	ignorant	
1512	1	ignorer	
1513	1	illusions	
1514	1	imbécile	
1515	1	imparfait	
1516	1	impatiente	
1517	1	impitoyable	
1518	1	importe	
1519	1	importune	
1520	1	imposait	
1521	1	imposent	
1522	1	imposez	
1523	1	imposteur	
1524	1	impriment	
1525	1	imprudent	
1526	1	imprévu	
1527	1	impunément	
1528	1	imputez	
1529	1	impétueuse	
1530	1	impétueux	
1531	1	incertains	
1532	1	inconnue	
1533	1	inconstantes	
1534	1	inconstants	
1535	1	indice	
1536	1	indifférence	
1537	1	indignation	
1538	1	indignement	
1539	1	infidèles	
1540	1	informa	
1541	1	infortunée	
1542	1	infâme	
1543	1	ingrates	
1544	1	injurieuse	
1545	1	injurieux	
1546	1	injuste	
1547	1	injustement	
1548	1	innocemment	
1549	1	innocent	
1550	1	innocente	
1551	1	inquiéter	
1552	1	inquiétude	
1553	1	insolent	
1554	1	instinct	
1555	1	instruire	
1556	1	instruisit	
1557	1	instruit	
1558	1	instruits	
1559	1	intelligence	
1560	1	intérêts	
1561	1	inégalité	
1562	1	ira	
1563	1	irritons	
1564	1	jalouse	
1565	1	jalousie	
1566	1	jetait	
1567	1	jettent	
1568	1	jeté	
1569	1	jeu	
1570	1	jeune	
1571	1	jeunes	
1572	1	joint	
1573	1	jointe	
1574	1	joue	
1575	1	jouir	
1576	1	jouissez	
1577	1	journée	
1578	1	joué	
1579	1	juge	
1580	1	jugement	
1581	1	juré	
1582	1	justement	
1583	1	laissait	
1584	1	laissent	
1585	1	laisseriez	
1586	1	laissiez	
1587	1	languir	
1588	1	languis	
1589	1	lenteur	
1590	1	levons	
1591	1	lit	
1592	1	livrer	
1593	1	long	
1594	1	longue	
1595	1	loue	
1596	1	lâches	
1597	1	léonor	
1598	1	magnificence	
1599	1	maison	
1600	1	malaisé	
1601	1	mandé	
1602	1	manque	
1603	1	marque	
1604	1	mars	
1605	1	martyre	
1606	1	mats	
1607	1	mauvais	
1608	1	menacent	
1609	1	menaçait	
1610	1	mer	
1611	1	merveille	
1612	1	merveilleux	
1613	1	mesures	
1614	1	mets	
1615	1	mettra	
1616	1	meure	
1617	1	meurt	
1618	1	miracle	
1619	1	modeste	
1620	1	moitié	
1621	1	monstre	
1622	1	monter	
1623	1	montrant	
1624	1	monté	
1625	1	moque	
1626	1	morte	
1627	1	mortels	
1628	1	motifs	
1629	1	mourants	
1630	1	mouvement	
1631	1	moyens	
1632	1	murmurant	
1633	1	mutin	
1634	1	mâle	
1635	1	mâles	
1636	1	mène	
1637	1	mère	
1638	1	ménager	
1639	1	mépris	
1640	1	méprise	
1641	1	méritait	
1642	1	méritent	
1643	1	mérité	
1644	1	mêlés	
1645	1	mêmes	
1646	1	naissance	
1647	1	naissante	
1648	1	naval	
1649	1	noblesse	
1650	1	noms	
1651	1	nourrit	
1652	1	nouveauté	
1653	1	nouveaux	
1654	1	nouvelles	
1655	1	nuit	
1656	1	nul	
1657	1	néglige	
1658	1	négligence	
1659	1	négliger	
1660	1	obligeait	
1661	1	obligez	
1662	1	obligé	
1663	1	obtenais	
1664	1	obéit	
1665	1	offert	
1666	1	offerte	
1667	1	office	
1668	1	offrait	
1669	1	offrant	
1670	1	onde	
1671	1	opinant	
1672	1	opposer	
1673	1	ordinaire	
1674	1	ordonniez	
1675	1	osais	
1676	1	osant	
1677	1	oses	
1678	1	oubli	
1679	1	oublie	
1680	1	oublier	
1681	1	oubliez	
1682	1	oublions	
1683	1	oublié	
1684	1	ouvre	
1685	1	parce	
1686	1	pardonne	
1687	1	pardonner	
1688	1	pardonnerais	
1689	1	pareils	
1690	1	parfait	
1691	1	parjure	
1692	1	parlé	
1693	1	parole	
1694	1	parts	
1695	1	passeriez	
1696	1	payer	
1697	1	penchant	
1698	1	pensais	
1699	1	penser	
1700	1	perfides	
1701	1	perfidie	
1702	1	permettez	
1703	1	personne	
1704	1	peuples	
1705	1	peux	
1706	1	pis	
1707	1	placé	
1708	1	plaignais	
1709	1	plaint	
1710	1	plaisirs	
1711	1	pleurent	
1712	1	pleurs	
1713	1	plusieurs	
1714	1	poids	
1715	1	politique	
1716	1	pompe	
1717	1	pompeux	
1718	1	porte	
1719	1	portons	
1720	1	possède	
1721	1	pourrai	
1722	1	pourrez	
1723	1	pousse	
1724	1	pousser	
1725	1	poussez	
1726	1	pouvons	
1727	1	prendra	
1728	1	prendrait	
1729	1	prennent	
1730	1	pressante	
1731	1	princesses	
1732	1	prise	
1733	1	priva	
1734	1	privez	
1735	1	prochain	
1736	1	prodige	
1737	1	produire	
1738	1	produit	
1739	1	profiter	
1740	1	profond	
1741	1	profonds	
1742	1	projet	
1743	1	promettre	
1744	1	promise	
1745	1	prompte	
1746	1	propice	
1747	1	protecteur	
1748	1	prudent	
1749	1	précipite	
1750	1	préfèrerait	
1751	1	préférais	
1752	1	préférer	
1753	1	préféré	
1754	1	prépare	
1755	1	présente	
1756	1	présumez	
1757	1	prétendez	
1758	1	prétends	
1759	1	prétendu	
1760	1	prêter	
1761	1	prîtes	
1762	1	pudeur	
1763	1	puissante	
1764	1	puissants	
1765	1	puissions	
1766	1	punis	
1767	1	punissait	
1768	1	punit	
1769	1	pères	
1770	1	péri	
1771	1	périr	
1772	1	périt	
1773	1	qualité	
1774	1	quelles	
1775	1	quelquefois	
1776	1	quiconque	
1777	1	quittant	
1778	1	quitté	
1779	1	quoiqu	
1780	1	rabat	
1781	1	racheter	
1782	1	rallume	
1783	1	ramasser	
1784	1	rare	
1785	1	ravir	
1786	1	ravira	
1787	1	rebelles	
1788	1	recevoir	
1789	1	reconnaissance	
1790	1	reconnu	
1791	1	recouvrez	
1792	1	redonnant	
1793	1	redouble	
1794	1	redoubler	
1795	1	refusant	
1796	1	refuser	
1797	1	refusez	
1798	1	regagner	
1799	1	regard	
1800	1	regardant	
1801	1	regarder	
1802	1	regards	
1803	1	reines	
1804	1	relevé	
1805	1	remerciements	
1806	1	remonter	
1807	1	remède	
1808	1	rende	
1809	1	rendrait	
1810	1	rentre	
1811	1	renversé	
1812	1	reposant	
1813	1	repose	
1814	1	reposez	
1815	1	reprenez	
1816	1	reproche	
1817	1	ressens	
1818	1	ressentait	
1819	1	ressenti	
1820	1	ressentiment	
1821	1	ressentir	
1822	1	ressorts	
1823	1	restes	
1824	1	retardements	
1825	1	retenez	
1826	1	retire	
1827	1	retirer	
1828	1	retrouver	
1829	1	reçu	
1830	1	rit	
1831	1	rougeur	
1832	1	rougi	
1833	1	rougirais	
1834	1	rougit	
1835	1	règlerons	
1836	1	règnent	
1837	1	règnera	
1838	1	règneras	
1839	1	rébellion	
1840	1	récente	
1841	1	récit	
1842	1	réduire	
1843	1	réduit	
1844	1	réglant	
1845	1	régler	
1846	1	régnant	
1847	1	régné	
1848	1	réparer	
1849	1	répondait	
1850	1	répondent	
1851	1	répondra	
1852	1	réponds	
1853	1	répons	
1854	1	réprimez	
1855	1	résistance	
1856	1	résoudrais	
1857	1	résout	
1858	1	rétablissement	
1859	1	réussir	
1860	1	révolté	
1861	1	révoltés	
1862	1	révère	
1863	1	révélé	
1864	1	révérer	
1865	1	sacré	
1866	1	sage	
1867	1	saisie	
1868	1	saisons	
1869	1	satisfaire	
1870	1	satisfait	
1871	1	saura	
1872	1	saurai	
1873	1	sauriez	
1874	1	saurons	
1875	1	sauver	
1876	1	savais	
1877	1	savait	
1878	1	scrupule	
1879	1	scrupules	
1880	1	scrupuleux	
1881	1	seconde	
1882	1	secondent	
1883	1	secondez	
1884	1	sentant	
1885	1	senti	
1886	1	sentir	
1887	1	serai	
1888	1	serais	
1889	1	seriez	
1890	1	serments	
1891	1	serons	
1892	1	sert	
1893	1	servant	
1894	1	serve	
1895	1	servons	
1896	1	seuls	
1897	1	sied	
1898	1	signal	
1899	1	signalé	
1900	1	sincère	
1901	1	soi	
1902	1	sois	
1903	1	soldat	
1904	1	solide	
1905	1	sors	
1906	1	sortais	
1907	1	sortait	
1908	1	sorte	
1909	1	souffert	
1910	1	souffrait	
1911	1	souhait	
1912	1	souhaiter	
1913	1	soulage	
1914	1	soumettre	
1915	1	soupirait	
1916	1	soupirant	
1917	1	soupirer	
1918	1	soupirez	
1919	1	soupçon	
1920	1	soupçonner	
1921	1	soutenais	
1922	1	soutenu	
1923	1	soutiendrait	
1924	1	soutiens	
1925	1	soutient	
1926	1	souvenir	
1927	1	souvient	
1928	1	soyons	
1929	1	suborneur	
1930	1	successeur	
1931	1	succéder	
1932	1	suivie	
1933	1	suivre	
1934	1	sujette	
1935	1	superbes	
1936	1	supposer	
1937	1	surmonte	
1938	1	surmonté	
1939	1	surprend	
1940	1	surprenne	
1941	1	suspens	
1942	1	séparez	
1943	1	sûreté	
1944	1	sûretés	
1945	1	tarder	
1946	1	tardez	
1947	1	tempêtes	
1948	1	tenir	
1949	1	terres	
1950	1	tillac	
1951	1	timides	
1952	1	timidité	
1953	1	timon	
1954	1	tirer	
1955	1	titres	
1956	1	tombeau	
1957	1	tombera	
1958	1	tombé	
1959	1	toucha	
1960	1	touche	
1961	1	touchez	
1962	1	touché	
1963	1	tourment	
1964	1	tourments	
1965	1	trahis	
1966	1	trahisons	
1967	1	trahisse	
1968	1	trait	
1969	1	traitait	
1970	1	traitements	
1971	1	traité	
1972	1	transporté	
1973	1	transportés	
1974	1	triomphes	
1975	1	tristes	
1976	1	tristesse	
1977	1	trompait	
1978	1	trompe	
1979	1	tromper	
1980	1	trompeur	
1981	1	troublent	
1982	1	troubles	
1983	1	trouva	
1984	1	trouvé	
1985	1	trépas	
1986	1	tyrannie	
1987	1	témoigner	
1988	1	témérités	
1989	1	têtes	
1990	1	tôt	
1991	1	unique	
1992	1	user	
1993	1	usera	
1994	1	usurpateur	
1995	1	usurpé	
1996	1	vaillants	
1997	1	vaincrez	
1998	1	vantais	
1999	1	vantez	
2000	1	vantiez	
2001	1	vanté	
2002	1	vaudrait	
2003	1	venais	
2004	1	venait	
2005	1	venge	
2006	1	vengeait	
2007	1	vengeant	
2008	1	vengera	
2009	1	vengez	
2010	1	vengé	
2011	1	venons	
2012	1	venue	
2013	1	verras	
2014	1	verser	
2015	1	versez	
2016	1	vertus	
2017	1	veuille	
2018	1	veulent	
2019	1	victoires	
2020	1	vieille	
2021	1	vieilli	
2022	1	viendra	
2023	1	viendront	
2024	1	viennent	
2025	1	vigueur	
2026	1	vingt	
2027	1	vint	
2028	1	visible	
2029	1	visions	
2030	1	voeoeux	
2031	1	voila	
2032	1	voisin	
2033	1	voisins	
2034	1	vol	
2035	1	volontaire	
2036	1	volé	
2037	1	vont	
2038	1	voudra	
2039	1	voudrait	
2040	1	voudriez	
2041	1	voulais	
2042	1	voulus	
2043	1	voulut	
2044	1	véritable	
2045	1	yoland	
2046	1	éblouit	
2047	1	ébranlerait	
2048	1	ébranlés	
2049	1	échappent	
2050	1	échappera	
2051	1	éclaircis	
2052	1	éclatants	
2053	1	éclate	
2054	1	éclats	
2055	1	écouter	
2056	1	écoutez	
2057	1	écrit	
2058	1	égale	
2059	1	égaler	
2060	1	élance	
2061	1	élevait	
2062	1	élevé	
2063	1	éloignement	
2064	1	éloignez	
2065	1	émeus	
2066	1	épargne	
2067	1	épouvanté	
2068	1	époux	
2069	1	éprouva	
2070	1	établi	
2071	1	établit	
2072	1	étend	
2073	1	éternels	
2074	1	étiez	
2075	1	étonnante	
2076	1	étonnement	
2077	1	étrange	
2078	1	évanouir	
2079	1	évanouit	
2080	1	éveiller	
2081	1	évite	
2082	1	île	
2083	1	ôtait	
2084	1	ôtant	
2085	1	ôtons	
