1,401,de
2,333,et
3,332,vous
4,239,l
5,229,je
6,225,que
7,221,le
8,220,un
9,218,est
10,207,il
11,193,à
12,183,ce
13,167,d
14,163,qu
15,156,en
16,137,la
17,129,ne
18,128,pour
19,99,si
20,96,mon
21,92,on
22,90,qui
23,88,les
24,88,plus
25,86,n
26,84,m
27,82,une
28,80,me
29,80,votre
30,79,son
31,77,j
32,72,amour
33,72,mais
34,72,moi
35,69,cette
36,68,bien
37,66,coeur
38,66,ma
39,64,pas
40,63,roi
41,62,c
42,62,tout
43,59,du
44,58,nous
45,58,seigneur
46,57,des
47,56,a
48,54,dans
49,54,sans
50,50,fait
51,50,peut
52,47,par
53,47,sa
54,46,point
55,46,tous
56,43,lui
57,43,mes
58,43,s
59,43,sur
60,42,moncade
61,39,se
62,38,elle
63,38,peu
64,37,ah
65,37,au
66,37,dieux
67,36,ces
68,36,vos
69,36,être
70,33,ai
71,33,aime
72,30,quoi
73,29,grand
74,28,avec
75,28,même
76,28,voir
77,27,où
78,26,oui
79,26,âme
80,25,cet
81,25,faut
82,25,quel
83,25,sont
84,25,yeux
85,24,jamais
86,24,moins
87,23,comme
88,23,lindamire
89,23,ou
90,23,ses
91,23,tant
92,23,trop
93,23,y
94,22,doit
95,22,donc
96,22,ici
97,22,madame
98,22,quand
99,22,rien
100,21,non
101,21,sort
102,19,jour
103,19,prince
104,18,aux
105,18,ciel
106,18,faveur
107,18,puis
108,18,seul
109,17,ont
110,16,avez
111,16,disgrâce
112,16,dont
113,16,faire
114,16,objet
115,16,toujours
116,15,bonheur
117,15,crime
118,15,extrême
119,15,hé
120,15,ils
121,15,juste
122,15,nos
123,15,sais
124,15,soins
125,15,va
126,15,voit
127,14,amant
128,14,ami
129,14,cour
130,14,courroux
131,14,flamme
132,14,suis
133,13,amis
134,13,autre
135,13,devoir
136,13,effet
137,13,enfin
138,13,esprit
139,13,gloire
140,13,là
141,13,peine
142,13,toute
143,13,êtes
144,12,aujourd
145,12,car
146,12,donner
147,12,fortune
148,12,hui
149,12,moment
150,12,notre
151,12,tel
152,12,vrai
153,12,zèle
154,11,clotaire
155,11,dire
156,11,elvire
157,11,exil
158,11,favori
159,11,feu
160,11,fort
161,11,fut
162,11,malheureux
163,11,monarque
164,11,nom
165,11,part
166,11,quelque
167,11,temps
168,11,veux
169,11,vient
170,11,voyez
171,10,appas
172,10,ardeur
173,10,assez
174,10,beau
175,10,colère
176,10,coupable
177,10,dois
178,10,excès
179,10,grande
180,10,grands
181,10,homme
182,10,hélas
183,10,jusques
184,10,leurs
185,10,pouvoir
186,10,secret
187,10,sens
188,10,éclat
189,10,état
190,10,ô
191,9,après
192,9,aussi
193,9,avoir
194,9,belle
195,9,cela
196,9,chagrin
197,9,chez
198,9,crainte
199,9,estime
200,9,fais
201,9,leur
202,9,lieux
203,9,mieux
204,9,ose
205,9,plaisir
206,9,quelle
207,9,sujet
208,9,tu
209,9,était
210,8,aimer
211,8,bon
212,8,bontés
213,8,coeurs
214,8,don
215,8,donne
216,8,foi
217,8,heure
218,8,jaloux
219,8,juger
220,8,lieu
221,8,paraître
222,8,parfait
223,8,pouvez
224,8,présent
225,8,rendre
226,8,savoir
227,8,serait
228,8,soin
229,8,soit
230,8,souvent
231,8,vie
232,8,vois
233,7,adieu
234,7,aimable
235,7,alvar
236,7,carlos
237,7,cause
238,7,chacun
239,7,cher
240,7,croyez
241,7,depuis
242,7,doute
243,7,doux
244,7,espoir
245,7,feux
246,7,fit
247,7,grâce
248,7,heureux
249,7,majesté
250,7,mal
251,7,monde
252,7,penser
253,7,personne
254,7,plaît
255,7,pourrait
256,7,prix
257,7,rang
258,7,respect
259,7,rois
260,7,sait
261,7,savez
262,7,sincère
263,7,t
264,7,tendresse
265,7,vais
266,7,veut
267,7,viens
268,7,vu
269,6,accable
270,6,ainsi
271,6,allons
272,6,amitié
273,6,apprenez
274,6,autres
275,6,avait
276,6,avis
277,6,biens
278,6,bonté
279,6,ceux
280,6,cours
281,6,croire
282,6,crois
283,6,croit
284,6,dit
285,6,désirs
286,6,ennui
287,6,eût
288,6,faveurs
289,6,haine
290,6,inspire
291,6,jusqu
292,6,léonor
293,6,malgré
294,6,malheur
295,6,maîtresse
296,6,passe
297,6,plutôt
298,6,pu
299,6,puisqu
300,6,seule
301,6,soi
302,6,soupirs
303,6,suit
304,6,suivre
305,6,suprême
306,6,telle
307,6,tendre
308,6,trouve
309,6,venir
310,6,vertu
311,6,voeux
312,6,véritable
313,5,adore
314,5,ait
315,5,attend
316,5,attirer
317,5,attraits
318,5,aurait
319,5,avais
320,5,aveu
321,5,ayant
322,5,bas
323,5,bienfaits
324,5,cent
325,5,cesse
326,5,constance
327,5,contraire
328,5,coup
329,5,couronne
330,5,craindre
331,5,cruel
332,5,desseins
333,5,dessus
334,5,destin
335,5,deux
336,5,discours
337,5,douleur
338,5,délicat
339,5,dû
340,5,effort
341,5,emportement
342,5,faites
343,5,femme
344,5,fois
345,5,froideur
346,5,fureur
347,5,glorieux
348,5,grâces
349,5,haute
350,5,honneur
351,5,importance
352,5,joie
353,5,jugez
354,5,longtemps
355,5,mille
356,5,montrer
357,5,mort
358,5,mépris
359,5,naître
360,5,ni
361,5,obstacle
362,5,osez
363,5,paraît
364,5,pitié
365,5,place
366,5,publique
367,5,quelques
368,5,raison
369,5,sensible
370,5,silence
371,5,sitôt
372,5,soient
373,5,toi
374,5,ton
375,5,touche
376,5,tour
377,5,traite
378,5,triste
379,5,téméraire
380,5,vain
381,5,venez
382,5,voilà
383,5,ôter
384,4,aimais
385,4,aimez
386,4,art
387,4,audace
388,4,auprès
389,4,beaucoup
390,4,bons
391,4,cache
392,4,cacher
393,4,celui
394,4,charmes
395,4,chéri
396,4,commence
397,4,comment
398,4,connais
399,4,connaître
400,4,connu
401,4,coups
402,4,courons
403,4,croyais
404,4,cruelle
405,4,dessein
406,4,devez
407,4,devient
408,4,digne
409,4,droits
410,4,dès
411,4,dégoût
412,4,dût
413,4,efforts
414,4,encor
415,4,ennuis
416,4,entier
417,4,entre
418,4,envie
419,4,exploits
420,4,faible
421,4,faisant
422,4,feindre
423,4,feinte
424,4,fidèle
425,4,flatter
426,4,généreux
427,4,heur
428,4,horreur
429,4,humeur
430,4,illustre
431,4,incessamment
432,4,jours
433,4,loi
434,4,lâcheté
435,4,maître
436,4,mouvement
437,4,murmure
438,4,mémoire
439,4,nul
440,4,orgueil
441,4,parlez
442,4,partager
443,4,passer
444,4,persuade
445,4,plaire
446,4,plaisirs
447,4,premier
448,4,prends
449,4,pressant
450,4,précieux
451,4,puisque
452,4,quels
453,4,regret
454,4,reste
455,4,revers
456,4,sang
457,4,secours
458,4,serais
459,4,sert
460,4,servir
461,4,seulement
462,4,siècle
463,4,soyez
464,4,su
465,4,sujets
466,4,ta
467,4,tiens
468,4,trouver
469,4,témoin
470,4,vaine
471,4,voyage
472,3,abandonne
473,3,affaire
474,3,aima
475,3,aimant
476,3,air
477,3,aisément
478,3,amante
479,3,amants
480,3,amie
481,3,ans
482,3,armes
483,3,arrêtez
484,3,assurance
485,3,autant
486,3,avant
487,3,avoue
488,3,barcelone
489,3,basse
490,3,beauté
491,3,besoin
492,3,billet
493,3,bonne
494,3,bruit
495,3,calomnie
496,3,celle
497,3,certes
498,3,chasse
499,3,chimère
500,3,commune
501,3,comprendre
502,3,connaissant
503,3,connaissez
504,3,contre
505,3,crimes
506,3,davantage
507,3,dernier
508,3,devrait
509,3,dieu
510,3,dites
511,3,donnez
512,3,douter
513,3,départ
514,3,désir
515,3,effets
516,3,effroi
517,3,enflammer
518,3,entendre
519,3,entends
520,3,entendu
521,3,envers
522,3,erreur
523,3,esprits
524,3,espère
525,3,espérer
526,3,eut
527,3,fameux
528,3,faîte
529,3,finesse
530,3,fondement
531,3,font
532,3,foule
533,3,fâcheuse
534,3,garder
535,3,genoux
536,3,gens
537,3,goûte
538,3,généreuse
539,3,générosité
540,3,ha
541,3,hais
542,3,haïr
543,3,ignorais
544,3,impatience
545,3,importe
546,3,importune
547,3,incomparable
548,3,intelligence
549,3,justice
550,3,laissait
551,3,laisse
552,3,laissez
553,3,liberté
554,3,loin
555,3,lois
556,3,main
557,3,maison
558,3,malheurs
559,3,marque
560,3,matin
561,3,met
562,3,misérable
563,3,modérez
564,3,moindre
565,3,mot
566,3,ménager
567,3,mérite
568,3,mériter
569,3,nature
570,3,nier
571,3,nouvelle
572,3,ombre
573,3,ordinaire
574,3,ordonne
575,3,ordonner
576,3,pardonnez
577,3,pareil
578,3,parle
579,3,parler
580,3,parmi
581,3,partout
582,3,perdez
583,3,perdre
584,3,perfidie
585,3,perte
586,3,peur
587,3,pleinement
588,3,politique
589,3,porte
590,3,pourra
591,3,pouvais
592,3,prendre
593,3,prenez
594,3,presque
595,3,produit
596,3,propre
597,3,prétexte
598,3,quelquefois
599,3,rage
600,3,rapport
601,3,rencontre
602,3,rend
603,3,repos
604,3,retirer
605,3,rivale
606,3,rude
607,3,régler
608,3,répondre
609,3,rêveur
610,3,secrets
611,3,semble
612,3,seuls
613,3,solitaire
614,3,sortir
615,3,soupçon
616,3,suffit
617,3,superflus
618,3,te
619,3,tels
620,3,tes
621,3,tombe
622,3,toutes
623,3,trahir
624,3,traître
625,3,trépas
626,3,témoigne
627,3,unique
628,3,univers
629,3,vaste
630,3,vertus
631,3,violence
632,3,voici
633,3,vôtre
634,3,âmes
635,3,échappe
636,3,éclater
637,3,étant
638,3,étiez
639,3,étonne
640,3,été
641,3,éviter
642,2,accablé
643,2,accuser
644,2,achever
645,2,acquérir
646,2,admirable
647,2,agir
648,2,aimé
649,2,aller
650,2,allez
651,2,allégresse
652,2,alors
653,2,amener
654,2,amoureux
655,2,aperçoit
656,2,apparence
657,2,appelle
658,2,apprendre
659,2,appris
660,2,approcher
661,2,appui
662,2,assiette
663,2,assurer
664,2,attendez
665,2,attends
666,2,atteste
667,2,aucun
668,2,auguste
669,2,aurons
670,2,autorité
671,2,autrui
672,2,avenir
673,2,aventure
674,2,avons
675,2,avouer
676,2,avouerai
677,2,bassesse
678,2,bienfait
679,2,bienséance
680,2,bienveillance
681,2,bois
682,2,bouche
683,2,bouillant
684,2,bras
685,2,but
686,2,cachez
687,2,calme
688,2,campagne
689,2,caprice
690,2,certaine
691,2,chaleur
692,2,chambre
693,2,chaque
694,2,charmant
695,2,charme
696,2,charmer
697,2,cherche
698,2,choix
699,2,chose
700,2,ci
701,2,comble
702,2,comblé
703,2,confondre
704,2,conquête
705,2,conseils
706,2,consentir
707,2,consoler
708,2,constante
709,2,couple
710,2,courage
711,2,courtisan
712,2,crains
713,2,criminel
714,2,criminelle
715,2,croirais
716,2,cruauté
717,2,crédit
718,2,curieux
719,2,cède
720,2,demande
721,2,demandez
722,2,diadème
723,2,différent
724,2,diligence
725,2,dis
726,2,discerne
727,2,dissipe
728,2,divers
729,2,dix
730,2,dom
731,2,dona
732,2,droit
733,2,durer
734,2,déclare
735,2,défendre
736,2,déguisements
737,2,déjà
738,2,délicatesse
739,2,dépit
740,2,déplaire
741,2,déserts
742,2,désespoir
743,2,désormais
744,2,détruit
745,2,efficace
746,2,embrasé
747,2,empire
748,2,emporter
749,2,empressement
750,2,empressements
751,2,encore
752,2,enflammé
753,2,enlevez
754,2,entière
755,2,entretien
756,2,envi
757,2,esclave
758,2,espérance
759,2,eux
760,2,exemple
761,2,exprès
762,2,faibles
763,2,faiblesse
764,2,faisons
765,2,faits
766,2,fasse
767,2,faudrait
768,2,faux
769,2,favorable
770,2,ferai
771,2,fertiles
772,2,ferveur
773,2,fidélité
774,2,finir
775,2,fière
776,2,flatteurs
777,2,folle
778,2,fontaines
779,2,force
780,2,forfait
781,2,forte
782,2,fruit
783,2,fruits
784,2,funeste
785,2,fuyez
786,2,félicité
787,2,galant
788,2,garantir
789,2,goûter
790,2,grandeurs
791,2,hommes
792,2,honte
793,2,honteux
794,2,hors
795,2,hymen
796,2,héros
797,2,ignorez
798,2,image
799,2,important
800,2,impénétrable
801,2,incommode
802,2,inconstance
803,2,indifférence
804,2,indiscret
805,2,injurieux
806,2,injuste
807,2,innocence
808,2,innocent
809,2,inquiétude
810,2,instant
811,2,insupportable
812,2,interdit
813,2,intérêt
814,2,inutile
815,2,irrité
816,2,jeu
817,2,jeune
818,2,jure
819,2,justes
820,2,laissant
821,2,larmes
822,2,levez
823,2,lit
824,2,long
825,2,lope
826,2,lors
827,2,lorsque
828,2,lâche
829,2,magnanime
830,2,martyre
831,2,maux
832,2,maximes
833,2,meilleurs
834,2,mettre
835,2,meurs
836,2,moindres
837,2,moments
838,2,mouvements
839,2,murmurer
840,2,mystère
841,2,mystères
842,2,mélancolie
843,2,mérité
844,2,méthode
845,2,naissance
846,2,noble
847,2,noire
848,2,nouveau
849,2,nécessaire
850,2,oblige
851,2,obtenir
852,2,obéir
853,2,offense
854,2,offenser
855,2,offre
856,2,oiseaux
857,2,oisif
858,2,ordre
859,2,ordres
860,2,oser
861,2,oserai
862,2,oserait
863,2,oublié
864,2,ouvrage
865,2,page
866,2,parce
867,2,partageons
868,2,paru
869,2,parut
870,2,passion
871,2,pense
872,2,pensez
873,2,pensé
874,2,perd
875,2,perdu
876,2,perdus
877,2,pieds
878,2,plaindre
879,2,plainte
880,2,plein
881,2,poids
882,2,porter
883,2,portez
884,2,portrait
885,2,poulet
886,2,poursuivez
887,2,pratique
888,2,prive
889,2,prière
890,2,projet
891,2,projets
892,2,propos
893,2,proprement
894,2,province
895,2,prude
896,2,prudence
897,2,près
898,2,prépare
899,2,présence
900,2,présents
901,2,puissance
902,2,puissant
903,2,pur
904,2,pure
905,2,pénètre
906,2,qualité
907,2,quant
908,2,quelqu
909,2,quitter
910,2,rare
911,2,rarement
912,2,recevez
913,2,regards
914,2,remplir
915,2,remède
916,2,rends
917,2,renferme
918,2,rire
919,2,rival
920,2,répugnance
921,2,résoudre
922,2,rêver
923,2,sachant
924,2,sachez
925,2,satisfait
926,2,saurait
927,2,secrètes
928,2,selon
929,2,semblable
930,2,semblait
931,2,semblent
932,2,sent
933,2,sentiment
934,2,servi
935,2,sexe
936,2,soleil
937,2,solitude
938,2,sommes
939,2,soucis
940,2,souffrez
941,2,souffrir
942,2,souhaits
943,2,soupçons
944,2,sous
945,2,suivez
946,2,supplice
947,2,surpris
948,2,suspect
949,2,séduire
950,2,séduit
951,2,taire
952,2,tantôt
953,2,tend
954,2,tort
955,2,tourments
956,2,toutefois
957,2,trahison
958,2,trahit
959,2,traiter
960,2,transport
961,2,transports
962,2,trompeur
963,2,très
964,2,tumultueux
965,2,témoins
966,2,tôt
967,2,vaincre
968,2,vaines
969,2,vante
970,2,veiller
971,2,vent
972,2,victoire
973,2,visage
974,2,vive
975,2,voix
976,2,voudra
977,2,voudrais
978,2,vouloir
979,2,véhément
980,2,zéphyrs
981,2,éclatez
982,2,écoutez
983,2,égal
984,2,égale
985,2,également
986,2,égard
987,2,épargnez
988,2,éprouve
989,2,équitable
990,2,étale
991,2,étalez
992,2,ôte
993,2,ôtons
994,1,abaisse
995,1,abandonner
996,1,abandonnons
997,1,abhorré
998,1,abondance
999,1,abord
1000,1,absent
1001,1,absolu
1002,1,accabler
1003,1,accablerait
1004,1,accepter
1005,1,accompagner
1006,1,accompagnera
1007,1,accord
1008,1,accorder
1009,1,accordera
1010,1,accusez
1011,1,accusé
1012,1,achetait
1013,1,achevez
1014,1,achèterais
1015,1,achève
1016,1,acier
1017,1,adorant
1018,1,adroit
1019,1,adroitement
1020,1,adroits
1021,1,adversité
1022,1,affaires
1023,1,affectés
1024,1,agréable
1025,1,aigri
1026,1,aigriraient
1027,1,aigrissez
1028,1,aigrit
1029,1,aimai
1030,1,aimerait
1031,1,aimiez
1032,1,aimée
1033,1,airs
1034,1,aise
1035,1,aisé
1036,1,ajouter
1037,1,allait
1038,1,allumé
1039,1,amand
1040,1,ambitieux
1041,1,ambition
1042,1,amoureuse
1043,1,amé
1044,1,anciens
1045,1,animaux
1046,1,anime
1047,1,annoncer
1048,1,année
1049,1,antre
1050,1,antres
1051,1,apercevez
1052,1,apercevoir
1053,1,aperçois
1054,1,appareil
1055,1,apparent
1056,1,appartement
1057,1,apporte
1058,1,apporter
1059,1,apprendra
1060,1,apprennent
1061,1,approche
1062,1,approchez
1063,1,appréhendais
1064,1,appréhender
1065,1,armez
1066,1,arracher
1067,1,arrêt
1068,1,arrêter
1069,1,arrêté
1070,1,as
1071,1,asile
1072,1,assembla
1073,1,assemble
1074,1,asservi
1075,1,asservir
1076,1,assiduité
1077,1,assujettit
1078,1,assurez
1079,1,assurée
1080,1,attache
1081,1,attachent
1082,1,atteindre
1083,1,atteint
1084,1,atteinte
1085,1,attendais
1086,1,attendrai
1087,1,attentat
1088,1,attenté
1089,1,attira
1090,1,attire
1091,1,attiré
1092,1,aucune
1093,1,augmente
1094,1,aura
1095,1,aurai
1096,1,auraient
1097,1,aurais
1098,1,aurez
1099,1,aurore
1100,1,austère
1101,1,autorise
1102,1,autour
1103,1,autrefois
1104,1,autrement
1105,1,avance
1106,1,avancer
1107,1,avare
1108,1,avecque
1109,1,avertir
1110,1,aveugle
1111,1,aveuglément
1112,1,avise
1113,1,aye
1114,1,ayez
1115,1,balance
1116,1,balancer
1117,1,banni
1118,1,bannir
1119,1,bannissement
1120,1,bannissez
1121,1,barbare
1122,1,beautés
1123,1,beaux
1124,1,belles
1125,1,bienheureux
1126,1,bientôt
1127,1,bizarre
1128,1,blessent
1129,1,blesser
1130,1,blessez
1131,1,blessures
1132,1,blessée
1133,1,blâmable
1134,1,blâmer
1135,1,borne
1136,1,bouquet
1137,1,bracelet
1138,1,brillants
1139,1,cabinet
1140,1,cachait
1141,1,caché
1142,1,cachée
1143,1,calmer
1144,1,caméléon
1145,1,canal
1146,1,candeur
1147,1,capable
1148,1,caprices
1149,1,caresses
1150,1,causerait
1151,1,caution
1152,1,ceci
1153,1,celer
1154,1,cents
1155,1,cependant
1156,1,certain
1157,1,certains
1158,1,cessait
1159,1,cesser
1160,1,chagrine
1161,1,chagrins
1162,1,champ
1163,1,champs
1164,1,champêtre
1165,1,chanceler
1166,1,changement
1167,1,changements
1168,1,changent
1169,1,changer
1170,1,changez
1171,1,chant
1172,1,charmante
1173,1,charmé
1174,1,chassent
1175,1,chaud
1176,1,chaînes
1177,1,chercher
1178,1,cherchons
1179,1,chimères
1180,1,chimérique
1181,1,choquer
1182,1,chutes
1183,1,chère
1184,1,chèrement
1185,1,chéris
1186,1,chérit
1187,1,cieux
1188,1,cinquantième
1189,1,clair
1190,1,combat
1191,1,combattu
1192,1,combien
1193,1,comblant
1194,1,comblerait
1195,1,commander
1196,1,commandez
1197,1,commettre
1198,1,commode
1199,1,communes
1200,1,compassion
1201,1,compte
1202,1,concert
1203,1,concevoir
1204,1,concurrent
1205,1,condamnant
1206,1,condamnez
1207,1,conduire
1208,1,conduisez
1209,1,conduit
1210,1,confesse
1211,1,confident
1212,1,confond
1213,1,confondait
1214,1,confondant
1215,1,confus
1216,1,confusion
1217,1,connait
1218,1,connaît
1219,1,connue
1220,1,connus
1221,1,conquérant
1222,1,conseillers
1223,1,consens
1224,1,consentement
1225,1,conserve
1226,1,conservé
1227,1,considère
1228,1,considérable
1229,1,constant
1230,1,consulter
1231,1,conte
1232,1,contemple
1233,1,contente
1234,1,contentement
1235,1,continue
1236,1,contraindre
1237,1,contrainte
1238,1,convaincu
1239,1,conviens
1240,1,conçoit
1241,1,coquette
1242,1,coquettes
1243,1,coteaux
1244,1,couronnes
1245,1,court
1246,1,courtisans
1247,1,craignais
1248,1,craindrais
1249,1,craint
1250,1,creuser
1251,1,croirai
1252,1,croyable
1253,1,cru
1254,1,crût
1255,1,cuisants
1256,1,cuit
1257,1,cèle
1258,1,céder
1259,1,daignez
1260,1,danger
1261,1,dangereuse
1262,1,dangereux
1263,1,darde
1264,1,degré
1265,1,demain
1266,1,demander
1267,1,demi
1268,1,dernière
1269,1,destins
1270,1,destinée
1271,1,deuil
1272,1,devancés
1273,1,devenez
1274,1,devenir
1275,1,devenu
1276,1,deviens
1277,1,devise
1278,1,devoirs
1279,1,devrais
1280,1,die
1281,1,difficile
1282,1,diligent
1283,1,dira
1284,1,disais
1285,1,discernement
1286,1,discerner
1287,1,discret
1288,1,discrets
1289,1,disgracié
1290,1,dispense
1291,1,dispenser
1292,1,dispensez
1293,1,dispose
1294,1,dispute
1295,1,dissimuler
1296,1,distinguez
1297,1,diversité
1298,1,divertir
1299,1,doivent
1300,1,donnons
1301,1,dore
1302,1,double
1303,1,douces
1304,1,douceur
1305,1,doutais
1306,1,doutez
1307,1,dur
1308,1,durable
1309,1,dusse
1310,1,dussé
1311,1,déchirent
1312,1,déclarer
1313,1,découvre
1314,1,découvrir
1315,1,dédaigne
1316,1,défaut
1317,1,défendu
1318,1,défendus
1319,1,défense
1320,1,défie
1321,1,défier
1322,1,défiez
1323,1,déguiser
1324,1,déguisez
1325,1,délasser
1326,1,délicats
1327,1,démenti
1328,1,démentir
1329,1,dépeint
1330,1,dépeints
1331,1,dépend
1332,1,dépendraient
1333,1,déplaisirs
1334,1,déplût
1335,1,dépossédé
1336,1,dérobe
1337,1,dérober
1338,1,désobliger
1339,1,détestable
1340,1,dévore
1341,1,eaux
1342,1,effacer
1343,1,effacez
1344,1,efforcer
1345,1,efforçais
1346,1,effroyable
1347,1,embarras
1348,1,embellit
1349,1,embrase
1350,1,embrassements
1351,1,embrasserait
1352,1,emploi
1353,1,empressé
1354,1,encens
1355,1,enchante
1356,1,enchantements
1357,1,endort
1358,1,endroit
1359,1,endroits
1360,1,enfant
1361,1,enflamme
1362,1,enflammée
1363,1,engage
1364,1,enjouée
1365,1,enlèvent
1366,1,ennemie
1367,1,ennuie
1368,1,enquérir
1369,1,entendez
1370,1,entraîne
1371,1,entretenir
1372,1,entretiens
1373,1,envieux
1374,1,environne
1375,1,envisageant
1376,1,envisager
1377,1,envisagez
1378,1,envoyait
1379,1,erreurs
1380,1,espèce
1381,1,espérais
1382,1,essayons
1383,1,estimable
1384,1,estimer
1385,1,eu
1386,1,eussiez
1387,1,exactitude
1388,1,examen
1389,1,exauce
1390,1,exemplaires
1391,1,exercer
1392,1,exigez
1393,1,exiler
1394,1,exilé
1395,1,exposé
1396,1,exprimé
1397,1,expérience
1398,1,extravagance
1399,1,extrémité
1400,1,exécute
1401,1,factions
1402,1,faisait
1403,1,faisiez
1404,1,fardeau
1405,1,farouches
1406,1,faste
1407,1,fatale
1408,1,fatiguer
1409,1,fausse
1410,1,favorablement
1411,1,favoris
1412,1,favoriser
1413,1,façon
1414,1,faîtes
1415,1,feignait
1416,1,feignant
1417,1,feins
1418,1,feint
1419,1,femmes
1420,1,ferme
1421,1,feront
1422,1,fi
1423,1,fierté
1424,1,fiez
1425,1,filles
1426,1,finement
1427,1,flammes
1428,1,flanc
1429,1,flatteuse
1430,1,fleur
1431,1,fleurs
1432,1,flèches
1433,1,folâtres
1434,1,fondé
1435,1,former
1436,1,formez
1437,1,formé
1438,1,formés
1439,1,fortement
1440,1,fragile
1441,1,franchise
1442,1,frappe
1443,1,fraîcheur
1444,1,frivole
1445,1,frivoles
1446,1,front
1447,1,frémissais
1448,1,fréquentes
1449,1,fugitif
1450,1,fuir
1451,1,fuit
1452,1,fuite
1453,1,futur
1454,1,fuyant
1455,1,fâcheux
1456,1,fête
1457,1,fêtes
1458,1,fût
1459,1,gagnait
1460,1,gagner
1461,1,galerie
1462,1,garde
1463,1,gardez
1464,1,gazon
1465,1,glissant
1466,1,glisse
1467,1,goûtera
1468,1,grandeur
1469,1,graveront
1470,1,grondez
1471,1,grotte
1472,1,guerre
1473,1,guéri
1474,1,génie
1475,1,général
1476,1,gêne
1477,1,gît
1478,1,habillée
1479,1,habitants
1480,1,hait
1481,1,haleines
1482,1,hasard
1483,1,haï
1484,1,haïs
1485,1,heureuse
1486,1,homie
1487,1,hommage
1488,1,honneurs
1489,1,honnête
1490,1,honore
1491,1,horrible
1492,1,humaines
1493,1,humeurs
1494,1,héroïque
1495,1,idole
1496,1,ignore
1497,1,ignoré
1498,1,illusion
1499,1,illustres
1500,1,imaginaire
1501,1,imiter
1502,1,immolés
1503,1,imparfaite
1504,1,implacable
1505,1,implorer
1506,1,importants
1507,1,importerait
1508,1,importuner
1509,1,importunez
1510,1,impute
1511,1,impétueux
1512,1,incroyable
1513,1,indigne
1514,1,indignes
1515,1,infecté
1516,1,infinie
1517,1,informer
1518,1,infortuné
1519,1,infortunée
1520,1,ingrat
1521,1,injure
1522,1,innocents
1523,1,inquiète
1524,1,insatiable
1525,1,insensibles
1526,1,inspirât
1527,1,instabilité
1528,1,instruit
1529,1,insulter
1530,1,intentions
1531,1,interdits
1532,1,interprètes
1533,1,intrigue
1534,1,intrépide
1535,1,intéresse
1536,1,inventé
1537,1,inévitable
1538,1,irai
1539,1,irrévocable
1540,1,jardins
1541,1,jette
1542,1,jeunesse
1543,1,jeux
1544,1,joindre
1545,1,jouir
1546,1,jouissez
1547,1,jouissons
1548,1,juge
1549,1,jugeait
1550,1,jugeant
1551,1,jugerez
1552,1,juré
1553,1,jurée
1554,1,justement
1555,1,justifier
1556,1,laissaient
1557,1,laisser
1558,1,laissons
1559,1,laissât
1560,1,languissante
1561,1,largesses
1562,1,las
1563,1,lassé
1564,1,lever
1565,1,levé
1566,1,leçon
1567,1,libre
1568,1,librement
1569,1,licence
1570,1,lie
1571,1,limites
1572,1,lis
1573,1,livre
1574,1,loge
1575,1,loisir
1576,1,longueur
1577,1,longueurs
1578,1,lorsqu
1579,1,loue
1580,1,louée
1581,1,lu
1582,1,lâchement
1583,1,lâchetés
1584,1,légitime
1585,1,légère
1586,1,magnanimes
1587,1,mains
1588,1,maisons
1589,1,maitresse
1590,1,maladie
1591,1,malaisément
1592,1,malheureuse
1593,1,mangé
1594,1,manie
1595,1,manifeste
1596,1,manière
1597,1,manquait
1598,1,manquer
1599,1,marbres
1600,1,marques
1601,1,masque
1602,1,masques
1603,1,matineuse
1604,1,matins
1605,1,maxime
1606,1,menace
1607,1,mens
1608,1,mentir
1609,1,merveilleux
1610,1,mets
1611,1,mettant
1612,1,mettez
1613,1,mettra
1614,1,meure
1615,1,meurt
1616,1,mien
1617,1,miens
1618,1,migraine
1619,1,miracle
1620,1,mis
1621,1,misère
1622,1,misères
1623,1,mode
1624,1,modérer
1625,1,moissonnent
1626,1,moitié
1627,1,montrant
1628,1,montre
1629,1,montrez
1630,1,moquez
1631,1,moralité
1632,1,mortelle
1633,1,mortelles
1634,1,mouchoir
1635,1,mourir
1636,1,moyen
1637,1,multitude
1638,1,murmuraient
1639,1,murmurons
1640,1,mécontent
1641,1,médecin
1642,1,méfiance
1643,1,mélancolique
1644,1,mémorable
1645,1,ménageons
1646,1,méritais
1647,1,mêlant
1648,1,mêle
1649,1,mêler
1650,1,mêmes
1651,1,naturel
1652,1,naît
1653,1,noeuds
1654,1,noir
1655,1,nombre
1656,1,nombreuse
1657,1,nommez
1658,1,noms
1659,1,nourrir
1660,1,nouveaux
1661,1,nouvel
1662,1,nuire
1663,1,nuit
1664,1,nulle
1665,1,née
1666,1,objets
1667,1,obligeant
1668,1,obligeante
1669,1,obliger
1670,1,obligera
1671,1,obligez
1672,1,observais
1673,1,observez
1674,1,obstinant
1675,1,obsèdent
1676,1,obtenu
1677,1,obéirai
1678,1,obéissance
1679,1,occasion
1680,1,occupaient
1681,1,occupe
1682,1,occupé
1683,1,occupés
1684,1,odieux
1685,1,oeillade
1686,1,officieux
1687,1,offrant
1688,1,offrir
1689,1,oisifs
1690,1,oisiveté
1691,1,ombrage
1692,1,opposait
1693,1,oppose
1694,1,or
1695,1,orage
1696,1,ordinaires
1697,1,ordonnance
1698,1,ordonnez
1699,1,osais
1700,1,oubli
1701,1,ouvre
1702,1,ouvrez
1703,1,ouvrir
1704,1,ouïr
1705,1,pareille
1706,1,parer
1707,1,parfaite
1708,1,parfumant
1709,1,parfums
1710,1,parlent
1711,1,parole
1712,1,partage
1713,1,partageait
1714,1,partagera
1715,1,partaient
1716,1,partent
1717,1,partez
1718,1,parti
1719,1,parvient
1720,1,passant
1721,1,passé
1722,1,patente
1723,1,payer
1724,1,pays
1725,1,peines
1726,1,penchant
1727,1,pendant
1728,1,pensée
1729,1,percerais
1730,1,percé
1731,1,permet
1732,1,permettez
1733,1,permis
1734,1,permise
1735,1,pernicieux
1736,1,personnes
1737,1,peuvent
1738,1,pique
1739,1,pièges
1740,1,plaines
1741,1,plains
1742,1,plaintes
1743,1,plairait
1744,1,plaisons
1745,1,pleurer
1746,1,pleurerez
1747,1,pleurs
1748,1,plût
1749,1,poignarde
1750,1,pompe
1751,1,port
1752,1,portant
1753,1,porté
1754,1,possible
1755,1,possède
1756,1,possédé
1757,1,posture
1758,1,pourquoi
1759,1,pourrai
1760,1,pourrais
1761,1,pourrons
1762,1,pourront
1763,1,pourtant
1764,1,pourvoit
1765,1,pourvu
1766,1,pousser
1767,1,pouvant
1768,1,pouviez
1769,1,pratiques
1770,1,prend
1771,1,prenons
1772,1,pressantes
1773,1,pressants
1774,1,presse
1775,1,preuves
1776,1,princes
1777,1,printemps
1778,1,pris
1779,1,prison
1780,1,priver
1781,1,probité
1782,1,prochain
1783,1,proche
1784,1,procédé
1785,1,profane
1786,1,profite
1787,1,profond
1788,1,profonde
1789,1,profonds
1790,1,prolonger
1791,1,promenade
1792,1,prompt
1793,1,promptement
1794,1,prompts
1795,1,promène
1796,1,propice
1797,1,protecteur
1798,1,prouvaient
1799,1,prouvent
1800,1,prud
1801,1,prudent
1802,1,prudente
1803,1,précepte
1804,1,précipice
1805,1,prédis
1806,1,prédit
1807,1,préparer
1808,1,préservent
1809,1,présumant
1810,1,présumer
1811,1,prétends
1812,1,prétentions
1813,1,prévois
1814,1,prévoit
1815,1,prêcher
1816,1,publics
1817,1,publiques
1818,1,pudeur
1819,1,puissent
1820,1,puissé
1821,1,pusse
1822,1,pâmer
1823,1,pâtiront
1824,1,père
1825,1,pères
1826,1,pénétrants
1827,1,péril
1828,1,raffermir
1829,1,railler
1830,1,raisonnable
1831,1,raisonnement
1832,1,raisonnons
1833,1,rapide
1834,1,ravis
1835,1,ravissement
1836,1,rebutez
1837,1,recevable
1838,1,recevais
1839,1,recevait
1840,1,reconnaissance
1841,1,recours
1842,1,reculer
1843,1,redouter
1844,1,refroidit
1845,1,refuges
1846,1,refusez
1847,1,regard
1848,1,regarde
1849,1,regarder
1850,1,regarderiez
1851,1,remis
1852,1,remords
1853,1,remplissent
1854,1,rendait
1855,1,rende
1856,1,rendez
1857,1,rendra
1858,1,rendu
1859,1,renfermé
1860,1,repais
1861,1,repose
1862,1,repousser
1863,1,respire
1864,1,ressemble
1865,1,ressemblent
1866,1,ressent
1867,1,retenir
1868,1,retenu
1869,1,retire
1870,1,retirons
1871,1,retirés
1872,1,revenu
1873,1,reverdir
1874,1,reçu
1875,1,reçut
1876,1,rigueur
1877,1,rigueurs
1878,1,rira
1879,1,rirai
1880,1,ris
1881,1,rocher
1882,1,rompe
1883,1,roue
1884,1,rougir
1885,1,rougit
1886,1,route
1887,1,royaume
1888,1,ruse
1889,1,ruses
1890,1,règle
1891,1,règne
1892,1,récompense
1893,1,réduisez
1894,1,répandre
1895,1,réparer
1896,1,répondez
1897,1,résistez
1898,1,résolvez
1899,1,résoudrez
1900,1,rétabli
1901,1,réveil
1902,1,révolté
1903,1,rêverie
1904,1,sacrifice
1905,1,sacrifie
1906,1,sacré
1907,1,sacrés
1908,1,sage
1909,1,sagesse
1910,1,saisi
1911,1,salaire
1912,1,satisfaire
1913,1,satisfasse
1914,1,saurai
1915,1,sauraient
1916,1,saurais
1917,1,sauvons
1918,1,savais
1919,1,savons
1920,1,sceptre
1921,1,seconde
1922,1,secourus
1923,1,secrète
1924,1,semblables
1925,1,sensiblement
1926,1,sente
1927,1,senti
1928,1,sentiments
1929,1,sentir
1930,1,sera
1931,1,seras
1932,1,seriez
1933,1,serments
1934,1,serons
1935,1,seront
1936,1,service
1937,1,serviront
1938,1,siens
1939,1,sincérité
1940,1,singulier
1941,1,singulière
1942,1,soir
1943,1,sois
1944,1,solide
1945,1,sombre
1946,1,songe
1947,1,songent
1948,1,songer
1949,1,songez
1950,1,sors
1951,1,sorte
1952,1,sortez
1953,1,sorti
1954,1,souci
1955,1,souciez
1956,1,souffle
1957,1,souffrance
1958,1,souffre
1959,1,souhaitait
1960,1,souhaite
1961,1,souhaiter
1962,1,souhaitez
1963,1,soulager
1964,1,soumet
1965,1,soumets
1966,1,soumis
1967,1,soumission
1968,1,soupir
1969,1,soupirez
1970,1,soupiré
1971,1,soupçonne
1972,1,soupçonner
1973,1,soupçonnera
1974,1,soupçonnez
1975,1,source
1976,1,sourdement
1977,1,soutenez
1978,1,soutiens
1979,1,soutient
1980,1,souvenir
1981,1,souverain
1982,1,souveraine
1983,1,souverains
1984,1,souviens
1985,1,splendeur
1986,1,structure
1987,1,style
1988,1,sublimes
1989,1,succombe
1990,1,succès
1991,1,suffise
1992,1,suites
1993,1,suivaient
1994,1,suivons
1995,1,suivrai
1996,1,superbes
1997,1,supplier
1998,1,supposez
1999,1,supposé
2000,1,surmontant
2001,1,surmonte
2002,1,surmontée
2003,1,surprenant
2004,1,surprendre
2005,1,surtout
2006,1,susceptibles
2007,1,suspects
2008,1,sécher
2009,1,séjour
2010,1,séparer
2011,1,séparé
2012,1,sérieux
2013,1,sévérité
2014,1,tableau
2015,1,taisez
2016,1,talent
2017,1,tard
2018,1,telles
2019,1,tenant
2020,1,tendres
2021,1,tenir
2022,1,tenu
2023,1,ternis
2024,1,terrasse
2025,1,terre
2026,1,terreur
2027,1,terrible
2028,1,tiennent
2029,1,tient
2030,1,timide
2031,1,tira
2032,1,tirer
2033,1,titre
2034,1,torrent
2035,1,touchante
2036,1,toucher
2037,1,traine
2038,1,trait
2039,1,traitez
2040,1,traits
2041,1,traité
2042,1,tranché
2043,1,tranquille
2044,1,tranquillité
2045,1,transporte
2046,1,travailler
2047,1,tremble
2048,1,tremblent
2049,1,tribut
2050,1,triomphe
2051,1,trois
2052,1,tromper
2053,1,trouble
2054,1,troublez
2055,1,troublée
2056,1,trouvent
2057,1,trouvera
2058,1,trouverons
2059,1,trouvez
2060,1,trésors
2061,1,tyrannisé
2062,1,tâcher
2063,1,tâchez
2064,1,unes
2065,1,usage
2066,1,usurper
2067,1,utile
2068,1,vacante
2069,1,vaincu
2070,1,vainement
2071,1,vains
2072,1,vapeur
2073,1,vaut
2074,1,venant
2075,1,vengeance
2076,1,venu
2077,1,verdure
2078,1,verrez
2079,1,vers
2080,1,versant
2081,1,verse
2082,1,vertueux
2083,1,veuille
2084,1,veuillez
2085,1,veulent
2086,1,victime
2087,1,vieilles
2088,1,vieillesse
2089,1,viendra
2090,1,vigilance
2091,1,vil
2092,1,visiblement
2093,1,vit
2094,1,vivante
2095,1,vivre
2096,1,voeu
2097,1,volage
2098,1,vole
2099,1,voler
2100,1,volontaire
2101,1,volupté
2102,1,voulez
2103,1,voyait
2104,1,voyant
2105,1,voyons
2106,1,vue
2107,1,vulgaires
2108,1,vus
2109,1,véhémence
2110,1,vôtres
2111,1,âge
2112,1,ébranleraient
2113,1,ébranlée
2114,1,échapper
2115,1,échappés
2116,1,écho
2117,1,éclaté
2118,1,écouter
2119,1,écoutons
2120,1,écoutée
2121,1,éleva
2122,1,élite
2123,1,éloignez
2124,1,éloignés
2125,1,élégie
2126,1,émail
2127,1,épais
2128,1,épargne
2129,1,épargnerait
2130,1,époux
2131,1,épris
2132,1,éprouver
2133,1,éprouvez
2134,1,états
2135,1,étonnantes
2136,1,étonnerait
2137,1,étouffé
2138,1,étrange
2139,1,étranger
2140,1,ôtes
