#Word Types: 2242
#Word Tokens: 13798
#Search Hits: 0
1	404	de	
2	298	et	
3	286	vous	
4	278	un	
5	239	que	
6	226	le	
7	218	l	
8	207	je	
9	203	la	
10	202	il	
11	186	est	
12	182	d	
13	178	à	
14	164	pour	
15	157	mon	
16	146	ce	
17	144	qu	
18	140	si	
19	130	en	
20	121	ne	
21	119	les	
22	100	on	
23	100	votre	
24	98	qui	
25	91	n	
26	87	me	
27	86	des	
28	85	une	
29	83	du	
30	82	plus	
31	82	son	
32	78	dans	
33	77	ma	
34	71	mais	
35	70	m	
36	69	coeur	
37	69	pas	
38	67	a	
39	65	cette	
40	62	par	
41	61	amour	
42	61	s	
43	60	j	
44	59	au	
45	59	sa	
46	58	seigneur	
47	56	mort	
48	50	moi	
49	49	peut	
50	48	fils	
51	47	quand	
52	44	mes	
53	44	sort	
54	43	sans	
55	42	manlius	
56	42	tout	
57	42	vos	
58	41	bien	
59	41	dieux	
60	41	ses	
61	39	c	
62	39	point	
63	39	se	
64	39	sur	
65	39	tu	
66	38	fait	
67	37	tous	
68	37	trop	
69	37	âme	
70	37	être	
71	36	consul	
72	36	ton	
73	35	même	
74	35	sont	
75	34	donc	
76	34	dont	
77	34	lui	
78	33	elle	
79	33	gloire	
80	33	père	
81	32	princesse	
82	31	aux	
83	30	trépas	
84	29	ces	
85	29	ont	
86	29	peu	
87	28	ai	
88	28	sang	
89	27	nous	
90	27	t	
91	26	faut	
92	26	ils	
93	26	ou	
94	26	ta	
95	25	rome	
96	25	sénat	
97	25	yeux	
98	24	grand	
99	24	moins	
100	24	omphale	
101	24	quoi	
102	24	vertu	
103	23	cet	
104	23	leur	
105	22	doit	
106	22	puis	
107	22	quel	
108	22	voir	
109	21	y	
110	20	madame	
111	19	mal	
112	19	romain	
113	19	ô	
114	18	avez	
115	18	ciel	
116	18	effet	
117	18	ha	
118	18	rien	
119	17	aime	
120	17	crime	
121	17	grâce	
122	17	jamais	
123	17	lois	
124	17	romains	
125	17	vie	
126	16	discours	
127	16	ici	
128	16	mieux	
129	16	pitié	
130	16	vainqueur	
131	15	ah	
132	15	ardeur	
133	15	assez	
134	15	avec	
135	15	cruel	
136	15	dit	
137	15	hélas	
138	15	jour	
139	15	tant	
140	15	torquatus	
141	15	toujours	
142	15	veux	
143	14	amant	
144	14	avoir	
145	14	camp	
146	14	funeste	
147	14	héros	
148	14	leurs	
149	14	où	
150	14	pouvoir	
151	14	rang	
152	14	sais	
153	14	te	
154	14	temps	
155	14	victoire	
156	13	après	
157	13	arrêt	
158	13	contre	
159	13	courroux	
160	13	devoir	
161	13	flamme	
162	13	juste	
163	13	quelque	
164	13	secours	
165	13	seul	
166	13	toute	
167	13	traits	
168	12	appas	
169	12	bonheur	
170	12	camille	
171	12	comme	
172	12	deux	
173	12	donne	
174	12	désirs	
175	12	encore	
176	12	faire	
177	12	lieu	
178	12	nature	
179	12	rival	
180	12	sens	
181	12	serait	
182	12	tes	
183	11	avait	
184	11	crains	
185	11	donner	
186	11	enfin	
187	11	ennemis	
188	11	foi	
189	11	rage	
190	11	rendre	
191	11	tel	
192	11	veut	
193	11	état	
194	10	audace	
195	10	aujourd	
196	10	autre	
197	10	dois	
198	10	estime	
199	10	fers	
200	10	feux	
201	10	homme	
202	10	hui	
203	10	jeune	
204	10	mille	
205	10	mourir	
206	10	ni	
207	10	nom	
208	10	oui	
209	10	peine	
210	10	prix	
211	10	triste	
212	10	va	
213	10	vois	
214	10	voit	
215	10	époux	
216	9	ainsi	
217	9	aurait	
218	9	aussi	
219	9	coupable	
220	9	craindre	
221	9	effets	
222	9	eut	
223	9	illustre	
224	9	malgré	
225	9	moment	
226	9	mépris	
227	9	objet	
228	9	propre	
229	9	soit	
230	9	voici	
231	8	adieu	
232	8	beau	
233	8	bras	
234	8	cent	
235	8	combat	
236	8	coup	
237	8	coups	
238	8	courage	
239	8	cède	
240	8	destin	
241	8	doute	
242	8	entre	
243	8	faites	
244	8	gardes	
245	8	grands	
246	8	hé	
247	8	injuste	
248	8	intérêt	
249	8	loi	
250	8	main	
251	8	malheur	
252	8	non	
253	8	nos	
254	8	offense	
255	8	ordre	
256	8	parle	
257	8	rend	
258	8	romaine	
259	8	sauver	
260	8	soldats	
261	8	suis	
262	8	tendresse	
263	8	tête	
264	8	vain	
265	7	apprendre	
266	7	celui	
267	7	destinée	
268	7	extrême	
269	7	faiblesse	
270	7	innocent	
271	7	jours	
272	7	lauriers	
273	7	loin	
274	7	murmure	
275	7	méprise	
276	7	notre	
277	7	pourquoi	
278	7	puissance	
279	7	péril	
280	7	soumis	
281	7	toi	
282	7	transport	
283	7	victime	
284	7	viens	
285	7	voulez	
286	7	était	
287	6	aimez	
288	6	ait	
289	6	amants	
290	6	armes	
291	6	attentat	
292	6	audacieux	
293	6	avant	
294	6	barbare	
295	6	belle	
296	6	captive	
297	6	cause	
298	6	cesse	
299	6	charmes	
300	6	cher	
301	6	connaître	
302	6	consultez	
303	6	croire	
304	6	decius	
305	6	dessus	
306	6	dire	
307	6	dites	
308	6	effort	
309	6	entretien	
310	6	envie	
311	6	esprit	
312	6	exploits	
313	6	faible	
314	6	feu	
315	6	fureur	
316	6	furie	
317	6	glorieux	
318	6	heureux	
319	6	horreur	
320	6	immortels	
321	6	injustice	
322	6	jusqu	
323	6	maux	
324	6	mortel	
325	6	mouvement	
326	6	orgueil	
327	6	parler	
328	6	parmi	
329	6	patrie	
330	6	presse	
331	6	remords	
332	6	sachant	
333	6	salut	
334	6	semble	
335	6	sentiment	
336	6	sentiments	
337	6	sera	
338	6	supplice	
339	6	sévère	
340	6	trouver	
341	6	univers	
342	6	vivre	
343	6	voix	
344	6	zèle	
345	6	êtes	
346	5	adorable	
347	5	alors	
348	5	amoureux	
349	5	auteur	
350	5	avis	
351	5	bientôt	
352	5	bourreau	
353	5	brave	
354	5	car	
355	5	coeurs	
356	5	connais	
357	5	conquête	
358	5	crimes	
359	5	crois	
360	5	cruelle	
361	5	depuis	
362	5	douleur	
363	5	déjà	
364	5	efforts	
365	5	encor	
366	5	entière	
367	5	espérance	
368	5	fausse	
369	5	fidèle	
370	5	font	
371	5	grande	
372	5	généreux	
373	5	honneur	
374	5	honte	
375	5	honteuse	
376	5	inexorable	
377	5	juge	
378	5	laisse	
379	5	longtemps	
380	5	là	
381	5	malheureux	
382	5	malheurs	
383	5	menace	
384	5	mouvements	
385	5	mémoire	
386	5	mêmes	
387	5	noble	
388	5	nobles	
389	5	offrir	
390	5	ombre	
391	5	ordonnez	
392	5	ose	
393	5	parlez	
394	5	place	
395	5	propres	
396	5	pu	
397	5	public	
398	5	puisque	
399	5	puissant	
400	5	puisse	
401	5	quelle	
402	5	raison	
403	5	respect	
404	5	secret	
405	5	souffrir	
406	5	souvent	
407	5	suive	
408	5	suprême	
409	5	telle	
410	5	tourment	
411	5	vaincre	
412	5	vains	
413	5	voeux	
414	5	voyant	
415	5	voyez	
416	5	éclat	
417	4	abord	
418	4	accuser	
419	4	acquérir	
420	4	affaire	
421	4	aimé	
422	4	alarmes	
423	4	allons	
424	4	apprenez	
425	4	arracher	
426	4	assouvir	
427	4	attraits	
428	4	autant	
429	4	avance	
430	4	bas	
431	4	beaucoup	
432	4	besoin	
433	4	biens	
434	4	borner	
435	4	bouche	
436	4	cependant	
437	4	choix	
438	4	chère	
439	4	colère	
440	4	confiance	
441	4	conseils	
442	4	courir	
443	4	craint	
444	4	crainte	
445	4	cruels	
446	4	dangereux	
447	4	dessein	
448	4	destins	
449	4	dis	
450	4	donné	
451	4	doux	
452	4	dépend	
453	4	eût	
454	4	faibles	
455	4	fasse	
456	4	fit	
457	4	fois	
458	4	fortune	
459	4	fortuné	
460	4	frivoles	
461	4	front	
462	4	garantir	
463	4	haine	
464	4	immoler	
465	4	ingrate	
466	4	innocence	
467	4	innocente	
468	4	irrité	
469	4	jeté	
470	4	lâche	
471	4	légitime	
472	4	magnanime	
473	4	mains	
474	4	maître	
475	4	moitié	
476	4	mortels	
477	4	mourant	
478	4	mérite	
479	4	mériter	
480	4	mérité	
481	4	nécessité	
482	4	oublier	
483	4	oublié	
484	4	outrage	
485	4	paraît	
486	4	penser	
487	4	permettez	
488	4	permis	
489	4	perte	
490	4	peuvent	
491	4	pieds	
492	4	plaire	
493	4	plutôt	
494	4	porter	
495	4	portez	
496	4	pourrait	
497	4	pouvait	
498	4	pouvez	
499	4	prudence	
500	4	puisqu	
501	4	périr	
502	4	recevez	
503	4	rendu	
504	4	reste	
505	4	rigueur	
506	4	secourir	
507	4	secrets	
508	4	seule	
509	4	seulement	
510	4	soumettre	
511	4	soupire	
512	4	superflus	
513	4	terreur	
514	4	titre	
515	4	tombeau	
516	4	touché	
517	4	trahir	
518	4	tremble	
519	4	trouve	
520	4	téméraire	
521	4	unique	
522	4	vertus	
523	4	vient	
524	4	voudrais	
525	4	vu	
526	4	vue	
527	4	épris	
528	4	étais	
529	4	étouffer	
530	4	été	
531	4	éviter	
532	3	absolu	
533	3	accable	
534	3	accabler	
535	3	achevez	
536	3	achève	
537	3	acquitter	
538	3	actions	
539	3	adore	
540	3	aimer	
541	3	aisément	
542	3	amène	
543	3	apparence	
544	3	appartient	
545	3	appréhendez	
546	3	armée	
547	3	art	
548	3	attendre	
549	3	aurai	
550	3	aurais	
551	3	avais	
552	3	aventure	
553	3	aveugle	
554	3	aviez	
555	3	balançons	
556	3	blesse	
557	3	bouillante	
558	3	bourreaux	
559	3	caprice	
560	3	ceux	
561	3	chez	
562	3	chose	
563	3	combattu	
564	3	comment	
565	3	conduit	
566	3	conjoncture	
567	3	connaissant	
568	3	conseil	
569	3	consens	
570	3	cours	
571	3	couvert	
572	3	craignez	
573	3	criminel	
574	3	cru	
575	3	cruautés	
576	3	céder	
577	3	daignez	
578	3	demande	
579	3	demander	
580	3	dernière	
581	3	dieu	
582	3	digne	
583	3	dirait	
584	3	disgrâce	
585	3	divers	
586	3	donnez	
587	3	défend	
588	3	défendu	
589	3	déplaire	
590	3	empire	
591	3	emporte	
592	3	entendu	
593	3	entier	
594	3	erreur	
595	3	esclave	
596	3	espoir	
597	3	explique	
598	3	expose	
599	3	expérience	
600	3	exécuter	
601	3	faits	
602	3	fatal	
603	3	femme	
604	3	feraient	
605	3	forfait	
606	3	fort	
607	3	fuite	
608	3	goûte	
609	3	haut	
610	3	heureusement	
611	3	holà	
612	3	honneurs	
613	3	hymen	
614	3	importune	
615	3	indigne	
616	3	ingrat	
617	3	insolemment	
618	3	intéresse	
619	3	inutile	
620	3	irriter	
621	3	jaloux	
622	3	joie	
623	3	juré	
624	3	laisser	
625	3	lieux	
626	3	lumière	
627	3	maîtresse	
628	3	meurs	
629	3	mien	
630	3	milieu	
631	3	misérable	
632	3	moindre	
633	3	montrer	
634	3	mourras	
635	3	moyens	
636	3	naissance	
637	3	nouvelle	
638	3	né	
639	3	obstacle	
640	3	obtenir	
641	3	odieux	
642	3	oeil	
643	3	offre	
644	3	ordres	
645	3	ouvrage	
646	3	pareil	
647	3	part	
648	3	partout	
649	3	passion	
650	3	paternel	
651	3	pays	
652	3	perd	
653	3	perdre	
654	3	peur	
655	3	phénice	
656	3	pison	
657	3	prendre	
658	3	presque	
659	3	pressant	
660	3	pris	
661	3	prompt	
662	3	promptement	
663	3	présent	
664	3	présents	
665	3	prêt	
666	3	puissants	
667	3	punition	
668	3	quelqu	
669	3	regards	
670	3	repentir	
671	3	repos	
672	3	respecter	
673	3	retirez	
674	3	réparer	
675	3	résolu	
676	3	rêver	
677	3	saurais	
678	3	savez	
679	3	servez	
680	3	soin	
681	3	soins	
682	3	songez	
683	3	sortir	
684	3	souffrez	
685	3	soulager	
686	3	soumet	
687	3	soupçon	
688	3	sous	
689	3	souverain	
690	3	suivie	
691	3	surmonte	
692	3	surtout	
693	3	suspect	
694	3	tendre	
695	3	tente	
696	3	tiens	
697	3	timide	
698	3	titres	
699	3	touche	
700	3	trait	
701	3	transports	
702	3	traîne	
703	3	trouble	
704	3	témoins	
705	3	vaine	
706	3	vaines	
707	3	vais	
708	3	vante	
709	3	vapeurs	
710	3	vaut	
711	3	victorieux	
712	3	vouloir	
713	3	écouter	
714	3	écoutez	
715	3	étant	
716	3	ôter	
717	2	abandonnée	
718	2	abusé	
719	2	accorder	
720	2	accusez	
721	2	acheté	
722	2	achever	
723	2	action	
724	2	adorer	
725	2	adoucir	
726	2	adresse	
727	2	afin	
728	2	air	
729	2	alarmée	
730	2	allant	
731	2	allez	
732	2	alliance	
733	2	amitié	
734	2	appelle	
735	2	apprends	
736	2	apprête	
737	2	ardente	
738	2	arrive	
739	2	arrogance	
740	2	arrête	
741	2	arrêtez	
742	2	as	
743	2	attirer	
744	2	aucun	
745	2	augmenter	
746	2	auguste	
747	2	auraient	
748	2	aurez	
749	2	aussitôt	
750	2	autel	
751	2	autres	
752	2	avancer	
753	2	aveuglement	
754	2	balancer	
755	2	beauté	
756	2	bellone	
757	2	blessé	
758	2	bon	
759	2	bonne	
760	2	bouillants	
761	2	briller	
762	2	but	
763	2	cacher	
764	2	captivité	
765	2	causé	
766	2	cessez	
767	2	chaleur	
768	2	charger	
769	2	charme	
770	2	chef	
771	2	chefs	
772	2	cherche	
773	2	choisir	
774	2	chérie	
775	2	clémence	
776	2	combats	
777	2	combien	
778	2	commandement	
779	2	commence	
780	2	commune	
781	2	complaisance	
782	2	complice	
783	2	condamné	
784	2	confondus	
785	2	confus	
786	2	connaît	
787	2	connue	
788	2	conserver	
789	2	consulte	
790	2	conçu	
791	2	courez	
792	2	couronne	
793	2	courons	
794	2	croit	
795	2	croyez	
796	2	cédez	
797	2	daigne	
798	2	davantage	
799	2	demandez	
800	2	dernier	
801	2	derniers	
802	2	desseins	
803	2	dessous	
804	2	devenir	
805	2	devine	
806	2	différence	
807	2	dirai	
808	2	dissipez	
809	2	doivent	
810	2	donnée	
811	2	douceur	
812	2	douleurs	
813	2	douter	
814	2	doutez	
815	2	droit	
816	2	droits	
817	2	dès	
818	2	défendent	
819	2	défendre	
820	2	défends	
821	2	démon	
822	2	dérober	
823	2	désespoir	
824	2	désir	
825	2	désormais	
826	2	détestable	
827	2	déteste	
828	2	détruire	
829	2	déçu	
830	2	dû	
831	2	embarras	
832	2	employer	
833	2	empoisonnés	
834	2	empêcher	
835	2	empêchez	
836	2	endurci	
837	2	enfer	
838	2	enlève	
839	2	ennemi	
840	2	entends	
841	2	escorte	
842	2	esprits	
843	2	espère	
844	2	espérer	
845	2	eu	
846	2	eux	
847	2	excuserez	
848	2	excès	
849	2	exemple	
850	2	expirer	
851	2	expliquer	
852	2	face	
853	2	fais	
854	2	fallut	
855	2	fameux	
856	2	fantômes	
857	2	fatale	
858	2	fera	
859	2	ferveur	
860	2	fidèles	
861	2	fin	
862	2	finir	
863	2	finissez	
864	2	flanc	
865	2	flatte	
866	2	flatter	
867	2	force	
868	2	forfaits	
869	2	forme	
870	2	foudre	
871	2	froideur	
872	2	fruit	
873	2	fruits	
874	2	frère	
875	2	fut	
876	2	garde	
877	2	gardez	
878	2	genre	
879	2	gens	
880	2	glorieuse	
881	2	grandeur	
882	2	gré	
883	2	guide	
884	2	haute	
885	2	horrible	
886	2	humain	
887	2	humains	
888	2	humeur	
889	2	hyménée	
890	2	héroïque	
891	2	impatience	
892	2	importun	
893	2	impose	
894	2	impunément	
895	2	inconstance	
896	2	indignes	
897	2	infortuné	
898	2	infortunée	
899	2	infâme	
900	2	inhumaine	
901	2	insensible	
902	2	insensés	
903	2	inspire	
904	2	interdit	
905	2	intérêts	
906	2	irrités	
907	2	jalouse	
908	2	jalousie	
909	2	junius	
910	2	justice	
911	2	laissant	
912	2	laissez	
913	2	laissé	
914	2	latins	
915	2	longs	
916	2	malheureuse	
917	2	marque	
918	2	mars	
919	2	mis	
920	2	modérez	
921	2	moindres	
922	2	monstre	
923	2	montrez	
924	2	morts	
925	2	mot	
926	2	motif	
927	2	mots	
928	2	mépriser	
929	2	méprisé	
930	2	naissant	
931	2	naître	
932	2	noir	
933	2	nuage	
934	2	nécessaire	
935	2	observer	
936	2	obéir	
937	2	obéissance	
938	2	oppose	
939	2	opposer	
940	2	oracle	
941	2	orage	
942	2	ordinaire	
943	2	oser	
944	2	osé	
945	2	outrageant	
946	2	paix	
947	2	parce	
948	2	pardonnez	
949	2	paroles	
950	2	parricide	
951	2	partage	
952	2	partager	
953	2	partir	
954	2	passions	
955	2	pensez	
956	2	perdez	
957	2	perdu	
958	2	peuple	
959	2	peuples	
960	2	plaisirs	
961	2	plaît	
962	2	pleurs	
963	2	poignard	
964	2	poison	
965	2	porte	
966	2	possible	
967	2	possède	
968	2	postérité	
969	2	pourrais	
970	2	poursuis	
971	2	pouvais	
972	2	prends	
973	2	prenez	
974	2	pressante	
975	2	prive	
976	2	profitez	
977	2	promis	
978	2	propice	
979	2	précieux	
980	2	présence	
981	2	punir	
982	2	pur	
983	2	périt	
984	2	quels	
985	2	quitter	
986	2	quittez	
987	2	rachetez	
988	2	rappelle	
989	2	rare	
990	2	redoute	
991	2	redouter	
992	2	refuse	
993	2	reine	
994	2	remarque	
995	2	rempli	
996	2	remplit	
997	2	remède	
998	2	rencontrer	
999	2	rendez	
1000	2	rendrez	
1001	2	rends	
1002	2	reproche	
1003	2	restes	
1004	2	retrouve	
1005	2	revenez	
1006	2	reçu	
1007	2	reçus	
1008	2	rigueurs	
1009	2	rougir	
1010	2	rougissez	
1011	2	ruse	
1012	2	règle	
1013	2	régner	
1014	2	révoquez	
1015	2	sacrifice	
1016	2	saisie	
1017	2	salutaire	
1018	2	satisfaire	
1019	2	satisfait	
1020	2	saurai	
1021	2	saurait	
1022	2	sauve	
1023	2	savent	
1024	2	secrète	
1025	2	semblable	
1026	2	semblent	
1027	2	sensible	
1028	2	sentir	
1029	2	serai	
1030	2	sert	
1031	2	servir	
1032	2	sincère	
1033	2	soif	
1034	2	sois	
1035	2	songe	
1036	2	souci	
1037	2	souhaits	
1038	2	source	
1039	2	souvenez	
1040	2	sublime	
1041	2	suite	
1042	2	suivre	
1043	2	superbe	
1044	2	surprendre	
1045	2	surpris	
1046	2	tard	
1047	2	temple	
1048	2	tenté	
1049	2	toucher	
1050	2	tour	
1051	2	tourments	
1052	2	toutes	
1053	2	traite	
1054	2	travaux	
1055	2	traîner	
1056	2	tremblé	
1057	2	triomphé	
1058	2	troubles	
1059	2	trône	
1060	2	tâche	
1061	2	tâchez	
1062	2	tâchons	
1063	2	témérité	
1064	2	usage	
1065	2	usurper	
1066	2	vaillant	
1067	2	vaincu	
1068	2	valeur	
1069	2	vas	
1070	2	veiller	
1071	2	venez	
1072	2	vengeance	
1073	2	vengera	
1074	2	verrez	
1075	2	vers	
1076	2	veuille	
1077	2	veuve	
1078	2	vice	
1079	2	vil	
1080	2	voie	
1081	2	voilà	
1082	2	vrai	
1083	2	ébloui	
1084	2	éclater	
1085	2	écueil	
1086	2	égal	
1087	2	égale	
1088	2	élever	
1089	2	élève	
1090	2	épargnez	
1091	2	épire	
1092	2	épouvante	
1093	1	abaisser	
1094	1	abandonne	
1095	1	abandonnent	
1096	1	abandonnez	
1097	1	abattre	
1098	1	abattu	
1099	1	abhorre	
1100	1	abri	
1101	1	abuse	
1102	1	abuser	
1103	1	abuserai	
1104	1	abîmer	
1105	1	accablé	
1106	1	accents	
1107	1	accepter	
1108	1	accessible	
1109	1	accident	
1110	1	accompagnez	
1111	1	accord	
1112	1	accordez	
1113	1	accuserait	
1114	1	accuses	
1115	1	acquis	
1116	1	adopte	
1117	1	adopté	
1118	1	adorables	
1119	1	adroit	
1120	1	adversité	
1121	1	affaires	
1122	1	affamé	
1123	1	affecte	
1124	1	affreux	
1125	1	affront	
1126	1	agir	
1127	1	agit	
1128	1	agréable	
1129	1	aider	
1130	1	aigle	
1131	1	aigrit	
1132	1	aille	
1133	1	ailleurs	
1134	1	aimable	
1135	1	aimais	
1136	1	ajoute	
1137	1	alarmé	
1138	1	allais	
1139	1	allait	
1140	1	allier	
1141	1	alluma	
1142	1	allégresse	
1143	1	ambition	
1144	1	amusements	
1145	1	animé	
1146	1	annoncer	
1147	1	annonceront	
1148	1	apaisa	
1149	1	apaise	
1150	1	aperçois	
1151	1	appliqua	
1152	1	apporte	
1153	1	apporté	
1154	1	apprenant	
1155	1	apprendra	
1156	1	apprendrais	
1157	1	apprennent	
1158	1	appris	
1159	1	approche	
1160	1	approuve	
1161	1	approuver	
1162	1	appuyer	
1163	1	arbitre	
1164	1	ardent	
1165	1	arme	
1166	1	armons	
1167	1	arrache	
1168	1	arrachent	
1169	1	arracheraient	
1170	1	arracherait	
1171	1	arrachons	
1172	1	arrêtait	
1173	1	arrêter	
1174	1	arrêts	
1175	1	aspire	
1176	1	assauts	
1177	1	assemblée	
1178	1	assurait	
1179	1	assuré	
1180	1	assurée	
1181	1	assurément	
1182	1	assurés	
1183	1	attacheront	
1184	1	attaquant	
1185	1	attaque	
1186	1	attaquerait	
1187	1	attaquée	
1188	1	atteindre	
1189	1	attend	
1190	1	attendais	
1191	1	attendait	
1192	1	attendris	
1193	1	attendrit	
1194	1	attente	
1195	1	atteste	
1196	1	augmentant	
1197	1	augmente	
1198	1	auprès	
1199	1	aura	
1200	1	aurons	
1201	1	autoriser	
1202	1	autrement	
1203	1	avançant	
1204	1	avecque	
1205	1	avertir	
1206	1	aveu	
1207	1	aveuglez	
1208	1	aveuglé	
1209	1	avouer	
1210	1	ayant	
1211	1	balancez	
1212	1	balancée	
1213	1	bannir	
1214	1	barbarie	
1215	1	basse	
1216	1	basses	
1217	1	battre	
1218	1	beaux	
1219	1	belles	
1220	1	blasphème	
1221	1	blessait	
1222	1	blesser	
1223	1	blâmable	
1224	1	blâmer	
1225	1	blâmeriez	
1226	1	blâmeront	
1227	1	blâmez	
1228	1	bonté	
1229	1	bontés	
1230	1	bornait	
1231	1	boue	
1232	1	bouillant	
1233	1	bout	
1234	1	braver	
1235	1	brillants	
1236	1	brisant	
1237	1	briser	
1238	1	bruit	
1239	1	bruits	
1240	1	bêcher	
1241	1	calomnie	
1242	1	capable	
1243	1	ceci	
1244	1	cela	
1245	1	celer	
1246	1	celles	
1247	1	certain	
1248	1	certaines	
1249	1	certains	
1250	1	cesser	
1251	1	champs	
1252	1	chancelant	
1253	1	changement	
1254	1	changer	
1255	1	chant	
1256	1	charmer	
1257	1	chaîne	
1258	1	chaînes	
1259	1	chemin	
1260	1	cherchais	
1261	1	chers	
1262	1	chimere	
1263	1	choisit	
1264	1	chute	
1265	1	chérit	
1266	1	cieux	
1267	1	citoyens	
1268	1	cité	
1269	1	clairvoyants	
1270	1	clarté	
1271	1	colore	
1272	1	combattez	
1273	1	combattre	
1274	1	comble	
1275	1	commande	
1276	1	commander	
1277	1	commencé	
1278	1	commettre	
1279	1	commis	
1280	1	communs	
1281	1	compassion	
1282	1	comprendre	
1283	1	concevoir	
1284	1	conclu	
1285	1	conclue	
1286	1	condamnant	
1287	1	condamnerez	
1288	1	conduire	
1289	1	conduite	
1290	1	confidence	
1291	1	confondez	
1292	1	confondre	
1293	1	conformez	
1294	1	confusion	
1295	1	conjurer	
1296	1	consacrés	
1297	1	conscience	
1298	1	conseillais	
1299	1	conseiller	
1300	1	consent	
1301	1	consentez	
1302	1	consentir	
1303	1	conserve	
1304	1	conservent	
1305	1	conservé	
1306	1	considérable	
1307	1	conspirez	
1308	1	consuls	
1309	1	consultera	
1310	1	consulterez	
1311	1	consultons	
1312	1	consulté	
1313	1	content	
1314	1	contenter	
1315	1	contentez	
1316	1	contraindre	
1317	1	contraint	
1318	1	contraire	
1319	1	conçoit	
1320	1	conçus	
1321	1	corps	
1322	1	couler	
1323	1	couronnent	
1324	1	couronner	
1325	1	couronnés	
1326	1	court	
1327	1	courut	
1328	1	couteau	
1329	1	couvrent	
1330	1	coûté	
1331	1	craignais	
1332	1	craignent	
1333	1	craindrait	
1334	1	criminels	
1335	1	cris	
1336	1	croirai	
1337	1	croirait	
1338	1	croyais	
1339	1	croyance	
1340	1	croyant	
1341	1	cruauté	
1342	1	cruelles	
1343	1	cueilli	
1344	1	cueillir	
1345	1	cultivez	
1346	1	cygne	
1347	1	côté	
1348	1	decie	
1349	1	dehors	
1350	1	delà	
1351	1	demandaient	
1352	1	demeurer	
1353	1	demi	
1354	1	descendre	
1355	1	destiné	
1356	1	deuil	
1357	1	devais	
1358	1	devait	
1359	1	devancez	
1360	1	devant	
1361	1	devenez	
1362	1	devez	
1363	1	deviendrait	
1364	1	devient	
1365	1	deviner	
1366	1	devrait	
1367	1	diadèmes	
1368	1	difficile	
1369	1	diffère	
1370	1	différez	
1371	1	dignité	
1372	1	dignités	
1373	1	diligente	
1374	1	dira	
1375	1	dirais	
1376	1	disais	
1377	1	disait	
1378	1	discerner	
1379	1	dise	
1380	1	dispenser	
1381	1	dispensez	
1382	1	dispensé	
1383	1	dissiper	
1384	1	dissipât	
1385	1	divin	
1386	1	divine	
1387	1	divins	
1388	1	doive	
1389	1	domestique	
1390	1	domestiques	
1391	1	donnerait	
1392	1	douce	
1393	1	dur	
1394	1	dure	
1395	1	duré	
1396	1	dussai	
1397	1	dusse	
1398	1	dussions	
1399	1	déchire	
1400	1	déchirer	
1401	1	décidé	
1402	1	déclaré	
1403	1	dédains	
1404	1	défauts	
1405	1	défence	
1406	1	défendit	
1407	1	défense	
1408	1	défenseur	
1409	1	défenseurs	
1410	1	défiance	
1411	1	défiez	
1412	1	défié	
1413	1	déguise	
1414	1	déguisement	
1415	1	délivrer	
1416	1	démesurée	
1417	1	démons	
1418	1	dépendent	
1419	1	dépens	
1420	1	dépit	
1421	1	déplaisirs	
1422	1	déplaît	
1423	1	dépositaire	
1424	1	dérobe	
1425	1	dérobez	
1426	1	dérèglement	
1427	1	désarmez	
1428	1	désiré	
1429	1	désobéissance	
1430	1	désordre	
1431	1	détesté	
1432	1	détournez	
1433	1	détours	
1434	1	détruira	
1435	1	dévore	
1436	1	dût	
1437	1	effacera	
1438	1	effacé	
1439	1	effacés	
1440	1	efforce	
1441	1	effroi	
1442	1	elles	
1443	1	embrassons	
1444	1	embrasé	
1445	1	empare	
1446	1	emporter	
1447	1	emportez	
1448	1	empruntez	
1449	1	empêche	
1450	1	enchanté	
1451	1	enchaîner	
1452	1	enfance	
1453	1	enflammé	
1454	1	enfreindre	
1455	1	engagea	
1456	1	enlever	
1457	1	enlèvement	
1458	1	ennemie	
1459	1	entraîne	
1460	1	entreprendre	
1461	1	entretenir	
1462	1	entretiens	
1463	1	entrons	
1464	1	envelopper	
1465	1	envenimé	
1466	1	envenimés	
1467	1	envers	
1468	1	envieux	
1469	1	epire	
1470	1	es	
1471	1	esclavage	
1472	1	esclaves	
1473	1	eus	
1474	1	examine	
1475	1	exaucé	
1476	1	excitaient	
1477	1	exciter	
1478	1	excitât	
1479	1	excuse	
1480	1	exempter	
1481	1	expliquez	
1482	1	expliquée	
1483	1	exploit	
1484	1	exposer	
1485	1	expresse	
1486	1	expressément	
1487	1	exprimer	
1488	1	exprès	
1489	1	extrémité	
1490	1	exécuterez	
1491	1	exécutons	
1492	1	famille	
1493	1	faste	
1494	1	faudra	
1495	1	faudrait	
1496	1	fausser	
1497	1	faux	
1498	1	faveur	
1499	1	favorable	
1500	1	favorisé	
1501	1	favorisés	
1502	1	faîte	
1503	1	feignons	
1504	1	feint	
1505	1	feinte	
1506	1	feintes	
1507	1	fend	
1508	1	fer	
1509	1	ferai	
1510	1	ferme	
1511	1	ferment	
1512	1	fermeté	
1513	1	fictions	
1514	1	fidélité	
1515	1	fier	
1516	1	fiers	
1517	1	fierté	
1518	1	fille	
1519	1	finiront	
1520	1	fis	
1521	1	fière	
1522	1	flattais	
1523	1	flatteurs	
1524	1	flattez	
1525	1	flattée	
1526	1	fléchit	
1527	1	flétrie	
1528	1	fol	
1529	1	folle	
1530	1	fond	
1531	1	fonds	
1532	1	fondé	
1533	1	forcer	
1534	1	forcerait	
1535	1	forment	
1536	1	former	
1537	1	formé	
1538	1	forte	
1539	1	forçant	
1540	1	fouler	
1541	1	fournir	
1542	1	fragile	
1543	1	frappe	
1544	1	fuir	
1545	1	funestes	
1546	1	fureurs	
1547	1	fussiez	
1548	1	fuyez	
1549	1	félicité	
1550	1	férmis	
1551	1	fîtes	
1552	1	fût	
1553	1	fûtes	
1554	1	gage	
1555	1	glacent	
1556	1	glisse	
1557	1	glissent	
1558	1	glorieuses	
1559	1	goûter	
1560	1	goûteras	
1561	1	grandes	
1562	1	grandeurs	
1563	1	gronde	
1564	1	gros	
1565	1	grossi	
1566	1	grâces	
1567	1	guerre	
1568	1	guerriers	
1569	1	guerrière	
1570	1	guérir	
1571	1	guérison	
1572	1	hais	
1573	1	hardi	
1574	1	hasard	
1575	1	hasardes	
1576	1	hasardé	
1577	1	hauts	
1578	1	haïr	
1579	1	heur	
1580	1	histoires	
1581	1	hola	
1582	1	homicide	
1583	1	hommes	
1584	1	honorables	
1585	1	honorer	
1586	1	horreurs	
1587	1	hors	
1588	1	idole	
1589	1	ignorais	
1590	1	illusion	
1591	1	illustres	
1592	1	image	
1593	1	imiter	
1594	1	immola	
1595	1	immortalité	
1596	1	immortel	
1597	1	immortelle	
1598	1	imposer	
1599	1	imposez	
1600	1	impostures	
1601	1	impressions	
1602	1	impuissant	
1603	1	impuissante	
1604	1	impuissants	
1605	1	impunité	
1606	1	incertaine	
1607	1	incessamment	
1608	1	inconnue	
1609	1	indifférence	
1610	1	indifférent	
1611	1	indiscrets	
1612	1	indomptable	
1613	1	industrie	
1614	1	inestimable	
1615	1	infidèle	
1616	1	inflexible	
1617	1	informe	
1618	1	informer	
1619	1	ingrats	
1620	1	inhumain	
1621	1	injure	
1622	1	injustement	
1623	1	innocents	
1624	1	inquiétude	
1625	1	insigne	
1626	1	insolence	
1627	1	insolente	
1628	1	inspira	
1629	1	inspirés	
1630	1	instant	
1631	1	instruire	
1632	1	instrument	
1633	1	insulte	
1634	1	insultez	
1635	1	intelligence	
1636	1	intention	
1637	1	intrépide	
1638	1	inutiles	
1639	1	inventer	
1640	1	invisible	
1641	1	inévitable	
1642	1	inévitables	
1643	1	irriterait	
1644	1	irritée	
1645	1	irrévocable	
1646	1	jette	
1647	1	jeunes	
1648	1	joigne	
1649	1	joindra	
1650	1	joindre	
1651	1	joue	
1652	1	jouir	
1653	1	juger	
1654	1	jugez	
1655	1	jure	
1656	1	jurée	
1657	1	jusques	
1658	1	justement	
1659	1	justes	
1660	1	laissait	
1661	1	laisses	
1662	1	lance	
1663	1	langage	
1664	1	languir	
1665	1	languissamment	
1666	1	larmes	
1667	1	lassera	
1668	1	lasseraient	
1669	1	latin	
1670	1	laver	
1671	1	lavera	
1672	1	lent	
1673	1	leçons	
1674	1	liberté	
1675	1	librement	
1676	1	lie	
1677	1	liens	
1678	1	livre	
1679	1	loini	
1680	1	loisir	
1681	1	longue	
1682	1	lorsqu	
1683	1	lorsque	
1684	1	louanges	
1685	1	louer	
1686	1	lâches	
1687	1	lâcheté	
1688	1	lève	
1689	1	légions	
1690	1	légère	
1691	1	maintenant	
1692	1	mandé	
1693	1	manque	
1694	1	manqué	
1695	1	martiale	
1696	1	marture	
1697	1	masque	
1698	1	matin	
1699	1	maîtres	
1700	1	meilleur	
1701	1	menaces	
1702	1	menacé	
1703	1	menais	
1704	1	menaçait	
1705	1	mener	
1706	1	mentir	
1707	1	met	
1708	1	mets	
1709	1	mettant	
1710	1	mettra	
1711	1	mettre	
1712	1	meure	
1713	1	meurt	
1714	1	mienne	
1715	1	miracle	
1716	1	misère	
1717	1	misères	
1718	1	moissonne	
1719	1	molle	
1720	1	moments	
1721	1	monde	
1722	1	montent	
1723	1	monter	
1724	1	montre	
1725	1	mortelle	
1726	1	mourons	
1727	1	mourra	
1728	1	mourrais	
1729	1	mourut	
1730	1	moyen	
1731	1	murmurer	
1732	1	murmurez	
1733	1	mânes	
1734	1	mène	
1735	1	mère	
1736	1	méconnaître	
1737	1	ménageons	
1738	1	ménagez	
1739	1	méprisant	
1740	1	méprisent	
1741	1	méritez	
1742	1	mêlait	
1743	1	mûrement	
1744	1	mûriront	
1745	1	naissait	
1746	1	nation	
1747	1	naufrage	
1748	1	naît	
1749	1	noeuds	
1750	1	noire	
1751	1	noires	
1752	1	nombre	
1753	1	nomme	
1754	1	nommer	
1755	1	nommez	
1756	1	noms	
1757	1	nourrit	
1758	1	nue	
1759	1	nuire	
1760	1	nuit	
1761	1	nulle	
1762	1	nullement	
1763	1	nécessaires	
1764	1	née	
1765	1	o	
1766	1	obligeait	
1767	1	obligeante	
1768	1	obligé	
1769	1	observerai	
1770	1	obstiné	
1771	1	obstinée	
1772	1	obstinés	
1773	1	obtiendra	
1774	1	obtient	
1775	1	obéissant	
1776	1	obéissez	
1777	1	obéit	
1778	1	occasion	
1779	1	occasions	
1780	1	offensant	
1781	1	offerts	
1782	1	office	
1783	1	offrez	
1784	1	offrons	
1785	1	opposez	
1786	1	ordonné	
1787	1	ornement	
1788	1	osant	
1789	1	oserais	
1790	1	oses	
1791	1	oubliais	
1792	1	ouvert	
1793	1	ouvertement	
1794	1	paraissent	
1795	1	paraissez	
1796	1	paraître	
1797	1	pardonne	
1798	1	pardonné	
1799	1	pareille	
1800	1	pareils	
1801	1	parjure	
1802	1	parjures	
1803	1	parlerons	
1804	1	parles	
1805	1	parlons	
1806	1	parole	
1807	1	parties	
1808	1	parvenir	
1809	1	passage	
1810	1	passe	
1811	1	passés	
1812	1	paternels	
1813	1	paya	
1814	1	peines	
1815	1	penchant	
1816	1	penche	
1817	1	pencher	
1818	1	pendant	
1819	1	pense	
1820	1	penserait	
1821	1	penses	
1822	1	pensée	
1823	1	percer	
1824	1	percé	
1825	1	perdons	
1826	1	perdrai	
1827	1	perdrait	
1828	1	perds	
1829	1	perdue	
1830	1	permettre	
1831	1	pernicieux	
1832	1	personne	
1833	1	persécuter	
1834	1	peux	
1835	1	pièges	
1836	1	plaindre	
1837	1	plains	
1838	1	plaint	
1839	1	plainte	
1840	1	plaintes	
1841	1	planter	
1842	1	plein	
1843	1	plonger	
1844	1	plu	
1845	1	plût	
1846	1	poignée	
1847	1	pompeux	
1848	1	portent	
1849	1	portrait	
1850	1	portraits	
1851	1	possession	
1852	1	poudre	
1853	1	pourra	
1854	1	pourraient	
1855	1	pourrez	
1856	1	pourtant	
1857	1	pourvu	
1858	1	pourvue	
1859	1	poussez	
1860	1	poussière	
1861	1	pouvant	
1862	1	premier	
1863	1	premiers	
1864	1	prend	
1865	1	prenne	
1866	1	pressants	
1867	1	presser	
1868	1	pressé	
1869	1	prierais	
1870	1	prison	
1871	1	priver	
1872	1	prière	
1873	1	prochaine	
1874	1	produirait	
1875	1	produit	
1876	1	profond	
1877	1	projet	
1878	1	projets	
1879	1	promesse	
1880	1	promette	
1881	1	prononce	
1882	1	prononcez	
1883	1	prononcé	
1884	1	prononcés	
1885	1	propose	
1886	1	proprement	
1887	1	protecteur	
1888	1	protègent	
1889	1	protéger	
1890	1	prouver	
1891	1	près	
1892	1	précaution	
1893	1	précipice	
1894	1	précipiter	
1895	1	précipitez	
1896	1	précis	
1897	1	préférence	
1898	1	présage	
1899	1	présente	
1900	1	présentement	
1901	1	préserve	
1902	1	préservent	
1903	1	présume	
1904	1	prétexte	
1905	1	publiques	
1906	1	puissante	
1907	1	puissent	
1908	1	pénètrent	
1909	1	pénétrer	
1910	1	périra	
1911	1	quelques	
1912	1	quitte	
1913	1	quoiqu	
1914	1	raisons	
1915	1	rangé	
1916	1	ranime	
1917	1	ravale	
1918	1	ravie	
1919	1	ravit	
1920	1	rebut	
1921	1	reconnaissance	
1922	1	reconnaît	
1923	1	reconnaître	
1924	1	reconnu	
1925	1	recours	
1926	1	recouvre	
1927	1	recouvrerez	
1928	1	redonne	
1929	1	redoutable	
1930	1	refuser	
1931	1	refusés	
1932	1	regard	
1933	1	regarde	
1934	1	regardent	
1935	1	regret	
1936	1	remarquant	
1937	1	remettez	
1938	1	rempart	
1939	1	remplir	
1940	1	remporter	
1941	1	remèdes	
1942	1	renaître	
1943	1	rencontre	
1944	1	rende	
1945	1	rendit	
1946	1	rendrait	
1947	1	renonce	
1948	1	renoncez	
1949	1	rentrer	
1950	1	repais	
1951	1	repose	
1952	1	reposez	
1953	1	repousser	
1954	1	reprendre	
1955	1	reprocher	
1956	1	reproches	
1957	1	respecte	
1958	1	respecté	
1959	1	ressemblance	
1960	1	ressentir	
1961	1	retenez	
1962	1	retient	
1963	1	revenir	
1964	1	revoir	
1965	1	reçoit	
1966	1	reçoivent	
1967	1	reçut	
1968	1	ridicule	
1969	1	rigoureux	
1970	1	risqué	
1971	1	rivale	
1972	1	roi	
1973	1	rois	
1974	1	romes	
1975	1	rudes	
1976	1	rumeur	
1977	1	rupture	
1978	1	ruses	
1979	1	rusés	
1980	1	règles	
1981	1	règne	
1982	1	règnent	
1983	1	récente	
1984	1	récompense	
1985	1	réduire	
1986	1	réduisez	
1987	1	réflexion	
1988	1	réglez	
1989	1	répandant	
1990	1	répandu	
1991	1	réparée	
1992	1	répliquez	
1993	1	répondent	
1994	1	répons	
1995	1	réponse	
1996	1	réprimer	
1997	1	réprimée	
1998	1	république	
1999	1	réservez	
2000	1	résistez	
2001	1	résolue	
2002	1	révolte	
2003	1	sache	
2004	1	sachez	
2005	1	sacrilège	
2006	1	sacrés	
2007	1	sage	
2008	1	sages	
2009	1	sagesse	
2010	1	saintement	
2011	1	sait	
2012	1	salutaires	
2013	1	sanglant	
2014	1	sauva	
2015	1	sauveront	
2016	1	sauvez	
2017	1	sauvons	
2018	1	savait	
2019	1	savons	
2020	1	secrètement	
2021	1	semblaient	
2022	1	sente	
2023	1	sentence	
2024	1	senti	
2025	1	sentiras	
2026	1	seraient	
2027	1	serais	
2028	1	seras	
2029	1	seront	
2030	1	servaient	
2031	1	servait	
2032	1	servi	
2033	1	servira	
2034	1	seules	
2035	1	seuls	
2036	1	siens	
2037	1	signé	
2038	1	simple	
2039	1	sincères	
2040	1	sitôt	
2041	1	soient	
2042	1	solides	
2043	1	solitude	
2044	1	songeons	
2045	1	sortez	
2046	1	soucis	
2047	1	souffert	
2048	1	soufferte	
2049	1	soufferts	
2050	1	souffrais	
2051	1	souffre	
2052	1	souiller	
2053	1	souillé	
2054	1	soulagement	
2055	1	soulagerait	
2056	1	soupir	
2057	1	soupirs	
2058	1	soupçonne	
2059	1	soupçonnez	
2060	1	soupçons	
2061	1	sourdement	
2062	1	soutenir	
2063	1	souvenir	
2064	1	souvenu	
2065	1	souverains	
2066	1	souvient	
2067	1	soyez	
2068	1	su	
2069	1	subirai	
2070	1	substance	
2071	1	subtil	
2072	1	successeur	
2073	1	succomber	
2074	1	succès	
2075	1	succédé	
2076	1	sucé	
2077	1	suffit	
2078	1	suit	
2079	1	suivant	
2080	1	suivez	
2081	1	suivi	
2082	1	suivis	
2083	1	sujet	
2084	1	sujets	
2085	1	sujette	
2086	1	surmonter	
2087	1	sus	
2088	1	séduit	
2089	1	séduite	
2090	1	séjour	
2091	1	séparer	
2092	1	sévères	
2093	1	sévérité	
2094	1	taire	
2095	1	tels	
2096	1	tempête	
2097	1	tendent	
2098	1	tendres	
2099	1	tenir	
2100	1	tenu	
2101	1	terminez	
2102	1	ternir	
2103	1	ternissent	
2104	1	terre	
2105	1	teste	
2106	1	thrace	
2107	1	tiennent	
2108	1	tigre	
2109	1	tirer	
2110	1	tomberait	
2111	1	tonnante	
2112	1	toucha	
2113	1	touchant	
2114	1	touchent	
2115	1	touchés	
2116	1	tourmenter	
2117	1	tourne	
2118	1	tracés	
2119	1	trahi	
2120	1	trahis	
2121	1	traitera	
2122	1	trame	
2123	1	tranchant	
2124	1	tranche	
2125	1	transporté	
2126	1	travers	
2127	1	traînent	
2128	1	traîtres	
2129	1	tremblant	
2130	1	tremblante	
2131	1	trembler	
2132	1	trembles	
2133	1	tremper	
2134	1	trente	
2135	1	triomphent	
2136	1	triompher	
2137	1	triomphez	
2138	1	tristesse	
2139	1	trompe	
2140	1	tromper	
2141	1	trompeur	
2142	1	trompeurs	
2143	1	troublant	
2144	1	troubler	
2145	1	trouvant	
2146	1	trouvent	
2147	1	trouverais	
2148	1	trésor	
2149	1	tue	
2150	1	tumulte	
2151	1	tyran	
2152	1	témoin	
2153	1	téméraires	
2154	1	user	
2155	1	vaillants	
2156	1	vaincus	
2157	1	vainement	
2158	1	vainqueurs	
2159	1	valent	
2160	1	vapeur	
2161	1	vaux	
2162	1	veillent	
2163	1	vengeais	
2164	1	venger	
2165	1	vengeras	
2166	1	vengez	
2167	1	vengé	
2168	1	venin	
2169	1	venir	
2170	1	verront	
2171	1	verse	
2172	1	versé	
2173	1	victimes	
2174	1	victoires	
2175	1	victorieuse	
2176	1	viendra	
2177	1	vigoureusement	
2178	1	vile	
2179	1	violant	
2180	1	violence	
2181	1	vipère	
2182	1	vis	
2183	1	visible	
2184	1	vivants	
2185	1	vivez	
2186	1	voisins	
2187	1	vont	
2188	1	voudrait	
2189	1	voulais	
2190	1	voulant	
2191	1	voulu	
2192	1	voulut	
2193	1	voulût	
2194	1	voyais	
2195	1	vraiment	
2196	1	vus	
2197	1	véritable	
2198	1	vôtre	
2199	1	âmes	
2200	1	éblouit	
2201	1	ébranle	
2202	1	ébranler	
2203	1	échappait	
2204	1	éclaircir	
2205	1	éclate	
2206	1	écoutant	
2207	1	également	
2208	1	égaler	
2209	1	égaux	
2210	1	élevés	
2211	1	élise	
2212	1	éloges	
2213	1	élyséens	
2214	1	élèvent	
2215	1	émeut	
2216	1	éminent	
2217	1	émotion	
2218	1	émus	
2219	1	épargner	
2220	1	épargnera	
2221	1	épargnât	
2222	1	épargnée	
2223	1	épouvanter	
2224	1	éprouve	
2225	1	éprouver	
2226	1	éprouvé	
2227	1	érige	
2228	1	établie	
2229	1	étaient	
2230	1	états	
2231	1	éteignons	
2232	1	éternel	
2233	1	étincelant	
2234	1	étouffez	
2235	1	étrange	
2236	1	étrangere	
2237	1	étrangère	
2238	1	évident	
2239	1	évitez	
2240	1	évité	
2241	1	ôtez	
2242	1	ôté	
