#Word Types: 2603
#Word Tokens: 18002
#Search Hits: 0
1	502	vous	
2	491	de	
3	400	je	
4	351	et	
5	342	l	
6	338	en	
7	330	est	
8	329	que	
9	311	il	
10	291	qu	
11	286	le	
12	279	à	
13	243	la	
14	220	pour	
15	211	un	
16	206	ce	
17	204	d	
18	189	ne	
19	185	me	
20	177	m	
21	171	j	
22	162	on	
23	160	n	
24	153	mais	
25	147	qui	
26	147	si	
27	137	mon	
28	127	don	
29	108	a	
30	103	c	
31	99	bien	
32	99	tout	
33	97	moi	
34	95	ai	
35	95	plus	
36	94	s	
37	93	pas	
38	85	elle	
39	83	ma	
40	79	fait	
41	79	les	
42	78	votre	
43	76	sans	
44	69	tu	
45	68	y	
46	68	être	
47	64	son	
48	63	une	
49	59	se	
50	58	dans	
51	57	peut	
52	56	au	
53	56	par	
54	56	voir	
55	54	coeur	
56	54	fernand	
57	52	point	
58	52	quoi	
59	51	amour	
60	51	enfin	
61	51	nous	
62	50	du	
63	50	faut	
64	50	madame	
65	49	comme	
66	48	suis	
67	45	dionis	
68	45	lui	
69	45	rien	
70	44	peu	
71	43	monsieur	
72	42	autre	
73	42	ici	
74	42	même	
75	42	où	
76	42	sa	
77	42	trop	
78	41	avec	
79	40	t	
80	38	encor	
81	37	quand	
82	36	deux	
83	36	jamais	
84	36	quelque	
85	36	sais	
86	35	des	
87	34	faire	
88	34	moins	
89	33	assez	
90	33	chez	
91	32	foi	
92	32	su	
93	31	doit	
94	31	mes	
95	30	avoir	
96	30	là	
97	29	père	
98	29	vois	
99	28	puis	
100	27	inconnue	
101	27	ont	
102	27	ou	
103	27	toujours	
104	27	vos	
105	26	avez	
106	26	sur	
107	25	esprit	
108	25	grand	
109	25	quel	
110	25	tous	
111	24	dire	
112	24	dit	
113	24	lieu	
114	24	tant	
115	24	te	
116	23	isabelle	
117	23	non	
118	22	ait	
119	22	mieux	
120	22	prendre	
121	22	toi	
122	21	béatrix	
123	21	cette	
124	21	crois	
125	21	dont	
126	21	guzman	
127	21	nom	
128	21	êtes	
129	20	ah	
130	20	donc	
131	20	leur	
132	20	veut	
133	20	âme	
134	19	ces	
135	19	cet	
136	19	croire	
137	19	soit	
138	18	aime	
139	18	ainsi	
140	18	aux	
141	18	connaître	
142	18	pu	
143	18	ses	
144	17	adieu	
145	17	ayant	
146	17	doute	
147	17	doux	
148	17	jour	
149	17	tantôt	
150	17	temps	
151	17	vain	
152	17	vu	
153	16	beau	
154	16	hymen	
155	16	yeux	
156	15	avait	
157	15	choix	
158	15	ciel	
159	15	déjà	
160	15	grâce	
161	15	ils	
162	15	maîtresse	
163	15	va	
164	14	aussi	
165	14	avant	
166	14	bon	
167	14	erreur	
168	14	fort	
169	14	mal	
170	14	peine	
171	14	quelle	
172	14	seul	
173	14	sont	
174	14	ta	
175	14	ton	
176	14	voeux	
177	14	était	
178	13	aurais	
179	13	contre	
180	13	crains	
181	13	dois	
182	13	fourbe	
183	13	loin	
184	13	maître	
185	13	paraître	
186	13	voulez	
187	13	voyez	
188	13	vôtre	
189	12	après	
190	12	aujourd	
191	12	aura	
192	12	autant	
193	12	cru	
194	12	droit	
195	12	faites	
196	12	hui	
197	12	juan	
198	12	jusqu	
199	12	léonor	
200	12	prends	
201	12	sait	
202	12	secret	
203	12	semble	
204	12	serait	
205	12	trouve	
206	12	vrai	
207	11	attendre	
208	11	belle	
209	11	donner	
210	11	espoir	
211	11	flamme	
212	11	félix	
213	11	parler	
214	11	plaît	
215	11	pouvoir	
216	11	rendez	
217	11	savoir	
218	11	sous	
219	11	taire	
220	11	veux	
221	11	viens	
222	11	voilà	
223	11	voit	
224	11	vue	
225	10	abord	
226	10	amitié	
227	10	avais	
228	10	beauté	
229	10	bonne	
230	10	cependant	
231	10	chose	
232	10	connais	
233	10	connu	
234	10	cour	
235	10	croyez	
236	10	douceurs	
237	10	fasse	
238	10	fois	
239	10	heure	
240	10	oui	
241	10	pense	
242	10	pourquoi	
243	10	tiens	
244	10	venu	
245	9	attend	
246	9	aucun	
247	9	aventure	
248	9	dessein	
249	9	destin	
250	9	entre	
251	9	extrême	
252	9	eût	
253	9	galant	
254	9	parole	
255	9	part	
256	9	pris	
257	9	sens	
258	9	soudain	
259	9	vient	
260	9	voulu	
261	9	époux	
262	9	étais	
263	8	adresse	
264	8	amis	
265	8	arrêté	
266	8	as	
267	8	besoin	
268	8	celui	
269	8	chercher	
270	8	choisir	
271	8	craindre	
272	8	croit	
273	8	diable	
274	8	douter	
275	8	dès	
276	8	engage	
277	8	femme	
278	8	fin	
279	8	heureux	
280	8	honneur	
281	8	jacinte	
282	8	jaloux	
283	8	jeu	
284	8	laisse	
285	8	longtemps	
286	8	malheur	
287	8	mien	
288	8	ni	
289	8	peur	
290	8	prenez	
291	8	prison	
292	8	puisque	
293	8	rencontre	
294	8	rendre	
295	8	rompre	
296	8	rue	
297	8	sort	
298	8	souvent	
299	8	venez	
300	8	venir	
301	8	vite	
302	7	ailleurs	
303	7	aimable	
304	7	aimer	
305	7	air	
306	7	appas	
307	7	aveu	
308	7	beaucoup	
309	7	demain	
310	7	diègue	
311	7	donne	
312	7	effet	
313	7	embarras	
314	7	engager	
315	7	entrer	
316	7	fais	
317	7	feu	
318	7	fille	
319	7	hasard	
320	7	intérêt	
321	7	lieux	
322	7	moment	
323	7	nos	
324	7	ose	
325	7	plutôt	
326	7	porte	
327	7	pourrait	
328	7	prix	
329	7	puisqu	
330	7	puisse	
331	7	rapport	
332	7	rend	
333	7	reste	
334	7	sachant	
335	7	savez	
336	7	sera	
337	7	sortir	
338	7	souci	
339	7	soupçon	
340	7	séville	
341	7	tel	
342	7	telle	
343	7	toute	
344	7	toutes	
345	7	traits	
346	7	trouvé	
347	7	éclaircir	
348	7	état	
349	6	aller	
350	6	amant	
351	6	appris	
352	6	art	
353	6	autres	
354	6	avecque	
355	6	brave	
356	6	cacher	
357	6	chacun	
358	6	chaque	
359	6	chère	
360	6	compliment	
361	6	conduire	
362	6	conte	
363	6	craint	
364	6	croirai	
365	6	devoir	
366	6	doutez	
367	6	garde	
368	6	grenade	
369	6	malgré	
370	6	mettre	
371	6	mille	
372	6	naître	
373	6	nouvelle	
374	6	ordonne	
375	6	ouïr	
376	6	parle	
377	6	pauvre	
378	6	plaire	
379	6	plaisir	
380	6	près	
381	6	péril	
382	6	quelques	
383	6	quitte	
384	6	redouter	
385	6	retour	
386	6	répondre	
387	6	résoudre	
388	6	seulement	
389	6	soin	
390	6	suivante	
391	6	sujet	
392	6	surprendre	
393	6	surprise	
394	6	valet	
395	6	vaut	
396	6	visage	
397	6	visite	
398	6	éclat	
399	6	écouter	
400	5	affaire	
401	5	afin	
402	5	aider	
403	5	aimez	
404	5	alors	
405	5	arrête	
406	5	attends	
407	5	avis	
408	5	bas	
409	5	bonheur	
410	5	bruit	
411	5	cause	
412	5	cavalier	
413	5	cent	
414	5	cherche	
415	5	ci	
416	5	connaît	
417	5	conter	
418	5	contraindre	
419	5	coups	
420	5	courroux	
421	5	crédit	
422	5	dame	
423	5	dessus	
424	5	dieux	
425	5	dis	
426	5	disgrâce	
427	5	dites	
428	5	dupe	
429	5	découvrir	
430	5	détours	
431	5	dû	
432	5	effort	
433	5	enrager	
434	5	estime	
435	5	eu	
436	5	eux	
437	5	feindre	
438	5	fidèle	
439	5	forte	
440	5	fuir	
441	5	fâcheux	
442	5	gloire	
443	5	hasarder	
444	5	humeur	
445	5	joie	
446	5	juste	
447	5	laissé	
448	5	mériter	
449	5	notre	
450	5	parlez	
451	5	partie	
452	5	passe	
453	5	passer	
454	5	passion	
455	5	perdu	
456	5	pièce	
457	5	pourrais	
458	5	prétends	
459	5	raison	
460	5	rang	
461	5	repos	
462	5	ressemblance	
463	5	rire	
464	5	régler	
465	5	sage	
466	5	sentiments	
467	5	seule	
468	5	soir	
469	5	sommes	
470	5	souffrir	
471	5	stratagème	
472	5	succès	
473	5	suivre	
474	5	talent	
475	5	tient	
476	5	tiré	
477	5	vais	
478	5	vertu	
479	5	vienne	
480	5	voici	
481	5	voix	
482	5	vouloir	
483	5	voyons	
484	5	étant	
485	5	étrange	
486	5	ôte	
487	4	abuser	
488	4	adroit	
489	4	allez	
490	4	amante	
491	4	ami	
492	4	amène	
493	4	arrive	
494	4	arrêter	
495	4	aurez	
496	4	avons	
497	4	bientôt	
498	4	cache	
499	4	cas	
500	4	cela	
501	4	celle	
502	4	changement	
503	4	coeurs	
504	4	coup	
505	4	cruel	
506	4	depuis	
507	4	divers	
508	4	défiance	
509	4	dépend	
510	4	ensemble	
511	4	envoie	
512	4	espérance	
513	4	excuse	
514	4	favorable	
515	4	feux	
516	4	fier	
517	4	fit	
518	4	fou	
519	4	frappé	
520	4	gendre	
521	4	gens	
522	4	guérir	
523	4	hasarde	
524	4	haut	
525	4	homme	
526	4	ignore	
527	4	impudence	
528	4	inconnu	
529	4	jouer	
530	4	jours	
531	4	juger	
532	4	justifier	
533	4	laisser	
534	4	laissez	
535	4	leurs	
536	4	liberté	
537	4	logis	
538	4	madrid	
539	4	mains	
540	4	maison	
541	4	maraud	
542	4	messieurs	
543	4	mis	
544	4	mort	
545	4	mérite	
546	4	naissance	
547	4	noms	
548	4	nuire	
549	4	nécessaire	
550	4	objet	
551	4	obligé	
552	4	paraît	
553	4	parfait	
554	4	payer	
555	4	pensé	
556	4	place	
557	4	pourrai	
558	4	pourtant	
559	4	pourvu	
560	4	pouvez	
561	4	prouver	
562	4	pût	
563	4	qualité	
564	4	quelqu	
565	4	quelquefois	
566	4	rare	
567	4	recevoir	
568	4	refuser	
569	4	rival	
570	4	sache	
571	4	secrètes	
572	4	semblable	
573	4	serez	
574	4	seriez	
575	4	soi	
576	4	soins	
577	4	sois	
578	4	solis	
579	4	songer	
580	4	songez	
581	4	soufflet	
582	4	soupire	
583	4	surpris	
584	4	taille	
585	4	tenir	
586	4	tenté	
587	4	trouver	
588	4	valoir	
589	4	verrez	
590	4	vie	
591	4	ville	
592	4	vivre	
593	4	voyant	
594	4	écoute	
595	4	étonne	
596	4	ô	
597	3	accable	
598	3	agréable	
599	3	aimant	
600	3	aise	
601	3	aisément	
602	3	amants	
603	3	amie	
604	3	apprendre	
605	3	argent	
606	3	arriver	
607	3	arrivé	
608	3	assurance	
609	3	attendais	
610	3	attraits	
611	3	auprès	
612	3	aurai	
613	3	aurait	
614	3	autorise	
615	3	avaient	
616	3	avalos	
617	3	avance	
618	3	ayez	
619	3	balance	
620	3	belles	
621	3	billet	
622	3	bons	
623	3	bonsoir	
624	3	bout	
625	3	but	
626	3	caché	
627	3	causer	
628	3	certes	
629	3	chagrin	
630	3	changer	
631	3	charmes	
632	3	colère	
633	3	comment	
634	3	concerté	
635	3	concierge	
636	3	confondre	
637	3	connaissez	
638	3	conserver	
639	3	constance	
640	3	consulter	
641	3	content	
642	3	césar	
643	3	daignez	
644	3	danger	
645	3	demande	
646	3	demander	
647	3	desseins	
648	3	deviez	
649	3	différence	
650	3	dira	
651	3	douceur	
652	3	droits	
653	3	délicats	
654	3	dépit	
655	3	détour	
656	3	effronterie	
657	3	empire	
658	3	empêché	
659	3	ennui	
660	3	ennuis	
661	3	entendent	
662	3	entendre	
663	3	entretenir	
664	3	entrez	
665	3	espère	
666	3	eusse	
667	3	expliquer	
668	3	exprès	
669	3	famille	
670	3	faveur	
671	3	façon	
672	3	façons	
673	3	ferait	
674	3	fidélité	
675	3	figure	
676	3	flandre	
677	3	flatte	
678	3	fleurette	
679	3	fournir	
680	3	frère	
681	3	fut	
682	3	fît	
683	3	fût	
684	3	galanterie	
685	3	galants	
686	3	gardez	
687	3	genre	
688	3	grande	
689	3	grands	
690	3	grenadin	
691	3	gré	
692	3	guère	
693	3	heureusement	
694	3	hier	
695	3	honnête	
696	3	hors	
697	3	ignorant	
698	3	innocence	
699	3	instruit	
700	3	intérêts	
701	3	juge	
702	3	jusque	
703	3	justice	
704	3	leçons	
705	3	libre	
706	3	loi	
707	3	lorsque	
708	3	lumières	
709	3	maintenant	
710	3	mandé	
711	3	mari	
712	3	marquise	
713	3	meilleurs	
714	3	message	
715	3	mise	
716	3	mois	
717	3	mot	
718	3	mystère	
719	3	méprendre	
720	3	mépris	
721	3	nouvelles	
722	3	objets	
723	3	oblige	
724	3	obstacle	
725	3	obéir	
726	3	occasions	
727	3	offre	
728	3	oppose	
729	3	ordre	
730	3	papier	
731	3	parmi	
732	3	partage	
733	3	partout	
734	3	perd	
735	3	perdre	
736	3	personnage	
737	3	personne	
738	3	peste	
739	3	port	
740	3	pourra	
741	3	poursuivre	
742	3	pousser	
743	3	pouvait	
744	3	prend	
745	3	prennent	
746	3	presque	
747	3	presse	
748	3	preuve	
749	3	procès	
750	3	prompte	
751	3	proteste	
752	3	précaution	
753	3	prêt	
754	3	quartier	
755	3	quatre	
756	3	remède	
757	3	rencontré	
758	3	reproche	
759	3	retraite	
760	3	reçu	
761	3	rit	
762	3	roi	
763	3	rude	
764	3	régaler	
765	3	rôle	
766	3	saura	
767	3	seconder	
768	3	secours	
769	3	secrets	
770	3	sent	
771	3	serais	
772	3	serments	
773	3	servir	
774	3	seuls	
775	3	sien	
776	3	soeur	
777	3	souffert	
778	3	soyez	
779	3	suffit	
780	3	suit	
781	3	suite	
782	3	tenu	
783	3	terre	
784	3	tes	
785	3	tirer	
786	3	tort	
787	3	trahir	
788	3	transports	
789	3	tremble	
790	3	trouvera	
791	3	trêve	
792	3	tôt	
793	3	vaine	
794	3	venais	
795	3	verrai	
796	3	veuille	
797	3	violence	
798	3	vis	
799	3	vit	
800	3	voudra	
801	3	voyage	
802	3	vérité	
803	3	égal	
804	3	épargner	
805	3	étranges	
806	3	étroite	
807	3	été	
808	3	ôter	
809	2	abandonne	
810	2	aborder	
811	2	abus	
812	2	accabler	
813	2	accord	
814	2	accorder	
815	2	accoutumeras	
816	2	accuse	
817	2	achètent	
818	2	admire	
819	2	affaires	
820	2	agir	
821	2	aide	
822	2	aigreur	
823	2	aimables	
824	2	aimes	
825	2	alarmes	
826	2	allant	
827	2	amoureux	
828	2	apparence	
829	2	apprend	
830	2	apprenez	
831	2	appréhendais	
832	2	ardent	
833	2	ardeur	
834	2	arrêt	
835	2	arrêtée	
836	2	artifice	
837	2	assignation	
838	2	assurément	
839	2	attacher	
840	2	atteint	
841	2	attendrai	
842	2	attraper	
843	2	attraperez	
844	2	attrapé	
845	2	augmente	
846	2	augure	
847	2	auriez	
848	2	auront	
849	2	aussitôt	
850	2	autorité	
851	2	avantages	
852	2	avertir	
853	2	aviez	
854	2	avisez	
855	2	bailler	
856	2	battu	
857	2	boit	
858	2	capable	
859	2	causé	
860	2	caution	
861	2	certain	
862	2	cesse	
863	2	chagrine	
864	2	change	
865	2	charger	
866	2	charmant	
867	2	charmé	
868	2	chasser	
869	2	chaîne	
870	2	choisi	
871	2	choisissez	
872	2	choque	
873	2	claire	
874	2	coiffe	
875	2	combat	
876	2	combattre	
877	2	commun	
878	2	complaisance	
879	2	compte	
880	2	conduite	
881	2	confier	
882	2	confond	
883	2	connaissance	
884	2	connue	
885	2	conseil	
886	2	conseils	
887	2	consentir	
888	2	conséquence	
889	2	contraire	
890	2	convie	
891	2	court	
892	2	coûté	
893	2	craignais	
894	2	craignant	
895	2	crainte	
896	2	croie	
897	2	croira	
898	2	croiriez	
899	2	cruelle	
900	2	cruelles	
901	2	cède	
902	2	daigne	
903	2	dehors	
904	2	devais	
905	2	devant	
906	2	deviner	
907	2	dieu	
908	2	digne	
909	2	discret	
910	2	divertissements	
911	2	doigts	
912	2	donnée	
913	2	doublé	
914	2	doutais	
915	2	doutes	
916	2	duper	
917	2	dupes	
918	2	découvert	
919	2	défaut	
920	2	défense	
921	2	déguisements	
922	2	déloger	
923	2	dépens	
924	2	déplaisir	
925	2	déplaît	
926	2	effrontément	
927	2	elles	
928	2	emploi	
929	2	emporter	
930	2	endroit	
931	2	enrage	
932	2	entendu	
933	2	entretien	
934	2	entrons	
935	2	envie	
936	2	envoyer	
937	2	es	
938	2	esprits	
939	2	eut	
940	2	examiner	
941	2	exempt	
942	2	explique	
943	2	expose	
944	2	faite	
945	2	fallait	
946	2	fallu	
947	2	fassiez	
948	2	faudra	
949	2	fausse	
950	2	faux	
951	2	feignant	
952	2	ferai	
953	2	ferez	
954	2	feront	
955	2	fils	
956	2	flatter	
957	2	folle	
958	2	fonction	
959	2	font	
960	2	force	
961	2	foule	
962	2	fourber	
963	2	franchise	
964	2	fruit	
965	2	future	
966	2	gages	
967	2	gagner	
968	2	galante	
969	2	garder	
970	2	goutte	
971	2	goût	
972	2	guerre	
973	2	habit	
974	2	hasardeux	
975	2	hauts	
976	2	heur	
977	2	histoire	
978	2	hommage	
979	2	hommes	
980	2	honte	
981	2	huit	
982	2	hâter	
983	2	hé	
984	2	hélas	
985	2	image	
986	2	importance	
987	2	important	
988	2	indigne	
989	2	injuste	
990	2	injustice	
991	2	inquiété	
992	2	instruire	
993	2	instruite	
994	2	interdit	
995	2	irai	
996	2	jardin	
997	2	jeter	
998	2	jeune	
999	2	jeunesse	
1000	2	joue	
1001	2	jouir	
1002	2	jusques	
1003	2	justes	
1004	2	large	
1005	2	librement	
1006	2	loger	
1007	2	lois	
1008	2	lâche	
1009	2	léger	
1010	2	main	
1011	2	malheureux	
1012	2	malins	
1013	2	marché	
1014	2	mariage	
1015	2	marquisat	
1016	2	marqué	
1017	2	matière	
1018	2	mauvaise	
1019	2	meilleur	
1020	2	mener	
1021	2	met	
1022	2	mienne	
1023	2	mine	
1024	2	modeste	
1025	2	modestie	
1026	2	moindre	
1027	2	moments	
1028	2	montre	
1029	2	mortel	
1030	2	motif	
1031	2	mots	
1032	2	mouvement	
1033	2	moyen	
1034	2	moyens	
1035	2	murmure	
1036	2	mérité	
1037	2	métier	
1038	2	mêmes	
1039	2	nettes	
1040	2	nié	
1041	2	noeud	
1042	2	nourrit	
1043	2	nouveau	
1044	2	nouveaux	
1045	2	novice	
1046	2	nuit	
1047	2	nul	
1048	2	obliger	
1049	2	obtenir	
1050	2	obtenu	
1051	2	offenser	
1052	2	oreille	
1053	2	oublier	
1054	2	outrage	
1055	2	outre	
1056	2	ouverte	
1057	2	ouvre	
1058	2	oyez	
1059	2	pareille	
1060	2	parente	
1061	2	parleur	
1062	2	parti	
1063	2	pensez	
1064	2	perdez	
1065	2	perdue	
1066	2	permise	
1067	2	pesante	
1068	2	petit	
1069	2	peuvent	
1070	2	peux	
1071	2	pire	
1072	2	pis	
1073	2	plaindre	
1074	2	plains	
1075	2	plainte	
1076	2	plein	
1077	2	portrait	
1078	2	possède	
1079	2	pourriez	
1080	2	pouvais	
1081	2	pressée	
1082	2	prie	
1083	2	prisonnier	
1084	2	promet	
1085	2	prudence	
1086	2	préfère	
1087	2	prépare	
1088	2	préparez	
1089	2	présumer	
1090	2	prétendez	
1091	2	prétendre	
1092	2	prétexte	
1093	2	prévenir	
1094	2	prête	
1095	2	pur	
1096	2	pure	
1097	2	quelles	
1098	2	quels	
1099	2	quereller	
1100	2	question	
1101	2	quitter	
1102	2	quitté	
1103	2	rage	
1104	2	railler	
1105	2	raisons	
1106	2	rapporte	
1107	2	ravi	
1108	2	reconnaissance	
1109	2	regarder	
1110	2	ressemble	
1111	2	ressembler	
1112	2	retire	
1113	2	retirer	
1114	2	revers	
1115	2	revoir	
1116	2	rougis	
1117	2	réduit	
1118	2	réduite	
1119	2	répondu	
1120	2	saisi	
1121	2	saoul	
1122	2	satisfaire	
1123	2	satisfait	
1124	2	saurait	
1125	2	saurez	
1126	2	saut	
1127	2	scrupule	
1128	2	second	
1129	2	secrète	
1130	2	semblait	
1131	2	sensible	
1132	2	sentez	
1133	2	senti	
1134	2	serment	
1135	2	sert	
1136	2	service	
1137	2	simple	
1138	2	sinon	
1139	2	soient	
1140	2	songe	
1141	2	sorte	
1142	2	sottes	
1143	2	souffre	
1144	2	soupirants	
1145	2	soupirs	
1146	2	soupçons	
1147	2	soutenir	
1148	2	st	
1149	2	subtil	
1150	2	sue	
1151	2	suivez	
1152	2	suivi	
1153	2	superflus	
1154	2	surprenant	
1155	2	surprenne	
1156	2	sérieux	
1157	2	telles	
1158	2	tendresse	
1159	2	tente	
1160	2	tiendrais	
1161	2	tienne	
1162	2	toucher	
1163	2	touché	
1164	2	tournez	
1165	2	trait	
1166	2	traitant	
1167	2	trembler	
1168	2	trente	
1169	2	triste	
1170	2	trouble	
1171	2	tâche	
1172	2	tâcher	
1173	2	tâché	
1174	2	témoigner	
1175	2	unique	
1176	2	vas	
1177	2	vaux	
1178	2	vendre	
1179	2	verrons	
1180	2	vice	
1181	2	vivement	
1182	2	voie	
1183	2	vont	
1184	2	voudrais	
1185	2	voulait	
1186	2	éblouir	
1187	2	échappe	
1188	2	éclairci	
1189	2	égale	
1190	2	épouse	
1191	2	épouser	
1192	2	épouvante	
1193	2	étiez	
1194	2	étudie	
1195	2	évite	
1196	2	éviter	
1197	1	abaisserai	
1198	1	abaissée	
1199	1	abjure	
1200	1	abordant	
1201	1	abordé	
1202	1	absent	
1203	1	absente	
1204	1	absolu	
1205	1	abusant	
1206	1	abusée	
1207	1	accablé	
1208	1	accepte	
1209	1	accepté	
1210	1	acceptés	
1211	1	accident	
1212	1	accompagner	
1213	1	accorde	
1214	1	accordez	
1215	1	accordé	
1216	1	accourcît	
1217	1	accoutumant	
1218	1	accoutume	
1219	1	accueil	
1220	1	accusait	
1221	1	accuser	
1222	1	accusez	
1223	1	accusé	
1224	1	accès	
1225	1	acheter	
1226	1	achever	
1227	1	achevez	
1228	1	achèvera	
1229	1	achèverait	
1230	1	acquiert	
1231	1	acquis	
1232	1	acquitte	
1233	1	acquitter	
1234	1	admirer	
1235	1	admiré	
1236	1	adorateurs	
1237	1	adore	
1238	1	adorent	
1239	1	adorer	
1240	1	adouci	
1241	1	adoucies	
1242	1	adoucir	
1243	1	adoucit	
1244	1	adressent	
1245	1	adresser	
1246	1	adresses	
1247	1	adressez	
1248	1	adroitement	
1249	1	adultérin	
1250	1	affectant	
1251	1	affectent	
1252	1	affecté	
1253	1	affront	
1254	1	agi	
1255	1	agissez	
1256	1	agit	
1257	1	agrée	
1258	1	aiderai	
1259	1	aigrit	
1260	1	aimais	
1261	1	aimerais	
1262	1	aimé	
1263	1	aimée	
1264	1	aisé	
1265	1	ajuste	
1266	1	alarmer	
1267	1	aliment	
1268	1	allais	
1269	1	alliance	
1270	1	allongé	
1271	1	allons	
1272	1	alphabet	
1273	1	alvarade	
1274	1	amenait	
1275	1	amende	
1276	1	amener	
1277	1	ange	
1278	1	anime	
1279	1	apaisant	
1280	1	apaise	
1281	1	aperçois	
1282	1	appartement	
1283	1	applique	
1284	1	apporte	
1285	1	apprendra	
1286	1	apprendrez	
1287	1	apprends	
1288	1	apprentissage	
1289	1	apprises	
1290	1	approcha	
1291	1	approche	
1292	1	approuver	
1293	1	appui	
1294	1	appuyer	
1295	1	appétit	
1296	1	archi	
1297	1	armes	
1298	1	armée	
1299	1	arrivée	
1300	1	arrivées	
1301	1	arrêtais	
1302	1	arrêtant	
1303	1	arrêtez	
1304	1	assassine	
1305	1	assemblage	
1306	1	assistance	
1307	1	assura	
1308	1	assurer	
1309	1	attaché	
1310	1	attachés	
1311	1	attaques	
1312	1	atteinte	
1313	1	attendait	
1314	1	attendant	
1315	1	attendez	
1316	1	attendra	
1317	1	attendu	
1318	1	attente	
1319	1	atteste	
1320	1	attire	
1321	1	attiré	
1322	1	attrape	
1323	1	attrapera	
1324	1	attrapés	
1325	1	autorisait	
1326	1	autrui	
1327	1	avançais	
1328	1	averti	
1329	1	avoue	
1330	1	avouer	
1331	1	avouerai	
1332	1	avouerez	
1333	1	avouez	
1334	1	babillé	
1335	1	badin	
1336	1	badiner	
1337	1	bagage	
1338	1	bail	
1339	1	bailles	
1340	1	baillez	
1341	1	bannissement	
1342	1	batterie	
1343	1	battre	
1344	1	baye	
1345	1	beautés	
1346	1	beaux	
1347	1	ben	
1348	1	bienséance	
1349	1	blessure	
1350	1	blessé	
1351	1	bonhomme	
1352	1	bontés	
1353	1	bord	
1354	1	bouche	
1355	1	bouger	
1356	1	bourse	
1357	1	bourses	
1358	1	bragues	
1359	1	breuvage	
1360	1	bridé	
1361	1	brillant	
1362	1	brille	
1363	1	brouillé	
1364	1	brûla	
1365	1	brûlant	
1366	1	brûle	
1367	1	brûlement	
1368	1	brûler	
1369	1	brûlez	
1370	1	cabinet	
1371	1	cajole	
1372	1	cajoler	
1373	1	calcul	
1374	1	calmer	
1375	1	captiver	
1376	1	car	
1377	1	casaque	
1378	1	cassée	
1379	1	causeur	
1380	1	celles	
1381	1	certaine	
1382	1	certitude	
1383	1	cervelle	
1384	1	ceux	
1385	1	chagriné	
1386	1	chaleur	
1387	1	chance	
1388	1	changez	
1389	1	charitable	
1390	1	charma	
1391	1	charmante	
1392	1	charme	
1393	1	chasse	
1394	1	chaud	
1395	1	chemin	
1396	1	cher	
1397	1	cherchent	
1398	1	cherché	
1399	1	chevaux	
1400	1	choisies	
1401	1	choisirais	
1402	1	choisis	
1403	1	choisissaient	
1404	1	choquera	
1405	1	choses	
1406	1	chéris	
1407	1	chérit	
1408	1	chétif	
1409	1	civil	
1410	1	civilité	
1411	1	clair	
1412	1	clartés	
1413	1	clause	
1414	1	clôture	
1415	1	coffré	
1416	1	colet	
1417	1	collet	
1418	1	combien	
1419	1	comblant	
1420	1	comblera	
1421	1	commence	
1422	1	commencer	
1423	1	commencé	
1424	1	commença	
1425	1	commerce	
1426	1	communs	
1427	1	compassion	
1428	1	compassive	
1429	1	compliments	
1430	1	complimentée	
1431	1	comprendre	
1432	1	comédie	
1433	1	concerterons	
1434	1	concertée	
1435	1	condamne	
1436	1	conduirai	
1437	1	confesse	
1438	1	confiance	
1439	1	confirmé	
1440	1	confié	
1441	1	confonds	
1442	1	confrérie	
1443	1	confus	
1444	1	conjectures	
1445	1	conjurée	
1446	1	connaissais	
1447	1	connaissait	
1448	1	connaissant	
1449	1	connût	
1450	1	conscience	
1451	1	conseille	
1452	1	consens	
1453	1	consent	
1454	1	consentes	
1455	1	consentez	
1456	1	console	
1457	1	conspire	
1458	1	constant	
1459	1	constante	
1460	1	constants	
1461	1	consulte	
1462	1	consumer	
1463	1	contemplation	
1464	1	contez	
1465	1	continuer	
1466	1	continuez	
1467	1	contraint	
1468	1	contrainte	
1469	1	contrat	
1470	1	contrefaçon	
1471	1	contrit	
1472	1	conçu	
1473	1	copie	
1474	1	copié	
1475	1	coquet	
1476	1	coquetterie	
1477	1	coquine	
1478	1	corps	
1479	1	corrompe	
1480	1	couche	
1481	1	courage	
1482	1	coureuse	
1483	1	courir	
1484	1	cours	
1485	1	couverts	
1486	1	coûte	
1487	1	coûter	
1488	1	coûteront	
1489	1	craignent	
1490	1	creuses	
1491	1	croirais	
1492	1	croirait	
1493	1	croirez	
1494	1	croyance	
1495	1	croître	
1496	1	crudités	
1497	1	crue	
1498	1	cruellement	
1499	1	crut	
1500	1	crédule	
1501	1	crédulité	
1502	1	cul	
1503	1	cure	
1504	1	curiosité	
1505	1	cèlerai	
1506	1	céder	
1507	1	côté	
1508	1	daigniez	
1509	1	dangereux	
1510	1	danser	
1511	1	darder	
1512	1	davantage	
1513	1	dea	
1514	1	degrés	
1515	1	demandez	
1516	1	demeurant	
1517	1	demeure	
1518	1	demeurer	
1519	1	demeurera	
1520	1	demeuré	
1521	1	derniers	
1522	1	derrière	
1523	1	descendre	
1524	1	devez	
1525	1	devient	
1526	1	devinera	
1527	1	devraient	
1528	1	devrais	
1529	1	devrait	
1530	1	difficulté	
1531	1	différer	
1532	1	dirais	
1533	1	direz	
1534	1	disais	
1535	1	disait	
1536	1	disant	
1537	1	discourir	
1538	1	discours	
1539	1	dise	
1540	1	diseurs	
1541	1	disiez	
1542	1	dispense	
1543	1	disputons	
1544	1	dissimuler	
1545	1	diverses	
1546	1	divertir	
1547	1	divertissent	
1548	1	divisé	
1549	1	doive	
1550	1	doivent	
1551	1	dolent	
1552	1	donnant	
1553	1	donnera	
1554	1	donnez	
1555	1	donné	
1556	1	donzelle	
1557	1	dors	
1558	1	dos	
1559	1	dot	
1560	1	doublant	
1561	1	double	
1562	1	doubler	
1563	1	doublerait	
1564	1	doubleriez	
1565	1	douce	
1566	1	douteux	
1567	1	doutiez	
1568	1	drap	
1569	1	dressé	
1570	1	duc	
1571	1	duchesse	
1572	1	dupé	
1573	1	durer	
1574	1	dus	
1575	1	débiter	
1576	1	décevoir	
1577	1	déchargée	
1578	1	déchirée	
1579	1	décider	
1580	1	déclare	
1581	1	déclarent	
1582	1	déclarer	
1583	1	déclaré	
1584	1	déclarée	
1585	1	déconcerté	
1586	1	découvre	
1587	1	décret	
1588	1	dédaignent	
1589	1	dédaignez	
1590	1	dédupée	
1591	1	défaire	
1592	1	défaite	
1593	1	défauts	
1594	1	défend	
1595	1	défendaient	
1596	1	défende	
1597	1	défendu	
1598	1	défiances	
1599	1	défierez	
1600	1	déférant	
1601	1	dégager	
1602	1	dégagez	
1603	1	dégrenadez	
1604	1	déguisement	
1605	1	déguiser	
1606	1	délai	
1607	1	délaissée	
1608	1	délibérer	
1609	1	délicat	
1610	1	délivre	
1611	1	délivré	
1612	1	démentir	
1613	1	démon	
1614	1	démêler	
1615	1	départ	
1616	1	dépendait	
1617	1	dépends	
1618	1	dépense	
1619	1	déplaire	
1620	1	déplorable	
1621	1	déplu	
1622	1	dés	
1623	1	désabuse	
1624	1	désabuser	
1625	1	désastre	
1626	1	désavantage	
1627	1	désaveu	
1628	1	désavoue	
1629	1	désert	
1630	1	désespéré	
1631	1	déshonorant	
1632	1	désir	
1633	1	désordre	
1634	1	déterminer	
1635	1	détourner	
1636	1	détruisent	
1637	1	efface	
1638	1	effets	
1639	1	effigie	
1640	1	efforts	
1641	1	effroyable	
1642	1	eh	
1643	1	embarrasser	
1644	1	embarrasseras	
1645	1	embourber	
1646	1	embrasser	
1647	1	emploierai	
1648	1	employer	
1649	1	emportant	
1650	1	emprisonnement	
1651	1	emprunteriez	
1652	1	empêcher	
1653	1	encore	
1654	1	endionisez	
1655	1	endroits	
1656	1	endurante	
1657	1	enflamme	
1658	1	engageant	
1659	1	engagement	
1660	1	engagée	
1661	1	engendré	
1662	1	enivre	
1663	1	enjoué	
1664	1	ennuyer	
1665	1	enragera	
1666	1	enrageriez	
1667	1	enregistré	
1668	1	ensuite	
1669	1	entend	
1670	1	entendez	
1671	1	entends	
1672	1	entier	
1673	1	entière	
1674	1	entrai	
1675	1	entrant	
1676	1	entraîne	
1677	1	entreprendrai	
1678	1	entreprendras	
1679	1	entrepris	
1680	1	entrerez	
1681	1	entretenu	
1682	1	entretiens	
1683	1	entretint	
1684	1	entré	
1685	1	enveloppe	
1686	1	envi	
1687	1	envier	
1688	1	errants	
1689	1	esclave	
1690	1	espérer	
1691	1	espérez	
1692	1	espérons	
1693	1	espéré	
1694	1	essai	
1695	1	essayerais	
1696	1	estomac	
1697	1	estropié	
1698	1	eus	
1699	1	eussent	
1700	1	exact	
1701	1	exacte	
1702	1	examine	
1703	1	excuses	
1704	1	excusez	
1705	1	excès	
1706	1	expliquant	
1707	1	expliquez	
1708	1	expliqué	
1709	1	expédient	
1710	1	expérience	
1711	1	exécuter	
1712	1	fable	
1713	1	facile	
1714	1	faculté	
1715	1	fades	
1716	1	faible	
1717	1	faibles	
1718	1	faiblesse	
1719	1	faille	
1720	1	faisait	
1721	1	faits	
1722	1	fard	
1723	1	fat	
1724	1	fatal	
1725	1	faussement	
1726	1	faute	
1727	1	favori	
1728	1	favorise	
1729	1	favoriser	
1730	1	feindrai	
1731	1	feint	
1732	1	femmes	
1733	1	fenêtre	
1734	1	fera	
1735	1	feraient	
1736	1	feriez	
1737	1	ferions	
1738	1	ferme	
1739	1	fermeté	
1740	1	fermé	
1741	1	fernands	
1742	1	fers	
1743	1	fiction	
1744	1	fiera	
1745	1	fiers	
1746	1	fiez	
1747	1	filet	
1748	1	filou	
1749	1	fine	
1750	1	fini	
1751	1	finir	
1752	1	finis	
1753	1	flammes	
1754	1	flattée	
1755	1	flattés	
1756	1	fleurettes	
1757	1	fleuri	
1758	1	fleuve	
1759	1	flétrit	
1760	1	fol	
1761	1	fondement	
1762	1	fondé	
1763	1	forcer	
1764	1	forcée	
1765	1	forcés	
1766	1	forger	
1767	1	forgée	
1768	1	forme	
1769	1	fortement	
1770	1	fortune	
1771	1	forçat	
1772	1	foudre	
1773	1	fougue	
1774	1	fourbes	
1775	1	fragilité	
1776	1	frais	
1777	1	franchir	
1778	1	frappez	
1779	1	friands	
1780	1	fripon	
1781	1	friponne	
1782	1	friponnerie	
1783	1	friponneries	
1784	1	froid	
1785	1	froids	
1786	1	front	
1787	1	frotté	
1788	1	frénésies	
1789	1	fréquentes	
1790	1	fumée	
1791	1	funeste	
1792	1	furieux	
1793	1	fâchent	
1794	1	fâcheuse	
1795	1	fâché	
1796	1	gageure	
1797	1	gagne	
1798	1	gagnons	
1799	1	gagné	
1800	1	galamment	
1801	1	galantifiée	
1802	1	galerie	
1803	1	garant	
1804	1	gardent	
1805	1	garou	
1806	1	gentilhomme	
1807	1	gentillesses	
1808	1	glorieux	
1809	1	glose	
1810	1	grandes	
1811	1	gratis	
1812	1	grillé	
1813	1	grimace	
1814	1	gripper	
1815	1	gronde	
1816	1	gronder	
1817	1	grossir	
1818	1	grossières	
1819	1	gueuse	
1820	1	gueuses	
1821	1	gusman	
1822	1	gâté	
1823	1	gémit	
1824	1	gîte	
1825	1	habits	
1826	1	habitude	
1827	1	hais	
1828	1	haranguera	
1829	1	hardi	
1830	1	hasardant	
1831	1	hasarderais	
1832	1	haute	
1833	1	haïr	
1834	1	heureuse	
1835	1	heureuses	
1836	1	hibou	
1837	1	homicidé	
1838	1	honteux	
1839	1	horoscope	
1840	1	hyménée	
1841	1	hâtait	
1842	1	hâte	
1843	1	hâté	
1844	1	hérétique	
1845	1	ignorer	
1846	1	imparfaite	
1847	1	impatience	
1848	1	implorer	
1849	1	importe	
1850	1	importune	
1851	1	impossible	
1852	1	imposture	
1853	1	impropre	
1854	1	imprévu	
1855	1	imprévue	
1856	1	imprévues	
1857	1	impudent	
1858	1	impute	
1859	1	imputé	
1860	1	impérieuse	
1861	1	incapable	
1862	1	incartade	
1863	1	inclination	
1864	1	incommode	
1865	1	incongruité	
1866	1	incorruptible	
1867	1	incrédule	
1868	1	indifférence	
1869	1	indifférente	
1870	1	indigestion	
1871	1	indubitable	
1872	1	industrie	
1873	1	informer	
1874	1	informée	
1875	1	ingrat	
1876	1	ingrate	
1877	1	inquiète	
1878	1	inquiétude	
1879	1	instants	
1880	1	insulter	
1881	1	intelligence	
1882	1	intelligente	
1883	1	interdite	
1884	1	intervalle	
1885	1	intestins	
1886	1	intrigue	
1887	1	intrigues	
1888	1	intéresse	
1889	1	inutile	
1890	1	inventer	
1891	1	inventez	
1892	1	inventé	
1893	1	irait	
1894	1	irions	
1895	1	issue	
1896	1	jacinthe	
1897	1	jaseur	
1898	1	joint	
1899	1	jouant	
1900	1	jouez	
1901	1	jugeant	
1902	1	jugera	
1903	1	jugerais	
1904	1	juges	
1905	1	jugez	
1906	1	jugiez	
1907	1	jupes	
1908	1	jurer	
1909	1	juré	
1910	1	justement	
1911	1	justesse	
1912	1	laissant	
1913	1	laissera	
1914	1	laisserez	
1915	1	laisses	
1916	1	langue	
1917	1	langueurs	
1918	1	languisse	
1919	1	languit	
1920	1	laquais	
1921	1	las	
1922	1	lequel	
1923	1	lettres	
1924	1	leurre	
1925	1	levé	
1926	1	lieutenant	
1927	1	lisez	
1928	1	livre	
1929	1	livrer	
1930	1	logeant	
1931	1	long	
1932	1	lope	
1933	1	lors	
1934	1	loue	
1935	1	louer	
1936	1	loup	
1937	1	lu	
1938	1	lâches	
1939	1	légitime	
1940	1	légère	
1941	1	magasin	
1942	1	mai	
1943	1	maintien	
1944	1	malaisé	
1945	1	malencontreux	
1946	1	malheurs	
1947	1	manche	
1948	1	mander	
1949	1	mange	
1950	1	manquait	
1951	1	manquant	
1952	1	manque	
1953	1	manquer	
1954	1	marchandise	
1955	1	marchons	
1956	1	marie	
1957	1	marier	
1958	1	maris	
1959	1	marié	
1960	1	marque	
1961	1	marquis	
1962	1	martel	
1963	1	martyre	
1964	1	masque	
1965	1	massé	
1966	1	matin	
1967	1	matoise	
1968	1	matrimonium	
1969	1	maudit	
1970	1	maux	
1971	1	maxime	
1972	1	maîtresses	
1973	1	meilleure	
1974	1	menait	
1975	1	mentir	
1976	1	merveilleux	
1977	1	mesdames	
1978	1	mesures	
1979	1	mets	
1980	1	mettant	
1981	1	mettons	
1982	1	meuble	
1983	1	meubles	
1984	1	meurt	
1985	1	meurtre	
1986	1	milieu	
1987	1	minois	
1988	1	miracle	
1989	1	miroir	
1990	1	misérable	
1991	1	mode	
1992	1	modestement	
1993	1	monde	
1994	1	montrer	
1995	1	morale	
1996	1	moule	
1997	1	mourir	
1998	1	muette	
1999	1	murmurer	
2000	1	mutinerie	
2001	1	méchante	
2002	1	médisance	
2003	1	méditez	
2004	1	mémoire	
2005	1	ménage	
2006	1	méprisent	
2007	1	méthode	
2008	1	nature	
2009	1	naturel	
2010	1	naturelle	
2011	1	naufrage	
2012	1	navrant	
2013	1	naît	
2014	1	nez	
2015	1	niant	
2016	1	nier	
2017	1	noble	
2018	1	noeuds	
2019	1	nombre	
2020	1	nommaient	
2021	1	nommant	
2022	1	nomme	
2023	1	nommez	
2024	1	nota	
2025	1	note	
2026	1	nourrirai	
2027	1	nr	
2028	1	nécessité	
2029	1	née	
2030	1	néglige	
2031	1	négliger	
2032	1	nés	
2033	1	obligeait	
2034	1	obscur	
2035	1	obscurité	
2036	1	obscurités	
2037	1	obstination	
2038	1	obstiner	
2039	1	obstinée	
2040	1	obstinément	
2041	1	obsédés	
2042	1	obtenue	
2043	1	obtiendrons	
2044	1	obtiens	
2045	1	obtient	
2046	1	oeil	
2047	1	offense	
2048	1	offensée	
2049	1	office	
2050	1	ombrages	
2051	1	opposant	
2052	1	opposer	
2053	1	opposât	
2054	1	opposés	
2055	1	orage	
2056	1	orgueil	
2057	1	original	
2058	1	osai	
2059	1	oses	
2060	1	osez	
2061	1	osé	
2062	1	oubliai	
2063	1	outrageant	
2064	1	ouvert	
2065	1	ouvrez	
2066	1	ouvrir	
2067	1	ouï	
2068	1	ouïe	
2069	1	palpitant	
2070	1	panneau	
2071	1	paralytique	
2072	1	pareil	
2073	1	pareils	
2074	1	parent	
2075	1	parfaite	
2076	1	parlai	
2077	1	parlait	
2078	1	parles	
2079	1	partager	
2080	1	partageât	
2081	1	partant	
2082	1	passage	
2083	1	passait	
2084	1	passant	
2085	1	passent	
2086	1	passeriez	
2087	1	passés	
2088	1	patibulairement	
2089	1	paye	
2090	1	payera	
2091	1	payerez	
2092	1	payez	
2093	1	pays	
2094	1	peines	
2095	1	peint	
2096	1	peinture	
2097	1	pendre	
2098	1	pendu	
2099	1	pensant	
2100	1	pensent	
2101	1	pensée	
2102	1	percé	
2103	1	perds	
2104	1	permet	
2105	1	permette	
2106	1	permettre	
2107	1	permis	
2108	1	perruque	
2109	1	personnages	
2110	1	persuade	
2111	1	persuader	
2112	1	perte	
2113	1	perçant	
2114	1	pester	
2115	1	piller	
2116	1	pitié	
2117	1	piège	
2118	1	piéger	
2119	1	placer	
2120	1	plaigne	
2121	1	plaignez	
2122	1	plairait	
2123	1	plais	
2124	1	planètes	
2125	1	pleine	
2126	1	plu	
2127	1	plupart	
2128	1	plût	
2129	1	poisson	
2130	1	poli	
2131	1	polis	
2132	1	portais	
2133	1	porté	
2134	1	possible	
2135	1	posséder	
2136	1	possédé	
2137	1	poste	
2138	1	pourraient	
2139	1	pourrez	
2140	1	pourrions	
2141	1	poursuite	
2142	1	pourvoir	
2143	1	poussant	
2144	1	pouvant	
2145	1	pouvons	
2146	1	ppère	
2147	1	pratique	
2148	1	pratiquer	
2149	1	premier	
2150	1	premiers	
2151	1	première	
2152	1	premières	
2153	1	prenait	
2154	1	prendra	
2155	1	prendrai	
2156	1	prendrais	
2157	1	prendrait	
2158	1	prendrez	
2159	1	pressant	
2160	1	pressante	
2161	1	pressants	
2162	1	presser	
2163	1	pressez	
2164	1	priai	
2165	1	priant	
2166	1	pries	
2167	1	primauté	
2168	1	prise	
2169	1	privilège	
2170	1	privât	
2171	1	privé	
2172	1	prières	
2173	1	procédé	
2174	1	profondément	
2175	1	promenade	
2176	1	promener	
2177	1	promettre	
2178	1	promis	
2179	1	promise	
2180	1	prompt	
2181	1	promptement	
2182	1	prompts	
2183	1	propice	
2184	1	propose	
2185	1	proposer	
2186	1	proposé	
2187	1	propre	
2188	1	propres	
2189	1	protestants	
2190	1	protestation	
2191	1	protester	
2192	1	prouve	
2193	1	prouvera	
2194	1	provincialement	
2195	1	provinciaux	
2196	1	provision	
2197	1	prude	
2198	1	pruderie	
2199	1	précipitez	
2200	1	précédé	
2201	1	préférons	
2202	1	présent	
2203	1	présente	
2204	1	prétend	
2205	1	prétendait	
2206	1	prétendiez	
2207	1	prétexter	
2208	1	prévalait	
2209	1	prévenu	
2210	1	prévenue	
2211	1	préviendrai	
2212	1	prévoyance	
2213	1	prêcher	
2214	1	prêter	
2215	1	prêts	
2216	1	prêté	
2217	1	puissance	
2218	1	puissantes	
2219	1	puissants	
2220	1	punit	
2221	1	pusillanime	
2222	1	pécheur	
2223	1	péché	
2224	1	péchés	
2225	1	pénétrer	
2226	1	périrai	
2227	1	qualités	
2228	1	quasi	
2229	1	questionner	
2230	1	questions	
2231	1	quiconque	
2232	1	quittant	
2233	1	quittes	
2234	1	quittez	
2235	1	rabais	
2236	1	rabat	
2237	1	rabattu	
2238	1	racine	
2239	1	raffinés	
2240	1	ragoûts	
2241	1	raille	
2242	1	raillerie	
2243	1	railleurs	
2244	1	range	
2245	1	ravis	
2246	1	rechute	
2247	1	reconnaît	
2248	1	reconnu	
2249	1	recourir	
2250	1	recouvrer	
2251	1	redire	
2252	1	redoublera	
2253	1	redoublât	
2254	1	refroidir	
2255	1	refus	
2256	1	refuse	
2257	1	regarde	
2258	1	regards	
2259	1	remarqué	
2260	1	remercierais	
2261	1	remettez	
2262	1	remettre	
2263	1	remplir	
2264	1	rencontrais	
2265	1	rencontrer	
2266	1	rendais	
2267	1	rendit	
2268	1	rendra	
2269	1	rendu	
2270	1	renommée	
2271	1	rente	
2272	1	rentes	
2273	1	renverser	
2274	1	renvoi	
2275	1	repaître	
2276	1	repent	
2277	1	repentir	
2278	1	reproches	
2279	1	respects	
2280	1	ressemblances	
2281	1	ressemblera	
2282	1	ressemblé	
2283	1	ressent	
2284	1	ressentiment	
2285	1	ressorts	
2286	1	ressource	
2287	1	restant	
2288	1	rester	
2289	1	resterait	
2290	1	restiez	
2291	1	retardement	
2292	1	retiens	
2293	1	retirez	
2294	1	retomber	
2295	1	retrancher	
2296	1	revanche	
2297	1	revenu	
2298	1	reviens	
2299	1	revient	
2300	1	revu	
2301	1	reçois	
2302	1	reçut	
2303	1	rigoureux	
2304	1	rigueurs	
2305	1	ris	
2306	1	risquant	
2307	1	risquerez	
2308	1	rompu	
2309	1	rougir	
2310	1	roule	
2311	1	roué	
2312	1	rues	
2313	1	ruine	
2314	1	ruse	
2315	1	rusé	
2316	1	règle	
2317	1	règne	
2318	1	réciproque	
2319	1	récit	
2320	1	récits	
2321	1	récompense	
2322	1	réduire	
2323	1	réduis	
2324	1	réflexion	
2325	1	réglera	
2326	1	réjouie	
2327	1	réjouissez	
2328	1	répond	
2329	1	répondait	
2330	1	réserve	
2331	1	résister	
2332	1	résolu	
2333	1	résoudra	
2334	1	résoudrez	
2335	1	résout	
2336	1	rêverie	
2337	1	rêveurs	
2338	1	sachiez	
2339	1	sages	
2340	1	saisie	
2341	1	saison	
2342	1	sang	
2343	1	satire	
2344	1	saurai	
2345	1	saurais	
2346	1	sauter	
2347	1	sauve	
2348	1	savait	
2349	1	savent	
2350	1	secondant	
2351	1	seconde	
2352	1	secourir	
2353	1	selles	
2354	1	selon	
2355	1	sembla	
2356	1	semblent	
2357	1	sembler	
2358	1	sentant	
2359	1	sentis	
2360	1	seras	
2361	1	sied	
2362	1	signe	
2363	1	silence	
2364	1	sincère	
2365	1	singe	
2366	1	sitôt	
2367	1	six	
2368	1	solidité	
2369	1	somme	
2370	1	sonderez	
2371	1	sortez	
2372	1	sorti	
2373	1	sortie	
2374	1	sot	
2375	1	sots	
2376	1	sotte	
2377	1	sottise	
2378	1	sottises	
2379	1	sou	
2380	1	souffleter	
2381	1	soufflets	
2382	1	souffrez	
2383	1	souhaits	
2384	1	soulager	
2385	1	soulagez	
2386	1	soulagé	
2387	1	soupirer	
2388	1	soupçonner	
2389	1	sourd	
2390	1	sourde	
2391	1	sourit	
2392	1	souscrivit	
2393	1	soutenant	
2394	1	soutiendra	
2395	1	soutient	
2396	1	souvenez	
2397	1	souvenir	
2398	1	souvient	
2399	1	station	
2400	1	style	
2401	1	subtiles	
2402	1	succède	
2403	1	sucrer	
2404	1	suffira	
2405	1	suffocation	
2406	1	sui	
2407	1	suivant	
2408	1	suivantes	
2409	1	sujets	
2410	1	superflu	
2411	1	suppléer	
2412	1	surcroît	
2413	1	surdité	
2414	1	surmonter	
2415	1	surnom	
2416	1	surprend	
2417	1	suspecte	
2418	1	suspend	
2419	1	sut	
2420	1	séduire	
2421	1	séparés	
2422	1	sûr	
2423	1	sûres	
2424	1	sût	
2425	1	tablature	
2426	1	tacet	
2427	1	tairas	
2428	1	tais	
2429	1	tait	
2430	1	talents	
2431	1	tante	
2432	1	tard	
2433	1	tarde	
2434	1	tardive	
2435	1	teint	
2436	1	tellement	
2437	1	tenait	
2438	1	tenant	
2439	1	tendre	
2440	1	tentes	
2441	1	terme	
2442	1	termes	
2443	1	terriblement	
2444	1	tiendra	
2445	1	tiennent	
2446	1	tiennes	
2447	1	tingue	
2448	1	tins	
2449	1	tire	
2450	1	titre	
2451	1	titrera	
2452	1	tombe	
2453	1	tomber	
2454	1	tombé	
2455	1	tope	
2456	1	torres	
2457	1	torture	
2458	1	touchant	
2459	1	touche	
2460	1	touchent	
2461	1	toucherait	
2462	1	tour	
2463	1	tourmente	
2464	1	tournes	
2465	1	tours	
2466	1	toux	
2467	1	traiter	
2468	1	trancher	
2469	1	transport	
2470	1	traversé	
2471	1	traître	
2472	1	tristes	
2473	1	trompant	
2474	1	trompe	
2475	1	tromper	
2476	1	trompeur	
2477	1	trompez	
2478	1	troubler	
2479	1	troupe	
2480	1	trousser	
2481	1	trouvait	
2482	1	trouverais	
2483	1	trouveriez	
2484	1	trouveront	
2485	1	trouves	
2486	1	trouvez	
2487	1	trouviez	
2488	1	trouvées	
2489	1	très	
2490	1	tuer	
2491	1	tué	
2492	1	tâcherais	
2493	1	tâchons	
2494	1	tâte	
2495	1	tâter	
2496	1	tâtons	
2497	1	témoignage	
2498	1	témoigne	
2499	1	témoin	
2500	1	témérité	
2501	1	ténébrosité	
2502	1	tête	
2503	1	union	
2504	1	usant	
2505	1	use	
2506	1	vains	
2507	1	valable	
2508	1	valent	
2509	1	vendant	
2510	1	vengé	
2511	1	veniez	
2512	1	venise	
2513	1	vent	
2514	1	venteuses	
2515	1	venue	
2516	1	verbaliser	
2517	1	verra	
2518	1	verraient	
2519	1	verrait	
2520	1	verras	
2521	1	verriez	
2522	1	verrions	
2523	1	vers	
2524	1	veuve	
2525	1	viandes	
2526	1	victoire	
2527	1	vidé	
2528	1	vieil	
2529	1	vieillard	
2530	1	vieille	
2531	1	viendra	
2532	1	viendrai	
2533	1	viendrez	
2534	1	viennes	
2535	1	vieux	
2536	1	vif	
2537	1	vifs	
2538	1	violents	
2539	1	visible	
2540	1	vivante	
2541	1	vivants	
2542	1	vol	
2543	1	volatils	
2544	1	volontés	
2545	1	voudrait	
2546	1	voudrez	
2547	1	voulant	
2548	1	vouliez	
2549	1	voyais	
2550	1	vraie	
2551	1	vraiment	
2552	1	vraisemblable	
2553	1	vraisemblablement	
2554	1	vus	
2555	1	véritable	
2556	1	vêtant	
2557	1	vît	
2558	1	vôtres	
2559	1	zèle	
2560	1	âge	
2561	1	âges	
2562	1	âmes	
2563	1	éblouit	
2564	1	échine	
2565	1	échoir	
2566	1	échu	
2567	1	éclaircies	
2568	1	éclaircirons	
2569	1	éclaircissements	
2570	1	éclaircissez	
2571	1	éclatent	
2572	1	éclater	
2573	1	école	
2574	1	écoule	
2575	1	écouté	
2576	1	également	
2577	1	égalité	
2578	1	éloignement	
2579	1	éloignez	
2580	1	émotion	
2581	1	énigme	
2582	1	épie	
2583	1	épousiez	
2584	1	épreuve	
2585	1	épris	
2586	1	éprouver	
2587	1	équivoque	
2588	1	ériger	
2589	1	étages	
2590	1	étaient	
2591	1	éteindrai	
2592	1	étendent	
2593	1	étonnant	
2594	1	étonnement	
2595	1	étonnez	
2596	1	étouffent	
2597	1	étourdis	
2598	1	étude	
2599	1	étudierez	
2600	1	évadé	
2601	1	évidente	
2602	1	évitais	
2603	1	ôté	
