1,463,de
2,417,et
3,409,l
4,382,le
5,380,à
6,345,que
7,343,vous
8,323,il
9,317,en
10,311,un
11,306,qu
12,291,je
13,247,d
14,241,pour
15,228,la
16,224,est
17,221,ce
18,178,si
19,162,qui
20,156,m
21,153,mon
22,146,ne
23,146,son
24,144,me
25,138,n
26,134,j
27,123,ma
28,123,mais
29,111,s
30,99,sa
31,97,par
32,97,plus
33,93,au
34,89,darius
35,84,du
36,83,c
37,78,a
38,78,lui
39,78,moi
40,77,roi
41,75,coeur
42,75,tu
43,74,sans
44,73,les
45,68,se
46,68,tout
47,67,fait
48,66,ai
49,66,dans
50,66,on
51,65,une
52,60,trop
53,60,votre
54,56,sang
55,55,pas
56,54,quoi
57,52,sur
58,51,t
59,51,te
60,50,quand
61,49,point
62,48,amour
63,47,ta
64,47,ton
65,46,dont
66,46,mes
67,46,rien
68,45,des
69,44,nom
70,44,peut
71,44,être
72,43,bien
73,43,y
74,42,seigneur
75,42,sort
76,41,ses
77,41,vertu
78,39,où
79,39,princesse
80,38,nous
81,38,secret
82,37,codoman
83,37,gloire
84,37,non
85,35,elle
86,35,ou
87,34,faut
88,34,moins
89,34,peu
90,34,toi
91,33,enfin
92,32,doit
93,32,espoir
94,32,mégabise
95,31,grand
96,31,vois
97,30,faire
98,30,âme
99,29,ah
100,29,cet
101,29,crime
102,29,dois
103,29,madame
104,29,peuple
105,28,cette
106,28,ils
107,27,mort
108,26,leur
109,26,même
110,26,prince
111,26,voir
112,26,zèle
113,24,aimer
114,24,foi
115,24,soit
116,24,vos
117,23,assez
118,23,avec
119,23,contre
120,23,rang
121,23,trône
122,22,comme
123,22,hymen
124,22,ont
125,22,puis
126,22,voeux
127,21,ardeur
128,21,ciel
129,21,connaître
130,21,fils
131,21,ordre
132,21,ose
133,21,peine
134,21,quelque
135,21,sais
136,21,suis
137,20,audace
138,20,aux
139,20,effort
140,20,quel
141,20,seul
142,20,su
143,19,après
144,19,choix
145,19,doute
146,19,jamais
147,19,lâche
148,19,oui
149,19,sont
150,19,vain
151,18,aime
152,18,aveu
153,18,devoir
154,18,flamme
155,18,haine
156,18,ochus
157,18,orgueil
158,17,ces
159,17,destin
160,17,doux
161,17,eût
162,17,naissance
163,17,pu
164,17,rendre
165,17,tant
166,17,toujours
167,17,tous
168,16,crains
169,16,encor
170,16,veut
171,15,aujourd
172,15,couronne
173,15,hui
174,15,jusqu
175,15,paraître
176,15,pouvoir
177,15,puisqu
178,15,puisque
179,15,refus
180,15,souffrir
181,15,tiribase
182,15,veux
183,14,ait
184,14,autre
185,14,bruit
186,14,craindre
187,14,croire
188,14,déjà
189,14,imposture
190,14,père
191,14,tes
192,14,va
193,14,vie
194,14,viens
195,14,vrai
196,14,éclat
197,13,ainsi
198,13,appui
199,13,avant
200,13,avoir
201,13,ayant
202,13,cherche
203,13,cru
204,13,dieux
205,13,désirs
206,13,feu
207,13,hélas
208,13,imposteur
209,13,malheur
210,13,nos
211,13,prix
212,13,régner
213,13,serait
214,13,seule
215,12,avez
216,12,coupable
217,12,croit
218,12,donner
219,12,empire
220,12,extrême
221,12,force
222,12,grâce
223,12,ici
224,12,indigne
225,12,jaloux
226,12,mal
227,12,mérite
228,12,rigueur
229,11,beau
230,11,crois
231,11,découvrir
232,11,espère
233,11,espérance
234,11,estime
235,11,faux
236,11,fit
237,11,fourbe
238,11,laisse
239,11,lieu
240,11,là
241,11,main
242,11,maître
243,11,mieux
244,11,perse
245,11,prétendre
246,11,rend
247,11,taire
248,11,trahir
249,11,état
250,10,ailleurs
251,10,aura
252,10,cent
253,10,courroux
254,10,dis
255,10,droit
256,10,grands
257,10,justifier
258,10,malgré
259,10,perd
260,10,perte
261,10,prendre
262,10,pût
263,10,quelle
264,10,scrupule
265,10,secrets
266,10,soeur
267,10,surprise
268,10,voyez
269,9,accord
270,9,alors
271,9,aspire
272,9,chaleur
273,9,demande
274,9,disgrâce
275,9,dit
276,9,effet
277,9,entreprise
278,9,factieux
279,9,faveur
280,9,frère
281,9,intérêt
282,9,jugez
283,9,mien
284,9,murmure
285,9,naître
286,9,offre
287,9,outrage
288,9,péril
289,9,raison
290,9,sait
291,9,savoir
292,9,sens
293,9,sentiments
294,9,succès
295,8,agir
296,8,amant
297,8,ambition
298,8,amis
299,8,attentat
300,8,aucun
301,8,aussi
302,8,coeurs
303,8,consens
304,8,digne
305,8,donne
306,8,douter
307,8,droits
308,8,erreur
309,8,faiblesse
310,8,fatal
311,8,font
312,8,fut
313,8,glorieux
314,8,haut
315,8,héros
316,8,injustice
317,8,jour
318,8,jours
319,8,juste
320,8,leurs
321,8,loin
322,8,lorsque
323,8,malheureux
324,8,montrer
325,8,mourir
326,8,paix
327,8,parle
328,8,prend
329,8,répondre
330,8,saura
331,8,secours
332,8,soin
333,8,soins
334,8,souffre
335,8,souhaits
336,8,traître
337,8,triste
338,8,trouble
339,8,vient
340,8,yeux
341,8,époux
342,8,êtes
343,7,abandonne
344,7,abus
345,7,amestris
346,7,ami
347,7,appas
348,7,apprendre
349,7,as
350,7,assurer
351,7,aurait
352,7,charme
353,7,charmes
354,7,colère
355,7,coup
356,7,dessein
357,7,diadème
358,7,dire
359,7,défendre
360,7,expliquer
361,7,ingrat
362,7,inspire
363,7,intéresse
364,7,laisser
365,7,obtenir
366,7,obéir
367,7,ordonne
368,7,peux
369,7,porte
370,7,puisse
371,7,rage
372,7,revers
373,7,sentiment
374,7,soupçon
375,7,sujet
376,7,tiens
377,7,toute
378,7,téméraire
379,7,voit
380,7,épargner
381,6,abord
382,6,abuser
383,6,bonheur
384,6,bras
385,6,conjurés
386,6,connu
387,6,deux
388,6,dites
389,6,dû
390,6,emporte
391,6,engage
392,6,fais
393,6,favorable
394,6,fierté
395,6,forcer
396,6,fureur
397,6,haute
398,6,heur
399,6,hommage
400,6,horreur
401,6,longtemps
402,6,menace
403,6,moyen
404,6,mériter
405,6,nature
406,6,noble
407,6,objet
408,6,offrir
409,6,oublier
410,6,perds
411,6,permis
412,6,peur
413,6,presse
414,6,pressé
415,6,précieux
416,6,prévenir
417,6,puissance
418,6,respect
419,6,répond
420,6,révolte
421,6,semble
422,6,soi
423,6,sous
424,6,suspect
425,6,sûr
426,6,temps
427,6,tient
428,6,trépas
429,6,tumulte
430,6,vengeance
431,6,venger
432,6,veuille
433,6,victoire
434,6,étonne
435,6,ôter
436,5,abaisser
437,5,adieu
438,5,arrache
439,5,arrêt
440,5,attendre
441,5,autres
442,5,avait
443,5,avantage
444,5,beaucoup
445,5,bonté
446,5,cacher
447,5,cependant
448,5,cesse
449,5,cessez
450,5,cher
451,5,complice
452,5,condamner
453,5,confier
454,5,connaissez
455,5,consentir
456,5,contraindre
457,5,croyez
458,5,demain
459,5,desseins
460,5,discret
461,5,donc
462,5,donné
463,5,dès
464,5,déclarer
465,5,esprit
466,5,examiner
467,5,expose
468,5,exposer
469,5,favorise
470,5,flatte
471,5,fois
472,5,gardez
473,5,grande
474,5,hasarder
475,5,haïr
476,5,heureux
477,5,illustre
478,5,juger
479,5,justice
480,5,lâcheté
481,5,magnanime
482,5,maux
483,5,maxime
484,5,mettre
485,5,montre
486,5,mutins
487,5,mépris
488,5,nobles
489,5,opposer
490,5,oser
491,5,part
492,5,parti
493,5,persans
494,5,plaît
495,5,plein
496,5,pouvait
497,5,prends
498,5,prête
499,5,punir
500,5,rare
501,5,remplir
502,5,reproche
503,5,rois
504,5,répandre
505,5,saurait
506,5,sert
507,5,seulement
508,5,souhaiter
509,5,souviens
510,5,surprendre
511,5,trahison
512,5,trouve
513,5,venge
514,5,verrons
515,5,violence
516,5,vis
517,5,vivre
518,5,vouloir
519,5,voulu
520,5,vu
521,4,accepter
522,4,acquérir
523,4,adresse
524,4,affreux
525,4,amitié
526,4,approche
527,4,armes
528,4,arrête
529,4,arrêter
530,4,artaxerse
531,4,aurais
532,4,auteur
533,4,autorise
534,4,aveugle
535,4,avoue
536,4,aïeux
537,4,barbare
538,4,bas
539,4,berceau
540,4,besoin
541,4,blesse
542,4,bout
543,4,braver
544,4,capable
545,4,certaine
546,4,cesser
547,4,chasser
548,4,cherchent
549,4,choisir
550,4,confond
551,4,confus
552,4,connais
553,4,connaît
554,4,contraint
555,4,cour
556,4,coûte
557,4,craignez
558,4,criminel
559,4,croyant
560,4,cruel
561,4,cruels
562,4,dedans
563,4,dehors
564,4,demander
565,4,depuis
566,4,dernier
567,4,dirai
568,4,doive
569,4,douceur
570,4,défend
571,4,défense
572,4,effroi
573,4,entendre
574,4,entière
575,4,entre
576,4,envie
577,4,esprits
578,4,estimer
579,4,fasse
580,4,fera
581,4,ferait
582,4,fille
583,4,forte
584,4,généreux
585,4,hauts
586,4,honteux
587,4,hyménée
588,4,injure
589,4,injuste
590,4,insolence
591,4,lâches
592,4,légitime
593,4,mains
594,4,mitrane
595,4,montrez
596,4,mouvements
597,4,ni
598,4,noircir
599,4,noire
600,4,né
601,4,oppose
602,4,oropaste
603,4,osais
604,4,oubli
605,4,parlez
606,4,place
607,4,plaindre
608,4,plaire
609,4,pourrais
610,4,pourrait
611,4,pourriez
612,4,premier
613,4,pris
614,4,projet
615,4,prompt
616,4,propre
617,4,prépare
618,4,présumer
619,4,prêt
620,4,rebelle
621,4,regret
622,4,respire
623,4,reçu
624,4,réduire
625,4,savez
626,4,seconder
627,4,service
628,4,songe
629,4,songez
630,4,souffert
631,4,statira
632,4,suite
633,4,suivre
634,4,surcroît
635,4,tenir
636,4,tire
637,4,tour
638,4,transports
639,4,tremble
640,4,trembler
641,4,triomphe
642,4,tyran
643,4,tête
644,4,union
645,4,vaincre
646,4,versé
647,4,victime
648,4,écoute
649,4,élève
650,4,émeut
651,4,ému
652,4,était
653,4,étant
654,3,accable
655,3,accuser
656,3,agit
657,3,ambitieux
658,3,anime
659,3,apaiser
660,3,apparence
661,3,applaudir
662,3,armée
663,3,aspirer
664,3,assure
665,3,attend
666,3,attentats
667,3,aucune
668,3,aurai
669,3,auriez
670,3,avais
671,3,avecque
672,3,avertir
673,3,avouerai
674,3,aîné
675,3,balancer
676,3,barsine
677,3,bassesse
678,3,belle
679,3,bientôt
680,3,bontés
681,3,borner
682,3,cessant
683,3,chez
684,3,chère
685,3,cléone
686,3,complices
687,3,conduite
688,3,confondre
689,3,conseils
690,3,consente
691,3,courage
692,3,courir
693,3,couronné
694,3,crainte
695,3,croirai
696,3,crus
697,3,céder
698,3,discours
699,3,disposer
700,3,doutez
701,3,déclarant
702,3,déclaré
703,3,découvert
704,3,défaut
705,3,déguise
706,3,déguiser
707,3,démentir
708,3,enflamme
709,3,enhardir
710,3,ennemis
711,3,espérer
712,3,eut
713,3,expliquez
714,3,exploits
715,3,fameux
716,3,fantôme
717,3,faudra
718,3,fausse
719,3,fidèle
720,3,fier
721,3,forcez
722,3,forme
723,3,garants
724,3,honneur
725,3,héritier
726,3,immoler
727,3,ingrate
728,3,insolent
729,3,insolente
730,3,intérêts
731,3,itapherne
732,3,joindre
733,3,juge
734,3,jusque
735,3,laissé
736,3,lâchement
737,3,marque
738,3,maîtresse
739,3,mille
740,3,moindre
741,3,moment
742,3,monarque
743,3,monter
744,3,montré
745,3,motif
746,3,mouvement
747,3,mérité
748,3,noeuds
749,3,notre
750,3,néant
751,3,nécessaire
752,3,obstacle
753,3,offense
754,3,ombre
755,3,orage
756,3,ordonner
757,3,parmi
758,3,passion
759,3,pense
760,3,penser
761,3,perdre
762,3,pitié
763,3,plains
764,3,plût
765,3,politique
766,3,pourquoi
767,3,pouvant
768,3,prenez
769,3,presser
770,3,preuve
771,3,promis
772,3,propice
773,3,préviens
774,3,pure
775,3,périr
776,3,quelques
777,3,rapport
778,3,reconnaît
779,3,redouter
780,3,refuse
781,3,refuser
782,3,regarde
783,3,remède
784,3,rende
785,3,rendu
786,3,renonce
787,3,respecte
788,3,reste
789,3,rompre
790,3,rude
791,3,rébellion
792,3,récompense
793,3,sacrifice
794,3,sauvé
795,3,sein
796,3,semblable
797,3,semblent
798,3,silence
799,3,sitôt
800,3,soupir
801,3,source
802,3,suffrage
803,3,supplice
804,3,supplices
805,3,suprême
806,3,surpris
807,3,surtout
808,3,tantôt
809,3,tel
810,3,tels
811,3,tien
812,3,timide
813,3,toucher
814,3,trois
815,3,tyrannie
816,3,tâche
817,3,vaine
818,3,vais
819,3,vante
820,3,venait
821,3,venir
822,3,vif
823,3,voici
824,3,voilà
825,3,voix
826,3,voler
827,3,voudra
828,3,voulut
829,3,véritable
830,3,éclate
831,3,égypte
832,3,élever
833,3,émouvoir
834,3,étonner
835,3,ô
836,3,ôte
837,2,abusé
838,2,accorder
839,2,acheter
840,2,achève
841,2,acquiert
842,2,acquis
843,2,admirer
844,2,adore
845,2,adoucir
846,2,affermi
847,2,affermir
848,2,affranchir
849,2,affront
850,2,afin
851,2,agis
852,2,aidez
853,2,aima
854,2,aimé
855,2,aisé
856,2,aisée
857,2,alarmes
858,2,allez
859,2,alliance
860,2,allons
861,2,amorce
862,2,amène
863,2,animait
864,2,ans
865,2,appelle
866,2,apprends
867,2,appuyer
868,2,arme
869,2,arracher
870,2,arrêtée
871,2,artifices
872,2,assembler
873,2,assurance
874,2,assurez
875,2,assuré
876,2,assurés
877,2,attendant
878,2,attendrait
879,2,attends
880,2,attirer
881,2,augure
882,2,auparavant
883,2,autant
884,2,autoriser
885,2,avaient
886,2,aversion
887,2,averti
888,2,avidité
889,2,avouer
890,2,avoué
891,2,balance
892,2,battus
893,2,belles
894,2,biens
895,2,billet
896,2,blâme
897,2,blâmer
898,2,bouillants
899,2,brillant
900,2,cadusiens
901,2,caractère
902,2,certain
903,2,ceux
904,2,changé
905,2,charmer
906,2,chasse
907,2,chefs
908,2,cherchez
909,2,choisi
910,2,chose
911,2,clartés
912,2,combat
913,2,commis
914,2,complot
915,2,condamne
916,2,confiance
917,2,connaissance
918,2,connaîtras
919,2,conseil
920,2,consent
921,2,considérer
922,2,constance
923,2,consulte
924,2,consulter
925,2,contenter
926,2,contraire
927,2,convaincre
928,2,convaincs
929,2,convaincu
930,2,convie
931,2,couronner
932,2,craindrai
933,2,craint
934,2,crimes
935,2,croirais
936,2,croirait
937,2,crédule
938,2,cédant
939,2,côté
940,2,delà
941,2,demeurez
942,2,descendre
943,2,destins
944,2,destinée
945,2,devant
946,2,devrais
947,2,différé
948,2,dignité
949,2,douces
950,2,doutes
951,2,découvre
952,2,dédire
953,2,défauts
954,2,défiance
955,2,déplaire
956,2,déplaisir
957,2,désespoir
958,2,désordre
959,2,détour
960,2,efforts
961,2,embrasse
962,2,embrasser
963,2,emprunter
964,2,endurer
965,2,engageait
966,2,engagement
967,2,engager
968,2,ennemi
969,2,ennui
970,2,entreprendre
971,2,envier
972,2,es
973,2,espéré
974,2,essai
975,2,essayer
976,2,eusse
977,2,eux
978,2,examine
979,2,excuser
980,2,excès
981,2,exemple
982,2,exige
983,2,expire
984,2,faciliter
985,2,fatale
986,2,femme
987,2,ferai
988,2,feux
989,2,flattait
990,2,flatteur
991,2,fléchir
992,2,fond
993,2,forcé
994,2,formée
995,2,fort
996,2,front
997,2,fuir
998,2,fuit
999,2,funeste
1000,2,fâcheux
1001,2,fît
1002,2,fût
1003,2,garant
1004,2,garder
1005,2,gardes
1006,2,gendre
1007,2,grossière
1008,2,gêne
1009,2,hait
1010,2,hasard
1011,2,hautement
1012,2,haï
1013,2,heure
1014,2,honte
1015,2,hors
1016,2,image
1017,2,immole
1018,2,important
1019,2,impossible
1020,2,imputer
1021,2,incapable
1022,2,incertain
1023,2,inconnu
1024,2,indignes
1025,2,indignité
1026,2,infidèle
1027,2,injurieux
1028,2,inquiet
1029,2,inquiéter
1030,2,instant
1031,2,instruire
1032,2,intéresser
1033,2,invincible
1034,2,inviolable
1035,2,ira
1036,2,journée
1037,2,juré
1038,2,laissant
1039,2,laissez
1040,2,laissons
1041,2,ligue
1042,2,livre
1043,2,lois
1044,2,lorsqu
1045,2,lumière
1046,2,léger
1047,2,légitimes
1048,2,manquer
1049,2,miens
1050,2,milieu
1051,2,mis
1052,2,mourant
1053,2,mourra
1054,2,moyens
1055,2,mécontents
1056,2,mémoire
1057,2,mêmes
1058,2,naissant
1059,2,nouveau
1060,2,nouveautés
1061,2,nouveaux
1062,2,nouvelle
1063,2,nécessité
1064,2,oblige
1065,2,obliger
1066,2,obscurité
1067,2,observe
1068,2,obtenu
1069,2,obtiendra
1070,2,obéissance
1071,2,occupe
1072,2,offert
1073,2,opprime
1074,2,ordres
1075,2,osait
1076,2,osent
1077,2,oses
1078,2,osé
1079,2,ouvrir
1080,2,pareil
1081,2,parler
1082,2,partage
1083,2,paru
1084,2,passions
1085,2,peint
1086,2,perdit
1087,2,perfidie
1088,2,peuples
1089,2,pieds
1090,2,plaint
1091,2,plaisir
1092,2,plutôt
1093,2,pourra
1094,2,pourras
1095,2,poursuit
1096,2,pourtant
1097,2,pourvu
1098,2,pouvais
1099,2,pouvez
1100,2,prenant
1101,2,prendra
1102,2,prenne
1103,2,pressait
1104,2,prière
1105,2,projets
1106,2,prompte
1107,2,prononce
1108,2,prouver
1109,2,précipiter
1110,2,préparer
1111,2,présage
1112,2,prévenu
1113,2,prêter
1114,2,prêts
1115,2,publier
1116,2,puissants
1117,2,pur
1118,2,périsse
1119,2,quitte
1120,2,quoiqu
1121,2,reconnu
1122,2,refusez
1123,2,remettre
1124,2,rendant
1125,2,rendez
1126,2,rendrait
1127,2,renonçant
1128,2,repentir
1129,2,repos
1130,2,reprends
1131,2,revivre
1132,2,rigoureux
1133,2,rival
1134,2,réduit
1135,2,réserve
1136,2,résister
1137,2,résolu
1138,2,résoudre
1139,2,sacrifier
1140,2,sauront
1141,2,scrupuleux
1142,2,secrète
1143,2,sensible
1144,2,sera
1145,2,seraient
1146,2,servir
1147,2,seuls
1148,2,sois
1149,2,souhaite
1150,2,soumettre
1151,2,soumis
1152,2,soupçonne
1153,2,soupçonner
1154,2,soupçonné
1155,2,soupçons
1156,2,soutenir
1157,2,soutien
1158,2,souvenir
1159,2,souvent
1160,2,suit
1161,2,sujets
1162,2,séduire
1163,2,tache
1164,2,tandis
1165,2,temple
1166,2,tendre
1167,2,tenez
1168,2,tenter
1169,2,tirant
1170,2,tirer
1171,2,tombeau
1172,2,tomber
1173,2,tort
1174,2,transport
1175,2,travaux
1176,2,trembla
1177,2,triompher
1178,2,trompe
1179,2,tromper
1180,2,troubles
1181,2,témoignage
1182,2,unique
1183,2,univers
1184,2,usage
1185,2,valeur
1186,2,vanité
1187,2,vaste
1188,2,vaut
1189,2,vengé
1190,2,vers
1191,2,vertus
1192,2,voie
1193,2,volontés
1194,2,voudrais
1195,2,voudrez
1196,2,voulais
1197,2,voulait
1198,2,vouliez
1199,2,voulût
1200,2,voyais
1201,2,vît
1202,2,vôtre
1203,2,âpre
1204,2,éclaircir
1205,2,éclatante
1206,2,éclater
1207,2,éprouve
1208,2,éprouvé
1209,2,épée
1210,2,étendre
1211,2,étouffer
1212,2,été
1213,1,abaisse
1214,1,abaissement
1215,1,abandonnant
1216,1,abandonnent
1217,1,abandonner
1218,1,abandonné
1219,1,abattu
1220,1,abject
1221,1,absence
1222,1,absolu
1223,1,absoudre
1224,1,abuse
1225,1,abuses
1226,1,abusée
1227,1,accablement
1228,1,accabler
1229,1,accableront
1230,1,acceptez
1231,1,acceptiez
1232,1,acceptât
1233,1,accepté
1234,1,accroître
1235,1,accusez
1236,1,accusé
1237,1,achetais
1238,1,achever
1239,1,achevez
1240,1,acheviez
1241,1,acquirent
1242,1,acquise
1243,1,acquitter
1244,1,actions
1245,1,admirai
1246,1,admire
1247,1,admirez
1248,1,adoré
1249,1,adouci
1250,1,adroit
1251,1,advienne
1252,1,affaiblir
1253,1,affectez
1254,1,afflige
1255,1,affranchissent
1256,1,affreuse
1257,1,agirai
1258,1,agirait
1259,1,agissait
1260,1,agite
1261,1,aidais
1262,1,aide
1263,1,aider
1264,1,aie
1265,1,aigrisse
1266,1,aimable
1267,1,aimait
1268,1,aimant
1269,1,aimeraient
1270,1,aimeriez
1271,1,aimes
1272,1,aimez
1273,1,aimiez
1274,1,aimée
1275,1,aisés
1276,1,ajouter
1277,1,alarmez
1278,1,alarmé
1279,1,alarmée
1280,1,allaient
1281,1,allait
1282,1,altéra
1283,1,animai
1284,1,appeler
1285,1,appelez
1286,1,apporte
1287,1,apporter
1288,1,apprend
1289,1,apprendra
1290,1,apprendrez
1291,1,apprenez
1292,1,apprenne
1293,1,appris
1294,1,apprit
1295,1,approuva
1296,1,approuve
1297,1,approuver
1298,1,appréhender
1299,1,appréhendez
1300,1,apprête
1301,1,apprêter
1302,1,appuyasse
1303,1,arbitre
1304,1,ardent
1305,1,ardente
1306,1,armera
1307,1,armé
1308,1,arménie
1309,1,arrachant
1310,1,arriver
1311,1,arrogants
1312,1,arrêterai
1313,1,arrêtez
1314,1,arrêté
1315,1,arrêtés
1316,1,art
1317,1,artifice
1318,1,aspirant
1319,1,assassin
1320,1,assassine
1321,1,asservie
1322,1,assidu
1323,1,assis
1324,1,assujetti
1325,1,assurait
1326,1,assurant
1327,1,astre
1328,1,attache
1329,1,attachée
1330,1,attaque
1331,1,atteinte
1332,1,attendez
1333,1,attendrai
1334,1,attendrais
1335,1,attente
1336,1,atteste
1337,1,attire
1338,1,augmente
1339,1,auguste
1340,1,aurons
1341,1,auront
1342,1,aussitôt
1343,1,austère
1344,1,autorisez
1345,1,autrefois
1346,1,autrui
1347,1,avance
1348,1,aventure
1349,1,aveuglement
1350,1,aveuglément
1351,1,avidement
1352,1,aviez
1353,1,avorter
1354,1,ayez
1355,1,bagoas
1356,1,bandeau
1357,1,basse
1358,1,beauté
1359,1,beautés
1360,1,bon
1361,1,borne
1362,1,borné
1363,1,bornés
1364,1,bouche
1365,1,boue
1366,1,bourreau
1367,1,brave
1368,1,bravera
1369,1,briguer
1370,1,brillante
1371,1,brille
1372,1,briller
1373,1,brouiller
1374,1,brûle
1375,1,brûler
1376,1,but
1377,1,cacha
1378,1,cachait
1379,1,cache
1380,1,cacherait
1381,1,cachez
1382,1,cachât
1383,1,cadusien
1384,1,calme
1385,1,car
1386,1,cause
1387,1,ceindre
1388,1,celui
1389,1,certains
1390,1,certes
1391,1,certitude
1392,1,cessait
1393,1,cessera
1394,1,cesseront
1395,1,chacun
1396,1,chagrin
1397,1,changement
1398,1,changez
1399,1,chaque
1400,1,chargez
1401,1,charmant
1402,1,chemin
1403,1,chercher
1404,1,choisit
1405,1,choque
1406,1,chères
1407,1,chéri
1408,1,clarté
1409,1,colères
1410,1,combattit
1411,1,combattu
1412,1,comblant
1413,1,commande
1414,1,commenciez
1415,1,commettre
1416,1,commune
1417,1,communique
1418,1,complaisance
1419,1,complaisant
1420,1,complots
1421,1,comprendre
1422,1,concerté
1423,1,concevoir
1424,1,concevrais
1425,1,concevriez
1426,1,conclu
1427,1,condamnez
1428,1,condamnée
1429,1,condition
1430,1,conditions
1431,1,confesse
1432,1,confesser
1433,1,confessez
1434,1,confirmez
1435,1,confirmé
1436,1,confondait
1437,1,conformer
1438,1,confusion
1439,1,confusions
1440,1,confusément
1441,1,conjecture
1442,1,conjurer
1443,1,connaissant
1444,1,connaîtrez
1445,1,connut
1446,1,conquête
1447,1,conseille
1448,1,consentez
1449,1,conserver
1450,1,conservé
1451,1,conspirait
1452,1,conspirant
1453,1,conspirer
1454,1,consultez
1455,1,content
1456,1,contester
1457,1,continue
1458,1,contrainte
1459,1,convainc
1460,1,convaincra
1461,1,conçoit
1462,1,corrompre
1463,1,couleur
1464,1,coups
1465,1,couronnera
1466,1,cours
1467,1,couvrit
1468,1,coûter
1469,1,craignant
1470,1,craindra
1471,1,craindrez
1472,1,criminelle
1473,1,criminels
1474,1,croira
1475,1,croiriez
1476,1,croyable
1477,1,croît
1478,1,cruauté
1479,1,cruelle
1480,1,crut
1481,1,côtés
1482,1,daigna
1483,1,daignant
1484,1,daignerez
1485,1,daigné
1486,1,degrés
1487,1,demanda
1488,1,demandera
1489,1,demandes
1490,1,demandez
1491,1,demandé
1492,1,demeurant
1493,1,demeurer
1494,1,demi
1495,1,dessous
1496,1,destinait
1497,1,devrait
1498,1,différents
1499,1,différer
1500,1,dignes
1501,1,dirait
1502,1,disais
1503,1,dispense
1504,1,dispenser
1505,1,disposes
1506,1,disposez
1507,1,disposé
1508,1,disposée
1509,1,disposés
1510,1,dispute
1511,1,dissiperez
1512,1,distingue
1513,1,divers
1514,1,divertir
1515,1,divisant
1516,1,divisés
1517,1,doii
1518,1,domptant
1519,1,dompte
1520,1,dompter
1521,1,don
1522,1,donna
1523,1,donnant
1524,1,dons
1525,1,double
1526,1,douceurs
1527,1,douleur
1528,1,doutais
1529,1,doutant
1530,1,doutent
1531,1,douteux
1532,1,due
1533,1,dur
1534,1,dure
1535,1,dures
1536,1,dut
1537,1,déchire
1538,1,décide
1539,1,déclara
1540,1,déclare
1541,1,déclarent
1542,1,déclarez
1543,1,déclarât
1544,1,déclarés
1545,1,découvrant
1546,1,découvrez
1547,1,découvrons
1548,1,décrets
1549,1,dédaigne
1550,1,dédaigner
1551,1,défaits
1552,1,défendu
1553,1,défier
1554,1,déféré
1555,1,dégager
1556,1,déguisez
1557,1,déguisé
1558,1,démentirai
1559,1,déplaisant
1560,1,déplaise
1561,1,déplorable
1562,1,dépositaire
1563,1,dérobe
1564,1,dérober
1565,1,dérobât
1566,1,désabuser
1567,1,désarmer
1568,1,désavouant
1569,1,désavoue
1570,1,désavouer
1571,1,déshonorant
1572,1,désir
1573,1,désire
1574,1,désormais
1575,1,détestable
1576,1,détourner
1577,1,détruisant
1578,1,détruit
1579,1,dévore
1580,1,dût
1581,1,efface
1582,1,effacer
1583,1,effacé
1584,1,effarouche
1585,1,effets
1586,1,effroyable
1587,1,embarrasse
1588,1,embrase
1589,1,embrassât
1590,1,embrasée
1591,1,empare
1592,1,employa
1593,1,employez
1594,1,emportant
1595,1,emportement
1596,1,emportes
1597,1,emportez
1598,1,emprunte
1599,1,emprunté
1600,1,empêcher
1601,1,enfance
1602,1,enfermé
1603,1,enflammer
1604,1,ensemble
1605,1,entendent
1606,1,entendons
1607,1,entends
1608,1,entendu
1609,1,entiers
1610,1,entraîne
1611,1,entreprenons
1612,1,entrepris
1613,1,entrer
1614,1,entretenir
1615,1,envers
1616,1,envoyait
1617,1,envoyée
1618,1,esclave
1619,1,espérant
1620,1,espérez
1621,1,essayons
1622,1,estimais
1623,1,estimé
1624,1,eu
1625,1,eus
1626,1,eusses
1627,1,eussiez
1628,1,exact
1629,1,exacte
1630,1,examina
1631,1,examiné
1632,1,exaucés
1633,1,excite
1634,1,exclut
1635,1,excusez
1636,1,exorable
1637,1,expierait
1638,1,expieront
1639,1,expirer
1640,1,expliquant
1641,1,explique
1642,1,expliqué
1643,1,exposez
1644,1,exposé
1645,1,exposée
1646,1,exprime
1647,1,faille
1648,1,failli
1649,1,faillir
1650,1,faisait
1651,1,faites
1652,1,fallut
1653,1,faste
1654,1,faudrait
1655,1,favoriser
1656,1,faîtes
1657,1,feignez
1658,1,feint
1659,1,feinte
1660,1,feintes
1661,1,ferais
1662,1,ferez
1663,1,ferions
1664,1,ferme
1665,1,feront
1666,1,fers
1667,1,fidèles
1668,1,fiers
1669,1,fin
1670,1,fixe
1671,1,flammes
1672,1,flatter
1673,1,flatteurs
1674,1,flattez
1675,1,flatté
1676,1,flattés
1677,1,flots
1678,1,flottant
1679,1,fondement
1680,1,fonder
1681,1,forcée
1682,1,forfaits
1683,1,former
1684,1,fortifier
1685,1,forts
1686,1,fortune
1687,1,força
1688,1,forçai
1689,1,forçait
1690,1,fragile
1691,1,franchise
1692,1,frivoles
1693,1,fruits
1694,1,frères
1695,1,frémit
1696,1,fui
1697,1,fuis
1698,1,fureurs
1699,1,fîtes
1700,1,gagné
1701,1,garantir
1702,1,garde
1703,1,glissa
1704,1,glorieuse
1705,1,goûté
1706,1,grandes
1707,1,gré
1708,1,guerre
1709,1,guerres
1710,1,général
1711,1,généreuse
1712,1,gêné
1713,1,hais
1714,1,hardis
1715,1,hasarde
1716,1,hasardes
1717,1,hautaine
1718,1,heureuse
1719,1,hier
1720,1,honorer
1721,1,honteuse
1722,1,humeur
1723,1,ignorai
1724,1,ignorez
1725,1,ignoré
1726,1,illustres
1727,1,illégitime
1728,1,impatient
1729,1,implorer
1730,1,importants
1731,1,importe
1732,1,importune
1733,1,imprudence
1734,1,imprudent
1735,1,imprudente
1736,1,impudence
1737,1,impuissante
1738,1,impunément
1739,1,impute
1740,1,imputera
1741,1,impérieuse
1742,1,impétueux
1743,1,incertains
1744,1,incertitude
1745,1,inconnus
1746,1,indigné
1747,1,indiscret
1748,1,indomptable
1749,1,indulgence
1750,1,infaillible
1751,1,infini
1752,1,infortune
1753,1,infortuné
1754,1,infortunée
1755,1,ingratitude
1756,1,injustement
1757,1,injustes
1758,1,injustices
1759,1,innocence
1760,1,innocente
1761,1,inquiète
1762,1,inquiétude
1763,1,inquiétât
1764,1,insigne
1765,1,insolemment
1766,1,instinct
1767,1,instruit
1768,1,instruite
1769,1,intelligence
1770,1,intestin
1771,1,intrigues
1772,1,introduit
1773,1,intéressant
1774,1,inégalité
1775,1,inégaux
1776,1,inévitable
1777,1,irrite
1778,1,irriter
1779,1,jalouse
1780,1,jette
1781,1,jeune
1782,1,joie
1783,1,joint
1784,1,joue
1785,1,jouir
1786,1,jouis
1787,1,jouissez
1788,1,jura
1789,1,jurer
1790,1,jusques
1791,1,justement
1792,1,justifiait
1793,1,justifiera
1794,1,justifierais
1795,1,laissais
1796,1,laissait
1797,1,laissent
1798,1,laissera
1799,1,langueur
1800,1,languir
1801,1,lie
1802,1,liguer
1803,1,ligues
1804,1,ligué
1805,1,livrant
1806,1,livrent
1807,1,loi
1808,1,maintenir
1809,1,malaisé
1810,1,malice
1811,1,mandé
1812,1,manquait
1813,1,manque
1814,1,manqué
1815,1,marques
1816,1,matière
1817,1,mauvais
1818,1,maximes
1819,1,menacer
1820,1,mendier
1821,1,met
1822,1,mets
1823,1,mettant
1824,1,mette
1825,1,mettront
1826,1,meurs
1827,1,meurt
1828,1,mienne
1829,1,miracle
1830,1,modérer
1831,1,monarques
1832,1,montra
1833,1,monté
1834,1,mortel
1835,1,motifs
1836,1,mourrai
1837,1,murmurer
1838,1,mutiner
1839,1,mystère
1840,1,mère
1841,1,méchant
1842,1,méprisez
1843,1,mérita
1844,1,mériterais
1845,1,mériterait
1846,1,mérites
1847,1,mêlé
1848,1,naissent
1849,1,nations
1850,1,neveu
1851,1,noeud
1852,1,nommant
1853,1,noms
1854,1,nue
1855,1,nuire
1856,1,nulle
1857,1,négliger
1858,1,nés
1859,1,obligé
1860,1,obscurci
1861,1,obscure
1862,1,obscurément
1863,1,obstinant
1864,1,obtenez
1865,1,obtiendront
1866,1,obtiennent
1867,1,obtiens
1868,1,obéirai
1869,1,obéirez
1870,1,obéis
1871,1,occasion
1872,1,occasions
1873,1,occuper
1874,1,odieux
1875,1,offerte
1876,1,office
1877,1,offrant
1878,1,offrent
1879,1,ombrage
1880,1,opposent
1881,1,opposes
1882,1,osai
1883,1,osant
1884,1,osera
1885,1,oseront
1886,1,osât
1887,1,oublierai
1888,1,oublieriez
1889,1,oubliez
1890,1,outrageant
1891,1,outragé
1892,1,ouverte
1893,1,ouvrant
1894,1,ouvre
1895,1,oyez
1896,1,parais
1897,1,paraissait
1898,1,pardonnez
1899,1,pareille
1900,1,pareils
1901,1,parjure
1902,1,parleront
1903,1,parole
1904,1,parricide
1905,1,partager
1906,1,partout
1907,1,passera
1908,1,peignant
1909,1,peins
1910,1,peinte
1911,1,pencher
1912,1,pensais
1913,1,penses
1914,1,pensée
1915,1,perdaient
1916,1,perdez
1917,1,perdrait
1918,1,perdu
1919,1,perfide
1920,1,permît
1921,1,persuade
1922,1,peuvent
1923,1,plaise
1924,1,plausible
1925,1,pleine
1926,1,pleurer
1927,1,poison
1928,1,pompeuse
1929,1,pompeux
1930,1,porta
1931,1,porter
1932,1,portez
1933,1,pourrez
1934,1,poursuis
1935,1,poursuite
1936,1,poursuivez
1937,1,pouviez
1938,1,première
1939,1,prenait
1940,1,prendrai
1941,1,prendrait
1942,1,prescrit
1943,1,pressant
1944,1,pressants
1945,1,pressentiment
1946,1,pressez
1947,1,principe
1948,1,prive
1949,1,priver
1950,1,profonds
1951,1,promesses
1952,1,promettant
1953,1,promette
1954,1,promettre
1955,1,promettrons
1956,1,proposer
1957,1,protecteur
1958,1,protecteurs
1959,1,prouve
1960,1,province
1961,1,prudence
1962,1,précipite
1963,1,préfère
1964,1,préférer
1965,1,préparés
1966,1,préserve
1967,1,présumais
1968,1,prétendent
1969,1,prétendez
1970,1,prétentions
1971,1,prétexte
1972,1,prévaloir
1973,1,prévenez
1974,1,prévenus
1975,1,prévoyance
1976,1,prêtai
1977,1,publiant
1978,1,puissiez
1979,1,puni
1980,1,punirai
1981,1,punirais
1982,1,punis
1983,1,punissez
1984,1,punition
1985,1,pureté
1986,1,purger
1987,1,pussent
1988,1,pénétrer
1989,1,pénétreront
1990,1,péri
1991,1,périls
1992,1,quelles
1993,1,quelqu
1994,1,quelquefois
1995,1,quels
1996,1,quitter
1997,1,quoique
1998,1,raisonnable
1999,1,ralentir
2000,1,recevant
2001,1,recevez
2002,1,recevoir
2003,1,reconnaître
2004,1,redoutable
2005,1,redoutant
2006,1,redoute
2007,1,refroidie
2008,1,refusait
2009,1,refusant
2010,1,refuserais
2011,1,refuserait
2012,1,refuseriez
2013,1,regards
2014,1,rehausser
2015,1,reine
2016,1,rejeter
2017,1,relâche
2018,1,remarquez
2019,1,remet
2020,1,remords
2021,1,remplisse
2022,1,renaître
2023,1,rencontra
2024,1,rencontrait
2025,1,rendait
2026,1,rendent
2027,1,rendit
2028,1,rendrai
2029,1,rendrez
2030,1,rendront
2031,1,rends
2032,1,renfermé
2033,1,renommée
2034,1,renoncer
2035,1,renonces
2036,1,rentre
2037,1,rentrer
2038,1,rentrerai
2039,1,renversement
2040,1,reposez
2041,1,reprenant
2042,1,reprendrai
2043,1,reprendre
2044,1,respectait
2045,1,respecter
2046,1,respects
2047,1,ressembler
2048,1,ressentiment
2049,1,ressouviendrais
2050,1,resta
2051,1,restes
2052,1,resté
2053,1,retenue
2054,1,retire
2055,1,retour
2056,1,retours
2057,1,retraite
2058,1,revoir
2059,1,reçue
2060,1,reçus
2061,1,reçut
2062,1,romps
2063,1,rougir
2064,1,royal
2065,1,rudes
2066,1,ruine
2067,1,ruiné
2068,1,règle
2069,1,règne
2070,1,réduite
2071,1,régler
2072,1,réglera
2073,1,régnez
2074,1,régnons
2075,1,répandant
2076,1,réparera
2077,1,réplique
2078,1,répondez
2079,1,réservait
2080,1,réservant
2081,1,résistance
2082,1,résiste
2083,1,résolue
2084,1,rétablir
2085,1,réussir
2086,1,révolter
2087,1,révolté
2088,1,révoltés
2089,1,révèle
2090,1,sache
2091,1,sachons
2092,1,saisir
2093,1,salutaire
2094,1,sanglants
2095,1,satisfaire
2096,1,satisfait
2097,1,satisfaite
2098,1,satisfaits
2099,1,sauriez
2100,1,saurons
2101,1,sauva
2102,1,sauvant
2103,1,savent
2104,1,sceptre
2105,1,sceptres
2106,1,secondez
2107,1,secondés
2108,1,secouru
2109,1,selon
2110,1,semant
2111,1,sembla
2112,1,semblait
2113,1,semblez
2114,1,sembliez
2115,1,semer
2116,1,semé
2117,1,sentir
2118,1,serai
2119,1,serais
2120,1,serez
2121,1,serment
2122,1,serments
2123,1,seront
2124,1,servait
2125,1,serve
2126,1,servi
2127,1,services
2128,1,sien
2129,1,sienne
2130,1,siens
2131,1,signalé
2132,1,sincère
2133,1,soient
2134,1,soir
2135,1,soldats
2136,1,solide
2137,1,sollicita
2138,1,solliciter
2139,1,songeai
2140,1,songeant
2141,1,songeât
2142,1,sors
2143,1,sortait
2144,1,sorte
2145,1,soudain
2146,1,soufferte
2147,1,soufferts
2148,1,souffrant
2149,1,souffrez
2150,1,souffrirait
2151,1,souffririez
2152,1,souhaitée
2153,1,soulevé
2154,1,soumet
2155,1,soupire
2156,1,soupirez
2157,1,soupirs
2158,1,sourdes
2159,1,souscrira
2160,1,soustraire
2161,1,soutiendront
2162,1,soutiennent
2163,1,soutient
2164,1,soutint
2165,1,souverain
2166,1,souveraine
2167,1,souvient
2168,1,soyez
2169,1,soyons
2170,1,stratagème
2171,1,subir
2172,1,subit
2173,1,succombent
2174,1,suffira
2175,1,suffire
2176,1,suffit
2177,1,suggère
2178,1,suivant
2179,1,suivez
2180,1,suivie
2181,1,suivrai
2182,1,suivront
2183,1,sujette
2184,1,superbes
2185,1,supposé
2186,1,surpasse
2187,1,surprenant
2188,1,surprend
2189,1,surprendrait
2190,1,sus
2191,1,suspecte
2192,1,suspects
2193,1,suspendis
2194,1,suspendu
2195,1,suspendue
2196,1,susse
2197,1,sut
2198,1,séduisant
2199,1,séduit
2200,1,sévère
2201,1,sûreté
2202,1,sûrs
2203,1,tard
2204,1,teint
2205,1,telle
2206,1,tenait
2207,1,tendresse
2208,1,tente
2209,1,tenu
2210,1,ternir
2211,1,terres
2212,1,tiendrez
2213,1,timides
2214,1,tint
2215,1,tirez
2216,1,titre
2217,1,titres
2218,1,touche
2219,1,touché
2220,1,tourmente
2221,1,tourments
2222,1,toutefois
2223,1,toutes
2224,1,tracer
2225,1,trahi
2226,1,trahie
2227,1,trahira
2228,1,trahirait
2229,1,trahissant
2230,1,traite
2231,1,traitement
2232,1,traiterait
2233,1,traitez
2234,1,traits
2235,1,traité
2236,1,travaillé
2237,1,traîna
2238,1,tremblant
2239,1,tremblerais
2240,1,tribut
2241,1,triompherait
2242,1,triomphes
2243,1,tristes
2244,1,trompeur
2245,1,trompé
2246,1,trouvera
2247,1,trouverai
2248,1,trouverais
2249,1,trouvé
2250,1,trésor
2251,1,trésors
2252,1,tâcher
2253,1,tâchez
2254,1,témoins
2255,1,témérité
2256,1,tôt
2257,1,unir
2258,1,usurpateur
2259,1,usurpe
2260,1,usurper
2261,1,usurpé
2262,1,usât
2263,1,vaillance
2264,1,vainement
2265,1,vainqueur
2266,1,vanter
2267,1,vas
2268,1,veillerai
2269,1,venais
2270,1,venez
2271,1,vengeront
2272,1,verra
2273,1,verrait
2274,1,verras
2275,1,verrez
2276,1,verront
2277,1,versa
2278,1,veuilles
2279,1,veulent
2280,1,veuve
2281,1,vingt
2282,1,violent
2283,1,violents
2284,1,vit
2285,1,vivant
2286,1,vives
2287,1,voile
2288,1,voisins
2289,1,vol
2290,1,voles
2291,1,volontaire
2292,1,vont
2293,1,voudrait
2294,1,voulant
2295,1,voulez
2296,1,vérité
2297,1,vôtres
2298,1,âge
2299,1,âmes
2300,1,éblouir
2301,1,éblouissante
2302,1,ébranle
2303,1,échappe
2304,1,échapper
2305,1,échappés
2306,1,éclairci
2307,1,éclatons
2308,1,écouter
2309,1,écouté
2310,1,égal
2311,1,égale
2312,1,également
2313,1,égaux
2314,1,élevait
2315,1,élevât
2316,1,épandre
2317,1,épargnait
2318,1,épargne
2319,1,épouse
2320,1,épouser
2321,1,épouvante
2322,1,épreuve
2323,1,équitable
2324,1,équité
2325,1,établir
2326,1,étalent
2327,1,états
2328,1,éteindre
2329,1,étendit
2330,1,éternelle
2331,1,étiez
2332,1,étonnais
2333,1,étudiait
2334,1,évite
2335,1,éviter
2336,1,événement
2337,1,ôtent
