1,668,vous
2,592,et
3,538,de
4,382,je
5,363,à
6,345,que
7,315,il
8,292,est
9,288,qu
10,274,le
11,272,un
12,271,l
13,255,en
14,239,d
15,234,ne
16,207,on
17,197,ce
18,192,la
19,191,pour
20,156,n
21,136,mon
22,136,tout
23,132,qui
24,131,les
25,127,me
26,123,pas
27,122,bien
28,116,votre
29,110,j
30,108,point
31,104,mais
32,96,m
33,96,une
34,95,c
35,90,du
36,88,ma
37,84,lui
38,83,des
39,81,a
40,80,si
41,79,son
42,78,se
43,75,au
44,75,moi
45,73,ai
46,70,par
47,69,faire
48,68,avec
49,68,s
50,67,nous
51,62,coeur
52,61,dans
53,61,sans
54,60,elle
55,59,plus
56,57,vos
57,56,fait
58,56,rien
59,55,monsieur
60,54,faut
61,52,ciel
62,50,tous
63,49,sa
64,48,cette
65,47,être
66,45,quoi
67,45,y
68,43,comme
69,42,oui
70,42,peut
71,41,homme
72,41,non
73,41,sur
74,41,trop
75,40,mes
76,40,ses
77,40,sont
78,38,ces
79,37,là
80,37,où
81,37,suis
82,36,autre
83,36,fort
84,35,dit
85,35,voir
86,35,âme
87,34,père
88,34,veut
89,33,dire
90,33,peu
91,31,frère
92,30,enfin
93,30,ici
94,30,jamais
95,30,madame
96,30,veux
97,29,aux
98,29,tu
99,28,toute
100,27,dont
101,27,gens
102,26,ah
103,26,donc
104,26,quelque
105,26,sais
106,26,tartuffe
107,25,chose
108,25,mieux
109,25,même
110,25,soit
111,24,cela
112,24,fille
113,23,donner
114,23,toujours
115,23,vrai
116,22,avoir
117,22,doit
118,22,ils
119,22,moins
120,21,cet
121,21,dis
122,21,doute
123,21,fils
124,21,zèle
125,20,bon
126,20,crois
127,20,deux
128,20,leur
129,20,monde
130,20,yeux
131,20,êtes
132,19,amour
133,19,avez
134,19,choses
135,19,discours
136,19,doux
137,19,tant
138,19,vois
139,19,voulez
140,18,affaire
141,18,contre
142,18,grâce
143,18,laissez
144,18,voit
145,17,beau
146,17,chez
147,17,dessein
148,17,dieu
149,17,femme
150,17,grande
151,17,mal
152,17,valère
153,17,voilà
154,16,croire
155,16,foi
156,16,hé
157,16,jusqu
158,16,mari
159,16,parle
160,16,porte
161,16,prendre
162,16,souffrir
163,16,t
164,16,vient
165,15,assez
166,15,grand
167,15,mettre
168,15,notre
169,15,ont
170,15,parler
171,15,puis
172,15,toutes
173,14,ait
174,14,aller
175,14,céans
176,14,jour
177,14,mot
178,14,mère
179,14,personne
180,14,quand
181,14,temps
182,14,vais
183,14,vu
184,13,aussi
185,13,donne
186,13,main
187,13,pouvoir
188,13,prie
189,13,vie
190,13,époux
191,12,ainsi
192,12,allons
193,12,encor
194,12,esprit
195,12,honneur
196,12,intérêt
197,12,nos
198,12,pourquoi
199,12,sait
200,12,tel
201,12,voeux
202,12,voyez
203,11,avant
204,11,bonne
205,11,faites
206,11,font
207,11,hymen
208,11,leurs
209,11,ou
210,11,pense
211,11,puisse
212,11,quel
213,11,seul
214,11,soin
215,11,sortir
216,11,sous
217,11,te
218,11,traître
219,11,vertu
220,11,vouloir
221,10,aime
222,10,allez
223,10,ardeur
224,10,autres
225,10,ceux
226,10,demande
227,10,faux
228,10,gloire
229,10,part
230,10,plaît
231,10,pu
232,10,raison
233,10,savoir
234,10,éclat
235,9,abord
236,9,air
237,9,après
238,9,aurais
239,9,biens
240,9,bontés
241,9,comment
242,9,courroux
243,9,dorine
244,9,entre
245,9,eux
246,9,fais
247,9,fois
248,9,fâcheux
249,9,haut
250,9,mariane
251,9,maître
252,9,propos
253,9,seulement
254,9,sorte
255,9,trouve
256,9,tête
257,9,va
258,8,aujourd
259,8,besoin
260,8,cent
261,8,coup
262,8,damis
263,8,devoir
264,8,dois
265,8,déjà
266,8,encore
267,8,entendre
268,8,extrême
269,8,heure
270,8,honnête
271,8,hui
272,8,hélas
273,8,mis
274,8,nul
275,8,orgueil
276,8,pauvre
277,8,prince
278,8,quels
279,8,rendre
280,8,secret
281,8,soins
282,8,telle
283,8,voulu
284,7,apparence
285,7,bouche
286,7,bout
287,7,certes
288,7,chacun
289,7,connaître
290,7,coupable
291,7,croyez
292,7,dessus
293,7,devez
294,7,efforts
295,7,ensemble
296,7,eu
297,7,joie
298,7,lieu
299,7,moindre
300,7,mots
301,7,mérite
302,7,nom
303,7,nulle
304,7,partout
305,7,peine
306,7,petit
307,7,peur
308,7,plaire
309,7,prends
310,7,pris
311,7,puisque
312,7,savez
313,7,sens
314,7,sortez
315,7,su
316,7,venir
317,7,vite
318,7,vivre
319,7,étrange
320,6,actions
321,6,adieu
322,6,ami
323,6,aucun
324,6,autant
325,6,beaucoup
326,6,car
327,6,cas
328,6,ceci
329,6,chaque
330,6,confondre
331,6,dites
332,6,douceur
333,6,dévot
334,6,envers
335,6,envie
336,6,faudra
337,6,ferai
338,6,humeur
339,6,juste
340,6,lorsque
341,6,mains
342,6,maison
343,6,manière
344,6,moquez
345,6,ni
346,6,obliger
347,6,paraître
348,6,pardonne
349,6,parlons
350,6,passe
351,6,place
352,6,plaisir
353,6,plutôt
354,6,pourrait
355,6,prend
356,6,quelle
357,6,sage
358,6,saurait
359,6,semble
360,6,sentiments
361,6,songez
362,6,souvent
363,6,suivre
364,6,tenir
365,6,tort
366,6,trouble
367,6,tôt
368,6,user
369,6,état
370,5,action
371,5,admire
372,5,aimez
373,5,attendre
374,5,attraits
375,5,aucune
376,5,audace
377,5,aura
378,5,aurai
379,5,aveu
380,5,ayez
381,5,belle
382,5,blesse
383,5,bonté
384,5,bru
385,5,bruit
386,5,cassette
387,5,celui
388,5,chansons
389,5,choix
390,5,chère
391,5,coeurs
392,5,conseil
393,5,coups
394,5,depuis
395,5,donation
396,5,donné
397,5,défendre
398,5,dévotion
399,5,dévots
400,5,entière
401,5,espoir
402,5,exemple
403,5,fasse
404,5,fera
405,5,force
406,5,fou
407,5,franc
408,5,genoux
409,5,ha
410,5,haine
411,5,honte
412,5,jette
413,5,jusques
414,5,justement
415,5,laissons
416,5,langage
417,5,long
418,5,moyen
419,5,mériter
420,5,oblige
421,5,obstacle
422,5,offense
423,5,offre
424,5,paix
425,5,parlez
426,5,parole
427,5,pis
428,5,pousser
429,5,prix
430,5,regardez
431,5,révère
432,5,scandale
433,5,sera
434,5,serait
435,5,soeur
436,5,soi
437,5,suffit
438,5,surprendre
439,5,table
440,5,taisez
441,5,touche
442,5,trait
443,5,vienne
444,5,viens
445,5,vrais
446,5,vérité
447,5,était
448,5,été
449,4,accuser
450,4,affaires
451,4,afin
452,4,aise
453,4,amant
454,4,amitié
455,4,apporte
456,4,arrête
457,4,assurément
458,4,aurez
459,4,auriez
460,4,autrui
461,4,avais
462,4,aviez
463,4,avis
464,4,avoue
465,4,ayant
466,4,bas
467,4,bonheur
468,4,bras
469,4,bâton
470,4,certain
471,4,cesse
472,4,cher
473,4,colère
474,4,conduite
475,4,conscience
476,4,contrat
477,4,coquin
478,4,court
479,4,dehors
480,4,deviez
481,4,donnez
482,4,douleur
483,4,droit
484,4,dépit
485,4,désirs
486,4,eau
487,4,eh
488,4,engage
489,4,enrage
490,4,entretien
491,4,eût
492,4,faiblesse
493,4,faits
494,4,favorable
495,4,femmes
496,4,ferez
497,4,feriez
498,4,fin
499,4,flamme
500,4,fourbe
501,4,fût
502,4,gardez
503,4,grands
504,4,heureux
505,4,humaine
506,4,imposture
507,4,infâme
508,4,ingrat
509,4,irez
510,4,jusque
511,4,laisse
512,4,loin
513,4,longtemps
514,4,lorsqu
515,4,mamie
516,4,misère
517,4,moitié
518,4,moment
519,4,moments
520,4,montre
521,4,montrer
522,4,méchant
523,4,noble
524,4,occasion
525,4,oeil
526,4,oreilles
527,4,oser
528,4,pareil
529,4,paroles
530,4,pensée
531,4,perfide
532,4,pied
533,4,pieux
534,4,plein
535,4,pourra
536,4,pousse
537,4,prenez
538,4,propose
539,4,présent
540,4,prête
541,4,pudeur
542,4,punir
543,4,pure
544,4,péché
545,4,quitte
546,4,quitter
547,4,refus
548,4,regarde
549,4,retenir
550,4,retiré
551,4,retraite
552,4,rire
553,4,salut
554,4,scélérat
555,4,sein
556,4,selon
557,4,semblable
558,4,serez
559,4,servir
560,4,soient
561,4,soir
562,4,sommes
563,4,sots
564,4,sujet
565,4,surprise
566,4,taire
567,4,tantôt
568,4,tient
569,4,toi
570,4,ton
571,4,traits
572,4,transports
573,4,union
574,4,valet
575,4,vaut
576,4,vers
577,4,veulent
578,4,violence
579,4,voudrais
580,4,çà
581,4,éclater
582,4,écoute
583,4,étais
584,4,étiez
585,4,ô
586,4,ôter
587,3,abandonne
588,3,accepter
589,3,accomplir
590,3,aimer
591,3,aisément
592,3,alliance
593,3,alliez
594,3,appelle
595,3,ardeurs
596,3,armes
597,3,arrêter
598,3,art
599,3,assurer
600,3,avait
601,3,avantages
602,3,bientôt
603,3,blâme
604,3,bonjour
605,3,bons
606,3,champ
607,3,charge
608,3,chargé
609,3,charitable
610,3,charité
611,3,chemin
612,3,chercher
613,3,consentir
614,3,contenter
615,3,contes
616,3,convaincre
617,3,cour
618,3,crime
619,3,crimes
620,3,criminel
621,3,crédit
622,3,davantage
623,3,demander
624,3,desseins
625,3,devenir
626,3,dirai
627,3,dirais
628,3,discrète
629,3,dise
630,3,docteur
631,3,don
632,3,douce
633,3,droite
634,3,droits
635,3,dure
636,3,dès
637,3,démentir
638,3,désespoir
639,3,désir
640,3,désire
641,3,désormais
642,3,effet
643,3,elles
644,3,empêcher
645,3,enfants
646,3,erreur
647,3,estime
648,3,eut
649,3,excès
650,3,expose
651,3,faisait
652,3,faite
653,3,faute
654,3,faveurs
655,3,façons
656,3,ferme
657,3,ferveur
658,3,feu
659,3,feux
660,3,fiez
661,3,fond
662,3,fous
663,3,fripon
664,3,fuite
665,3,gendre
666,3,glorieux
667,3,grimace
668,3,gueux
669,3,horreur
670,3,hypocrisie
671,3,héritier
672,3,impudence
673,3,ingratitude
674,3,injure
675,3,innocence
676,3,insolence
677,3,instance
678,3,intérêts
679,3,jours
680,3,juger
681,3,justice
682,3,laisser
683,3,las
684,3,leçons
685,3,loyal
686,3,maintenant
687,3,malheureux
688,3,mariage
689,3,matière
690,3,mauvais
691,3,meilleur
692,3,merveilleux
693,3,met
694,3,mettez
695,3,milieu
696,3,mille
697,3,mouchoir
698,3,mourir
699,3,méchante
700,3,nature
701,3,nez
702,3,noir
703,3,nouvelle
704,3,nuit
705,3,oh
706,3,oppose
707,3,ordonne
708,3,ordre
709,3,ordres
710,3,oreille
711,3,ose
712,3,ouvrir
713,3,pardon
714,3,pareils
715,3,parer
716,3,parlé
717,3,parti
718,3,passer
719,3,passion
720,3,perdu
721,3,permis
722,3,peuvent
723,3,plaignez
724,3,pleine
725,3,poursuivre
726,3,pouvez
727,3,prochain
728,3,promis
729,3,propre
730,3,prétendre
731,3,prétends
732,3,pur
733,3,pût
734,3,quelqu
735,3,quelques
736,3,raisons
737,3,recevoir
738,3,recours
739,3,remettez
740,3,rend
741,3,renoncer
742,3,repos
743,3,reprendre
744,3,reste
745,3,retour
746,3,revenir
747,3,rompre
748,3,répandre
749,3,réponds
750,3,résoudre
751,3,sachez
752,3,sacré
753,3,sainte
754,3,saurais
755,3,secours
756,3,secrets
757,3,six
758,3,sort
759,3,souci
760,3,soufflet
761,3,souffre
762,3,souffrez
763,3,soupirs
764,3,suite
765,3,suivez
766,3,supplice
767,3,sûr
768,3,tais
769,3,tels
770,3,tendresses
771,3,tes
772,3,tiens
773,3,tire
774,3,tirez
775,3,tombe
776,3,tomber
777,3,tour
778,3,tourne
779,3,traiter
780,3,tromper
781,3,usage
782,3,vain
783,3,vains
784,3,venait
785,3,venez
786,3,vengeance
787,3,vint
788,3,vis
789,3,visites
790,3,vit
791,3,voie
792,3,voudrez
793,3,voudriez
794,3,vouliez
795,3,vue
796,3,vuider
797,3,vînt
798,3,vôtre
799,3,âge
800,3,écouter
801,3,élire
802,3,émouvoir
803,2,accompagner
804,2,accord
805,2,accuse
806,2,agit
807,2,aide
808,2,aie
809,2,ailleurs
810,2,aisé
811,2,ajuster
812,2,alarme
813,2,allait
814,2,amants
815,2,amis
816,2,amusement
817,2,annoncer
818,2,apparences
819,2,appartient
820,2,appas
821,2,armer
822,2,armé
823,2,arrêtez
824,2,artifice
825,2,as
826,2,assomme
827,2,attache
828,2,attaquer
829,2,attendez
830,2,attends
831,2,attirer
832,2,aurait
833,2,austère
834,2,autoriser
835,2,avecque
836,2,avertir
837,2,aveugle
838,2,aveuglement
839,2,avise
840,2,badinage
841,2,bagatelle
842,2,beautés
843,2,bienfaits
844,2,braver
845,2,braves
846,2,brille
847,2,briller
848,2,bruits
849,2,béatitude
850,2,cabale
851,2,cacher
852,2,caprice
853,2,caquets
854,2,caractère
855,2,cause
856,2,celle
857,2,certaine
858,2,certains
859,2,cessez
860,2,chair
861,2,chaise
862,2,chasse
863,2,chasser
864,2,cherche
865,2,choisir
866,2,ci
867,2,coiffé
868,2,combat
869,2,compatis
870,2,conduire
871,2,conduit
872,2,confesse
873,2,confidence
874,2,confusion
875,2,connaît
876,2,connu
877,2,conseille
878,2,conseillez
879,2,conseils
880,2,consentement
881,2,conséquences
882,2,content
883,2,contrôle
884,2,convalescence
885,2,corps
886,2,courage
887,2,courez
888,2,courir
889,2,couronner
890,2,crains
891,2,craintes
892,2,critique
893,2,croie
894,2,croiriez
895,2,croit
896,2,côté
897,2,demain
898,2,demeure
899,2,deniers
900,2,descendre
901,2,devant
902,2,diable
903,2,diantre
904,2,difficile
905,2,dirait
906,2,diriez
907,2,disant
908,2,discret
909,2,disgrâce
910,2,divers
911,2,dix
912,2,doivent
913,2,dons
914,2,douceurs
915,2,douter
916,2,dupe
917,2,débat
918,2,défend
919,2,délicat
920,2,déloyauté
921,2,démêlé
922,2,dépend
923,2,déplaise
924,2,détail
925,2,détours
926,2,dû
927,2,effort
928,2,effrontés
929,2,effroyable
930,2,embarras
931,2,embarrasse
932,2,embrasse
933,2,empire
934,2,emploi
935,2,employer
936,2,employez
937,2,emportements
938,2,emportez
939,2,endroit
940,2,ennui
941,2,enrager
942,2,entends
943,2,entièrement
944,2,entrer
945,2,envoie
946,2,espérer
947,2,excuserez
948,2,explique
949,2,expliquer
950,2,exploit
951,2,extravagance
952,2,exécute
953,2,exécuter
954,2,facilement
955,2,faible
956,2,faisant
957,2,fallait
958,2,famille
959,2,fat
960,2,façon
961,2,feindre
962,2,feront
963,2,fièvre
964,2,flatter
965,2,flipote
966,2,forme
967,2,former
968,2,forte
969,2,forts
970,2,frais
971,2,fuyant
972,2,fâcheuse
973,2,félicité
974,2,fête
975,2,galante
976,2,galants
977,2,garde
978,2,garder
979,2,garçon
980,2,gré
981,2,généreux
982,2,habit
983,2,hait
984,2,hante
985,2,hasard
986,2,haute
987,2,hautement
988,2,heures
989,2,histoire
990,2,hommages
991,2,hommes
992,2,honorer
993,2,hors
994,2,huissier
995,2,humains
996,2,humble
997,2,hypocrite
998,2,héros
999,2,ignore
1000,2,importe
1001,2,impudemment
1002,2,impunément
1003,2,injures
1004,2,instant
1005,2,intrigues
1006,2,irait
1007,2,jaloux
1008,2,jaser
1009,2,jeter
1010,2,joignez
1011,2,joint
1012,2,joue
1013,2,jouer
1014,2,jouir
1015,2,jugements
1016,2,jus
1017,2,justes
1018,2,laissé
1019,2,langue
1020,2,larmes
1021,2,laurent
1022,2,lever
1023,2,libertin
1024,2,libre
1025,2,licence
1026,2,liens
1027,2,lieux
1028,2,louis
1029,2,loué
1030,2,lâche
1031,2,lâches
1032,2,malgré
1033,2,manque
1034,2,manquer
1035,2,marchons
1036,2,masque
1037,2,maux
1038,2,maximes
1039,2,meilleurs
1040,2,menace
1041,2,mener
1042,2,merveille
1043,2,misérable
1044,2,modestie
1045,2,modèle
1046,2,modérez
1047,2,monte
1048,2,mort
1049,2,motif
1050,2,médire
1051,2,ménager
1052,2,mépris
1053,2,métier
1054,2,naissance
1055,2,net
1056,2,noeuds
1057,2,noire
1058,2,nécessaire
1059,2,obéissance
1060,2,obéisse
1061,2,offenser
1062,2,offrir
1063,2,ombrage
1064,2,ordonnance
1065,2,oublier
1066,2,ouvre
1067,2,papiers
1068,2,paraît
1069,2,parce
1070,2,pareille
1071,2,pareilles
1072,2,parents
1073,2,parfaits
1074,2,parlant
1075,2,parlent
1076,2,partage
1077,2,partager
1078,2,partie
1079,2,passa
1080,2,payerez
1081,2,pendard
1082,2,perdons
1083,2,personnage
1084,2,perte
1085,2,peste
1086,2,pieds
1087,2,pire
1088,2,pitié
1089,2,plaindre
1090,2,plaisirs
1091,2,pompeux
1092,2,possesseur
1093,2,possible
1094,2,pourrez
1095,2,pourtant
1096,2,premier
1097,2,prendraient
1098,2,prenons
1099,2,prescrit
1100,2,prison
1101,2,prière
1102,2,prières
1103,2,procédé
1104,2,projet
1105,2,prompt
1106,2,propres
1107,2,prude
1108,2,près
1109,2,prétend
1110,2,prévenu
1111,2,puisqu
1112,2,puissante
1113,2,pureté
1114,2,pécher
1115,2,pécheur
1116,2,périls
1117,2,quatre
1118,2,quereller
1119,2,raccommoder
1120,2,recule
1121,2,redevable
1122,2,refuser
1123,2,regret
1124,2,remettre
1125,2,remise
1126,2,remplir
1127,2,remède
1128,2,rencontre
1129,2,rends
1130,2,reprend
1131,2,respect
1132,2,ressentiment
1133,2,ressorts
1134,2,retirez
1135,2,retourne
1136,2,revient
1137,2,reçu
1138,2,rit
1139,2,rompons
1140,2,rouge
1141,2,réduire
1142,2,réparer
1143,2,répondre
1144,2,résistance
1145,2,résolu
1146,2,résolut
1147,2,réussir
1148,2,rêvez
1149,2,sages
1150,2,sagesse
1151,2,saint
1152,2,saison
1153,2,santé
1154,2,satisfaire
1155,2,scandalise
1156,2,science
1157,2,secrète
1158,2,seigneur
1159,2,sentiment
1160,2,serrez
1161,2,sert
1162,2,servante
1163,2,service
1164,2,serviteur
1165,2,seule
1166,2,sied
1167,2,silence
1168,2,simplement
1169,2,siècle
1170,2,songe
1171,2,sortais
1172,2,sortirai
1173,2,sot
1174,2,sottise
1175,2,souffert
1176,2,soupire
1177,2,soupçonne
1178,2,soupçons
1179,2,soyez
1180,2,succès
1181,2,suit
1182,2,supplie
1183,2,supposons
1184,2,suprême
1185,2,surpris
1186,2,sus
1187,2,sérieusement
1188,2,sûreté
1189,2,teint
1190,2,telles
1191,2,temporelles
1192,2,tendre
1193,2,tendresse
1194,2,terre
1195,2,tirer
1196,2,titre
1197,2,toucher
1198,2,touchez
1199,2,tourment
1200,2,train
1201,2,traite
1202,2,transport
1203,2,trois
1204,2,troubles
1205,2,trouvent
1206,2,trouver
1207,2,trouverez
1208,2,très
1209,2,tâche
1210,2,témoin
1211,2,témoins
1212,2,témérités
1213,2,use
1214,2,venger
1215,2,verge
1216,2,verrais
1217,2,verrez
1218,2,viendra
1219,2,visage
1220,2,visiter
1221,2,vivons
1222,2,vivrez
1223,2,voici
1224,2,vont
1225,2,voudra
1226,2,voulait
1227,2,voyons
1228,2,vraiment
1229,2,véritable
1230,2,éclatants
1231,2,éclats
1232,2,épargner
1233,2,éternelles
1234,2,étouffe
1235,1,abandon
1236,1,abandonner
1237,1,abhorre
1238,1,abominable
1239,1,absolu
1240,1,abuse
1241,1,abuser
1242,1,accable
1243,1,accablez
1244,1,acceptant
1245,1,accepterez
1246,1,accommodement
1247,1,accommodements
1248,1,accorde
1249,1,accorder
1250,1,accordée
1251,1,accusez
1252,1,accusé
1253,1,accès
1254,1,acharnement
1255,1,acheter
1256,1,achève
1257,1,acquitte
1258,1,acquittés
1259,1,admirable
1260,1,admirer
1261,1,adore
1262,1,adoucir
1263,1,adressant
1264,1,adresse
1265,1,adresser
1266,1,adroite
1267,1,adroitement
1268,1,affectation
1269,1,affection
1270,1,affectés
1271,1,affligeante
1272,1,affliger
1273,1,affranchir
1274,1,affranchisse
1275,1,affront
1276,1,agir
1277,1,agréable
1278,1,aideront
1279,1,aigreur
1280,1,aigrir
1281,1,aillent
1282,1,aimable
1283,1,aimait
1284,1,aimerais
1285,1,aimée
1286,1,aisés
1287,1,ajouter
1288,1,ajustement
1289,1,alarmes
1290,1,alcidamas
1291,1,allai
1292,1,allégresse
1293,1,alors
1294,1,altérer
1295,1,amas
1296,1,ambition
1297,1,amitiés
1298,1,amoureuse
1299,1,amoureuses
1300,1,amoureux
1301,1,amusons
1302,1,ange
1303,1,animal
1304,1,ans
1305,1,aperçus
1306,1,apparente
1307,1,appartement
1308,1,appelez
1309,1,applique
1310,1,apprendre
1311,1,apprends
1312,1,appris
1313,1,approchez
1314,1,approchons
1315,1,approuver
1316,1,approuvé
1317,1,appréhendai
1318,1,appréhende
1319,1,appréhendez
1320,1,apprête
1321,1,appui
1322,1,appuyant
1323,1,ardent
1324,1,ardente
1325,1,argas
1326,1,ariston
1327,1,armez
1328,1,armés
1329,1,arrêt
1330,1,arrêts
1331,1,arrêté
1332,1,arrêtée
1333,1,artifices
1334,1,ascendant
1335,1,assassiner
1336,1,assemblage
1337,1,assemblée
1338,1,assemblées
1339,1,assemblés
1340,1,assener
1341,1,assis
1342,1,assommé
1343,1,assure
1344,1,assurée
1345,1,assurés
1346,1,attachement
1347,1,attachent
1348,1,attachée
1349,1,attachés
1350,1,atteint
1351,1,attente
1352,1,attirait
1353,1,attirerez
1354,1,attiré
1355,1,attrapant
1356,1,aumônes
1357,1,aune
1358,1,auraient
1359,1,auront
1360,1,aussitôt
1361,1,austérités
1362,1,autel
1363,1,auteur
1364,1,autorise
1365,1,autrefois
1366,1,autrement
1367,1,auxquels
1368,1,avaient
1369,1,avance
1370,1,avancez
1371,1,avantageux
1372,1,avertit
1373,1,avouer
1374,1,ayons
1375,1,babille
1376,1,babylone
1377,1,bagatelles
1378,1,baillive
1379,1,baisait
1380,1,baisser
1381,1,bal
1382,1,bals
1383,1,bande
1384,1,bannir
1385,1,barbe
1386,1,basse
1387,1,bayez
1388,1,beauté
1389,1,beaux
1390,1,besoins
1391,1,biais
1392,1,bienfait
1393,1,bienséances
1394,1,bienvenue
1395,1,bigot
1396,1,bile
1397,1,blessées
1398,1,bleus
1399,1,blâment
1400,1,blâmez
1401,1,blâmée
1402,1,bornes
1403,1,bourbeuse
1404,1,bourru
1405,1,brave
1406,1,brillants
1407,1,brillent
1408,1,brise
1409,1,brocards
1410,1,brouillons
1411,1,bruyant
1412,1,bruyants
1413,1,brûlants
1414,1,brûlent
1415,1,brûlez
1416,1,but
1417,1,bénigne
1418,1,bénignité
1419,1,bénin
1420,1,bénisse
1421,1,bénite
1422,1,cabinet
1423,1,cache
1424,1,cagot
1425,1,cagoterie
1426,1,cagotisme
1427,1,calmer
1428,1,campagne
1429,1,capable
1430,1,caquet
1431,1,caresses
1432,1,carnaval
1433,1,carrosse
1434,1,carrosses
1435,1,cassé
1436,1,caton
1437,1,causer
1438,1,causes
1439,1,causeurs
1440,1,censure
1441,1,censurent
1442,1,cependant
1443,1,certaines
1444,1,cesser
1445,1,chaleur
1446,1,chaleurs
1447,1,chambre
1448,1,change
1449,1,changement
1450,1,changerait
1451,1,changé
1452,1,chape
1453,1,charger
1454,1,chargez
1455,1,chargés
1456,1,charlatans
1457,1,charmant
1458,1,charmantes
1459,1,charmants
1460,1,charme
1461,1,charmes
1462,1,charmé
1463,1,charmés
1464,1,chassez
1465,1,chassé
1466,1,chatouilleuse
1467,1,chaud
1468,1,chaude
1469,1,cherchez
1470,1,chicane
1471,1,choie
1472,1,chrétien
1473,1,chrétienne
1474,1,châtier
1475,1,chérir
1476,1,cite
1477,1,clairement
1478,1,clartés
1479,1,clefs
1480,1,clins
1481,1,clitandre
1482,1,cléante
1483,1,coche
1484,1,coiffée
1485,1,colorées
1486,1,combattre
1487,1,combattu
1488,1,comble
1489,1,comblera
1490,1,comblez
1491,1,commencer
1492,1,commerce
1493,1,commettre
1494,1,commune
1495,1,compagnie
1496,1,complaire
1497,1,complaisance
1498,1,complaisances
1499,1,complaisant
1500,1,complot
1501,1,complots
1502,1,comprendre
1503,1,comptés
1504,1,concevoir
1505,1,conclu
1506,1,condamne
1507,1,condamner
1508,1,condamnez
1509,1,confident
1510,1,confie
1511,1,confirmés
1512,1,confit
1513,1,confiée
1514,1,confondiez
1515,1,confus
1516,1,conjecture
1517,1,conjectures
1518,1,conjure
1519,1,connais
1520,1,connaissez
1521,1,connaîtront
1522,1,connues
1523,1,connus
1524,1,consens
1525,1,consente
1526,1,consentiez
1527,1,consentira
1528,1,conserver
1529,1,conservé
1530,1,considérerez
1531,1,consoler
1532,1,consolerez
1533,1,consomme
1534,1,conspire
1535,1,constante
1536,1,consulter
1537,1,conte
1538,1,contemplez
1539,1,contente
1540,1,contentement
1541,1,contentements
1542,1,contentez
1543,1,conter
1544,1,conteste
1545,1,contez
1546,1,contraignez
1547,1,contraint
1548,1,contrainte
1549,1,contraire
1550,1,contrarier
1551,1,contrariée
1552,1,contredis
1553,1,contrôlé
1554,1,convaincants
1555,1,conversations
1556,1,convoiter
1557,1,convoitiez
1558,1,conçois
1559,1,conçoit
1560,1,coquettes
1561,1,corneilles
1562,1,corrections
1563,1,corrige
1564,1,corriger
1565,1,corrompent
1566,1,coucher
1567,1,couché
1568,1,couler
1569,1,couleurs
1570,1,coupables
1571,1,couper
1572,1,coure
1573,1,couronne
1574,1,courrouce
1575,1,cours
1576,1,cousins
1577,1,couvent
1578,1,couvrent
1579,1,couvrez
1580,1,craindre
1581,1,crainte
1582,1,crever
1583,1,criaillerie
1584,1,crier
1585,1,croira
1586,1,croirai
1587,1,croirait
1588,1,croirez
1589,1,croisés
1590,1,croyable
1591,1,croyais
1592,1,croyant
1593,1,crue
1594,1,cruel
1595,1,cruelle
1596,1,créature
1597,1,curiosité
1598,1,cède
1599,1,céder
1600,1,célestes
1601,1,cérémonie
1602,1,daigne
1603,1,daignent
1604,1,daignez
1605,1,dame
1606,1,damner
1607,1,damoiseau
1608,1,danger
1609,1,dangereux
1610,1,daphné
1611,1,debout
1612,1,demandent
1613,1,demandée
1614,1,demeurer
1615,1,demeurerez
1616,1,demie
1617,1,dents
1618,1,dernier
1619,1,dernières
1620,1,derrière
1621,1,descendez
1622,1,desservi
1623,1,dessous
1624,1,destin
1625,1,destins
1626,1,devais
1627,1,devançait
1628,1,devenu
1629,1,deviens
1630,1,devrait
1631,1,devriez
1632,1,diablesse
1633,1,différence
1634,1,différer
1635,1,digne
1636,1,dignités
1637,1,directeur
1638,1,disait
1639,1,discernement
1640,1,discipline
1641,1,discourir
1642,1,discrétion
1643,1,disiez
1644,1,dispensez
1645,1,dissiper
1646,1,dissipé
1647,1,distinction
1648,1,distraire
1649,1,divertir
1650,1,divins
1651,1,divulguer
1652,1,do
1653,1,doigt
1654,1,doigts
1655,1,domine
1656,1,dommage
1657,1,dompte
1658,1,donnant
1659,1,donnent
1660,1,donnerais
1661,1,donneriez
1662,1,donnée
1663,1,dormir
1664,1,dormit
1665,1,dort
1666,1,dos
1667,1,double
1668,1,doucette
1669,1,douleurs
1670,1,douté
1671,1,dresser
1672,1,due
1673,1,dupé
1674,1,duquel
1675,1,dur
1676,1,dé
1677,1,débats
1678,1,débattu
1679,1,débiter
1680,1,début
1681,1,déchaînés
1682,1,déclaration
1683,1,déclare
1684,1,déclarer
1685,1,déclarez
1686,1,déclaré
1687,1,déclarés
1688,1,découvert
1689,1,décrète
1690,1,dédale
1691,1,dédites
1692,1,défendant
1693,1,défendez
1694,1,défends
1695,1,défunte
1696,1,déférence
1697,1,dégager
1698,1,dégoût
1699,1,déguise
1700,1,déjeuner
1701,1,délai
1702,1,délais
1703,1,délicates
1704,1,délivre
1705,1,délivrez
1706,1,déloyal
1707,1,démange
1708,1,démarches
1709,1,démêlez
1710,1,démêlés
1711,1,dénichez
1712,1,dénoncer
1713,1,dépendre
1714,1,dépensière
1715,1,déplaisir
1716,1,déplaisirs
1717,1,déploie
1718,1,dépouille
1719,1,dépouiller
1720,1,dépourvu
1721,1,dépôt
1722,1,désabuser
1723,1,désabusé
1724,1,désavouer
1725,1,déserter
1726,1,désespère
1727,1,déshonore
1728,1,déshonorer
1729,1,désordre
1730,1,détache
1731,1,détestant
1732,1,détesté
1733,1,détestés
1734,1,détourne
1735,1,détourner
1736,1,détromper
1737,1,détruire
1738,1,détruit
1739,1,dévisager
1740,1,dévote
1741,1,dévotement
1742,1,déçoit
1743,1,efface
1744,1,efforçons
1745,1,effroi
1746,1,effronterie
1747,1,embarrasser
1748,1,embrasser
1749,1,emmener
1750,1,emploie
1751,1,emplois
1752,1,emporte
1753,1,emportement
1754,1,emportera
1755,1,emportée
1756,1,empruntera
1757,1,empêchaient
1758,1,empêchement
1759,1,empêchera
1760,1,enclin
1761,1,encolure
1762,1,enfer
1763,1,enferme
1764,1,enfermée
1765,1,enflamme
1766,1,engagea
1767,1,engager
1768,1,enlever
1769,1,ennemi
1770,1,enquête
1771,1,enrichir
1772,1,enseigne
1773,1,entend
1774,1,entende
1775,1,entendu
1776,1,entiché
1777,1,entier
1778,1,entraîne
1779,1,entreprise
1780,1,entretenir
1781,1,entretiens
1782,1,entêté
1783,1,envieux
1784,1,enviés
1785,1,envoyer
1786,1,envoyé
1787,1,es
1788,1,esclave
1789,1,esclaves
1790,1,esprits
1791,1,espère
1792,1,espérance
1793,1,essais
1794,1,estimer
1795,1,euh
1796,1,eus
1797,1,eusse
1798,1,exactement
1799,1,examine
1800,1,excite
1801,1,excité
1802,1,excuses
1803,1,excusez
1804,1,exemplaire
1805,1,exemples
1806,1,exercer
1807,1,exilé
1808,1,expire
1809,1,exposer
1810,1,expédies
1811,1,extrémité
1812,1,extérieur
1813,1,exécution
1814,1,face
1815,1,facile
1816,1,fadaises
1817,1,fagotin
1818,1,faiblement
1819,1,faisais
1820,1,faisons
1821,1,fallut
1822,1,fanfarons
1823,1,fantaisie
1824,1,fantôme
1825,1,faquins
1826,1,fardés
1827,1,fariboles
1828,1,farouches
1829,1,fassent
1830,1,faste
1831,1,fatal
1832,1,faudrait
1833,1,fausse
1834,1,fausseté
1835,1,fautes
1836,1,faveur
1837,1,façonniers
1838,1,feins
1839,1,feint
1840,1,feinte
1841,1,fer
1842,1,ferais
1843,1,fermer
1844,1,fermeté
1845,1,ferons
1846,1,fertile
1847,1,fidèle
1848,1,fidèles
1849,1,fieffé
1850,1,fiefs
1851,1,fier
1852,1,fierai
1853,1,fierais
1854,1,fierté
1855,1,finesses
1856,1,finissons
1857,1,fins
1858,1,fis
1859,1,fissiez
1860,1,fit
1861,1,flammes
1862,1,fleur
1863,1,fleuri
1864,1,fleurie
1865,1,folle
1866,1,folles
1867,1,forcer
1868,1,forfait
1869,1,forfanterie
1870,1,forgé
1871,1,formés
1872,1,fortifiant
1873,1,fortune
1874,1,força
1875,1,foudre
1876,1,foudroyant
1877,1,fourvoyé
1878,1,franchis
1879,1,franchise
1880,1,francs
1881,1,fraude
1882,1,frayeur
1883,1,frivole
1884,1,froideur
1885,1,front
1886,1,frotter
1887,1,frustrer
1888,1,fréquenterez
1889,1,fuir
1890,1,fuirai
1891,1,fumier
1892,1,furieux
1893,1,fut
1894,1,fâcher
1895,1,fâchez
1896,1,fît
1897,1,fûtes
1898,1,gages
1899,1,gagnée
1900,1,galerie
1901,1,garant
1902,1,garantis
1903,1,gardai
1904,1,gardais
1905,1,gardasse
1906,1,garnement
1907,1,gauchir
1908,1,gaupe
1909,1,gendarme
1910,1,genou
1911,1,genre
1912,1,gentilhomme
1913,1,gigot
1914,1,gloser
1915,1,gouvernait
1916,1,gouverné
1917,1,goût
1918,1,goûta
1919,1,goûte
1920,1,grandes
1921,1,grandeurs
1922,1,gras
1923,1,griffes
1924,1,gros
1925,1,guettais
1926,1,gueule
1927,1,gueusant
1928,1,gâtent
1929,1,gâter
1930,1,gâtons
1931,1,gêne
1932,1,gîte
1933,1,habile
1934,1,hachis
1935,1,haire
1936,1,hais
1937,1,halte
1938,1,hantez
1939,1,hardi
1940,1,hasardez
1941,1,haïssez
1942,1,heur
1943,1,hier
1944,1,histoires
1945,1,ho
1946,1,holà
1947,1,homicide
1948,1,homie
1949,1,honnêtes
1950,1,horreurs
1951,1,humblement
1952,1,hâter
1953,1,hâtez
1954,1,hébété
1955,1,hôte
1956,1,idée
1957,1,ignominie
1958,1,ignorez
1959,1,illumine
1960,1,imitait
1961,1,immortelle
1962,1,impatronise
1963,1,impertinente
1964,1,implore
1965,1,important
1966,1,importante
1967,1,importun
1968,1,imposer
1969,1,imposteur
1970,1,imposteurs
1971,1,impostures
1972,1,impression
1973,1,imprudence
1974,1,impute
1975,1,imputerait
1976,1,imputée
1977,1,incident
1978,1,inconnu
1979,1,incroyable
1980,1,incrédulité
1981,1,indigence
1982,1,indigne
1983,1,indignités
1984,1,indiscrète
1985,1,induire
1986,1,indulgence
1987,1,industrie
1988,1,ineffable
1989,1,infaillible
1990,1,infirmité
1991,1,informe
1992,1,informé
1993,1,infortunée
1994,1,infâmes
1995,1,iniquité
1996,1,injurieux
1997,1,injuste
1998,1,injustice
1999,1,inquiète
2000,1,inquiétude
2001,1,inquiété
2002,1,insensé
2003,1,insensée
2004,1,insolemment
2005,1,insolent
2006,1,insolents
2007,1,inspire
2008,1,instruire
2009,1,instruit
2010,1,insulter
2011,1,insupportable
2012,1,intention
2013,1,intentions
2014,1,interprète
2015,1,interpréter
2016,1,interrompre
2017,1,interrompt
2018,1,intéressée
2019,1,intérieur
2020,1,inventions
2021,1,invincible
2022,1,invite
2023,1,iront
2024,1,jetez
2025,1,jeu
2026,1,jeune
2027,1,jeûnes
2028,1,joignons
2029,1,joui
2030,1,jugement
2031,1,jugerez
2032,1,jupon
2033,1,jure
2034,1,laissant
2035,1,langues
2036,1,laquais
2037,1,large
2038,1,lendemain
2039,1,lettres
2040,1,levez
2041,1,leçon
2042,1,libertinage
2043,1,libertins
2044,1,liberté
2045,1,librement
2046,1,lien
2047,1,lier
2048,1,limites
2049,1,lit
2050,1,livre
2051,1,loge
2052,1,logis
2053,1,loi
2054,1,longs
2055,1,longueur
2056,1,lotie
2057,1,louer
2058,1,lueur
2059,1,lumière
2060,1,lâcheté
2061,1,lâchetés
2062,1,lâchée
2063,1,lâchés
2064,1,léger
2065,1,légitime
2066,1,légèrement
2067,1,maladie
2068,1,malaisé
2069,1,malice
2070,1,malin
2071,1,malédiction
2072,1,mander
2073,1,mangea
2074,1,manger
2075,1,manquent
2076,1,manquera
2077,1,manteau
2078,1,marchandise
2079,1,marchez
2080,1,mariez
2081,1,marionnettes
2082,1,maris
2083,1,mariés
2084,1,martyre
2085,1,matin
2086,1,maudite
2087,1,mauvaise
2088,1,maxime
2089,1,maîtresse
2090,1,menacer
2091,1,menaces
2092,1,menez
2093,1,mentir
2094,1,merci
2095,1,merveilles
2096,1,mesures
2097,1,mets
2098,1,mettrai
2099,1,meubles
2100,1,miel
2101,1,mien
2102,1,mienne
2103,1,miennes
2104,1,million
2105,1,mine
2106,1,miracles
2107,1,miraculeux
2108,1,miroir
2109,1,mise
2110,1,mit
2111,1,modération
2112,1,moelleuse
2113,1,moindres
2114,1,mollit
2115,1,monarque
2116,1,monnaie
2117,1,montra
2118,1,montrerai
2119,1,montrions
2120,1,moque
2121,1,moquerais
2122,1,morceau
2123,1,morceaux
2124,1,mortelle
2125,1,mortels
2126,1,mortifie
2127,1,mortifier
2128,1,mortifiez
2129,1,mouche
2130,1,mouches
2131,1,mourrai
2132,1,mourront
2133,1,mouvement
2134,1,moyens
2135,1,mufle
2136,1,museau
2137,1,musettes
2138,1,mystère
2139,1,mystères
2140,1,mâche
2141,1,mène
2142,1,méchantes
2143,1,méconnaître
2144,1,médisance
2145,1,médisants
2146,1,ménage
2147,1,méprendre
2148,1,méprise
2149,1,méritez
2150,1,mérité
2151,1,mérités
2152,1,mésuse
2153,1,mêle
2154,1,mêler
2155,1,mêlez
2156,1,mêlions
2157,1,mêmes
2158,1,mûrement
2159,1,natif
2160,1,naître
2161,1,nier
2162,1,noblesse
2163,1,noeud
2164,1,noircir
2165,1,noires
2166,1,nomme
2167,1,nommé
2168,1,noms
2169,1,nonobstant
2170,1,nonpareilles
2171,1,normandie
2172,1,nouveautés
2173,1,nouvelles
2174,1,nu
2175,1,nues
2176,1,nuire
2177,1,nullement
2178,1,néant
2179,1,négliger
2180,1,nôtres
2181,1,objet
2182,1,objets
2183,1,obligeants
2184,1,obligé
2185,1,obligée
2186,1,obstinait
2187,1,obstine
2188,1,obstiné
2189,1,obtenir
2190,1,odieux
2191,1,offenses
2192,1,offensée
2193,1,office
2194,1,offrande
2195,1,oisifs
2196,1,ombre
2197,1,oncles
2198,1,opposer
2199,1,or
2200,1,oracle
2201,1,oracles
2202,1,orage
2203,1,orante
2204,1,ordinaire
2205,1,ordinaires
2206,1,ordonner
2207,1,ordures
2208,1,orgon
2209,1,oronte
2210,1,oses
2211,1,osé
2212,1,ouais
2213,1,oublie
2214,1,ouf
2215,1,outre
2216,1,outrer
2217,1,ouvert
2218,1,ouverte
2219,1,ouvrage
2220,1,ouvrages
2221,1,ouvrez
2222,1,ouït
2223,1,pacifierez
2224,1,papier
2225,1,parbleu
2226,1,pardonner
2227,1,pare
2228,1,parez
2229,1,parfait
2230,1,parfaite
2231,1,parfois
2232,1,parles
2233,1,parliez
2234,1,partagés
2235,1,parts
2236,1,parue
2237,1,parures
2238,1,passant
2239,1,passent
2240,1,passionner
2241,1,passé
2242,1,paupière
2243,1,pauvres
2244,1,payer
2245,1,payez
2246,1,pays
2247,1,payé
2248,1,payés
2249,1,peau
2250,1,peint
2251,1,penchant
2252,1,pensent
2253,1,penser
2254,1,pensez
2255,1,pensées
2256,1,percé
2257,1,perd
2258,1,perde
2259,1,perdez
2260,1,perdre
2261,1,perdrix
2262,1,perfidies
2263,1,persuader
2264,1,pesé
2265,1,petite
2266,1,petites
2267,1,pierre
2268,1,pieuses
2269,1,pièces
2270,1,pièges
2271,1,piété
2272,1,plains
2273,1,plaintes
2274,1,plaira
2275,1,plairez
2276,1,plaisante
2277,1,plaisent
2278,1,planter
2279,1,plantés
2280,1,plat
2281,1,pleins
2282,1,pliant
2283,1,plupart
2284,1,plâtré
2285,1,plût
2286,1,poche
2287,1,poids
2288,1,poing
2289,1,politique
2290,1,polydore
2291,1,portent
2292,1,porter
2293,1,porterait
2294,1,porteur
2295,1,portez
2296,1,portraits
2297,1,portée
2298,1,poser
2299,1,possédée
2300,1,posture
2301,1,pourriez
2302,1,poursuis
2303,1,poursuite
2304,1,poursuivie
2305,1,pourvoir
2306,1,pourvue
2307,1,poussait
2308,1,poussant
2309,1,pousserez
2310,1,poussée
2311,1,pouviez
2312,1,premiers
2313,1,preniez
2314,1,prennent
2315,1,presque
2316,1,pressant
2317,1,pressants
2318,1,presse
2319,1,presser
2320,1,pressé
2321,1,priants
2322,1,prierais
2323,1,priez
2324,1,princesse
2325,1,prise
2326,1,priser
2327,1,prisonnier
2328,1,prisonniers
2329,1,privautés
2330,1,prive
2331,1,priver
2332,1,procès
2333,1,procéder
2334,1,profonde
2335,1,progrès
2336,1,promesse
2337,1,promesses
2338,1,promettent
2339,1,prompte
2340,1,promptement
2341,1,prompts
2342,1,propice
2343,1,proposer
2344,1,proposition
2345,1,proposé
2346,1,proposée
2347,1,prospérer
2348,1,prud
2349,1,prudent
2350,1,prudes
2351,1,précises
2352,1,prédit
2353,1,préparions
2354,1,présage
2355,1,présages
2356,1,présence
2357,1,présenter
2358,1,préserve
2359,1,prétendent
2360,1,prétendez
2361,1,prétexte
2362,1,prévenir
2363,1,préviendra
2364,1,prévoir
2365,1,prévois
2366,1,prêchent
2367,1,prêchez
2368,1,prêché
2369,1,prêtiez
2370,1,prôner
2371,1,public
2372,1,puce
2373,1,puissants
2374,1,puissions
2375,1,punition
2376,1,pures
2377,1,put
2378,1,péchez
2379,1,périandre
2380,1,pétaud
2381,1,qualités
2382,1,quant
2383,1,quarante
2384,1,quart
2385,1,quartier
2386,1,querelle
2387,1,querellé
2388,1,quiconque
2389,1,quittons
2390,1,quitté
2391,1,quiétude
2392,1,rabats
2393,1,radoucit
2394,1,raille
2395,1,raillerie
2396,1,raisonnable
2397,1,raisonne
2398,1,raisonnement
2399,1,raisonnements
2400,1,raisonner
2401,1,raisonnons
2402,1,raisonnés
2403,1,rapport
2404,1,rapports
2405,1,rapproche
2406,1,rares
2407,1,rasseoir
2408,1,ravaler
2409,1,ravi
2410,1,ravie
2411,1,ravir
2412,1,ravissements
2413,1,rebattre
2414,1,rebuter
2415,1,rebutez
2416,1,reconnaissance
2417,1,reconnaît
2418,1,reconnaître
2419,1,reconnu
2420,1,rectifier
2421,1,recueillant
2422,1,recueille
2423,1,redirai
2424,1,redresser
2425,1,refusais
2426,1,regardant
2427,1,regards
2428,1,rejetez
2429,1,relevé
2430,1,religieuses
2431,1,relâchez
2432,1,remarque
2433,1,remords
2434,1,rempart
2435,1,remédie
2436,1,rende
2437,1,rendez
2438,1,rendrez
2439,1,renomme
2440,1,renommé
2441,1,renommée
2442,1,renonce
2443,1,rentre
2444,1,rentrer
2445,1,rentrez
2446,1,repartir
2447,1,repens
2448,1,repentir
2449,1,replis
2450,1,reporter
2451,1,repoussé
2452,1,reprennent
2453,1,reprit
2454,1,respecte
2455,1,respire
2456,1,respirer
2457,1,responsable
2458,1,ressemblance
2459,1,ressentiments
2460,1,retenez
2461,1,retire
2462,1,retirer
2463,1,retournant
2464,1,retours
2465,1,revanche
2466,1,revenez
2467,1,revers
2468,1,revoir
2469,1,reçois
2470,1,reçoivent
2471,1,rhume
2472,1,rhétorique
2473,1,ricane
2474,1,richesse
2475,1,ridicules
2476,1,rigueur
2477,1,ris
2478,1,risque
2479,1,roi
2480,1,rompez
2481,1,rompit
2482,1,romprai
2483,1,roter
2484,1,rubans
2485,1,rude
2486,1,ruine
2487,1,rusé
2488,1,règne
2489,1,réalités
2490,1,rébellion
2491,1,récompense
2492,1,réduisez
2493,1,réduit
2494,1,réduite
2495,1,réfléchis
2496,1,régaler
2497,1,réglisse
2498,1,réjouis
2499,1,réparé
2500,1,répond
2501,1,réponde
2502,1,répondez
2503,1,répondrait
2504,1,répondrez
2505,1,réponse
2506,1,répugne
2507,1,résistes
2508,1,résolument
2509,1,résolutions
2510,1,résous
2511,1,résout
2512,1,rétablir
2513,1,rétracte
2514,1,réveiller
2515,1,révéler
2516,1,révéré
2517,1,rôle
2518,1,sacrifie
2519,1,sacrifierais
2520,1,sacrifiez
2521,1,sacrilège
2522,1,sacrées
2523,1,sagement
2524,1,saignée
2525,1,sainteté
2526,1,saints
2527,1,saisir
2528,1,saisissez
2529,1,salle
2530,1,salutaire
2531,1,sang
2532,1,saura
2533,1,saurai
2534,1,sauraient
2535,1,saurez
2536,1,sauvages
2537,1,sauver
2538,1,sauvez
2539,1,savais
2540,1,savent
2541,1,scandaliser
2542,1,scandalisez
2543,1,scrupule
2544,1,scrupules
2545,1,seconde
2546,1,secourir
2547,1,semblant
2548,1,semblent
2549,1,semblez
2550,1,semer
2551,1,sensés
2552,1,sent
2553,1,sentant
2554,1,sentez
2555,1,sentir
2556,1,serai
2557,1,seraient
2558,1,serais
2559,1,seriez
2560,1,serment
2561,1,serments
2562,1,sermonner
2563,1,seront
2564,1,serpent
2565,1,serre
2566,1,serré
2567,1,servant
2568,1,servent
2569,1,servie
2570,1,seuls
2571,1,sevré
2572,1,sexe
2573,1,sienne
2574,1,signifier
2575,1,simagrées
2576,1,simple
2577,1,simples
2578,1,sincère
2579,1,sincérité
2580,1,singe
2581,1,singulière
2582,1,sitôt
2583,1,siège
2584,1,siéraient
2585,1,sois
2586,1,sombre
2587,1,sommation
2588,1,sommeil
2589,1,sommeiller
2590,1,sonder
2591,1,songeais
2592,1,songeons
2593,1,songer
2594,1,songerons
2595,1,songé
2596,1,sornettes
2597,1,sors
2598,1,sortes
2599,1,sorti
2600,1,sotte
2601,1,sottes
2602,1,sottises
2603,1,soucierais
2604,1,soudain
2605,1,soudaine
2606,1,souffrirai
2607,1,souffrirez
2608,1,souhait
2609,1,souhaite
2610,1,souhaitez
2611,1,souhaits
2612,1,souillures
2613,1,soulagement
2614,1,souliers
2615,1,soumis
2616,1,soumise
2617,1,soupa
2618,1,souper
2619,1,soupçon
2620,1,souris
2621,1,souvenez
2622,1,souvenu
2623,1,souverain
2624,1,souveraine
2625,1,souverains
2626,1,souvient
2627,1,soyons
2628,1,splendeur
2629,1,spécieux
2630,1,style
2631,1,suave
2632,1,suavité
2633,1,suborner
2634,1,succession
2635,1,suivante
2636,1,suivit
2637,1,suivrai
2638,1,sujets
2639,1,sujette
2640,1,surmonta
2641,1,surprenante
2642,1,surprend
2643,1,surprendra
2644,1,surséance
2645,1,surtout
2646,1,sympathie
2647,1,séduiront
2648,1,sévérité
2649,1,sûres
2650,1,tairas
2651,1,tairez
2652,1,taise
2653,1,taises
2654,1,tait
2655,1,tandis
2656,1,tapis
2657,1,tarder
2658,1,targuer
2659,1,tartuffiée
2660,1,teintes
2661,1,tempéraments
2662,1,tendent
2663,1,tendres
2664,1,tenez
2665,1,tentation
2666,1,tentations
2667,1,tente
2668,1,tenter
2669,1,tenterait
2670,1,tenu
2671,1,termes
2672,1,ternir
2673,1,terribles
2674,1,tiendrez
2675,1,tienne
2676,1,tiers
2677,1,timidité
2678,1,tirées
2679,1,touchante
2680,1,tourmentez
2681,1,tourna
2682,1,tourterelles
2683,1,tousse
2684,1,toussez
2685,1,tracas
2686,1,trace
2687,1,trahi
2688,1,trahirais
2689,1,trahisons
2690,1,traitable
2691,1,traitement
2692,1,traitez
2693,1,traité
2694,1,traitée
2695,1,tranquille
2696,1,transféré
2697,1,transportés
2698,1,travaille
2699,1,traverser
2700,1,traîtresse
2701,1,tribulations
2702,1,triomphé
2703,1,tristes
2704,1,tromperie
2705,1,trompeur
2706,1,trompeuse
2707,1,troubler
2708,1,troublées
2709,1,troublés
2710,1,trouva
2711,1,trouvais
2712,1,trouvé
2713,1,tue
2714,1,tuée
2715,1,tyran
2716,1,tyrannique
2717,1,tâchons
2718,1,tâte
2719,1,tâterez
2720,1,témoignage
2721,1,témoignages
2722,1,témoigner
2723,1,témérité
2724,1,têtes
2725,1,unique
2726,1,unir
2727,1,usait
2728,1,ustensile
2729,1,usurper
2730,1,usé
2731,1,usés
2732,1,vacarme
2733,1,vaines
2734,1,valait
2735,1,valets
2736,1,vanité
2737,1,vantez
2738,1,vaudrait
2739,1,vaurien
2740,1,vaux
2741,1,veiller
2742,1,venant
2743,1,vengeances
2744,1,veniez
2745,1,venin
2746,1,venu
2747,1,venue
2748,1,verbal
2749,1,vermeille
2750,1,verra
2751,1,verrons
2752,1,verser
2753,1,veuille
2754,1,veuillent
2755,1,vice
2756,1,vices
2757,1,viendrai
2758,1,viendrez
2759,1,viennent
2760,1,ville
2761,1,vin
2762,1,vindicatifs
2763,1,violente
2764,1,violents
2765,1,violé
2766,1,visible
2767,1,visite
2768,1,visité
2769,1,visse
2770,1,visée
2771,1,vitesse
2772,1,vive
2773,1,vives
2774,1,voile
2775,1,voisinage
2776,1,voisine
2777,1,voix
2778,1,voleur
2779,1,volontiers
2780,1,volonté
2781,1,volontés
2782,1,volumes
2783,1,voulant
2784,1,voulut
2785,1,voulût
2786,1,voyant
2787,1,véritablement
2788,1,vérités
2789,1,vêtue
2790,1,vôtres
2791,1,zélé
2792,1,âmes
2793,1,âpre
2794,1,ébaubie
2795,1,ébloui
2796,1,éblouir
2797,1,éblouis
2798,1,ébranler
2799,1,échauffe
2800,1,échauffée
2801,1,éclaire
2802,1,éclairé
2803,1,écot
2804,1,écoutez
2805,1,écouté
2806,1,écoutés
2807,1,écrire
2808,1,écrit
2809,1,édifiée
2810,1,égal
2811,1,égale
2812,1,également
2813,1,égaler
2814,1,égard
2815,1,église
2816,1,églises
2817,1,égratignure
2818,1,élancements
2819,1,élans
2820,1,élever
2821,1,éloignant
2822,1,élue
2823,1,émue
2824,1,épanché
2825,1,épaule
2826,1,épouse
2827,1,épouser
2828,1,épouserait
2829,1,épousez
2830,1,épousiez
2831,1,épris
2832,1,éprise
2833,1,épuiser
2834,1,équité
2835,1,étale
2836,1,étalés
2837,1,étant
2838,1,éteindre
2839,1,étendre
2840,1,étoffe
2841,1,étrangement
2842,1,étude
2843,1,événement
