#Word Types: 2457
#Word Tokens: 16289
#Search Hits: 0
1	452	de	
2	399	et	
3	317	il	
4	298	un	
5	292	le	
6	290	l	
7	273	que	
8	263	est	
9	256	je	
10	220	en	
11	219	qui	
12	204	la	
13	201	qu	
14	198	à	
15	195	d	
16	189	ce	
17	181	pour	
18	163	son	
19	156	ne	
20	132	si	
21	129	mon	
22	122	mais	
23	119	des	
24	117	les	
25	116	vous	
26	104	pas	
27	101	on	
28	101	par	
29	101	tu	
30	98	plus	
31	96	n	
32	92	c	
33	87	a	
34	87	lui	
35	85	m	
36	84	me	
37	82	nous	
38	80	ma	
39	79	bien	
40	79	fait	
41	78	sa	
42	75	j	
43	74	ses	
44	74	une	
45	68	s	
46	62	dans	
47	60	ton	
48	59	se	
49	58	du	
50	58	peut	
51	57	sans	
52	52	même	
53	51	au	
54	51	te	
55	50	mort	
56	50	point	
57	50	tout	
58	49	moi	
59	49	trop	
60	48	ils	
61	47	leur	
62	47	sont	
63	44	être	
64	43	comme	
65	43	père	
66	41	cette	
67	41	tous	
68	40	seigneur	
69	39	celui	
70	39	t	
71	38	ai	
72	38	amour	
73	37	faire	
74	37	mes	
75	37	roi	
76	36	ces	
77	35	donc	
78	35	toujours	
79	34	dessein	
80	34	dont	
81	33	coeur	
82	33	suis	
83	33	sur	
84	32	aussi	
85	32	notre	
86	31	avec	
87	31	dieu	
88	31	doit	
89	31	toi	
90	30	ainsi	
91	30	où	
92	30	état	
93	29	grand	
94	28	moins	
95	28	non	
96	28	sélim	
97	28	ta	
98	27	nos	
99	27	ou	
100	27	y	
101	26	juste	
102	26	mal	
103	26	quelque	
104	26	sang	
105	26	veux	
106	25	achomat	
107	25	dedans	
108	25	ont	
109	25	quand	
110	25	tes	
111	24	crime	
112	24	dois	
113	24	leurs	
114	24	là	
115	24	vie	
116	23	voir	
117	22	aime	
118	22	cet	
119	22	elle	
120	22	faut	
121	22	prince	
122	22	quel	
123	22	trône	
124	21	contre	
125	21	jamais	
126	21	madame	
127	21	mieux	
128	21	peu	
129	21	sujet	
130	21	venger	
131	20	donne	
132	20	puissance	
133	20	seul	
134	20	tyran	
135	20	votre	
136	20	âme	
137	19	enfin	
138	19	plutôt	
139	19	tant	
140	19	veut	
141	18	aux	
142	18	dit	
143	17	ah	
144	17	après	
145	17	corps	
146	17	mains	
147	17	soit	
148	17	tête	
149	17	étant	
150	16	avoir	
151	16	bajazet	
152	16	ceux	
153	16	ciel	
154	16	donner	
155	16	effet	
156	16	esprit	
157	16	malheur	
158	16	oui	
159	16	sort	
160	15	bonheur	
161	15	corchut	
162	15	deux	
163	15	généreux	
164	15	honneur	
165	15	mourir	
166	15	peine	
167	15	punir	
168	15	quoi	
169	15	sentiments	
170	15	vertu	
171	14	assez	
172	14	autre	
173	14	courage	
174	14	empire	
175	14	fais	
176	14	maux	
177	14	supplice	
178	14	vois	
179	14	ô	
180	13	cher	
181	13	dis	
182	13	encor	
183	13	eux	
184	13	fils	
185	13	lâche	
186	13	pouvoir	
187	13	propre	
188	13	sera	
189	13	toute	
190	12	ayant	
191	12	crimes	
192	12	desseins	
193	12	devoir	
194	12	ingrat	
195	12	innocent	
196	12	misère	
197	12	puis	
198	12	rien	
199	12	rois	
200	12	sceptre	
201	12	sujets	
202	12	tombeau	
203	12	vos	
204	11	amis	
205	11	autres	
206	11	bon	
207	11	couronne	
208	11	digne	
209	11	donné	
210	11	foi	
211	11	font	
212	11	fut	
213	11	jour	
214	11	jours	
215	11	lois	
216	11	lors	
217	11	pays	
218	11	puisque	
219	11	puissant	
220	11	rage	
221	11	était	
222	10	achmet	
223	10	alors	
224	10	bonté	
225	10	bras	
226	10	douleur	
227	10	déjà	
228	10	ennemi	
229	10	ennemis	
230	10	fera	
231	10	frère	
232	10	heureux	
233	10	lieu	
234	10	nature	
235	10	reine	
236	10	rendre	
237	10	sauver	
238	10	suivre	
239	10	sultane	
240	10	vice	
241	10	voyant	
242	9	ait	
243	9	ami	
244	9	avait	
245	9	cause	
246	9	efforts	
247	9	envie	
248	9	eut	
249	9	extrême	
250	9	fasse	
251	9	fort	
252	9	indigne	
253	9	injuste	
254	9	justice	
255	9	lorsque	
256	9	malheureux	
257	9	nom	
258	9	outrage	
259	9	peux	
260	9	prend	
261	9	seulement	
262	9	soins	
263	9	trouve	
264	9	trépas	
265	9	vengeance	
266	9	viens	
267	8	aga	
268	8	agir	
269	8	aussitôt	
270	8	belle	
271	8	cependant	
272	8	colère	
273	8	conseil	
274	8	conseils	
275	8	croit	
276	8	demande	
277	8	grands	
278	8	haine	
279	8	injure	
280	8	intérêt	
281	8	malgré	
282	8	maître	
283	8	misérable	
284	8	ni	
285	8	obéir	
286	8	obéissance	
287	8	personne	
288	8	peur	
289	8	projets	
290	8	puisqu	
291	8	punit	
292	8	quitte	
293	8	rang	
294	8	sentiment	
295	8	trahir	
296	8	vais	
297	8	voix	
298	7	absolu	
299	7	afin	
300	7	aimez	
301	7	as	
302	7	attentat	
303	7	aujourd	
304	7	beau	
305	7	car	
306	7	chef	
307	7	coups	
308	7	cours	
309	7	disgrâce	
310	7	doux	
311	7	droit	
312	7	encore	
313	7	entreprise	
314	7	espère	
315	7	fureur	
316	7	horreur	
317	7	hui	
318	7	ici	
319	7	image	
320	7	loin	
321	7	lorsqu	
322	7	parle	
323	7	patrie	
324	7	perdre	
325	7	pouvait	
326	7	princes	
327	7	pu	
328	7	quoique	
329	7	regarde	
330	7	rend	
331	7	soi	
332	7	soin	
333	7	sous	
334	7	supplices	
335	7	traître	
336	7	triste	
337	7	va	
338	7	yeux	
339	7	éclat	
340	6	aimer	
341	6	ardeur	
342	6	auteur	
343	6	autorité	
344	6	avecques	
345	6	avez	
346	6	beaucoup	
347	6	bientôt	
348	6	chez	
349	6	choix	
350	6	combattu	
351	6	conserver	
352	6	contraire	
353	6	crainte	
354	6	crois	
355	6	destin	
356	6	devons	
357	6	dire	
358	6	douleurs	
359	6	détruire	
360	6	empereur	
361	6	entre	
362	6	estime	
363	6	excès	
364	6	fin	
365	6	flamme	
366	6	forfait	
367	6	forts	
368	6	gloire	
369	6	infâme	
370	6	justement	
371	6	laisse	
372	6	malheurs	
373	6	milieu	
374	6	mis	
375	6	mit	
376	6	monstre	
377	6	nôtres	
378	6	oblige	
379	6	offense	
380	6	peuple	
381	6	produit	
382	6	projet	
383	6	propres	
384	6	raison	
385	6	repos	
386	6	résolu	
387	6	satisfaire	
388	6	savoir	
389	6	sens	
390	6	seule	
391	6	soldats	
392	6	songez	
393	6	souffre	
394	6	souffrir	
395	6	soupçon	
396	6	suit	
397	6	tard	
398	6	telle	
399	6	tiens	
400	6	verra	
401	6	vivre	
402	6	voit	
403	6	volonté	
404	6	vu	
405	6	époux	
406	5	approuver	
407	5	auront	
408	5	barbare	
409	5	celle	
410	5	choisir	
411	5	coeurs	
412	5	combat	
413	5	commandement	
414	5	contrainte	
415	5	coup	
416	5	coupable	
417	5	couronné	
418	5	criminel	
419	5	cède	
420	5	deuil	
421	5	dites	
422	5	désire	
423	5	effets	
424	5	ennui	
425	5	eût	
426	5	faible	
427	5	faveur	
428	5	fers	
429	5	fit	
430	5	fortune	
431	5	grande	
432	5	haut	
433	5	illustre	
434	5	justes	
435	5	légitime	
436	5	meilleurs	
437	5	meurs	
438	5	mille	
439	5	monde	
440	5	montre	
441	5	mouvements	
442	5	naître	
443	5	nuire	
444	5	objet	
445	5	ordre	
446	5	parce	
447	5	perdez	
448	5	perdrai	
449	5	perte	
450	5	plaindre	
451	5	pourquoi	
452	5	prix	
453	5	quelques	
454	5	rare	
455	5	rebelle	
456	5	recevoir	
457	5	rendu	
458	5	repentir	
459	5	ressentiment	
460	5	rude	
461	5	rudes	
462	5	récompense	
463	5	récompenser	
464	5	sais	
465	5	saurait	
466	5	secours	
467	5	serai	
468	5	seront	
469	5	sommes	
470	5	songe	
471	5	souvent	
472	5	souviens	
473	5	suivant	
474	5	tel	
475	5	tempête	
476	5	terre	
477	5	tient	
478	5	tourments	
479	5	trouver	
480	5	voulez	
481	4	abattu	
482	4	action	
483	4	affaire	
484	4	affliger	
485	4	affranchir	
486	4	agit	
487	4	amène	
488	4	anime	
489	4	appui	
490	4	armes	
491	4	autrement	
492	4	avant	
493	4	bassa	
494	4	bel	
495	4	bienfait	
496	4	bontés	
497	4	bourreau	
498	4	bourreaux	
499	4	cercueil	
500	4	commandant	
501	4	comment	
502	4	conserve	
503	4	consoler	
504	4	content	
505	4	courroux	
506	4	craindre	
507	4	croître	
508	4	céder	
509	4	dessus	
510	4	devait	
511	4	devient	
512	4	diadème	
513	4	différents	
514	4	discours	
515	4	donna	
516	4	défendre	
517	4	dépend	
518	4	exempt	
519	4	exécuté	
520	4	femme	
521	4	finir	
522	4	force	
523	4	foudre	
524	4	funeste	
525	4	fus	
526	4	grâce	
527	4	important	
528	4	innocence	
529	4	janissaires	
530	4	joie	
531	4	liberté	
532	4	liens	
533	4	lieux	
534	4	lâcheté	
535	4	main	
536	4	mauvais	
537	4	maximes	
538	4	meilleur	
539	4	mettre	
540	4	moitié	
541	4	monarque	
542	4	mourant	
543	4	mouvement	
544	4	naissance	
545	4	néanmoins	
546	4	ose	
547	4	ottomans	
548	4	ouvrage	
549	4	paraît	
550	4	pardon	
551	4	parler	
552	4	partout	
553	4	peines	
554	4	pensant	
555	4	perfide	
556	4	permettre	
557	4	peuvent	
558	4	plaire	
559	4	possède	
560	4	pourra	
561	4	premiers	
562	4	prendre	
563	4	promptement	
564	4	punira	
565	4	punis	
566	4	qualité	
567	4	quiconque	
568	4	race	
569	4	raisons	
570	4	refus	
571	4	remède	
572	4	respect	
573	4	rigueur	
574	4	règne	
575	4	salut	
576	4	sanglant	
577	4	satisfait	
578	4	secret	
579	4	selon	
580	4	serais	
581	4	servir	
582	4	soient	
583	4	sois	
584	4	soufferts	
585	4	souverain	
586	4	suivrai	
587	4	sûreté	
588	4	tantôt	
589	4	temps	
590	4	tourment	
591	4	trahis	
592	4	tyrans	
593	4	tôt	
594	4	univers	
595	4	vaut	
596	4	vient	
597	4	voeux	
598	4	voulant	
599	4	vouloir	
600	4	voulut	
601	4	vrai	
602	4	écoute	
603	4	élu	
604	4	été	
605	3	accroît	
606	3	accuse	
607	3	adieu	
608	3	affaires	
609	3	afflige	
610	3	aimes	
611	3	allons	
612	3	amant	
613	3	ambition	
614	3	amitié	
615	3	appas	
616	3	appréhende	
617	3	armée	
618	3	asile	
619	3	assurer	
620	3	attendre	
621	3	aucun	
622	3	auguste	
623	3	autant	
624	3	avecque	
625	3	avoue	
626	3	bienfaits	
627	3	cesse	
628	3	change	
629	3	chasser	
630	3	chaînes	
631	3	chers	
632	3	clémence	
633	3	combats	
634	3	combien	
635	3	commander	
636	3	commettre	
637	3	complot	
638	3	connais	
639	3	connaît	
640	3	couronner	
641	3	couronnes	
642	3	crains	
643	3	cruauté	
644	3	cruel	
645	3	degrés	
646	3	demeure	
647	3	demi	
648	3	depuis	
649	3	devoirs	
650	3	dirai	
651	3	dispose	
652	3	divinité	
653	3	doivent	
654	3	domestiques	
655	3	donnant	
656	3	déplaisir	
657	3	désordre	
658	3	détruit	
659	3	effroi	
660	3	effroyable	
661	3	empêche	
662	3	entière	
663	3	entreprendre	
664	3	entretenir	
665	3	erreur	
666	3	esprits	
667	3	espérer	
668	3	excuser	
669	3	expire	
670	3	faiblesse	
671	3	faudra	
672	3	feu	
673	3	fidélité	
674	3	finit	
675	3	fois	
676	3	forces	
677	3	garantir	
678	3	genoux	
679	3	haïr	
680	3	histoire	
681	3	hommes	
682	3	honneurs	
683	3	hé	
684	3	hélas	
685	3	importe	
686	3	infidèle	
687	3	infidélité	
688	3	insolence	
689	3	instant	
690	3	intentions	
691	3	irrite	
692	3	janissaire	
693	3	jugement	
694	3	lettre	
695	3	licence	
696	3	loi	
697	3	lâches	
698	3	légitimes	
699	3	maintenir	
700	3	met	
701	3	mien	
702	3	mienne	
703	3	moment	
704	3	monument	
705	3	mortels	
706	3	mot	
707	3	moyen	
708	3	moyens	
709	3	mériter	
710	3	mérité	
711	3	mêmes	
712	3	noble	
713	3	noirs	
714	3	obéit	
715	3	offensée	
716	3	oppresse	
717	3	paix	
718	3	pardonne	
719	3	pareil	
720	3	parfois	
721	3	part	
722	3	parti	
723	3	payé	
724	3	pensée	
725	3	permets	
726	3	permis	
727	3	personnes	
728	3	plaisirs	
729	3	plein	
730	3	pleurs	
731	3	poison	
732	3	porté	
733	3	pourrait	
734	3	prends	
735	3	pris	
736	3	prive	
737	3	privé	
738	3	provinces	
739	3	présent	
740	3	présente	
741	3	prétend	
742	3	quelle	
743	3	quitter	
744	3	ravie	
745	3	recevant	
746	3	regarder	
747	3	regret	
748	3	relever	
749	3	rentre	
750	3	revient	
751	3	rigueurs	
752	3	régner	
753	3	répondre	
754	3	résistance	
755	3	réussir	
756	3	sagement	
757	3	sait	
758	3	saura	
759	3	selim	
760	3	semble	
761	3	serait	
762	3	sert	
763	3	serve	
764	3	service	
765	3	siens	
766	3	soleil	
767	3	soutien	
768	3	souvenir	
769	3	successeur	
770	3	succès	
771	3	suivi	
772	3	supporter	
773	3	suprême	
774	3	sérail	
775	3	tire	
776	3	touche	
777	3	trahison	
778	3	trahit	
779	3	travaux	
780	3	traîne	
781	3	trouble	
782	3	troupe	
783	3	témoignait	
784	3	témoigner	
785	3	témoin	
786	3	user	
787	3	vaincre	
788	3	vainqueur	
789	3	venge	
790	3	vengeons	
791	3	venir	
792	3	versé	
793	3	victoire	
794	3	voici	
795	3	voulait	
796	3	voyons	
797	3	véritable	
798	3	zèle	
799	3	âmes	
800	3	élevé	
801	3	éloigner	
802	3	élève	
803	3	étaient	
804	3	étais	
805	3	états	
806	3	éviter	
807	3	êtes	
808	3	ôter	
809	2	absolument	
810	2	accident	
811	2	accès	
812	2	adoucir	
813	2	affront	
814	2	aimant	
815	2	aisément	
816	2	alarmes	
817	2	aller	
818	2	allez	
819	2	amoureux	
820	2	animée	
821	2	apaiser	
822	2	aperçois	
823	2	arriver	
824	2	assorties	
825	2	assure	
826	2	assuré	
827	2	attaque	
828	2	attenter	
829	2	aurai	
830	2	aurais	
831	2	aurait	
832	2	autel	
833	2	autorise	
834	2	autrefois	
835	2	aventure	
836	2	avertir	
837	2	aveuglément	
838	2	avis	
839	2	avons	
840	2	ayez	
841	2	aïeul	
842	2	bandeau	
843	2	biens	
844	2	blême	
845	2	boit	
846	2	bout	
847	2	brave	
848	2	briser	
849	2	cas	
850	2	causa	
851	2	ceci	
852	2	cela	
853	2	chacun	
854	2	chaleur	
855	2	chaque	
856	2	chassé	
857	2	chercher	
858	2	choisi	
859	2	choisit	
860	2	chute	
861	2	châtiment	
862	2	châtiments	
863	2	chéri	
864	2	cieux	
865	2	commande	
866	2	commandements	
867	2	commencement	
868	2	commun	
869	2	commune	
870	2	complice	
871	2	confus	
872	2	conseiller	
873	2	consentir	
874	2	considérer	
875	2	considérez	
876	2	contentement	
877	2	contenter	
878	2	contraint	
879	2	contraires	
880	2	creux	
881	2	croirais	
882	2	croire	
883	2	croyez	
884	2	cyprès	
885	2	danger	
886	2	davantage	
887	2	degré	
888	2	demander	
889	2	dernier	
890	2	devais	
891	2	dieux	
892	2	différer	
893	2	dignité	
894	2	dirait	
895	2	disposes	
896	2	don	
897	2	donnent	
898	2	donnée	
899	2	douter	
900	2	droits	
901	2	dès	
902	2	déclare	
903	2	défaut	
904	2	défendrai	
905	2	délices	
906	2	dépendance	
907	2	désir	
908	2	désirs	
909	2	détourner	
910	2	effort	
911	2	embrassant	
912	2	embrassements	
913	2	employer	
914	2	empêcher	
915	2	enfant	
916	2	engages	
917	2	ensemble	
918	2	entrepris	
919	2	envers	
920	2	esclave	
921	2	esclaves	
922	2	espoir	
923	2	estimons	
924	2	eus	
925	2	eusse	
926	2	excuse	
927	2	exercées	
928	2	expose	
929	2	extrémité	
930	2	exécuter	
931	2	facile	
932	2	failli	
933	2	faillir	
934	2	faisait	
935	2	faites	
936	2	fardeau	
937	2	faute	
938	2	faveurs	
939	2	feint	
940	2	fer	
941	2	feras	
942	2	fidèle	
943	2	fini	
944	2	fis	
945	2	flambeau	
946	2	fleurs	
947	2	forma	
948	2	formé	
949	2	frivoles	
950	2	fruit	
951	2	fumée	
952	2	gagne	
953	2	garde	
954	2	garder	
955	2	gré	
956	2	guerres	
957	2	guide	
958	2	guérir	
959	2	gît	
960	2	herzegoglis	
961	2	heureuse	
962	2	homme	
963	2	honorable	
964	2	honorer	
965	2	honteux	
966	2	horrible	
967	2	hors	
968	2	humeur	
969	2	hymen	
970	2	héritage	
971	2	ignorez	
972	2	illustres	
973	2	immortel	
974	2	importune	
975	2	impuissance	
976	2	ingrate	
977	2	inimitié	
978	2	injustes	
979	2	insigne	
980	2	insignes	
981	2	insolemment	
982	2	insolents	
983	2	intérêts	
984	2	inutilement	
985	2	irréparable	
986	2	jaloux	
987	2	joint	
988	2	jugements	
989	2	juger	
990	2	jusqu	
991	2	jusques	
992	2	laisser	
993	2	languissant	
994	2	larmes	
995	2	libertés	
996	2	libre	
997	2	libérateur	
998	2	long	
999	2	majesté	
1000	2	manqué	
1001	2	maxime	
1002	2	meilleure	
1003	2	menace	
1004	2	mets	
1005	2	mettant	
1006	2	meure	
1007	2	moindre	
1008	2	monter	
1009	2	monuments	
1010	2	mortel	
1011	2	morts	
1012	2	musulmans	
1013	2	méchants	
1014	2	médité	
1015	2	mérite	
1016	2	nouveau	
1017	2	obstacle	
1018	2	obstine	
1019	2	obstiné	
1020	2	occasion	
1021	2	odieux	
1022	2	offenser	
1023	2	offre	
1024	2	osera	
1025	2	ottoman	
1026	2	paisiblement	
1027	2	paraître	
1028	2	parent	
1029	2	parents	
1030	2	parfait	
1031	2	parlant	
1032	2	parmi	
1033	2	partager	
1034	2	parties	
1035	2	passe	
1036	2	passion	
1037	2	penser	
1038	2	perd	
1039	2	pitié	
1040	2	pitoyable	
1041	2	plaisir	
1042	2	plusieurs	
1043	2	porte	
1044	2	portrait	
1045	2	potentat	
1046	2	pourrai	
1047	2	pourrais	
1048	2	pouvant	
1049	2	pouvez	
1050	2	pratiques	
1051	2	prenant	
1052	2	prenez	
1053	2	pressé	
1054	2	priver	
1055	2	prière	
1056	2	procédé	
1057	2	produire	
1058	2	prompt	
1059	2	prompte	
1060	2	propose	
1061	2	protecteur	
1062	2	protéger	
1063	2	près	
1064	2	précieux	
1065	2	prépare	
1066	2	présence	
1067	2	préviendrai	
1068	2	prêtez	
1069	2	puissants	
1070	2	puni	
1071	2	punirait	
1072	2	punissons	
1073	2	punition	
1074	2	périsse	
1075	2	quelqu	
1076	2	quels	
1077	2	quoiqu	
1078	2	raisonnable	
1079	2	ravit	
1080	2	recherche	
1081	2	reconnaissance	
1082	2	reconnaissant	
1083	2	reconnaîtra	
1084	2	reculer	
1085	2	refuse	
1086	2	remerciement	
1087	2	remords	
1088	2	rende	
1089	2	rendons	
1090	2	rendra	
1091	2	rends	
1092	2	rentrez	
1093	2	renversant	
1094	2	reproche	
1095	2	respecte	
1096	2	respecter	
1097	2	respects	
1098	2	ressentir	
1099	2	revoir	
1100	2	reçois	
1101	2	rose	
1102	2	rougir	
1103	2	rébellion	
1104	2	réduire	
1105	2	réduit	
1106	2	répandre	
1107	2	résiste	
1108	2	résister	
1109	2	résolue	
1110	2	révolte	
1111	2	sachez	
1112	2	saintes	
1113	2	salaire	
1114	2	sanglants	
1115	2	sauvons	
1116	2	secourable	
1117	2	sein	
1118	2	semblables	
1119	2	semblent	
1120	2	sensible	
1121	2	sentir	
1122	2	seras	
1123	2	servi	
1124	2	services	
1125	2	soldat	
1126	2	sorte	
1127	2	souffrons	
1128	2	souille	
1129	2	souiller	
1130	2	souillé	
1131	2	soulager	
1132	2	souvient	
1133	2	structure	
1134	2	sultan	
1135	2	superflus	
1136	2	surprise	
1137	2	suspends	
1138	2	sévérité	
1139	2	tache	
1140	2	teint	
1141	2	terminée	
1142	2	tombant	
1143	2	tomber	
1144	2	toutes	
1145	2	travers	
1146	2	tremble	
1147	2	tribut	
1148	2	trompeuse	
1149	2	tué	
1150	2	témoigné	
1151	2	témoins	
1152	2	témérité	
1153	2	uns	
1154	2	usurpateur	
1155	2	utile	
1156	2	vain	
1157	2	valeur	
1158	2	vanter	
1159	2	vengerai	
1160	2	vengeur	
1161	2	vengez	
1162	2	vengé	
1163	2	vertus	
1164	2	veulent	
1165	2	vint	
1166	2	violence	
1167	2	violents	
1168	2	vis	
1169	2	visage	
1170	2	vit	
1171	2	vite	
1172	2	vivant	
1173	2	voulais	
1174	2	voyez	
1175	2	véritables	
1176	2	écouter	
1177	2	écoutez	
1178	2	écrit	
1179	2	égal	
1180	2	égale	
1181	2	égalité	
1182	2	éleva	
1183	2	élever	
1184	2	éloignés	
1185	2	épine	
1186	2	épouvante	
1187	2	éprouvé	
1188	2	épée	
1189	2	étouffe	
1190	2	étranger	
1191	2	évite	
1192	1	abaisser	
1193	1	abandonne	
1194	1	abominable	
1195	1	abréger	
1196	1	absolus	
1197	1	abusent	
1198	1	abusé	
1199	1	abîmes	
1200	1	accomplie	
1201	1	accordant	
1202	1	accorde	
1203	1	accuser	
1204	1	acheter	
1205	1	achever	
1206	1	achevé	
1207	1	achève	
1208	1	acomat	
1209	1	acquièrent	
1210	1	acquérir	
1211	1	acte	
1212	1	actes	
1213	1	actions	
1214	1	admis	
1215	1	adorable	
1216	1	adore	
1217	1	adorons	
1218	1	adresse	
1219	1	adversaire	
1220	1	adversaires	
1221	1	affamé	
1222	1	affection	
1223	1	afflictions	
1224	1	affligeant	
1225	1	affligée	
1226	1	affligées	
1227	1	affranchie	
1228	1	affranchirai	
1229	1	affronte	
1230	1	affronts	
1231	1	agissait	
1232	1	agité	
1233	1	aie	
1234	1	aigle	
1235	1	aiguillon	
1236	1	aimais	
1237	1	aimait	
1238	1	aimerais	
1239	1	aimée	
1240	1	aisé	
1241	1	ajoutant	
1242	1	ajouter	
1243	1	allais	
1244	1	alléguer	
1245	1	amassées	
1246	1	ambitieuse	
1247	1	amorces	
1248	1	amortir	
1249	1	amoureuse	
1250	1	amples	
1251	1	amurat	
1252	1	animées	
1253	1	apparences	
1254	1	appartement	
1255	1	appeler	
1256	1	appelle	
1257	1	appelles	
1258	1	appliquer	
1259	1	apporter	
1260	1	apporterai	
1261	1	apprend	
1262	1	apprends	
1263	1	apprenons	
1264	1	approche	
1265	1	approches	
1266	1	approuve	
1267	1	apprête	
1268	1	apprêter	
1269	1	appuyant	
1270	1	appuyer	
1271	1	ardeurs	
1272	1	armer	
1273	1	armées	
1274	1	arrache	
1275	1	arracher	
1276	1	arrive	
1277	1	arrivera	
1278	1	arrêt	
1279	1	arrêté	
1280	1	aspire	
1281	1	assassinat	
1282	1	assassinats	
1283	1	assassiner	
1284	1	assistance	
1285	1	assister	
1286	1	assisté	
1287	1	assouvissons	
1288	1	assurance	
1289	1	assurés	
1290	1	astre	
1291	1	astreint	
1292	1	attaquait	
1293	1	atteindre	
1294	1	atteintes	
1295	1	attend	
1296	1	attendait	
1297	1	attendez	
1298	1	attendra	
1299	1	attendrai	
1300	1	attendrez	
1301	1	attends	
1302	1	attentats	
1303	1	attente	
1304	1	attentifs	
1305	1	attraits	
1306	1	attrister	
1307	1	aucune	
1308	1	audace	
1309	1	audacieuse	
1310	1	augmenter	
1311	1	augustes	
1312	1	auparavant	
1313	1	aura	
1314	1	auraient	
1315	1	auras	
1316	1	autels	
1317	1	autrui	
1318	1	avaient	
1319	1	avais	
1320	1	avancer	
1321	1	avare	
1322	1	aversion	
1323	1	averti	
1324	1	aveugler	
1325	1	avorter	
1326	1	ayons	
1327	1	baignant	
1328	1	bain	
1329	1	baiser	
1330	1	baisse	
1331	1	barbaries	
1332	1	bas	
1333	1	batailles	
1334	1	beaux	
1335	1	besoin	
1336	1	bienfaiteur	
1337	1	bienheureux	
1338	1	billet	
1339	1	blasphème	
1340	1	blâme	
1341	1	blâmer	
1342	1	bois	
1343	1	bonne	
1344	1	bourrellent	
1345	1	branche	
1346	1	braves	
1347	1	breuvage	
1348	1	brillant	
1349	1	briller	
1350	1	brutale	
1351	1	brûlent	
1352	1	but	
1353	1	butin	
1354	1	bénir	
1355	1	bénirai	
1356	1	béniras	
1357	1	cache	
1358	1	cacher	
1359	1	caches	
1360	1	camp	
1361	1	capables	
1362	1	capitaine	
1363	1	caprice	
1364	1	captivité	
1365	1	causer	
1366	1	causeur	
1367	1	causé	
1368	1	celer	
1369	1	celles	
1370	1	cendre	
1371	1	cendres	
1372	1	cent	
1373	1	centre	
1374	1	certaines	
1375	1	cessant	
1376	1	cessent	
1377	1	cesser	
1378	1	changer	
1379	1	changerait	
1380	1	charge	
1381	1	chaîne	
1382	1	chemin	
1383	1	cherchant	
1384	1	cherche	
1385	1	cherchons	
1386	1	choisira	
1387	1	choisirais	
1388	1	choquer	
1389	1	chose	
1390	1	choses	
1391	1	chrétien	
1392	1	chrétiens	
1393	1	chère	
1394	1	chèrement	
1395	1	chérir	
1396	1	chéris	
1397	1	civiles	
1398	1	combattre	
1399	1	comble	
1400	1	combler	
1401	1	commandent	
1402	1	commandez	
1403	1	commandé	
1404	1	commença	
1405	1	commettant	
1406	1	commit	
1407	1	communément	
1408	1	compagne	
1409	1	compagnons	
1410	1	complaire	
1411	1	compliment	
1412	1	complots	
1413	1	comprendre	
1414	1	concevoir	
1415	1	concevra	
1416	1	condamner	
1417	1	condamnez	
1418	1	conduis	
1419	1	conduite	
1420	1	confond	
1421	1	confuse	
1422	1	confusion	
1423	1	connaissait	
1424	1	connaissance	
1425	1	connaissez	
1426	1	connaîtrait	
1427	1	connaître	
1428	1	connaîtriez	
1429	1	connus	
1430	1	conseillers	
1431	1	conseillé	
1432	1	consens	
1433	1	consentirai	
1434	1	conserva	
1435	1	conservant	
1436	1	conservent	
1437	1	conservera	
1438	1	conservée	
1439	1	considère	
1440	1	considérai	
1441	1	considérant	
1442	1	console	
1443	1	conspire	
1444	1	conspirer	
1445	1	constamment	
1446	1	constance	
1447	1	constants	
1448	1	consulte	
1449	1	consulter	
1450	1	conte	
1451	1	contredit	
1452	1	convertir	
1453	1	convertissez	
1454	1	conçue	
1455	1	corsaire	
1456	1	couler	
1457	1	coupables	
1458	1	coupe	
1459	1	coupé	
1460	1	couronnée	
1461	1	courrier	
1462	1	couteaux	
1463	1	coutume	
1464	1	craignez	
1465	1	craindrai	
1466	1	craint	
1467	1	creusa	
1468	1	cris	
1469	1	croirai	
1470	1	croissant	
1471	1	croissent	
1472	1	croîtra	
1473	1	cru	
1474	1	cruautés	
1475	1	crédit	
1476	1	céleste	
1477	1	damnable	
1478	1	delà	
1479	1	demanda	
1480	1	demandent	
1481	1	demeurer	
1482	1	derniers	
1483	1	dernière	
1484	1	descend	
1485	1	destine	
1486	1	destiner	
1487	1	destinée	
1488	1	devaient	
1489	1	devant	
1490	1	devenait	
1491	1	devenir	
1492	1	devenons	
1493	1	devez	
1494	1	deviendra	
1495	1	deviendraient	
1496	1	devienne	
1497	1	deviens	
1498	1	deviner	
1499	1	devriez	
1500	1	dicte	
1501	1	difficile	
1502	1	diffère	
1503	1	différé	
1504	1	dignes	
1505	1	dira	
1506	1	discerne	
1507	1	dise	
1508	1	disent	
1509	1	dispensateur	
1510	1	dispense	
1511	1	disposer	
1512	1	disposons	
1513	1	dispute	
1514	1	disputer	
1515	1	disputé	
1516	1	dissiper	
1517	1	distance	
1518	1	divers	
1519	1	divin	
1520	1	divisions	
1521	1	doive	
1522	1	donnerai	
1523	1	double	
1524	1	douces	
1525	1	douceurs	
1526	1	doutant	
1527	1	dresse	
1528	1	due	
1529	1	dur	
1530	1	durable	
1531	1	dure	
1532	1	durée	
1533	1	dussé	
1534	1	débonnaire	
1535	1	décevant	
1536	1	déchirer	
1537	1	déchu	
1538	1	découvert	
1539	1	décroîtra	
1540	1	décroître	
1541	1	dédaignez	
1542	1	dédire	
1543	1	défaire	
1544	1	défauts	
1545	1	défendent	
1546	1	défi	
1547	1	défit	
1548	1	défunt	
1549	1	délaisser	
1550	1	délibérez	
1551	1	délivrer	
1552	1	dément	
1553	1	démit	
1554	1	dénaturé	
1555	1	dépendait	
1556	1	dépendant	
1557	1	déplaire	
1558	1	déplaisirs	
1559	1	dépouille	
1560	1	dépêche	
1561	1	dérobe	
1562	1	désespoir	
1563	1	désespère	
1564	1	désespéré	
1565	1	déshonore	
1566	1	désira	
1567	1	désirant	
1568	1	désirer	
1569	1	désiré	
1570	1	désiste	
1571	1	désolent	
1572	1	désordres	
1573	1	désormais	
1574	1	déterminer	
1575	1	détestable	
1576	1	détestables	
1577	1	déteste	
1578	1	détestent	
1579	1	détruisez	
1580	1	détruisit	
1581	1	déçu	
1582	1	dû	
1583	1	dûs	
1584	1	eau	
1585	1	efface	
1586	1	effacé	
1587	1	efforce	
1588	1	efforces	
1589	1	elles	
1590	1	embarque	
1591	1	embrasse	
1592	1	empereurs	
1593	1	emploie	
1594	1	emprunte	
1595	1	emprunter	
1596	1	empêchait	
1597	1	enchanteresse	
1598	1	endurci	
1599	1	enfantent	
1600	1	enfants	
1601	1	enfers	
1602	1	enfuit	
1603	1	engageai	
1604	1	engagée	
1605	1	engloutir	
1606	1	ennuis	
1607	1	enrage	
1608	1	entendre	
1609	1	entends	
1610	1	entendus	
1611	1	entièrement	
1612	1	entrant	
1613	1	entremise	
1614	1	entretiendrai	
1615	1	envahir	
1616	1	environnés	
1617	1	envoie	
1618	1	envoyons	
1619	1	es	
1620	1	espérance	
1621	1	espérez	
1622	1	essaierai	
1623	1	estimais	
1624	1	estimas	
1625	1	estiment	
1626	1	estimer	
1627	1	eu	
1628	1	excite	
1629	1	excité	
1630	1	excitée	
1631	1	excusait	
1632	1	excusant	
1633	1	excusera	
1634	1	excusons	
1635	1	exemple	
1636	1	exemples	
1637	1	exercer	
1638	1	exploits	
1639	1	exposant	
1640	1	exposerais	
1641	1	exposez	
1642	1	exprès	
1643	1	extermine	
1644	1	extrêmes	
1645	1	exécute	
1646	1	exécution	
1647	1	face	
1648	1	facilité	
1649	1	faillent	
1650	1	faisant	
1651	1	faisons	
1652	1	faite	
1653	1	faits	
1654	1	fameux	
1655	1	fantôme	
1656	1	faudrait	
1657	1	fausse	
1658	1	faux	
1659	1	favori	
1660	1	façon	
1661	1	faîte	
1662	1	feinte	
1663	1	ferai	
1664	1	ferais	
1665	1	ferait	
1666	1	ferme	
1667	1	fermes	
1668	1	festin	
1669	1	fiel	
1670	1	fiers	
1671	1	fille	
1672	1	finirent	
1673	1	finis	
1674	1	finissant	
1675	1	firent	
1676	1	flammes	
1677	1	flanc	
1678	1	flatter	
1679	1	florissant	
1680	1	fléchit	
1681	1	folie	
1682	1	fomente	
1683	1	fondement	
1684	1	forfaits	
1685	1	forgent	
1686	1	forger	
1687	1	forges	
1688	1	forment	
1689	1	former	
1690	1	forte	
1691	1	fortes	
1692	1	fraternel	
1693	1	front	
1694	1	fronts	
1695	1	fuir	
1696	1	fuit	
1697	1	fuite	
1698	1	funérailles	
1699	1	fureurs	
1700	1	furie	
1701	1	furies	
1702	1	furieux	
1703	1	fusse	
1704	1	fussent	
1705	1	fusses	
1706	1	futur	
1707	1	fuyons	
1708	1	fâcheux	
1709	1	félicité	
1710	1	fût	
1711	1	gagneront	
1712	1	gagné	
1713	1	gauchir	
1714	1	gens	
1715	1	germain	
1716	1	glorieuse	
1717	1	glorieux	
1718	1	gouffre	
1719	1	gouvernement	
1720	1	goûter	
1721	1	grandeur	
1722	1	gronde	
1723	1	guerre	
1724	1	guerriers	
1725	1	gémir	
1726	1	génie	
1727	1	habitants	
1728	1	habite	
1729	1	habitude	
1730	1	hait	
1731	1	haly	
1732	1	harmonie	
1733	1	hasarde	
1734	1	hasardent	
1735	1	hasarderez	
1736	1	hautesse	
1737	1	heure	
1738	1	homicide	
1739	1	humanité	
1740	1	hyménée	
1741	1	hôte	
1742	1	idolâtrie	
1743	1	idée	
1744	1	ignore	
1745	1	ignores	
1746	1	illégitime	
1747	1	illégitimes	
1748	1	imaginaire	
1749	1	imaginé	
1750	1	imiter	
1751	1	immole	
1752	1	imparfaite	
1753	1	importance	
1754	1	importante	
1755	1	imprudemment	
1756	1	imprudent	
1757	1	imprudente	
1758	1	impunité	
1759	1	impute	
1760	1	incapable	
1761	1	incertaine	
1762	1	incessamment	
1763	1	inciter	
1764	1	incomparable	
1765	1	inconnus	
1766	1	inconsidérément	
1767	1	indifférents	
1768	1	indignement	
1769	1	indignes	
1770	1	indiscret	
1771	1	indiscrète	
1772	1	industrieux	
1773	1	infernal	
1774	1	infinis	
1775	1	infracteur	
1776	1	infâmes	
1777	1	ingratitude	
1778	1	inhumain	
1779	1	inhumains	
1780	1	injustice	
1781	1	innocents	
1782	1	inquiétudes	
1783	1	insensée	
1784	1	insolent	
1785	1	inspirant	
1786	1	inspire	
1787	1	instruit	
1788	1	instrument	
1789	1	insupportable	
1790	1	intelligence	
1791	1	intention	
1792	1	interprète	
1793	1	intimider	
1794	1	intégrité	
1795	1	inutile	
1796	1	inventions	
1797	1	invincibles	
1798	1	invite	
1799	1	irai	
1800	1	irriter	
1801	1	irrité	
1802	1	irritée	
1803	1	irréprochables	
1804	1	issue	
1805	1	jeter	
1806	1	jetons	
1807	1	joignant	
1808	1	joindre	
1809	1	jouir	
1810	1	jouis	
1811	1	juge	
1812	1	jugez	
1813	1	jugions	
1814	1	jugé	
1815	1	jure	
1816	1	laissa	
1817	1	laissant	
1818	1	laissera	
1819	1	laisseras	
1820	1	laissé	
1821	1	lait	
1822	1	larcins	
1823	1	lauriers	
1824	1	leçons	
1825	1	librement	
1826	1	licol	
1827	1	lions	
1828	1	lire	
1829	1	lis	
1830	1	lisant	
1831	1	lise	
1832	1	lit	
1833	1	loisir	
1834	1	lumière	
1835	1	lune	
1836	1	lâchetés	
1837	1	lâché	
1838	1	légions	
1839	1	maintiendra	
1840	1	malice	
1841	1	mande	
1842	1	mander	
1843	1	manqua	
1844	1	manquerai	
1845	1	mari	
1846	1	mariage	
1847	1	marque	
1848	1	massacre	
1849	1	maudits	
1850	1	mauvaise	
1851	1	maîtres	
1852	1	membres	
1853	1	menaces	
1854	1	menacé	
1855	1	mensonger	
1856	1	message	
1857	1	mettait	
1858	1	mette	
1859	1	meurt	
1860	1	meurtre	
1861	1	mise	
1862	1	misères	
1863	1	misérables	
1864	1	moeurs	
1865	1	moindres	
1866	1	monarchie	
1867	1	monte	
1868	1	montrait	
1869	1	montrant	
1870	1	montrer	
1871	1	montré	
1872	1	monté	
1873	1	montés	
1874	1	moquer	
1875	1	motif	
1876	1	mourais	
1877	1	mourante	
1878	1	mourons	
1879	1	mourra	
1880	1	mourrai	
1881	1	mourras	
1882	1	murmurer	
1883	1	mutiné	
1884	1	mystères	
1885	1	mânes	
1886	1	mère	
1887	1	méchant	
1888	1	médecin	
1889	1	médite	
1890	1	mégère	
1891	1	mémoire	
1892	1	méprisons	
1893	1	méprisé	
1894	1	mérita	
1895	1	méritai	
1896	1	méritait	
1897	1	mérites	
1898	1	mûrement	
1899	1	nage	
1900	1	naissant	
1901	1	naissante	
1902	1	naturel	
1903	1	naturelle	
1904	1	naufrage	
1905	1	naît	
1906	1	noeud	
1907	1	noir	
1908	1	nourris	
1909	1	nuages	
1910	1	nue	
1911	1	nuirait	
1912	1	nuit	
1913	1	nulle	
1914	1	né	
1915	1	nécessaire	
1916	1	nécessité	
1917	1	née	
1918	1	négligé	
1919	1	obligeant	
1920	1	obligé	
1921	1	obstines	
1922	1	obstinés	
1923	1	obtenir	
1924	1	obtiendrez	
1925	1	obéi	
1926	1	obéis	
1927	1	oeuvre	
1928	1	offensé	
1929	1	officieux	
1930	1	offrant	
1931	1	offrir	
1932	1	oisiveté	
1933	1	ombrage	
1934	1	ombre	
1935	1	opposer	
1936	1	opposée	
1937	1	opprimer	
1938	1	orage	
1939	1	ordinaires	
1940	1	ordonna	
1941	1	ordonne	
1942	1	ordonné	
1943	1	oreille	
1944	1	orgueil	
1945	1	origine	
1946	1	osant	
1947	1	oser	
1948	1	oublier	
1949	1	oubliez	
1950	1	oublions	
1951	1	oublié	
1952	1	outragerai	
1953	1	outragée	
1954	1	outre	
1955	1	ouvre	
1956	1	ouvrir	
1957	1	ouvrira	
1958	1	ouïr	
1959	1	paraissant	
1960	1	pardonner	
1961	1	pardonné	
1962	1	pareils	
1963	1	parfaite	
1964	1	parlerons	
1965	1	parole	
1966	1	paroles	
1967	1	parque	
1968	1	parricide	
1969	1	partisan	
1970	1	parut	
1971	1	passager	
1972	1	passaient	
1973	1	passent	
1974	1	passer	
1975	1	passeront	
1976	1	passions	
1977	1	passées	
1978	1	paye	
1979	1	payeras	
1980	1	peiner	
1981	1	pendant	
1982	1	pensa	
1983	1	pensai	
1984	1	pensais	
1985	1	pensers	
1986	1	penses	
1987	1	perdais	
1988	1	perde	
1989	1	perdit	
1990	1	perdons	
1991	1	perdrais	
1992	1	perdrez	
1993	1	perdront	
1994	1	perds	
1995	1	perdu	
1996	1	perdus	
1997	1	perfidie	
1998	1	permettez	
1999	1	permise	
2000	1	pers	
2001	1	perçant	
2002	1	pesant	
2003	1	pied	
2004	1	pire	
2005	1	place	
2006	1	plaindrais	
2007	1	plains	
2008	1	plaintes	
2009	1	plaît	
2010	1	pleine	
2011	1	pleins	
2012	1	pleurer	
2013	1	plût	
2014	1	poignard	
2015	1	populaire	
2016	1	portant	
2017	1	porter	
2018	1	portera	
2019	1	porterai	
2020	1	portés	
2021	1	possesseurs	
2022	1	poursuit	
2023	1	poursuivie	
2024	1	pourtant	
2025	1	pouvaient	
2026	1	pratiquer	
2027	1	premier	
2028	1	première	
2029	1	premières	
2030	1	prendra	
2031	1	prennent	
2032	1	pressant	
2033	1	presse	
2034	1	preuves	
2035	1	prie	
2036	1	princesse	
2037	1	priva	
2038	1	privant	
2039	1	prié	
2040	1	procurant	
2041	1	procédure	
2042	1	profère	
2043	1	progrès	
2044	1	proie	
2045	1	promettre	
2046	1	promise	
2047	1	propos	
2048	1	proposer	
2049	1	prospères	
2050	1	protégez	
2051	1	prouve	
2052	1	provenir	
2053	1	providence	
2054	1	province	
2055	1	prudemment	
2056	1	prudence	
2057	1	précipices	
2058	1	précipiter	
2059	1	précipité	
2060	1	préfère	
2061	1	présentant	
2062	1	prétende	
2063	1	prétends	
2064	1	prévenir	
2065	1	préviendra	
2066	1	préviens	
2067	1	prêt	
2068	1	publiques	
2069	1	puisse	
2070	1	punirez	
2071	1	punissent	
2072	1	punissez	
2073	1	purger	
2074	1	pâle	
2075	1	pâli	
2076	1	pèse	
2077	1	pécha	
2078	1	péché	
2079	1	pénètrent	
2080	1	périr	
2081	1	péris	
2082	1	périt	
2083	1	quelquefois	
2084	1	querelle	
2085	1	question	
2086	1	quittai	
2087	1	quittent	
2088	1	quittez	
2089	1	quittons	
2090	1	quitté	
2091	1	r	
2092	1	rabattu	
2093	1	raisonnables	
2094	1	ralentis	
2095	1	rangs	
2096	1	rassis	
2097	1	ravir	
2098	1	rayon	
2099	1	rebuter	
2100	1	recherchait	
2101	1	recherchent	
2102	1	reconnaître	
2103	1	redouble	
2104	1	redoutable	
2105	1	redouter	
2106	1	refusent	
2107	1	refusez	
2108	1	refusiez	
2109	1	regard	
2110	1	regardez	
2111	1	regrets	
2112	1	regretter	
2113	1	rejetons	
2114	1	rejette	
2115	1	rejeté	
2116	1	remarques	
2117	1	remet	
2118	1	remettre	
2119	1	remplir	
2120	1	remportez	
2121	1	remuer	
2122	1	remuez	
2123	1	remèdes	
2124	1	rencontre	
2125	1	rencontrer	
2126	1	rencontré	
2127	1	rendant	
2128	1	rendit	
2129	1	rendus	
2130	1	renom	
2131	1	renoncer	
2132	1	rentrer	
2133	1	renverse	
2134	1	repends	
2135	1	repentance	
2136	1	repousser	
2137	1	reprendre	
2138	1	reproches	
2139	1	représente	
2140	1	requête	
2141	1	respectent	
2142	1	respire	
2143	1	respirer	
2144	1	ressemble	
2145	1	ressenti	
2146	1	reste	
2147	1	retardement	
2148	1	retient	
2149	1	retire	
2150	1	retournons	
2151	1	revers	
2152	1	revivras	
2153	1	revivre	
2154	1	reçoit	
2155	1	reçoivent	
2156	1	reçu	
2157	1	reçus	
2158	1	reçut	
2159	1	rigoureuse	
2160	1	rigoureux	
2161	1	ris	
2162	1	rivaux	
2163	1	romains	
2164	1	rompis	
2165	1	rompra	
2166	1	rompre	
2167	1	roseau	
2168	1	rouge	
2169	1	ruine	
2170	1	ruiner	
2171	1	règnes	
2172	1	rébellions	
2173	1	récit	
2174	1	récompensé	
2175	1	réduis	
2176	1	réduite	
2177	1	régnant	
2178	1	réjouissance	
2179	1	répandent	
2180	1	répandis	
2181	1	répandons	
2182	1	répandu	
2183	1	réponde	
2184	1	résoudrai	
2185	1	résoudre	
2186	1	résout	
2187	1	rétablir	
2188	1	rêvais	
2189	1	sachant	
2190	1	sache	
2191	1	sachons	
2192	1	sacrifie	
2193	1	sacrifier	
2194	1	sacrés	
2195	1	sage	
2196	1	sain	
2197	1	sainte	
2198	1	saints	
2199	1	saisisse	
2200	1	salaires	
2201	1	salue	
2202	1	salutaires	
2203	1	sanglantes	
2204	1	satisfasse	
2205	1	saurai	
2206	1	sauras	
2207	1	sauront	
2208	1	saut	
2209	1	sauva	
2210	1	sauve	
2211	1	savaient	
2212	1	savons	
2213	1	second	
2214	1	seconde	
2215	1	secourir	
2216	1	secrètes	
2217	1	semblait	
2218	1	semblez	
2219	1	sent	
2220	1	senti	
2221	1	seraient	
2222	1	serez	
2223	1	serions	
2224	1	serons	
2225	1	servent	
2226	1	servirai	
2227	1	servitude	
2228	1	seuls	
2229	1	sexe	
2230	1	sienne	
2231	1	sincérité	
2232	1	sinon	
2233	1	sitôt	
2234	1	sombre	
2235	1	sonder	
2236	1	songeons	
2237	1	songes	
2238	1	sors	
2239	1	sortait	
2240	1	sortant	
2241	1	sortir	
2242	1	souche	
2243	1	soudain	
2244	1	souffert	
2245	1	souffrent	
2246	1	souffrira	
2247	1	souffrirai	
2248	1	souffriront	
2249	1	souhaiter	
2250	1	souhaits	
2251	1	soulagement	
2252	1	soulagée	
2253	1	soulagées	
2254	1	soulever	
2255	1	soulèvent	
2256	1	soumettre	
2257	1	soupçons	
2258	1	souscrit	
2259	1	soustrait	
2260	1	soutenir	
2261	1	soutiens	
2262	1	soyez	
2263	1	soyons	
2264	1	spectacle	
2265	1	stable	
2266	1	su	
2267	1	suborneur	
2268	1	subsiste	
2269	1	subtil	
2270	1	suc	
2271	1	succombe	
2272	1	succombez	
2273	1	succéda	
2274	1	suffit	
2275	1	suffrage	
2276	1	suivent	
2277	1	suivez	
2278	1	suivons	
2279	1	suivra	
2280	1	superbe	
2281	1	superbes	
2282	1	support	
2283	1	supportable	
2284	1	supporté	
2285	1	suppose	
2286	1	surmonter	
2287	1	surpassant	
2288	1	surprendra	
2289	1	surprendre	
2290	1	surpris	
2291	1	surtout	
2292	1	survive	
2293	1	suspect	
2294	1	suspecte	
2295	1	sédition	
2296	1	séjour	
2297	1	sûrement	
2298	1	taire	
2299	1	tarder	
2300	1	tardes	
2301	1	tasse	
2302	1	tels	
2303	1	temples	
2304	1	tempêtes	
2305	1	tenait	
2306	1	tendres	
2307	1	tendresse	
2308	1	tenir	
2309	1	terminer	
2310	1	ternir	
2311	1	terreur	
2312	1	tien	
2313	1	tigre	
2314	1	tiré	
2315	1	titre	
2316	1	toile	
2317	1	tombe	
2318	1	tomberont	
2319	1	tonnerre	
2320	1	torrents	
2321	1	tort	
2322	1	touchant	
2323	1	tracer	
2324	1	trahi	
2325	1	trahisons	
2326	1	traitement	
2327	1	traitements	
2328	1	traiter	
2329	1	traité	
2330	1	trame	
2331	1	trancher	
2332	1	transports	
2333	1	traîtres	
2334	1	traîtresse	
2335	1	tremblant	
2336	1	tremper	
2337	1	trempée	
2338	1	tributs	
2339	1	triomphe	
2340	1	tristes	
2341	1	tristesse	
2342	1	trompes	
2343	1	trompeur	
2344	1	trompeurs	
2345	1	trompez	
2346	1	trompât	
2347	1	troubler	
2348	1	trouva	
2349	1	trouvait	
2350	1	trouvant	
2351	1	trouvez	
2352	1	trouvé	
2353	1	trouvée	
2354	1	trônes	
2355	1	tuent	
2356	1	tumulte	
2357	1	turcs	
2358	1	tyrannie	
2359	1	tyrannies	
2360	1	tâche	
2361	1	tâches	
2362	1	témoignage	
2363	1	témoignant	
2364	1	témoignes	
2365	1	témoignez	
2366	1	téméraire	
2367	1	têtes	
2368	1	unies	
2369	1	unique	
2370	1	unis	
2371	1	unissant	
2372	1	unit	
2373	1	usage	
2374	1	vaincu	
2375	1	vaine	
2376	1	vainement	
2377	1	vaines	
2378	1	vaste	
2379	1	veillez	
2380	1	venais	
2381	1	vengeant	
2382	1	ver	
2383	1	verrai	
2384	1	verrait	
2385	1	verrions	
2386	1	verront	
2387	1	vers	
2388	1	verser	
2389	1	verserai	
2390	1	vertueuse	
2391	1	veuille	
2392	1	veuilles	
2393	1	victime	
2394	1	victoires	
2395	1	vide	
2396	1	vieillesse	
2397	1	viendrai	
2398	1	vienne	
2399	1	vif	
2400	1	vigoureuse	
2401	1	vile	
2402	1	villes	
2403	1	visible	
2404	1	visiter	
2405	1	vissiez	
2406	1	voiles	
2407	1	voisins	
2408	1	vole	
2409	1	voler	
2410	1	vomit	
2411	1	vont	
2412	1	voudrais	
2413	1	voudrait	
2414	1	voudras	
2415	1	voulons	
2416	1	voulu	
2417	1	vrais	
2418	1	vulgaire	
2419	1	vôtre	
2420	1	éclair	
2421	1	éclaircir	
2422	1	éclipsée	
2423	1	écoutons	
2424	1	écueils	
2425	1	égaler	
2426	1	égaux	
2427	1	égorgé	
2428	1	élevant	
2429	1	élevés	
2430	1	élisant	
2431	1	élisons	
2432	1	élut	
2433	1	élèvent	
2434	1	émouvoir	
2435	1	épargnent	
2436	1	épargner	
2437	1	épines	
2438	1	épouse	
2439	1	éprouver	
2440	1	équitable	
2441	1	équité	
2442	1	établir	
2443	1	établissant	
2444	1	établit	
2445	1	éteigne	
2446	1	éteignit	
2447	1	éteinte	
2448	1	éternel	
2449	1	éternise	
2450	1	étire	
2451	1	étoiles	
2452	1	étouffai	
2453	1	étrange	
2454	1	étranges	
2455	1	évente	
2456	1	évitons	
2457	1	ôtèrent	
