#Word Types: 2667
#Word Tokens: 17634
#Search Hits: 0
1	531	vous	
2	505	et	
3	454	de	
4	436	je	
5	391	en	
6	312	que	
7	309	il	
8	308	l	
9	285	le	
10	283	est	
11	275	à	
12	255	un	
13	239	qu	
14	194	ce	
15	194	la	
16	189	d	
17	187	ne	
18	184	pour	
19	178	me	
20	160	si	
21	150	j	
22	149	n	
23	139	m	
24	122	plus	
25	113	qui	
26	109	les	
27	106	mon	
28	106	on	
29	104	mais	
30	101	pas	
31	96	c	
32	96	votre	
33	95	a	
34	94	tu	
35	92	ai	
36	92	bien	
37	92	fait	
38	90	lui	
39	90	tout	
40	88	une	
41	86	elle	
42	83	s	
43	78	sans	
44	70	son	
45	68	cette	
46	67	amour	
47	67	nous	
48	63	ma	
49	63	sa	
50	61	comme	
51	57	au	
52	57	moi	
53	56	avec	
54	56	des	
55	55	dans	
56	55	point	
57	54	autre	
58	53	monsieur	
59	52	du	
60	52	se	
61	50	même	
62	50	par	
63	49	ou	
64	48	voir	
65	47	coeur	
66	47	y	
67	47	être	
68	42	faire	
69	42	peu	
70	42	peut	
71	40	trop	
72	39	ces	
73	39	suis	
74	36	te	
75	36	vos	
76	34	encore	
77	34	moins	
78	33	veux	
79	33	âme	
80	32	aime	
81	32	deux	
82	32	faut	
83	32	fort	
84	32	quelque	
85	30	avez	
86	30	quoi	
87	30	rien	
88	29	sur	
89	28	dont	
90	28	ton	
91	27	mes	
92	27	où	
93	27	tant	
94	26	puis	
95	25	dire	
96	25	ont	
97	25	portrait	
98	25	quand	
99	25	t	
100	25	temps	
101	24	sais	
102	24	sont	
103	24	était	
104	23	ami	
105	23	dit	
106	23	grand	
107	23	homme	
108	23	maîtresse	
109	23	philiste	
110	23	quel	
111	23	tous	
112	23	vu	
113	22	ainsi	
114	22	assez	
115	22	dois	
116	22	ici	
117	22	jamais	
118	21	après	
119	21	frère	
120	21	mieux	
121	21	non	
122	21	ses	
123	21	yeux	
124	20	avoir	
125	20	cliton	
126	20	ils	
127	20	soeur	
128	19	argent	
129	19	autant	
130	19	dorante	
131	19	prison	
132	19	secret	
133	18	dis	
134	18	donc	
135	18	mal	
136	18	nuit	
137	17	adieu	
138	17	belle	
139	17	bon	
140	17	honneur	
141	17	lieu	
142	17	madame	
143	17	ni	
144	17	nom	
145	17	soit	
146	17	va	
147	17	vois	
148	16	ah	
149	16	aux	
150	16	esprit	
151	16	semble	
152	16	êtes	
153	15	avant	
154	15	beaucoup	
155	15	chose	
156	15	doux	
157	15	enfin	
158	15	entre	
159	15	moment	
160	15	oui	
161	15	prend	
162	15	pris	
163	15	vrai	
164	14	as	
165	14	aussi	
166	14	bonheur	
167	14	cet	
168	14	chez	
169	14	devoir	
170	14	donner	
171	14	eût	
172	14	là	
173	14	sortir	
174	14	toi	
175	14	visage	
176	14	voilà	
177	13	aimer	
178	13	celle	
179	13	coup	
180	13	fais	
181	13	jour	
182	13	lettre	
183	13	mot	
184	12	cependant	
185	12	ciel	
186	12	connaître	
187	12	mentir	
188	12	mort	
189	12	occasion	
190	12	peine	
191	12	tel	
192	12	toujours	
193	12	veut	
194	12	vie	
195	12	viens	
196	12	vient	
197	12	voit	
198	11	bruit	
199	11	cela	
200	11	faveur	
201	11	gens	
202	11	humeur	
203	11	prends	
204	11	secours	
205	11	toute	
206	11	voulez	
207	11	vôtre	
208	10	amant	
209	10	aujourd	
210	10	chacun	
211	10	cléandre	
212	10	demain	
213	10	effet	
214	10	hui	
215	10	jours	
216	10	loin	
217	10	lyse	
218	10	porte	
219	10	prendre	
220	10	pu	
221	10	rendre	
222	10	serait	
223	10	sitôt	
224	10	su	
225	10	ta	
226	10	tiens	
227	10	trouve	
228	9	adresse	
229	9	cavalier	
230	9	chercher	
231	9	cru	
232	9	discours	
233	9	doit	
234	9	donne	
235	9	déjà	
236	9	flamme	
237	9	généreux	
238	9	jaloux	
239	9	joie	
240	9	leur	
241	9	main	
242	9	maître	
243	9	parle	
244	9	parler	
245	9	passe	
246	9	perdre	
247	9	pouvez	
248	9	quelle	
249	9	sujet	
250	9	taire	
251	9	tantôt	
252	9	tes	
253	9	traits	
254	9	voudrais	
255	9	vue	
256	8	aimez	
257	8	amitié	
258	8	besoin	
259	8	bons	
260	8	coups	
261	8	crois	
262	8	dame	
263	8	doute	
264	8	dès	
265	8	espoir	
266	8	eux	
267	8	fois	
268	8	force	
269	8	fut	
270	8	heure	
271	8	innocent	
272	8	jusqu	
273	8	mains	
274	8	mien	
275	8	monde	
276	8	nos	
277	8	objet	
278	8	ordre	
279	8	ose	
280	8	parole	
281	8	peur	
282	8	prisonnier	
283	8	quatre	
284	8	quelques	
285	8	quitte	
286	8	rend	
287	8	sait	
288	8	savez	
289	8	serez	
290	8	seul	
291	8	soin	
292	8	sorte	
293	8	sous	
294	8	trois	
295	8	vaut	
296	8	vers	
297	8	voyez	
298	8	écoute	
299	7	affaire	
300	7	allons	
301	7	apprendre	
302	7	avons	
303	7	beauté	
304	7	change	
305	7	cheval	
306	7	colère	
307	7	contre	
308	7	courage	
309	7	croit	
310	7	croyez	
311	7	demeure	
312	7	destin	
313	7	devez	
314	7	digne	
315	7	dites	
316	7	donnez	
317	7	font	
318	7	importune	
319	7	lucrèce	
320	7	mots	
321	7	mélisse	
322	7	mérite	
323	7	paris	
324	7	plaire	
325	7	pouvoir	
326	7	premier	
327	7	présent	
328	7	puisque	
329	7	puisse	
330	7	querelle	
331	7	rare	
332	7	reste	
333	7	servir	
334	7	souci	
335	7	soupçon	
336	7	taille	
337	7	ville	
338	7	voulu	
339	7	voyant	
340	7	écrit	
341	7	étrange	
342	6	air	
343	6	ait	
344	6	amis	
345	6	beau	
346	6	bonne	
347	6	cher	
348	6	connais	
349	6	consentir	
350	6	couleur	
351	6	coupable	
352	6	crime	
353	6	diamants	
354	6	donné	
355	6	douceurs	
356	6	duel	
357	6	engage	
358	6	entendre	
359	6	entrer	
360	6	entretien	
361	6	espérer	
362	6	estime	
363	6	faite	
364	6	fenêtre	
365	6	ferai	
366	6	feux	
367	6	fit	
368	6	honnête	
369	6	idée	
370	6	laisse	
371	6	leurs	
372	6	loisir	
373	6	lors	
374	6	lyon	
375	6	malheur	
376	6	mauvais	
377	6	menteur	
378	6	mienne	
379	6	noble	
380	6	nomme	
381	6	oblige	
382	6	part	
383	6	perdu	
384	6	place	
385	6	plaît	
386	6	pourrait	
387	6	puisqu	
388	6	quelqu	
389	6	rigueur	
390	6	rire	
391	6	résoudre	
392	6	savoir	
393	6	sens	
394	6	sert	
395	6	service	
396	6	sort	
397	6	souffrez	
398	6	souffrir	
399	6	souvent	
400	6	toutefois	
401	6	trouble	
402	6	trouver	
403	6	trésor	
404	6	véritable	
405	5	admire	
406	5	adore	
407	5	ailleurs	
408	5	aller	
409	5	assurance	
410	5	aucune	
411	5	auriez	
412	5	avance	
413	5	avis	
414	5	ayant	
415	5	bas	
416	5	belles	
417	5	bientôt	
418	5	coeurs	
419	5	connaît	
420	5	courir	
421	5	crains	
422	5	croire	
423	5	dessein	
424	5	dieu	
425	5	défendre	
426	5	eh	
427	5	elles	
428	5	envie	
429	5	envoie	
430	5	eus	
431	5	excuse	
432	5	faites	
433	5	feu	
434	5	folie	
435	5	front	
436	5	fâche	
437	5	gage	
438	5	innocence	
439	5	jure	
440	5	lieux	
441	5	lingère	
442	5	maintenant	
443	5	maison	
444	5	mettre	
445	5	mille	
446	5	mis	
447	5	montre	
448	5	naître	
449	5	notre	
450	5	obéir	
451	5	parlez	
452	5	paroles	
453	5	personne	
454	5	peuvent	
455	5	pistoles	
456	5	plutôt	
457	5	poitiers	
458	5	porter	
459	5	prenez	
460	5	prix	
461	5	présence	
462	5	quelquefois	
463	5	raison	
464	5	ravir	
465	5	rencontre	
466	5	sang	
467	5	sauver	
468	5	serment	
469	5	soi	
470	5	soins	
471	5	surprendre	
472	5	surprise	
473	5	surtout	
474	5	tient	
475	5	tirer	
476	5	tremble	
477	5	triste	
478	5	très	
479	5	témoin	
480	5	vais	
481	5	vertu	
482	5	vouloir	
483	5	étant	
484	5	état	
485	5	été	
486	4	abord	
487	4	acquitter	
488	4	aisément	
489	4	allez	
490	4	allé	
491	4	alors	
492	4	amoureux	
493	4	amours	
494	4	aura	
495	4	aurais	
496	4	aussitôt	
497	4	auteur	
498	4	autres	
499	4	aventure	
500	4	but	
501	4	cause	
502	4	chaleur	
503	4	choix	
504	4	clarice	
505	4	compliment	
506	4	compte	
507	4	concierge	
508	4	confitures	
509	4	conseil	
510	4	contraire	
511	4	courroux	
512	4	cours	
513	4	crainte	
514	4	criminel	
515	4	dames	
516	4	demande	
517	4	demandez	
518	4	demi	
519	4	devient	
520	4	disais	
521	4	ensemble	
522	4	entretenir	
523	4	envers	
524	4	estimer	
525	4	eussiez	
526	4	exprès	
527	4	extrême	
528	4	fallait	
529	4	faute	
530	4	façon	
531	4	feinte	
532	4	femme	
533	4	fidèle	
534	4	fille	
535	4	flatte	
536	4	foi	
537	4	fortune	
538	4	gloire	
539	4	générosité	
540	4	habit	
541	4	hasarder	
542	4	heureux	
543	4	hymen	
544	4	hélas	
545	4	importe	
546	4	ingrat	
547	4	jeu	
548	4	jolie	
549	4	jugez	
550	4	laissé	
551	4	lois	
552	4	lorsque	
553	4	louis	
554	4	malheureux	
555	4	manque	
556	4	marque	
557	4	meurs	
558	4	mine	
559	4	moments	
560	4	montrer	
561	4	original	
562	4	parfaite	
563	4	parlons	
564	4	pars	
565	4	perdez	
566	4	pitié	
567	4	plaindre	
568	4	pourrez	
569	4	presque	
570	4	presse	
571	4	prompt	
572	4	proverbe	
573	4	près	
574	4	présents	
575	4	prétexte	
576	4	père	
577	4	quoique	
578	4	raillerie	
579	4	regret	
580	4	rendez	
581	4	rendu	
582	4	riche	
583	4	rome	
584	4	rompre	
585	4	rue	
586	4	sachez	
587	4	saurais	
588	4	sauve	
589	4	secrets	
590	4	sera	
591	4	sergents	
592	4	sien	
593	4	sienne	
594	4	sottise	
595	4	suspect	
596	4	tais	
597	4	telle	
598	4	toutes	
599	4	trompe	
600	4	trouvé	
601	4	tôt	
602	4	venir	
603	4	verrez	
604	4	vis	
605	4	visite	
606	4	voie	
607	4	voix	
608	4	vouliez	
609	4	écouter	
610	4	épée	
611	4	étiez	
612	4	ô	
613	3	accepter	
614	3	action	
615	3	adorable	
616	3	adroitement	
617	3	afin	
618	3	agir	
619	3	aimée	
620	3	alarmes	
621	3	alcippe	
622	3	appas	
623	3	apporte	
624	3	apprends	
625	3	attend	
626	3	attendre	
627	3	attends	
628	3	attraits	
629	3	auprès	
630	3	autrefois	
631	3	bellecour	
632	3	bienfait	
633	3	bonnes	
634	3	bonté	
635	3	bouche	
636	3	bout	
637	3	brave	
638	3	celui	
639	3	cent	
640	3	certain	
641	3	certes	
642	3	ceux	
643	3	charmant	
644	3	charme	
645	3	charmes	
646	3	ci	
647	3	compagnie	
648	3	comédie	
649	3	confesse	
650	3	congé	
651	3	connue	
652	3	conte	
653	3	conter	
654	3	conté	
655	3	couvert	
656	3	craignez	
657	3	craint	
658	3	crier	
659	3	crédit	
660	3	curieux	
661	3	cède	
662	3	dedans	
663	3	demander	
664	3	depuis	
665	3	devant	
666	3	diable	
667	3	disent	
668	3	divertir	
669	3	don	
670	3	doucement	
671	3	doutez	
672	3	dédire	
673	3	défaite	
674	3	départ	
675	3	déplaisir	
676	3	désordre	
677	3	détruit	
678	3	effort	
679	3	emporte	
680	3	encor	
681	3	ennui	
682	3	envi	
683	3	eusse	
684	3	eut	
685	3	excès	
686	3	exemple	
687	3	expliquer	
688	3	familier	
689	3	fausse	
690	3	faux	
691	3	faveurs	
692	3	fera	
693	3	ferais	
694	3	festin	
695	3	finesse	
696	3	flatter	
697	3	forme	
698	3	fruit	
699	3	fût	
700	3	gages	
701	3	gagner	
702	3	garde	
703	3	grande	
704	3	grâce	
705	3	guérir	
706	3	haut	
707	3	histoire	
708	3	imiter	
709	3	impute	
710	3	ingrate	
711	3	ingratitude	
712	3	instant	
713	3	irai	
714	3	juges	
715	3	justement	
716	3	laide	
717	3	laisser	
718	3	langage	
719	3	liberté	
720	3	loger	
721	3	long	
722	3	léger	
723	3	malgré	
724	3	maraud	
725	3	marché	
726	3	ment	
727	3	merveille	
728	3	met	
729	3	mourir	
730	3	moyens	
731	3	métier	
732	3	naissance	
733	3	nouvelle	
734	3	obliger	
735	3	oh	
736	3	orfèvre	
737	3	ouvre	
738	3	paraît	
739	3	parfait	
740	3	passé	
741	3	pauvre	
742	3	payer	
743	3	pays	
744	3	peinture	
745	3	pense	
746	3	pensez	
747	3	perds	
748	3	perte	
749	3	peux	
750	3	pis	
751	3	poing	
752	3	port	
753	3	possédez	
754	3	poste	
755	3	pourrai	
756	3	pourrais	
757	3	pourrons	
758	3	première	
759	3	prendrai	
760	3	prendrez	
761	3	prise	
762	3	prisons	
763	3	produit	
764	3	promet	
765	3	promis	
766	3	prépare	
767	3	prétendre	
768	3	prévôt	
769	3	prêt	
770	3	péril	
771	3	pût	
772	3	quitter	
773	3	raisons	
774	3	ravi	
775	3	ravie	
776	3	ravissement	
777	3	reconnaissance	
778	3	reconnaissant	
779	3	regarde	
780	3	rentrez	
781	3	ressemble	
782	3	retirer	
783	3	retour	
784	3	revient	
785	3	rival	
786	3	roi	
787	3	romps	
788	3	sache	
789	3	saura	
790	3	serai	
791	3	seulement	
792	3	simple	
793	3	sinon	
794	3	soir	
795	3	sors	
796	3	sortez	
797	3	souffre	
798	3	soupirs	
799	3	soyez	
800	3	surpris	
801	3	sévère	
802	3	sûr	
803	3	tard	
804	3	tels	
805	3	tenez	
806	3	tenir	
807	3	touche	
808	3	trahir	
809	3	trouvez	
810	3	tête	
811	3	user	
812	3	vain	
813	3	vains	
814	3	valet	
815	3	vas	
816	3	vieille	
817	3	viendra	
818	3	viennent	
819	3	voeux	
820	3	voulant	
821	3	voyage	
822	3	voyons	
823	3	âge	
824	3	éclat	
825	3	écrire	
826	3	étais	
827	3	étonnés	
828	3	événement	
829	3	ôte	
830	2	abuse	
831	2	accident	
832	2	accueil	
833	2	achever	
834	2	acquitte	
835	2	adroit	
836	2	aide	
837	2	aimable	
838	2	aimé	
839	2	ajoute	
840	2	allais	
841	2	ambassade	
842	2	amusement	
843	2	amène	
844	2	ans	
845	2	appelle	
846	2	ardeur	
847	2	armes	
848	2	arrête	
849	2	arrêter	
850	2	artifice	
851	2	assure	
852	2	attache	
853	2	atteinte	
854	2	aurons	
855	2	autrement	
856	2	avais	
857	2	avait	
858	2	avantage	
859	2	aventures	
860	2	avertir	
861	2	avoue	
862	2	avouer	
863	2	ayez	
864	2	badin	
865	2	beautés	
866	2	blessé	
867	2	blâmer	
868	2	bonhomme	
869	2	bourse	
870	2	brûle	
871	2	cacher	
872	2	canaille	
873	2	capable	
874	2	caprice	
875	2	cas	
876	2	cervelle	
877	2	changer	
878	2	changez	
879	2	chaque	
880	2	charge	
881	2	chaînes	
882	2	chemin	
883	2	cherche	
884	2	choisis	
885	2	civilités	
886	2	climène	
887	2	commandé	
888	2	commence	
889	2	commode	
890	2	compter	
891	2	confus	
892	2	confusion	
893	2	conjecture	
894	2	connaissance	
895	2	conserver	
896	2	considéré	
897	2	conséquence	
898	2	contemple	
899	2	content	
900	2	converti	
901	2	copie	
902	2	couleurs	
903	2	craindre	
904	2	céder	
905	2	cérémonie	
906	2	daigne	
907	2	danger	
908	2	dangereux	
909	2	davantage	
910	2	dernier	
911	2	dessous	
912	2	dettes	
913	2	devait	
914	2	devance	
915	2	devenir	
916	2	deviens	
917	2	deviez	
918	2	deviner	
919	2	deviné	
920	2	diligence	
921	2	dirai	
922	2	dirons	
923	2	discret	
924	2	dispense	
925	2	doigt	
926	2	dors	
927	2	double	
928	2	douce	
929	2	douleur	
930	2	douter	
931	2	droit	
932	2	débite	
933	2	déclarer	
934	2	découvre	
935	2	déguise	
936	2	déguisements	
937	2	délicat	
938	2	délivrance	
939	2	déplaire	
940	2	eau	
941	2	effets	
942	2	efforts	
943	2	effroi	
944	2	embrouillait	
945	2	empare	
946	2	employer	
947	2	enchanté	
948	2	ennemis	
949	2	enrager	
950	2	entend	
951	2	entends	
952	2	entières	
953	2	entreprends	
954	2	entretienne	
955	2	entrez	
956	2	entrée	
957	2	erreur	
958	2	es	
959	2	eu	
960	2	eussions	
961	2	examine	
962	2	excusez	
963	2	extravagance	
964	2	extravagances	
965	2	extravaguer	
966	2	faisais	
967	2	faits	
968	2	faudrait	
969	2	favorable	
970	2	façons	
971	2	ferez	
972	2	fers	
973	2	figurer	
974	2	filous	
975	2	fin	
976	2	florange	
977	2	florence	
978	2	fourni	
979	2	france	
980	2	fus	
981	2	fâcher	
982	2	fâché	
983	2	galanterie	
984	2	gardent	
985	2	garder	
986	2	grandeur	
987	2	grands	
988	2	guerre	
989	2	haute	
990	2	heur	
991	2	heureuse	
992	2	honte	
993	2	horreur	
994	2	huit	
995	2	hyménée	
996	2	hâte	
997	2	hôtellerie	
998	2	image	
999	2	inconnu	
1000	2	infaillible	
1001	2	injure	
1002	2	inquiétude	
1003	2	instruit	
1004	2	introduire	
1005	2	intéresse	
1006	2	intérêt	
1007	2	italie	
1008	2	jeune	
1009	2	jeunesse	
1010	2	jodelet	
1011	2	juger	
1012	2	jugerez	
1013	2	jurerais	
1014	2	jusque	
1015	2	laissez	
1016	2	langue	
1017	2	lanterne	
1018	2	larmes	
1019	2	las	
1020	2	leçon	
1021	2	linge	
1022	2	logis	
1023	2	lorsqu	
1024	2	louer	
1025	2	lune	
1026	2	lâcheté	
1027	2	magnanime	
1028	2	maintien	
1029	2	maisons	
1030	2	malheurs	
1031	2	manquer	
1032	2	marcher	
1033	2	maîtres	
1034	2	meilleures	
1035	2	meilleurs	
1036	2	mens	
1037	2	menteurs	
1038	2	menti	
1039	2	message	
1040	2	messieurs	
1041	2	meure	
1042	2	meurt	
1043	2	meurtre	
1044	2	milieu	
1045	2	mines	
1046	2	mise	
1047	2	modeste	
1048	2	moindre	
1049	2	montrez	
1050	2	mourrez	
1051	2	ménage	
1052	2	mépris	
1053	2	méthode	
1054	2	mêle	
1055	2	naguère	
1056	2	naissent	
1057	2	nez	
1058	2	noeud	
1059	2	noire	
1060	2	nouveau	
1061	2	nouveaux	
1062	2	nuis	
1063	2	nécessité	
1064	2	obligeante	
1065	2	obligé	
1066	2	obscurité	
1067	2	obstinez	
1068	2	occasions	
1069	2	offre	
1070	2	oppose	
1071	2	oraison	
1072	2	osais	
1073	2	oublier	
1074	2	parce	
1075	2	pareils	
1076	2	parent	
1077	2	parents	
1078	2	parlant	
1079	2	parliez	
1080	2	parlé	
1081	2	paroître	
1082	2	partager	
1083	2	partir	
1084	2	passant	
1085	2	pavillon	
1086	2	peau	
1087	2	penses	
1088	2	pensée	
1089	2	perd	
1090	2	perdrais	
1091	2	perles	
1092	2	persiste	
1093	2	personnages	
1094	2	persuade	
1095	2	petites	
1096	2	petits	
1097	2	peuple	
1098	2	pied	
1099	2	pièce	
1100	2	plaie	
1101	2	plains	
1102	2	plaisir	
1103	2	plat	
1104	2	pleurs	
1105	2	portraits	
1106	2	posséder	
1107	2	pourquoi	
1108	2	pourra	
1109	2	pousser	
1110	2	pouviez	
1111	2	premiers	
1112	2	prenant	
1113	2	preuve	
1114	2	prie	
1115	2	procédé	
1116	2	propre	
1117	2	propres	
1118	2	proteste	
1119	2	prêter	
1120	2	puissants	
1121	2	puissiez	
1122	2	qualité	
1123	2	qualités	
1124	2	quels	
1125	2	quoiqu	
1126	2	rabat	
1127	2	rapport	
1128	2	rapporte	
1129	2	ravoir	
1130	2	recevez	
1131	2	reconnaître	
1132	2	redouble	
1133	2	redoubler	
1134	2	refuser	
1135	2	regards	
1136	2	remettre	
1137	2	remède	
1138	2	rencontrée	
1139	2	rende	
1140	2	rendit	
1141	2	rendons	
1142	2	rends	
1143	2	repentir	
1144	2	reprocher	
1145	2	retenir	
1146	2	retenue	
1147	2	retiens	
1148	2	retient	
1149	2	revoir	
1150	2	reçois	
1151	2	reçu	
1152	2	reçus	
1153	2	rit	
1154	2	rivaux	
1155	2	rouge	
1156	2	rougis	
1157	2	rougit	
1158	2	rude	
1159	2	réduite	
1160	2	réponse	
1161	2	sachant	
1162	2	satisfait	
1163	2	saurai	
1164	2	saurez	
1165	2	semblait	
1166	2	sentiment	
1167	2	sentinelle	
1168	2	seras	
1169	2	servante	
1170	2	seule	
1171	2	silence	
1172	2	soient	
1173	2	sois	
1174	2	solides	
1175	2	sortirez	
1176	2	sottises	
1177	2	soudain	
1178	2	souhaite	
1179	2	soulager	
1180	2	style	
1181	2	succède	
1182	2	suffit	
1183	2	suit	
1184	2	suivre	
1185	2	superflus	
1186	2	survient	
1187	2	sus	
1188	2	sûreté	
1189	2	talent	
1190	2	tandis	
1191	2	termes	
1192	2	tienne	
1193	2	tombeau	
1194	2	touchant	
1195	2	touché	
1196	2	tour	
1197	2	trahit	
1198	2	traiter	
1199	2	traître	
1200	2	trouvant	
1201	2	tâche	
1202	2	témoigne	
1203	2	union	
1204	2	unique	
1205	2	uns	
1206	2	vent	
1207	2	verra	
1208	2	verriez	
1209	2	vert	
1210	2	viendrai	
1211	2	vieux	
1212	2	voici	
1213	2	école	
1214	2	écris	
1215	2	étourdis	
1216	1	abaissent	
1217	1	abaisser	
1218	1	abandonne	
1219	1	abandonner	
1220	1	abandonnez	
1221	1	abois	
1222	1	absolu	
1223	1	absolue	
1224	1	accable	
1225	1	accablement	
1226	1	acceptez	
1227	1	accommode	
1228	1	accord	
1229	1	accordent	
1230	1	accorder	
1231	1	accords	
1232	1	accortement	
1233	1	accourci	
1234	1	accroire	
1235	1	accuser	
1236	1	accès	
1237	1	achevée	
1238	1	achève	
1239	1	acquis	
1240	1	acquitteraient	
1241	1	adorer	
1242	1	adorions	
1243	1	adorons	
1244	1	adroite	
1245	1	affaiblis	
1246	1	affecte	
1247	1	affranchir	
1248	1	affront	
1249	1	agréable	
1250	1	agréablement	
1251	1	aideras	
1252	1	aie	
1253	1	aigrissez	
1254	1	ailes	
1255	1	aille	
1256	1	aimais	
1257	1	aimant	
1258	1	aimera	
1259	1	aimerai	
1260	1	aimons	
1261	1	aimâtes	
1262	1	aisée	
1263	1	aisés	
1264	1	ajouter	
1265	1	ajoutez	
1266	1	allant	
1267	1	allemagne	
1268	1	alliance	
1269	1	allonge	
1270	1	allumer	
1271	1	allumé	
1272	1	allégresse	
1273	1	ambition	
1274	1	amende	
1275	1	amendé	
1276	1	amorce	
1277	1	amoureuse	
1278	1	ample	
1279	1	amuse	
1280	1	an	
1281	1	aperçoit	
1282	1	appartement	
1283	1	appeler	
1284	1	appelez	
1285	1	apportai	
1286	1	apporter	
1287	1	apprenez	
1288	1	appris	
1289	1	approbation	
1290	1	approchant	
1291	1	approcherait	
1292	1	approches	
1293	1	approchez	
1294	1	appréhendez	
1295	1	apprêts	
1296	1	appuyer	
1297	1	arbitre	
1298	1	arriver	
1299	1	arrêtez	
1300	1	arrêté	
1301	1	assassin	
1302	1	assassiner	
1303	1	assaut	
1304	1	asservir	
1305	1	assurer	
1306	1	assurée	
1307	1	astrée	
1308	1	attaquer	
1309	1	atteint	
1310	1	attendant	
1311	1	attendrai	
1312	1	attrait	
1313	1	attrape	
1314	1	attrayant	
1315	1	attrister	
1316	1	attristez	
1317	1	aucun	
1318	1	aucunement	
1319	1	aucunes	
1320	1	aucuns	
1321	1	auparavant	
1322	1	aurai	
1323	1	aurait	
1324	1	aurez	
1325	1	aurions	
1326	1	aurois	
1327	1	auront	
1328	1	autrui	
1329	1	avancer	
1330	1	avantages	
1331	1	avenir	
1332	1	aversion	
1333	1	aveugle	
1334	1	aviez	
1335	1	avions	
1336	1	avise	
1337	1	avouerez	
1338	1	ayons	
1339	1	babillard	
1340	1	badiner	
1341	1	bagage	
1342	1	baisers	
1343	1	bander	
1344	1	bannie	
1345	1	barbare	
1346	1	battre	
1347	1	battu	
1348	1	battîtes	
1349	1	beaux	
1350	1	biens	
1351	1	bienvenue	
1352	1	billet	
1353	1	bisque	
1354	1	blanchie	
1355	1	blesse	
1356	1	blond	
1357	1	boiteux	
1358	1	bonsoir	
1359	1	bourde	
1360	1	boutique	
1361	1	bras	
1362	1	bricola	
1363	1	briser	
1364	1	brusque	
1365	1	brutal	
1366	1	brûlé	
1367	1	cabaret	
1368	1	cachait	
1369	1	cachant	
1370	1	cachez	
1371	1	cage	
1372	1	cajole	
1373	1	cajoleurs	
1374	1	calmer	
1375	1	calomnie	
1376	1	campagne	
1377	1	captiver	
1378	1	caquet	
1379	1	car	
1380	1	caractère	
1381	1	caresse	
1382	1	caution	
1383	1	cavaliers	
1384	1	celles	
1385	1	cercueil	
1386	1	certaine	
1387	1	cessant	
1388	1	chambre	
1389	1	champ	
1390	1	chanceler	
1391	1	changé	
1392	1	chante	
1393	1	chapitre	
1394	1	charger	
1395	1	chargé	
1396	1	charitable	
1397	1	charmante	
1398	1	charmer	
1399	1	charmera	
1400	1	charmé	
1401	1	chasse	
1402	1	chasser	
1403	1	chemins	
1404	1	cherchent	
1405	1	cheveu	
1406	1	chienne	
1407	1	choir	
1408	1	choisît	
1409	1	choque	
1410	1	chu	
1411	1	chère	
1412	1	chérir	
1413	1	cieux	
1414	1	cinq	
1415	1	circonstance	
1416	1	circonstances	
1417	1	clair	
1418	1	claire	
1419	1	close	
1420	1	clous	
1421	1	coffre	
1422	1	coiffes	
1423	1	coin	
1424	1	coloré	
1425	1	combats	
1426	1	combattre	
1427	1	combattu	
1428	1	combien	
1429	1	comblé	
1430	1	commandements	
1431	1	commencé	
1432	1	comment	
1433	1	commerce	
1434	1	commis	
1435	1	commodes	
1436	1	commun	
1437	1	communes	
1438	1	compassion	
1439	1	complaisance	
1440	1	complaisant	
1441	1	compliments	
1442	1	comprends	
1443	1	compterait	
1444	1	comptez	
1445	1	concertés	
1446	1	conduire	
1447	1	conduisait	
1448	1	conduit	
1449	1	confessé	
1450	1	confidence	
1451	1	confidences	
1452	1	confidents	
1453	1	confondre	
1454	1	confondu	
1455	1	conforter	
1456	1	conjectures	
1457	1	conjure	
1458	1	connaissez	
1459	1	connoît	
1460	1	connu	
1461	1	conscience	
1462	1	consent	
1463	1	consentement	
1464	1	conserva	
1465	1	conservant	
1466	1	conservé	
1467	1	conservée	
1468	1	considérait	
1469	1	consolais	
1470	1	console	
1471	1	constance	
1472	1	constant	
1473	1	contais	
1474	1	contentez	
1475	1	contents	
1476	1	contraindre	
1477	1	conversion	
1478	1	convie	
1479	1	conviés	
1480	1	conçois	
1481	1	conçue	
1482	1	coquins	
1483	1	coucher	
1484	1	coucherai	
1485	1	couler	
1486	1	cour	
1487	1	courait	
1488	1	courante	
1489	1	courent	
1490	1	coureurs	
1491	1	courez	
1492	1	couronner	
1493	1	courtauds	
1494	1	courtoisie	
1495	1	courts	
1496	1	couru	
1497	1	cousins	
1498	1	coûte	
1499	1	creux	
1500	1	crimes	
1501	1	criminelle	
1502	1	criois	
1503	1	croie	
1504	1	croirais	
1505	1	croissez	
1506	1	crotter	
1507	1	croyable	
1508	1	croître	
1509	1	cruelle	
1510	1	crus	
1511	1	créature	
1512	1	curiosité	
1513	1	cédé	
1514	1	céladon	
1515	1	célèbre	
1516	1	côté	
1517	1	daignez	
1518	1	danse	
1519	1	debout	
1520	1	degré	
1521	1	dehors	
1522	1	delà	
1523	1	demeurent	
1524	1	demoiselle	
1525	1	deniers	
1526	1	dents	
1527	1	derniers	
1528	1	dernière	
1529	1	descendant	
1530	1	descends	
1531	1	descendues	
1532	1	desirs	
1533	1	dessus	
1534	1	destiné	
1535	1	deuil	
1536	1	devenu	
1537	1	devinait	
1538	1	devine	
1539	1	devrait	
1540	1	die	
1541	1	difficile	
1542	1	difficultés	
1543	1	différence	
1544	1	différent	
1545	1	dignes	
1546	1	diligent	
1547	1	dira	
1548	1	dirait	
1549	1	disait	
1550	1	discourons	
1551	1	discourt	
1552	1	discrets	
1553	1	discrétion	
1554	1	disiez	
1555	1	disons	
1556	1	disparaît	
1557	1	disparaître	
1558	1	dispose	
1559	1	disputer	
1560	1	dissiper	
1561	1	diverse	
1562	1	divertira	
1563	1	dix	
1564	1	doigts	
1565	1	doivent	
1566	1	domestique	
1567	1	dommage	
1568	1	donnant	
1569	1	donnent	
1570	1	donnerons	
1571	1	donnes	
1572	1	donnons	
1573	1	donnât	
1574	1	donnèrent	
1575	1	donnée	
1576	1	dons	
1577	1	doucet	
1578	1	douceur	
1579	1	douleurs	
1580	1	doutée	
1581	1	douzaine	
1582	1	droite	
1583	1	dupe	
1584	1	dupé	
1585	1	durée	
1586	1	dusse	
1587	1	dussiez	
1588	1	débats	
1589	1	débiter	
1590	1	déclaré	
1591	1	déconfit	
1592	1	découvert	
1593	1	découvrir	
1594	1	découvrirent	
1595	1	découvrons	
1596	1	décrie	
1597	1	décrié	
1598	1	décriée	
1599	1	dédaignes	
1600	1	défaire	
1601	1	défait	
1602	1	défaut	
1603	1	défier	
1604	1	défunt	
1605	1	défère	
1606	1	déférence	
1607	1	dégage	
1608	1	dégager	
1609	1	dégoût	
1610	1	dégoûtée	
1611	1	déguisant	
1612	1	déguisement	
1613	1	déguisée	
1614	1	délaissée	
1615	1	déloger	
1616	1	démonter	
1617	1	dénieras	
1618	1	départir	
1619	1	dépeindre	
1620	1	dépeint	
1621	1	dépend	
1622	1	dépit	
1623	1	déplaise	
1624	1	déplorer	
1625	1	dérobe	
1626	1	dérober	
1627	1	désavouer	
1628	1	désespère	
1629	1	désirs	
1630	1	désobliger	
1631	1	désormais	
1632	1	détour	
1633	1	détours	
1634	1	dévore	
1635	1	déçu	
1636	1	déçus	
1637	1	dû	
1638	1	effacerai	
1639	1	effaroucher	
1640	1	embarrassé	
1641	1	embonpoint	
1642	1	embraser	
1643	1	embrasse	
1644	1	embrouilles	
1645	1	emporter	
1646	1	emportiez	
1647	1	empêche	
1648	1	empêcher	
1649	1	enchantement	
1650	1	enchanteur	
1651	1	enchaînée	
1652	1	enfants	
1653	1	enflammé	
1654	1	enflammée	
1655	1	enflé	
1656	1	engager	
1657	1	engagez	
1658	1	ennemi	
1659	1	ennuyer	
1660	1	enrageait	
1661	1	enrichi	
1662	1	enrichie	
1663	1	enrichit	
1664	1	entende	
1665	1	entendez	
1666	1	entendiez	
1667	1	entendoit	
1668	1	entendrez	
1669	1	entière	
1670	1	entr	
1671	1	entrant	
1672	1	entreprenez	
1673	1	entretiendrai	
1674	1	enviez	
1675	1	environ	
1676	1	envoyer	
1677	1	envoyez	
1678	1	escroques	
1679	1	esprits	
1680	1	espérais	
1681	1	espérance	
1682	1	espérant	
1683	1	espérez	
1684	1	essaie	
1685	1	estropie	
1686	1	estropié	
1687	1	eussent	
1688	1	excellence	
1689	1	excellente	
1690	1	excusera	
1691	1	exerçait	
1692	1	exiger	
1693	1	explique	
1694	1	expose	
1695	1	exposer	
1696	1	expresse	
1697	1	exécute	
1698	1	facilement	
1699	1	faible	
1700	1	faibles	
1701	1	faille	
1702	1	faillir	
1703	1	faisait	
1704	1	faisons	
1705	1	fallut	
1706	1	fantasque	
1707	1	farce	
1708	1	farceur	
1709	1	fasse	
1710	1	fasses	
1711	1	fatal	
1712	1	faudra	
1713	1	feins	
1714	1	femmes	
1715	1	fendîtes	
1716	1	fenêtres	
1717	1	ferait	
1718	1	feras	
1719	1	ferme	
1720	1	ferons	
1721	1	ferrer	
1722	1	feuille	
1723	1	figure	
1724	1	figures	
1725	1	file	
1726	1	filles	
1727	1	fines	
1728	1	firent	
1729	1	fisse	
1730	1	flammes	
1731	1	flatterie	
1732	1	flattes	
1733	1	flatteur	
1734	1	flatteurs	
1735	1	flux	
1736	1	foire	
1737	1	fol	
1738	1	folies	
1739	1	folle	
1740	1	fond	
1741	1	fonde	
1742	1	forcé	
1743	1	forma	
1744	1	formalités	
1745	1	formant	
1746	1	forment	
1747	1	formez	
1748	1	formât	
1749	1	forte	
1750	1	forts	
1751	1	fortunes	
1752	1	forçant	
1753	1	fou	
1754	1	foudroie	
1755	1	fournit	
1756	1	fous	
1757	1	franchement	
1758	1	franchise	
1759	1	français	
1760	1	frapper	
1761	1	frayeur	
1762	1	frivole	
1763	1	frivoles	
1764	1	froideur	
1765	1	frémi	
1766	1	fréquente	
1767	1	fuir	
1768	1	fuite	
1769	1	funeste	
1770	1	funèbre	
1771	1	fureur	
1772	1	fusse	
1773	1	futures	
1774	1	futé	
1775	1	fâchera	
1776	1	fâcheux	
1777	1	fîmes	
1778	1	fîtes	
1779	1	fûmes	
1780	1	gager	
1781	1	gagné	
1782	1	gagnés	
1783	1	gaillard	
1784	1	galant	
1785	1	galante	
1786	1	galantes	
1787	1	garantir	
1788	1	garants	
1789	1	garda	
1790	1	gardera	
1791	1	garnies	
1792	1	gentilhomme	
1793	1	gentillesse	
1794	1	geôlier	
1795	1	gille	
1796	1	gonds	
1797	1	gonflés	
1798	1	gosier	
1799	1	gouttières	
1800	1	gouverne	
1801	1	goût	
1802	1	gracieux	
1803	1	gratitude	
1804	1	grimace	
1805	1	grimoire	
1806	1	gronde	
1807	1	grossier	
1808	1	grossissant	
1809	1	grossières	
1810	1	grâces	
1811	1	gré	
1812	1	guenon	
1813	1	guerres	
1814	1	guériraient	
1815	1	guérison	
1816	1	gâter	
1817	1	habile	
1818	1	habiles	
1819	1	habits	
1820	1	habitude	
1821	1	haine	
1822	1	hait	
1823	1	haleine	
1824	1	hasard	
1825	1	hasardé	
1826	1	hautement	
1827	1	heureusement	
1828	1	hier	
1829	1	hommes	
1830	1	honnêtes	
1831	1	honteux	
1832	1	huissier	
1833	1	humble	
1834	1	humeurs	
1835	1	hérité	
1836	1	héros	
1837	1	hôtesse	
1838	1	ignorant	
1839	1	ignorer	
1840	1	ignorerai	
1841	1	ignorât	
1842	1	illustre	
1843	1	imagine	
1844	1	imaginer	
1845	1	imagines	
1846	1	imaginée	
1847	1	immobile	
1848	1	immortelle	
1849	1	impatience	
1850	1	impatients	
1851	1	importance	
1852	1	importante	
1853	1	impose	
1854	1	imprudences	
1855	1	incidents	
1856	1	incommode	
1857	1	incommoder	
1858	1	incommodé	
1859	1	inconnue	
1860	1	indifférence	
1861	1	indifférent	
1862	1	indifférente	
1863	1	indigne	
1864	1	indignité	
1865	1	indiscret	
1866	1	inexorable	
1867	1	infidèle	
1868	1	infini	
1869	1	infinies	
1870	1	informer	
1871	1	infortune	
1872	1	ingénieuse	
1873	1	inhumain	
1874	1	injustement	
1875	1	injustes	
1876	1	injustice	
1877	1	inouïs	
1878	1	inquiéter	
1879	1	inquiété	
1880	1	inscrire	
1881	1	insensiblement	
1882	1	insolent	
1883	1	insolvable	
1884	1	inspirer	
1885	1	installer	
1886	1	instruisent	
1887	1	intelligence	
1888	1	intéressée	
1889	1	invaincu	
1890	1	inviolable	
1891	1	invisible	
1892	1	invisibles	
1893	1	invite	
1894	1	inégalité	
1895	1	irrite	
1896	1	irriter	
1897	1	ivrogne	
1898	1	jadis	
1899	1	jalouse	
1900	1	jambe	
1901	1	jeter	
1902	1	jette	
1903	1	jettent	
1904	1	joindre	
1905	1	joins	
1906	1	joint	
1907	1	jolis	
1908	1	jouant	
1909	1	jouer	
1910	1	jouez	
1911	1	jouir	
1912	1	journée	
1913	1	joué	
1914	1	jouënt	
1915	1	juge	
1916	1	jurer	
1917	1	jurons	
1918	1	jusques	
1919	1	juste	
1920	1	justice	
1921	1	justifier	
1922	1	laissant	
1923	1	laissons	
1924	1	laquais	
1925	1	larcin	
1926	1	large	
1927	1	larron	
1928	1	larrons	
1929	1	lettres	
1930	1	leurre	
1931	1	leçons	
1932	1	libéral	
1933	1	lie	
1934	1	lien	
1935	1	ligne	
1936	1	lippée	
1937	1	liquides	
1938	1	lire	
1939	1	lis	
1940	1	lisant	
1941	1	lisez	
1942	1	lit	
1943	1	livrer	
1944	1	loge	
1945	1	logement	
1946	1	logez	
1947	1	logés	
1948	1	loi	
1949	1	louange	
1950	1	lourd	
1951	1	lumière	
1952	1	lumières	
1953	1	lâche	
1954	1	lâcher	
1955	1	légitime	
1956	1	légèrement	
1957	1	magistrats	
1958	1	maigre	
1959	1	maladroit	
1960	1	maltraite	
1961	1	mandez	
1962	1	manquerois	
1963	1	manquerons	
1964	1	manques	
1965	1	manquez	
1966	1	marauds	
1967	1	marchaient	
1968	1	mariage	
1969	1	marier	
1970	1	maris	
1971	1	mariée	
1972	1	martyre	
1973	1	masque	
1974	1	massacrait	
1975	1	matière	
1976	1	matières	
1977	1	maux	
1978	1	maîtresses	
1979	1	meilleur	
1980	1	meilleure	
1981	1	menace	
1982	1	menterie	
1983	1	mentiez	
1984	1	mentirez	
1985	1	mené	
1986	1	merci	
1987	1	merveilles	
1988	1	messages	
1989	1	mets	
1990	1	mettant	
1991	1	mignarde	
1992	1	mignature	
1993	1	misère	
1994	1	mois	
1995	1	moitié	
1996	1	monceau	
1997	1	monnaie	
1998	1	monter	
1999	1	montrais	
2000	1	montrant	
2001	1	montrent	
2002	1	montrerait	
2003	1	montrerez	
2004	1	moque	
2005	1	moques	
2006	1	moquez	
2007	1	morte	
2008	1	mortel	
2009	1	motif	
2010	1	motifs	
2011	1	mourois	
2012	1	mule	
2013	1	mulet	
2014	1	murmure	
2015	1	murmurer	
2016	1	murs	
2017	1	musique	
2018	1	mutin	
2019	1	mystère	
2020	1	mystères	
2021	1	mystérieuse	
2022	1	mène	
2023	1	méconnaître	
2024	1	mélancolie	
2025	1	mélancolique	
2026	1	mémoire	
2027	1	méprendre	
2028	1	méprise	
2029	1	mépriser	
2030	1	méprises	
2031	1	méprisé	
2032	1	méritais	
2033	1	mériter	
2034	1	mériterez	
2035	1	méritoit	
2036	1	mérité	
2037	1	métamorphose	
2038	1	méthodes	
2039	1	mêler	
2040	1	mît	
2041	1	naissante	
2042	1	naturel	
2043	1	naturelle	
2044	1	naufrage	
2045	1	naïvement	
2046	1	net	
2047	1	nette	
2048	1	nie	
2049	1	nombre	
2050	1	noms	
2051	1	nouveauté	
2052	1	nouvel	
2053	1	nouvelles	
2054	1	noyer	
2055	1	noyée	
2056	1	nuire	
2057	1	nuits	
2058	1	nul	
2059	1	nullement	
2060	1	nécessaire	
2061	1	nôtre	
2062	1	obligation	
2063	1	obligerez	
2064	1	obligez	
2065	1	obscur	
2066	1	obscure	
2067	1	obtiendrez	
2068	1	obtienne	
2069	1	obtiens	
2070	1	obéirai	
2071	1	obéissante	
2072	1	occupe	
2073	1	oeil	
2074	1	offense	
2075	1	offenser	
2076	1	offenses	
2077	1	offert	
2078	1	office	
2079	1	offices	
2080	1	offrir	
2081	1	ombrage	
2082	1	ombre	
2083	1	opinion	
2084	1	ordinaire	
2085	1	ordres	
2086	1	oreille	
2087	1	oreilles	
2088	1	oserais	
2089	1	osez	
2090	1	osé	
2091	1	otage	
2092	1	outre	
2093	1	ouvert	
2094	1	ouverte	
2095	1	ouvrage	
2096	1	ouvrant	
2097	1	ouvrir	
2098	1	oy	
2099	1	oyons	
2100	1	paie	
2101	1	paisiblement	
2102	1	paquets	
2103	1	paradis	
2104	1	paraître	
2105	1	pardonne	
2106	1	pardonnent	
2107	1	pardonnez	
2108	1	pareil	
2109	1	pareille	
2110	1	pareilles	
2111	1	parfaitement	
2112	1	parlerai	
2113	1	parleras	
2114	1	parlerons	
2115	1	parles	
2116	1	parlions	
2117	1	parmi	
2118	1	partez	
2119	1	parti	
2120	1	partie	
2121	1	partis	
2122	1	partout	
2123	1	parts	
2124	1	paru	
2125	1	passable	
2126	1	passablement	
2127	1	passerais	
2128	1	passées	
2129	1	patience	
2130	1	payée	
2131	1	peines	
2132	1	peint	
2133	1	peintre	
2134	1	penché	
2135	1	pensais	
2136	1	pensons	
2137	1	pensé	
2138	1	pensées	
2139	1	percer	
2140	1	perdant	
2141	1	perdue	
2142	1	permet	
2143	1	permettez	
2144	1	permis	
2145	1	perroquet	
2146	1	personnage	
2147	1	persécute	
2148	1	petit	
2149	1	petite	
2150	1	peurs	
2151	1	pillage	
2152	1	pillé	
2153	1	piquer	
2154	1	pistolet	
2155	1	plaignons	
2156	1	plaint	
2157	1	plaisamment	
2158	1	plaisante	
2159	1	plaisez	
2160	1	plein	
2161	1	pleine	
2162	1	pleurais	
2163	1	pleurer	
2164	1	pleuré	
2165	1	pleuve	
2166	1	plomb	
2167	1	ployer	
2168	1	plupart	
2169	1	plâtras	
2170	1	plâtrer	
2171	1	plût	
2172	1	poches	
2173	1	poids	
2174	1	poil	
2175	1	polie	
2176	1	ponctuellement	
2177	1	portaient	
2178	1	porté	
2179	1	portés	
2180	1	possible	
2181	1	possède	
2182	1	possédais	
2183	1	possédé	
2184	1	possédée	
2185	1	pourriez	
2186	1	pourront	
2187	1	pourvu	
2188	1	pouvais	
2189	1	pouvait	
2190	1	pouvant	
2191	1	pratique	
2192	1	premières	
2193	1	prenait	
2194	1	prendra	
2195	1	prendrait	
2196	1	prenons	
2197	1	pressant	
2198	1	preuves	
2199	1	prier	
2200	1	principal	
2201	1	priser	
2202	1	prisonniers	
2203	1	prit	
2204	1	privilégié	
2205	1	prière	
2206	1	prières	
2207	1	prochaine	
2208	1	proche	
2209	1	procède	
2210	1	procès	
2211	1	prodiguer	
2212	1	produise	
2213	1	projet	
2214	1	promesse	
2215	1	promptement	
2216	1	propos	
2217	1	propose	
2218	1	proposent	
2219	1	provinces	
2220	1	pré	
2221	1	précieux	
2222	1	précipiter	
2223	1	préfère	
2224	1	préoccupée	
2225	1	préparer	
2226	1	préparée	
2227	1	présenter	
2228	1	présume	
2229	1	présumez	
2230	1	présumiez	
2231	1	prétendez	
2232	1	prétends	
2233	1	préviendra	
2234	1	prîtes	
2235	1	public	
2236	1	publier	
2237	1	publiés	
2238	1	puissamment	
2239	1	puissance	
2240	1	puissant	
2241	1	puissent	
2242	1	puissé	
2243	1	punissant	
2244	1	pure	
2245	1	purgeront	
2246	1	pussent	
2247	1	put	
2248	1	pénétrer	
2249	1	périrai	
2250	1	périrait	
2251	1	quant	
2252	1	quartiers	
2253	1	quatorze	
2254	1	querellons	
2255	1	querir	
2256	1	quiconque	
2257	1	quinze	
2258	1	quittais	
2259	1	quittez	
2260	1	quittiez	
2261	1	quittons	
2262	1	quitté	
2263	1	rabattre	
2264	1	races	
2265	1	raffiner	
2266	1	rafles	
2267	1	raillant	
2268	1	railleuse	
2269	1	ranger	
2270	1	rappellent	
2271	1	rapporter	
2272	1	rapportera	
2273	1	rares	
2274	1	ravit	
2275	1	rebuter	
2276	1	recevoir	
2277	1	reconduire	
2278	1	reconduit	
2279	1	reconnais	
2280	1	reconnaît	
2281	1	recors	
2282	1	redemande	
2283	1	redis	
2284	1	redoublement	
2285	1	redoublent	
2286	1	refusez	
2287	1	regardaient	
2288	1	regarder	
2289	1	regardé	
2290	1	remerciement	
2291	1	remercier	
2292	1	remettez	
2293	1	remise	
2294	1	remontrance	
2295	1	rencontrer	
2296	1	rencontrez	
2297	1	rencontré	
2298	1	rendent	
2299	1	rendrai	
2300	1	rentrer	
2301	1	rentrerez	
2302	1	renverser	
2303	1	renvoyer	
2304	1	reposer	
2305	1	reprendre	
2306	1	reprenne	
2307	1	reprierai	
2308	1	respect	
2309	1	ressentir	
2310	1	ressuscité	
2311	1	retenez	
2312	1	retirais	
2313	1	retirant	
2314	1	retombent	
2315	1	retournez	
2316	1	retraite	
2317	1	revancher	
2318	1	revenir	
2319	1	revenons	
2320	1	revenu	
2321	1	revienne	
2322	1	reviens	
2323	1	revois	
2324	1	reçoit	
2325	1	ri	
2326	1	richesses	
2327	1	ridicule	
2328	1	rie	
2329	1	riez	
2330	1	ris	
2331	1	risque	
2332	1	romans	
2333	1	rompiez	
2334	1	rond	
2335	1	rongeant	
2336	1	rougir	
2337	1	route	
2338	1	ruban	
2339	1	rudement	
2340	1	ruser	
2341	1	rusés	
2342	1	récompenses	
2343	1	réduit	
2344	1	régale	
2345	1	régaler	
2346	1	régnant	
2347	1	répandues	
2348	1	réplique	
2349	1	répliquer	
2350	1	répondrai	
2351	1	répondre	
2352	1	réponds	
2353	1	répondu	
2354	1	répète	
2355	1	résolu	
2356	1	résolue	
2357	1	résoudrons	
2358	1	réussi	
2359	1	réussir	
2360	1	révolterais	
2361	1	rêverie	
2362	1	rôle	
2363	1	sacrifice	
2364	1	sai	
2365	1	saillies	
2366	1	saines	
2367	1	saint	
2368	1	saisi	
2369	1	saisis	
2370	1	saisit	
2371	1	saison	
2372	1	sanglots	
2373	1	satisfaites	
2374	1	saule	
2375	1	saurait	
2376	1	sauras	
2377	1	saurons	
2378	1	sauront	
2379	1	saute	
2380	1	sauvé	
2381	1	savais	
2382	1	savait	
2383	1	scrupule	
2384	1	second	
2385	1	seconde	
2386	1	seconds	
2387	1	secourir	
2388	1	secrète	
2389	1	sein	
2390	1	semblables	
2391	1	semblaient	
2392	1	sembles	
2393	1	semblez	
2394	1	sensible	
2395	1	sensibles	
2396	1	sentant	
2397	1	sentiments	
2398	1	seoir	
2399	1	serais	
2400	1	seriez	
2401	1	seroit	
2402	1	serons	
2403	1	servais	
2404	1	servi	
2405	1	services	
2406	1	servira	
2407	1	sexe	
2408	1	siennes	
2409	1	siens	
2410	1	signal	
2411	1	signe	
2412	1	singulières	
2413	1	six	
2414	1	soldats	
2415	1	solennel	
2416	1	solide	
2417	1	sollicite	
2418	1	sommeil	
2419	1	sommes	
2420	1	songez	
2421	1	sortant	
2422	1	sortiez	
2423	1	sortira	
2424	1	sottes	
2425	1	soucis	
2426	1	souhaitais	
2427	1	souhaites	
2428	1	souillés	
2429	1	souper	
2430	1	souperons	
2431	1	soupirer	
2432	1	soupirez	
2433	1	soupçonnait	
2434	1	soupçonneux	
2435	1	soupçonnez	
2436	1	soupçons	
2437	1	soupé	
2438	1	source	
2439	1	sourde	
2440	1	souscrirez	
2441	1	soutenez	
2442	1	soutiens	
2443	1	souvenez	
2444	1	souvenir	
2445	1	souverains	
2446	1	souvient	
2447	1	stérile	
2448	1	suffira	
2449	1	suite	
2450	1	suivant	
2451	1	suivez	
2452	1	suivra	
2453	1	suivrai	
2454	1	sujets	
2455	1	superbe	
2456	1	surpasse	
2457	1	surprenez	
2458	1	surprenne	
2459	1	surprises	
2460	1	sut	
2461	1	sylvandre	
2462	1	sympathie	
2463	1	sèches	
2464	1	sème	
2465	1	séjour	
2466	1	sémire	
2467	1	sépara	
2468	1	sépare	
2469	1	séparer	
2470	1	sûre	
2471	1	sûtes	
2472	1	tablatures	
2473	1	table	
2474	1	tableau	
2475	1	tache	
2476	1	tairai	
2477	1	tairas	
2478	1	talents	
2479	1	talons	
2480	1	tarde	
2481	1	tarder	
2482	1	tardé	
2483	1	teint	
2484	1	teintures	
2485	1	telles	
2486	1	tentation	
2487	1	tenu	
2488	1	tenus	
2489	1	tien	
2490	1	tiendra	
2491	1	tiendrais	
2492	1	tiendrons	
2493	1	tiers	
2494	1	timide	
2495	1	tiré	
2496	1	titre	
2497	1	tombe	
2498	1	tomber	
2499	1	tombé	
2500	1	tourne	
2501	1	tours	
2502	1	trahi	
2503	1	trahison	
2504	1	traitable	
2505	1	traitant	
2506	1	traitez	
2507	1	traité	
2508	1	transport	
2509	1	traverse	
2510	1	traînaient	
2511	1	tremblante	
2512	1	trembler	
2513	1	triomphe	
2514	1	tristes	
2515	1	trompette	
2516	1	trophée	
2517	1	troublent	
2518	1	troubler	
2519	1	troublé	
2520	1	trouvai	
2521	1	trouvera	
2522	1	trouverais	
2523	1	trouveriez	
2524	1	trébucher	
2525	1	trêve	
2526	1	tue	
2527	1	tuer	
2528	1	tuiles	
2529	1	tâcherons	
2530	1	témoigniez	
2531	1	unit	
2532	1	universités	
2533	1	usage	
2534	1	use	
2535	1	usera	
2536	1	usés	
2537	1	vacarme	
2538	1	vaille	
2539	1	vaincre	
2540	1	valets	
2541	1	valut	
2542	1	vanité	
2543	1	vante	
2544	1	vanter	
2545	1	vanté	
2546	1	vaux	
2547	1	veille	
2548	1	venais	
2549	1	venait	
2550	1	vend	
2551	1	venez	
2552	1	venge	
2553	1	vengeances	
2554	1	venger	
2555	1	venise	
2556	1	venu	
2557	1	venue	
2558	1	verrai	
2559	1	verras	
2560	1	verrons	
2561	1	veuille	
2562	1	veuilles	
2563	1	veuve	
2564	1	vides	
2565	1	vidoient	
2566	1	viendrait	
2567	1	vienne	
2568	1	vifs	
2569	1	village	
2570	1	vin	
2571	1	vint	
2572	1	violence	
2573	1	violons	
2574	1	visages	
2575	1	vision	
2576	1	visionnaire	
2577	1	vite	
2578	1	vivacité	
2579	1	vive	
2580	1	vivement	
2581	1	vivre	
2582	1	voeu	
2583	1	volage	
2584	1	voleur	
2585	1	volontairement	
2586	1	volontaires	
2587	1	volontés	
2588	1	voltige	
2589	1	voudras	
2590	1	voudrez	
2591	1	voudrois	
2592	1	voulut	
2593	1	voulût	
2594	1	voyageur	
2595	1	voyagez	
2596	1	voyois	
2597	1	vraie	
2598	1	vrais	
2599	1	vus	
2600	1	vécu	
2601	1	vécut	
2602	1	vérité	
2603	1	vérités	
2604	1	vêtement	
2605	1	vôtres	
2606	1	zèle	
2607	1	âmes	
2608	1	ébahis	
2609	1	éblouir	
2610	1	échange	
2611	1	échantillon	
2612	1	échappe	
2613	1	échapper	
2614	1	échappez	
2615	1	éclairciront	
2616	1	éclaircissement	
2617	1	éclate	
2618	1	éclipse	
2619	1	écolier	
2620	1	écouler	
2621	1	écoutais	
2622	1	écoutez	
2623	1	écraser	
2624	1	écrivais	
2625	1	écrivant	
2626	1	égale	
2627	1	également	
2628	1	égaler	
2629	1	égaré	
2630	1	égorge	
2631	1	élargi	
2632	1	élargissement	
2633	1	élection	
2634	1	éloigné	
2635	1	éloignés	
2636	1	éloquence	
2637	1	éloquents	
2638	1	émeut	
2639	1	éminence	
2640	1	émotion	
2641	1	émouvoir	
2642	1	épandu	
2643	1	épargne	
2644	1	épargner	
2645	1	épitaphe	
2646	1	épouse	
2647	1	épouvante	
2648	1	éprouver	
2649	1	érige	
2650	1	érigeras	
2651	1	étaient	
2652	1	éteindre	
2653	1	étoient	
2654	1	étoit	
2655	1	étonne	
2656	1	étonné	
2657	1	étouffer	
2658	1	étrillez	
2659	1	étude	
2660	1	évanouir	
2661	1	éveillé	
2662	1	éveillée	
2663	1	éveillés	
2664	1	éventé	
2665	1	évidence	
2666	1	éviter	
2667	1	ôtant	
