#Word Types: 2159
#Word Tokens: 16824
#Search Hits: 0
1	504	et	
2	420	que	
3	410	de	
4	356	vous	
5	347	je	
6	332	l	
7	326	le	
8	307	est	
9	299	il	
10	285	qu	
11	272	un	
12	219	la	
13	213	d	
14	203	pour	
15	202	en	
16	198	à	
17	191	on	
18	190	qui	
19	185	ce	
20	172	ne	
21	156	si	
22	147	mais	
23	138	j	
24	136	me	
25	127	les	
26	116	amour	
27	105	mon	
28	104	n	
29	103	pas	
30	102	bien	
31	97	des	
32	96	plus	
33	91	une	
34	90	m	
35	83	a	
36	82	moi	
37	81	coeur	
38	79	ma	
39	75	au	
40	74	ai	
41	71	aime	
42	70	c	
43	70	nous	
44	70	par	
45	68	roi	
46	67	comme	
47	67	tu	
48	64	elle	
49	64	son	
50	63	votre	
51	62	s	
52	60	anaxandre	
53	58	cette	
54	58	dans	
55	57	enfin	
56	57	fait	
57	56	sans	
58	56	tout	
59	55	lui	
60	52	même	
61	52	peut	
62	50	se	
63	47	grand	
64	47	quoi	
65	46	faire	
66	46	moins	
67	45	aimer	
68	44	point	
69	44	rien	
70	43	ton	
71	43	être	
72	41	où	
73	40	céphise	
74	39	du	
75	39	gloire	
76	39	non	
77	39	te	
78	39	vos	
79	38	doit	
80	37	alphénor	
81	37	faut	
82	36	donc	
83	36	ou	
84	36	ses	
85	36	t	
86	34	avec	
87	34	toujours	
88	33	prince	
89	33	soeur	
90	32	aussi	
91	32	mes	
92	32	seigneur	
93	31	esprit	
94	31	trop	
95	30	ainsi	
96	30	dire	
97	30	tant	
98	30	âme	
99	29	quand	
100	29	ta	
101	29	veux	
102	28	dieux	
103	28	donner	
104	28	paix	
105	28	sa	
106	27	autre	
107	27	deux	
108	27	dit	
109	27	peu	
110	27	quelque	
111	27	sais	
112	27	soit	
113	27	suis	
114	27	veut	
115	26	prix	
116	26	y	
117	25	sont	
118	25	vertu	
119	23	ciel	
120	23	donne	
121	23	dont	
122	23	liberté	
123	23	oui	
124	23	puisque	
125	23	sur	
126	22	dois	
127	22	mal	
128	21	ces	
129	21	tous	
130	21	vrai	
131	21	yeux	
132	20	assez	
133	20	avoir	
134	20	crois	
135	20	puis	
136	20	voir	
137	19	aimé	
138	19	après	
139	19	aujourd	
140	19	aux	
141	19	feu	
142	19	hui	
143	19	ont	
144	19	toi	
145	18	croire	
146	18	ici	
147	18	nos	
148	18	prodote	
149	18	sire	
150	17	chose	
151	17	feux	
152	17	prison	
153	17	rois	
154	16	amant	
155	16	demande	
156	16	grands	
157	16	guerre	
158	16	mieux	
159	15	espoir	
160	15	extrême	
161	15	généreux	
162	15	heureux	
163	15	peine	
164	15	rang	
165	15	sort	
166	15	victoire	
167	15	état	
168	14	ait	
169	14	contre	
170	14	estime	
171	14	fers	
172	14	flamme	
173	14	jamais	
174	14	madame	
175	14	sait	
176	14	serait	
177	14	ô	
178	13	alcione	
179	13	autres	
180	13	dis	
181	13	discours	
182	13	jour	
183	13	juste	
184	13	maux	
185	13	maître	
186	13	montre	
187	13	père	
188	13	raison	
189	13	sceptre	
190	13	tes	
191	13	vaincu	
192	12	afin	
193	12	belle	
194	12	bras	
195	12	cet	
196	12	couronne	
197	12	croit	
198	12	fille	
199	12	foi	
200	12	lors	
201	12	objet	
202	12	oeil	
203	12	puisse	
204	12	servir	
205	12	seulement	
206	12	va	
207	12	vois	
208	12	voit	
209	11	coeurs	
210	11	dessein	
211	11	devez	
212	11	dites	
213	11	doute	
214	11	fais	
215	11	fut	
216	11	là	
217	11	main	
218	11	parler	
219	11	peur	
220	11	pouvoir	
221	11	prisonnier	
222	11	rend	
223	11	rendre	
224	11	seule	
225	11	toute	
226	11	vient	
227	11	voudrais	
228	10	aimable	
229	10	avecque	
230	10	car	
231	10	contraire	
232	10	courage	
233	10	digne	
234	10	encore	
235	10	honneur	
236	10	maintenant	
237	10	mérite	
238	10	ni	
239	10	pourtant	
240	10	reste	
241	10	sujets	
242	10	vainqueur	
243	9	entre	
244	9	feint	
245	9	fois	
246	9	glorieux	
247	9	haine	
248	9	malgré	
249	9	mien	
250	9	mille	
251	9	mort	
252	9	parmi	
253	9	seul	
254	9	souhaits	
255	9	souvent	
256	9	temps	
257	9	trône	
258	9	vertus	
259	9	voeux	
260	9	voulez	
261	8	aimez	
262	8	ambition	
263	8	appas	
264	8	armes	
265	8	aurais	
266	8	avez	
267	8	beau	
268	8	charmé	
269	8	content	
270	8	desseins	
271	8	douter	
272	8	déjà	
273	8	eux	
274	8	faveur	
275	8	feinte	
276	8	fortune	
277	8	grâce	
278	8	lorsque	
279	8	malheureux	
280	8	misérable	
281	8	notre	
282	8	parole	
283	8	posséder	
284	8	princesse	
285	8	puissant	
286	8	quel	
287	8	service	
288	8	était	
289	8	ôte	
290	7	aisément	
291	7	cependant	
292	7	charmes	
293	7	chaîne	
294	7	devoir	
295	7	doux	
296	7	désirs	
297	7	effort	
298	7	espère	
299	7	fort	
300	7	fruit	
301	7	funeste	
302	7	gagner	
303	7	illustre	
304	7	ils	
305	7	importe	
306	7	larmes	
307	7	leur	
308	7	leurs	
309	7	loi	
310	7	met	
311	7	montrer	
312	7	occasion	
313	7	paraître	
314	7	parle	
315	7	pensez	
316	7	peux	
317	7	plaindre	
318	7	prendre	
319	7	pris	
320	7	puisqu	
321	7	répondre	
322	7	salaire	
323	7	souhaite	
324	7	vais	
325	7	êtes	
326	6	amoureux	
327	6	aurai	
328	6	avoue	
329	6	ayant	
330	6	beaucoup	
331	6	captivité	
332	6	celui	
333	6	coups	
334	6	craint	
335	6	dedans	
336	6	effet	
337	6	ennemi	
338	6	entreprise	
339	6	espérance	
340	6	fameux	
341	6	franchise	
342	6	grande	
343	6	ha	
344	6	injuste	
345	6	laisser	
346	6	loin	
347	6	mettre	
348	6	mis	
349	6	mot	
350	6	mourir	
351	6	noble	
352	6	offre	
353	6	partage	
354	6	perdre	
355	6	plaire	
356	6	porte	
357	6	pourrait	
358	6	pu	
359	6	rarement	
360	6	repos	
361	6	savez	
362	6	semble	
363	6	sentiment	
364	6	souhaiter	
365	6	souhaitez	
366	6	succès	
367	6	sujet	
368	6	terre	
369	6	tiens	
370	6	voulu	
371	6	véritable	
372	6	âmes	
373	6	éclat	
374	6	états	
375	5	adore	
376	5	adversaire	
377	5	apprendre	
378	5	assurer	
379	5	attendre	
380	5	attraits	
381	5	avant	
382	5	besoin	
383	5	biens	
384	5	captif	
385	5	cause	
386	5	cent	
387	5	ceux	
388	5	charmer	
389	5	chaînes	
390	5	cherche	
391	5	chère	
392	5	commence	
393	5	cru	
394	5	cède	
395	5	dernier	
396	5	destin	
397	5	dirai	
398	5	doivent	
399	5	donnez	
400	5	déplaire	
401	5	empire	
402	5	estimer	
403	5	excuse	
404	5	faites	
405	5	faux	
406	5	feindre	
407	5	frère	
408	5	garde	
409	5	hymen	
410	5	hé	
411	5	indigne	
412	5	juge	
413	5	jusqu	
414	5	libre	
415	5	librement	
416	5	lois	
417	5	marques	
418	5	mêmes	
419	5	naissance	
420	5	naître	
421	5	nuit	
422	5	ordonne	
423	5	ouvrage	
424	5	passion	
425	5	pensée	
426	5	phédime	
427	5	plait	
428	5	plaît	
429	5	plutôt	
430	5	pourrais	
431	5	pouvez	
432	5	presque	
433	5	princes	
434	5	quelquefois	
435	5	quitte	
436	5	récompense	
437	5	sang	
438	5	satisfait	
439	5	saurait	
440	5	savoir	
441	5	secret	
442	5	sert	
443	5	sortir	
444	5	soupire	
445	5	toutefois	
446	5	transport	
447	5	travaux	
448	5	tromper	
449	5	trompé	
450	5	trouve	
451	5	trouver	
452	5	voici	
453	5	zèle	
454	5	étais	
455	5	éteindre	
456	4	acquise	
457	4	adorables	
458	4	agir	
459	4	aimais	
460	4	alors	
461	4	ambitieux	
462	4	apparence	
463	4	ardeur	
464	4	arrêt	
465	4	assuré	
466	4	astérie	
467	4	attend	
468	4	auguste	
469	4	aurait	
470	4	autant	
471	4	avais	
472	4	avait	
473	4	avis	
474	4	beaux	
475	4	blesse	
476	4	bonheur	
477	4	bons	
478	4	bontés	
479	4	cela	
480	4	celle	
481	4	cendre	
482	4	cher	
483	4	châtiment	
484	4	combattu	
485	4	connaître	
486	4	contraindre	
487	4	court	
488	4	craindre	
489	4	davantage	
490	4	donné	
491	4	désespoir	
492	4	désir	
493	4	désire	
494	4	efforts	
495	4	effroyable	
496	4	enfers	
497	4	erreur	
498	4	esclave	
499	4	espérer	
500	4	excès	
501	4	exposer	
502	4	faible	
503	4	fallait	
504	4	fasse	
505	4	faute	
506	4	ferai	
507	4	fit	
508	4	force	
509	4	forte	
510	4	fureur	
511	4	guide	
512	4	hasard	
513	4	haut	
514	4	honte	
515	4	injure	
516	4	invincible	
517	4	jaloux	
518	4	liens	
519	4	longtemps	
520	4	mains	
521	4	mauvais	
522	4	monarques	
523	4	monde	
524	4	montrez	
525	4	mériter	
526	4	noms	
527	4	oblige	
528	4	obtenir	
529	4	ordre	
530	4	parlez	
531	4	partout	
532	4	passe	
533	4	pense	
534	4	pensers	
535	4	permettez	
536	4	plaisir	
537	4	porter	
538	4	possède	
539	4	pourquoi	
540	4	princesses	
541	4	prisons	
542	4	promettez	
543	4	propre	
544	4	prétendre	
545	4	puissants	
546	4	quelle	
547	4	raisons	
548	4	recevoir	
549	4	regardez	
550	4	rompre	
551	4	régner	
552	4	satisfaire	
553	4	sensible	
554	4	sera	
555	4	serais	
556	4	soin	
557	4	sorte	
558	4	suivant	
559	4	taire	
560	4	tient	
561	4	tour	
562	4	toutes	
563	4	trompeur	
564	4	trésor	
565	4	vain	
566	4	vaincre	
567	4	vaine	
568	4	voudrait	
569	4	vouloir	
570	4	voyez	
571	4	vôtre	
572	3	accorder	
573	3	achever	
574	3	actions	
575	3	adieu	
576	3	adorable	
577	3	affection	
578	3	appelle	
579	3	apprendra	
580	3	appréhende	
581	3	arracher	
582	3	arrêté	
583	3	artifice	
584	3	atteinte	
585	3	avantage	
586	3	aventure	
587	3	avouez	
588	3	belles	
589	3	bienfait	
590	3	bientôt	
591	3	blessée	
592	3	blâme	
593	3	but	
594	3	caché	
595	3	capable	
596	3	change	
597	3	charmant	
598	3	chemin	
599	3	cieux	
600	3	combats	
601	3	comment	
602	3	communs	
603	3	confondre	
604	3	consent	
605	3	consentement	
606	3	considérez	
607	3	contrainte	
608	3	corps	
609	3	coup	
610	3	coûte	
611	3	craignez	
612	3	crime	
613	3	croirais	
614	3	croyez	
615	3	côté	
616	3	côtés	
617	3	demander	
618	3	demeure	
619	3	demeurer	
620	3	dessus	
621	3	devais	
622	3	devant	
623	3	devons	
624	3	dieu	
625	3	douleur	
626	3	douleurs	
627	3	défaut	
628	3	défendre	
629	3	délices	
630	3	désirer	
631	3	encor	
632	3	endurer	
633	3	enflammé	
634	3	ennemis	
635	3	entends	
636	3	esprits	
637	3	exploits	
638	3	favorable	
639	3	feignez	
640	3	ferais	
641	3	filles	
642	3	flammes	
643	3	fâcheux	
644	3	grandeur	
645	3	haïr	
646	3	hélas	
647	3	ignore	
648	3	interroge	
649	3	jugez	
650	3	justement	
651	3	laisse	
652	3	louable	
653	3	mette	
654	3	mienne	
655	3	mépris	
656	3	noblement	
657	3	nouvelle	
658	3	nouvelles	
659	3	nécessaire	
660	3	obliger	
661	3	obstacles	
662	3	offense	
663	3	ose	
664	3	oublier	
665	3	paraît	
666	3	parce	
667	3	pardonne	
668	3	part	
669	3	pensais	
670	3	permet	
671	3	permis	
672	3	peuples	
673	3	plains	
674	3	plaisirs	
675	3	plein	
676	3	pourriez	
677	3	prend	
678	3	présumer	
679	3	puissiez	
680	3	rayon	
681	3	reconnaissant	
682	3	redoutable	
683	3	refus	
684	3	regarde	
685	3	reine	
686	3	rempli	
687	3	rende	
688	3	rendent	
689	3	respect	
690	3	reçois	
691	3	riche	
692	3	rigueurs	
693	3	rival	
694	3	ruinons	
695	3	secours	
696	3	sens	
697	3	sentiments	
698	3	soi	
699	3	soins	
700	3	songe	
701	3	soupçon	
702	3	souveraine	
703	3	soyez	
704	3	su	
705	3	suit	
706	3	superbe	
707	3	tandis	
708	3	tel	
709	3	temple	
710	3	tempêtes	
711	3	tenter	
712	3	timide	
713	3	touche	
714	3	trait	
715	3	traitement	
716	3	transports	
717	3	triste	
718	3	trompe	
719	3	témoin	
720	3	témoins	
721	3	vains	
722	3	vaut	
723	3	vive	
724	3	voix	
725	3	volonté	
726	3	voulait	
727	3	écouter	
728	3	égale	
729	2	abandonne	
730	2	absolu	
731	2	abusé	
732	2	accord	
733	2	achève	
734	2	adorer	
735	2	adresse	
736	2	affaire	
737	2	affermir	
738	2	agréable	
739	2	ah	
740	2	aider	
741	2	aimiez	
742	2	aimons	
743	2	alarmes	
744	2	alliance	
745	2	alluma	
746	2	amis	
747	2	amitié	
748	2	amoureuse	
749	2	amène	
750	2	aperçois	
751	2	appelez	
752	2	approuve	
753	2	arcas	
754	2	arraché	
755	2	artifices	
756	2	as	
757	2	assurance	
758	2	astre	
759	2	attends	
760	2	aucun	
761	2	audacieux	
762	2	aura	
763	2	aurons	
764	2	aussitôt	
765	2	autorise	
766	2	avantageux	
767	2	aveu	
768	2	aveugle	
769	2	avouerai	
770	2	bas	
771	2	beauté	
772	2	beautés	
773	2	bienfaits	
774	2	blâmable	
775	2	bout	
776	2	braves	
777	2	brûler	
778	2	calamités	
779	2	calme	
780	2	certaine	
781	2	certes	
782	2	cesse	
783	2	chacun	
784	2	changement	
785	2	charme	
786	2	chasse	
787	2	chercher	
788	2	chez	
789	2	choix	
790	2	chérit	
791	2	combattant	
792	2	combattre	
793	2	comble	
794	2	commande	
795	2	commander	
796	2	commencer	
797	2	commencé	
798	2	commune	
799	2	comprendre	
800	2	condamner	
801	2	conduit	
802	2	confesser	
803	2	confidence	
804	2	confident	
805	2	conforme	
806	2	confuse	
807	2	connais	
808	2	connaissant	
809	2	connaissez	
810	2	connaît	
811	2	conquêtes	
812	2	conseils	
813	2	conservez	
814	2	contente	
815	2	contenter	
816	2	contribue	
817	2	couverts	
818	2	criminelle	
819	2	croirait	
820	2	croyance	
821	2	cédons	
822	2	céleste	
823	2	dangereux	
824	2	degré	
825	2	destinées	
826	2	devait	
827	2	devrait	
828	2	diadème	
829	2	discrétion	
830	2	disposer	
831	2	dissimulez	
832	2	dissiper	
833	2	dompter	
834	2	donnent	
835	2	donnerait	
836	2	donnes	
837	2	douceur	
838	2	douceurs	
839	2	doutait	
840	2	douteux	
841	2	droit	
842	2	dès	
843	2	déclare	
844	2	découvrir	
845	2	dédain	
846	2	défait	
847	2	dépend	
848	2	dépendre	
849	2	détourner	
850	2	elles	
851	2	emporte	
852	2	empêcher	
853	2	enflammer	
854	2	engage	
855	2	ensemble	
856	2	entendre	
857	2	entière	
858	2	esclaves	
859	2	eu	
860	2	eut	
861	2	excepte	
862	2	exciter	
863	2	excuser	
864	2	exemple	
865	2	expérience	
866	2	extrémité	
867	2	eût	
868	2	facilement	
869	2	faillir	
870	2	faisait	
871	2	faudrait	
872	2	favorise	
873	2	fera	
874	2	ferait	
875	2	fidèles	
876	2	flambeau	
877	2	flottant	
878	2	font	
879	2	forces	
880	2	formé	
881	2	fortuné	
882	2	franchement	
883	2	froideur	
884	2	front	
885	2	fuit	
886	2	fureurs	
887	2	fusse	
888	2	fût	
889	2	gage	
890	2	glace	
891	2	glorieuses	
892	2	gré	
893	2	guérir	
894	2	générosité	
895	2	hasardé	
896	2	haute	
897	2	hautes	
898	2	homme	
899	2	hommes	
900	2	honteux	
901	2	image	
902	2	immortelle	
903	2	incessamment	
904	2	incomparable	
905	2	incurable	
906	2	insensible	
907	2	insensé	
908	2	inspire	
909	2	instant	
910	2	jetez	
911	2	jette	
912	2	jours	
913	2	jugement	
914	2	jusques	
915	2	justes	
916	2	laissez	
917	2	laissons	
918	2	laissé	
919	2	langueur	
920	2	laquelle	
921	2	lien	
922	2	lieu	
923	2	long	
924	2	longs	
925	2	longue	
926	2	lâcheté	
927	2	légitime	
928	2	magnanimes	
929	2	maintenir	
930	2	malade	
931	2	malheur	
932	2	malheurs	
933	2	manquer	
934	2	marque	
935	2	maîtres	
936	2	meilleur	
937	2	menace	
938	2	meurs	
939	2	miens	
940	2	miracles	
941	2	mit	
942	2	moitié	
943	2	moment	
944	2	monarque	
945	2	mourrai	
946	2	méprise	
947	2	méprisé	
948	2	méritent	
949	2	naît	
950	2	nom	
951	2	nourrir	
952	2	obéir	
953	2	obéissance	
954	2	offrir	
955	2	orage	
956	2	orgueil	
957	2	oubli	
958	2	outrage	
959	2	outragé	
960	2	ouvrir	
961	2	ouïr	
962	2	paraisse	
963	2	parfaite	
964	2	parlant	
965	2	paroles	
966	2	partis	
967	2	passions	
968	2	paye	
969	2	payer	
970	2	pensant	
971	2	penser	
972	2	pensé	
973	2	perd	
974	2	perdrai	
975	2	perdu	
976	2	peuple	
977	2	peuvent	
978	2	pleurs	
979	2	plût	
980	2	pompe	
981	2	portent	
982	2	porté	
983	2	pourra	
984	2	pousser	
985	2	pouvais	
986	2	prenez	
987	2	promenade	
988	2	promesse	
989	2	promet	
990	2	promettre	
991	2	promise	
992	2	prompt	
993	2	promptement	
994	2	propose	
995	2	proposer	
996	2	près	
997	2	préoccupé	
998	2	présente	
999	2	prêt	
1000	2	prête	
1001	2	prît	
1002	2	publique	
1003	2	périr	
1004	2	quelqu	
1005	2	quelques	
1006	2	quiconque	
1007	2	quitter	
1008	2	ravir	
1009	2	rechercher	
1010	2	refuse	
1011	2	refuser	
1012	2	refuserais	
1013	2	regard	
1014	2	regards	
1015	2	remède	
1016	2	rends	
1017	2	repose	
1018	2	respecter	
1019	2	retire	
1020	2	retirez	
1021	2	revêtu	
1022	2	reçu	
1023	2	rigoureux	
1024	2	rigueur	
1025	2	règne	
1026	2	réduit	
1027	2	répondez	
1028	2	réponds	
1029	2	résiste	
1030	2	révère	
1031	2	sachant	
1032	2	sceptres	
1033	2	selon	
1034	2	sent	
1035	2	seriez	
1036	2	servi	
1037	2	sienne	
1038	2	siens	
1039	2	sincère	
1040	2	sincèrement	
1041	2	soient	
1042	2	souffrez	
1043	2	souhaité	
1044	2	soulagement	
1045	2	soumis	
1046	2	soupçons	
1047	2	sous	
1048	2	souverain	
1049	2	sublime	
1050	2	suivons	
1051	2	suivra	
1052	2	supplices	
1053	2	surprend	
1054	2	tard	
1055	2	tend	
1056	2	tendresse	
1057	2	tenté	
1058	2	travail	
1059	2	travaille	
1060	2	travailler	
1061	2	travaillé	
1062	2	travers	
1063	2	trésors	
1064	2	trônes	
1065	2	tâche	
1066	2	tâché	
1067	2	usage	
1068	2	utile	
1069	2	utilement	
1070	2	vaillance	
1071	2	vainement	
1072	2	vanter	
1073	2	vaudrait	
1074	2	venais	
1075	2	venger	
1076	2	verrait	
1077	2	veuille	
1078	2	victorieux	
1079	2	vie	
1080	2	viens	
1081	2	vivre	
1082	2	volontaire	
1083	2	voulant	
1084	2	vérité	
1085	2	éclaire	
1086	2	également	
1087	2	épouvantable	
1088	2	éteint	
1089	2	étonne	
1090	1	abandonnant	
1091	1	abandonnent	
1092	1	absolument	
1093	1	accepter	
1094	1	accomplir	
1095	1	accorde	
1096	1	accordez	
1097	1	accoutumer	
1098	1	accuser	
1099	1	achevé	
1100	1	acte	
1101	1	adorant	
1102	1	adorerais	
1103	1	adouci	
1104	1	adoucir	
1105	1	adressent	
1106	1	adroitement	
1107	1	adversités	
1108	1	affaires	
1109	1	affliger	
1110	1	affligé	
1111	1	affranchir	
1112	1	affreux	
1113	1	agit	
1114	1	aide	
1115	1	ailes	
1116	1	ailleurs	
1117	1	aimables	
1118	1	aimai	
1119	1	aimait	
1120	1	aimant	
1121	1	aimera	
1122	1	aimerais	
1123	1	aimerait	
1124	1	aimerez	
1125	1	aimes	
1126	1	aimâmes	
1127	1	aimée	
1128	1	aisé	
1129	1	aisés	
1130	1	ajoute	
1131	1	ajoutent	
1132	1	ajouter	
1133	1	aliment	
1134	1	aller	
1135	1	alliés	
1136	1	allumait	
1137	1	allumant	
1138	1	allume	
1139	1	allumer	
1140	1	allégresse	
1141	1	amants	
1142	1	ambassadeurs	
1143	1	ami	
1144	1	amorces	
1145	1	amoureuses	
1146	1	amours	
1147	1	amères	
1148	1	anciens	
1149	1	anime	
1150	1	animés	
1151	1	années	
1152	1	appelait	
1153	1	apporte	
1154	1	apprend	
1155	1	apprendrait	
1156	1	apprenne	
1157	1	apprennent	
1158	1	approuver	
1159	1	approuveront	
1160	1	approuvât	
1161	1	appréhenderait	
1162	1	appréhendez	
1163	1	appuyer	
1164	1	ardemment	
1165	1	armé	
1166	1	arrache	
1167	1	arrivera	
1168	1	arrête	
1169	1	arrêter	
1170	1	arrêtes	
1171	1	arrêtés	
1172	1	art	
1173	1	aspect	
1174	1	asses	
1175	1	assistance	
1176	1	assoupisse	
1177	1	assujettisse	
1178	1	attacher	
1179	1	attaquer	
1180	1	attaquons	
1181	1	attendais	
1182	1	attendent	
1183	1	audace	
1184	1	autorité	
1185	1	autrement	
1186	1	avance	
1187	1	avancé	
1188	1	avançons	
1189	1	aveuglement	
1190	1	aveuglément	
1191	1	avide	
1192	1	avons	
1193	1	avouer	
1194	1	avoueras	
1195	1	balancer	
1196	1	bel	
1197	1	bienheureuse	
1198	1	bienheureux	
1199	1	blessait	
1200	1	blesser	
1201	1	blessât	
1202	1	blessées	
1203	1	blessés	
1204	1	blâmer	
1205	1	bon	
1206	1	bonjour	
1207	1	bonnes	
1208	1	bonté	
1209	1	bord	
1210	1	borne	
1211	1	bouche	
1212	1	brasiers	
1213	1	bref	
1214	1	brillant	
1215	1	briller	
1216	1	bruit	
1217	1	bruits	
1218	1	brûlai	
1219	1	brûlant	
1220	1	brûlez	
1221	1	butin	
1222	1	cacherai	
1223	1	capables	
1224	1	caprice	
1225	1	captifs	
1226	1	captive	
1227	1	carrière	
1228	1	certain	
1229	1	cessent	
1230	1	cesser	
1231	1	changeait	
1232	1	changer	
1233	1	changé	
1234	1	char	
1235	1	chargé	
1236	1	charmée	
1237	1	chemins	
1238	1	cherchera	
1239	1	chercherais	
1240	1	choisit	
1241	1	choses	
1242	1	chérie	
1243	1	chérir	
1244	1	civile	
1245	1	civilité	
1246	1	civilités	
1247	1	clair	
1248	1	clairement	
1249	1	clarté	
1250	1	colère	
1251	1	combat	
1252	1	combler	
1253	1	commandement	
1254	1	commandé	
1255	1	commença	
1256	1	commun	
1257	1	compagnon	
1258	1	comprends	
1259	1	compte	
1260	1	condamnent	
1261	1	condamnez	
1262	1	conduis	
1263	1	confesse	
1264	1	confidente	
1265	1	confier	
1266	1	confirmiez	
1267	1	confond	
1268	1	confus	
1269	1	connaisse	
1270	1	connaissent	
1271	1	conseille	
1272	1	conseillerais	
1273	1	conseillé	
1274	1	consentir	
1275	1	conserve	
1276	1	conserver	
1277	1	conservera	
1278	1	considère	
1279	1	considérable	
1280	1	considérer	
1281	1	consiste	
1282	1	console	
1283	1	conspirant	
1284	1	constamment	
1285	1	constance	
1286	1	constant	
1287	1	consumé	
1288	1	contentez	
1289	1	contesté	
1290	1	contient	
1291	1	contraint	
1292	1	contraintes	
1293	1	convertir	
1294	1	convie	
1295	1	conçoit	
1296	1	courages	
1297	1	courir	
1298	1	couronner	
1299	1	couronné	
1300	1	couronnées	
1301	1	courroux	
1302	1	courût	
1303	1	coûteraient	
1304	1	craigne	
1305	1	craignit	
1306	1	craindrais	
1307	1	craindrez	
1308	1	crains	
1309	1	crainte	
1310	1	croirai	
1311	1	croirons	
1312	1	croyais	
1313	1	croyant	
1314	1	cruauté	
1315	1	cruelle	
1316	1	crus	
1317	1	créance	
1318	1	crédit	
1319	1	céder	
1320	1	cédé	
1321	1	danger	
1322	1	demain	
1323	1	demandait	
1324	1	demandera	
1325	1	demanderais	
1326	1	demeurant	
1327	1	demie	
1328	1	descend	
1329	1	descendait	
1330	1	descendre	
1331	1	destins	
1332	1	deuil	
1333	1	deuxième	
1334	1	devenant	
1335	1	devenons	
1336	1	devoirs	
1337	1	devront	
1338	1	diadèmes	
1339	1	diffère	
1340	1	différer	
1341	1	dignes	
1342	1	dirais	
1343	1	direz	
1344	1	discords	
1345	1	disent	
1346	1	disgrâce	
1347	1	disiez	
1348	1	dispose	
1349	1	disposent	
1350	1	disputer	
1351	1	dissemblable	
1352	1	dissimulant	
1353	1	dissimule	
1354	1	dissimuler	
1355	1	dissipe	
1356	1	divers	
1357	1	divertir	
1358	1	divine	
1359	1	divisés	
1360	1	doive	
1361	1	donnait	
1362	1	donnera	
1363	1	donneront	
1364	1	donnât	
1365	1	donnée	
1366	1	douces	
1367	1	doutant	
1368	1	doutes	
1369	1	droits	
1370	1	dura	
1371	1	dure	
1372	1	durer	
1373	1	déclarés	
1374	1	découvert	
1375	1	découvre	
1376	1	dédaigne	
1377	1	dédaignez	
1378	1	dédains	
1379	1	défend	
1380	1	défende	
1381	1	défense	
1382	1	défiance	
1383	1	délivré	
1384	1	démon	
1385	1	départ	
1386	1	dépendait	
1387	1	déplait	
1388	1	déplut	
1389	1	dérobe	
1390	1	dérobé	
1391	1	désabuser	
1392	1	désavantage	
1393	1	désaveu	
1394	1	désavouer	
1395	1	désespère	
1396	1	désespéré	
1397	1	déshonneur	
1398	1	désirable	
1399	1	désirant	
1400	1	désirent	
1401	1	désireriez	
1402	1	désirez	
1403	1	désirons	
1404	1	désiré	
1405	1	désolé	
1406	1	désormais	
1407	1	détester	
1408	1	détourne	
1409	1	détourneront	
1410	1	détromper	
1411	1	détruire	
1412	1	dévore	
1413	1	dût	
1414	1	eau	
1415	1	effets	
1416	1	embarrassée	
1417	1	embrasé	
1418	1	empires	
1419	1	emploi	
1420	1	empoisonné	
1421	1	emporté	
1422	1	emprunter	
1423	1	empêche	
1424	1	empêcherait	
1425	1	encens	
1426	1	enchaînée	
1427	1	endroits	
1428	1	enfants	
1429	1	enfuit	
1430	1	engager	
1431	1	ennuis	
1432	1	ennuyé	
1433	1	enrichir	
1434	1	enseigne	
1435	1	enseigner	
1436	1	entend	
1437	1	entraîné	
1438	1	entreprendre	
1439	1	entrepris	
1440	1	entretenir	
1441	1	entretien	
1442	1	entrons	
1443	1	entrés	
1444	1	envie	
1445	1	environné	
1446	1	es	
1447	1	espérances	
1448	1	espérez	
1449	1	estimais	
1450	1	estimeriez	
1451	1	estimèrent	
1452	1	estimé	
1453	1	eusse	
1454	1	excepté	
1455	1	excita	
1456	1	excitai	
1457	1	excite	
1458	1	excitent	
1459	1	exiger	
1460	1	expliquer	
1461	1	expliquez	
1462	1	exposé	
1463	1	exprime	
1464	1	extrêmes	
1465	1	exécuter	
1466	1	faille	
1467	1	failli	
1468	1	faisaient	
1469	1	faisons	
1470	1	faits	
1471	1	fatal	
1472	1	fatale	
1473	1	fatalité	
1474	1	fausses	
1475	1	favoriserais	
1476	1	favorisés	
1477	1	façon	
1478	1	feignant	
1479	1	feigne	
1480	1	feindrai	
1481	1	feintes	
1482	1	ferme	
1483	1	feront	
1484	1	fidélité	
1485	1	fils	
1486	1	fin	
1487	1	fini	
1488	1	fis	
1489	1	fisse	
1490	1	flattaient	
1491	1	flatte	
1492	1	flattent	
1493	1	flatté	
1494	1	flèches	
1495	1	fomentés	
1496	1	forcée	
1497	1	forge	
1498	1	fortes	
1499	1	forts	
1500	1	fortunée	
1501	1	fortunées	
1502	1	franc	
1503	1	franche	
1504	1	fuis	
1505	1	fuite	
1506	1	fument	
1507	1	furent	
1508	1	furie	
1509	1	fussent	
1510	1	fâche	
1511	1	féconde	
1512	1	félicité	
1513	1	fûtes	
1514	1	gagerais	
1515	1	gagne	
1516	1	gain	
1517	1	garder	
1518	1	gardera	
1519	1	garderais	
1520	1	gardé	
1521	1	glorieuse	
1522	1	goût	
1523	1	goûtions	
1524	1	grandes	
1525	1	grandeurs	
1526	1	guérie	
1527	1	gêne	
1528	1	gêner	
1529	1	gênes	
1530	1	hardie	
1531	1	hardis	
1532	1	hasarde	
1533	1	hasardons	
1534	1	hasards	
1535	1	hautaine	
1536	1	hautement	
1537	1	haï	
1538	1	heure	
1539	1	heureuse	
1540	1	heureusement	
1541	1	hommage	
1542	1	honteuse	
1543	1	honteuses	
1544	1	humain	
1545	1	humains	
1546	1	humeur	
1547	1	hyménée	
1548	1	héroïque	
1549	1	hésitez	
1550	1	idée	
1551	1	ignorer	
1552	1	ignores	
1553	1	illusions	
1554	1	imagine	
1555	1	imaginer	
1556	1	imaginerez	
1557	1	imitant	
1558	1	imiterais	
1559	1	imitiez	
1560	1	importance	
1561	1	important	
1562	1	importuns	
1563	1	imposer	
1564	1	imposture	
1565	1	impression	
1566	1	impressions	
1567	1	imprudence	
1568	1	impuissance	
1569	1	impuissante	
1570	1	inaccessible	
1571	1	incertain	
1572	1	incertaine	
1573	1	incomparables	
1574	1	incroyable	
1575	1	indifférence	
1576	1	indifférent	
1577	1	indomptable	
1578	1	indompté	
1579	1	infidèle	
1580	1	infinis	
1581	1	infortunés	
1582	1	ingrat	
1583	1	inhumaines	
1584	1	innocents	
1585	1	insensée	
1586	1	insigne	
1587	1	inspiraient	
1588	1	inspirait	
1589	1	inspirent	
1590	1	inspirer	
1591	1	instruction	
1592	1	instruit	
1593	1	intentions	
1594	1	intrigue	
1595	1	intéressée	
1596	1	intérêt	
1597	1	intérêts	
1598	1	inutile	
1599	1	inutilement	
1600	1	invite	
1601	1	inégale	
1602	1	inévitable	
1603	1	irrité	
1604	1	jeté	
1605	1	joignez	
1606	1	joindre	
1607	1	joue	
1608	1	jouir	
1609	1	juger	
1610	1	jure	
1611	1	jurez	
1612	1	justice	
1613	1	laissa	
1614	1	laissai	
1615	1	laissât	
1616	1	langue	
1617	1	lasse	
1618	1	lassé	
1619	1	leçons	
1620	1	libérales	
1621	1	lieux	
1622	1	lié	
1623	1	liés	
1624	1	lorsqu	
1625	1	loueraient	
1626	1	magnanime	
1627	1	magnifique	
1628	1	majesté	
1629	1	malaisée	
1630	1	mande	
1631	1	mander	
1632	1	mandée	
1633	1	manquent	
1634	1	marcher	
1635	1	maxime	
1636	1	maximes	
1637	1	maîtresse	
1638	1	maîtresses	
1639	1	meilleurs	
1640	1	mener	
1641	1	merveille	
1642	1	merveilles	
1643	1	mettons	
1644	1	mettras	
1645	1	meure	
1646	1	milieu	
1647	1	mise	
1648	1	misères	
1649	1	moindre	
1650	1	moindres	
1651	1	monter	
1652	1	montrai	
1653	1	montré	
1654	1	morte	
1655	1	mortel	
1656	1	mortelles	
1657	1	mots	
1658	1	mourant	
1659	1	mourons	
1660	1	moyen	
1661	1	moyens	
1662	1	murmurer	
1663	1	mystérieux	
1664	1	mène	
1665	1	méconnaître	
1666	1	médite	
1667	1	mélancolique	
1668	1	mémoire	
1669	1	mépriser	
1670	1	méritait	
1671	1	méritera	
1672	1	mériterais	
1673	1	mérité	
1674	1	mêle	
1675	1	naissant	
1676	1	naquit	
1677	1	naufrage	
1678	1	naîtra	
1679	1	nier	
1680	1	nobles	
1681	1	nombre	
1682	1	nourrissez	
1683	1	nourrit	
1684	1	nouveaux	
1685	1	nuire	
1686	1	né	
1687	1	nées	
1688	1	nés	
1689	1	nôtre	
1690	1	obligeât	
1691	1	obligé	
1692	1	obscure	
1693	1	observe	
1694	1	observer	
1695	1	obstacle	
1696	1	obtiens	
1697	1	obtient	
1698	1	obéi	
1699	1	obéirai	
1700	1	obéis	
1701	1	obéissant	
1702	1	obéisse	
1703	1	obéit	
1704	1	offenser	
1705	1	offrait	
1706	1	offrant	
1707	1	offrira	
1708	1	opiniâtre	
1709	1	oppose	
1710	1	opposer	
1711	1	opposera	
1712	1	opposé	
1713	1	opposés	
1714	1	or	
1715	1	oracles	
1716	1	orages	
1717	1	ordinaires	
1718	1	ordonnent	
1719	1	ordonner	
1720	1	ordonnâtes	
1721	1	oreilles	
1722	1	ornement	
1723	1	osais	
1724	1	oserais	
1725	1	oserait	
1726	1	osons	
1727	1	ouvert	
1728	1	ouvre	
1729	1	ouvrez	
1730	1	paraissent	
1731	1	paraissez	
1732	1	paraîtront	
1733	1	pardonnent	
1734	1	pardonnez	
1735	1	pareil	
1736	1	pareille	
1737	1	pareils	
1738	1	parfaits	
1739	1	parlait	
1740	1	parlerait	
1741	1	partager	
1742	1	partent	
1743	1	parti	
1744	1	paru	
1745	1	parût	
1746	1	passa	
1747	1	passent	
1748	1	passer	
1749	1	passera	
1750	1	payez	
1751	1	payé	
1752	1	peindrai	
1753	1	peindre	
1754	1	peines	
1755	1	pensive	
1756	1	pensons	
1757	1	pensées	
1758	1	perce	
1759	1	perdez	
1760	1	perdra	
1761	1	perdrais	
1762	1	perdrait	
1763	1	perdue	
1764	1	permets	
1765	1	pernicieux	
1766	1	persuade	
1767	1	pesant	
1768	1	petit	
1769	1	pitié	
1770	1	place	
1771	1	placer	
1772	1	plaindra	
1773	1	plaindrez	
1774	1	plainte	
1775	1	plaisait	
1776	1	plaisant	
1777	1	plaisent	
1778	1	pleine	
1779	1	pleinement	
1780	1	pleures	
1781	1	plut	
1782	1	poison	
1783	1	pompeux	
1784	1	portes	
1785	1	possession	
1786	1	possédais	
1787	1	potentats	
1788	1	pourvu	
1789	1	pouvaient	
1790	1	pouvant	
1791	1	pouvons	
1792	1	premier	
1793	1	première	
1794	1	prendraient	
1795	1	prends	
1796	1	prescrit	
1797	1	presse	
1798	1	pressée	
1799	1	prie	
1800	1	prise	
1801	1	prisonnière	
1802	1	prisé	
1803	1	prit	
1804	1	procès	
1805	1	procéderait	
1806	1	procédé	
1807	1	produit	
1808	1	profaner	
1809	1	projet	
1810	1	promets	
1811	1	proposé	
1812	1	proposée	
1813	1	prospérités	
1814	1	provinces	
1815	1	précieuses	
1816	1	précipice	
1817	1	précipiter	
1818	1	préparés	
1819	1	présage	
1820	1	présages	
1821	1	présence	
1822	1	présent	
1823	1	prétendais	
1824	1	prétendra	
1825	1	prévenir	
1826	1	prêts	
1827	1	puissamment	
1828	1	puissance	
1829	1	puissent	
1830	1	puni	
1831	1	purgez	
1832	1	périsse	
1833	1	qualités	
1834	1	quelles	
1835	1	querelle	
1836	1	quittait	
1837	1	quitterais	
1838	1	quittez	
1839	1	railler	
1840	1	raillez	
1841	1	raisonnable	
1842	1	ramasser	
1843	1	ramène	
1844	1	rançon	
1845	1	rapport	
1846	1	ravalé	
1847	1	ravi	
1848	1	ravissement	
1849	1	recevons	
1850	1	reconnaissez	
1851	1	reconnaître	
1852	1	reconnaîtrez	
1853	1	reconnu	
1854	1	redevable	
1855	1	redire	
1856	1	redouble	
1857	1	redoute	
1858	1	redouter	
1859	1	refroidir	
1860	1	refroidit	
1861	1	refuge	
1862	1	refuseriez	
1863	1	refusé	
1864	1	regardais	
1865	1	regarder	
1866	1	relevé	
1867	1	religieux	
1868	1	remis	
1869	1	remporté	
1870	1	remédie	
1871	1	renaît	
1872	1	rencontra	
1873	1	rencontrant	
1874	1	rencontre	
1875	1	rencontré	
1876	1	rendait	
1877	1	rendant	
1878	1	rendez	
1879	1	rendrai	
1880	1	rendraient	
1881	1	rendras	
1882	1	rendu	
1883	1	rendue	
1884	1	renommé	
1885	1	reposez	
1886	1	reprendre	
1887	1	reproche	
1888	1	représenter	
1889	1	représentez	
1890	1	respecte	
1891	1	respecté	
1892	1	ressent	
1893	1	ressentiment	
1894	1	ressentir	
1895	1	retenir	
1896	1	retienne	
1897	1	retour	
1898	1	retourne	
1899	1	reviens	
1900	1	revient	
1901	1	reçoit	
1902	1	reçus	
1903	1	ridicule	
1904	1	rire	
1905	1	rit	
1906	1	rivaux	
1907	1	rocher	
1908	1	rompu	
1909	1	rougir	
1910	1	royal	
1911	1	royales	
1912	1	rude	
1913	1	règle	
1914	1	rébellion	
1915	1	récompenser	
1916	1	récompensé	
1917	1	réformer	
1918	1	régla	
1919	1	répand	
1920	1	répandre	
1921	1	répond	
1922	1	répondra	
1923	1	répondrais	
1924	1	réponse	
1925	1	résolu	
1926	1	rétablir	
1927	1	révolte	
1928	1	rêve	
1929	1	rêvez	
1930	1	sache	
1931	1	sage	
1932	1	sagement	
1933	1	sain	
1934	1	saine	
1935	1	sanglantes	
1936	1	sanguinaire	
1937	1	satisfera	
1938	1	saurais	
1939	1	sauver	
1940	1	savaient	
1941	1	savons	
1942	1	seconde	
1943	1	secourir	
1944	1	secrète	
1945	1	sein	
1946	1	semblant	
1947	1	semblent	
1948	1	sembler	
1949	1	sembleraient	
1950	1	semer	
1951	1	semés	
1952	1	sente	
1953	1	serre	
1954	1	servent	
1955	1	services	
1956	1	servie	
1957	1	servira	
1958	1	servitude	
1959	1	seuls	
1960	1	sied	
1961	1	sien	
1962	1	signer	
1963	1	silence	
1964	1	sincérité	
1965	1	sinon	
1966	1	sois	
1967	1	solides	
1968	1	solitaire	
1969	1	sommes	
1970	1	songez	
1971	1	songé	
1972	1	sortant	
1973	1	sortez	
1974	1	sortons	
1975	1	souci	
1976	1	soudaine	
1977	1	souffre	
1978	1	souffrir	
1979	1	souffris	
1980	1	souhaiterais	
1981	1	soupirant	
1982	1	soupirons	
1983	1	soupirs	
1984	1	soupçonne	
1985	1	soutenu	
1986	1	sublimes	
1987	1	succède	
1988	1	suivez	
1989	1	suivi	
1990	1	suivrai	
1991	1	suivre	
1992	1	superflus	
1993	1	supplice	
1994	1	suprême	
1995	1	surpasse	
1996	1	surprendre	
1997	1	surprise	
1998	1	suspect	
1999	1	séduit	
2000	1	sévère	
2001	1	sévérité	
2002	1	sûtes	
2003	1	tarder	
2004	1	telle	
2005	1	tendent	
2006	1	tenez	
2007	1	tenir	
2008	1	tentes	
2009	1	tentés	
2010	1	tien	
2011	1	tiennent	
2012	1	tire	
2013	1	tirera	
2014	1	tirerai	
2015	1	tiré	
2016	1	titre	
2017	1	tombe	
2018	1	tombé	
2019	1	tonnerre	
2020	1	tort	
2021	1	toucher	
2022	1	touché	
2023	1	tourment	
2024	1	tourmente	
2025	1	trahir	
2026	1	trahissez	
2027	1	traite	
2028	1	traiter	
2029	1	traitera	
2030	1	traits	
2031	1	tranquille	
2032	1	transporte	
2033	1	traversé	
2034	1	traître	
2035	1	tremblez	
2036	1	tribut	
2037	1	triomphante	
2038	1	triompher	
2039	1	tristesses	
2040	1	trois	
2041	1	trompant	
2042	1	trompent	
2043	1	trompez	
2044	1	trompée	
2045	1	trompés	
2046	1	trouble	
2047	1	troubler	
2048	1	troubles	
2049	1	trouvent	
2050	1	trouverais	
2051	1	trouverait	
2052	1	trouvé	
2053	1	tuera	
2054	1	tyran	
2055	1	tâcherai	
2056	1	tâchât	
2057	1	témoignage	
2058	1	témoigne	
2059	1	témoigner	
2060	1	témoignez	
2061	1	tête	
2062	1	tînt	
2063	1	uniquement	
2064	1	unis	
2065	1	univers	
2066	1	use	
2067	1	user	
2068	1	usurpe	
2069	1	utiles	
2070	1	utilité	
2071	1	vaillante	
2072	1	vaillent	
2073	1	vaines	
2074	1	vainque	
2075	1	valais	
2076	1	valent	
2077	1	valeur	
2078	1	valez	
2079	1	valoir	
2080	1	venant	
2081	1	venez	
2082	1	venge	
2083	1	vengeur	
2084	1	vengeurs	
2085	1	veniez	
2086	1	venir	
2087	1	venons	
2088	1	verrai	
2089	1	verras	
2090	1	verrez	
2091	1	verriez	
2092	1	verrons	
2093	1	verront	
2094	1	versa	
2095	1	vertueuses	
2096	1	vieille	
2097	1	viendrait	
2098	1	vienne	
2099	1	viennent	
2100	1	vigueur	
2101	1	viole	
2102	1	visions	
2103	1	vivement	
2104	1	viviez	
2105	1	vivrai	
2106	1	voilà	
2107	1	volontaires	
2108	1	volontés	
2109	1	voudriez	
2110	1	voudront	
2111	1	voulais	
2112	1	voulurent	
2113	1	voyons	
2114	1	vu	
2115	1	vulgaires	
2116	1	vécu	
2117	1	vénérable	
2118	1	vénérables	
2119	1	véritables	
2120	1	vérités	
2121	1	vît	
2122	1	vôtres	
2123	1	zélé	
2124	1	zélés	
2125	1	éclaircir	
2126	1	éclairs	
2127	1	éclatant	
2128	1	éclatants	
2129	1	écoutant	
2130	1	écoutez	
2131	1	écueil	
2132	1	égal	
2133	1	élevant	
2134	1	élevé	
2135	1	éloigner	
2136	1	éloignez	
2137	1	épargner	
2138	1	épargnerai	
2139	1	épargnât	
2140	1	épousant	
2141	1	épouvante	
2142	1	époux	
2143	1	épreuve	
2144	1	éprise	
2145	1	éprouve	
2146	1	éprouver	
2147	1	équitables	
2148	1	équité	
2149	1	étaler	
2150	1	étalerai	
2151	1	éteignant	
2152	1	éteindra	
2153	1	éternel	
2154	1	éternelle	
2155	1	étrange	
2156	1	été	
2157	1	éviterai	
2158	1	évitez	
2159	1	ôteras	
