#Word Types: 2798
#Word Tokens: 13920
#Search Hits: 0
1	422	de	
2	373	et	
3	260	il	
4	256	le	
5	244	que	
6	225	la	
7	210	à	
8	196	l	
9	195	un	
10	194	qu	
11	190	en	
12	188	est	
13	168	d	
14	163	qui	
15	149	je	
16	149	les	
17	146	ce	
18	134	ne	
19	124	pour	
20	113	des	
21	103	on	
22	95	nous	
23	93	n	
24	90	si	
25	89	une	
26	87	a	
27	83	son	
28	81	mais	
29	79	sa	
30	78	s	
31	76	me	
32	76	pas	
33	72	du	
34	72	par	
35	69	dans	
36	69	mon	
37	68	plus	
38	65	sans	
39	65	tu	
40	63	au	
41	57	m	
42	57	ma	
43	57	se	
44	56	c	
45	55	ses	
46	54	ta	
47	53	cette	
48	52	elle	
49	52	fait	
50	51	vous	
51	49	tout	
52	48	bien	
53	47	j	
54	46	lui	
55	44	grand	
56	44	point	
57	44	t	
58	43	ces	
59	43	sur	
60	43	te	
61	41	seigneur	
62	39	leur	
63	39	ton	
64	38	avec	
65	38	faut	
66	37	dont	
67	36	osman	
68	34	comme	
69	33	ai	
70	33	mes	
71	31	cour	
72	31	nos	
73	30	peut	
74	30	rien	
75	30	tous	
76	28	encor	
77	28	quelque	
78	26	faire	
79	26	ils	
80	26	voir	
81	25	même	
82	25	ou	
83	25	sont	
84	25	tes	
85	24	fort	
86	23	madame	
87	23	toi	
88	22	aux	
89	22	moi	
90	22	notre	
91	22	quoi	
92	22	soit	
93	22	soldats	
94	22	tant	
95	22	trop	
96	21	cet	
97	21	fut	
98	20	va	
99	20	yeux	
100	19	où	
101	19	peu	
102	19	votre	
103	18	mufti	
104	18	toujours	
105	18	être	
106	17	assez	
107	17	esprit	
108	17	ha	
109	17	jamais	
110	17	non	
111	17	sang	
112	17	y	
113	17	âme	
114	16	donc	
115	16	donner	
116	16	mal	
117	16	sérail	
118	16	vois	
119	15	avecque	
120	15	gloire	
121	15	mort	
122	15	ont	
123	15	quand	
124	15	suis	
125	15	toute	
126	15	vient	
127	14	amour	
128	14	aujourd	
129	14	beau	
130	14	empereur	
131	14	empire	
132	14	fille	
133	14	hui	
134	14	ici	
135	14	mauvais	
136	14	puis	
137	14	sultan	
138	13	ainsi	
139	13	aussi	
140	13	avoir	
141	13	corps	
142	13	doit	
143	13	eut	
144	13	moins	
145	13	prince	
146	13	puissance	
147	13	raison	
148	13	vers	
149	13	était	
150	13	ô	
151	12	autre	
152	12	bruit	
153	12	chose	
154	12	contre	
155	12	donne	
156	12	fatime	
157	12	glorieux	
158	12	leurs	
159	12	milice	
160	12	peuple	
161	12	peur	
162	12	trouve	
163	12	tête	
164	12	valeur	
165	11	ait	
166	11	aura	
167	11	bras	
168	11	cours	
169	11	dire	
170	11	dis	
171	11	grâce	
172	11	main	
173	11	part	
174	11	porte	
175	11	songe	
176	11	temps	
177	10	bassa	
178	10	ceux	
179	10	coup	
180	10	devant	
181	10	encore	
182	10	fais	
183	10	font	
184	10	honneur	
185	10	jour	
186	10	malheur	
187	10	ni	
188	10	objet	
189	10	personne	
190	10	quel	
191	10	sais	
192	10	serait	
193	10	sort	
194	10	vos	
195	10	vu	
196	9	audace	
197	9	ciel	
198	9	conseil	
199	9	courage	
200	9	dessus	
201	9	enfin	
202	9	gens	
203	9	grands	
204	9	mépris	
205	9	parmi	
206	9	passer	
207	9	possible	
208	9	pris	
209	9	secret	
210	9	soeur	
211	9	sous	
212	9	tiens	
213	9	vengeance	
214	9	veut	
215	9	vizir	
216	9	vue	
217	8	belle	
218	8	bientôt	
219	8	camp	
220	8	cieux	
221	8	deux	
222	8	entre	
223	8	jusqu	
224	8	lieu	
225	8	mieux	
226	8	mutins	
227	8	mérite	
228	8	ordre	
229	8	paraît	
230	8	parler	
231	8	partout	
232	8	pleurs	
233	8	pourquoi	
234	8	respect	
235	8	selim	
236	8	seul	
237	8	troupe	
238	8	trépas	
239	8	trésors	
240	8	veux	
241	8	vie	
242	7	appas	
243	7	après	
244	7	avis	
245	7	bas	
246	7	car	
247	7	colère	
248	7	courroux	
249	7	danger	
250	7	désir	
251	7	fureur	
252	7	guerre	
253	7	haut	
254	7	hautesse	
255	7	larmes	
256	7	lorsque	
257	7	mettre	
258	7	mille	
259	7	nombre	
260	7	orgueil	
261	7	perdre	
262	7	pouvoir	
263	7	prix	
264	7	père	
265	7	quelqu	
266	7	sommes	
267	7	traits	
268	7	venir	
269	7	vingt	
270	7	voit	
271	7	voix	
272	7	éclat	
273	7	état	
274	6	aime	
275	6	amis	
276	6	armes	
277	6	arrête	
278	6	as	
279	6	aucun	
280	6	autant	
281	6	avons	
282	6	ayant	
283	6	beauté	
284	6	comment	
285	6	couronne	
286	6	crainte	
287	6	crime	
288	6	crois	
289	6	dit	
290	6	droit	
291	6	déjà	
292	6	désirs	
293	6	envie	
294	6	faisant	
295	6	faudra	
296	6	feu	
297	6	fin	
298	6	foi	
299	6	funeste	
300	6	grandeur	
301	6	haine	
302	6	hommes	
303	6	instant	
304	6	loi	
305	6	lois	
306	6	là	
307	6	malheurs	
308	6	met	
309	6	mustapha	
310	6	occasion	
311	6	oui	
312	6	paix	
313	6	perdu	
314	6	plaît	
315	6	portrait	
316	6	promptement	
317	6	propos	
318	6	près	
319	6	péril	
320	6	périr	
321	6	reste	
322	6	sujet	
323	6	viens	
324	6	ville	
325	6	visage	
326	6	voici	
327	6	voyant	
328	5	abord	
329	5	accident	
330	5	aimable	
331	5	aimer	
332	5	ardeur	
333	5	autres	
334	5	avant	
335	5	bonheur	
336	5	caire	
337	5	celle	
338	5	champ	
339	5	cruauté	
340	5	cruel	
341	5	côtés	
342	5	davantage	
343	5	dessein	
344	5	disgrâce	
345	5	dois	
346	5	douleur	
347	5	dès	
348	5	dépit	
349	5	effet	
350	5	ennemis	
351	5	espoir	
352	5	fasse	
353	5	fit	
354	5	force	
355	5	fortune	
356	5	front	
357	5	grande	
358	5	histoire	
359	5	homme	
360	5	honte	
361	5	janissaire	
362	5	jours	
363	5	lettre	
364	5	lieux	
365	5	lorsqu	
366	5	lâcheté	
367	5	manquer	
368	5	mourir	
369	5	murmure	
370	5	nuit	
371	5	ombre	
372	5	oppose	
373	5	orage	
374	5	ouvre	
375	5	parti	
376	5	porter	
377	5	pourrait	
378	5	rang	
379	5	selon	
380	5	semble	
381	5	sentiments	
382	5	seront	
383	5	servir	
384	5	serviteurs	
385	5	sexe	
386	5	silence	
387	5	soient	
388	5	soin	
389	5	souffre	
390	5	succès	
391	5	sultane	
392	5	superbe	
393	5	sélim	
394	5	tandis	
395	5	terre	
396	5	tient	
397	5	trône	
398	5	vertu	
399	5	vit	
400	5	voyage	
401	4	abandonner	
402	4	acmat	
403	4	adresse	
404	4	aga	
405	4	ah	
406	4	asie	
407	4	aspire	
408	4	assurée	
409	4	augmentent	
410	4	aurait	
411	4	autorité	
412	4	avait	
413	4	aventure	
414	4	bassas	
415	4	bouche	
416	4	brave	
417	4	braves	
418	4	cause	
419	4	cela	
420	4	chef	
421	4	choses	
422	4	combats	
423	4	conduite	
424	4	confus	
425	4	connais	
426	4	conseils	
427	4	coups	
428	4	crédit	
429	4	dernier	
430	4	desseins	
431	4	destins	
432	4	devoir	
433	4	digne	
434	4	discours	
435	4	discrétion	
436	4	dites	
437	4	départ	
438	4	déplaisir	
439	4	dés	
440	4	embarquer	
441	4	ennemi	
442	4	es	
443	4	esprits	
444	4	estime	
445	4	eunuque	
446	4	faiblesse	
447	4	faites	
448	4	fils	
449	4	flamme	
450	4	fois	
451	4	frère	
452	4	furie	
453	4	garde	
454	4	garder	
455	4	humeur	
456	4	hé	
457	4	insolence	
458	4	inutile	
459	4	juste	
460	4	liberté	
461	4	lors	
462	4	lâche	
463	4	mamud	
464	4	mauvaise	
465	4	maître	
466	4	moment	
467	4	mouvements	
468	4	naissance	
469	4	nouvelles	
470	4	ose	
471	4	parle	
472	4	partir	
473	4	peine	
474	4	peines	
475	4	pense	
476	4	perd	
477	4	place	
478	4	port	
479	4	pourtant	
480	4	pourvue	
481	4	premier	
482	4	prendra	
483	4	prends	
484	4	presse	
485	4	promets	
486	4	prophète	
487	4	propre	
488	4	pu	
489	4	publique	
490	4	puissant	
491	4	quelle	
492	4	quels	
493	4	quitte	
494	4	race	
495	4	raisons	
496	4	repos	
497	4	résistance	
498	4	sait	
499	4	saurait	
500	4	semblait	
501	4	sera	
502	4	siens	
503	4	sois	
504	4	soleil	
505	4	sorte	
506	4	sorti	
507	4	suite	
508	4	terreur	
509	4	titre	
510	4	tomber	
511	4	traître	
512	4	tromper	
513	4	trouble	
514	4	troupes	
515	4	trouver	
516	4	têtes	
517	4	vais	
518	4	vouloir	
519	4	zèle	
520	4	écoutez	
521	4	été	
522	3	abandonné	
523	3	absolument	
524	3	accablé	
525	3	accroît	
526	3	affaires	
527	3	afin	
528	3	agréable	
529	3	ailleurs	
530	3	aller	
531	3	alors	
532	3	artifice	
533	3	attendre	
534	3	aurai	
535	3	aussitôt	
536	3	aveugle	
537	3	aveuglé	
538	3	aïeux	
539	3	barbare	
540	3	bel	
541	3	bons	
542	3	cacher	
543	3	capigis	
544	3	charge	
545	3	charmes	
546	3	cherche	
547	3	chercher	
548	3	cheval	
549	3	cimeterre	
550	3	cité	
551	3	clartés	
552	3	combat	
553	3	compagnons	
554	3	connaître	
555	3	craindrais	
556	3	crains	
557	3	craint	
558	3	croire	
559	3	cruels	
560	3	côté	
561	3	dangereux	
562	3	demeurer	
563	3	depuis	
564	3	dervis	
565	3	destin	
566	3	dirait	
567	3	doux	
568	3	désespoir	
569	3	désordre	
570	3	effrayer	
571	3	ennuis	
572	3	erreur	
573	3	esclave	
574	3	espérance	
575	3	faite	
576	3	famille	
577	3	fer	
578	3	fera	
579	3	ferai	
580	3	ferait	
581	3	fis	
582	3	flatte	
583	3	fuite	
584	3	funestes	
585	3	guère	
586	3	hasard	
587	3	honorer	
588	3	horreur	
589	3	hâte	
590	3	hébété	
591	3	importe	
592	3	indignement	
593	3	jette	
594	3	justice	
595	3	laisse	
596	3	laisser	
597	3	licence	
598	3	loin	
599	3	longtemps	
600	3	lâches	
601	3	maux	
602	3	meilleurs	
603	3	mer	
604	3	merveilleux	
605	3	mine	
606	3	mis	
607	3	misérable	
608	3	monde	
609	3	morts	
610	3	musulmans	
611	3	mémoire	
612	3	naître	
613	3	noble	
614	3	noire	
615	3	nécessaire	
616	3	obstacle	
617	3	offre	
618	3	opposer	
619	3	oreille	
620	3	oreilles	
621	3	pareil	
622	3	passant	
623	3	passe	
624	3	passé	
625	3	peinture	
626	3	pensée	
627	3	perdue	
628	3	perte	
629	3	peuvent	
630	3	peux	
631	3	pieds	
632	3	plainte	
633	3	plaisir	
634	3	plein	
635	3	plutôt	
636	3	politique	
637	3	poursuis	
638	3	prend	
639	3	prendrait	
640	3	prendre	
641	3	progrès	
642	3	présence	
643	3	publiques	
644	3	puisque	
645	3	querelle	
646	3	quiconque	
647	3	quitter	
648	3	quitté	
649	3	rare	
650	3	regards	
651	3	regret	
652	3	reine	
653	3	reproche	
654	3	retirer	
655	3	retraite	
656	3	rire	
657	3	rumeurs	
658	3	réduit	
659	3	répondre	
660	3	sachant	
661	3	sacré	
662	3	sacrés	
663	3	sainte	
664	3	satisfaire	
665	3	savons	
666	3	secours	
667	3	sein	
668	3	sens	
669	3	seulement	
670	3	signe	
671	3	siège	
672	3	soutenir	
673	3	souvent	
674	3	suffit	
675	3	suit	
676	3	suspect	
677	3	taille	
678	3	temple	
679	3	tempête	
680	3	tendre	
681	3	tenir	
682	3	termes	
683	3	tire	
684	3	tombe	
685	3	tournant	
686	3	toutefois	
687	3	toutes	
688	3	traiter	
689	3	triste	
690	3	trompeur	
691	3	venger	
692	3	victimes	
693	3	viennent	
694	3	vivre	
695	3	voler	
696	3	vont	
697	3	voudrais	
698	3	voyez	
699	3	éclate	
700	3	émue	
701	3	épouvantable	
702	3	étant	
703	3	états	
704	3	étonne	
705	3	étrange	
706	3	êtes	
707	2	abhorre	
708	2	abîme	
709	2	accable	
710	2	accroissent	
711	2	accuser	
712	2	achever	
713	2	action	
714	2	actions	
715	2	admirable	
716	2	adorer	
717	2	affaire	
718	2	afflige	
719	2	agir	
720	2	aille	
721	2	aimais	
722	2	air	
723	2	alarmé	
724	2	allait	
725	2	allez	
726	2	allons	
727	2	amitié	
728	2	amollit	
729	2	anges	
730	2	animé	
731	2	animée	
732	2	aperçois	
733	2	apparent	
734	2	appartement	
735	2	appelle	
736	2	applique	
737	2	apporte	
738	2	apprends	
739	2	apprenez	
740	2	appris	
741	2	arc	
742	2	armer	
743	2	armée	
744	2	armés	
745	2	arrive	
746	2	arrêter	
747	2	arrêtez	
748	2	articles	
749	2	assembler	
750	2	assiégé	
751	2	assuré	
752	2	astre	
753	2	attaque	
754	2	attirer	
755	2	aucune	
756	2	augure	
757	2	auguste	
758	2	aurais	
759	2	auras	
760	2	autour	
761	2	avaient	
762	2	avantage	
763	2	avantageuse	
764	2	avertir	
765	2	balancer	
766	2	balcon	
767	2	beaucoup	
768	2	beaux	
769	2	besoin	
770	2	blanc	
771	2	blessé	
772	2	blâmer	
773	2	bon	
774	2	bonté	
775	2	bords	
776	2	bout	
777	2	braver	
778	2	brillant	
779	2	brillants	
780	2	brutale	
781	2	byzance	
782	2	caché	
783	2	calmer	
784	2	canaille	
785	2	capable	
786	2	caprice	
787	2	celui	
788	2	cendre	
789	2	cent	
790	2	cependant	
791	2	cercueil	
792	2	certain	
793	2	cesse	
794	2	chaîne	
795	2	chefs	
796	2	chiens	
797	2	choir	
798	2	choque	
799	2	chrétiens	
800	2	clairement	
801	2	clarté	
802	2	combattre	
803	2	combien	
804	2	conduit	
805	2	conduits	
806	2	confusion	
807	2	conjurer	
808	2	connaît	
809	2	conserver	
810	2	consoler	
811	2	constance	
812	2	contraint	
813	2	contraire	
814	2	couleur	
815	2	court	
816	2	craindre	
817	2	craintes	
818	2	cris	
819	2	croit	
820	2	céder	
821	2	céleste	
822	2	delà	
823	2	demain	
824	2	demeure	
825	2	demi	
826	2	dernière	
827	2	derrière	
828	2	dieu	
829	2	dieux	
830	2	dira	
831	2	discourir	
832	2	disgrâces	
833	2	dompter	
834	2	donnait	
835	2	donnez	
836	2	donné	
837	2	dons	
838	2	douce	
839	2	durant	
840	2	déclarer	
841	2	découvre	
842	2	défendre	
843	2	dégradé	
844	2	dérober	
845	2	désarmé	
846	2	désirée	
847	2	détourne	
848	2	détruire	
849	2	détruit	
850	2	détrôné	
851	2	effets	
852	2	effort	
853	2	effroi	
854	2	effroyable	
855	2	embarque	
856	2	employer	
857	2	enfoncer	
858	2	enlever	
859	2	ennui	
860	2	ensuite	
861	2	entendre	
862	2	entends	
863	2	entrailles	
864	2	entreprise	
865	2	ermite	
866	2	eu	
867	2	eurent	
868	2	eus	
869	2	eusse	
870	2	excite	
871	2	excès	
872	2	exemple	
873	2	explique	
874	2	exploit	
875	2	exploits	
876	2	expose	
877	2	exprime	
878	2	exprès	
879	2	extrême	
880	2	extrêmes	
881	2	exécuter	
882	2	faible	
883	2	faim	
884	2	faix	
885	2	fameux	
886	2	fatal	
887	2	faveur	
888	2	feinte	
889	2	femmes	
890	2	fenêtre	
891	2	ferme	
892	2	fidèle	
893	2	figé	
894	2	flatteurs	
895	2	flatté	
896	2	flots	
897	2	flottante	
898	2	folie	
899	2	fonde	
900	2	fonds	
901	2	forcer	
902	2	forte	
903	2	foudre	
904	2	fruit	
905	2	furent	
906	2	fuyant	
907	2	garanti	
908	2	gardés	
909	2	genoux	
910	2	gorge	
911	2	gouverner	
912	2	grâces	
913	2	généreux	
914	2	haute	
915	2	hautement	
916	2	heure	
917	2	heureux	
918	2	honteusement	
919	2	hormis	
920	2	hors	
921	2	humains	
922	2	héroïque	
923	2	ignore	
924	2	illustre	
925	2	image	
926	2	immortelle	
927	2	important	
928	2	importune	
929	2	impérieux	
930	2	inconstante	
931	2	infructueux	
932	2	inhumain	
933	2	injuste	
934	2	injustice	
935	2	insensé	
936	2	intéressée	
937	2	intérêts	
938	2	irons	
939	2	irrite	
940	2	jalousie	
941	2	janissaires	
942	2	jeune	
943	2	joindre	
944	2	jusques	
945	2	laissa	
946	2	ligue	
947	2	louer	
948	2	lumière	
949	2	lune	
950	2	léontine	
951	2	mahomet	
952	2	mains	
953	2	maintenant	
954	2	maison	
955	2	malheureux	
956	2	marche	
957	2	mariage	
958	2	marque	
959	2	matière	
960	2	matières	
961	2	menace	
962	2	menacer	
963	2	menacés	
964	2	mentir	
965	2	meurs	
966	2	mise	
967	2	misères	
968	2	misérables	
969	2	monstre	
970	2	monstres	
971	2	moquer	
972	2	morte	
973	2	mortel	
974	2	mortelles	
975	2	mortels	
976	2	mot	
977	2	mouchoir	
978	2	mourra	
979	2	mouvement	
980	2	multitude	
981	2	musulman	
982	2	mutine	
983	2	mutiné	
984	2	médine	
985	2	méprisée	
986	2	mérites	
987	2	mêler	
988	2	nature	
989	2	niester	
990	2	noblement	
991	2	noirceur	
992	2	nommer	
993	2	nouveau	
994	2	nouveaux	
995	2	nouvelle	
996	2	nullement	
997	2	oncle	
998	2	or	
999	2	ottoman	
1000	2	ottomane	
1001	2	oublier	
1002	2	oublié	
1003	2	outrages	
1004	2	ouvert	
1005	2	ouvrage	
1006	2	ouïr	
1007	2	pareille	
1008	2	pareilles	
1009	2	pareils	
1010	2	parlant	
1011	2	partement	
1012	2	passée	
1013	2	patrie	
1014	2	penser	
1015	2	pensers	
1016	2	perde	
1017	2	perdrons	
1018	2	permet	
1019	2	pire	
1020	2	plaintes	
1021	2	plaire	
1022	2	pleure	
1023	2	poignard	
1024	2	police	
1025	2	politiques	
1026	2	pologne	
1027	2	polonais	
1028	2	porta	
1029	2	portes	
1030	2	pourra	
1031	2	premiers	
1032	2	prenant	
1033	2	prenez	
1034	2	pressé	
1035	2	prie	
1036	2	prirent	
1037	2	proclamé	
1038	2	proie	
1039	2	promettre	
1040	2	prompt	
1041	2	prompte	
1042	2	prophétique	
1043	2	propres	
1044	2	prudence	
1045	2	préparée	
1046	2	prétendons	
1047	2	prétexte	
1048	2	périls	
1049	2	quelques	
1050	2	raconte	
1051	2	rage	
1052	2	rebelles	
1053	2	recevant	
1054	2	reconnaît	
1055	2	redoute	
1056	2	redouter	
1057	2	regarde	
1058	2	religion	
1059	2	remarque	
1060	2	remède	
1061	2	rendre	
1062	2	replis	
1063	2	reprennent	
1064	2	requêtes	
1065	2	respecter	
1066	2	restes	
1067	2	retarde	
1068	2	retentisse	
1069	2	reçus	
1070	2	riche	
1071	2	rigueur	
1072	2	rigueurs	
1073	2	rois	
1074	2	rumeur	
1075	2	réduire	
1076	2	régler	
1077	2	répandre	
1078	2	résolu	
1079	2	rênes	
1080	2	sache	
1081	2	sachons	
1082	2	sage	
1083	2	sagement	
1084	2	saint	
1085	2	sainteté	
1086	2	saurais	
1087	2	saurez	
1088	2	sauver	
1089	2	savez	
1090	2	savoir	
1091	2	seconde	
1092	2	secrets	
1093	2	semblent	
1094	2	serais	
1095	2	serons	
1096	2	sers	
1097	2	servant	
1098	2	service	
1099	2	seule	
1100	2	soins	
1101	2	soldat	
1102	2	sommeil	
1103	2	songes	
1104	2	sortir	
1105	2	souci	
1106	2	soudain	
1107	2	souffrir	
1108	2	soupirs	
1109	2	soupçonner	
1110	2	souviens	
1111	2	souvient	
1112	2	subsiste	
1113	2	succombe	
1114	2	succède	
1115	2	suivant	
1116	2	suivi	
1117	2	suivre	
1118	2	superflus	
1119	2	supplice	
1120	2	sédition	
1121	2	taire	
1122	2	tantôt	
1123	2	tel	
1124	2	tempère	
1125	2	terrasser	
1126	2	terreurs	
1127	2	testes	
1128	2	tienne	
1129	2	tiré	
1130	2	tonnerre	
1131	2	torrent	
1132	2	touché	
1133	2	trace	
1134	2	traces	
1135	2	trait	
1136	2	traite	
1137	2	transport	
1138	2	travail	
1139	2	travaille	
1140	2	travaux	
1141	2	tristes	
1142	2	trois	
1143	2	troubler	
1144	2	tumulte	
1145	2	turban	
1146	2	univers	
1147	2	ussin	
1148	2	vaine	
1149	2	vaines	
1150	2	vainqueur	
1151	2	vanité	
1152	2	vent	
1153	2	verra	
1154	2	verrez	
1155	2	vertus	
1156	2	veste	
1157	2	vieux	
1158	2	vint	
1159	2	vis	
1160	2	vivement	
1161	2	voeu	
1162	2	voile	
1163	2	voulait	
1164	2	voulons	
1165	2	voulu	
1166	2	voyait	
1167	2	vraiment	
1168	2	âmes	
1169	2	éclair	
1170	2	éclaire	
1171	2	écoute	
1172	2	écouter	
1173	2	écrit	
1174	2	écrits	
1175	2	égal	
1176	2	élever	
1177	2	élevé	
1178	2	élève	
1179	2	ému	
1180	2	épouvante	
1181	2	étais	
1182	2	étonner	
1183	2	étranglés	
1184	2	événement	
1185	1	abaissement	
1186	1	abaisser	
1187	1	abandonne	
1188	1	abandonnerions	
1189	1	abat	
1190	1	abattre	
1191	1	abattus	
1192	1	abject	
1193	1	abois	
1194	1	aborda	
1195	1	abrutis	
1196	1	absolu	
1197	1	abuser	
1198	1	accablement	
1199	1	accabler	
1200	1	accableras	
1201	1	acceptés	
1202	1	accompagnant	
1203	1	accompagnez	
1204	1	accompagné	
1205	1	accomplir	
1206	1	accomplira	
1207	1	accorde	
1208	1	accorder	
1209	1	accords	
1210	1	accuse	
1211	1	acharné	
1212	1	achemine	
1213	1	achevez	
1214	1	acte	
1215	1	adieu	
1216	1	admire	
1217	1	adouci	
1218	1	adressant	
1219	1	adroitement	
1220	1	adversités	
1221	1	affermi	
1222	1	affermissant	
1223	1	affliction	
1224	1	affligeait	
1225	1	affront	
1226	1	affronts	
1227	1	agissant	
1228	1	agités	
1229	1	ailes	
1230	1	aimes	
1231	1	aimé	
1232	1	aisé	
1233	1	ajouter	
1234	1	alarmes	
1235	1	alexandre	
1236	1	alla	
1237	1	allaient	
1238	1	alliés	
1239	1	allât	
1240	1	allée	
1241	1	amant	
1242	1	ambitieuse	
1243	1	ambition	
1244	1	amer	
1245	1	amie	
1246	1	amollis	
1247	1	amoureux	
1248	1	ample	
1249	1	amène	
1250	1	animait	
1251	1	animal	
1252	1	animaux	
1253	1	animés	
1254	1	annoncer	
1255	1	antres	
1256	1	apaisera	
1257	1	apparence	
1258	1	apparente	
1259	1	appartient	
1260	1	appeler	
1261	1	apporter	
1262	1	apporté	
1263	1	apprendra	
1264	1	apprenne	
1265	1	approchant	
1266	1	approche	
1267	1	approuve	
1268	1	appréhende	
1269	1	apprêts	
1270	1	appuyant	
1271	1	appuyer	
1272	1	arbitre	
1273	1	ardent	
1274	1	ardente	
1275	1	armement	
1276	1	armez	
1277	1	armé	
1278	1	arracher	
1279	1	arrivé	
1280	1	arrêté	
1281	1	art	
1282	1	artères	
1283	1	aspect	
1284	1	aspic	
1285	1	assaillir	
1286	1	assaut	
1287	1	assembleraient	
1288	1	assemblés	
1289	1	asseoir	
1290	1	assiette	
1291	1	assis	
1292	1	assurer	
1293	1	astres	
1294	1	attache	
1295	1	attend	
1296	1	attendons	
1297	1	attentat	
1298	1	attiédir	
1299	1	audience	
1300	1	augmente	
1301	1	augmenter	
1302	1	auparavant	
1303	1	auprès	
1304	1	auraient	
1305	1	aurions	
1306	1	aurons	
1307	1	auront	
1308	1	austérités	
1309	1	autel	
1310	1	auteurs	
1311	1	autrefois	
1312	1	avais	
1313	1	avancer	
1314	1	avancée	
1315	1	avantager	
1316	1	avantageux	
1317	1	avantagée	
1318	1	avançant	
1319	1	avare	
1320	1	avenir	
1321	1	avenues	
1322	1	averti	
1323	1	avertie	
1324	1	avertis	
1325	1	avertisse	
1326	1	avertit	
1327	1	aveugles	
1328	1	aveuglément	
1329	1	avez	
1330	1	ayons	
1331	1	balance	
1332	1	balancée	
1333	1	balançaient	
1334	1	bannie	
1335	1	bassement	
1336	1	basses	
1337	1	bataille	
1338	1	bataillons	
1339	1	battus	
1340	1	bienfaits	
1341	1	biens	
1342	1	bienséance	
1343	1	billet	
1344	1	billets	
1345	1	blesse	
1346	1	blessés	
1347	1	blâme	
1348	1	blâmes	
1349	1	boiront	
1350	1	bonne	
1351	1	bord	
1352	1	bosphore	
1353	1	boucherie	
1354	1	bouclier	
1355	1	boue	
1356	1	bouffons	
1357	1	bouillant	
1358	1	boutiques	
1359	1	bracelet	
1360	1	brillaient	
1361	1	briller	
1362	1	brillerait	
1363	1	bris	
1364	1	brise	
1365	1	brodequins	
1366	1	bruits	
1367	1	brûla	
1368	1	brûle	
1369	1	brûlent	
1370	1	but	
1371	1	butte	
1372	1	buvant	
1373	1	cachée	
1374	1	caisses	
1375	1	calme	
1376	1	calmé	
1377	1	canon	
1378	1	caprices	
1379	1	captive	
1380	1	causa	
1381	1	caves	
1382	1	cellule	
1383	1	certaine	
1384	1	ceste	
1385	1	chacun	
1386	1	chaleur	
1387	1	chamaille	
1388	1	chameau	
1389	1	changement	
1390	1	changer	
1391	1	changé	
1392	1	changée	
1393	1	changés	
1394	1	chaque	
1395	1	charger	
1396	1	chargerait	
1397	1	chargé	
1398	1	chargée	
1399	1	chargées	
1400	1	charitable	
1401	1	charmant	
1402	1	charmante	
1403	1	charmants	
1404	1	charme	
1405	1	charmer	
1406	1	chasse	
1407	1	chasser	
1408	1	chassé	
1409	1	chassée	
1410	1	chaud	
1411	1	chauve	
1412	1	chemin	
1413	1	cher	
1414	1	cherchez	
1415	1	chers	
1416	1	chevaux	
1417	1	cheveux	
1418	1	chez	
1419	1	chimère	
1420	1	chimères	
1421	1	choix	
1422	1	choquant	
1423	1	choquer	
1424	1	choques	
1425	1	choqués	
1426	1	chrétien	
1427	1	chute	
1428	1	châtier	
1429	1	châtiment	
1430	1	châtiments	
1431	1	chère	
1432	1	cieu	
1433	1	cinq	
1434	1	cités	
1435	1	civil	
1436	1	civile	
1437	1	claire	
1438	1	clameurs	
1439	1	climat	
1440	1	climats	
1441	1	col	
1442	1	colorées	
1443	1	combattaient	
1444	1	combatte	
1445	1	combattu	
1446	1	commandement	
1447	1	commandements	
1448	1	commandé	
1449	1	commandée	
1450	1	commencé	
1451	1	commettre	
1452	1	commis	
1453	1	commune	
1454	1	compagnie	
1455	1	comparaison	
1456	1	complaisance	
1457	1	compliments	
1458	1	complot	
1459	1	composé	
1460	1	comprendre	
1461	1	comprends	
1462	1	concertent	
1463	1	concevoir	
1464	1	condamnables	
1465	1	confesse	
1466	1	confiance	
1467	1	confiant	
1468	1	confidemment	
1469	1	confident	
1470	1	confié	
1471	1	conforme	
1472	1	conjure	
1473	1	connaissons	
1474	1	connaîtrai	
1475	1	conque	
1476	1	conquérant	
1477	1	conquête	
1478	1	conquêtes	
1479	1	conseillaient	
1480	1	conseille	
1481	1	conseillers	
1482	1	conservée	
1483	1	considérable	
1484	1	considérables	
1485	1	considérais	
1486	1	consolent	
1487	1	consolé	
1488	1	constant	
1489	1	consulte	
1490	1	consulter	
1491	1	consulté	
1492	1	conséquence	
1493	1	contempler	
1494	1	contemples	
1495	1	contenter	
1496	1	contraindrait	
1497	1	conté	
1498	1	conçois	
1499	1	conçut	
1500	1	corde	
1501	1	cordons	
1502	1	cosaque	
1503	1	cotez	
1504	1	cotés	
1505	1	coulaient	
1506	1	coupables	
1507	1	coupai	
1508	1	coupent	
1509	1	couple	
1510	1	courages	
1511	1	courageux	
1512	1	courant	
1513	1	coureurs	
1514	1	courir	
1515	1	courons	
1516	1	courre	
1517	1	courroucé	
1518	1	coutelas	
1519	1	couvert	
1520	1	couverts	
1521	1	coûtent	
1522	1	coûtera	
1523	1	cracovie	
1524	1	craigne	
1525	1	craintive	
1526	1	criant	
1527	1	crimes	
1528	1	criminelles	
1529	1	croirais	
1530	1	croissant	
1531	1	cruelle	
1532	1	cruelles	
1533	1	crut	
1534	1	créance	
1535	1	crédule	
1536	1	crûs	
1537	1	cuirasse	
1538	1	cèdres	
1539	1	dangers	
1540	1	danube	
1541	1	dedans	
1542	1	demande	
1543	1	demandent	
1544	1	demander	
1545	1	demeurera	
1546	1	dents	
1547	1	derniers	
1548	1	descendu	
1549	1	dessillez	
1550	1	dessine	
1551	1	dessiné	
1552	1	destinée	
1553	1	deuil	
1554	1	devais	
1555	1	devenus	
1556	1	deviennent	
1557	1	devine	
1558	1	devons	
1559	1	devrais	
1560	1	devrait	
1561	1	deçà	
1562	1	diadème	
1563	1	diamants	
1564	1	diffamé	
1565	1	différence	
1566	1	différer	
1567	1	digue	
1568	1	digéré	
1569	1	diligence	
1570	1	dirais	
1571	1	disaient	
1572	1	disant	
1573	1	discerne	
1574	1	discipline	
1575	1	dispute	
1576	1	dissimuler	
1577	1	dissipe	
1578	1	dissipera	
1579	1	distance	
1580	1	distinctement	
1581	1	divan	
1582	1	divers	
1583	1	divine	
1584	1	docilité	
1585	1	doivent	
1586	1	dommage	
1587	1	domptés	
1588	1	donna	
1589	1	donnant	
1590	1	donnerai	
1591	1	donnes	
1592	1	donnons	
1593	1	donnés	
1594	1	dort	
1595	1	douleurs	
1596	1	doute	
1597	1	douter	
1598	1	douze	
1599	1	drap	
1600	1	dresser	
1601	1	dvn	
1602	1	débonnaire	
1603	1	débridé	
1604	1	débris	
1605	1	décevant	
1606	1	déceveur	
1607	1	décevoir	
1608	1	déchire	
1609	1	déchirer	
1610	1	déchiré	
1611	1	découvert	
1612	1	découvrent	
1613	1	décrets	
1614	1	dédaignera	
1615	1	dédaigné	
1616	1	dédale	
1617	1	défaillir	
1618	1	défaite	
1619	1	dégradée	
1620	1	dégradés	
1621	1	déguisements	
1622	1	délaissé	
1623	1	démis	
1624	1	démons	
1625	1	démêler	
1626	1	dépite	
1627	1	dépité	
1628	1	déplorable	
1629	1	déportements	
1630	1	déposai	
1631	1	dépossédé	
1632	1	dépêche	
1633	1	dérobant	
1634	1	dérèglements	
1635	1	dérégler	
1636	1	désavantage	
1637	1	déserteurs	
1638	1	déshonneur	
1639	1	désoler	
1640	1	détache	
1641	1	détail	
1642	1	déterminée	
1643	1	détroits	
1644	1	détrôner	
1645	1	dévient	
1646	1	dévot	
1647	1	déçus	
1648	1	dînée	
1649	1	eau	
1650	1	efforts	
1651	1	egypte	
1652	1	eh	
1653	1	elles	
1654	1	embarquement	
1655	1	embarras	
1656	1	embrasse	
1657	1	empiré	
1658	1	emploi	
1659	1	employant	
1660	1	empoigner	
1661	1	emporter	
1662	1	emporté	
1663	1	empreinte	
1664	1	empresser	
1665	1	empêcher	
1666	1	empêchera	
1667	1	empêcheront	
1668	1	enceinte	
1669	1	enchante	
1670	1	enchantement	
1671	1	enclos	
1672	1	enfante	
1673	1	enfants	
1674	1	enfer	
1675	1	enfermés	
1676	1	enflammée	
1677	1	enflé	
1678	1	engagée	
1679	1	engraisseront	
1680	1	enivre	
1681	1	enivrent	
1682	1	enlevons	
1683	1	enrichis	
1684	1	enseigne	
1685	1	entendu	
1686	1	entière	
1687	1	entortille	
1688	1	entrais	
1689	1	entraves	
1690	1	entreprend	
1691	1	entreprendra	
1692	1	entrer	
1693	1	entretient	
1694	1	entrouvrant	
1695	1	entrèrent	
1696	1	entré	
1697	1	enveloppé	
1698	1	environne	
1699	1	esclaves	
1700	1	essuye	
1701	1	estimer	
1702	1	eusses	
1703	1	eux	
1704	1	excitait	
1705	1	excitez	
1706	1	excuse	
1707	1	exemples	
1708	1	exempte	
1709	1	exercer	
1710	1	expliquait	
1711	1	expliquer	
1712	1	expliqué	
1713	1	exposer	
1714	1	exposé	
1715	1	exposés	
1716	1	expresse	
1717	1	exprimant	
1718	1	expriment	
1719	1	exprimer	
1720	1	expédient	
1721	1	extermine	
1722	1	exterminez	
1723	1	extrémités	
1724	1	facile	
1725	1	facilité	
1726	1	faction	
1727	1	faillir	
1728	1	faillis	
1729	1	faisait	
1730	1	fallait	
1731	1	fallu	
1732	1	fange	
1733	1	fantaisie	
1734	1	farouche	
1735	1	fasciné	
1736	1	fatale	
1737	1	fauche	
1738	1	fausse	
1739	1	fausses	
1740	1	faux	
1741	1	favorable	
1742	1	favoriser	
1743	1	façon	
1744	1	feignant	
1745	1	feindre	
1746	1	femme	
1747	1	ferais	
1748	1	feras	
1749	1	fermer	
1750	1	feront	
1751	1	fidèlement	
1752	1	fidèles	
1753	1	fidélité	
1754	1	figure	
1755	1	figurer	
1756	1	finement	
1757	1	finirez	
1758	1	fière	
1759	1	flattant	
1760	1	flatter	
1761	1	flatterie	
1762	1	florissants	
1763	1	flèches	
1764	1	fléchir	
1765	1	fondement	
1766	1	fondements	
1767	1	fondre	
1768	1	forces	
1769	1	forfait	
1770	1	former	
1771	1	formez	
1772	1	fortes	
1773	1	forts	
1774	1	forçats	
1775	1	foudres	
1776	1	foudroyer	
1777	1	fournir	
1778	1	fourniront	
1779	1	fourreau	
1780	1	frappaient	
1781	1	frappe	
1782	1	frapper	
1783	1	frappé	
1784	1	frayeurs	
1785	1	frissonne	
1786	1	froid	
1787	1	fronts	
1788	1	frémir	
1789	1	frénétique	
1790	1	frénétiques	
1791	1	fuit	
1792	1	funérailles	
1793	1	furies	
1794	1	furieux	
1795	1	fus	
1796	1	fuseaux	
1797	1	fusses	
1798	1	fussiez	
1799	1	future	
1800	1	futures	
1801	1	fâche	
1802	1	fâcheux	
1803	1	félicité	
1804	1	gagnaient	
1805	1	galères	
1806	1	gardent	
1807	1	gardons	
1808	1	gauche	
1809	1	gestes	
1810	1	glacés	
1811	1	gomme	
1812	1	gouvernement	
1813	1	goûté	
1814	1	goûtés	
1815	1	grava	
1816	1	grave	
1817	1	gronde	
1818	1	gré	
1819	1	guerriers	
1820	1	guide	
1821	1	guider	
1822	1	gémir	
1823	1	généreusement	
1824	1	habite	
1825	1	hache	
1826	1	hait	
1827	1	haleine	
1828	1	haranguer	
1829	1	hardi	
1830	1	hardis	
1831	1	haussé	
1832	1	hautes	
1833	1	haï	
1834	1	herbe	
1835	1	herbes	
1836	1	hommage	
1837	1	honorables	
1838	1	honteuse	
1839	1	honteux	
1840	1	horreurs	
1841	1	horribles	
1842	1	housse	
1843	1	huissier	
1844	1	huissiers	
1845	1	humaines	
1846	1	humble	
1847	1	hymen	
1848	1	hypocrite	
1849	1	hypocrites	
1850	1	hémisphères	
1851	1	héritage	
1852	1	héros	
1853	1	idiot	
1854	1	ignorant	
1855	1	ignorer	
1856	1	images	
1857	1	imagine	
1858	1	imaginer	
1859	1	immoler	
1860	1	immolé	
1861	1	immortels	
1862	1	impatience	
1863	1	impatients	
1864	1	impiété	
1865	1	implacable	
1866	1	importance	
1867	1	importer	
1868	1	impose	
1869	1	imposer	
1870	1	imposture	
1871	1	imposée	
1872	1	imprudemment	
1873	1	imprudence	
1874	1	imprudent	
1875	1	imprudente	
1876	1	incapables	
1877	1	incertains	
1878	1	incessamment	
1879	1	incroyable	
1880	1	indigne	
1881	1	indirectement	
1882	1	indiscrète	
1883	1	indiscrétion	
1884	1	indulgence	
1885	1	indépendance	
1886	1	indépendante	
1887	1	ine	
1888	1	infaillible	
1889	1	infatigable	
1890	1	infidèle	
1891	1	infinie	
1892	1	infiniment	
1893	1	influence	
1894	1	informer	
1895	1	informée	
1896	1	infâme	
1897	1	ingrat	
1898	1	ingratitude	
1899	1	ingénieux	
1900	1	inhumains	
1901	1	injure	
1902	1	injures	
1903	1	innocence	
1904	1	innocente	
1905	1	inquiétude	
1906	1	insensible	
1907	1	insensée	
1908	1	insensés	
1909	1	insolemment	
1910	1	insolente	
1911	1	instruite	
1912	1	insulter	
1913	1	intenté	
1914	1	interdit	
1915	1	intestine	
1916	1	introduire	
1917	1	intrépide	
1918	1	intéresse	
1919	1	intéressé	
1920	1	intérêt	
1921	1	invisibles	
1922	1	inégal	
1923	1	ira	
1924	1	irai	
1925	1	irait	
1926	1	irritant	
1927	1	ismaël	
1928	1	jaloux	
1929	1	jetant	
1930	1	jeûne	
1931	1	joie	
1932	1	joint	
1933	1	juive	
1934	1	juraient	
1935	1	jure	
1936	1	justement	
1937	1	justes	
1938	1	laboureur	
1939	1	ladislas	
1940	1	laissai	
1941	1	laissait	
1942	1	laissant	
1943	1	laissas	
1944	1	laisses	
1945	1	lance	
1946	1	lancé	
1947	1	large	
1948	1	larges	
1949	1	larmoyer	
1950	1	latine	
1951	1	lauriers	
1952	1	lequel	
1953	1	lever	
1954	1	librement	
1955	1	libéralités	
1956	1	liens	
1957	1	lion	
1958	1	lisez	
1959	1	lit	
1960	1	loisir	
1961	1	longue	
1962	1	louange	
1963	1	loue	
1964	1	lu	
1965	1	lutte	
1966	1	lutter	
1967	1	luxe	
1968	1	lâchetés	
1969	1	lâché	
1970	1	légèrement	
1971	1	magnanime	
1972	1	magnifique	
1973	1	maintiendrait	
1974	1	majesté	
1975	1	malice	
1976	1	maltraite	
1977	1	maltraiter	
1978	1	mande	
1979	1	mandement	
1980	1	mange	
1981	1	manger	
1982	1	manie	
1983	1	manifeste	
1984	1	manière	
1985	1	manquas	
1986	1	manque	
1987	1	manquâmes	
1988	1	manqué	
1989	1	marbres	
1990	1	marchaient	
1991	1	marchand	
1992	1	marchant	
1993	1	marchent	
1994	1	marcher	
1995	1	marchons	
1996	1	marchât	
1997	1	marquent	
1998	1	marquer	
1999	1	martyre	
2000	1	matelots	
2001	1	matin	
2002	1	mauvaises	
2003	1	mecque	
2004	1	menacent	
2005	1	menaces	
2006	1	menacé	
2007	1	menait	
2008	1	menaçant	
2009	1	menaçante	
2010	1	mensonge	
2011	1	mensonges	
2012	1	mentit	
2013	1	merveilles	
2014	1	messager	
2015	1	messagers	
2016	1	mettant	
2017	1	mette	
2018	1	mettent	
2019	1	mettons	
2020	1	mettrait	
2021	1	mettrons	
2022	1	meure	
2023	1	meurtri	
2024	1	meurtrir	
2025	1	meut	
2026	1	mien	
2027	1	miens	
2028	1	mignons	
2029	1	mil	
2030	1	milieu	
2031	1	ministres	
2032	1	miracle	
2033	1	mirent	
2034	1	mit	
2035	1	modeste	
2036	1	modère	
2037	1	moitié	
2038	1	monarque	
2039	1	montaient	
2040	1	monte	
2041	1	montrent	
2042	1	montrer	
2043	1	montré	
2044	1	monts	
2045	1	monument	
2046	1	moqua	
2047	1	moqué	
2048	1	morceaux	
2049	1	mortelle	
2050	1	mosquée	
2051	1	mots	
2052	1	mouches	
2053	1	mourant	
2054	1	mourrai	
2055	1	moyens	
2056	1	muets	
2057	1	murmuraient	
2058	1	murmurait	
2059	1	murmurant	
2060	1	murmurent	
2061	1	murmurer	
2062	1	murmures	
2063	1	murs	
2064	1	mutin	
2065	1	mutinée	
2066	1	mutinés	
2067	1	mystérieux	
2068	1	mène	
2069	1	méchant	
2070	1	méchante	
2071	1	méchants	
2072	1	méconnaître	
2073	1	mécontente	
2074	1	mécontentement	
2075	1	ménage	
2076	1	méprise	
2077	1	méritait	
2078	1	mêle	
2079	1	mêmes	
2080	1	nage	
2081	1	naguère	
2082	1	naissant	
2083	1	naissants	
2084	1	naissent	
2085	1	naufrage	
2086	1	naîtrait	
2087	1	nerfs	
2088	1	nez	
2089	1	nil	
2090	1	nobles	
2091	1	noce	
2092	1	noeud	
2093	1	noires	
2094	1	noirs	
2095	1	nomme	
2096	1	nommé	
2097	1	nonces	
2098	1	nord	
2099	1	nourrie	
2100	1	nourris	
2101	1	nourriture	
2102	1	nuages	
2103	1	nues	
2104	1	nuire	
2105	1	nuits	
2106	1	nul	
2107	1	nulle	
2108	1	nus	
2109	1	nymphe	
2110	1	nécessaires	
2111	1	oblige	
2112	1	obliger	
2113	1	obligeront	
2114	1	obligée	
2115	1	obliques	
2116	1	obscurci	
2117	1	obscure	
2118	1	obscures	
2119	1	obscurs	
2120	1	observai	
2121	1	obséder	
2122	1	obsédé	
2123	1	obéissants	
2124	1	obéisse	
2125	1	occasions	
2126	1	odieux	
2127	1	oeil	
2128	1	offert	
2129	1	office	
2130	1	officiers	
2131	1	offriras	
2132	1	oit	
2133	1	onde	
2134	1	opposez	
2135	1	opprobre	
2136	1	orcan	
2137	1	orcane	
2138	1	ordinaire	
2139	1	ordonne	
2140	1	ordonner	
2141	1	ordres	
2142	1	orgueilleux	
2143	1	osaient	
2144	1	osent	
2145	1	oser	
2146	1	oses	
2147	1	osât	
2148	1	ottomans	
2149	1	oubliez	
2150	1	ouchin	
2151	1	outrageux	
2152	1	outragée	
2153	1	pacifique	
2154	1	pages	
2155	1	pain	
2156	1	palais	
2157	1	papier	
2158	1	paraissent	
2159	1	parant	
2160	1	paravant	
2161	1	paraître	
2162	1	parc	
2163	1	pardonne	
2164	1	pardonnez	
2165	1	parent	
2166	1	paresseux	
2167	1	parfaite	
2168	1	parfaitement	
2169	1	parfois	
2170	1	parlait	
2171	1	parlera	
2172	1	parlez	
2173	1	parlons	
2174	1	parlé	
2175	1	parole	
2176	1	parque	
2177	1	parricide	
2178	1	pars	
2179	1	partager	
2180	1	partie	
2181	1	parties	
2182	1	partirais	
2183	1	partons	
2184	1	paru	
2185	1	parut	
2186	1	passa	
2187	1	passages	
2188	1	passants	
2189	1	passion	
2190	1	passions	
2191	1	passons	
2192	1	patience	
2193	1	pavillons	
2194	1	pavois	
2195	1	payer	
2196	1	payez	
2197	1	pays	
2198	1	peignant	
2199	1	peinte	
2200	1	peintre	
2201	1	pensai	
2202	1	penserais	
2203	1	percer	
2204	1	perdant	
2205	1	perdus	
2206	1	perles	
2207	1	permets	
2208	1	pernicieux	
2209	1	perse	
2210	1	persécute	
2211	1	pertuisane	
2212	1	pervers	
2213	1	perça	
2214	1	petit	
2215	1	petits	
2216	1	pied	
2217	1	pillage	
2218	1	piller	
2219	1	pinceau	
2220	1	pique	
2221	1	piqueurs	
2222	1	pitié	
2223	1	piété	
2224	1	placée	
2225	1	plains	
2226	1	plaint	
2227	1	plaira	
2228	1	pleine	
2229	1	plier	
2230	1	plié	
2231	1	points	
2232	1	pompe	
2233	1	pompeux	
2234	1	populace	
2235	1	populaires	
2236	1	portait	
2237	1	portant	
2238	1	portera	
2239	1	porterai	
2240	1	porterais	
2241	1	porté	
2242	1	portée	
2243	1	portés	
2244	1	postérité	
2245	1	pourrai	
2246	1	poursuivrait	
2247	1	pourvu	
2248	1	poussant	
2249	1	pousse	
2250	1	poussent	
2251	1	poussé	
2252	1	poussée	
2253	1	pouvait	
2254	1	pouvant	
2255	1	pouvons	
2256	1	pratique	
2257	1	première	
2258	1	prendrai	
2259	1	prendrais	
2260	1	prennent	
2261	1	prenons	
2262	1	pressant	
2263	1	pressants	
2264	1	pressentiments	
2265	1	presser	
2266	1	pressés	
2267	1	pretendez	
2268	1	prier	
2269	1	princes	
2270	1	prit	
2271	1	privent	
2272	1	privilège	
2273	1	prières	
2274	1	prochains	
2275	1	proche	
2276	1	procédés	
2277	1	prodige	
2278	1	produire	
2279	1	produit	
2280	1	profite	
2281	1	projet	
2282	1	promené	
2283	1	promesse	
2284	1	promettent	
2285	1	promis	
2286	1	pronostics	
2287	1	propose	
2288	1	proposât	
2289	1	prospérité	
2290	1	provinces	
2291	1	prudent	
2292	1	précieuse	
2293	1	précipice	
2294	1	précipité	
2295	1	prédit	
2296	1	présage	
2297	1	présages	
2298	1	préserver	
2299	1	présomptueux	
2300	1	présume	
2301	1	prétextes	
2302	1	prévoir	
2303	1	prévu	
2304	1	prête	
2305	1	prêter	
2306	1	prêts	
2307	1	public	
2308	1	puisqu	
2309	1	puissante	
2310	1	puisse	
2311	1	punis	
2312	1	purgée	
2313	1	pusillanimes	
2314	1	put	
2315	1	pèlerinage	
2316	1	pères	
2317	1	pécher	
2318	1	péchés	
2319	1	pénètre	
2320	1	pénétraient	
2321	1	péris	
2322	1	périsse	
2323	1	quarante	
2324	1	quatre	
2325	1	quelquefois	
2326	1	quête	
2327	1	rais	
2328	1	ramer	
2329	1	ramène	
2330	1	rangs	
2331	1	rapport	
2332	1	rares	
2333	1	rassurent	
2334	1	rassurer	
2335	1	ravager	
2336	1	ravalé	
2337	1	ravi	
2338	1	ravir	
2339	1	rayons	
2340	1	rebut	
2341	1	rebuter	
2342	1	rebuté	
2343	1	recevaient	
2344	1	recevoir	
2345	1	recherche	
2346	1	recommencé	
2347	1	reconnais	
2348	1	reconnus	
2349	1	redoutable	
2350	1	redouté	
2351	1	refus	
2352	1	refuserais	
2353	1	refusés	
2354	1	regagné	
2355	1	regard	
2356	1	regarder	
2357	1	regardée	
2358	1	regrets	
2359	1	relevé	
2360	1	relâche	
2361	1	relève	
2362	1	remarquable	
2363	1	remarquer	
2364	1	remettre	
2365	1	remis	
2366	1	remplir	
2367	1	rencontre	
2368	1	rend	
2369	1	rende	
2370	1	rendit	
2371	1	rendrais	
2372	1	rendrait	
2373	1	rendu	
2374	1	renommée	
2375	1	rentrait	
2376	1	renverse	
2377	1	renverser	
2378	1	repartir	
2379	1	repasse	
2380	1	repentir	
2381	1	repose	
2382	1	reprenait	
2383	1	reprendrons	
2384	1	repris	
2385	1	représenter	
2386	1	représentée	
2387	1	respectent	
2388	1	respecté	
2389	1	respire	
2390	1	resplendir	
2391	1	ressent	
2392	1	retardement	
2393	1	retarderont	
2394	1	retient	
2395	1	retirons	
2396	1	retordant	
2397	1	retour	
2398	1	retourna	
2399	1	retourne	
2400	1	retourner	
2401	1	retournez	
2402	1	retrouver	
2403	1	revenir	
2404	1	reviendrons	
2405	1	revienne	
2406	1	revoir	
2407	1	revu	
2408	1	reçu	
2409	1	reçut	
2410	1	rhin	
2411	1	riches	
2412	1	richesses	
2413	1	ridicules	
2414	1	risée	
2415	1	rocher	
2416	1	rompt	
2417	1	rougir	
2418	1	rougit	
2419	1	roulent	
2420	1	route	
2421	1	rubis	
2422	1	ruisseaux	
2423	1	russe	
2424	1	récit	
2425	1	récompensé	
2426	1	récompensés	
2427	1	réduite	
2428	1	régiments	
2429	1	réglez	
2430	1	régner	
2431	1	réjouit	
2432	1	répand	
2433	1	réparer	
2434	1	répond	
2435	1	réservé	
2436	1	résolut	
2437	1	résolution	
2438	1	résulte	
2439	1	rétablir	
2440	1	réussi	
2441	1	réveille	
2442	1	réveiller	
2443	1	réveillé	
2444	1	réveillée	
2445	1	révolte	
2446	1	révolté	
2447	1	révère	
2448	1	révérer	
2449	1	sabre	
2450	1	sacrilège	
2451	1	sages	
2452	1	sagesse	
2453	1	saints	
2454	1	saisir	
2455	1	saison	
2456	1	salue	
2457	1	salut	
2458	1	sanglant	
2459	1	saoule	
2460	1	satisfais	
2461	1	satisfait	
2462	1	satisfaite	
2463	1	saura	
2464	1	saurai	
2465	1	saurions	
2466	1	sauront	
2467	1	sauvé	
2468	1	sceptre	
2469	1	scrupules	
2470	1	secondés	
2471	1	secourir	
2472	1	secrète	
2473	1	secrètement	
2474	1	secrétaire	
2475	1	selictar	
2476	1	semer	
2477	1	semé	
2478	1	senties	
2479	1	sentiment	
2480	1	sentir	
2481	1	sept	
2482	1	septième	
2483	1	serai	
2484	1	seraient	
2485	1	serez	
2486	1	serions	
2487	1	serment	
2488	1	serments	
2489	1	serré	
2490	1	sert	
2491	1	serve	
2492	1	serviles	
2493	1	sien	
2494	1	sienne	
2495	1	sifflant	
2496	1	sigismond	
2497	1	signal	
2498	1	signé	
2499	1	sinistres	
2500	1	sinon	
2501	1	six	
2502	1	siérait	
2503	1	soir	
2504	1	solennité	
2505	1	solidité	
2506	1	solitaire	
2507	1	sollicite	
2508	1	sombre	
2509	1	songer	
2510	1	songé	
2511	1	sorbets	
2512	1	sors	
2513	1	sortait	
2514	1	sortez	
2515	1	sortie	
2516	1	soucis	
2517	1	soudaine	
2518	1	souhaite	
2519	1	soulager	
2520	1	soulevée	
2521	1	soumis	
2522	1	soupire	
2523	1	soupirer	
2524	1	soupiré	
2525	1	soupçon	
2526	1	soupçonne	
2527	1	soupçonnez	
2528	1	soupçons	
2529	1	souris	
2530	1	soustrait	
2531	1	soutenez	
2532	1	soutien	
2533	1	soutiendra	
2534	1	soutient	
2535	1	souvenir	
2536	1	souvienne	
2537	1	souvint	
2538	1	soyez	
2539	1	soyons	
2540	1	spectacle	
2541	1	spécieux	
2542	1	stances	
2543	1	stratagème	
2544	1	stupide	
2545	1	su	
2546	1	subir	
2547	1	subtil	
2548	1	subtile	
2549	1	succomber	
2550	1	succéder	
2551	1	sueur	
2552	1	sueurs	
2553	1	suivaient	
2554	1	suive	
2555	1	suivent	
2556	1	suivis	
2557	1	suivons	
2558	1	suivrais	
2559	1	sultans	
2560	1	superbes	
2561	1	supporteront	
2562	1	surmonté	
2563	1	surnaturels	
2564	1	surprendra	
2565	1	surprendre	
2566	1	surprendront	
2567	1	surpris	
2568	1	suspecte	
2569	1	suspend	
2570	1	suspens	
2571	1	séditions	
2572	1	séduite	
2573	1	séjour	
2574	1	sélictar	
2575	1	séparée	
2576	1	sûreté	
2577	1	tableau	
2578	1	tairai	
2579	1	tancer	
2580	1	tard	
2581	1	tarder	
2582	1	tardif	
2583	1	telle	
2584	1	tempêtes	
2585	1	tenaient	
2586	1	tenait	
2587	1	tend	
2588	1	tendresse	
2589	1	tenter	
2590	1	terme	
2591	1	terminer	
2592	1	terrasse	
2593	1	terrible	
2594	1	terroir	
2595	1	teste	
2596	1	thrace	
2597	1	théâtre	
2598	1	tiendrais	
2599	1	tiennent	
2600	1	timide	
2601	1	tint	
2602	1	tomba	
2603	1	tombeau	
2604	1	tombent	
2605	1	tort	
2606	1	toucher	
2607	1	touchés	
2608	1	tour	
2609	1	tourmenter	
2610	1	tourne	
2611	1	tourner	
2612	1	tournés	
2613	1	tours	
2614	1	tracé	
2615	1	trafic	
2616	1	tragique	
2617	1	trahi	
2618	1	trahir	
2619	1	trahis	
2620	1	trahison	
2621	1	trahit	
2622	1	traitable	
2623	1	tranchante	
2624	1	tranquilles	
2625	1	transis	
2626	1	transportant	
2627	1	transporter	
2628	1	transports	
2629	1	trauailler	
2630	1	travaillée	
2631	1	travers	
2632	1	traversé	
2633	1	travesti	
2634	1	traîne	
2635	1	traîner	
2636	1	traîtres	
2637	1	tremble	
2638	1	trembler	
2639	1	tribut	
2640	1	triomphant	
2641	1	triomphe	
2642	1	trompait	
2643	1	trompera	
2644	1	trompette	
2645	1	trompée	
2646	1	trophée	
2647	1	troublé	
2648	1	troublés	
2649	1	trousse	
2650	1	trouvais	
2651	1	trouvait	
2652	1	trouvant	
2653	1	trouverais	
2654	1	trouveront	
2655	1	trouvât	
2656	1	tue	
2657	1	tuerie	
2658	1	tueries	
2659	1	turquesque	
2660	1	tyrannie	
2661	1	tâche	
2662	1	témoignez	
2663	1	témoin	
2664	1	uns	
2665	1	usage	
2666	1	user	
2667	1	vaillant	
2668	1	vain	
2669	1	vaincu	
2670	1	vaisseau	
2671	1	vaisseaux	
2672	1	valets	
2673	1	vante	
2674	1	vanté	
2675	1	vas	
2676	1	vaut	
2677	1	veille	
2678	1	veines	
2679	1	venaient	
2680	1	venait	
2681	1	vendrai	
2682	1	vengera	
2683	1	venons	
2684	1	vents	
2685	1	venu	
2686	1	verrai	
2687	1	verrais	
2688	1	verras	
2689	1	verront	
2690	1	versèrent	
2691	1	veuille	
2692	1	veuillent	
2693	1	veulent	
2694	1	vices	
2695	1	victime	
2696	1	victoire	
2697	1	victorieux	
2698	1	viendrait	
2699	1	viendrons	
2700	1	vienne	
2701	1	vigilance	
2702	1	vin	
2703	1	violence	
2704	1	violent	
2705	1	visitant	
2706	1	visite	
2707	1	visites	
2708	1	visse	
2709	1	vite	
2710	1	vitement	
2711	1	vitesse	
2712	1	vivante	
2713	1	vive	
2714	1	vivrait	
2715	1	voila	
2716	1	voilé	
2717	1	volontés	
2718	1	voluptueux	
2719	1	voluptés	
2720	1	vomissaient	
2721	1	voudra	
2722	1	voudrait	
2723	1	voulant	
2724	1	voulus	
2725	1	voulut	
2726	1	voyons	
2727	1	voûte	
2728	1	vrai	
2729	1	vulgaire	
2730	1	vénérable	
2731	1	vérité	
2732	1	vêtu	
2733	1	x	
2734	1	ébahi	
2735	1	ébarbés	
2736	1	ébloui	
2737	1	éblouissaient	
2738	1	éblouit	
2739	1	ébranlé	
2740	1	échapper	
2741	1	échauffe	
2742	1	échauffons	
2743	1	échevelée	
2744	1	éclaircir	
2745	1	éclairer	
2746	1	éclairez	
2747	1	éclataient	
2748	1	éclatant	
2749	1	édifices	
2750	1	égalant	
2751	1	égale	
2752	1	égard	
2753	1	égare	
2754	1	élection	
2755	1	élevant	
2756	1	élevâmes	
2757	1	élisant	
2758	1	éloigner	
2759	1	éloigné	
2760	1	éloquence	
2761	1	élu	
2762	1	élèvent	
2763	1	éléments	
2764	1	émus	
2765	1	épanche	
2766	1	épand	
2767	1	épargnerons	
2768	1	épaules	
2769	1	éplorées	
2770	1	épouvanter	
2771	1	épreuve	
2772	1	épris	
2773	1	éprit	
2774	1	épée	
2775	1	étaient	
2776	1	éteindra	
2777	1	éteindre	
2778	1	éteints	
2779	1	étonnement	
2780	1	étonnerait	
2781	1	étonné	
2782	1	étonnés	
2783	1	étouffé	
2784	1	étouffée	
2785	1	étourdir	
2786	1	étrangers	
2787	1	étrangler	
2788	1	étranglé	
2789	1	étrangères	
2790	1	évanouir	
2791	1	évite	
2792	1	éviter	
2793	1	ôtait	
2794	1	ôte	
2795	1	ôter	
2796	1	ôtez	
2797	1	ôtoit	
2798	1	ôtons	
