---------
|Results|
---------

Format: std_dev_sg/mn(xs):	(result, vi_sum=errorsum)

---nouvelles19---

std_dev_sg(rs):	(1.7327958206176168, 1.5631940186722204e-13)
std_dev_mn(rs):	(0.23155458149946143, 1.5631940186722204e-13)
std_dev_sg(as):	(0.21062353558941804, 8.382183835919932e-15)
std_dev_mn(as):	(0.02814575384880679, 8.382183835919932e-15)
std_dev_sg(bs):	(0.6214626208522989, 1.5543122344752192e-15)
std_dev_mn(bs):	(0.08304643592556776, 1.5543122344752192e-15)

---roman19---

std_dev_sg(rs):	(0.3999320573506919, -4.092726157978177e-12)
std_dev_mn(rs):	(0.04713244496109359, -4.092726157978177e-12)
std_dev_sg(as):	(0.22710357735889958, 2.5091040356528538e-14)
std_dev_mn(as):	(0.026764413263700264, 2.5091040356528538e-14)
std_dev_sg(bs):	(0.7639414534608139, 1.8207657603852567e-14)
std_dev_mn(bs):	(0.09003136369527481, 1.8207657603852567e-14)

---theatre17---

std_dev_sg(rs):	(0.5402228731957954, 4.092726157978177e-12)
std_dev_mn(rs):	(0.038199525698882734, 4.092726157978177e-12)
std_dev_sg(as):	(0.2753543579912928, -7.638334409421077e-14)
std_dev_mn(as):	(0.019470493376491135, -7.638334409421077e-14)
std_dev_sg(bs):	(0.7221847201308207, -9.614531393253856e-14)
std_dev_mn(bs):	(0.05106617128738123, -9.614531393253856e-14)

