---------
|Results|
---------

Format: std_dev_sg/mn(xs):	(result, vi_sum=errorsum)

mean(rs):      	98.97168529488796
std_dev_sg(rs):	(0.3999320573506919, -4.092726157978177e-12)
std_dev_mn(rs):	(0.04713244496109359, -4.092726157978177e-12)

mean(as):      	-0.9076366330399418
std_dev_sg(as):	(0.22710357735889958, 2.5091040356528538e-14)
std_dev_mn(as):	(0.026764413263700264, 2.5091040356528538e-14)

mean(bs):      	3.711239181098448
std_dev_sg(bs):	(0.7639414534608139, 1.8207657603852567e-14)
std_dev_mn(bs):	(0.09003136369527481, 1.8207657603852567e-14)

