1,524,de
2,458,et
3,312,la
4,309,je
5,226,à
6,220,un
7,206,le
8,198,que
9,198,une
10,197,l
11,184,d
12,170,les
13,155,me
14,129,elle
15,128,en
16,110,j
17,104,dans
18,103,ne
19,101,qui
20,95,il
21,94,sur
22,91,des
23,89,mon
24,87,plus
25,82,n
26,82,pas
27,81,pour
28,79,était
29,77,du
30,75,qu
31,68,m
32,67,avec
33,64,se
34,62,ce
35,60,moi
36,59,au
37,59,comme
38,57,avait
39,55,s
40,54,ma
41,54,si
42,53,ses
43,50,tout
44,49,son
45,48,clarimonde
46,47,nous
47,44,cette
48,44,est
49,44,sa
50,44,vous
51,39,c
52,38,mes
53,36,avais
54,35,par
55,34,mais
56,32,même
57,32,y
58,32,étais
59,31,dit
60,28,ou
61,27,bien
62,27,dont
63,27,tu
64,27,vie
65,26,lui
66,26,on
67,26,sérapion
68,25,a
69,24,où
70,24,été
71,23,ai
72,23,ces
73,23,deux
74,23,prêtre
75,23,yeux
76,22,jamais
77,22,sans
78,22,être
79,21,encore
80,20,avoir
81,20,main
82,19,aussi
83,19,dieu
84,18,air
85,18,autre
86,18,fait
87,18,femme
88,18,quelques
89,18,rien
90,18,sous
91,17,bras
92,17,car
93,17,tous
94,17,toutes
95,16,amour
96,16,lit
97,16,nuit
98,16,temps
99,16,étaient
100,15,chambre
101,15,devant
102,15,faire
103,15,là
104,15,te
105,15,tête
106,15,voir
107,14,abbé
108,14,eût
109,14,grande
110,14,puis
111,14,quelque
112,13,corps
113,13,fut
114,13,jour
115,13,monde
116,13,or
117,13,t
118,13,toujours
119,13,toute
120,12,aurais
121,12,cependant
122,12,fit
123,12,ils
124,12,jeune
125,12,mains
126,12,mort
127,12,peu
128,12,sang
129,12,tant
130,12,votre
131,12,âme
132,11,après
133,11,cœur
134,11,morte
135,11,ni
136,11,ombre
137,11,petite
138,11,sentais
139,11,ton
140,11,église
141,10,ah
142,10,aux
143,10,chose
144,10,esprit
145,10,fois
146,10,notre
147,10,palais
148,10,point
149,10,porte
150,10,presque
151,10,regard
152,10,romuald
153,10,rose
154,10,suis
155,9,beauté
156,9,cela
157,9,côté
158,9,faisait
159,9,jusqu
160,9,longtemps
161,9,malgré
162,9,mienne
163,9,pu
164,9,quand
165,9,tenait
166,9,trop
167,8,as
168,8,avaient
169,8,beau
170,8,belle
171,8,bout
172,8,chevaux
173,8,cheveux
174,8,enfin
175,8,homme
176,8,illusion
177,8,joie
178,8,leur
179,8,lèvres
180,8,matin
181,8,mouvement
182,8,pauvre
183,8,peine
184,8,personne
185,8,pouvais
186,8,quoique
187,8,seigneur
188,8,semblait
189,8,seul
190,8,vers
191,7,ainsi
192,7,assez
193,7,aucun
194,7,autres
195,7,bientôt
196,7,bouche
197,7,chemin
198,7,chien
199,7,complètement
200,7,croire
201,7,demi
202,7,entre
203,7,existence
204,7,figure
205,7,fis
206,7,instant
207,7,joues
208,7,leurs
209,7,noir
210,7,pendant
211,7,petit
212,7,pied
213,7,pierre
214,7,plutôt
215,7,prit
216,7,prunelles
217,7,rêve
218,7,sais
219,7,sommeil
220,7,terre
221,7,trois
222,7,vis
223,7,voyais
224,7,état
225,7,œil
226,6,aussitôt
227,6,barbara
228,6,blanche
229,6,blancheur
230,6,cet
231,6,charmante
232,6,cher
233,6,choses
234,6,ciel
235,6,coup
236,6,depuis
237,6,devais
238,6,donner
239,6,heure
240,6,jours
241,6,laisser
242,6,lampe
243,6,lanterne
244,6,lieu
245,6,long
246,6,malheureux
247,6,mille
248,6,mis
249,6,mit
250,6,moins
251,6,moment
252,6,mots
253,6,mère
254,6,nos
255,6,ont
256,6,paroles
257,6,perdre
258,6,poitrine
259,6,réalité
260,6,seule
261,6,tomber
262,6,travers
263,6,très
264,6,ville
265,5,amant
266,5,argent
267,5,auprès
268,5,ayant
269,5,baiser
270,5,celle
271,5,champ
272,5,chaque
273,5,château
274,5,cou
275,5,debout
276,5,demain
277,5,dire
278,5,effet
279,5,enfant
280,5,eusse
281,5,extrême
282,5,forme
283,5,front
284,5,goutte
285,5,gouttes
286,5,grands
287,5,habits
288,5,jeunes
289,5,loin
290,5,manière
291,5,marbre
292,5,minute
293,5,nuits
294,5,ouvrir
295,5,peau
296,5,peut
297,5,prendre
298,5,presbytère
299,5,pris
300,5,prières
301,5,pus
302,5,pâle
303,5,quel
304,5,quelle
305,5,regardais
306,5,rideaux
307,5,rouge
308,5,serais
309,5,seulement
310,5,suaire
311,5,sueur
312,5,toi
313,5,voix
314,5,vu
315,5,vue
316,5,éclat
317,5,étrange
318,5,étranges
319,5,évêque
320,4,adieu
321,4,aimais
322,4,aimé
323,4,alors
324,4,ans
325,4,arbres
326,4,aurait
327,4,aventure
328,4,boucles
329,4,cils
330,4,complaisance
331,4,courtisane
332,4,croyais
333,4,cure
334,4,curé
335,4,cérémonie
336,4,dernier
337,4,derrière
338,4,doigts
339,4,donné
340,4,doucement
341,4,démon
342,4,détails
343,4,entrer
344,4,eut
345,4,faisaient
346,4,faisais
347,4,faut
348,4,fenêtre
349,4,feuilles
350,4,fond
351,4,force
352,4,fort
353,4,frère
354,4,funèbre
355,4,gentilhomme
356,4,haut
357,4,heureux
358,4,idées
359,4,jeunesse
360,4,laissaient
361,4,larmes
362,4,longs
363,4,lorsque
364,4,léger
365,4,monter
366,4,noirs
367,4,nouvelle
368,4,paraissait
369,4,passé
370,4,petites
371,4,plein
372,4,pleine
373,4,plusieurs
374,4,position
375,4,poète
376,4,premier
377,4,prêt
378,4,répondis
379,4,savais
380,4,sein
381,4,sens
382,4,soir
383,4,soit
384,4,sombre
385,4,sont
386,4,souffle
387,4,souvenir
388,4,statue
389,4,séminaire
390,4,table
391,4,tard
392,4,trouble
393,4,velours
394,4,venait
395,4,venu
396,4,vert
397,4,veux
398,4,voilà
399,4,voulais
400,4,vrai
401,4,épaules
402,4,éprouvais
403,4,éteignit
404,3,aiguille
405,3,ailleurs
406,3,aimer
407,3,allais
408,3,aller
409,3,ancien
410,3,ange
411,3,aperçus
412,3,arriver
413,3,arrivâmes
414,3,attentivement
415,3,bas
416,3,basse
417,3,beaux
418,3,bois
419,3,bruit
420,3,calme
421,3,caractère
422,3,cauchemar
423,3,celui
424,3,cercueil
425,3,chaste
426,3,coin
427,3,comment
428,3,concini
429,3,connaissait
430,3,contre
431,3,courir
432,3,crois
433,3,dessus
434,3,diable
435,3,disais
436,3,dix
437,3,donc
438,3,douleur
439,3,doute
440,3,dès
441,3,déjà
442,3,elles
443,3,entendre
444,3,entièrement
445,3,entra
446,3,eu
447,3,expression
448,3,extraordinaire
449,3,faible
450,3,faisant
451,3,fallait
452,3,façon
453,3,femmes
454,3,feu
455,3,fils
456,3,fin
457,3,flamme
458,3,fleurs
459,3,frayeur
460,3,fumée
461,3,funèbres
462,3,furieux
463,3,fusse
464,3,fût
465,3,garde
466,3,glaciale
467,3,glisser
468,3,grand
469,3,grosses
470,3,habit
471,3,hasard
472,3,hommes
473,3,hâte
474,3,idée
475,3,inexplicable
476,3,inquiet
477,3,jardin
478,3,jeta
479,3,jetai
480,3,large
481,3,lentement
482,3,lumière
483,3,malin
484,3,maître
485,3,mettre
486,3,mieux
487,3,moindre
488,3,nature
489,3,non
490,3,oh
491,3,oublié
492,3,oui
493,3,page
494,3,parade
495,3,parfaite
496,3,parfaitement
497,3,partit
498,3,passer
499,3,pensée
500,3,physionomie
501,3,pioche
502,3,place
503,3,portail
504,3,portes
505,3,poudre
506,3,pourtant
507,3,première
508,3,près
509,3,puisque
510,3,puissance
511,3,quatre
512,3,quelles
513,3,quoi
514,3,quoiqu
515,3,raison
516,3,rayon
517,3,recommençait
518,3,reconnus
519,3,reflet
520,3,refuser
521,3,restai
522,3,retournai
523,3,retrouver
524,3,revenait
525,3,robe
526,3,roi
527,3,rosée
528,3,roulait
529,3,rues
530,3,ruisselait
531,3,réelles
532,3,répondit
533,3,santé
534,3,satan
535,3,scène
536,3,sentiment
537,3,signe
538,3,singulière
539,3,siècle
540,3,soleil
541,3,sourire
542,3,subitement
543,3,sévère
544,3,teint
545,3,telle
546,3,tendre
547,3,terrible
548,3,tombeau
549,3,tombeaux
550,3,toucher
551,3,touchée
552,3,transparence
553,3,traversaient
554,3,veille
555,3,venais
556,3,venir
557,3,veut
558,3,vieille
559,3,vient
560,3,vieux
561,3,vin
562,3,vint
563,3,voiles
564,3,volonté
565,3,voulait
566,3,voyage
567,3,vêtu
568,3,époux
569,2,abord
570,2,achevée
571,2,agilité
572,2,aile
573,2,ailes
574,2,aime
575,2,aimes
576,2,ait
577,2,ajouter
578,2,alla
579,2,allaient
580,2,allons
581,2,allure
582,2,allé
583,2,amants
584,2,an
585,2,angoisse
586,2,annoncer
587,2,arbre
588,2,ardeur
589,2,arracher
590,2,artères
591,2,attendre
592,2,attirer
593,2,aurai
594,2,aurore
595,2,autant
596,2,autel
597,2,autour
598,2,avant
599,2,avançait
600,2,avertir
601,2,avez
602,2,baissai
603,2,bel
604,2,belles
605,2,besoin
606,2,blanc
607,2,bleues
608,2,bleuâtre
609,2,blond
610,2,boire
611,2,bonheur
612,2,bonne
613,2,bordées
614,2,bride
615,2,brodée
616,2,brusquement
617,2,brûlante
618,2,bu
619,2,cadavres
620,2,causait
621,2,causer
622,2,cavaliers
623,2,celles
624,2,cellule
625,2,cerveau
626,2,changer
627,2,chargé
628,2,charmant
629,2,chasser
630,2,chasteté
631,2,cheval
632,2,chez
633,2,ci
634,2,cimetière
635,2,circonstance
636,2,circonstances
637,2,clairement
638,2,cléopâtre
639,2,coins
640,2,combien
641,2,compagnons
642,2,compris
643,2,conduit
644,2,coquetterie
645,2,coude
646,2,coulaient
647,2,couleur
648,2,coupable
649,2,coupe
650,2,couple
651,2,courant
652,2,course
653,2,coutume
654,2,couverte
655,2,couverture
656,2,crainte
657,2,cri
658,2,croisées
659,2,croix
660,2,crus
661,2,cuivré
662,2,dalle
663,2,dame
664,2,dedans
665,2,dehors
666,2,descendaient
667,2,descendre
668,2,deuil
669,2,devait
670,2,digne
671,2,dis
672,2,distance
673,2,distinctement
674,2,distinguait
675,2,distinguer
676,2,divines
677,2,doigt
678,2,dormais
679,2,dormir
680,2,dors
681,2,douceur
682,2,doutes
683,2,doux
684,2,drap
685,2,droite
686,2,défendre
687,2,dénoués
688,2,désormais
689,2,dû
690,2,effort
691,2,efforts
692,2,effroyable
693,2,empêcher
694,2,endroit
695,2,enfer
696,2,entourait
697,2,entrâmes
698,2,entrée
699,2,enveloppée
700,2,espèce
701,2,essayer
702,2,eus
703,2,exactitude
704,2,expliquer
705,2,faite
706,2,faites
707,2,fallu
708,2,famille
709,2,fanée
710,2,fascination
711,2,fat
712,2,fatal
713,2,fer
714,2,ferai
715,2,ferais
716,2,fermées
717,2,ferveur
718,2,fiancé
719,2,fier
720,2,fille
721,2,finesse
722,2,firent
723,2,fisse
724,2,fixé
725,2,flanc
726,2,flots
727,2,formes
728,2,franchir
729,2,frisson
730,2,froid
731,2,froide
732,2,fussent
733,2,galop
734,2,genoux
735,2,gens
736,2,glissa
737,2,gorgées
738,2,gouvernante
739,2,grandes
740,2,griffe
741,2,grès
742,2,haute
743,2,hautes
744,2,hauteur
745,2,herbes
746,2,heures
747,2,hier
748,2,histoire
749,2,honte
750,2,horreur
751,2,huit
752,2,humain
753,2,ici
754,2,idéale
755,2,immenses
756,2,impatience
757,2,impossible
758,2,impression
759,2,inconnu
760,2,inconnues
761,2,ineffable
762,2,inexprimable
763,2,infinie
764,2,insensible
765,2,insensé
766,2,intérieur
767,2,irrévocable
768,2,ivoire
769,2,jeté
770,2,jeu
771,2,jointes
772,2,jouet
773,2,jusque
774,2,laissais
775,2,laissait
776,2,laissant
777,2,laissé
778,2,langue
779,2,lendemain
780,2,lever
781,2,levé
782,2,libre
783,2,lignes
784,2,lin
785,2,linceul
786,2,livrée
787,2,lorsqu
788,2,lueur
789,2,lune
790,2,légère
791,2,légèrement
792,2,magnificence
793,2,mal
794,2,malheureuse
795,2,maîtresse
796,2,mer
797,2,met
798,2,meuble
799,2,milieu
800,2,ministère
801,2,minutes
802,2,miroir
803,2,missel
804,2,moindres
805,2,moitié
806,2,montrant
807,2,mourir
808,2,mourrai
809,2,murs
810,2,méditez
811,2,mémoire
812,2,noble
813,2,nocturne
814,2,noire
815,2,nom
816,2,nu
817,2,nègre
818,2,néant
819,2,objet
820,2,objets
821,2,onction
822,2,opaque
823,2,ordination
824,2,orné
825,2,ose
826,2,ouvert
827,2,ouvrage
828,2,palier
829,2,paradis
830,2,parasites
831,2,pareil
832,2,parfait
833,2,partons
834,2,passa
835,2,passait
836,2,passe
837,2,pauvres
838,2,penchant
839,2,pensées
840,2,perles
841,2,peur
842,2,peuvent
843,2,pieds
844,2,pieux
845,2,piliers
846,2,pièces
847,2,plaie
848,2,plaisir
849,2,pleuvoir
850,2,plis
851,2,plomb
852,2,plumes
853,2,poids
854,2,portait
855,2,porter
856,2,poules
857,2,pourpre
858,2,pourrai
859,2,poussière
860,2,pouvait
861,2,pouvoir
862,2,prenant
863,2,prenez
864,2,prince
865,2,prière
866,2,profondément
867,2,prononcer
868,2,présence
869,2,présents
870,2,pusse
871,2,pâleur
872,2,père
873,2,pénétrait
874,2,quant
875,2,queue
876,2,ramené
877,2,rapport
878,2,rayons
879,2,refusé
880,2,regarda
881,2,regardait
882,2,regards
883,2,reine
884,2,remèdes
885,2,rendre
886,2,rentrer
887,2,repos
888,2,repris
889,2,ressemblait
890,2,ressortir
891,2,resta
892,2,resté
893,2,revenu
894,2,revis
895,2,revoir
896,2,revêtu
897,2,riche
898,2,rouges
899,2,route
900,2,royale
901,2,rêvais
902,2,rêvait
903,2,sable
904,2,saint
905,2,sainte
906,2,salle
907,2,satin
908,2,sauta
909,2,sauter
910,2,sauvage
911,2,savait
912,2,savent
913,2,seconde
914,2,selon
915,2,sembla
916,2,semblable
917,2,sentis
918,2,sera
919,2,seras
920,2,serez
921,2,service
922,2,seuil
923,2,silence
924,2,singularité
925,2,singulier
926,2,songeais
927,2,sortait
928,2,sorte
929,2,sortir
930,2,soulevai
931,2,soupir
932,2,souriait
933,2,soyez
934,2,spectacle
935,2,suite
936,2,suivre
937,2,séminariste
938,2,taille
939,2,tantôt
940,2,tempes
941,2,tenté
942,2,terrasse
943,2,terribles
944,2,tint
945,2,tiède
946,2,toits
947,2,tomba
948,2,tombai
949,2,tombe
950,2,tombèrent
951,2,tombé
952,2,toucha
953,2,touchait
954,2,touché
955,2,tour
956,2,tourbillon
957,2,tours
958,2,triste
959,2,tristes
960,2,trouver
961,2,trouvâmes
962,2,tuer
963,2,unique
964,2,vampire
965,2,vapeur
966,2,veiller
967,2,veines
968,2,venaient
969,2,venise
970,2,vent
971,2,vieil
972,2,viens
973,2,vif
974,2,village
975,2,vingt
976,2,vision
977,2,vite
978,2,vivacité
979,2,vivais
980,2,voile
981,2,volupté
982,2,voulu
983,2,voyant
984,2,voûtes
985,2,vues
986,2,vus
987,2,vêtement
988,2,vêtue
989,2,vîmes
990,2,âmes
991,2,çà
992,2,ève
993,2,échappait
994,2,éclatante
995,2,écuyer
996,2,éprouvé
997,2,éternité
998,2,étrangeté
999,2,éveiller
1000,2,éveillé
1001,2,évidemment
1002,2,événements
1003,2,êtes
1004,2,ô
1005,2,œuvre
1006,1,abandonna
1007,1,abandonné
1008,1,abattre
1009,1,aboi
1010,1,abominable
1011,1,abominations
1012,1,aboutir
1013,1,absorbé
1014,1,absurde
1015,1,abîme
1016,1,acceptai
1017,1,accompagnait
1018,1,accomplissait
1019,1,accomplissement
1020,1,accord
1021,1,accourir
1022,1,accouru
1023,1,accoutumé
1024,1,accoutumées
1025,1,accroupie
1026,1,achetée
1027,1,achever
1028,1,achevé
1029,1,action
1030,1,acérées
1031,1,admettre
1032,1,admirablement
1033,1,admirais
1034,1,admiration
1035,1,adorables
1036,1,affaisse
1037,1,affection
1038,1,affermies
1039,1,affreusement
1040,1,agate
1041,1,agaçant
1042,1,agenouillai
1043,1,agenouiller
1044,1,agita
1045,1,agitait
1046,1,agitation
1047,1,agitations
1048,1,agiter
1049,1,agitez
1050,1,agité
1051,1,agités
1052,1,agonie
1053,1,agonisant
1054,1,aida
1055,1,aide
1056,1,aider
1057,1,aigrettes
1058,1,aille
1059,1,aimée
1060,1,aisance
1061,1,ajoutait
1062,1,ajustement
1063,1,albâtre
1064,1,alcôve
1065,1,allait
1066,1,allongea
1067,1,allongée
1068,1,allusion
1069,1,allée
1070,1,allées
1071,1,aloès
1072,1,ambition
1073,1,amer
1074,1,ami
1075,1,amorti
1076,1,amortissait
1077,1,amoureuse
1078,1,amoureux
1079,1,ancienne
1080,1,anges
1081,1,angélique
1082,1,animale
1083,1,anneaux
1084,1,années
1085,1,anomalie
1086,1,antique
1087,1,anxiété
1088,1,aperçu
1089,1,aplatissaient
1090,1,apparaissait
1091,1,apparemment
1092,1,apparence
1093,1,appelait
1094,1,appesantirai
1095,1,appesantit
1096,1,appliqua
1097,1,appliquât
1098,1,apporté
1099,1,approcha
1100,1,approchent
1101,1,approcher
1102,1,appréhension
1103,1,appui
1104,1,appuya
1105,1,appuyait
1106,1,appuyant
1107,1,apôtre
1108,1,apôtres
1109,1,arcades
1110,1,architecture
1111,1,architectures
1112,1,arcs
1113,1,ardent
1114,1,argentine
1115,1,aride
1116,1,aridité
1117,1,armée
1118,1,aronde
1119,1,arrachaient
1120,1,arrachait
1121,1,arrive
1122,1,arrivent
1123,1,arriverons
1124,1,arrivé
1125,1,arrivée
1126,1,arrivés
1127,1,arrière
1128,1,arrêta
1129,1,arrêtais
1130,1,arrêtant
1131,1,arrêter
1132,1,article
1133,1,articulées
1134,1,artifices
1135,1,arête
1136,1,aspect
1137,1,aspergea
1138,1,assaut
1139,1,assis
1140,1,assise
1141,1,assit
1142,1,assiégeaient
1143,1,assoupissement
1144,1,assurée
1145,1,assurément
1146,1,atteindre
1147,1,attelée
1148,1,attendaient
1149,1,attendais
1150,1,attendait
1151,1,attendis
1152,1,attendu
1153,1,attente
1154,1,attention
1155,1,atterré
1156,1,attitude
1157,1,attiédi
1158,1,attribuait
1159,1,aube
1160,1,aucune
1161,1,aumône
1162,1,aunes
1163,1,auquel
1164,1,auraient
1165,1,austères
1166,1,autrefois
1167,1,avalait
1168,1,avance
1169,1,avança
1170,1,avare
1171,1,aveugle
1172,1,aveuglement
1173,1,avions
1174,1,avis
1175,1,avoine
1176,1,avons
1177,1,avoue
1178,1,avouerai
1179,1,avoué
1180,1,babil
1181,1,baigneuse
1182,1,baisai
1183,1,baisais
1184,1,baisait
1185,1,baise
1186,1,baissés
1187,1,balcons
1188,1,balthazar
1189,1,balustrade
1190,1,bandelette
1191,1,barbe
1192,1,barcarolles
1193,1,barreaux
1194,1,basanés
1195,1,battait
1196,1,battement
1197,1,beautés
1198,1,belzébuth
1199,1,berceau
1200,1,bicéphale
1201,1,bizarre
1202,1,bizarrement
1203,1,bizarres
1204,1,blanches
1205,1,blancs
1206,1,blasphème
1207,1,blasphémant
1208,1,blessure
1209,1,bleu
1210,1,bleue
1211,1,bleus
1212,1,bloc
1213,1,blondes
1214,1,blonds
1215,1,bon
1216,1,bord
1217,1,bordé
1218,1,bosquet
1219,1,bouclier
1220,1,bouger
1221,1,bracelets
1222,1,brillaient
1223,1,brillait
1224,1,brillant
1225,1,brillante
1226,1,brillants
1227,1,brillèrent
1228,1,brisé
1229,1,brièvement
1230,1,bronze
1231,1,bruits
1232,1,brune
1233,1,bruns
1234,1,bruyante
1235,1,bruyants
1236,1,buis
1237,1,buvant
1238,1,buveuse
1239,1,bénite
1240,1,bénédiction
1241,1,bête
1242,1,bêtes
1243,1,ca
1244,1,cache
1245,1,cacher
1246,1,caché
1247,1,cachée
1248,1,cadavre
1249,1,cadavéreux
1250,1,cailloux
1251,1,calcinés
1252,1,calculé
1253,1,calice
1254,1,calvaire
1255,1,camarades
1256,1,campagne
1257,1,campagnes
1258,1,caméléon
1259,1,canaleio
1260,1,canne
1261,1,capricieusement
1262,1,cardinal
1263,1,caressant
1264,1,caresses
1265,1,catéchumènes
1266,1,cause
1267,1,ceci
1268,1,cendre
1269,1,cendres
1270,1,cent
1271,1,centuple
1272,1,certaine
1273,1,certainement
1274,1,certitude
1275,1,ceux
1276,1,chacun
1277,1,chair
1278,1,chairs
1279,1,chancelant
1280,1,chandeliers
1281,1,changeait
1282,1,changeante
1283,1,changement
1284,1,chant
1285,1,chantant
1286,1,chape
1287,1,chapeau
1288,1,char
1289,1,chargées
1290,1,charmille
1291,1,chat
1292,1,chatouillée
1293,1,chats
1294,1,chaumières
1295,1,chaîne
1296,1,chaînes
1297,1,cherchais
1298,1,chercher
1299,1,chiens
1300,1,choucas
1301,1,christ
1302,1,chrysoprases
1303,1,chèrement
1304,1,cicatrisa
1305,1,cierges
1306,1,circuler
1307,1,cirée
1308,1,ciselée
1309,1,ciselés
1310,1,claire
1311,1,clairvoyance
1312,1,clignait
1313,1,clocher
1314,1,clouée
1315,1,cloître
1316,1,coiffures
1317,1,col
1318,1,colline
1319,1,collège
1320,1,colonnes
1321,1,combattez
1322,1,combles
1323,1,commencement
1324,1,commença
1325,1,commençai
1326,1,commençais
1327,1,commençait
1328,1,commençâmes
1329,1,commettre
1330,1,commise
1331,1,commissures
1332,1,commune
1333,1,communication
1334,1,communion
1335,1,compagnie
1336,1,compensation
1337,1,compliquée
1338,1,complète
1339,1,comprenais
1340,1,comprimée
1341,1,comptais
1342,1,compte
1343,1,comptent
1344,1,compté
1345,1,concernait
1346,1,concert
1347,1,concevait
1348,1,conclut
1349,1,conducteur
1350,1,conduisit
1351,1,conduite
1352,1,confirmer
1353,1,confondait
1354,1,confondirent
1355,1,confondues
1356,1,confondus
1357,1,confusément
1358,1,conjectures
1359,1,connais
1360,1,connaissais
1361,1,connaissance
1362,1,connaissances
1363,1,connaissant
1364,1,connaisseur
1365,1,connue
1366,1,consacrer
1367,1,consacré
1368,1,conseil
1369,1,conservé
1370,1,considérait
1371,1,considérer
1372,1,consoler
1373,1,construction
1374,1,constructions
1375,1,contemplation
1376,1,contenance
1377,1,content
1378,1,contente
1379,1,contenu
1380,1,conter
1381,1,continua
1382,1,contournées
1383,1,contours
1384,1,contraire
1385,1,contreforts
1386,1,conté
1387,1,conversation
1388,1,convives
1389,1,coq
1390,1,cornes
1391,1,corniche
1392,1,corrigeait
1393,1,costume
1394,1,couchai
1395,1,coucher
1396,1,couchette
1397,1,couché
1398,1,couchée
1399,1,coulait
1400,1,coulera
1401,1,couleurs
1402,1,couleuvre
1403,1,coupant
1404,1,coupelle
1405,1,coupole
1406,1,cour
1407,1,courbé
1408,1,cours
1409,1,courtils
1410,1,couru
1411,1,couvais
1412,1,couvercle
1413,1,couvrait
1414,1,coïncidence
1415,1,craignis
1416,1,craint
1417,1,craintes
1418,1,cravache
1419,1,creusaient
1420,1,crever
1421,1,crier
1422,1,crinière
1423,1,cristal
1424,1,croient
1425,1,croisée
1426,1,croisés
1427,1,crusse
1428,1,créature
1429,1,cuirasse
1430,1,curiosité
1431,1,cygne
1432,1,cyprès
1433,1,cède
1434,1,céda
1435,1,célébrité
1436,1,côtés
1437,1,cœurs
1438,1,damas
1439,1,damner
1440,1,damné
1441,1,dataient
1442,1,dater
1443,1,degré
1444,1,delà
1445,1,demanda
1446,1,demandai
1447,1,demandant
1448,1,demandez
1449,1,demeurai
1450,1,demeure
1451,1,dents
1452,1,dernière
1453,1,dernièrement
1454,1,dernières
1455,1,desceller
1456,1,descendis
1457,1,description
1458,1,desservir
1459,1,dessina
1460,1,dessinait
1461,1,dessous
1462,1,destinée
1463,1,devaient
1464,1,devenais
1465,1,devenait
1466,1,devenue
1467,1,deviendrait
1468,1,devins
1469,1,devint
1470,1,devoirs
1471,1,devrait
1472,1,devrions
1473,1,diabolique
1474,1,diadème
1475,1,diaphanes
1476,1,difficile
1477,1,difficultés
1478,1,différente
1479,1,différents
1480,1,dirait
1481,1,dirigeai
1482,1,dirigeaient
1483,1,dirigeais
1484,1,dirigeâmes
1485,1,dirigées
1486,1,disait
1487,1,disant
1488,1,discours
1489,1,disparut
1490,1,disposition
1491,1,disposé
1492,1,dissemblable
1493,1,dissipa
1494,1,dissipation
1495,1,dissipée
1496,1,dissolutions
1497,1,distraction
1498,1,dits
1499,1,divin
1500,1,doge
1501,1,dois
1502,1,domestiques
1503,1,donna
1504,1,donnaient
1505,1,donnait
1506,1,donnant
1507,1,donne
1508,1,dormeur
1509,1,dormiras
1510,1,doré
1511,1,dorée
1512,1,dos
1513,1,double
1514,1,doublées
1515,1,douce
1516,1,douleurs
1517,1,douloureusement
1518,1,douteux
1519,1,douze
1520,1,douée
1521,1,draperie
1522,1,dressa
1523,1,droits
1524,1,dupe
1525,1,dur
1526,1,durement
1527,1,durer
1528,1,duré
1529,1,duvet
1530,1,débarrasser
1531,1,débarrassée
1532,1,débauches
1533,1,débordaient
1534,1,déborde
1535,1,débouchaient
1536,1,décelait
1537,1,déchiffrâmes
1538,1,déchire
1539,1,déchirer
1540,1,décida
1541,1,décidaient
1542,1,décidé
1543,1,décidées
1544,1,décisive
1545,1,décolorée
1546,1,découpant
1547,1,découpés
1548,1,découragement
1549,1,découragez
1550,1,découvert
1551,1,découvertes
1552,1,découvrit
1553,1,décrivait
1554,1,décroisant
1555,1,dédain
1556,1,dédale
1557,1,dédoublée
1558,1,déesse
1559,1,défaites
1560,1,défonça
1561,1,dégagaient
1562,1,dégradation
1563,1,déguisements
1564,1,déjeunais
1565,1,délicatesse
1566,1,délirantes
1567,1,délire
1568,1,démons
1569,1,démontrât
1570,1,démêler
1571,1,départ
1572,1,dépend
1573,1,déposer
1574,1,dépouille
1575,1,dépouilles
1576,1,dépérir
1577,1,déranger
1578,1,dérangèrent
1579,1,dérisoire
1580,1,déroba
1581,1,dérobaient
1582,1,dérobait
1583,1,déroute
1584,1,dés
1585,1,désespoir
1586,1,désespéré
1587,1,déshonorés
1588,1,désignât
1589,1,désirait
1590,1,désirs
1591,1,désolais
1592,1,désolent
1593,1,désoler
1594,1,détacha
1595,1,détachait
1596,1,détachée
1597,1,déterminé
1598,1,déterrions
1599,1,détestait
1600,1,détour
1601,1,détourner
1602,1,détourné
1603,1,détruisirent
1604,1,dévorait
1605,1,dévorions
1606,1,dévoré
1607,1,dévorée
1608,1,eau
1609,1,ecclésiastiques
1610,1,effacèrent
1611,1,effarouchèrent
1612,1,efficace
1613,1,effilés
1614,1,effleura
1615,1,effleuré
1616,1,effrayante
1617,1,effrayez
1618,1,effroi
1619,1,effroyables
1620,1,eh
1621,1,embarrassé
1622,1,embrasser
1623,1,emmena
1624,1,emmènerai
1625,1,empara
1626,1,emparé
1627,1,emparée
1628,1,empereur
1629,1,emperlée
1630,1,employer
1631,1,employée
1632,1,emportant
1633,1,emporté
1634,1,empreinte
1635,1,empressement
1636,1,empêchait
1637,1,enchevêtra
1638,1,enchevêtrées
1639,1,enclos
1640,1,encourager
1641,1,endormais
1642,1,endormie
1643,1,endormis
1644,1,enfance
1645,1,enfantillage
1646,1,enfle
1647,1,enfuyaient
1648,1,engagement
1649,1,engourdi
1650,1,enivrait
1651,1,enlaçant
1652,1,ennemi
1653,1,ennuient
1654,1,enraciné
1655,1,enroué
1656,1,ensuite
1657,1,entaille
1658,1,entendaient
1659,1,entendait
1660,1,entendant
1661,1,entendis
1662,1,entendu
1663,1,enterrée
1664,1,entières
1665,1,entoura
1666,1,entouré
1667,1,entrain
1668,1,entrant
1669,1,entraîna
1670,1,entrecoupées
1671,1,entrevis
1672,1,entrevoir
1673,1,entré
1674,1,envahissait
1675,1,envelopper
1676,1,enveloppé
1677,1,environs
1678,1,envié
1679,1,envola
1680,1,envoyaient
1681,1,es
1682,1,esclaves
1683,1,escrocs
1684,1,espace
1685,1,espagne
1686,1,espèces
1687,1,espérance
1688,1,essayai
1689,1,essayais
1690,1,essayé
1691,1,essences
1692,1,essouffler
1693,1,estrade
1694,1,eue
1695,1,eussent
1696,1,eussiez
1697,1,eux
1698,1,exagérées
1699,1,exception
1700,1,excès
1701,1,exerçait
1702,1,exhortant
1703,1,exhortations
1704,1,existences
1705,1,existât
1706,1,expérience
1707,1,exquise
1708,1,extase
1709,1,extravagances
1710,1,extravagantes
1711,1,extérieurs
1712,1,exécute
1713,1,fabuleuse
1714,1,faces
1715,1,facilité
1716,1,factice
1717,1,faiblir
1718,1,fais
1719,1,fameuse
1720,1,fatale
1721,1,fatigantes
1722,1,fatigué
1723,1,faudra
1724,1,faute
1725,1,fauteuils
1726,1,fauve
1727,1,favorites
1728,1,façade
1729,1,feignis
1730,1,feinte
1731,1,femelle
1732,1,fenêtres
1733,1,fera
1734,1,fermai
1735,1,fermant
1736,1,ferme
1737,1,fermer
1738,1,fermoir
1739,1,fermé
1740,1,fermée
1741,1,ferré
1742,1,fers
1743,1,festins
1744,1,feuille
1745,1,feutre
1746,1,feux
1747,1,fiancée
1748,1,fiancés
1749,1,fidèle
1750,1,fidèles
1751,1,fierté
1752,1,figurais
1753,1,fil
1754,1,filait
1755,1,filets
1756,1,filigrane
1757,1,filles
1758,1,fini
1759,1,finir
1760,1,finira
1761,1,finis
1762,1,finissait
1763,1,fixait
1764,1,fixés
1765,1,fiévreuse
1766,1,flancs
1767,1,flattai
1768,1,fleurir
1769,1,fleuves
1770,1,flocons
1771,1,flèche
1772,1,flèches
1773,1,fléchissaient
1774,1,folie
1775,1,folle
1776,1,follement
1777,1,follets
1778,1,fonctions
1779,1,forces
1780,1,formait
1781,1,formalités
1782,1,forêt
1783,1,foscari
1784,1,fossettes
1785,1,fou
1786,1,fouetter
1787,1,foule
1788,1,fraise
1789,1,frange
1790,1,frappa
1791,1,fraîcheur
1792,1,frein
1793,1,fresques
1794,1,frissonnant
1795,1,frissons
1796,1,froides
1797,1,frotté
1798,1,fruit
1799,1,frétilla
1800,1,frôler
1801,1,fumées
1802,1,furent
1803,1,fureur
1804,1,furie
1805,1,furieusement
1806,1,fus
1807,1,fusine
1808,1,fébrile
1809,1,fécondées
1810,1,féerique
1811,1,féroce
1812,1,fétide
1813,1,gagna
1814,1,gaie
1815,1,gaieté
1816,1,gala
1817,1,ganses
1818,1,gant
1819,1,garder
1820,1,garderais
1821,1,gardé
1822,1,gardées
1823,1,gauche
1824,1,gaucherie
1825,1,genets
1826,1,genre
1827,1,girouettes
1828,1,gisement
1829,1,glace
1830,1,glacial
1831,1,glacée
1832,1,glaives
1833,1,glapissaient
1834,1,gondole
1835,1,gorge
1836,1,gosier
1837,1,goule
1838,1,goupillon
1839,1,gourmet
1840,1,gracieuse
1841,1,grains
1842,1,grave
1843,1,gravir
1844,1,griffes
1845,1,gris
1846,1,grise
1847,1,grossière
1848,1,grossièrement
1849,1,groupe
1850,1,grâce
1851,1,gueule
1852,1,guides
1853,1,guttural
1854,1,guérir
1855,1,gémissements
1856,1,générale
1857,1,gênait
1858,1,habile
1859,1,habillai
1860,1,habillez
1861,1,habitait
1862,1,habitants
1863,1,habitions
1864,1,habitude
1865,1,habituelles
1866,1,haine
1867,1,haleine
1868,1,haletait
1869,1,hallucinations
1870,1,harpe
1871,1,hermine
1872,1,heureuse
1873,1,heurta
1874,1,hiboux
1875,1,histoires
1876,1,hochant
1877,1,honteuse
1878,1,hors
1879,1,hosties
1880,1,huile
1881,1,humaine
1882,1,humanité
1883,1,humble
1884,1,humide
1885,1,hypocritement
1886,1,hélas
1887,1,hésitation
1888,1,ignorais
1889,1,ignorée
1890,1,illuminait
1891,1,imaginais
1892,1,imagination
1893,1,imbécile
1894,1,immobile
1895,1,immobilité
1896,1,immonde
1897,1,impassible
1898,1,imperceptible
1899,1,impose
1900,1,impossibilité
1901,1,imprimait
1902,1,improviste
1903,1,imprudent
1904,1,impudique
1905,1,impuissance
1906,1,impures
1907,1,incapable
1908,1,incertitude
1909,1,inclinée
1910,1,inconnue
1911,1,inconnus
1912,1,inconsolable
1913,1,inconstance
1914,1,indestructiblement
1915,1,indicible
1916,1,indiquant
1917,1,indispensables
1918,1,inexorable
1919,1,inextricable
1920,1,infernalement
1921,1,infidélité
1922,1,infiltre
1923,1,infirme
1924,1,inflexion
1925,1,influence
1926,1,informe
1927,1,infortuné
1928,1,innocence
1929,1,inondé
1930,1,inquisiteur
1931,1,inquiétude
1932,1,inquiétés
1933,1,inscription
1934,1,inscriptions
1935,1,insignifiants
1936,1,insolent
1937,1,insoutenables
1938,1,inspira
1939,1,installation
1940,1,installer
1941,1,intention
1942,1,interrompait
1943,1,interstice
1944,1,intérieures
1945,1,intérêt
1946,1,inutile
1947,1,inventer
1948,1,invisible
1949,1,inviter
1950,1,involontaire
1951,1,involontairement
1952,1,involontaires
1953,1,ironique
1954,1,irrité
1955,1,jalouse
1956,1,jalouseront
1957,1,jalousie
1958,1,jambes
1959,1,jappa
1960,1,jaune
1961,1,jaunes
1962,1,jetait
1963,1,jetant
1964,1,jeter
1965,1,jetèrent
1966,1,jeun
1967,1,jeûnant
1968,1,jeûnez
1969,1,job
1970,1,jolie
1971,1,jouaient
1972,1,jouais
1973,1,jouait
1974,1,jouant
1975,1,joueraient
1976,1,jouissais
1977,1,journée
1978,1,journées
1979,1,jugement
1980,1,jugèrent
1981,1,juments
1982,1,jupe
1983,1,jéhovah
1984,1,lac
1985,1,laisseras
1986,1,lait
1987,1,laiteuse
1988,1,lames
1989,1,langage
1990,1,langoureuse
1991,1,languissante
1992,1,lança
1993,1,larges
1994,1,lassitude
1995,1,lectures
1996,1,lents
1997,1,lequel
1998,1,lesquels
1999,1,leste
2000,1,lettre
2001,1,levai
2002,1,levez
2003,1,levier
2004,1,levée
2005,1,libertin
2006,1,lido
2007,1,lieue
2008,1,lieues
2009,1,lieux
2010,1,limpidité
2011,1,linceuls
2012,1,lion
2013,1,lire
2014,1,litière
2015,1,livide
2016,1,liée
2017,1,lointain
2018,1,loisir
2019,1,longue
2020,1,lors
2021,1,loup
2022,1,lourdement
2023,1,lucidité
2024,1,luisants
2025,1,lumières
2026,1,lustrée
2027,1,luttant
2028,1,lutte
2029,1,luxe
2030,1,lâcha
2031,1,léchait
2032,1,machinalement
2033,1,macérant
2034,1,macération
2035,1,madone
2036,1,magique
2037,1,magnifiques
2038,1,mai
2039,1,maigres
2040,1,maintenant
2041,1,maintint
2042,1,maison
2043,1,majordome
2044,1,malade
2045,1,malades
2046,1,maladie
2047,1,manche
2048,1,manches
2049,1,mandé
2050,1,manuscrit
2051,1,marchai
2052,1,marchais
2053,1,marchandais
2054,1,marchent
2055,1,marcher
2056,1,marchez
2057,1,margheritone
2058,1,marque
2059,1,martyre
2060,1,masque
2061,1,masse
2062,1,massif
2063,1,mate
2064,1,mater
2065,1,maternelle
2066,1,maudit
2067,1,mauvais
2068,1,mauvaises
2069,1,maux
2070,1,maîtresses
2071,1,meilleur
2072,1,meilleure
2073,1,membres
2074,1,menais
2075,1,menton
2076,1,mené
2077,1,messe
2078,1,mesure
2079,1,mesures
2080,1,meure
2081,1,meurtri
2082,1,mielleux
2083,1,mien
2084,1,minuit
2085,1,miracle
2086,1,mission
2087,1,misères
2088,1,misérable
2089,1,misérables
2090,1,mobile
2091,1,mobilier
2092,1,mode
2093,1,moite
2094,1,mollesse
2095,1,moments
2096,1,monceau
2097,1,mondain
2098,1,monseigneur
2099,1,monta
2100,1,montagne
2101,1,montaient
2102,1,montait
2103,1,montrer
2104,1,montueuse
2105,1,monture
2106,1,montures
2107,1,montâmes
2108,1,mordant
2109,1,mornes
2110,1,mortes
2111,1,mortifications
2112,1,mortifier
2113,1,mot
2114,1,mourants
2115,1,mousses
2116,1,moustache
2117,1,mouvements
2118,1,moyen
2119,1,muette
2120,1,muguets
2121,1,mule
2122,1,mules
2123,1,munit
2124,1,murailles
2125,1,murmurer
2126,1,muscles
2127,1,musique
2128,1,mènerons
2129,1,mères
2130,1,mécontentement
2131,1,médecins
2132,1,mélancolique
2133,1,mélange
2134,1,ménagé
2135,1,métamorphose
2136,1,mêla
2137,1,mêlées
2138,1,nacarat
2139,1,nageait
2140,1,naissants
2141,1,narcotique
2142,1,narines
2143,1,naturel
2144,1,navré
2145,1,naître
2146,1,neigé
2147,1,nervures
2148,1,nettes
2149,1,nez
2150,1,nobles
2151,1,noires
2152,1,nombre
2153,1,nomination
2154,1,nommer
2155,1,nonchalante
2156,1,nouvel
2157,1,nouvelles
2158,1,novices
2159,1,noviciat
2160,1,noyées
2161,1,nuage
2162,1,nuages
2163,1,nuance
2164,1,nudité
2165,1,nue
2166,1,nus
2167,1,né
2168,1,nécessaire
2169,1,nécessités
2170,1,négatif
2171,1,nés
2172,1,oblongue
2173,1,obscurité
2174,1,observa
2175,1,obsession
2176,1,obstrués
2177,1,obséder
2178,1,occulte
2179,1,occuper
2180,1,occupé
2181,1,océan
2182,1,odeur
2183,1,odorantes
2184,1,offert
2185,1,office
2186,1,offrir
2187,1,ondoyantes
2188,1,ondulation
2189,1,onduleuses
2190,1,onduleux
2191,1,onguent
2192,1,optique
2193,1,opéré
2194,1,ordinaire
2195,1,ordre
2196,1,ordres
2197,1,oreille
2198,1,oreiller
2199,1,orgie
2200,1,orgueilleux
2201,1,orient
2202,1,orientales
2203,1,origine
2204,1,os
2205,1,osais
2206,1,oser
2207,1,oserai
2208,1,oubliais
2209,1,oublier
2210,1,outre
2211,1,ouverte
2212,1,ouvertes
2213,1,ouvraient
2214,1,ouvrait
2215,1,ouvrant
2216,1,ouvrirent
2217,1,ouvris
2218,1,pacte
2219,1,paix
2220,1,palette
2221,1,palpables
2222,1,palpita
2223,1,palpitaient
2224,1,paon
2225,1,pape
2226,1,papilloter
2227,1,paquet
2228,1,parcourant
2229,1,pareille
2230,1,pareilles
2231,1,pareils
2232,1,parlant
2233,1,parmi
2234,1,parole
2235,1,participasse
2236,1,partir
2237,1,partout
2238,1,parurent
2239,1,parut
2240,1,parvenais
2241,1,parvenir
2242,1,parvenu
2243,1,passablement
2244,1,passage
2245,1,passai
2246,1,passaient
2247,1,passais
2248,1,passerai
2249,1,passions
2250,1,passâmes
2251,1,passée
2252,1,patriciennes
2253,1,patriciens
2254,1,patron
2255,1,patère
2256,1,paume
2257,1,paumes
2258,1,paupière
2259,1,paupières
2260,1,pavillon
2261,1,pays
2262,1,peignit
2263,1,peintre
2264,1,peintres
2265,1,penchai
2266,1,penché
2267,1,pensa
2268,1,pensai
2269,1,penser
2270,1,pensive
2271,1,perceptions
2272,1,perchés
2273,1,perdais
2274,1,perdu
2275,1,perfection
2276,1,perfide
2277,1,perfides
2278,1,perler
2279,1,permettait
2280,1,perrons
2281,1,personnage
2282,1,personnes
2283,1,perspectives
2284,1,persuader
2285,1,perte
2286,1,pesamment
2287,1,peser
2288,1,petits
2289,1,phosphorique
2290,1,phosphoriques
2291,1,phrases
2292,1,piaffaient
2293,1,piaulaient
2294,1,picotaient
2295,1,pilier
2296,1,pimpante
2297,1,pince
2298,1,piquer
2299,1,piquée
2300,1,piqûre
2301,1,piteusement
2302,1,pitié
2303,1,pitoyable
2304,1,piège
2305,1,piété
2306,1,plaine
2307,1,plaintifs
2308,1,plaire
2309,1,plaisais
2310,1,plancher
2311,1,planches
2312,1,plantes
2313,1,plantureuses
2314,1,plates
2315,1,pleurais
2316,1,pleurait
2317,1,pli
2318,1,plongeait
2319,1,plonger
2320,1,ployée
2321,1,poche
2322,1,poignante
2323,1,poignard
2324,1,poil
2325,1,poindre
2326,1,points
2327,1,poitrail
2328,1,poli
2329,1,pommeau
2330,1,pomper
2331,1,porche
2332,1,port
2333,1,portefeuille
2334,1,portrait
2335,1,porté
2336,1,posa
2337,1,posai
2338,1,posant
2339,1,possible
2340,1,possédait
2341,1,postillons
2342,1,potelés
2343,1,poudres
2344,1,pourpres
2345,1,pourprée
2346,1,pourquoi
2347,1,pourrais
2348,1,pourrait
2349,1,poursuivant
2350,1,pourvu
2351,1,poussa
2352,1,poussait
2353,1,poussiéreuses
2354,1,poussé
2355,1,poussée
2356,1,poème
2357,1,premiers
2358,1,premières
2359,1,prendrai
2360,1,prennent
2361,1,prescrivirent
2362,1,pressaient
2363,1,presser
2364,1,pression
2365,1,pressé
2366,1,pressée
2367,1,preuve
2368,1,priant
2369,1,prie
2370,1,priez
2371,1,printemps
2372,1,prises
2373,1,prisme
2374,1,prison
2375,1,prisse
2376,1,prix
2377,1,prié
2378,1,proche
2379,1,prodige
2380,1,produit
2381,1,profanateurs
2382,1,profit
2383,1,profitant
2384,1,profonde
2385,1,profondes
2386,1,proférer
2387,1,progrès
2388,1,projet
2389,1,prolongeait
2390,1,promenant
2391,1,promener
2392,1,promesses
2393,1,proposer
2394,1,propositions
2395,1,propreté
2396,1,protestait
2397,1,protégeaient
2398,1,protéger
2399,1,prouvait
2400,1,précieusement
2401,1,précieux
2402,1,précipita
2403,1,prédécesseur
2404,1,préféras
2405,1,préoccupa
2406,1,préoccupée
2407,1,préparatifs
2408,1,préparation
2409,1,préparer
2410,1,présente
2411,1,prétexte
2412,1,prévisions
2413,1,prêtres
2414,1,psaumes
2415,1,pudeur
2416,1,puisse
2417,1,pupille
2418,1,pur
2419,1,pure
2420,1,pures
2421,1,purifiée
2422,1,puérilités
2423,1,pâlirent
2424,1,pâlissais
2425,1,pâlissait
2426,1,pâques
2427,1,péniblement
2428,1,pénitence
2429,1,pénombre
2430,1,pénétrant
2431,1,quelqu
2432,1,quelquefois
2433,1,quels
2434,1,questions
2435,1,quitter
2436,1,raillait
2437,1,ralentissait
2438,1,ralentit
2439,1,ramassai
2440,1,ramasser
2441,1,ramper
2442,1,rampes
2443,1,rangs
2444,1,ranimer
2445,1,rappeler
2446,1,rappelée
2447,1,rapporté
2448,1,rapprochai
2449,1,rapprocher
2450,1,rare
2451,1,rares
2452,1,rassura
2453,1,rassurait
2454,1,rassurant
2455,1,rassuré
2456,1,ravissant
2457,1,ravissement
2458,1,ravivèrent
2459,1,rayonnant
2460,1,rayée
2461,1,recevoir
2462,1,rechutes
2463,1,recoins
2464,1,recommença
2465,1,recouvert
2466,1,recouvrait
2467,1,recouvrerait
2468,1,redescendre
2469,1,redisais
2470,1,redoublement
2471,1,redoutable
2472,1,redressaient
2473,1,redressait
2474,1,refermèrent
2475,1,refrain
2476,1,refrains
2477,1,refusa
2478,1,regagna
2479,1,regardai
2480,1,regarde
2481,1,regarder
2482,1,regardez
2483,1,regardé
2484,1,regret
2485,1,regrettais
2486,1,regrette
2487,1,regretteras
2488,1,regrettée
2489,1,rejaillirent
2490,1,relations
2491,1,releva
2492,1,relever
2493,1,relevés
2494,1,religion
2495,1,remarquable
2496,1,remarquées
2497,1,remerciant
2498,1,remis
2499,1,remit
2500,1,remplacer
2501,1,remplissant
2502,1,remuant
2503,1,remuer
2504,1,remué
2505,1,renards
2506,1,rencontre
2507,1,rencontrer
2508,1,rend
2509,1,rendais
2510,1,rendait
2511,1,rends
2512,1,rendu
2513,1,rengorge
2514,1,renoncer
2515,1,renouvelé
2516,1,rentraînait
2517,1,rentrée
2518,1,renversa
2519,1,repas
2520,1,repassai
2521,1,reployé
2522,1,repousser
2523,1,reprirent
2524,1,reprise
2525,1,reprit
2526,1,reprochait
2527,1,représentent
2528,1,respiration
2529,1,respirer
2530,1,ressemblais
2531,1,ressemble
2532,1,ressembler
2533,1,ressentir
2534,1,ressuscitée
2535,1,restais
2536,1,restas
2537,1,reste
2538,1,rester
2539,1,retenait
2540,1,retenant
2541,1,retenir
2542,1,retentirent
2543,1,retentissaient
2544,1,retiendrai
2545,1,retira
2546,1,retirai
2547,1,retirera
2548,1,retomba
2549,1,retourna
2550,1,retournant
2551,1,retourné
2552,1,retranchaient
2553,1,retrancher
2554,1,retroussé
2555,1,retrouvé
2556,1,revenaient
2557,1,revenir
2558,1,revinrent
2559,1,revins
2560,1,revue
2561,1,riant
2562,1,richement
2563,1,ridotto
2564,1,rives
2565,1,roidir
2566,1,rompue
2567,1,romualdo
2568,1,rond
2569,1,ronde
2570,1,rondeur
2571,1,rongent
2572,1,roue
2573,1,rougissais
2574,1,roulaient
2575,1,rouler
2576,1,roulé
2577,1,rouvris
2578,1,royal
2579,1,rubis
2580,1,rue
2581,1,ruine
2582,1,ruinés
2583,1,rythme
2584,1,râle
2585,1,récit
2586,1,réciter
2587,1,réduisit
2588,1,réellement
2589,1,réfléchissait
2590,1,réglé
2591,1,régnait
2592,1,réinstaller
2593,1,répandent
2594,1,répands
2595,1,répondait
2596,1,république
2597,1,répétais
2598,1,résistance
2599,1,résolu
2600,1,résolution
2601,1,résonna
2602,1,résoudre
2603,1,rétabli
2604,1,réveillai
2605,1,réveillais
2606,1,réveillé
2607,1,révoltait
2608,1,révélaient
2609,1,révélation
2610,1,rêverie
2611,1,rêvé
2612,1,rêvées
2613,1,rôde
2614,1,sacrifice
2615,1,sacrilège
2616,1,sacré
2617,1,saillante
2618,1,saintes
2619,1,saisissais
2620,1,sanctifié
2621,1,sanctifiée
2622,1,sanglante
2623,1,sardanapale
2624,1,satinée
2625,1,satisfaction
2626,1,satiété
2627,1,sautai
2628,1,sauvages
2629,1,sauver
2630,1,savaient
2631,1,savez
2632,1,savoir
2633,1,savoure
2634,1,scandale
2635,1,sceau
2636,1,scellé
2637,1,scellée
2638,1,scintillaient
2639,1,scrupules
2640,1,sculpteur
2641,1,second
2642,1,secourant
2643,1,selle
2644,1,semaine
2645,1,semblables
2646,1,semblent
2647,1,sensation
2648,1,sensations
2649,1,sensible
2650,1,sensiblement
2651,1,sentant
2652,1,senteur
2653,1,senti
2654,1,sentier
2655,1,seraient
2656,1,serait
2657,1,serein
2658,1,serons
2659,1,serpent
2660,1,serra
2661,1,servir
2662,1,servis
2663,1,seules
2664,1,sexe
2665,1,sien
2666,1,sienne
2667,1,siffler
2668,1,sifflet
2669,1,signor
2670,1,silencieux
2671,1,silhouettes
2672,1,simples
2673,1,simplicité
2674,1,singe
2675,1,sinistres
2676,1,situation
2677,1,situé
2678,1,sitôt
2679,1,six
2680,1,société
2681,1,soi
2682,1,soie
2683,1,soient
2684,1,soin
2685,1,soins
2686,1,sois
2687,1,soixante
2688,1,solitude
2689,1,sombres
2690,1,sommes
2691,1,somnambulique
2692,1,somptueuse
2693,1,sonde
2694,1,songe
2695,1,songeai
2696,1,sonna
2697,1,sonnèrent
2698,1,sonore
2699,1,sonorité
2700,1,sort
2701,1,sortaient
2702,1,sorti
2703,1,sortît
2704,1,soucieux
2705,1,soufflant
2706,1,souffler
2707,1,soufflé
2708,1,soufflées
2709,1,souffrance
2710,1,souillé
2711,1,soulever
2712,1,soupiraux
2713,1,soupiré
2714,1,sources
2715,1,sourd
2716,1,sourde
2717,1,soustraire
2718,1,soutane
2719,1,soutenait
2720,1,soutenir
2721,1,soutenu
2722,1,souvenais
2723,1,souvenait
2724,1,souvenirs
2725,1,souvent
2726,1,spadassins
2727,1,spasme
2728,1,spectres
2729,1,spirales
2730,1,splendide
2731,1,statues
2732,1,stores
2733,1,su
2734,1,subit
2735,1,successivement
2736,1,succincte
2737,1,sucer
2738,1,suffi
2739,1,suffisait
2740,1,suffisant
2741,1,suffit
2742,1,suggestions
2743,1,suivait
2744,1,suivante
2745,1,suivi
2746,1,suivies
2747,1,suivras
2748,1,superbe
2749,1,superstitieuse
2750,1,suppliant
2751,1,supporter
2752,1,supposition
2753,1,suprême
2754,1,supérieurs
2755,1,surnageaient
2756,1,surnaturelle
2757,1,surpassait
2758,1,svelte
2759,1,sympathiquement
2760,1,symptômes
2761,1,syracuse
2762,1,sèches
2763,1,séduction
2764,1,séduisant
2765,1,sénile
2766,1,sépara
2767,1,séparaient
2768,1,séparation
2769,1,sérieusement
2770,1,sérénissime
2771,1,sûr
2772,1,ta
2773,1,tablettes
2774,1,tacite
2775,1,taillées
2776,1,taillés
2777,1,talons
2778,1,tarirais
2779,1,teinte
2780,1,teintée
2781,1,tel
2782,1,temple
2783,1,tenaillait
2784,1,tenais
2785,1,tendait
2786,1,tendit
2787,1,tenir
2788,1,tentateur
2789,1,tenture
2790,1,tenu
2791,1,tenue
2792,1,terminée
2793,1,terne
2794,1,terreur
2795,1,terreurs
2796,1,tes
2797,1,théologie
2798,1,théâtre
2799,1,tienne
2800,1,tiens
2801,1,tige
2802,1,tigre
2803,1,tins
2804,1,tira
2805,1,tiroirs
2806,1,tissu
2807,1,titiens
2808,1,titre
2809,1,toilette
2810,1,toit
2811,1,tombaient
2812,1,tombées
2813,1,tonnelles
2814,1,tonnerre
2815,1,tonsure
2816,1,torches
2817,1,torsades
2818,1,tortueuses
2819,1,totalement
2820,1,touchai
2821,1,touche
2822,1,tourelles
2823,1,tourmentaient
2824,1,tournait
2825,1,tournure
2826,1,tourné
2827,1,trace
2828,1,traduire
2829,1,trahissait
2830,1,train
2831,1,traits
2832,1,transparente
2833,1,transport
2834,1,traversâmes
2835,1,traversèrent
2836,1,traça
2837,1,traînaient
2838,1,traînée
2839,1,treillis
2840,1,tremblante
2841,1,tremblement
2842,1,tremblote
2843,1,trempait
2844,1,triangle
2845,1,tringles
2846,1,triple
2847,1,tristement
2848,1,trompais
2849,1,tromper
2850,1,trompettes
2851,1,trompé
2852,1,troublait
2853,1,troublée
2854,1,trouvai
2855,1,trouvaient
2856,1,trouve
2857,1,trouves
2858,1,trépassée
2859,1,trésor
2860,1,tuiles
2861,1,tut
2862,1,tâchait
2863,1,témoin
2864,1,unes
2865,1,unie
2866,1,uns
2867,1,urne
2868,1,usage
2869,1,usé
2870,1,vaguement
2871,1,vaillamment
2872,1,vaillant
2873,1,vain
2874,1,vaincre
2875,1,vaincrez
2876,1,vais
2877,1,valet
2878,1,valses
2879,1,vanité
2880,1,vas
2881,1,vase
2882,1,vaut
2883,1,veilleuse
2884,1,veine
2885,1,velouté
2886,1,veloutée
2887,1,venez
2888,1,vermeille
2889,1,verrais
2890,1,verres
2891,1,verrou
2892,1,versait
2893,1,versé
2894,1,vertes
2895,1,vertu
2896,1,veste
2897,1,veuille
2898,1,vibrante
2899,1,vibrations
2900,1,victime
2901,1,victoires
2902,1,vide
2903,1,vieillard
2904,1,vieilles
2905,1,vieillesse
2906,1,vieilli
2907,1,viendrai
2908,1,viendras
2909,1,vigoureuses
2910,1,vilains
2911,1,violemment
2912,1,violence
2913,1,violent
2914,1,violente
2915,1,violer
2916,1,violettes
2917,1,visage
2918,1,visions
2919,1,visitai
2920,1,visite
2921,1,vit
2922,1,vitre
2923,1,vivait
2924,1,vivante
2925,1,vivants
2926,1,vivement
2927,1,vives
2928,1,vivions
2929,1,vivons
2930,1,vocation
2931,1,voici
2932,1,voilai
2933,1,vois
2934,1,voisines
2935,1,voit
2936,1,voiture
2937,1,voitures
2938,1,voleurs
2939,1,volontiers
2940,1,volontés
2941,1,voltigeant
2942,1,volume
2943,1,voluptueusement
2944,1,voluptueux
2945,1,vont
2946,1,vos
2947,1,voudrai
2948,1,voulant
2949,1,voulez
2950,1,voyait
2951,1,voyiez
2952,1,voyions
2953,1,voûte
2954,1,vraiment
2955,1,vrais
2956,1,véhémentes
2957,1,vénérable
2958,1,vérité
2959,1,vœux
2960,1,xérès
2961,1,zèle
2962,1,zéphyr
2963,1,âge
2964,1,âgée
2965,1,âpre
2966,1,ébauche
2967,1,éblouissante
2968,1,éblouissements
2969,1,ébranlements
2970,1,écailles
2971,1,écartèrent
2972,1,échappa
2973,1,échappaient
2974,1,échauffée
2975,1,échelle
2976,1,échevelait
2977,1,écho
2978,1,éclair
2979,1,éclairer
2980,1,éclairèrent
2981,1,éclairé
2982,1,éclairée
2983,1,éclatait
2984,1,éclatant
2985,1,éclater
2986,1,éclats
2987,1,éclôt
2988,1,écoulait
2989,1,écoutez
2990,1,écouté
2991,1,écriai
2992,1,écrier
2993,1,écrire
2994,1,écume
2995,1,édifice
2996,1,égalité
2997,1,élan
2998,1,élixirs
2999,1,éloignait
3000,1,éloigner
3001,1,élégants
3002,1,énormes
3003,1,épaisseur
3004,1,épaule
3005,1,éperdu
3006,1,éperdument
3007,1,épicé
3008,1,épingle
3009,1,épouser
3010,1,épouvantables
3011,1,épreuve
3012,1,éprouvai
3013,1,éprouvée
3014,1,épuiser
3015,1,épuisées
3016,1,épée
3017,1,éraillé
3018,1,étant
3019,1,éteindre
3020,1,étendait
3021,1,éternel
3022,1,éternelle
3023,1,étincela
3024,1,étincelante
3025,1,étinceler
3026,1,étincelles
3027,1,étions
3028,1,étoffe
3029,1,étoiles
3030,1,étonnais
3031,1,étonnante
3032,1,étonnement
3033,1,étonné
3034,1,étouffais
3035,1,étourdirent
3036,1,étrangère
3037,1,étrier
3038,1,études
3039,1,évangélistes
3040,1,évanoui
3041,1,évanouie
3042,1,éventail
3043,1,évitais
3044,1,éviter
3045,1,évité
3046,1,événement
3047,1,îles
3048,1,ôté
3049,1,œillade
