#Word Types: 3469
#Word Tokens: 18794
#Search Hits: 0
1	570	je	
2	545	de	
3	373	la	
4	370	il	
5	359	à	
6	343	le	
7	341	un	
8	336	et	
9	295	que	
10	285	est	
11	270	pas	
12	269	l	
13	225	ne	
14	216	les	
15	207	j	
16	192	d	
17	184	une	
18	178	ce	
19	178	qui	
20	171	en	
21	164	me	
22	164	n	
23	145	s	
24	143	qu	
25	143	se	
26	142	dans	
27	137	mon	
28	116	c	
29	114	a	
30	113	comme	
31	111	sur	
32	109	mais	
33	103	des	
34	98	était	
35	97	plus	
36	95	m	
37	94	tout	
38	92	du	
39	92	ils	
40	91	au	
41	89	ai	
42	87	par	
43	78	bien	
44	77	golding	
45	77	si	
46	74	deux	
47	74	ma	
48	73	cette	
49	72	moi	
50	72	son	
51	68	y	
52	66	lui	
53	62	cela	
54	62	suis	
55	60	rien	
56	59	là	
57	58	non	
58	57	mes	
59	57	puis	
60	56	pour	
61	55	vous	
62	51	heures	
63	49	même	
64	48	oh	
65	47	ces	
66	47	être	
67	44	sa	
68	43	avais	
69	43	porte	
70	42	encore	
71	42	où	
72	41	six	
73	40	on	
74	40	sont	
75	39	avait	
76	39	avec	
77	38	fait	
78	37	homme	
79	37	sans	
80	36	quelque	
81	35	autre	
82	35	car	
83	34	trois	
84	33	elle	
85	33	faut	
86	33	nous	
87	33	ou	
88	33	yeux	
89	32	fou	
90	32	ses	
91	31	dont	
92	30	ah	
93	30	donc	
94	30	heure	
95	29	peut	
96	27	cet	
97	26	cerveau	
98	26	étais	
99	26	été	
100	25	seul	
101	24	alors	
102	24	chose	
103	24	vérité	
104	24	étaient	
105	23	oui	
106	22	bruit	
107	22	chez	
108	22	leur	
109	22	point	
110	22	pourquoi	
111	22	voilà	
112	21	leurs	
113	21	peu	
114	21	temps	
115	20	coup	
116	20	devant	
117	20	eux	
118	20	fois	
119	20	ont	
120	20	sais	
121	20	sens	
122	20	sous	
123	20	toute	
124	20	tête	
125	19	autres	
126	19	couteau	
127	19	entre	
128	19	lit	
129	18	après	
130	18	maison	
131	18	regard	
132	17	avoir	
133	17	comment	
134	17	parc	
135	16	dit	
136	16	eût	
137	16	quand	
138	16	quelques	
139	16	âme	
140	15	ceci	
141	15	cependant	
142	15	entendre	
143	15	pensée	
144	15	tous	
145	14	avant	
146	14	bois	
147	14	entends	
148	14	faire	
149	14	front	
150	14	hommes	
151	14	mur	
152	14	passer	
153	14	sait	
154	14	voix	
155	13	abord	
156	13	aussi	
157	13	côté	
158	13	docteur	
159	13	marche	
160	13	pendant	
161	13	trop	
162	13	vers	
163	13	volonté	
164	13	œil	
165	12	chambre	
166	12	cinq	
167	12	déjà	
168	12	effort	
169	12	idée	
170	12	loin	
171	12	maintenant	
172	12	moment	
173	12	mort	
174	12	ni	
175	12	paraît	
176	12	pris	
177	12	va	
178	12	voici	
179	12	votre	
180	12	vu	
181	12	étrange	
182	11	auprès	
183	11	b	
184	11	cri	
185	11	demi	
186	11	dix	
187	11	force	
188	11	fut	
189	11	gentlemen	
190	11	gresham	
191	11	laquelle	
192	11	main	
193	11	mains	
194	11	nuit	
195	11	question	
196	11	regarde	
197	11	secret	
198	11	t	
199	11	toutes	
200	11	travers	
201	11	vie	
202	10	aller	
203	10	allons	
204	10	bahut	
205	10	bras	
206	10	cloison	
207	10	corps	
208	10	dessus	
209	10	entendu	
210	10	fenêtre	
211	10	grille	
212	10	juste	
213	10	moins	
214	10	ouverture	
215	10	part	
216	10	partie	
217	10	peur	
218	10	plutôt	
219	10	pu	
220	10	quoi	
221	10	semble	
222	10	sorte	
223	10	travail	
224	10	voir	
225	10	évidemment	
226	9	ainsi	
227	9	air	
228	9	allait	
229	9	amis	
230	9	attention	
231	9	aucun	
232	9	aurais	
233	9	aux	
234	9	bas	
235	9	calme	
236	9	dire	
237	9	doute	
238	9	elles	
239	9	eu	
240	9	fenêtres	
241	9	habitude	
242	9	ici	
243	9	instant	
244	9	jambes	
245	9	jour	
246	9	jusqu	
247	9	longtemps	
248	9	passe	
249	9	pourrait	
250	9	pouvais	
251	9	pouvait	
252	9	quelqu	
253	9	raison	
254	9	sera	
255	9	seule	
256	9	telle	
257	9	toujours	
258	9	veux	
259	9	vis	
260	9	visage	
261	9	vite	
262	8	acier	
263	8	black	
264	8	bon	
265	8	castle	
266	8	chapelle	
267	8	contre	
268	8	crois	
269	8	demain	
270	8	doit	
271	8	double	
272	8	doucement	
273	8	escalier	
274	8	fatigue	
275	8	fer	
276	8	folie	
277	8	fût	
278	8	hou	
279	8	importe	
280	8	lanterne	
281	8	lentement	
282	8	mot	
283	8	mouvement	
284	8	petit	
285	8	pieds	
286	8	pointe	
287	8	presque	
288	8	quel	
289	8	seconde	
290	8	semblait	
291	8	serait	
292	8	seulement	
293	8	tenez	
294	8	verrou	
295	8	vois	
296	8	échapper	
297	7	arrêter	
298	7	aurait	
299	7	besoin	
300	7	celui	
301	7	chaise	
302	7	choc	
303	7	cris	
304	7	depuis	
305	7	doigts	
306	7	eh	
307	7	esprit	
308	7	forte	
309	7	long	
310	7	lumière	
311	7	lèvres	
312	7	mieux	
313	7	mots	
314	7	mystère	
315	7	nouveau	
316	7	nul	
317	7	obscurité	
318	7	ongles	
319	7	parce	
320	7	petite	
321	7	pfoster	
322	7	pourrais	
323	7	rayonnement	
324	7	reste	
325	7	soir	
326	7	soit	
327	7	table	
328	7	tard	
329	7	tour	
330	7	trouver	
331	7	voulais	
332	7	voyons	
333	6	attendais	
334	6	bonne	
335	6	canne	
336	6	chaque	
337	6	ciel	
338	6	contraire	
339	6	courage	
340	6	croient	
341	6	crâne	
342	6	dernier	
343	6	derrière	
344	6	directeur	
345	6	dis	
346	6	dois	
347	6	droite	
348	6	enfin	
349	6	feu	
350	6	intérieur	
351	6	jamais	
352	6	joue	
353	6	justement	
354	6	lame	
355	6	lequel	
356	6	lueur	
357	6	matin	
358	6	minute	
359	6	minutes	
360	6	muraille	
361	6	noir	
362	6	oreille	
363	6	pan	
364	6	parle	
365	6	parti	
366	6	partir	
367	6	pied	
368	6	pièce	
369	6	place	
370	6	points	
371	6	première	
372	6	prendre	
373	6	près	
374	6	puisque	
375	6	quatre	
376	6	régulier	
377	6	sensation	
378	6	solide	
379	6	sollicitor	
380	6	sûr	
381	6	tombe	
382	6	trabler	
383	6	trouve	
384	6	très	
385	6	vrai	
386	6	état	
387	5	ailleurs	
388	5	assez	
389	5	aujourd	
390	5	autour	
391	5	avaient	
392	5	avance	
393	5	avez	
394	5	but	
395	5	combien	
396	5	crime	
397	5	debout	
398	5	dedans	
399	5	dehors	
400	5	devait	
401	5	dollars	
402	5	dos	
403	5	effet	
404	5	face	
405	5	faisant	
406	5	fallait	
407	5	ferai	
408	5	fermée	
409	5	fièvre	
410	5	fous	
411	5	garde	
412	5	gauche	
413	5	genoux	
414	5	grand	
415	5	grotesque	
416	5	hasard	
417	5	haut	
418	5	hui	
419	5	immense	
420	5	impatience	
421	5	inconnu	
422	5	ligne	
423	5	longue	
424	5	lorsque	
425	5	lune	
426	5	lutte	
427	5	machine	
428	5	masse	
429	5	mis	
430	5	nom	
431	5	nulle	
432	5	ombre	
433	5	organe	
434	5	ouvrir	
435	5	parfois	
436	5	parole	
437	5	peine	
438	5	pendule	
439	5	percer	
440	5	perdu	
441	5	planche	
442	5	plusieurs	
443	5	poitrine	
444	5	possible	
445	5	pourtant	
446	5	premier	
447	5	problème	
448	5	procès	
449	5	préoccupation	
450	5	ressort	
451	5	ressorts	
452	5	ridicule	
453	5	savais	
454	5	savoir	
455	5	serrure	
456	5	songer	
457	5	tandis	
458	5	tant	
459	5	terreur	
460	5	tiens	
461	5	touché	
462	5	trompé	
463	5	uns	
464	5	vais	
465	5	vient	
466	5	voudrais	
467	5	voulu	
468	5	vue	
469	5	x	
470	5	échecs	
471	5	échelle	
472	5	écho	
473	4	accès	
474	4	agir	
475	4	ait	
476	4	allée	
477	4	ans	
478	4	attitude	
479	4	auquel	
480	4	bizarre	
481	4	bonheur	
482	4	bout	
483	4	bruits	
484	4	bâtiment	
485	4	cabinet	
486	4	capitaine	
487	4	cas	
488	4	cauchemar	
489	4	certes	
490	4	ceux	
491	4	chacun	
492	4	chêne	
493	4	coin	
494	4	commis	
495	4	conscience	
496	4	coups	
497	4	croire	
498	4	cœur	
499	4	disais	
500	4	distance	
501	4	donner	
502	4	dormir	
503	4	doué	
504	4	dur	
505	4	désir	
506	4	dû	
507	4	eau	
508	4	entier	
509	4	entré	
510	4	escabeau	
511	4	examen	
512	4	existe	
513	4	expression	
514	4	facultés	
515	4	fais	
516	4	fermé	
517	4	fixe	
518	4	froid	
519	4	fussent	
520	4	glisser	
521	4	gorge	
522	4	humaine	
523	4	inerte	
524	4	influence	
525	4	jeu	
526	4	joie	
527	4	lieu	
528	4	lire	
529	4	mal	
530	4	malédiction	
531	4	marches	
532	4	minuit	
533	4	monde	
534	4	moyen	
535	4	médecin	
536	4	mêmes	
537	4	nature	
538	4	nerfs	
539	4	nos	
540	4	notre	
541	4	ordinaire	
542	4	oublié	
543	4	ouvert	
544	4	ouvre	
545	4	parler	
546	4	passé	
547	4	persistance	
548	4	plafond	
549	4	poids	
550	4	portes	
551	4	pourra	
552	4	précautions	
553	4	quelle	
554	4	quels	
555	4	retrouver	
556	4	richardson	
557	4	rouge	
558	4	route	
559	4	saisir	
560	4	sauvé	
561	4	sembla	
562	4	semblent	
563	4	semblé	
564	4	sentais	
565	4	serai	
566	4	sommeil	
567	4	sommet	
568	4	souvenir	
569	4	souvent	
570	4	souviens	
571	4	sépare	
572	4	tenait	
573	4	tendance	
574	4	timbre	
575	4	tourne	
576	4	venu	
577	4	veut	
578	4	violent	
579	4	vivant	
580	4	voisin	
581	4	échappe	
582	4	écoute	
583	4	épais	
584	4	épaules	
585	4	étant	
586	4	éveillé	
587	3	accroche	
588	3	active	
589	3	allées	
590	3	aperçois	
591	3	appartement	
592	3	appelle	
593	3	appui	
594	3	arrivé	
595	3	arrêté	
596	3	asylum	
597	3	atroce	
598	3	attacher	
599	3	auraient	
600	3	avancer	
601	3	bast	
602	3	beau	
603	3	bientôt	
604	3	blanche	
605	3	boîte	
606	3	briques	
607	3	broadway	
608	3	brusquement	
609	3	ceinture	
610	3	celle	
611	3	cent	
612	3	centaines	
613	3	cercle	
614	3	certain	
615	3	certaine	
616	3	chair	
617	3	choses	
618	3	clair	
619	3	cloué	
620	3	club	
621	3	cohésion	
622	3	concentrer	
623	3	continuellement	
624	3	corde	
625	3	cou	
626	3	course	
627	3	couvercle	
628	3	craquer	
629	3	crier	
630	3	demie	
631	3	descendu	
632	3	devoir	
633	3	dirai	
634	3	dirait	
635	3	dixième	
636	3	dort	
637	3	douleur	
638	3	douter	
639	3	droit	
640	3	dus	
641	3	découvre	
642	3	détails	
643	3	développement	
644	3	endroit	
645	3	enfants	
646	3	enfer	
647	3	entendais	
648	3	entendis	
649	3	entière	
650	3	entraînait	
651	3	entraîné	
652	3	entrer	
653	3	eus	
654	3	eussent	
655	3	eut	
656	3	exactement	
657	3	excellent	
658	3	excuse	
659	3	extra	
660	3	facile	
661	3	faisait	
662	3	fatigué	
663	3	fausse	
664	3	femme	
665	3	fibres	
666	3	fire	
667	3	fis	
668	3	fit	
669	3	foi	
670	3	font	
671	3	forces	
672	3	foyer	
673	3	frappé	
674	3	fus	
675	3	fêlé	
676	3	gardien	
677	3	glisse	
678	3	grande	
679	3	grince	
680	3	habile	
681	3	heurtent	
682	3	horrible	
683	3	hâter	
684	3	impossible	
685	3	indépendante	
686	3	intensité	
687	3	inutile	
688	3	jette	
689	3	jouer	
690	3	journée	
691	3	laisse	
692	3	lendemain	
693	3	livre	
694	3	lunatic	
695	3	malgré	
696	3	maître	
697	3	meuble	
698	3	milieu	
699	3	mille	
700	3	mois	
701	3	molécules	
702	3	montre	
703	3	muscles	
704	3	naturel	
705	3	nécessaire	
706	3	ouverts	
707	3	parlé	
708	3	parois	
709	3	parvenir	
710	3	passait	
711	3	pensées	
712	3	personne	
713	3	perçois	
714	3	petits	
715	3	pièces	
716	3	plaisir	
717	3	plancher	
718	3	plaît	
719	3	plein	
720	3	poussière	
721	3	preuve	
722	3	produit	
723	3	profonde	
724	3	propre	
725	3	présence	
726	3	puissance	
727	3	pénétrer	
728	3	quart	
729	3	rapide	
730	3	rayon	
731	3	reflet	
732	3	regardant	
733	3	regards	
734	3	remarqué	
735	3	remords	
736	3	rencontre	
737	3	rendre	
738	3	repos	
739	3	respiration	
740	3	restai	
741	3	rides	
742	3	rire	
743	3	réellement	
744	3	résistance	
745	3	résiste	
746	3	révérend	
747	3	sache	
748	3	saurai	
749	3	sec	
750	3	semblaient	
751	3	sentis	
752	3	simple	
753	3	sinon	
754	3	soient	
755	3	sol	
756	3	solidement	
757	3	sommes	
758	3	songe	
759	3	sonne	
760	3	sons	
761	3	sorti	
762	3	souffle	
763	3	soupir	
764	3	sourire	
765	3	souvenirs	
766	3	spectacle	
767	3	surveillance	
768	3	talons	
769	3	tend	
770	3	tendu	
771	3	tient	
772	3	touche	
773	3	traverse	
774	3	tressailli	
775	3	troisième	
776	3	trompe	
777	3	trou	
778	3	trouvé	
779	3	unique	
780	3	vague	
781	3	vagues	
782	3	vain	
783	3	veille	
784	3	verrai	
785	3	ville	
786	3	vingt	
787	3	visuel	
788	3	volition	
789	3	vont	
790	3	vos	
791	3	voulait	
792	3	voyais	
793	3	ébranle	
794	3	échappera	
795	3	éclairée	
796	3	éclat	
797	3	éclats	
798	3	énergie	
799	3	épaisseur	
800	3	étendu	
801	3	étranges	
802	3	étude	
803	3	œuvre	
804	2	absolu	
805	2	absolument	
806	2	abstraire	
807	2	acquis	
808	2	acte	
809	2	action	
810	2	activité	
811	2	adieu	
812	2	admets	
813	2	adossé	
814	2	adressé	
815	2	adversaire	
816	2	affaire	
817	2	affaires	
818	2	afin	
819	2	agit	
820	2	agrégation	
821	2	aie	
822	2	aise	
823	2	allais	
824	2	allez	
825	2	allure	
826	2	amadou	
827	2	amour	
828	2	ancien	
829	2	anormal	
830	2	apercevoir	
831	2	aperçoivent	
832	2	aperçus	
833	2	appartenait	
834	2	appliqué	
835	2	apporté	
836	2	appris	
837	2	appuyé	
838	2	arriver	
839	2	arrêt	
840	2	arrêtai	
841	2	aspect	
842	2	assis	
843	2	atteindre	
844	2	attend	
845	2	attendrai	
846	2	aucune	
847	2	audace	
848	2	auriez	
849	2	autant	
850	2	avis	
851	2	avons	
852	2	avoue	
853	2	balancier	
854	2	basse	
855	2	battre	
856	2	blanchâtre	
857	2	blotti	
858	2	bondit	
859	2	bouger	
860	2	bruissement	
861	2	brune	
862	2	brusque	
863	2	brûle	
864	2	bu	
865	2	bureau	
866	2	burlesque	
867	2	cadavre	
868	2	cadencé	
869	2	caractère	
870	2	cassette	
871	2	catalepsie	
872	2	causait	
873	2	celles	
874	2	centre	
875	2	cercles	
876	2	certainement	
877	2	certitude	
878	2	cerveaux	
879	2	cesse	
880	2	changement	
881	2	chasse	
882	2	chaussée	
883	2	cherche	
884	2	cherchez	
885	2	chiffre	
886	2	château	
887	2	cigare	
888	2	ciseau	
889	2	clameur	
890	2	client	
891	2	clignement	
892	2	commence	
893	2	commencé	
894	2	complicité	
895	2	comprenez	
896	2	compris	
897	2	comptais	
898	2	concentration	
899	2	concentrent	
900	2	conclusion	
901	2	connaître	
902	2	considérer	
903	2	conséquent	
904	2	convulsions	
905	2	conçu	
906	2	couche	
907	2	coucher	
908	2	coupable	
909	2	courant	
910	2	courbé	
911	2	court	
912	2	courus	
913	2	craindre	
914	2	crochets	
915	2	croisaient	
916	2	cru	
917	2	crête	
918	2	curieuse	
919	2	curieux	
920	2	curiosité	
921	2	cymbales	
922	2	côtés	
923	2	danger	
924	2	danse	
925	2	descendre	
926	2	devais	
927	2	devenue	
928	2	devient	
929	2	diable	
930	2	dieu	
931	2	difficile	
932	2	difficulté	
933	2	directe	
934	2	direction	
935	2	disent	
936	2	disparaissaient	
937	2	donnait	
938	2	donne	
939	2	donnerais	
940	2	donné	
941	2	doutent	
942	2	dresse	
943	2	débarrasser	
944	2	défait	
945	2	délibérément	
946	2	démons	
947	2	départ	
948	2	dépend	
949	2	dépit	
950	2	déranger	
951	2	efforce	
952	2	empêcher	
953	2	enclume	
954	2	endormi	
955	2	enfant	
956	2	engourdi	
957	2	engrenage	
958	2	ennui	
959	2	ensemble	
960	2	entendez	
961	2	entendra	
962	2	entreprise	
963	2	excitation	
964	2	exerce	
965	2	exercice	
966	2	existait	
967	2	explique	
968	2	faculté	
969	2	faisaient	
970	2	fantômes	
971	2	fatale	
972	2	faubourg	
973	2	fauteuil	
974	2	façon	
975	2	fermées	
976	2	fermés	
977	2	finir	
978	2	fixés	
979	2	flair	
980	2	forcé	
981	2	forme	
982	2	fort	
983	2	fouille	
984	2	fracas	
985	2	frappa	
986	2	frapper	
987	2	frissonner	
988	2	fronts	
989	2	fumée	
990	2	gagne	
991	2	gai	
992	2	gardiens	
993	2	gentleman	
994	2	gerbes	
995	2	glissent	
996	2	gonds	
997	2	gouttes	
998	2	gros	
999	2	gré	
1000	2	guérir	
1001	2	habilement	
1002	2	habileté	
1003	2	hamilton	
1004	2	hier	
1005	2	horloge	
1006	2	humain	
1007	2	hésitation	
1008	2	hésite	
1009	2	hésité	
1010	2	hôpital	
1011	2	immobilité	
1012	2	implique	
1013	2	impolitesse	
1014	2	impression	
1015	2	incendie	
1016	2	indiquer	
1017	2	individu	
1018	2	infernale	
1019	2	inquiète	
1020	2	insensible	
1021	2	instruments	
1022	2	intersection	
1023	2	introduis	
1024	2	intuitive	
1025	2	intérêt	
1026	2	investigateur	
1027	2	investigation	
1028	2	invisible	
1029	2	irai	
1030	2	irriter	
1031	2	issue	
1032	2	ivre	
1033	2	jeunes	
1034	2	jours	
1035	2	jure	
1036	2	juré	
1037	2	laisser	
1038	2	laissé	
1039	2	lançait	
1040	2	large	
1041	2	lent	
1042	2	lentille	
1043	2	levier	
1044	2	lis	
1045	2	livré	
1046	2	liège	
1047	2	longueur	
1048	2	lorsqu	
1049	2	lourd	
1050	2	lueurs	
1051	2	lugubre	
1052	2	lumineux	
1053	2	lumières	
1054	2	lunch	
1055	2	léger	
1056	2	machinalement	
1057	2	marchant	
1058	2	marteau	
1059	2	matière	
1060	2	matous	
1061	2	menace	
1062	2	mener	
1063	2	mer	
1064	2	mien	
1065	2	mince	
1066	2	moindre	
1067	2	moments	
1068	2	montai	
1069	2	montait	
1070	2	monte	
1071	2	monument	
1072	2	motion	
1073	2	mouvements	
1074	2	moyenne	
1075	2	murailles	
1076	2	murs	
1077	2	mécanisme	
1078	2	mémoire	
1079	2	mêle	
1080	2	naturelle	
1081	2	noms	
1082	2	notion	
1083	2	négliger	
1084	2	obtenu	
1085	2	or	
1086	2	oreilles	
1087	2	organes	
1088	2	os	
1089	2	osseuse	
1090	2	outil	
1091	2	ouvris	
1092	2	ouïe	
1093	2	parallèlement	
1094	2	parbleu	
1095	2	parloir	
1096	2	parquet	
1097	2	partis	
1098	2	parvenu	
1099	2	parvienne	
1100	2	passa	
1101	2	passaient	
1102	2	passant	
1103	2	passent	
1104	2	pattes	
1105	2	pavé	
1106	2	penche	
1107	2	penchée	
1108	2	pense	
1109	2	perce	
1110	2	perception	
1111	2	perceptions	
1112	2	percevoir	
1113	2	perdre	
1114	2	perforation	
1115	2	perron	
1116	2	perçu	
1117	2	piste	
1118	2	placer	
1119	2	placide	
1120	2	placé	
1121	2	plan	
1122	2	pleurez	
1123	2	plomb	
1124	2	plonger	
1125	2	poison	
1126	2	poitrines	
1127	2	pompes	
1128	2	porter	
1129	2	portion	
1130	2	pose	
1131	2	position	
1132	2	possession	
1133	2	possibilité	
1134	2	posé	
1135	2	posés	
1136	2	pourrai	
1137	2	poussai	
1138	2	pousse	
1139	2	pouvaient	
1140	2	pouvez	
1141	2	premières	
1142	2	prime	
1143	2	principe	
1144	2	prise	
1145	2	prises	
1146	2	procéder	
1147	2	produire	
1148	2	projet	
1149	2	promenade	
1150	2	promène	
1151	2	propriété	
1152	2	précaution	
1153	2	préfère	
1154	2	préoccupait	
1155	2	préoccupe	
1156	2	présentait	
1157	2	prêt	
1158	2	prête	
1159	2	puisqu	
1160	2	puisse	
1161	2	pâle	
1162	2	pâles	
1163	2	pénètre	
1164	2	pénétration	
1165	2	pût	
1166	2	quarts	
1167	2	rage	
1168	2	raisonnable	
1169	2	rapidité	
1170	2	rappelle	
1171	2	rayons	
1172	2	rebord	
1173	2	recommencé	
1174	2	reconnais	
1175	2	reculai	
1176	2	regardai	
1177	2	regarder	
1178	2	regardé	
1179	2	remarquablement	
1180	2	remarquai	
1181	2	remarque	
1182	2	rencontrer	
1183	2	rend	
1184	2	rendu	
1185	2	repas	
1186	2	repose	
1187	2	rester	
1188	2	resté	
1189	2	retire	
1190	2	retrouve	
1191	2	rideaux	
1192	2	ris	
1193	2	rouillé	
1194	2	rouillés	
1195	2	roule	
1196	2	roulement	
1197	2	roulent	
1198	2	routes	
1199	2	rude	
1200	2	rue	
1201	2	rues	
1202	2	réalité	
1203	2	régulièrement	
1204	2	répondit	
1205	2	réponds	
1206	2	résistant	
1207	2	résultat	
1208	2	saccadé	
1209	2	sain	
1210	2	saisis	
1211	2	sang	
1212	2	saura	
1213	2	savez	
1214	2	second	
1215	2	secours	
1216	2	sentiment	
1217	2	sentir	
1218	2	serais	
1219	2	silence	
1220	2	simultanément	
1221	2	singulier	
1222	2	sinistre	
1223	2	soigneusement	
1224	2	sois	
1225	2	sombre	
1226	2	sonnèrent	
1227	2	sonore	
1228	2	sort	
1229	2	sortir	
1230	2	soulever	
1231	2	sourcils	
1232	2	spécialisation	
1233	2	square	
1234	2	stupide	
1235	2	su	
1236	2	suffisante	
1237	2	suffit	
1238	2	suit	
1239	2	suivi	
1240	2	suivis	
1241	2	suivre	
1242	2	sus	
1243	2	séparés	
1244	2	talon	
1245	2	tapisserie	
1246	2	tenaient	
1247	2	tenais	
1248	2	tendait	
1249	2	tends	
1250	2	tenir	
1251	2	tenté	
1252	2	termes	
1253	2	terre	
1254	2	terrible	
1255	2	toile	
1256	2	tombé	
1257	2	touchais	
1258	2	touchent	
1259	2	tournant	
1260	2	traîne	
1261	2	trente	
1262	2	trompette	
1263	2	trouvai	
1264	2	trouvais	
1265	2	trouvait	
1266	2	trésor	
1267	2	ténèbres	
1268	2	tôt	
1269	2	union	
1270	2	venait	
1271	2	venue	
1272	2	vermoulue	
1273	2	verre	
1274	2	victorieusement	
1275	2	vieille	
1276	2	viennent	
1277	2	vieux	
1278	2	vif	
1279	2	vin	
1280	2	vint	
1281	2	vitalité	
1282	2	vivre	
1283	2	voit	
1284	2	volontiers	
1285	2	voulaient	
1286	2	voulue	
1287	2	voulût	
1288	2	voyait	
1289	2	vraiment	
1290	2	vrille	
1291	2	échappaient	
1292	2	échappait	
1293	2	échappât	
1294	2	écoulait	
1295	2	écouter	
1296	2	égale	
1297	2	élancent	
1298	2	élevait	
1299	2	élevés	
1300	2	épanouissement	
1301	2	épaule	
1302	2	épouvantable	
1303	2	éprouvais	
1304	2	états	
1305	2	éteindre	
1306	2	étonne	
1307	2	étouffées	
1308	2	étroite	
1309	2	étudié	
1310	2	évident	
1311	2	ô	
1312	1	abandonné	
1313	1	abattement	
1314	1	absence	
1315	1	absolue	
1316	1	absorbe	
1317	1	absorber	
1318	1	absorbé	
1319	1	abstenir	
1320	1	acceptai	
1321	1	accepter	
1322	1	accepterait	
1323	1	accident	
1324	1	accompagné	
1325	1	accompli	
1326	1	accomplies	
1327	1	accomplissement	
1328	1	accoste	
1329	1	accoudé	
1330	1	accrochaient	
1331	1	accroché	
1332	1	accueilli	
1333	1	accuser	
1334	1	achevée	
1335	1	acolytes	
1336	1	acquit	
1337	1	actes	
1338	1	actif	
1339	1	actives	
1340	1	actuellement	
1341	1	acuité	
1342	1	ad	
1343	1	admettons	
1344	1	admirable	
1345	1	adorables	
1346	1	adresse	
1347	1	adversaires	
1348	1	advertiser	
1349	1	affabilité	
1350	1	affectait	
1351	1	affecte	
1352	1	affirme	
1353	1	affirmer	
1354	1	affoler	
1355	1	agissait	
1356	1	agissant	
1357	1	agita	
1358	1	agitation	
1359	1	agite	
1360	1	agiter	
1361	1	agréable	
1362	1	aigu	
1363	1	aiguille	
1364	1	aimais	
1365	1	aimant	
1366	1	aisément	
1367	1	ajoutant	
1368	1	ajustées	
1369	1	alcôve	
1370	1	alerte	
1371	1	alexandre	
1372	1	aliment	
1373	1	aliénation	
1374	1	allai	
1375	1	allume	
1376	1	allé	
1377	1	allés	
1378	1	alourdisse	
1379	1	alourdit	
1380	1	amadouer	
1381	1	amant	
1382	1	amassent	
1383	1	ameublement	
1384	1	ami	
1385	1	amitié	
1386	1	amoindrir	
1387	1	amoureux	
1388	1	amusante	
1389	1	amusent	
1390	1	analystes	
1391	1	analytique	
1392	1	anatomiste	
1393	1	anglaise	
1394	1	angles	
1395	1	animé	
1396	1	année	
1397	1	anormales	
1398	1	antichambre	
1399	1	anéantissement	
1400	1	apercevrai	
1401	1	aperçoive	
1402	1	aperçu	
1403	1	aplatirent	
1404	1	aplomb	
1405	1	apoplexie	
1406	1	apparaît	
1407	1	appareils	
1408	1	appartements	
1409	1	appartenaient	
1410	1	appartenant	
1411	1	appartiendrait	
1412	1	appartient	
1413	1	appel	
1414	1	appellation	
1415	1	appellent	
1416	1	appelé	
1417	1	appliquant	
1418	1	applique	
1419	1	apprisse	
1420	1	approche	
1421	1	approcher	
1422	1	approchions	
1423	1	approché	
1424	1	appuie	
1425	1	appuyai	
1426	1	appuyaient	
1427	1	appuyant	
1428	1	appuyés	
1429	1	arabesques	
1430	1	araignée	
1431	1	arbres	
1432	1	arc	
1433	1	ardents	
1434	1	arithmétique	
1435	1	armée	
1436	1	arpenter	
1437	1	arpentons	
1438	1	arrachement	
1439	1	arracher	
1440	1	arrachés	
1441	1	arrivasse	
1442	1	arrive	
1443	1	arriveront	
1444	1	arrivée	
1445	1	arrêtaient	
1446	1	arrête	
1447	1	arrêtée	
1448	1	arrêtées	
1449	1	arsenal	
1450	1	aspérité	
1451	1	assassiné	
1452	1	assignation	
1453	1	assimilé	
1454	1	assomment	
1455	1	assure	
1456	1	assurer	
1457	1	assuré	
1458	1	athenœum	
1459	1	atomes	
1460	1	atone	
1461	1	atouts	
1462	1	attachent	
1463	1	attaché	
1464	1	attaque	
1465	1	atteignis	
1466	1	atteint	
1467	1	atteinte	
1468	1	attendait	
1469	1	attendre	
1470	1	attends	
1471	1	attentif	
1472	1	attirai	
1473	1	attorneys	
1474	1	attraction	
1475	1	attribuer	
1476	1	auditif	
1477	1	augurer	
1478	1	aura	
1479	1	aurai	
1480	1	aussitôt	
1481	1	automate	
1482	1	automatiquement	
1483	1	autrefois	
1484	1	autrement	
1485	1	auxquelles	
1486	1	avançais	
1487	1	avançant	
1488	1	avare	
1489	1	avarice	
1490	1	avenues	
1491	1	avides	
1492	1	aviez	
1493	1	avions	
1494	1	avouer	
1495	1	ayant	
1496	1	bah	
1497	1	baldaquin	
1498	1	balle	
1499	1	ballotté	
1500	1	banal	
1501	1	barres	
1502	1	base	
1503	1	bat	
1504	1	battant	
1505	1	batterie	
1506	1	battrait	
1507	1	bavard	
1508	1	beaucoup	
1509	1	bec	
1510	1	becs	
1511	1	biais	
1512	1	bijou	
1513	1	bijoux	
1514	1	bistouri	
1515	1	blanc	
1516	1	blanchâtres	
1517	1	bleus	
1518	1	blondes	
1519	1	bondi	
1520	1	bondissaient	
1521	1	bondissant	
1522	1	bonsoir	
1523	1	borde	
1524	1	borgne	
1525	1	bottes	
1526	1	bouche	
1527	1	bouge	
1528	1	bouillait	
1529	1	bouilli	
1530	1	bouillonne	
1531	1	bourdonnent	
1532	1	bourse	
1533	1	bous	
1534	1	boutent	
1535	1	boutiques	
1536	1	bowie	
1537	1	branches	
1538	1	brave	
1539	1	braverais	
1540	1	brebis	
1541	1	brillante	
1542	1	brise	
1543	1	brisent	
1544	1	briser	
1545	1	broient	
1546	1	broyer	
1547	1	bruissantes	
1548	1	brun	
1549	1	brunes	
1550	1	brûlait	
1551	1	brûlent	
1552	1	brûlées	
1553	1	bâillon	
1554	1	bâtisse	
1555	1	bâtons	
1556	1	béant	
1557	1	béni	
1558	1	bête	
1559	1	bût	
1560	1	cabalistique	
1561	1	cache	
1562	1	caché	
1563	1	cadence	
1564	1	cadencée	
1565	1	cadre	
1566	1	cahoté	
1567	1	cake	
1568	1	calcule	
1569	1	calculez	
1570	1	calculs	
1571	1	calorique	
1572	1	cambrée	
1573	1	campagne	
1574	1	canapé	
1575	1	canif	
1576	1	cannes	
1577	1	capital	
1578	1	caprice	
1579	1	carapace	
1580	1	cargaison	
1581	1	carré	
1582	1	carte	
1583	1	case	
1584	1	cases	
1585	1	cause	
1586	1	causer	
1587	1	causions	
1588	1	cavalier	
1589	1	cavaliers	
1590	1	cellule	
1591	1	centième	
1592	1	cents	
1593	1	centuple	
1594	1	centupler	
1595	1	certains	
1596	1	cessera	
1597	1	cessé	
1598	1	chacal	
1599	1	chaises	
1600	1	champ	
1601	1	chancelai	
1602	1	chanceler	
1603	1	changé	
1604	1	chant	
1605	1	chapeau	
1606	1	charité	
1607	1	charme	
1608	1	charpentes	
1609	1	chasser	
1610	1	chat	
1611	1	chatouillement	
1612	1	chaussés	
1613	1	chaînes	
1614	1	chemin	
1615	1	cherchai	
1616	1	cherchent	
1617	1	chercher	
1618	1	cherché	
1619	1	cheval	
1620	1	cheveux	
1621	1	cheville	
1622	1	chien	
1623	1	choisi	
1624	1	chères	
1625	1	circonférence	
1626	1	circonstance	
1627	1	circonstances	
1628	1	claire	
1629	1	clameurs	
1630	1	clarté	
1631	1	clef	
1632	1	clignotant	
1633	1	cliquet	
1634	1	cloche	
1635	1	clé	
1636	1	coercitif	
1637	1	coffre	
1638	1	coffret	
1639	1	coins	
1640	1	collier	
1641	1	collé	
1642	1	colossales	
1643	1	colère	
1644	1	combinaison	
1645	1	combinaisons	
1646	1	combine	
1647	1	combustion	
1648	1	comique	
1649	1	commande	
1650	1	commander	
1651	1	commencement	
1652	1	commun	
1653	1	communication	
1654	1	communiquée	
1655	1	compagnons	
1656	1	comparaison	
1657	1	compassion	
1658	1	complices	
1659	1	composition	
1660	1	composé	
1661	1	comprenait	
1662	1	comprend	
1663	1	comprendre	
1664	1	compréhension	
1665	1	compte	
1666	1	compter	
1667	1	comédie	
1668	1	concentre	
1669	1	concentrée	
1670	1	concentrées	
1671	1	condamner	
1672	1	conduirait	
1673	1	conduire	
1674	1	conduis	
1675	1	conduit	
1676	1	confiance	
1677	1	confierai	
1678	1	confine	
1679	1	conflit	
1680	1	confondent	
1681	1	confondus	
1682	1	conférence	
1683	1	conféré	
1684	1	connaissaient	
1685	1	connaissais	
1686	1	connaissant	
1687	1	connu	
1688	1	connue	
1689	1	considérables	
1690	1	considérons	
1691	1	consigne	
1692	1	constance	
1693	1	constate	
1694	1	constater	
1695	1	constaté	
1696	1	constitutives	
1697	1	construit	
1698	1	consultation	
1699	1	consultations	
1700	1	contact	
1701	1	content	
1702	1	contente	
1703	1	contention	
1704	1	contient	
1705	1	continua	
1706	1	continuant	
1707	1	continue	
1708	1	continuel	
1709	1	contracté	
1710	1	contractées	
1711	1	contradiction	
1712	1	contretemps	
1713	1	controverse	
1714	1	convaincu	
1715	1	convenu	
1716	1	convergents	
1717	1	convexe	
1718	1	conviction	
1719	1	convient	
1720	1	convulsé	
1721	1	coq	
1722	1	coquillage	
1723	1	cordes	
1724	1	coroner	
1725	1	correspondre	
1726	1	corridor	
1727	1	corridors	
1728	1	corser	
1729	1	coton	
1730	1	couchant	
1731	1	couchée	
1732	1	coude	
1733	1	couleur	
1734	1	coupait	
1735	1	coupez	
1736	1	courageusement	
1737	1	cours	
1738	1	courtoisie	
1739	1	cous	
1740	1	couvais	
1741	1	couve	
1742	1	craignais	
1743	1	craignant	
1744	1	craignez	
1745	1	craignis	
1746	1	crains	
1747	1	craint	
1748	1	crampons	
1749	1	craque	
1750	1	craquelant	
1751	1	craquement	
1752	1	creusent	
1753	1	crie	
1754	1	crient	
1755	1	crierai	
1756	1	crispés	
1757	1	crocs	
1758	1	croie	
1759	1	croisent	
1760	1	croiser	
1761	1	croissante	
1762	1	croit	
1763	1	croix	
1764	1	croyais	
1765	1	croyait	
1766	1	croyez	
1767	1	crustacé	
1768	1	créature	
1769	1	cuir	
1770	1	cuivre	
1771	1	cultivés	
1772	1	cédait	
1773	1	cédant	
1774	1	cédera	
1775	1	cérébrale	
1776	1	cérébraux	
1777	1	daigne	
1778	1	dalle	
1779	1	damier	
1780	1	damne	
1781	1	damnés	
1782	1	dangereux	
1783	1	dardaient	
1784	1	date	
1785	1	degré	
1786	1	degrés	
1787	1	delirium	
1788	1	delà	
1789	1	demanda	
1790	1	demandai	
1791	1	demande	
1792	1	demeura	
1793	1	demeurait	
1794	1	demeure	
1795	1	dents	
1796	1	dernière	
1797	1	dernièrement	
1798	1	dernières	
1799	1	descendait	
1800	1	descendis	
1801	1	descendus	
1802	1	dessert	
1803	1	dessous	
1804	1	destiné	
1805	1	destruction	
1806	1	deuxième	
1807	1	devaient	
1808	1	devantures	
1809	1	devenait	
1810	1	devenir	
1811	1	devenu	
1812	1	devenus	
1813	1	devienne	
1814	1	devinais	
1815	1	devinait	
1816	1	deviné	
1817	1	devons	
1818	1	devra	
1819	1	devront	
1820	1	diagonale	
1821	1	diamant	
1822	1	diamants	
1823	1	diapason	
1824	1	dieux	
1825	1	dimension	
1826	1	diminue	
1827	1	diraient	
1828	1	dirais	
1829	1	directement	
1830	1	diriger	
1831	1	dirigés	
1832	1	disaient	
1833	1	disant	
1834	1	discrétion	
1835	1	discute	
1836	1	discuté	
1837	1	dise	
1838	1	disparaissent	
1839	1	disparaît	
1840	1	dispense	
1841	1	dispenser	
1842	1	disposition	
1843	1	dispositions	
1844	1	disposé	
1845	1	disposés	
1846	1	dissimulerai	
1847	1	disséminer	
1848	1	distinguai	
1849	1	distingue	
1850	1	dite	
1851	1	dites	
1852	1	divination	
1853	1	docilité	
1854	1	docte	
1855	1	doigt	
1856	1	doivent	
1857	1	dollar	
1858	1	domestique	
1859	1	domestiques	
1860	1	donnaient	
1861	1	donnent	
1862	1	donnerait	
1863	1	doodle	
1864	1	dormait	
1865	1	dormirai	
1866	1	dormis	
1867	1	dormons	
1868	1	dors	
1869	1	dorsale	
1870	1	dosant	
1871	1	dose	
1872	1	doses	
1873	1	dossier	
1874	1	doublée	
1875	1	douceur	
1876	1	douches	
1877	1	doutait	
1878	1	douté	
1879	1	drame	
1880	1	drap	
1881	1	draps	
1882	1	dressa	
1883	1	dresser	
1884	1	duquel	
1885	1	dure	
1886	1	durement	
1887	1	dussé	
1888	1	dut	
1889	1	déchiffre	
1890	1	déchirais	
1891	1	déchirer	
1892	1	déchiré	
1893	1	décida	
1894	1	décidé	
1895	1	décidément	
1896	1	déclare	
1897	1	déclaré	
1898	1	découpait	
1899	1	découpures	
1900	1	décourager	
1901	1	découverte	
1902	1	découvertes	
1903	1	décuplera	
1904	1	décès	
1905	1	déduction	
1906	1	déductions	
1907	1	défend	
1908	1	défendaient	
1909	1	défendent	
1910	1	défiante	
1911	1	défier	
1912	1	défiez	
1913	1	définirai	
1914	1	définit	
1915	1	définitif	
1916	1	défiât	
1917	1	dégage	
1918	1	dégagea	
1919	1	dégagé	
1920	1	dégusterai	
1921	1	délicatesse	
1922	1	délimité	
1923	1	démesurément	
1924	1	démoniaque	
1925	1	démontrer	
1926	1	dénoncerait	
1927	1	dénouement	
1928	1	dénué	
1929	1	dépassant	
1930	1	dépenserai	
1931	1	déployer	
1932	1	déployée	
1933	1	dépouillées	
1934	1	dérangé	
1935	1	dérobé	
1936	1	déroute	
1937	1	désagrège	
1938	1	désespérant	
1939	1	désire	
1940	1	désiré	
1941	1	désorganise	
1942	1	détachant	
1943	1	détachée	
1944	1	détail	
1945	1	détective	
1946	1	détendra	
1947	1	détente	
1948	1	déterminer	
1949	1	déterminé	
1950	1	déterminée	
1951	1	détournent	
1952	1	détraquer	
1953	1	détromperai	
1954	1	développée	
1955	1	dévier	
1956	1	dévorent	
1957	1	dévouerait	
1958	1	dût	
1959	1	effectif	
1960	1	effets	
1961	1	efflanqués	
1962	1	effondrement	
1963	1	efforcent	
1964	1	efforts	
1965	1	effraie	
1966	1	effrayant	
1967	1	embourbe	
1968	1	embrasse	
1969	1	embrasées	
1970	1	emmanché	
1971	1	employa	
1972	1	employé	
1973	1	empoisonneur	
1974	1	empoisonné	
1975	1	emportant	
1976	1	enceinte	
1977	1	enchanté	
1978	1	enchaînerait	
1979	1	endormis	
1980	1	enfantillage	
1981	1	enfermais	
1982	1	enfermé	
1983	1	enfermés	
1984	1	enfouie	
1985	1	enfuyaient	
1986	1	enfuyait	
1987	1	engageai	
1988	1	engager	
1989	1	engagé	
1990	1	enlève	
1991	1	ennemi	
1992	1	ennuie	
1993	1	enserraient	
1994	1	entablement	
1995	1	entamais	
1996	1	entamée	
1997	1	entassement	
1998	1	entend	
1999	1	entendaient	
2000	1	entendant	
2001	1	entende	
2002	1	entendit	
2003	1	entendrai	
2004	1	entendrait	
2005	1	entités	
2006	1	entourent	
2007	1	entourée	
2008	1	entrailles	
2009	1	entraîner	
2010	1	entrecoupés	
2011	1	entrecroisent	
2012	1	entrelacent	
2013	1	entrent	
2014	1	entretenue	
2015	1	entretenues	
2016	1	entretien	
2017	1	entrevoir	
2018	1	entrouverte	
2019	1	entrouvris	
2020	1	entrée	
2021	1	entrés	
2022	1	entêtement	
2023	1	entêtés	
2024	1	envahis	
2025	1	enveloppe	
2026	1	envie	
2027	1	environnait	
2028	1	errant	
2029	1	escabeaux	
2030	1	espaces	
2031	1	espionnai	
2032	1	espèce	
2033	1	espérer	
2034	1	essentiellement	
2035	1	exactes	
2036	1	exactitude	
2037	1	examine	
2038	1	examinons	
2039	1	excentrique	
2040	1	exception	
2041	1	excepté	
2042	1	excitant	
2043	1	excitent	
2044	1	excitée	
2045	1	exemple	
2046	1	exercer	
2047	1	exhale	
2048	1	exigé	
2049	1	existence	
2050	1	expansion	
2051	1	expliquer	
2052	1	exploiter	
2053	1	exprès	
2054	1	exsangues	
2055	1	externe	
2056	1	exténué	
2057	1	exécuter	
2058	1	exécution	
2059	1	faconde	
2060	1	faible	
2061	1	faiblement	
2062	1	faisais	
2063	1	faisons	
2064	1	faite	
2065	1	faits	
2066	1	fallu	
2067	1	familles	
2068	1	fantaisie	
2069	1	fardeau	
2070	1	fatigante	
2071	1	fatiguent	
2072	1	fatiguer	
2073	1	faudra	
2074	1	faufiler	
2075	1	façons	
2076	1	faîte	
2077	1	feignaient	
2078	1	feint	
2079	1	fendue	
2080	1	fente	
2081	1	fermai	
2082	1	ferme	
2083	1	ferment	
2084	1	ferrée	
2085	1	feuilles	
2086	1	feutre	
2087	1	fibre	
2088	1	ficelle	
2089	1	fiche	
2090	1	fiches	
2091	1	fichés	
2092	1	fiers	
2093	1	figure	
2094	1	filet	
2095	1	fille	
2096	1	filles	
2097	1	fin	
2098	1	finesse	
2099	1	firemen	
2100	1	fissure	
2101	1	five	
2102	1	fixais	
2103	1	fixer	
2104	1	fixes	
2105	1	fixé	
2106	1	flamme	
2107	1	flammes	
2108	1	fleuri	
2109	1	flirters	
2110	1	foin	
2111	1	fond	
2112	1	forge	
2113	1	formaient	
2114	1	formalités	
2115	1	formant	
2116	1	former	
2117	1	formidable	
2118	1	formulent	
2119	1	formuler	
2120	1	fortement	
2121	1	foule	
2122	1	fournaise	
2123	1	fourré	
2124	1	fragilité	
2125	1	frais	
2126	1	franchissais	
2127	1	frappaient	
2128	1	frappait	
2129	1	frappant	
2130	1	frappe	
2131	1	frappent	
2132	1	fredonna	
2133	1	frissonnais	
2134	1	frissonne	
2135	1	frissonnement	
2136	1	frissonné	
2137	1	froids	
2138	1	froissement	
2139	1	froncement	
2140	1	froncé	
2141	1	fruits	
2142	1	frémi	
2143	1	frémissement	
2144	1	fréquents	
2145	1	fugitif	
2146	1	fuis	
2147	1	fuite	
2148	1	fureur	
2149	1	furieuse	
2150	1	furtif	
2151	1	fuyant	
2152	1	fâcheuse	
2153	1	fébrile	
2154	1	félinement	
2155	1	fête	
2156	1	gagnai	
2157	1	gagné	
2158	1	gagnée	
2159	1	galamment	
2160	1	gant	
2161	1	garder	
2162	1	gardé	
2163	1	garnie	
2164	1	gens	
2165	1	germait	
2166	1	geste	
2167	1	gibier	
2168	1	glacées	
2169	1	glapissement	
2170	1	glissai	
2171	1	glissé	
2172	1	gosier	
2173	1	gousset	
2174	1	gouvernante	
2175	1	gracieux	
2176	1	graissé	
2177	1	grandissait	
2178	1	grappe	
2179	1	grattait	
2180	1	grave	
2181	1	gravi	
2182	1	greffe	
2183	1	griffe	
2184	1	grilles	
2185	1	grillées	
2186	1	grimace	
2187	1	gris	
2188	1	grise	
2189	1	grondeuse	
2190	1	grossi	
2191	1	grouillante	
2192	1	groupe	
2193	1	grâce	
2194	1	grésillait	
2195	1	guilleret	
2196	1	guindée	
2197	1	guéri	
2198	1	guérison	
2199	1	gâche	
2200	1	géante	
2201	1	géhenne	
2202	1	gémir	
2203	1	gémissent	
2204	1	gêne	
2205	1	habiles	
2206	1	habitué	
2207	1	hagards	
2208	1	haletant	
2209	1	halètement	
2210	1	hardi	
2211	1	harmonise	
2212	1	harpie	
2213	1	hautes	
2214	1	hauteur	
2215	1	hermétiquement	
2216	1	heurt	
2217	1	heurta	
2218	1	heurtant	
2219	1	heurte	
2220	1	heurtèrent	
2221	1	heurté	
2222	1	hisse	
2223	1	histoire	
2224	1	hoc	
2225	1	honneurs	
2226	1	honnête	
2227	1	honorable	
2228	1	hors	
2229	1	huit	
2230	1	humaines	
2231	1	humide	
2232	1	hurle	
2233	1	hurlent	
2234	1	hydrophobe	
2235	1	hydrothérapiques	
2236	1	hyperacuité	
2237	1	hypocrisie	
2238	1	hérissé	
2239	1	hésiter	
2240	1	identité	
2241	1	idées	
2242	1	ignorance	
2243	1	ignore	
2244	1	imbécile	
2245	1	imbéciles	
2246	1	imiter	
2247	1	immobile	
2248	1	immédiatement	
2249	1	impalpable	
2250	1	impalpables	
2251	1	impassible	
2252	1	impatient	
2253	1	implacable	
2254	1	impliquait	
2255	1	importance	
2256	1	important	
2257	1	importants	
2258	1	importent	
2259	1	importune	
2260	1	imposait	
2261	1	impossibilité	
2262	1	imposée	
2263	1	impuissance	
2264	1	impulsion	
2265	1	in	
2266	1	inarticulés	
2267	1	incendié	
2268	1	incertitude	
2269	1	incessamment	
2270	1	incessant	
2271	1	incessante	
2272	1	incompris	
2273	1	inconnue	
2274	1	inconnus	
2275	1	inconsciemment	
2276	1	inconsciente	
2277	1	inconscients	
2278	1	indicible	
2279	1	indéfinissable	
2280	1	inertie	
2281	1	inextricable	
2282	1	infinitésimal	
2283	1	inflammable	
2284	1	inflexion	
2285	1	informe	
2286	1	infâme	
2287	1	inintelligible	
2288	1	innocent	
2289	1	inquiet	
2290	1	inquiétude	
2291	1	insensé	
2292	1	insignifiante	
2293	1	insistai	
2294	1	insistance	
2295	1	instantanéité	
2296	1	instantanément	
2297	1	instinct	
2298	1	instinctive	
2299	1	instinctivement	
2300	1	intelligences	
2301	1	intempestivement	
2302	1	intention	
2303	1	intermittente	
2304	1	interposition	
2305	1	interroge	
2306	1	interrompaient	
2307	1	intervalle	
2308	1	intime	
2309	1	intimes	
2310	1	intolérable	
2311	1	introduisis	
2312	1	intuition	
2313	1	intéressante	
2314	1	intéressantes	
2315	1	intéresse	
2316	1	inverse	
2317	1	invincible	
2318	1	invitation	
2319	1	invite	
2320	1	inviter	
2321	1	invité	
2322	1	involontaire	
2323	1	involontairement	
2324	1	involontaires	
2325	1	iota	
2326	1	iras	
2327	1	irlandais	
2328	1	isoler	
2329	1	isolé	
2330	1	jaillir	
2331	1	jaillissait	
2332	1	jardin	
2333	1	jardinier	
2334	1	jet	
2335	1	jetait	
2336	1	jeter	
2337	1	jeté	
2338	1	joignaient	
2339	1	joindre	
2340	1	jolie	
2341	1	jouais	
2342	1	joues	
2343	1	jouez	
2344	1	jouissance	
2345	1	jouissances	
2346	1	joyeuse	
2347	1	joyeux	
2348	1	juché	
2349	1	juge	
2350	1	jugeai	
2351	1	jugement	
2352	1	jupiter	
2353	1	jusque	
2354	1	justes	
2355	1	kaempfen	
2356	1	kaléidoscope	
2357	1	kettle	
2358	1	knives	
2359	1	labouraient	
2360	1	labyrinthe	
2361	1	labyrinthes	
2362	1	laissais	
2363	1	laissait	
2364	1	laissant	
2365	1	lance	
2366	1	langue	
2367	1	lança	
2368	1	larges	
2369	1	latent	
2370	1	latente	
2371	1	lecteur	
2372	1	lente	
2373	1	levaient	
2374	1	lever	
2375	1	levée	
2376	1	liaison	
2377	1	liait	
2378	1	lien	
2379	1	lignes	
2380	1	lira	
2381	1	lise	
2382	1	lisse	
2383	1	lividité	
2384	1	livrer	
2385	1	lié	
2386	1	locomotives	
2387	1	logique	
2388	1	longues	
2389	1	lourds	
2390	1	lugubres	
2391	1	lumineuse	
2392	1	luncher	
2393	1	lunché	
2394	1	lutter	
2395	1	lutteur	
2396	1	lécher	
2397	1	légataires	
2398	1	légers	
2399	1	machinal	
2400	1	magasins	
2401	1	magnifique	
2402	1	mailles	
2403	1	maintiendra	
2404	1	maisons	
2405	1	malade	
2406	1	malades	
2407	1	maladie	
2408	1	maladroit	
2409	1	malaise	
2410	1	malhonnête	
2411	1	manche	
2412	1	mannequins	
2413	1	manque	
2414	1	manège	
2415	1	manœuvré	
2416	1	marionnettes	
2417	1	masques	
2418	1	massachusetts	
2419	1	mat	
2420	1	matches	
2421	1	mathématiquement	
2422	1	mathématiques	
2423	1	matériaux	
2424	1	matériel	
2425	1	matérielles	
2426	1	maudit	
2427	1	maîtres	
2428	1	maîtresse	
2429	1	meilleure	
2430	1	meilleurs	
2431	1	membre	
2432	1	menait	
2433	1	mentale	
2434	1	mesure	
2435	1	mesurer	
2436	1	mesures	
2437	1	mesuré	
2438	1	met	
2439	1	mets	
2440	1	mette	
2441	1	mettre	
2442	1	meurtrières	
2443	1	midi	
2444	1	mienne	
2445	1	migraine	
2446	1	milles	
2447	1	milliers	
2448	1	millième	
2449	1	mise	
2450	1	misses	
2451	1	misère	
2452	1	misérable	
2453	1	mit	
2454	1	mixte	
2455	1	modifiée	
2456	1	moisissure	
2457	1	monitoire	
2458	1	monomanie	
2459	1	monosyllabes	
2460	1	monotone	
2461	1	monotonies	
2462	1	monsieur	
2463	1	monstrueuse	
2464	1	montant	
2465	1	montants	
2466	1	montrer	
2467	1	monté	
2468	1	moque	
2469	1	mord	
2470	1	mordaient	
2471	1	mordue	
2472	1	mortes	
2473	1	morts	
2474	1	motrice	
2475	1	moulin	
2476	1	moulures	
2477	1	mourir	
2478	1	mourus	
2479	1	mouvait	
2480	1	mues	
2481	1	mus	
2482	1	mutuellement	
2483	1	mystérieux	
2484	1	mères	
2485	1	mécanique	
2486	1	méchant	
2487	1	ménagé	
2488	1	ménagée	
2489	1	méprendre	
2490	1	mérite	
2491	1	méthodique	
2492	1	méthodiquement	
2493	1	mêlant	
2494	1	narcotique	
2495	1	national	
2496	1	naturellement	
2497	1	naufrage	
2498	1	nerveux	
2499	1	net	
2500	1	netteté	
2501	1	new	
2502	1	nez	
2503	1	nient	
2504	1	niveau	
2505	1	noire	
2506	1	noires	
2507	1	noirâtre	
2508	1	nomment	
2509	1	nord	
2510	1	norme	
2511	1	notable	
2512	1	nouvel	
2513	1	nuits	
2514	1	néant	
2515	1	nécessitèrent	
2516	1	nécessité	
2517	1	nœud	
2518	1	obligeant	
2519	1	obligé	
2520	1	obscurcir	
2521	1	observais	
2522	1	observation	
2523	1	obstacle	
2524	1	obstinément	
2525	1	obstruée	
2526	1	obsède	
2527	1	obsédé	
2528	1	obtus	
2529	1	obéir	
2530	1	obéissant	
2531	1	occupais	
2532	1	occupe	
2533	1	occupons	
2534	1	odeur	
2535	1	offerte	
2536	1	office	
2537	1	offrir	
2538	1	oiseau	
2539	1	olivâtre	
2540	1	ombres	
2541	1	onze	
2542	1	opaque	
2543	1	oppose	
2544	1	opposé	
2545	1	oppressait	
2546	1	oppresse	
2547	1	opère	
2548	1	opérais	
2549	1	opérer	
2550	1	orbite	
2551	1	ordonné	
2552	1	ordre	
2553	1	organisation	
2554	1	organisent	
2555	1	organisme	
2556	1	orgueil	
2557	1	osai	
2558	1	oubli	
2559	1	oublierai	
2560	1	ouiche	
2561	1	ouverte	
2562	1	ouvertes	
2563	1	ouvrage	
2564	1	ouvrait	
2565	1	ouvrent	
2566	1	ouvriers	
2567	1	ouvrirai	
2568	1	ouvrit	
2569	1	pacte	
2570	1	pages	
2571	1	paillettes	
2572	1	paletot	
2573	1	palier	
2574	1	palpitantes	
2575	1	panaches	
2576	1	papier	
2577	1	paraisse	
2578	1	paraissent	
2579	1	parallélogramme	
2580	1	paraîtrait	
2581	1	parcourir	
2582	1	pareil	
2583	1	pareille	
2584	1	parer	
2585	1	parfaite	
2586	1	parlai	
2587	1	parlent	
2588	1	parlerai	
2589	1	parlerions	
2590	1	parleur	
2591	1	parlons	
2592	1	parlât	
2593	1	paroles	
2594	1	partage	
2595	1	partager	
2596	1	partagera	
2597	1	partagé	
2598	1	partant	
2599	1	parte	
2600	1	particulier	
2601	1	particulière	
2602	1	parties	
2603	1	partirai	
2604	1	partner	
2605	1	partout	
2606	1	paru	
2607	1	parut	
2608	1	parvenaient	
2609	1	parvenait	
2610	1	parviennent	
2611	1	parvint	
2612	1	passage	
2613	1	passerai	
2614	1	passons	
2615	1	patente	
2616	1	patience	
2617	1	paupière	
2618	1	paupières	
2619	1	pauvre	
2620	1	pauvres	
2621	1	pavillon	
2622	1	payer	
2623	1	payé	
2624	1	peines	
2625	1	peint	
2626	1	peinture	
2627	1	pend	
2628	1	pensait	
2629	1	pensantes	
2630	1	penser	
2631	1	pensé	
2632	1	percevaient	
2633	1	percevais	
2634	1	percher	
2635	1	perdant	
2636	1	perdue	
2637	1	perfection	
2638	1	perforer	
2639	1	permet	
2640	1	permettait	
2641	1	permettrez	
2642	1	permis	
2643	1	persiste	
2644	1	personnage	
2645	1	personnages	
2646	1	personnalités	
2647	1	personnel	
2648	1	personnes	
2649	1	persuadés	
2650	1	perçants	
2651	1	perçus	
2652	1	pesant	
2653	1	peser	
2654	1	petites	
2655	1	petto	
2656	1	peuplés	
2657	1	peuvent	
2658	1	peux	
2659	1	phrases	
2660	1	physionomie	
2661	1	piaffait	
2662	1	pierre	
2663	1	pierreries	
2664	1	pierres	
2665	1	pion	
2666	1	piétine	
2667	1	piétinement	
2668	1	placidité	
2669	1	plaignant	
2670	1	plaine	
2671	1	plaintif	
2672	1	plaise	
2673	1	planches	
2674	1	plat	
2675	1	plaçons	
2676	1	pleine	
2677	1	pleines	
2678	1	pleins	
2679	1	pleurer	
2680	1	pli	
2681	1	plient	
2682	1	plis	
2683	1	plissement	
2684	1	plié	
2685	1	plonge	
2686	1	plongeais	
2687	1	plongerai	
2688	1	plongé	
2689	1	pluie	
2690	1	plum	
2691	1	plâtre	
2692	1	plénitude	
2693	1	poigne	
2694	1	poignet	
2695	1	poignets	
2696	1	poignée	
2697	1	poil	
2698	1	poindre	
2699	1	poings	
2700	1	poisson	
2701	1	politesse	
2702	1	pomme	
2703	1	pores	
2704	1	port	
2705	1	portait	
2706	1	portrait	
2707	1	porté	
2708	1	posa	
2709	1	posai	
2710	1	poser	
2711	1	positive	
2712	1	possédait	
2713	1	poste	
2714	1	posée	
2715	1	pouce	
2716	1	poudre	
2717	1	pourrions	
2718	1	poursuite	
2719	1	poursuivaient	
2720	1	pourvu	
2721	1	poussant	
2722	1	poussé	
2723	1	pouvoir	
2724	1	pouvons	
2725	1	poète	
2726	1	pratique	
2727	1	pratiquée	
2728	1	pratiquées	
2729	1	prenaient	
2730	1	prenait	
2731	1	prenant	
2732	1	prends	
2733	1	prenons	
2734	1	pressens	
2735	1	presser	
2736	1	pression	
2737	1	prie	
2738	1	prix	
2739	1	problèmes	
2740	1	proche	
2741	1	procédons	
2742	1	produise	
2743	1	produisent	
2744	1	produisit	
2745	1	produisît	
2746	1	produits	
2747	1	professeur	
2748	1	profondément	
2749	1	proférer	
2750	1	proféré	
2751	1	proie	
2752	1	projection	
2753	1	projetée	
2754	1	promener	
2755	1	promesse	
2756	1	promet	
2757	1	prononce	
2758	1	prononcer	
2759	1	prononcerai	
2760	1	prononcé	
2761	1	prononcés	
2762	1	propice	
2763	1	proportionnellement	
2764	1	proportions	
2765	1	proposait	
2766	1	proposé	
2767	1	propriétaire	
2768	1	protestations	
2769	1	prouver	
2770	1	prouverai	
2771	1	prouvée	
2772	1	prouvés	
2773	1	provenant	
2774	1	prudent	
2775	1	précieuses	
2776	1	précipitation	
2777	1	précipitations	
2778	1	précipiter	
2779	1	précipitèrent	
2780	1	précurseur	
2781	1	prédicateur	
2782	1	préliminaires	
2783	1	préoccupé	
2784	1	préparation	
2785	1	préparé	
2786	1	présenter	
2787	1	prétend	
2788	1	prétendent	
2789	1	prévisions	
2790	1	prêches	
2791	1	puiserai	
2792	1	puissant	
2793	1	puissante	
2794	1	pupilles	
2795	1	pur	
2796	1	pus	
2797	1	pusse	
2798	1	pussent	
2799	1	pâlis	
2800	1	pâteux	
2801	1	pâtisseries	
2802	1	pénible	
2803	1	pénétré	
2804	1	périmètre	
2805	1	période	
2806	1	péripéties	
2807	1	pêne	
2808	1	qualité	
2809	1	quant	
2810	1	quarante	
2811	1	quelles	
2812	1	quelquefois	
2813	1	quiconque	
2814	1	quinte	
2815	1	quintuple	
2816	1	quittaient	
2817	1	quittait	
2818	1	quitte	
2819	1	quitter	
2820	1	quittez	
2821	1	quitté	
2822	1	quoiqu	
2823	1	rabougrissent	
2824	1	race	
2825	1	racine	
2826	1	raconter	
2827	1	raidissent	
2828	1	raidit	
2829	1	raie	
2830	1	raille	
2831	1	railleur	
2832	1	rainure	
2833	1	raisonnablement	
2834	1	ramper	
2835	1	rapidement	
2836	1	rappelait	
2837	1	rappeler	
2838	1	rappelez	
2839	1	rappelons	
2840	1	rapporte	
2841	1	rapproche	
2842	1	rapproché	
2843	1	rassure	
2844	1	rattacher	
2845	1	rauque	
2846	1	rauques	
2847	1	rebondi	
2848	1	recevoir	
2849	1	recherches	
2850	1	recommencera	
2851	1	recommença	
2852	1	reconnaître	
2853	1	reconnu	
2854	1	reconnus	
2855	1	recours	
2856	1	recouverts	
2857	1	rectangle	
2858	1	rectitude	
2859	1	recule	
2860	1	reculer	
2861	1	reculerais	
2862	1	redescend	
2863	1	redressé	
2864	1	refermai	
2865	1	refermait	
2866	1	referme	
2867	1	refoulait	
2868	1	refroidi	
2869	1	regardais	
2870	1	regardent	
2871	1	regarderai	
2872	1	regarderais	
2873	1	registre	
2874	1	regrettassent	
2875	1	reine	
2876	1	rejeté	
2877	1	rejetée	
2878	1	rejoindre	
2879	1	rejoint	
2880	1	relatif	
2881	1	relativement	
2882	1	relativité	
2883	1	relevée	
2884	1	reléguée	
2885	1	remarquable	
2886	1	remarquez	
2887	1	remarquons	
2888	1	remarquée	
2889	1	remarquées	
2890	1	rembourrée	
2891	1	remercierais	
2892	1	remets	
2893	1	remis	
2894	1	remontrances	
2895	1	remuait	
2896	1	remue	
2897	1	remué	
2898	1	renaissante	
2899	1	rencontrerais	
2900	1	rende	
2901	1	rendez	
2902	1	renfermant	
2903	1	renferme	
2904	1	renfoncés	
2905	1	renonce	
2906	1	renoncé	
2907	1	rentrait	
2908	1	rentrant	
2909	1	rentrer	
2910	1	rentrerai	
2911	1	rentré	
2912	1	rentrée	
2913	1	renverse	
2914	1	repasse	
2915	1	repliés	
2916	1	reposer	
2917	1	reposé	
2918	1	repoussai	
2919	1	reprenais	
2920	1	reprendrai	
2921	1	reprendre	
2922	1	représente	
2923	1	représenté	
2924	1	respectable	
2925	1	respecter	
2926	1	responsabilité	
2927	1	ressemblait	
2928	1	ressemble	
2929	1	resserre	
2930	1	restait	
2931	1	restez	
2932	1	retenait	
2933	1	retenant	
2934	1	retentît	
2935	1	retirer	
2936	1	retombaient	
2937	1	retombe	
2938	1	retournai	
2939	1	retourner	
2940	1	retournerai	
2941	1	retrouvé	
2942	1	revenir	
2943	1	revenu	
2944	1	revoir	
2945	1	revois	
2946	1	revu	
2947	1	revue	
2948	1	revêche	
2949	1	revêtue	
2950	1	rez	
2951	1	reçoit	
2952	1	reçut	
2953	1	rhombus	
2954	1	ri	
2955	1	riant	
2956	1	riche	
2957	1	richesses	
2958	1	rictus	
2959	1	ride	
2960	1	rirai	
2961	1	rit	
2962	1	rivé	
2963	1	rivée	
2964	1	rivées	
2965	1	roi	
2966	1	rompu	
2967	1	ronde	
2968	1	rondelle	
2969	1	ronge	
2970	1	rongement	
2971	1	ronron	
2972	1	ronronnant	
2973	1	roquer	
2974	1	rose	
2975	1	rouage	
2976	1	roue	
2977	1	roues	
2978	1	rouges	
2979	1	rougeâtres	
2980	1	rubber	
2981	1	ruement	
2982	1	ruisselait	
2983	1	rumine	
2984	1	rusé	
2985	1	râle	
2986	1	récalcitrant	
2987	1	réclamer	
2988	1	récompensent	
2989	1	récompenser	
2990	1	réel	
2991	1	réflexe	
2992	1	réfléchis	
2993	1	réfléchissait	
2994	1	réfléchisse	
2995	1	régler	
2996	1	réjoui	
2997	1	réparer	
2998	1	répercuta	
2999	1	répercutait	
3000	1	répond	
3001	1	répondant	
3002	1	répondre	
3003	1	répondu	
3004	1	réponse	
3005	1	répète	
3006	1	répétaient	
3007	1	répétais	
3008	1	répéter	
3009	1	répété	
3010	1	réserve	
3011	1	réside	
3012	1	résista	
3013	1	résister	
3014	1	résolus	
3015	1	résolution	
3016	1	résonne	
3017	1	résonné	
3018	1	résultant	
3019	1	résultats	
3020	1	réticences	
3021	1	rétrécissant	
3022	1	réunies	
3023	1	réunion	
3024	1	réunis	
3025	1	réunissent	
3026	1	réveille	
3027	1	réveillent	
3028	1	réveillez	
3029	1	révélation	
3030	1	rêvant	
3031	1	rêve	
3032	1	rôde	
3033	1	rôties	
3034	1	saccadée	
3035	1	saigné	
3036	1	saignées	
3037	1	saillie	
3038	1	saine	
3039	1	sains	
3040	1	saisi	
3041	1	saisies	
3042	1	saisisse	
3043	1	salive	
3044	1	salle	
3045	1	saluer	
3046	1	salut	
3047	1	salé	
3048	1	sanglote	
3049	1	santé	
3050	1	sarabande	
3051	1	satisfaction	
3052	1	satisfait	
3053	1	sauce	
3054	1	saufs	
3055	1	saurais	
3056	1	saute	
3057	1	sauter	
3058	1	sautiller	
3059	1	sauvage	
3060	1	sauverait	
3061	1	sauvetage	
3062	1	savait	
3063	1	saviez	
3064	1	scalpel	
3065	1	science	
3066	1	scintillèrent	
3067	1	scène	
3068	1	scènes	
3069	1	secondes	
3070	1	secoue	
3071	1	secouer	
3072	1	secrète	
3073	1	semblable	
3074	1	semelle	
3075	1	semelles	
3076	1	sensations	
3077	1	sensibilité	
3078	1	sensé	
3079	1	sent	
3080	1	sentaient	
3081	1	senti	
3082	1	sentimentales	
3083	1	seront	
3084	1	serre	
3085	1	serré	
3086	1	serrée	
3087	1	service	
3088	1	servir	
3089	1	servira	
3090	1	servit	
3091	1	seules	
3092	1	sherry	
3093	1	sien	
3094	1	sienne	
3095	1	signe	
3096	1	signifie	
3097	1	silencieux	
3098	1	simplement	
3099	1	simples	
3100	1	singleton	
3101	1	singulière	
3102	1	sinistres	
3103	1	siècle	
3104	1	siège	
3105	1	smarra	
3106	1	soie	
3107	1	soigner	
3108	1	soirs	
3109	1	soirée	
3110	1	solaires	
3111	1	soleil	
3112	1	solides	
3113	1	sollicite	
3114	1	solution	
3115	1	sombres	
3116	1	songerai	
3117	1	songé	
3118	1	sonnassent	
3119	1	sonnent	
3120	1	sonner	
3121	1	sonné	
3122	1	sortent	
3123	1	sortie	
3124	1	sortons	
3125	1	sot	
3126	1	soucie	
3127	1	souffert	
3128	1	soufflai	
3129	1	soufflant	
3130	1	soufflet	
3131	1	souffrances	
3132	1	souffre	
3133	1	souffrirai	
3134	1	souhaite	
3135	1	souhaité	
3136	1	soulevé	
3137	1	souliers	
3138	1	soulève	
3139	1	soupçonnaient	
3140	1	soupçonneux	
3141	1	soupçonné	
3142	1	soupçons	
3143	1	sourd	
3144	1	sourde	
3145	1	sourdement	
3146	1	sourds	
3147	1	souriant	
3148	1	souriante	
3149	1	souris	
3150	1	soutenait	
3151	1	soutenue	
3152	1	souviendrait	
3153	1	souvienne	
3154	1	souvient	
3155	1	spacieux	
3156	1	spectres	
3157	1	spécial	
3158	1	spécialité	
3159	1	squares	
3160	1	strangulation	
3161	1	stratégise	
3162	1	subitement	
3163	1	subsiste	
3164	1	subterfuge	
3165	1	successivement	
3166	1	succède	
3167	1	succédait	
3168	1	sueur	
3169	1	suffi	
3170	1	suffisant	
3171	1	suite	
3172	1	suive	
3173	1	suivit	
3174	1	sujet	
3175	1	superacuité	
3176	1	superfaculté	
3177	1	supposable	
3178	1	supposai	
3179	1	supposais	
3180	1	supposer	
3181	1	supposition	
3182	1	suppositions	
3183	1	supposé	
3184	1	supériorité	
3185	1	surexcité	
3186	1	surgissais	
3187	1	surgissent	
3188	1	surlendemain	
3189	1	surprend	
3190	1	surprendre	
3191	1	surprenne	
3192	1	surpris	
3193	1	surprise	
3194	1	sursaut	
3195	1	surtout	
3196	1	surveillaient	
3197	1	surveillant	
3198	1	surveille	
3199	1	surveiller	
3200	1	surveillé	
3201	1	suspendis	
3202	1	suspendu	
3203	1	synthétistes	
3204	1	système	
3205	1	sèches	
3206	1	séduisit	
3207	1	séparent	
3208	1	séparerait	
3209	1	séparons	
3210	1	série	
3211	1	sérieusement	
3212	1	sûre	
3213	1	sûrs	
3214	1	taille	
3215	1	talent	
3216	1	tamisées	
3217	1	tarde	
3218	1	tarifant	
3219	1	teint	
3220	1	teinte	
3221	1	tel	
3222	1	tempête	
3223	1	tendaient	
3224	1	tendais	
3225	1	tendant	
3226	1	tendus	
3227	1	tension	
3228	1	tentais	
3229	1	tentation	
3230	1	tenter	
3231	1	terrains	
3232	1	théâtre	
3233	1	tierce	
3234	1	timide	
3235	1	tinte	
3236	1	tire	
3237	1	tiré	
3238	1	tissu	
3239	1	titubèrent	
3240	1	toast	
3241	1	toit	
3242	1	tombai	
3243	1	tombait	
3244	1	tombant	
3245	1	tombeau	
3246	1	tonalité	
3247	1	tonique	
3248	1	tonnerre	
3249	1	topographie	
3250	1	torturait	
3251	1	torture	
3252	1	totale	
3253	1	touchant	
3254	1	touchez	
3255	1	touchât	
3256	1	touffus	
3257	1	tourbillonnantes	
3258	1	tourmentait	
3259	1	tournent	
3260	1	tourner	
3261	1	tracer	
3262	1	tracé	
3263	1	trahi	
3264	1	trahirait	
3265	1	trahison	
3266	1	trahît	
3267	1	train	
3268	1	trait	
3269	1	traitent	
3270	1	transpercé	
3271	1	transporta	
3272	1	transporte	
3273	1	transporté	
3274	1	transsudation	
3275	1	travaille	
3276	1	travaillerai	
3277	1	travailleurs	
3278	1	traversa	
3279	1	traversai	
3280	1	traversé	
3281	1	traînée	
3282	1	tremblais	
3283	1	tremblant	
3284	1	tremble	
3285	1	tremblé	
3286	1	tremens	
3287	1	tressaillement	
3288	1	tressaillit	
3289	1	tressautant	
3290	1	tressautement	
3291	1	tri	
3292	1	triangle	
3293	1	tribunal	
3294	1	triple	
3295	1	trompais	
3296	1	tromper	
3297	1	trottoir	
3298	1	troublé	
3299	1	trouvaient	
3300	1	trouvez	
3301	1	trouvée	
3302	1	trouvés	
3303	1	trépignât	
3304	1	tu	
3305	1	tus	
3306	1	tué	
3307	1	tâche	
3308	1	témoigné	
3309	1	témoin	
3310	1	tétaniques	
3311	1	têtes	
3312	1	ultra	
3313	1	ultérieures	
3314	1	ululation	
3315	1	uniquement	
3316	1	unis	
3317	1	unissaient	
3318	1	user	
3319	1	utile	
3320	1	vaguement	
3321	1	vaincre	
3322	1	vaisseau	
3323	1	vapeur	
3324	1	vaste	
3325	1	vaut	
3326	1	veillaient	
3327	1	veillait	
3328	1	veillant	
3329	1	veilleuse	
3330	1	velours	
3331	1	venant	
3332	1	venir	
3333	1	venus	
3334	1	verdict	
3335	1	verres	
3336	1	verrous	
3337	1	versé	
3338	1	vertigineuse	
3339	1	vertigineux	
3340	1	vertu	
3341	1	veuillez	
3342	1	veulent	
3343	1	victime	
3344	1	vieillards	
3345	1	vieilles	
3346	1	viendrait	
3347	1	vigoureusement	
3348	1	vigoureuses	
3349	1	vigueur	
3350	1	vilebrequin	
3351	1	vingtième	
3352	1	visages	
3353	1	visible	
3354	1	visiteurs	
3355	1	visuels	
3356	1	vit	
3357	1	vitale	
3358	1	vivais	
3359	1	vivante	
3360	1	vive	
3361	1	voie	
3362	1	voile	
3363	1	voilé	
3364	1	voisine	
3365	1	voisins	
3366	1	volets	
3367	1	voleur	
3368	1	vouloir	
3369	1	voulus	
3370	1	voyez	
3371	1	voyiez	
3372	1	voûtes	
3373	1	vraie	
3374	1	vrais	
3375	1	vrillée	
3376	1	vus	
3377	1	vérifier	
3378	1	véritable	
3379	1	vêtement	
3380	1	whist	
3381	1	yankee	
3382	1	yards	
3383	1	york	
3384	1	º	
3385	1	âcre	
3386	1	âpre	
3387	1	ébranlement	
3388	1	écarte	
3389	1	écarté	
3390	1	échafaudage	
3391	1	échappent	
3392	1	échappèrent	
3393	1	échappé	
3394	1	échappée	
3395	1	échappés	
3396	1	échauffés	
3397	1	écheveau	
3398	1	échiquier	
3399	1	échos	
3400	1	éclair	
3401	1	éclaircir	
3402	1	éclairer	
3403	1	éclairées	
3404	1	éclatant	
3405	1	éclate	
3406	1	éclaterai	
3407	1	écloses	
3408	1	économies	
3409	1	écoule	
3410	1	écoutai	
3411	1	écoutait	
3412	1	écouterai	
3413	1	écoutons	
3414	1	écouté	
3415	1	écraser	
3416	1	écrit	
3417	1	écroulement	
3418	1	écument	
3419	1	édifiait	
3420	1	égard	
3421	1	égards	
3422	1	élan	
3423	1	élance	
3424	1	élancer	
3425	1	élancèrent	
3426	1	élança	
3427	1	élançaient	
3428	1	élevé	
3429	1	élégant	
3430	1	éléments	
3431	1	émerillonné	
3432	1	émousserait	
3433	1	ému	
3434	1	énervé	
3435	1	énigme	
3436	1	énorme	
3437	1	épiait	
3438	1	épiant	
3439	1	épiderme	
3440	1	épine	
3441	1	éprouveraient	
3442	1	épuisé	
3443	1	épée	
3444	1	équilibre	
3445	1	équivalente	
3446	1	étage	
3447	1	étages	
3448	1	éteint	
3449	1	éternel	
3450	1	étiez	
3451	1	étincelantes	
3452	1	étirant	
3453	1	étirent	
3454	1	étoffe	
3455	1	étoiles	
3456	1	étonnement	
3457	1	étourdi	
3458	1	étranger	
3459	1	étrangeté	
3460	1	étreignait	
3461	1	étreindre	
3462	1	étreint	
3463	1	étroit	
3464	1	étudiai	
3465	1	évanoui	
3466	1	éveil	
3467	1	éveiller	
3468	1	évolution	
3469	1	êtes	
