1,200,et
2,176,de
3,157,le
4,124,la
5,119,les
6,105,des
7,88,il
8,87,d
9,73,roi
10,49,un
11,42,à
12,41,l
13,41,une
14,39,du
15,38,sur
16,37,qui
17,36,dans
18,36,or
19,36,se
20,33,s
21,31,dit
22,31,je
23,29,ses
24,29,son
25,28,en
26,28,par
27,28,sa
28,27,au
29,25,masque
30,25,que
31,23,avait
32,22,pas
33,21,vers
34,20,avec
35,20,étaient
36,20,était
37,19,ne
38,19,où
39,19,prêtres
40,18,leurs
41,18,visage
42,17,a
43,17,bouffons
44,17,femmes
45,17,mais
46,17,tu
47,16,ceux
48,16,comme
49,16,elle
50,16,lui
51,16,n
52,16,qu
53,15,jeune
54,15,yeux
55,14,ce
56,14,fille
57,12,masques
58,12,même
59,12,plus
60,12,visages
61,12,y
62,11,aveugle
63,11,est
64,11,mains
65,11,mendiant
66,11,pour
67,10,car
68,10,gardes
69,10,j
70,10,puis
71,10,sont
72,9,aux
73,9,dont
74,9,figure
75,9,ils
76,9,leur
77,9,m
78,9,me
79,9,ont
80,9,trône
81,9,vous
82,8,ai
83,8,autres
84,8,cette
85,8,cité
86,8,encore
87,8,homme
88,8,ma
89,8,mes
90,8,moi
91,8,sous
92,8,être
93,7,ainsi
94,7,ces
95,7,cœur
96,7,devant
97,7,face
98,7,ni
99,7,on
100,7,parmi
101,7,race
102,7,salle
103,7,tourna
104,6,avaient
105,6,celui
106,6,cependant
107,6,cinquante
108,6,lèvres
109,6,lépreux
110,6,misérables
111,6,mon
112,6,noir
113,6,nous
114,6,rire
115,6,rois
116,6,salles
117,6,sept
118,6,suis
119,6,ta
120,6,toi
121,6,tous
122,6,tête
123,6,voix
124,5,bois
125,5,brasier
126,5,depuis
127,5,gauche
128,5,hommes
129,5,lumière
130,5,là
131,5,nuit
132,5,ou
133,5,palais
134,5,rien
135,5,sang
136,5,sans
137,5,si
138,5,soleil
139,5,te
140,5,été
141,4,afin
142,4,airain
143,4,alors
144,4,arbres
145,4,argent
146,4,as
147,4,autre
148,4,ayant
149,4,c
150,4,cri
151,4,droite
152,4,eau
153,4,elles
154,4,entre
155,4,es
156,4,fleuve
157,4,grande
158,4,heures
159,4,jusqu
160,4,lune
161,4,lèpre
162,4,misérable
163,4,pain
164,4,pendant
165,4,pensant
166,4,peut
167,4,pied
168,4,quand
169,4,rose
170,4,royal
171,4,sais
172,4,soie
173,4,sombre
174,4,sommeil
175,4,tes
176,4,torchère
177,4,toucher
178,4,traversa
179,4,vin
180,3,angoisse
181,3,années
182,3,armes
183,3,arrachés
184,3,arrêta
185,3,aussi
186,3,avança
187,3,avoir
188,3,bas
189,3,beauté
190,3,berge
191,3,blanche
192,3,blanches
193,3,bras
194,3,brebis
195,3,bronze
196,3,centre
197,3,choses
198,3,ci
199,3,ciel
200,3,clochettes
201,3,corps
202,3,coussins
203,3,doute
204,3,déchira
205,3,désir
206,3,entendait
207,3,entendit
208,3,entends
209,3,eut
210,3,festins
211,3,figures
212,3,fit
213,3,flamme
214,3,fois
215,3,fond
216,3,garde
217,3,gong
218,3,grave
219,3,horreur
220,3,joues
221,3,lames
222,3,leva
223,3,maladie
224,3,masqué
225,3,monde
226,3,mort
227,3,métaux
228,3,noirs
229,3,nue
230,3,o
231,3,passa
232,3,peau
233,3,pointe
234,3,porte
235,3,portes
236,3,portrait
237,3,pâle
238,3,regard
239,3,rouge
240,3,rouges
241,3,route
242,3,royale
243,3,répondit
244,3,résidence
245,3,résine
246,3,saisit
247,3,sourire
248,3,torches
249,3,trouva
250,3,vêtements
251,3,écailles
252,3,épaules
253,2,acier
254,2,allait
255,2,anciens
256,2,anneaux
257,2,appartement
258,2,après
259,2,arriva
260,2,assises
261,2,aurais
262,2,aussitôt
263,2,autour
264,2,avant
265,2,baiser
266,2,barbe
267,2,basse
268,2,bleu
269,2,bouche
270,2,brume
271,2,brunes
272,2,cause
273,2,celle
274,2,cercle
275,2,chair
276,2,concentriques
277,2,connut
278,2,considéra
279,2,contre
280,2,coucher
281,2,couleur
282,2,coulé
283,2,coupe
284,2,cours
285,2,craignait
286,2,creusées
287,2,cria
288,2,crochets
289,2,croissant
290,2,croûte
291,2,cuivre
292,2,debout
293,2,demanda
294,2,dernier
295,2,dernière
296,2,derrière
297,2,dessus
298,2,deux
299,2,dirigea
300,2,doigts
301,2,découvert
302,2,désignés
303,2,dû
304,2,entrer
305,2,eu
306,2,eux
307,2,extrémité
308,2,fer
309,2,fil
310,2,fleurs
311,2,flottait
312,2,frappa
313,2,front
314,2,fêtes
315,2,gaieté
316,2,galerie
317,2,gorge
318,2,gourde
319,2,haute
320,2,herbe
321,2,heure
322,2,honte
323,2,horizon
324,2,horrible
325,2,hérissée
326,2,ici
327,2,ignoraient
328,2,immuable
329,2,incertains
330,2,inclina
331,2,interdit
332,2,intérieur
333,2,jadis
334,2,jamais
335,2,jambe
336,2,jaune
337,2,jaunes
338,2,jeta
339,2,laine
340,2,laissez
341,2,large
342,2,lentement
343,2,lit
344,2,longtemps
345,2,longue
346,2,lépreuse
347,2,main
348,2,masqués
349,2,mauvais
350,2,membres
351,2,mensonge
352,2,miroitaient
353,2,montra
354,2,muraille
355,2,murailles
356,2,métalliques
357,2,mêmes
358,2,nommait
359,2,obscure
360,2,oiseaux
361,2,oracles
362,2,ordre
363,2,ouverts
364,2,panier
365,2,parole
366,2,pauvre
367,2,peine
368,2,percés
369,2,peu
370,2,piques
371,2,plante
372,2,point
373,2,poli
374,2,pourpre
375,2,pourquoi
376,2,première
377,2,puisqu
378,2,puisque
379,2,quelques
380,2,quenouille
381,2,rafraîchir
382,2,rage
383,2,rapides
384,2,reconnut
385,2,reins
386,2,reposer
387,2,royaume
388,2,sachant
389,2,savait
390,2,savoir
391,2,semblable
392,2,semblaient
393,2,seul
394,2,sombres
395,2,sonner
396,2,sortit
397,2,souci
398,2,souiller
399,2,souvint
400,2,tables
401,2,tandis
402,2,tenait
403,2,terre
404,2,tournant
405,2,tout
406,2,tremblaient
407,2,tristes
408,2,trompé
409,2,très
410,2,tumulte
411,2,vases
412,2,veux
413,2,vieil
414,2,vieux
415,2,vit
416,2,voici
417,2,vois
418,2,voudrais
419,2,voulait
420,2,voulu
421,2,voyaient
422,2,voyait
423,2,vu
424,2,véritablement
425,2,vêtus
426,2,écarta
427,2,écarté
428,2,éclatants
429,2,épaisse
430,2,étendue
431,2,étreint
432,1,abandonner
433,1,abattaient
434,1,abattirent
435,1,abattre
436,1,abord
437,1,abusé
438,1,adorer
439,1,adresse
440,1,affaissait
441,1,agitaient
442,1,agitation
443,1,agité
444,1,agités
445,1,aient
446,1,aiguë
447,1,ailes
448,1,air
449,1,alentour
450,1,allons
451,1,altérée
452,1,amer
453,1,amoncelées
454,1,amusa
455,1,amusais
456,1,anatole
457,1,ancien
458,1,ancêtres
459,1,angles
460,1,animaux
461,1,animées
462,1,apercevoir
463,1,apparence
464,1,approchaient
465,1,approchons
466,1,arrachement
467,1,arraché
468,1,arrivait
469,1,arriverons
470,1,artificiel
471,1,asile
472,1,assis
473,1,assise
474,1,assit
475,1,assurer
476,1,aurait
477,1,avais
478,1,avez
479,1,avouer
480,1,aérien
481,1,baie
482,1,baignée
483,1,baisa
484,1,baise
485,1,baissa
486,1,baissant
487,1,balanceuses
488,1,ballonnées
489,1,bassin
490,1,battement
491,1,beaux
492,1,bec
493,1,belle
494,1,besoin
495,1,bien
496,1,bissac
497,1,blancheur
498,1,blanchâtre
499,1,blessés
500,1,bleues
501,1,bleuâtre
502,1,bloc
503,1,bon
504,1,bonds
505,1,bord
506,1,bouches
507,1,boules
508,1,bout
509,1,briller
510,1,brins
511,1,brisa
512,1,brodés
513,1,bruit
514,1,brûlaient
515,1,bu
516,1,bâties
517,1,béliers
518,1,bêtes
519,1,cachette
520,1,cambrés
521,1,campagne
522,1,caressa
523,1,caresser
524,1,caressée
525,1,cassure
526,1,ceci
527,1,ceinture
528,1,cela
529,1,cendre
530,1,cerclaient
531,1,cercles
532,1,certains
533,1,certes
534,1,cet
535,1,chaleur
536,1,chambre
537,1,chancelant
538,1,chanvre
539,1,chaque
540,1,charmante
541,1,charmé
542,1,cherchait
543,1,cheveux
544,1,chose
545,1,chrysanthèmes
546,1,chuchotent
547,1,claires
548,1,coiffant
549,1,coin
550,1,coins
551,1,collines
552,1,collés
553,1,colonne
554,1,commanda
555,1,comment
556,1,conduis
557,1,confusion
558,1,conjecturer
559,1,connais
560,1,connaissait
561,1,conseils
562,1,contemplé
563,1,continuelle
564,1,contraints
565,1,contrée
566,1,couchant
567,1,couchés
568,1,coula
569,1,couler
570,1,coup
571,1,coupure
572,1,coupées
573,1,cour
574,1,courant
575,1,courba
576,1,courbée
577,1,courbées
578,1,couronnant
579,1,couronne
580,1,courut
581,1,coutume
582,1,couvercles
583,1,couverte
584,1,couvertures
585,1,couvrait
586,1,couvrir
587,1,craignant
588,1,craint
589,1,crapaud
590,1,crevé
591,1,crible
592,1,crimes
593,1,croissait
594,1,croisé
595,1,croisées
596,1,croisés
597,1,croyais
598,1,cruelle
599,1,cueillit
600,1,curieux
601,1,cérémonies
602,1,dallée
603,1,dansait
604,1,dardait
605,1,degrés
606,1,demi
607,1,derniers
608,1,descendant
609,1,descendit
610,1,devinât
611,1,diagonales
612,1,diamantée
613,1,diaprées
614,1,dilatés
615,1,dire
616,1,dirigerai
617,1,disant
618,1,disparaissait
619,1,disque
620,1,dissimuler
621,1,dissimulé
622,1,dissipaient
623,1,distance
624,1,divines
625,1,doigt
626,1,doit
627,1,donnaient
628,1,donner
629,1,donné
630,1,dormi
631,1,dormir
632,1,dorées
633,1,dos
634,1,double
635,1,douce
636,1,douloureusement
637,1,dressa
638,1,dressées
639,1,dressés
640,1,duvet
641,1,dès
642,1,décharné
643,1,décidèrent
644,1,découvrirent
645,1,défit
646,1,dégoût
647,1,délicates
648,1,déposé
649,1,désertes
650,1,détourna
651,1,détournant
652,1,effaré
653,1,effilait
654,1,effrayer
655,1,effrayés
656,1,emmaillotée
657,1,empreinte
658,1,enchâssaient
659,1,endormies
660,1,endormis
661,1,endroit
662,1,enduits
663,1,enfermés
664,1,enfonça
665,1,enfuyait
666,1,ennui
667,1,enroulée
668,1,entra
669,1,entrerai
670,1,entrée
671,1,envier
672,1,erra
673,1,errait
674,1,errent
675,1,espère
676,1,examina
677,1,existaient
678,1,extrême
679,1,exténué
680,1,faces
681,1,faim
682,1,faire
683,1,faisaient
684,1,faisait
685,1,fait
686,1,faits
687,1,fallait
688,1,famille
689,1,fatigue
690,1,fausse
691,1,faut
692,1,fauteuils
693,1,fauve
694,1,faux
695,1,façon
696,1,femme
697,1,fendre
698,1,fendue
699,1,fenêtres
700,1,fermées
701,1,ferrures
702,1,feuilles
703,1,filaments
704,1,file
705,1,fissures
706,1,fixité
707,1,fixé
708,1,flacons
709,1,flambeaux
710,1,flamboya
711,1,flamboyantes
712,1,flot
713,1,fondus
714,1,forte
715,1,forêt
716,1,fourrure
717,1,france
718,1,frappé
719,1,frissonnant
720,1,frissonnante
721,1,frissonner
722,1,froid
723,1,froides
724,1,froissaient
725,1,frottement
726,1,fruits
727,1,frère
728,1,frémissaient
729,1,frémissant
730,1,frôlé
731,1,fumeux
732,1,fumée
733,1,fuseau
734,1,fussent
735,1,fut
736,1,fûts
737,1,gardaient
738,1,gardait
739,1,glaives
740,1,glissa
741,1,glissé
742,1,gommés
743,1,gonflements
744,1,gonflé
745,1,gonflée
746,1,gorges
747,1,gouttelettes
748,1,gouttes
749,1,gouvernée
750,1,goûta
751,1,gracieusement
752,1,gracieuses
753,1,gracieux
754,1,grand
755,1,grandes
756,1,grasse
757,1,graves
758,1,grenat
759,1,grimaçant
760,1,grimaçants
761,1,gros
762,1,grosses
763,1,gueules
764,1,guéri
765,1,géantes
766,1,gémissement
767,1,gémit
768,1,haches
769,1,haies
770,1,halles
771,1,hauteur
772,1,hauts
773,1,herbages
774,1,herbes
775,1,heurta
776,1,hideuse
777,1,hideux
778,1,hilares
779,1,honteux
780,1,horde
781,1,huileux
782,1,humaines
783,1,humide
784,1,huttes
785,1,hâves
786,1,hérissées
787,1,héritage
788,1,ignores
789,1,illuminait
790,1,imaginé
791,1,imitation
792,1,immobilité
793,1,immuables
794,1,impatiemment
795,1,importante
796,1,impérieux
797,1,inanition
798,1,incapable
799,1,inclinait
800,1,inconnu
801,1,indication
802,1,inquiet
803,1,inquiétude
804,1,insomnie
805,1,instant
806,1,interdite
807,1,interrogea
808,1,irions
809,1,ivoire
810,1,jailli
811,1,jaillissaient
812,1,jaillit
813,1,jetait
814,1,jetèrent
815,1,joie
816,1,joignit
817,1,joue
818,1,juger
819,1,juste
820,1,laideur
821,1,laissa
822,1,laissait
823,1,laissant
824,1,laisse
825,1,lampe
826,1,langues
827,1,laqués
828,1,larges
829,1,largeur
830,1,larmes
831,1,las
832,1,lassitude
833,1,latéraux
834,1,lava
835,1,laver
836,1,lesquelles
837,1,lesquels
838,1,levée
839,1,lignes
840,1,limpide
841,1,lion
842,1,lisière
843,1,lits
844,1,livres
845,1,loin
846,1,longs
847,1,longues
848,1,lorsqu
849,1,lotus
850,1,lueurs
851,1,luisantes
852,1,lumineux
853,1,maintenant
854,1,maison
855,1,majestueux
856,1,mal
857,1,maladies
858,1,malgré
859,1,malheureux
860,1,manche
861,1,manches
862,1,mangé
863,1,manière
864,1,marais
865,1,marbré
866,1,marcha
867,1,marchait
868,1,marcher
869,1,marches
870,1,marchèrent
871,1,marché
872,1,masquée
873,1,masquées
874,1,masse
875,1,matin
876,1,mendiants
877,1,mens
878,1,mentant
879,1,menton
880,1,mené
881,1,mi
882,1,milieu
883,1,mimaient
884,1,mince
885,1,minces
886,1,mirer
887,1,miroir
888,1,miroirs
889,1,miroitement
890,1,mobile
891,1,moisissures
892,1,molle
893,1,moment
894,1,monotones
895,1,monta
896,1,montait
897,1,monte
898,1,montrèrent
899,1,morceau
900,1,mordre
901,1,mornes
902,1,mosaïque
903,1,mouillées
904,1,mousseuse
905,1,moyen
906,1,muets
907,1,murs
908,1,muscles
909,1,mystérieux
910,1,mâcha
911,1,mèche
912,1,métal
913,1,narines
914,1,nerveux
915,1,noble
916,1,nocturnes
917,1,noire
918,1,noires
919,1,noirâtre
920,1,nourriture
921,1,nuance
922,1,nuances
923,1,nudité
924,1,nul
925,1,nuque
926,1,oblongue
927,1,obscur
928,1,obscures
929,1,obscurité
930,1,obscurément
931,1,odeur
932,1,offrit
933,1,ombre
934,1,ondulaient
935,1,onduler
936,1,onyx
937,1,opposée
938,1,ordonnance
939,1,ornements
940,1,osa
941,1,ose
942,1,oserait
943,1,otez
944,1,oublièrent
945,1,outres
946,1,ouverte
947,1,paillettes
948,1,pains
949,1,paix
950,1,palpitantes
951,1,pan
952,1,parade
953,1,paraissaient
954,1,paraissent
955,1,parait
956,1,paraît
957,1,parce
958,1,pareille
959,1,pareils
960,1,parfois
961,1,parfumé
962,1,parlant
963,1,parle
964,1,parois
965,1,partit
966,1,parure
967,1,parurent
968,1,passait
969,1,pattes
970,1,pavée
971,1,pays
972,1,peinte
973,1,peintes
974,1,peints
975,1,peintures
976,1,pencha
977,1,penchant
978,1,pendaient
979,1,pendait
980,1,pense
981,1,pensées
982,1,perdait
983,1,personne
984,1,perçois
985,1,petites
986,1,petits
987,1,peuples
988,1,pieds
989,1,pierre
990,1,pieux
991,1,pitoyables
992,1,pièce
993,1,pièces
994,1,plafond
995,1,plaies
996,1,plaine
997,1,plaqués
998,1,plaça
999,1,pleins
1000,1,pleuraient
1001,1,pleurent
1002,1,pleurer
1003,1,pleures
1004,1,pleureur
1005,1,plisse
1006,1,poche
1007,1,pointes
1008,1,poitrine
1009,1,polie
1010,1,polies
1011,1,porta
1012,1,portaient
1013,1,portait
1014,1,portant
1015,1,portraits
1016,1,portèrent
1017,1,portés
1018,1,possible
1019,1,poterne
1020,1,pourpres
1021,1,pourrais
1022,1,poussa
1023,1,pouvait
1024,1,premier
1025,1,prendre
1026,1,presque
1027,1,princes
1028,1,prit
1029,1,prodigieux
1030,1,profondeur
1031,1,prolongeait
1032,1,propre
1033,1,propres
1034,1,prosterna
1035,1,près
1036,1,précieux
1037,1,précipitèrent
1038,1,prédit
1039,1,pu
1040,1,punis
1041,1,pur
1042,1,pyramide
1043,1,pâma
1044,1,père
1045,1,pères
1046,1,pétrissait
1047,1,queue
1048,1,quitta
1049,1,raison
1050,1,rameaux
1051,1,rampa
1052,1,rampé
1053,1,rangés
1054,1,rapidement
1055,1,rauque
1056,1,rayonnait
1057,1,rayons
1058,1,reconduisit
1059,1,reconnaissait
1060,1,refusa
1061,1,regarda
1062,1,regarder
1063,1,regards
1064,1,rehaussés
1065,1,releva
1066,1,reliefs
1067,1,remarqua
1068,1,rencontrer
1069,1,rencontrèrent
1070,1,rendre
1071,1,renfrognaient
1072,1,rentre
1073,1,rentrés
1074,1,repas
1075,1,repos
1076,1,repoussés
1077,1,représenta
1078,1,représentait
1079,1,restait
1080,1,retentissaient
1081,1,retentit
1082,1,retour
1083,1,retourna
1084,1,ricana
1085,1,ricanement
1086,1,rieur
1087,1,rieuses
1088,1,rires
1089,1,rizières
1090,1,robe
1091,1,robes
1092,1,rondelles
1093,1,rondeur
1094,1,ronds
1095,1,roseaux
1096,1,roula
1097,1,royauté
1098,1,royaux
1099,1,rutilantes
1100,1,réalité
1101,1,réfugiaient
1102,1,répliqua
1103,1,répondirent
1104,1,répondrai
1105,1,résolut
1106,1,réunir
1107,1,révélaient
1108,1,révélation
1109,1,rêve
1110,1,sabre
1111,1,sacramentels
1112,1,sacrifices
1113,1,saignaient
1114,1,saignant
1115,1,saine
1116,1,saisi
1117,1,saisir
1118,1,saisirent
1119,1,sait
1120,1,sanglant
1121,1,sanglante
1122,1,sanglants
1123,1,sanglot
1124,1,sanglots
1125,1,sanguinolents
1126,1,scintiller
1127,1,second
1128,1,seconde
1129,1,secoué
1130,1,secret
1131,1,secrètes
1132,1,sein
1133,1,semaine
1134,1,semblables
1135,1,semblant
1136,1,semblent
1137,1,semblèrent
1138,1,sentit
1139,1,serrant
1140,1,seulement
1141,1,sien
1142,1,signe
1143,1,signifiait
1144,1,silence
1145,1,silencieux
1146,1,sillon
1147,1,siège
1148,1,sièges
1149,1,soir
1150,1,sol
1151,1,solitaires
1152,1,solitude
1153,1,sommes
1154,1,somnolence
1155,1,songeait
1156,1,sonnaient
1157,1,sonore
1158,1,sonores
1159,1,sortirent
1160,1,soucier
1161,1,souffert
1162,1,souffler
1163,1,souffrir
1164,1,souillée
1165,1,soulevant
1166,1,soulevée
1167,1,soulevés
1168,1,souples
1169,1,souriants
1170,1,souvenir
1171,1,soyeux
1172,1,sphinx
1173,1,stupidité
1174,1,suc
1175,1,supplication
1176,1,supplications
1177,1,supérieur
1178,1,surmontées
1179,1,surprise
1180,1,suspendue
1181,1,suspendues
1182,1,sèche
1183,1,sève
1184,1,sépare
1185,1,sérieux
1186,1,sûr
1187,1,t
1188,1,taches
1189,1,tachetée
1190,1,taillée
1191,1,tanières
1192,1,tant
1193,1,tapis
1194,1,tassées
1195,1,tendant
1196,1,tendit
1197,1,tendrement
1198,1,tendres
1199,1,tendue
1200,1,tendues
1201,1,terrible
1202,1,tiares
1203,1,tienne
1204,1,tiennes
1205,1,tissées
1206,1,toile
1207,1,toitures
1208,1,tombante
1209,1,ton
1210,1,torche
1211,1,tordu
1212,1,tordus
1213,1,toucha
1214,1,touchant
1215,1,touché
1216,1,toujours
1217,1,tourbillons
1218,1,tournait
1219,1,tourne
1220,1,toute
1221,1,toutes
1222,1,tranchait
1223,1,translucides
1224,1,transmis
1225,1,transparents
1226,1,transporté
1227,1,traversées
1228,1,traîner
1229,1,traînée
1230,1,trembla
1231,1,tremblait
1232,1,tremblant
1233,1,tremblants
1234,1,tremblement
1235,1,tressaillirent
1236,1,tressaut
1237,1,tressé
1238,1,tristesse
1239,1,tromper
1240,1,trompez
1241,1,troubler
1242,1,troubles
1243,1,troupeau
1244,1,trous
1245,1,tulipes
1246,1,tuméfiée
1247,1,tunique
1248,1,tuyau
1249,1,tâtonnements
1250,1,ténèbres
1251,1,têtes
1252,1,uns
1253,1,varicolore
1254,1,vas
1255,1,vaseuse
1256,1,veiné
1257,1,venait
1258,1,vent
1259,1,venu
1260,1,verdâtre
1261,1,vermeil
1262,1,verrai
1263,1,verreries
1264,1,versa
1265,1,verser
1266,1,vert
1267,1,vibration
1268,1,vie
1269,1,vieilles
1270,1,vigoureux
1271,1,vinrent
1272,1,violemment
1273,1,violet
1274,1,violettes
1275,1,vivait
1276,1,voilait
1277,1,voiles
1278,1,voilà
1279,1,voir
1280,1,vos
1281,1,votre
1282,1,voulaient
1283,1,voyant
1284,1,voyez
1285,1,vrai
1286,1,vue
1287,1,véritable
1288,1,vêtu
1289,1,âges
1290,1,âme
1291,1,éblouissante
1292,1,ébène
1293,1,écarlate
1294,1,écartant
1295,1,écartés
1296,1,échansons
1297,1,échappa
1298,1,éclaboussées
1299,1,éclaira
1300,1,éclairait
1301,1,éclairèrent
1302,1,éclairé
1303,1,éclat
1304,1,éclata
1305,1,éclatantes
1306,1,écorces
1307,1,écouta
1308,1,écoute
1309,1,écrue
1310,1,élancèrent
1311,1,élança
1312,1,éleva
1313,1,élever
1314,1,émergeant
1315,1,émerveillés
1316,1,épanouissaient
1317,1,épanouit
1318,1,épars
1319,1,épines
1320,1,épouvante
1321,1,éprouver
1322,1,étant
1323,1,éteintes
1324,1,étendait
1325,1,étendre
1326,1,étendu
1327,1,éternellement
1328,1,étiez
1329,1,étincelantes
1330,1,étoffe
1331,1,étoffes
1332,1,étoiles
1333,1,étranger
1334,1,étroite
1335,1,évanouit
1336,1,êtes
1337,1,ô
1338,1,ôta
1339,1,ôter
