#Word Types: 3752
#Word Tokens: 22210
#Search Hits: 0
1	970	de	
2	602	la	
3	602	le	
4	574	et	
5	484	à	
6	385	il	
7	381	les	
8	339	l	
9	242	un	
10	239	se	
11	238	d	
12	223	du	
13	213	que	
14	212	en	
15	207	une	
16	201	ne	
17	200	cornbutte	
18	197	s	
19	182	qui	
20	179	dans	
21	173	des	
22	169	au	
23	158	penellan	
24	155	pas	
25	149	sur	
26	138	était	
27	133	plus	
28	130	qu	
29	126	ce	
30	124	vasling	
31	121	pour	
32	118	jean	
33	117	andré	
34	117	son	
35	110	avait	
36	108	n	
37	104	lui	
38	100	nous	
39	98	par	
40	97	fut	
41	96	mais	
42	95	ils	
43	91	louis	
44	86	ces	
45	84	ses	
46	81	est	
47	75	on	
48	73	avec	
49	73	car	
50	70	cette	
51	70	marie	
52	68	jeune	
53	68	vous	
54	66	leur	
55	63	brick	
56	62	navire	
57	61	deux	
58	57	sans	
59	56	tout	
60	54	sa	
61	52	répondit	
62	49	dit	
63	47	bien	
64	47	y	
65	46	leurs	
66	46	tous	
67	45	elle	
68	45	je	
69	44	c	
70	44	glace	
71	44	neige	
72	43	donc	
73	42	où	
74	41	encore	
75	40	mon	
76	40	été	
77	39	fit	
78	39	si	
79	38	alors	
80	38	bientôt	
81	38	hardie	
82	38	vers	
83	38	être	
84	37	peu	
85	36	aux	
86	36	avaient	
87	35	même	
88	34	compagnons	
89	34	fille	
90	34	glaces	
91	34	moment	
92	34	étaient	
93	33	furent	
94	33	équipage	
95	32	aussi	
96	32	dont	
97	31	froid	
98	31	sous	
99	30	avant	
100	30	nord	
101	29	après	
102	29	capitaine	
103	29	fait	
104	29	jours	
105	29	mer	
106	29	quand	
107	29	vent	
108	29	écria	
109	28	misonne	
110	27	marins	
111	27	près	
112	26	là	
113	26	matelots	
114	26	pouvait	
115	25	a	
116	25	aupic	
117	25	quelques	
118	24	bord	
119	24	comme	
120	24	déjà	
121	24	faire	
122	23	marin	
123	23	ou	
124	23	quelque	
125	23	second	
126	23	terre	
127	22	fils	
128	22	ours	
129	22	pendant	
130	22	pieds	
131	22	toutes	
132	21	côte	
133	20	cependant	
134	20	contre	
135	20	fût	
136	20	peine	
137	20	pierre	
138	20	t	
139	19	devait	
140	19	eut	
141	19	glaçons	
142	19	grande	
143	19	hommes	
144	19	jour	
145	19	main	
146	19	puis	
147	19	trois	
148	18	amis	
149	18	ci	
150	18	cinq	
151	18	fallait	
152	18	herming	
153	18	pont	
154	18	trouvait	
155	18	turquiette	
156	17	autour	
157	17	autre	
158	17	demanda	
159	17	eau	
160	17	gradlin	
161	17	grand	
162	17	maison	
163	17	nouquet	
164	17	petite	
165	17	provisions	
166	17	souvent	
167	17	temps	
168	17	traîneau	
169	16	bras	
170	16	dès	
171	16	eux	
172	16	heures	
173	16	moi	
174	16	mois	
175	16	nos	
176	16	plaine	
177	16	rien	
178	16	timonier	
179	16	vieux	
180	15	bois	
181	15	celui	
182	15	côté	
183	15	cœur	
184	15	degrés	
185	15	départ	
186	15	entre	
187	15	fois	
188	15	ni	
189	15	notre	
190	15	possible	
191	15	température	
192	14	ailleurs	
193	14	coup	
194	14	eût	
195	14	hutte	
196	14	jusqu	
197	14	matin	
198	14	me	
199	14	mort	
200	14	partie	
201	14	père	
202	14	reprit	
203	14	route	
204	14	toute	
205	14	zéro	
206	13	avoir	
207	13	courage	
208	13	cris	
209	13	dessous	
210	13	dessus	
211	13	esprit	
212	13	lit	
213	13	milles	
214	13	non	
215	13	plusieurs	
216	13	prit	
217	13	tomba	
218	13	trop	
219	13	tête	
220	13	vêtements	
221	12	allait	
222	12	bloc	
223	12	corps	
224	12	curé	
225	12	dégel	
226	12	elles	
227	12	enfin	
228	12	force	
229	12	gervique	
230	12	hivernage	
231	12	homme	
232	12	milieu	
233	12	moins	
234	12	nuit	
235	12	peut	
236	12	prendre	
237	12	put	
238	12	soleil	
239	12	vie	
240	11	ainsi	
241	11	air	
242	11	aucun	
243	11	aucune	
244	11	baie	
245	11	bâton	
246	11	chacun	
247	11	chaleur	
248	11	dehors	
249	11	depuis	
250	11	entièrement	
251	11	faisait	
252	11	fidèle	
253	11	hiver	
254	11	ici	
255	11	j	
256	11	joie	
257	11	lieu	
258	11	longtemps	
259	11	mains	
260	11	mit	
261	11	monsieur	
262	11	mouvement	
263	11	moyen	
264	11	oncle	
265	11	point	
266	11	port	
267	11	porte	
268	11	pouvaient	
269	11	poêle	
270	11	quatre	
271	11	rapidement	
272	11	très	
273	11	venait	
274	11	vin	
275	11	vingt	
276	10	aussitôt	
277	10	autres	
278	10	bout	
279	10	dieu	
280	10	dire	
281	10	désespoir	
282	10	fumée	
283	10	horizon	
284	10	ma	
285	10	naufragés	
286	10	norvégiens	
287	10	parages	
288	10	pied	
289	10	préparatifs	
290	10	quitter	
291	10	résolut	
292	10	seulement	
293	10	sommes	
294	10	sont	
295	10	thermomètre	
296	10	trente	
297	10	voici	
298	10	vue	
299	10	yeux	
300	10	état	
301	10	île	
302	9	animal	
303	9	avez	
304	9	bon	
305	9	cet	
306	9	chiens	
307	9	dix	
308	9	huit	
309	9	malgré	
310	9	mers	
311	9	mis	
312	9	monde	
313	9	nouvelle	
314	9	oui	
315	9	peau	
316	9	recherches	
317	9	réchaud	
318	9	répliqua	
319	9	soir	
320	9	sorte	
321	9	sortir	
322	9	travers	
323	9	votre	
324	8	brisé	
325	8	bruit	
326	8	café	
327	8	chaque	
328	8	ciel	
329	8	coups	
330	8	coutelas	
331	8	devaient	
332	8	doute	
333	8	dunkerque	
334	8	eh	
335	8	jamais	
336	8	jocki	
337	8	laquelle	
338	8	lequel	
339	8	logement	
340	8	marche	
341	8	mieux	
342	8	mille	
343	8	nouveau	
344	8	nouvelles	
345	8	ouverture	
346	8	pauvre	
347	8	perdus	
348	8	première	
349	8	quantité	
350	8	retour	
351	8	santé	
352	8	secours	
353	8	sera	
354	8	serait	
355	8	six	
356	8	tente	
357	8	terrible	
358	8	toujours	
359	8	travail	
360	8	troupe	
361	8	tu	
362	8	va	
363	8	vivres	
364	8	voyage	
365	7	aller	
366	7	aperçut	
367	7	attendre	
368	7	chemin	
369	7	chercher	
370	7	cri	
371	7	cria	
372	7	dangers	
373	7	devint	
374	7	effet	
375	7	employer	
376	7	ennemis	
377	7	entendre	
378	7	extrême	
379	7	fatigues	
380	7	fiancé	
381	7	fort	
382	7	froöern	
383	7	hauteur	
384	7	latitudes	
385	7	loin	
386	7	long	
387	7	mettre	
388	7	mourir	
389	7	norvégien	
390	7	parut	
391	7	passes	
392	7	peaux	
393	7	place	
394	7	plaines	
395	7	poussa	
396	7	précipita	
397	7	retrouver	
398	7	revint	
399	7	sait	
400	7	savoir	
401	7	seul	
402	7	sud	
403	7	suis	
404	7	suivant	
405	7	terreur	
406	7	toile	
407	7	vents	
408	7	voyant	
409	7	épaisseur	
410	7	époque	
411	7	êtes	
412	6	abord	
413	6	ai	
414	6	ajouta	
415	6	animaux	
416	6	arrière	
417	6	autant	
418	6	avril	
419	6	blocs	
420	6	cela	
421	6	chasse	
422	6	comprit	
423	6	danger	
424	6	delà	
425	6	demeura	
426	6	demi	
427	6	dernier	
428	6	descendit	
429	6	direction	
430	6	donna	
431	6	dû	
432	6	escalier	
433	6	excessivement	
434	6	explorations	
435	6	ferré	
436	6	formait	
437	6	froids	
438	6	fusil	
439	6	glaçon	
440	6	graisse	
441	6	grands	
442	6	heure	
443	6	heureusement	
444	6	immédiatement	
445	6	issue	
446	6	lendemain	
447	6	leva	
448	6	libre	
449	6	lorsque	
450	6	lune	
451	6	m	
452	6	manière	
453	6	masses	
454	6	matelot	
455	6	mes	
456	6	misaine	
457	6	misérable	
458	6	norvège	
459	6	oreille	
460	6	ouest	
461	6	parvint	
462	6	passe	
463	6	perdu	
464	6	perte	
465	6	phoque	
466	6	poignard	
467	6	porter	
468	6	pourquoi	
469	6	presque	
470	6	pris	
471	6	promontoire	
472	6	purent	
473	6	pût	
474	6	quel	
475	6	reconnaître	
476	6	repos	
477	6	reste	
478	6	revoir	
479	6	sais	
480	6	sang	
481	6	soixante	
482	6	solide	
483	6	tant	
484	6	tempête	
485	6	tomber	
486	6	trouver	
487	6	vint	
488	6	vit	
489	6	voiles	
490	6	voilà	
491	6	voir	
492	6	voix	
493	6	également	
494	6	épaisse	
495	5	ait	
496	5	ans	
497	5	aperçurent	
498	5	arrivée	
499	5	assez	
500	5	atteindre	
501	5	avons	
502	5	bas	
503	5	bastingages	
504	5	breton	
505	5	briser	
506	5	buffle	
507	5	cabane	
508	5	cambuse	
509	5	causait	
510	5	certaine	
511	5	chaloupe	
512	5	chambre	
513	5	charpentier	
514	5	cherchait	
515	5	chez	
516	5	clerbaut	
517	5	commandement	
518	5	commun	
519	5	commune	
520	5	cortrois	
521	5	demeurait	
522	5	derrière	
523	5	devant	
524	5	devenait	
525	5	disait	
526	5	disparu	
527	5	douleur	
528	5	enfant	
529	5	ensuite	
530	5	entraîné	
531	5	entraînés	
532	5	environ	
533	5	eurent	
534	5	exploration	
535	5	fallut	
536	5	façon	
537	5	fermée	
538	5	feu	
539	5	fond	
540	5	impossible	
541	5	instant	
542	5	intérieur	
543	5	janvier	
544	5	jeta	
545	5	lampe	
546	5	lever	
547	5	mai	
548	5	mal	
549	5	malheur	
550	5	malheureux	
551	5	messe	
552	5	montagnes	
553	5	mât	
554	5	nourriture	
555	5	novembre	
556	5	néanmoins	
557	5	obligé	
558	5	octobre	
559	5	oiseaux	
560	5	ont	
561	5	passage	
562	5	passer	
563	5	plaisir	
564	5	pointe	
565	5	portait	
566	5	pouvoir	
567	5	premier	
568	5	profondeur	
569	5	propre	
570	5	présence	
571	5	puisque	
572	5	quoique	
573	5	raison	
574	5	regarda	
575	5	remonta	
576	5	rendre	
577	5	revenir	
578	5	réflexion	
579	5	résister	
580	5	saisit	
581	5	sauver	
582	5	semblait	
583	5	sentit	
584	5	septembre	
585	5	seraient	
586	5	shannon	
587	5	soins	
588	5	sol	
589	5	solidement	
590	5	soudain	
591	5	subitement	
592	5	suite	
593	5	telle	
594	5	thé	
595	5	toi	
596	5	tremblement	
597	5	vain	
598	5	veille	
599	5	viande	
600	5	âme	
601	4	abondance	
602	4	activité	
603	4	affaire	
604	4	affreux	
605	4	afin	
606	4	agissait	
607	4	aide	
608	4	ami	
609	4	août	
610	4	arriva	
611	4	arriver	
612	4	arrivèrent	
613	4	attention	
614	4	auprès	
615	4	aurait	
616	4	ayant	
617	4	belle	
618	4	besoin	
619	4	bodoë	
620	4	brise	
621	4	brisés	
622	4	cas	
623	4	cause	
624	4	cents	
625	4	ceux	
626	4	charbon	
627	4	choc	
628	4	citron	
629	4	citrons	
630	4	commencèrent	
631	4	commença	
632	4	conseils	
633	4	construit	
634	4	coucher	
635	4	couper	
636	4	courants	
637	4	creuser	
638	4	creusée	
639	4	debout	
640	4	degré	
641	4	dernière	
642	4	difficile	
643	4	diriger	
644	4	donner	
645	4	douleurs	
646	4	dura	
647	4	dut	
648	4	effroyable	
649	4	endroit	
650	4	entra	
651	4	er	
652	4	espoir	
653	4	espèce	
654	4	estacade	
655	4	eussent	
656	4	exercice	
657	4	expédition	
658	4	extrémité	
659	4	facile	
660	4	fatigue	
661	4	faut	
662	4	fer	
663	4	figure	
664	4	fin	
665	4	forces	
666	4	forcé	
667	4	forte	
668	4	garde	
669	4	glisser	
670	4	goélette	
671	4	grandes	
672	4	grâce	
673	4	haut	
674	4	hermétiquement	
675	4	humidité	
676	4	importait	
677	4	indiqua	
678	4	juin	
679	4	laine	
680	4	large	
681	4	largeur	
682	4	latitude	
683	4	lieues	
684	4	longue	
685	4	lors	
686	4	lueur	
687	4	lueurs	
688	4	maelström	
689	4	magasin	
690	4	maintenant	
691	4	maladie	
692	4	manquer	
693	4	mesures	
694	4	morceaux	
695	4	mots	
696	4	murailles	
697	4	mêmes	
698	4	navigation	
699	4	noce	
700	4	nombre	
701	4	nécessaire	
702	4	obscurité	
703	4	occasion	
704	4	occupa	
705	4	odeur	
706	4	offrait	
707	4	paroles	
708	4	part	
709	4	pattes	
710	4	pemmican	
711	4	pensée	
712	4	perdre	
713	4	permettait	
714	4	petit	
715	4	phoques	
716	4	polaire	
717	4	polaires	
718	4	premiers	
719	4	promptement	
720	4	provision	
721	4	précautions	
722	4	préparer	
723	4	pu	
724	4	périls	
725	4	rage	
726	4	recommanda	
727	4	rendit	
728	4	rentrer	
729	4	repas	
730	4	reprendre	
731	4	restait	
732	4	réveilla	
733	4	saison	
734	4	sauter	
735	4	scorbut	
736	4	sec	
737	4	sentirent	
738	4	signalé	
739	4	silence	
740	4	soigneusement	
741	4	soit	
742	4	sombre	
743	4	soufflait	
744	4	souffrances	
745	4	souleva	
746	4	souper	
747	4	suivit	
748	4	surface	
749	4	tard	
750	4	tombèrent	
751	4	ton	
752	4	triste	
753	4	troisième	
754	4	trouva	
755	4	tuyau	
756	4	verrons	
757	4	viandes	
758	4	vigoureux	
759	4	vinrent	
760	4	vivement	
761	4	voulait	
762	4	véritable	
763	4	élevait	
764	4	élevée	
765	4	énorme	
766	4	œil	
767	3	abri	
768	3	absence	
769	3	accourut	
770	3	affronter	
771	3	agonie	
772	3	allez	
773	3	allumé	
774	3	ancre	
775	3	angoisse	
776	3	année	
777	3	approcha	
778	3	aquatiques	
779	3	arctiques	
780	3	armés	
781	3	arracher	
782	3	arrivait	
783	3	arrivé	
784	3	arrêta	
785	3	arrêter	
786	3	assurait	
787	3	atmosphère	
788	3	attentivement	
789	3	auquel	
790	3	avancer	
791	3	avança	
792	3	banc	
793	3	bande	
794	3	bandes	
795	3	basse	
796	3	beaucoup	
797	3	biscuits	
798	3	blancs	
799	3	bonheur	
800	3	bonne	
801	3	bourrasque	
802	3	brave	
803	3	braves	
804	3	brewster	
805	3	brisées	
806	3	broyé	
807	3	brume	
808	3	brûlant	
809	3	but	
810	3	bénir	
811	3	cadavre	
812	3	caisse	
813	3	campement	
814	3	cap	
815	3	capuchon	
816	3	caravane	
817	3	carte	
818	3	celle	
819	3	celles	
820	3	chaude	
821	3	chercha	
822	3	chose	
823	3	compagnon	
824	3	complètement	
825	3	compris	
826	3	compte	
827	3	conduire	
828	3	continuer	
829	3	coque	
830	3	couche	
831	3	courir	
832	3	craindre	
833	3	creusa	
834	3	croire	
835	3	crois	
836	3	côtes	
837	3	dangereux	
838	3	demeurèrent	
839	3	dents	
840	3	derniers	
841	3	descendre	
842	3	destinés	
843	3	devenir	
844	3	devons	
845	3	dirigea	
846	3	dirigeait	
847	3	doit	
848	3	donnait	
849	3	donné	
850	3	dos	
851	3	droite	
852	3	dure	
853	3	durent	
854	3	durer	
855	3	débarrasser	
856	3	débris	
857	3	décida	
858	3	décidé	
859	3	découverte	
860	3	déploya	
861	3	dépôts	
862	3	efforts	
863	3	empressement	
864	3	empressé	
865	3	empêcher	
866	3	endroits	
867	3	enfonça	
868	3	ensemble	
869	3	ensevelis	
870	3	entourait	
871	3	entretenir	
872	3	entrée	
873	3	excellente	
874	3	faisaient	
875	3	favorable	
876	3	fixé	
877	3	flottantes	
878	3	fournitures	
879	3	fraîche	
880	3	froide	
881	3	froides	
882	3	galerie	
883	3	garder	
884	3	gaël	
885	3	gens	
886	3	glissa	
887	3	gouffre	
888	3	gravité	
889	3	grœnland	
890	3	guider	
891	3	guère	
892	3	habile	
893	3	habitude	
894	3	hache	
895	3	haine	
896	3	hamkes	
897	3	hautes	
898	3	hune	
899	3	idée	
900	3	immense	
901	3	indiquait	
902	3	jetait	
903	3	jeté	
904	3	jetés	
905	3	jus	
906	3	larmes	
907	3	levant	
908	3	ligne	
909	3	liverpool	
910	3	longues	
911	3	lumière	
912	3	manqua	
913	3	masse	
914	3	mauvaise	
915	3	maître	
916	3	mi	
917	3	minutes	
918	3	moindre	
919	3	monta	
920	3	monticule	
921	3	moyenne	
922	3	naturels	
923	3	naufrage	
924	3	naufragé	
925	3	navigateurs	
926	3	neiges	
927	3	nièce	
928	3	nom	
929	3	nombreux	
930	3	nouveaux	
931	3	objets	
932	3	observer	
933	3	océan	
934	3	oh	
935	3	or	
936	3	ordres	
937	3	parfaitement	
938	3	parfois	
939	3	parmi	
940	3	parti	
941	3	passait	
942	3	pavillon	
943	3	percer	
944	3	pistolet	
945	3	pitié	
946	3	plan	
947	3	pleine	
948	3	pluie	
949	3	plutôt	
950	3	poids	
951	3	points	
952	3	pousser	
953	3	poussé	
954	3	pression	
955	3	prise	
956	3	prix	
957	3	probable	
958	3	produisait	
959	3	profiter	
960	3	proie	
961	3	prolonger	
962	3	propres	
963	3	prévenir	
964	3	quai	
965	3	quarts	
966	3	quinzaine	
967	3	quinze	
968	3	quoi	
969	3	reconnut	
970	3	regards	
971	3	rejoignit	
972	3	remède	
973	3	rendait	
974	3	rendirent	
975	3	renouveler	
976	3	reposait	
977	3	reçu	
978	3	rivage	
979	3	roc	
980	3	roulement	
981	3	rudes	
982	3	réfraction	
983	3	régions	
984	3	répondre	
985	3	résolu	
986	3	saisi	
987	3	saisir	
988	3	salée	
989	3	salées	
990	3	sauvages	
991	3	savait	
992	3	scies	
993	3	seconde	
994	3	semblaient	
995	3	sensible	
996	3	sentiment	
997	3	sept	
998	3	serra	
999	3	seule	
1000	3	seuls	
1001	3	singulier	
1002	3	situation	
1003	3	soin	
1004	3	songer	
1005	3	sortirent	
1006	3	souffrir	
1007	3	soyons	
1008	3	supportable	
1009	3	supporter	
1010	3	sûr	
1011	3	tandis	
1012	3	tarda	
1013	3	tel	
1014	3	tellement	
1015	3	tenir	
1016	3	tenter	
1017	3	tour	
1018	3	tournait	
1019	3	trace	
1020	3	traces	
1021	3	traverser	
1022	3	tristesse	
1023	3	trou	
1024	3	trouvaient	
1025	3	unie	
1026	3	utilité	
1027	3	vais	
1028	3	vengeance	
1029	3	venu	
1030	3	vient	
1031	3	vigie	
1032	3	violents	
1033	3	visite	
1034	3	vos	
1035	3	voulut	
1036	3	voyages	
1037	3	voyez	
1038	3	vrai	
1039	3	vu	
1040	3	élevé	
1041	3	élevées	
1042	3	élévation	
1043	3	énergie	
1044	3	énormes	
1045	3	éprouvaient	
1046	3	éprouvait	
1047	3	étant	
1048	3	éteindre	
1049	3	étoiles	
1050	3	étroite	
1051	3	événement	
1052	2	abandonna	
1053	2	abandonnant	
1054	2	abriter	
1055	2	absolument	
1056	2	acharnement	
1057	2	acquis	
1058	2	adversaires	
1059	2	affaiblis	
1060	2	agir	
1061	2	agit	
1062	2	ah	
1063	2	aidant	
1064	2	aimait	
1065	2	aisément	
1066	2	ajoutait	
1067	2	alain	
1068	2	alla	
1069	2	allons	
1070	2	amitié	
1071	2	amoncelée	
1072	2	ancré	
1073	2	apercevait	
1074	2	apercevant	
1075	2	apercevoir	
1076	2	aperçus	
1077	2	appel	
1078	2	apporter	
1079	2	apprit	
1080	2	approche	
1081	2	arc	
1082	2	armé	
1083	2	arrive	
1084	2	arrivons	
1085	2	arrêté	
1086	2	assister	
1087	2	assura	
1088	2	atteignit	
1089	2	attelage	
1090	2	attendait	
1091	2	attirer	
1092	2	attiré	
1093	2	attirée	
1094	2	augmenta	
1095	2	auparavant	
1096	2	aurai	
1097	2	auraient	
1098	2	aurions	
1099	2	avançait	
1100	2	avarie	
1101	2	avis	
1102	2	ayez	
1103	2	ayons	
1104	2	aérer	
1105	2	bain	
1106	2	baleine	
1107	2	bancs	
1108	2	barils	
1109	2	barre	
1110	2	bassine	
1111	2	bastingage	
1112	2	battait	
1113	2	beau	
1114	2	blanche	
1115	2	blessure	
1116	2	blessé	
1117	2	boissons	
1118	2	bottes	
1119	2	braver	
1120	2	brigantine	
1121	2	brûlait	
1122	2	brûler	
1123	2	bêtes	
1124	2	cabine	
1125	2	cadavres	
1126	2	cale	
1127	2	canal	
1128	2	certain	
1129	2	certitude	
1130	2	chair	
1131	2	champ	
1132	2	champs	
1133	2	chance	
1134	2	changement	
1135	2	chargea	
1136	2	chasser	
1137	2	chasseurs	
1138	2	chaudes	
1139	2	chauffer	
1140	2	chemise	
1141	2	choses	
1142	2	chute	
1143	2	climat	
1144	2	cloisons	
1145	2	coins	
1146	2	combattre	
1147	2	combien	
1148	2	commencé	
1149	2	comment	
1150	2	complet	
1151	2	complète	
1152	2	comptait	
1153	2	compter	
1154	2	compère	
1155	2	conditions	
1156	2	conduite	
1157	2	confiée	
1158	2	connais	
1159	2	conscience	
1160	2	conseil	
1161	2	conservation	
1162	2	conserver	
1163	2	constamment	
1164	2	construction	
1165	2	construire	
1166	2	construisit	
1167	2	conséquence	
1168	2	contact	
1169	2	continua	
1170	2	conversations	
1171	2	corneilles	
1172	2	cou	
1173	2	couches	
1174	2	courageux	
1175	2	courait	
1176	2	courant	
1177	2	couru	
1178	2	coururent	
1179	2	couteaux	
1180	2	couvert	
1181	2	couvertures	
1182	2	craquements	
1183	2	creusé	
1184	2	crevasses	
1185	2	crique	
1186	2	croyait	
1187	2	cuire	
1188	2	cuisson	
1189	2	curieux	
1190	2	côtés	
1191	2	demain	
1192	2	demander	
1193	2	descendu	
1194	2	destination	
1195	2	destiné	
1196	2	deuil	
1197	2	devenu	
1198	2	diable	
1199	2	différent	
1200	2	directement	
1201	2	dis	
1202	2	discussion	
1203	2	disparaître	
1204	2	disposer	
1205	2	disposition	
1206	2	dispositions	
1207	2	dissension	
1208	2	divers	
1209	2	dressèrent	
1210	2	droit	
1211	2	débâcle	
1212	2	décembre	
1213	2	découragement	
1214	2	défense	
1215	2	déjeuner	
1216	2	dépassé	
1217	2	dépit	
1218	2	désolée	
1219	2	détachés	
1220	2	détails	
1221	2	détonation	
1222	2	détours	
1223	2	détresse	
1224	2	détruire	
1225	2	dévouement	
1226	2	effets	
1227	2	effrayé	
1228	2	effroi	
1229	2	employée	
1230	2	encablure	
1231	2	encablures	
1232	2	enfléchures	
1233	2	engagea	
1234	2	engagé	
1235	2	engloutis	
1236	2	enlever	
1237	2	ennui	
1238	2	entier	
1239	2	entière	
1240	2	entouraient	
1241	2	entrait	
1242	2	entraîner	
1243	2	entreprises	
1244	2	entrer	
1245	2	enveloppèrent	
1246	2	espérance	
1247	2	espérer	
1248	2	esquimaux	
1249	2	essaya	
1250	2	excessif	
1251	2	exemple	
1252	2	existence	
1253	2	exposer	
1254	2	extraordinaire	
1255	2	extrêmement	
1256	2	extérieure	
1257	2	face	
1258	2	faibles	
1259	2	faim	
1260	2	fameuse	
1261	2	femme	
1262	2	fermeté	
1263	2	feroë	
1264	2	fiancée	
1265	2	fier	
1266	2	file	
1267	2	firent	
1268	2	fissure	
1269	2	flots	
1270	2	flottaient	
1271	2	flottaison	
1272	2	flottants	
1273	2	foi	
1274	2	fondre	
1275	2	forcée	
1276	2	forcés	
1277	2	former	
1278	2	formée	
1279	2	fouiller	
1280	2	fourrure	
1281	2	fourrures	
1282	2	frappant	
1283	2	frapper	
1284	2	front	
1285	2	gaffe	
1286	2	gaffes	
1287	2	gagner	
1288	2	garnies	
1289	2	gelé	
1290	2	genoux	
1291	2	germe	
1292	2	gibier	
1293	2	gouttes	
1294	2	gouvernail	
1295	2	gouvernement	
1296	2	grave	
1297	2	griffes	
1298	2	gros	
1299	2	grœnlandais	
1300	2	grœnlandaise	
1301	2	généralement	
1302	2	habits	
1303	2	halte	
1304	2	haute	
1305	2	hivernait	
1306	2	hiverner	
1307	2	hiverneurs	
1308	2	hollandais	
1309	2	honnête	
1310	2	horrible	
1311	2	hors	
1312	2	humides	
1313	2	huniers	
1314	2	immobiles	
1315	2	imprudent	
1316	2	incident	
1317	2	indices	
1318	2	indispensable	
1319	2	indispensables	
1320	2	instrument	
1321	2	insupportable	
1322	2	inutiles	
1323	2	inévitablement	
1324	2	irrésistible	
1325	2	jambes	
1326	2	jetant	
1327	2	jeter	
1328	2	jetée	
1329	2	joignit	
1330	2	journée	
1331	2	juger	
1332	2	juillet	
1333	2	laissa	
1334	2	laissaient	
1335	2	laisser	
1336	2	laissèrent	
1337	2	lancer	
1338	2	largue	
1339	2	lesquels	
1340	2	liens	
1341	2	lits	
1342	2	livres	
1343	2	livré	
1344	2	logis	
1345	2	longs	
1346	2	longueur	
1347	2	luttaient	
1348	2	magnifique	
1349	2	malades	
1350	2	manque	
1351	2	manqué	
1352	2	manœuvre	
1353	2	manœuvrer	
1354	2	marchait	
1355	2	marcher	
1356	2	marches	
1357	2	marine	
1358	2	marquait	
1359	2	mars	
1360	2	maudit	
1361	2	maux	
1362	2	menace	
1363	2	mercure	
1364	2	mesure	
1365	2	meurt	
1366	2	mise	
1367	2	misérables	
1368	2	moitié	
1369	2	montaient	
1370	2	montraient	
1371	2	montrait	
1372	2	morne	
1373	2	morts	
1374	2	mot	
1375	2	mouillage	
1376	2	mourant	
1377	2	méridionale	
1378	2	mêlée	
1379	2	naturel	
1380	2	navires	
1381	2	nid	
1382	2	nourrir	
1383	2	nécessaires	
1384	2	obstacles	
1385	2	obtint	
1386	2	occidentale	
1387	2	occupait	
1388	2	occupèrent	
1389	2	offrit	
1390	2	ohé	
1391	2	opposer	
1392	2	ordre	
1393	2	oreilles	
1394	2	orientale	
1395	2	osaient	
1396	2	ouvert	
1397	2	ouvrage	
1398	2	ouvrir	
1399	2	paraissaient	
1400	2	parer	
1401	2	parfait	
1402	2	parois	
1403	2	parvenu	
1404	2	passa	
1405	2	passé	
1406	2	patte	
1407	2	pays	
1408	2	peignit	
1409	2	peines	
1410	2	pensa	
1411	2	perdirent	
1412	2	permettre	
1413	2	permis	
1414	2	permit	
1415	2	perpendiculairement	
1416	2	personne	
1417	2	personnes	
1418	2	peur	
1419	2	pistolets	
1420	2	pièces	
1421	2	plafond	
1422	2	planches	
1423	2	poignards	
1424	2	portion	
1425	2	portèrent	
1426	2	porté	
1427	2	position	
1428	2	poste	
1429	2	poudre	
1430	2	pourrait	
1431	2	pourrons	
1432	2	pouvez	
1433	2	pouvons	
1434	2	praticable	
1435	2	premières	
1436	2	prend	
1437	2	prises	
1438	2	prières	
1439	2	probabilités	
1440	2	prochain	
1441	2	procura	
1442	2	procurer	
1443	2	produire	
1444	2	produisit	
1445	2	profond	
1446	2	projet	
1447	2	projets	
1448	2	promenait	
1449	2	protégeait	
1450	2	prouva	
1451	2	prouver	
1452	2	prudence	
1453	2	précaution	
1454	2	précipitaient	
1455	2	précipitation	
1456	2	précipitèrent	
1457	2	précipité	
1458	2	précoce	
1459	2	prépara	
1460	2	présent	
1461	2	prévenus	
1462	2	ptarmigans	
1463	2	pénible	
1464	2	pénétra	
1465	2	péri	
1466	2	péril	
1467	2	périlleuse	
1468	2	pêche	
1469	2	pêcheurs	
1470	2	quant	
1471	2	quarante	
1472	2	quart	
1473	2	quelqu	
1474	2	question	
1475	2	quittant	
1476	2	quitte	
1477	2	quitté	
1478	2	ranimèrent	
1479	2	rapide	
1480	2	rapporter	
1481	2	rayon	
1482	2	rayonner	
1483	2	rayons	
1484	2	rechange	
1485	2	recherche	
1486	2	reconnaissance	
1487	2	reculer	
1488	2	redescendit	
1489	2	redoutables	
1490	2	reflua	
1491	2	remercier	
1492	2	remis	
1493	2	remit	
1494	2	remplacer	
1495	2	rencontra	
1496	2	renfermait	
1497	2	rentra	
1498	2	reparut	
1499	2	repentir	
1500	2	repère	
1501	2	respiration	
1502	2	resta	
1503	2	retenir	
1504	2	retira	
1505	2	retomba	
1506	2	retrouva	
1507	2	revinrent	
1508	2	reçut	
1509	2	riant	
1510	2	riche	
1511	2	rigoureux	
1512	2	risquait	
1513	2	rude	
1514	2	rugissement	
1515	2	râlait	
1516	2	réflexions	
1517	2	réfléchit	
1518	2	répandant	
1519	2	répandues	
1520	2	répondait	
1521	2	résistante	
1522	2	résolurent	
1523	2	résolution	
1524	2	réunion	
1525	2	sachant	
1526	2	saisissant	
1527	2	salle	
1528	2	salut	
1529	2	satisfaire	
1530	2	sauvetage	
1531	2	sauvés	
1532	2	savez	
1533	2	scie	
1534	2	seize	
1535	2	semaines	
1536	2	semblables	
1537	2	sens	
1538	2	sensiblement	
1539	2	sentait	
1540	2	serez	
1541	2	serions	
1542	2	serons	
1543	2	seront	
1544	2	servir	
1545	2	signal	
1546	2	signe	
1547	2	simple	
1548	2	située	
1549	2	soirée	
1550	2	solstice	
1551	2	sommeil	
1552	2	sonder	
1553	2	sortant	
1554	2	sortes	
1555	2	souffle	
1556	2	sourd	
1557	2	soutenait	
1558	2	spirales	
1559	2	stupéfait	
1560	2	succombé	
1561	2	suivait	
1562	2	suivi	
1563	2	suivre	
1564	2	supposer	
1565	2	surpris	
1566	2	sécher	
1567	2	ta	
1568	2	taille	
1569	2	tailler	
1570	2	tantôt	
1571	2	tarder	
1572	2	tardèrent	
1573	2	te	
1574	2	tempêtes	
1575	2	tenait	
1576	2	terminés	
1577	2	terribles	
1578	2	tes	
1579	2	tint	
1580	2	tinté	
1581	2	tirer	
1582	2	tombait	
1583	2	tombe	
1584	2	tombée	
1585	2	tonnerre	
1586	2	toucher	
1587	2	tourbillons	
1588	2	tracé	
1589	2	tranquille	
1590	2	transformait	
1591	2	travaillait	
1592	2	travaux	
1593	2	traça	
1594	2	traîneaux	
1595	2	tressaillit	
1596	2	trompé	
1597	2	trouverons	
1598	2	tuer	
1599	2	tué	
1600	2	ténèbres	
1601	2	unes	
1602	2	union	
1603	2	unique	
1604	2	uns	
1605	2	usage	
1606	2	vaste	
1607	2	veillez	
1608	2	venaient	
1609	2	vergues	
1610	2	vertige	
1611	2	veux	
1612	2	vieil	
1613	2	vif	
1614	2	violence	
1615	2	violent	
1616	2	visible	
1617	2	vois	
1618	2	vouloir	
1619	2	voyait	
1620	2	voyons	
1621	2	vraiment	
1622	2	vérité	
1623	2	éblouissement	
1624	2	ébranlée	
1625	2	écart	
1626	2	écarter	
1627	2	éclat	
1628	2	éclata	
1629	2	éclats	
1630	2	écoutez	
1631	2	église	
1632	2	élancèrent	
1633	2	éloigna	
1634	2	éléments	
1635	2	épaula	
1636	2	épaule	
1637	2	épreuves	
1638	2	éprouvé	
1639	2	épuisé	
1640	2	équilibre	
1641	2	établit	
1642	2	étais	
1643	2	étendirent	
1644	2	étendus	
1645	2	étreignait	
1646	2	étroitement	
1647	2	étui	
1648	2	évidemment	
1649	2	éviter	
1650	1	abaissait	
1651	1	abaissées	
1652	1	abandonner	
1653	1	abattaient	
1654	1	abattait	
1655	1	abattirent	
1656	1	abattit	
1657	1	ablutions	
1658	1	abondamment	
1659	1	abondante	
1660	1	abondantes	
1661	1	abondent	
1662	1	aborder	
1663	1	abords	
1664	1	abris	
1665	1	abrita	
1666	1	abritait	
1667	1	abrité	
1668	1	abritée	
1669	1	abrupte	
1670	1	absolue	
1671	1	absoudre	
1672	1	abîmé	
1673	1	accablé	
1674	1	accent	
1675	1	acceptez	
1676	1	accidents	
1677	1	acclamations	
1678	1	acclimatés	
1679	1	accommoderait	
1680	1	accompagnerait	
1681	1	accompagné	
1682	1	accompagnés	
1683	1	accompli	
1684	1	accomplir	
1685	1	accoster	
1686	1	accostés	
1687	1	accourir	
1688	1	accoutrement	
1689	1	accoutumaient	
1690	1	accoutumé	
1691	1	accoutumée	
1692	1	accroupir	
1693	1	accroupis	
1694	1	accueillait	
1695	1	acculait	
1696	1	acculé	
1697	1	accumulée	
1698	1	achevait	
1699	1	achevée	
1700	1	achevés	
1701	1	acquérait	
1702	1	action	
1703	1	actions	
1704	1	active	
1705	1	activé	
1706	1	adhérence	
1707	1	adjudication	
1708	1	admit	
1709	1	adoration	
1710	1	adossée	
1711	1	adroit	
1712	1	adversaire	
1713	1	affadissement	
1714	1	affecta	
1715	1	affectés	
1716	1	affreuse	
1717	1	affreuses	
1718	1	agenouillèrent	
1719	1	agenouillée	
1720	1	agenouillés	
1721	1	agi	
1722	1	agrandissait	
1723	1	agrandit	
1724	1	agrès	
1725	1	aidé	
1726	1	aimaient	
1727	1	aime	
1728	1	aimez	
1729	1	aisé	
1730	1	alimentaire	
1731	1	aliments	
1732	1	allaient	
1733	1	allumer	
1734	1	allumée	
1735	1	allumés	
1736	1	altérait	
1737	1	amassé	
1738	1	amollir	
1739	1	amoncelés	
1740	1	amour	
1741	1	aménagements	
1742	1	ange	
1743	1	animée	
1744	1	animés	
1745	1	annoncer	
1746	1	annonça	
1747	1	annonçant	
1748	1	années	
1749	1	anxiété	
1750	1	apercevrons	
1751	1	aperçois	
1752	1	aperçu	
1753	1	apparaissaient	
1754	1	appareilla	
1755	1	appareillait	
1756	1	appareillerons	
1757	1	appartiendra	
1758	1	apparurent	
1759	1	apparut	
1760	1	appelait	
1761	1	appeler	
1762	1	appelle	
1763	1	apportaient	
1764	1	apportèrent	
1765	1	apprendrait	
1766	1	apprendre	
1767	1	appris	
1768	1	apprises	
1769	1	approchaient	
1770	1	approchait	
1771	1	approchant	
1772	1	approchons	
1773	1	approché	
1774	1	approvisionnements	
1775	1	approvisionnée	
1776	1	apprêtait	
1777	1	appui	
1778	1	appuierait	
1779	1	appuya	
1780	1	appuyant	
1781	1	appuyé	
1782	1	arctique	
1783	1	ardents	
1784	1	ardeur	
1785	1	arma	
1786	1	armateur	
1787	1	arme	
1788	1	armement	
1789	1	armes	
1790	1	arracha	
1791	1	arrachant	
1792	1	arrivant	
1793	1	arrivants	
1794	1	arrivent	
1795	1	arriverait	
1796	1	arrêtait	
1797	1	arrêtât	
1798	1	articuler	
1799	1	asile	
1800	1	assaut	
1801	1	assembla	
1802	1	assentiment	
1803	1	assistaient	
1804	1	assistants	
1805	1	assombrit	
1806	1	assouvir	
1807	1	assurer	
1808	1	atlantique	
1809	1	atroces	
1810	1	attachement	
1811	1	attachèrent	
1812	1	attaque	
1813	1	attaqués	
1814	1	atteignait	
1815	1	atteignirent	
1816	1	atteindrait	
1817	1	atteint	
1818	1	attelés	
1819	1	attenante	
1820	1	attendirent	
1821	1	attendit	
1822	1	attendrons	
1823	1	attendît	
1824	1	attirèrent	
1825	1	attirés	
1826	1	aucunement	
1827	1	augmentait	
1828	1	augmenter	
1829	1	augmentât	
1830	1	augmentées	
1831	1	aujourd	
1832	1	aura	
1833	1	auras	
1834	1	aurez	
1835	1	autel	
1836	1	auteurs	
1837	1	autorité	
1838	1	autorités	
1839	1	autrefois	
1840	1	avais	
1841	1	avance	
1842	1	avancent	
1843	1	avancèrent	
1844	1	avançant	
1845	1	avenir	
1846	1	avertir	
1847	1	avidement	
1848	1	avides	
1849	1	avisons	
1850	1	avoisinante	
1851	1	avoisinent	
1852	1	baiser	
1853	1	baissé	
1854	1	balancer	
1855	1	balbutiant	
1856	1	baleiniers	
1857	1	balle	
1858	1	bans	
1859	1	baptisé	
1860	1	baril	
1861	1	barrait	
1862	1	barres	
1863	1	base	
1864	1	battre	
1865	1	bavard	
1866	1	bienvenu	
1867	1	biseau	
1868	1	blanc	
1869	1	blanches	
1870	1	blancheur	
1871	1	blanchâtre	
1872	1	blanchâtres	
1873	1	blottir	
1874	1	boisson	
1875	1	bond	
1876	1	bonnets	
1877	1	bordés	
1878	1	borner	
1879	1	bouche	
1880	1	bouché	
1881	1	boue	
1882	1	bouger	
1883	1	bouillante	
1884	1	bourré	
1885	1	boussole	
1886	1	bouteille	
1887	1	boutez	
1888	1	bouts	
1889	1	boutèrent	
1890	1	bravement	
1891	1	brilla	
1892	1	brillaient	
1893	1	brillant	
1894	1	briller	
1895	1	briquet	
1896	1	brisa	
1897	1	brisait	
1898	1	brisée	
1899	1	broieraient	
1900	1	brouillard	
1901	1	brusquant	
1902	1	brusquement	
1903	1	brusquer	
1904	1	bruyères	
1905	1	brûlerons	
1906	1	brûlé	
1907	1	brûlée	
1908	1	brûlés	
1909	1	burent	
1910	1	bâtiment	
1911	1	béni	
1912	1	bénissaient	
1913	1	bénédiction	
1914	1	bénédictions	
1915	1	cabines	
1916	1	caboteurs	
1917	1	cacatois	
1918	1	cachait	
1919	1	cachée	
1920	1	caisses	
1921	1	calculs	
1922	1	calmée	
1923	1	campements	
1924	1	campé	
1925	1	canard	
1926	1	canards	
1927	1	capables	
1928	1	cape	
1929	1	capitaines	
1930	1	captura	
1931	1	capuchons	
1932	1	carguer	
1933	1	carguées	
1934	1	casaque	
1935	1	casernement	
1936	1	catastrophe	
1937	1	causa	
1938	1	causes	
1939	1	ceinture	
1940	1	centaine	
1941	1	centigrades	
1942	1	centre	
1943	1	cercle	
1944	1	certainement	
1945	1	cessa	
1946	1	cessait	
1947	1	cesse	
1948	1	cesser	
1949	1	cessé	
1950	1	chairs	
1951	1	chaloupes	
1952	1	chandelle	
1953	1	changea	
1954	1	changeât	
1955	1	changé	
1956	1	chapitre	
1957	1	charbons	
1958	1	chargements	
1959	1	chargé	
1960	1	chargés	
1961	1	charitables	
1962	1	charité	
1963	1	chasses	
1964	1	chasuble	
1965	1	chaud	
1966	1	chemins	
1967	1	chenal	
1968	1	cher	
1969	1	cherchaient	
1970	1	cherchons	
1971	1	cherché	
1972	1	cheveux	
1973	1	chien	
1974	1	chocs	
1975	1	choisi	
1976	1	choisir	
1977	1	choisirent	
1978	1	choisit	
1979	1	chutes	
1980	1	chêne	
1981	1	cinquantaine	
1982	1	cinquante	
1983	1	circonstance	
1984	1	circonstances	
1985	1	circulation	
1986	1	circulé	
1987	1	clair	
1988	1	clarté	
1989	1	climats	
1990	1	clin	
1991	1	clos	
1992	1	coin	
1993	1	collet	
1994	1	colline	
1995	1	colossales	
1996	1	combat	
1997	1	combats	
1998	1	comble	
1999	1	combustible	
2000	1	commandait	
2001	1	commandé	
2002	1	commencement	
2003	1	commencer	
2004	1	commencerait	
2005	1	commencées	
2006	1	commençaient	
2007	1	commençant	
2008	1	commençons	
2009	1	commerciale	
2010	1	commettre	
2011	1	commis	
2012	1	commotion	
2013	1	communication	
2014	1	communications	
2015	1	commères	
2016	1	compacte	
2017	1	comparaison	
2018	1	complets	
2019	1	complices	
2020	1	compliment	
2021	1	complétèrent	
2022	1	composa	
2023	1	composer	
2024	1	composition	
2025	1	composé	
2026	1	comprend	
2027	1	comprendre	
2028	1	comprenez	
2029	1	compromise	
2030	1	compta	
2031	1	comptes	
2032	1	concentre	
2033	1	concert	
2034	1	condamné	
2035	1	condition	
2036	1	condoléances	
2037	1	conduise	
2038	1	confectionnèrent	
2039	1	confiance	
2040	1	confier	
2041	1	configuration	
2042	1	confié	
2043	1	confort	
2044	1	confortable	
2045	1	conjoncture	
2046	1	connaissaient	
2047	1	connaissance	
2048	1	connaissez	
2049	1	connu	
2050	1	conservé	
2051	1	considérablement	
2052	1	considérer	
2053	1	consolation	
2054	1	consolider	
2055	1	conspirer	
2056	1	constata	
2057	1	constater	
2058	1	construite	
2059	1	conséquent	
2060	1	contenant	
2061	1	content	
2062	1	continuellement	
2063	1	continuelles	
2064	1	contractèrent	
2065	1	contrairement	
2066	1	contrarié	
2067	1	contredit	
2068	1	contribué	
2069	1	convaincre	
2070	1	convenable	
2071	1	convenablement	
2072	1	convenait	
2073	1	conventions	
2074	1	conversation	
2075	1	conçu	
2076	1	corbeaux	
2077	1	cordage	
2078	1	cordialement	
2079	1	cordiaux	
2080	1	corne	
2081	1	coton	
2082	1	couchait	
2083	1	couché	
2084	1	coude	
2085	1	coula	
2086	1	coulait	
2087	1	couleur	
2088	1	coupaient	
2089	1	coupe	
2090	1	coupures	
2091	1	couraient	
2092	1	courroies	
2093	1	cours	
2094	1	courut	
2095	1	couvrait	
2096	1	couvrir	
2097	1	couvrirent	
2098	1	craignait	
2099	1	crains	
2100	1	crainte	
2101	1	cramponner	
2102	1	craquement	
2103	1	crevasse	
2104	1	crevée	
2105	1	crier	
2106	1	cristallisation	
2107	1	croirai	
2108	1	croisa	
2109	1	croix	
2110	1	croyant	
2111	1	croyez	
2112	1	croûte	
2113	1	cru	
2114	1	cruelle	
2115	1	cruelles	
2116	1	crut	
2117	1	cuira	
2118	1	cuivre	
2119	1	culbutent	
2120	1	céda	
2121	1	cérémonie	
2122	1	dame	
2123	1	dangereuse	
2124	1	davis	
2125	1	demandait	
2126	1	demeuraient	
2127	1	demeurant	
2128	1	dernières	
2129	1	descendaient	
2130	1	descendirent	
2131	1	descendons	
2132	1	destinée	
2133	1	destinées	
2134	1	devenaient	
2135	1	devenant	
2136	1	deviendrait	
2137	1	devrait	
2138	1	devrons	
2139	1	diamètre	
2140	1	difficilement	
2141	1	difficulté	
2142	1	difficultés	
2143	1	différents	
2144	1	diminue	
2145	1	diminuent	
2146	1	diminution	
2147	1	diminué	
2148	1	diminuée	
2149	1	dirais	
2150	1	dirigeaient	
2151	1	dirigerait	
2152	1	disconviens	
2153	1	discussions	
2154	1	disjointe	
2155	1	disparition	
2156	1	disparurent	
2157	1	dispersés	
2158	1	disposa	
2159	1	disposèrent	
2160	1	disposé	
2161	1	disposés	
2162	1	dissimuler	
2163	1	distances	
2164	1	distinctement	
2165	1	distinguer	
2166	1	distribuer	
2167	1	distribuées	
2168	1	diverses	
2169	1	divisé	
2170	1	divisée	
2171	1	divisés	
2172	1	dixième	
2173	1	dizaine	
2174	1	document	
2175	1	doigts	
2176	1	dois	
2177	1	domestiques	
2178	1	domina	
2179	1	donnant	
2180	1	donnez	
2181	1	donnèrent	
2182	1	donnés	
2183	1	dormait	
2184	1	douce	
2185	1	douceur	
2186	1	douter	
2187	1	douté	
2188	1	douze	
2189	1	dressaient	
2190	1	dresser	
2191	1	duquel	
2192	1	dur	
2193	1	durable	
2194	1	durait	
2195	1	durcir	
2196	1	durcissaient	
2197	1	dureté	
2198	1	durs	
2199	1	durèrent	
2200	1	duré	
2201	1	durée	
2202	1	débattait	
2203	1	déblayer	
2204	1	débâcles	
2205	1	déchargea	
2206	1	décharger	
2207	1	déchargèrent	
2208	1	déchaînaient	
2209	1	déchiraient	
2210	1	déchirer	
2211	1	décidée	
2212	1	décime	
2213	1	décisif	
2214	1	décisive	
2215	1	déclara	
2216	1	déclaration	
2217	1	déclarèrent	
2218	1	déclaré	
2219	1	décomposition	
2220	1	déconcerta	
2221	1	découpèrent	
2222	1	découpées	
2223	1	décourager	
2224	1	découragé	
2225	1	découvertes	
2226	1	découvrir	
2227	1	décrites	
2228	1	décrivait	
2229	1	défaut	
2230	1	défendre	
2231	1	défier	
2232	1	défilerons	
2233	1	défoncé	
2234	1	défoncée	
2235	1	défonça	
2236	1	dégager	
2237	1	dégeler	
2238	1	dégelée	
2239	1	dégénéra	
2240	1	délivrance	
2241	1	délivrée	
2242	1	démenti	
2243	1	démolir	
2244	1	démonta	
2245	1	démontées	
2246	1	démâtée	
2247	1	dépassait	
2248	1	dépendaient	
2249	1	dépendra	
2250	1	déplacer	
2251	1	déplacé	
2252	1	déplacées	
2253	1	déplaçait	
2254	1	déplaçant	
2255	1	déplorer	
2256	1	déposer	
2257	1	dépouillant	
2258	1	dépression	
2259	1	dépérir	
2260	1	dépôt	
2261	1	déranger	
2262	1	dérive	
2263	1	dériverons	
2264	1	dérivé	
2265	1	désapprouvant	
2266	1	désemparé	
2267	1	déserte	
2268	1	désespérait	
2269	1	désigné	
2270	1	désolées	
2271	1	détachent	
2272	1	détachèrent	
2273	1	détail	
2274	1	détermination	
2275	1	détestait	
2276	1	détroit	
2277	1	détruisait	
2278	1	dévier	
2279	1	dévié	
2280	1	dévora	
2281	1	dévoué	
2282	1	effaré	
2283	1	effectivement	
2284	1	effondrait	
2285	1	effort	
2286	1	effrayait	
2287	1	eiderduks	
2288	1	embarqua	
2289	1	embarque	
2290	1	embarquer	
2291	1	embarqués	
2292	1	embarrassaient	
2293	1	embrassait	
2294	1	embrassée	
2295	1	emmena	
2296	1	emparer	
2297	1	emparée	
2298	1	emplette	
2299	1	emplir	
2300	1	emplissaient	
2301	1	employé	
2302	1	emporta	
2303	1	emporter	
2304	1	emporté	
2305	1	emportées	
2306	1	emportés	
2307	1	empreinte	
2308	1	emprisonnement	
2309	1	emprisonné	
2310	1	empêchaient	
2311	1	empêchait	
2312	1	empêche	
2313	1	empêcherait	
2314	1	empêchés	
2315	1	enclavé	
2316	1	encombrèrent	
2317	1	endormirent	
2318	1	endurcis	
2319	1	enfance	
2320	1	enfants	
2321	1	enfoncer	
2322	1	enfonçaient	
2323	1	engageait	
2324	1	engloutir	
2325	1	engourdis	
2326	1	engourdissement	
2327	1	enlèverez	
2328	1	enseveli	
2329	1	entamaient	
2330	1	entamée	
2331	1	entassa	
2332	1	entend	
2333	1	entendait	
2334	1	entendit	
2335	1	entendu	
2336	1	enterrer	
2337	1	enterrés	
2338	1	entourer	
2339	1	entrain	
2340	1	entraînait	
2341	1	entraînant	
2342	1	entraîneraient	
2343	1	entraînèrent	
2344	1	entraînée	
2345	1	entrebâillées	
2346	1	entrechoquaient	
2347	1	entrepont	
2348	1	entreprenant	
2349	1	entreprise	
2350	1	entrevoir	
2351	1	envahir	
2352	1	enveloppait	
2353	1	enveloppe	
2354	1	enveloppés	
2355	1	envi	
2356	1	envie	
2357	1	environnantes	
2358	1	environnants	
2359	1	environs	
2360	1	envolèrent	
2361	1	es	
2362	1	escalader	
2363	1	espace	
2364	1	esprits	
2365	1	espère	
2366	1	espérait	
2367	1	espérons	
2368	1	essayait	
2369	1	essayons	
2370	1	essuyer	
2371	1	estacades	
2372	1	eu	
2373	1	eue	
2374	1	exacte	
2375	1	excellent	
2376	1	excitait	
2377	1	excursion	
2378	1	excusé	
2379	1	exhaussement	
2380	1	exigea	
2381	1	existaient	
2382	1	existe	
2383	1	expliquez	
2384	1	exploita	
2385	1	explora	
2386	1	explorées	
2387	1	exposa	
2388	1	exposée	
2389	1	exposés	
2390	1	expression	
2391	1	extraire	
2392	1	extraordinaires	
2393	1	extrémités	
2394	1	extérieur	
2395	1	extérieurement	
2396	1	exécution	
2397	1	fabrication	
2398	1	facilement	
2399	1	faciles	
2400	1	facilité	
2401	1	faible	
2402	1	faiblesse	
2403	1	faiblissait	
2404	1	faisant	
2405	1	faisons	
2406	1	faite	
2407	1	faits	
2408	1	fallu	
2409	1	fameusement	
2410	1	famille	
2411	1	farine	
2412	1	farouche	
2413	1	farouches	
2414	1	fasse	
2415	1	fatale	
2416	1	fatigués	
2417	1	faudra	
2418	1	faudrait	
2419	1	faute	
2420	1	faux	
2421	1	favorisait	
2422	1	fenêtres	
2423	1	fera	
2424	1	feraient	
2425	1	ferait	
2426	1	ferma	
2427	1	fermer	
2428	1	fermes	
2429	1	fermé	
2430	1	feux	
2431	1	fiancés	
2432	1	figures	
2433	1	filait	
2434	1	filial	
2435	1	finesse	
2436	1	finît	
2437	1	fissures	
2438	1	fixa	
2439	1	flamande	
2440	1	flamme	
2441	1	flancs	
2442	1	flatteur	
2443	1	flottait	
2444	1	flottante	
2445	1	flotte	
2446	1	fondait	
2447	1	fondements	
2448	1	fonte	
2449	1	forcément	
2450	1	forma	
2451	1	formaient	
2452	1	forme	
2453	1	formes	
2454	1	formidables	
2455	1	fortement	
2456	1	forts	
2457	1	fosse	
2458	1	fou	
2459	1	foudroyé	
2460	1	fouettée	
2461	1	fouler	
2462	1	fourneau	
2463	1	fourni	
2464	1	fournir	
2465	1	fournirent	
2466	1	fournis	
2467	1	fournit	
2468	1	fourrer	
2469	1	fourré	
2470	1	fourrés	
2471	1	fracas	
2472	1	frais	
2473	1	franchir	
2474	1	frappa	
2475	1	frayer	
2476	1	fraîches	
2477	1	fraîchissait	
2478	1	frictions	
2479	1	froideur	
2480	1	froissée	
2481	1	frottant	
2482	1	frotté	
2483	1	fruit	
2484	1	frère	
2485	1	fréquentaient	
2486	1	fréquentent	
2487	1	fuir	
2488	1	funestes	
2489	1	furieux	
2490	1	fussent	
2491	1	fâcher	
2492	1	félicite	
2493	1	félicitèrent	
2494	1	féroce	
2495	1	féroces	
2496	1	férocité	
2497	1	février	
2498	1	fêtèrent	
2499	1	gagnèrent	
2500	1	gaillardement	
2501	1	galhaubans	
2502	1	gardien	
2503	1	gare	
2504	1	garnie	
2505	1	garnis	
2506	1	garrottés	
2507	1	garçons	
2508	1	geler	
2509	1	gelât	
2510	1	gelée	
2511	1	gelés	
2512	1	genre	
2513	1	gigantesque	
2514	1	gigantesques	
2515	1	gisait	
2516	1	glacer	
2517	1	glacial	
2518	1	glacé	
2519	1	glacée	
2520	1	glacées	
2521	1	glaça	
2522	1	glissant	
2523	1	gorge	
2524	1	goudron	
2525	1	gourdes	
2526	1	gouverne	
2527	1	goûterez	
2528	1	gravement	
2529	1	gravi	
2530	1	gravirent	
2531	1	gravissant	
2532	1	gravit	
2533	1	grimpant	
2534	1	grogner	
2535	1	grommelait	
2536	1	groupe	
2537	1	grues	
2538	1	gréement	
2539	1	grêle	
2540	1	guerre	
2541	1	guidèrent	
2542	1	guérir	
2543	1	gâtées	
2544	1	gèle	
2545	1	gèlera	
2546	1	habilement	
2547	1	habileté	
2548	1	habillements	
2549	1	habitaient	
2550	1	habitait	
2551	1	habituer	
2552	1	habituée	
2553	1	haches	
2554	1	hardi	
2555	1	hardis	
2556	1	hasarda	
2557	1	hasarder	
2558	1	hasardeux	
2559	1	haubans	
2560	1	hautement	
2561	1	hauts	
2562	1	havre	
2563	1	heurta	
2564	1	heurtaient	
2565	1	heurter	
2566	1	hisse	
2567	1	hiérarchique	
2568	1	horreur	
2569	1	hui	
2570	1	huile	
2571	1	humeur	
2572	1	hygiène	
2573	1	hâta	
2574	1	hâte	
2575	1	hâtèrent	
2576	1	hébété	
2577	1	hélas	
2578	1	hérissée	
2579	1	héritière	
2580	1	hésitation	
2581	1	hésiter	
2582	1	ichthyophages	
2583	1	imagina	
2584	1	imaginer	
2585	1	imiter	
2586	1	imitèrent	
2587	1	immenses	
2588	1	immensité	
2589	1	imminente	
2590	1	immobilité	
2591	1	imparfaitement	
2592	1	imparfaites	
2593	1	impatience	
2594	1	imperméables	
2595	1	importante	
2596	1	impossibilité	
2597	1	improbable	
2598	1	improviste	
2599	1	imprudemment	
2600	1	imprégnait	
2601	1	imprégné	
2602	1	imprévue	
2603	1	impunément	
2604	1	inabordable	
2605	1	inaccessibles	
2606	1	inassouvie	
2607	1	inattendu	
2608	1	incalculable	
2609	1	incessante	
2610	1	incliné	
2611	1	inconnue	
2612	1	inconvénient	
2613	1	indice	
2614	1	indienne	
2615	1	indigne	
2616	1	indomptable	
2617	1	indécis	
2618	1	indécise	
2619	1	indéfinissable	
2620	1	indépendamment	
2621	1	inexplicables	
2622	1	infailliblement	
2623	1	infecte	
2624	1	infinies	
2625	1	influence	
2626	1	infortune	
2627	1	infortunés	
2628	1	inférieurs	
2629	1	inhabités	
2630	1	innombrables	
2631	1	inoccupée	
2632	1	inquiets	
2633	1	inquiète	
2634	1	inquiéter	
2635	1	inquiétude	
2636	1	insensiblement	
2637	1	insistant	
2638	1	insomnie	
2639	1	insoutenable	
2640	1	installa	
2641	1	installation	
2642	1	installée	
2643	1	installées	
2644	1	installés	
2645	1	instants	
2646	1	instruisit	
2647	1	insuccès	
2648	1	insuffisante	
2649	1	insurmontables	
2650	1	intelligence	
2651	1	intensité	
2652	1	intentions	
2653	1	interdire	
2654	1	interposèrent	
2655	1	interrompant	
2656	1	interrompit	
2657	1	intervalle	
2658	1	intervenir	
2659	1	intolérables	
2660	1	introduisant	
2661	1	introduisit	
2662	1	intérieure	
2663	1	intérieurement	
2664	1	intérieures	
2665	1	intérêt	
2666	1	inviterai	
2667	1	invités	
2668	1	inébranlable	
2669	1	ironiquement	
2670	1	irons	
2671	1	islande	
2672	1	jambe	
2673	1	jetaient	
2674	1	jetèrent	
2675	1	jetées	
2676	1	jeûner	
2677	1	joli	
2678	1	jolie	
2679	1	joliment	
2680	1	joue	
2681	1	jouir	
2682	1	journal	
2683	1	journellement	
2684	1	joyeuse	
2685	1	joyeusement	
2686	1	joyeux	
2687	1	juché	
2688	1	jupons	
2689	1	juron	
2690	1	jusque	
2691	1	laissait	
2692	1	laisserai	
2693	1	laissions	
2694	1	laissé	
2695	1	lames	
2696	1	langue	
2697	1	larges	
2698	1	larguées	
2699	1	latéraux	
2700	1	lectures	
2701	1	lesquelles	
2702	1	lestement	
2703	1	levèrent	
2704	1	lieux	
2705	1	limite	
2706	1	limites	
2707	1	liquides	
2708	1	littoral	
2709	1	lièvres	
2710	1	logements	
2711	1	loi	
2712	1	loisible	
2713	1	longitude	
2714	1	lorsqu	
2715	1	louanges	
2716	1	loups	
2717	1	lourdement	
2718	1	lu	
2719	1	lunes	
2720	1	lutta	
2721	1	luttant	
2722	1	lutte	
2723	1	lutter	
2724	1	lâche	
2725	1	lâcheté	
2726	1	lèpre	
2727	1	légère	
2728	1	légères	
2729	1	mademoiselle	
2730	1	maintenait	
2731	1	maintenir	
2732	1	maintenu	
2733	1	maisonnette	
2734	1	malade	
2735	1	malheureuse	
2736	1	malheureusement	
2737	1	malédiction	
2738	1	manches	
2739	1	mangeons	
2740	1	manger	
2741	1	mangé	
2742	1	manifesta	
2743	1	manifestèrent	
2744	1	manquaient	
2745	1	manquera	
2746	1	manquerons	
2747	1	mante	
2748	1	manœuvrent	
2749	1	manœuvres	
2750	1	manœuvrier	
2751	1	marcha	
2752	1	marchaient	
2753	1	marchand	
2754	1	marchandises	
2755	1	marchant	
2756	1	marcheurs	
2757	1	marchons	
2758	1	marchèrent	
2759	1	mari	
2760	1	mariage	
2761	1	mariée	
2762	1	marqua	
2763	1	marque	
2764	1	marée	
2765	1	masqua	
2766	1	massacrante	
2767	1	matins	
2768	1	matériaux	
2769	1	mauvais	
2770	1	mayen	
2771	1	maçons	
2772	1	meilleurs	
2773	1	membres	
2774	1	menacer	
2775	1	menaçait	
2776	1	menaçants	
2777	1	menées	
2778	1	messes	
2779	1	mesuraient	
2780	1	mesurait	
2781	1	mettait	
2782	1	mettant	
2783	1	meurtri	
2784	1	midi	
2785	1	miens	
2786	1	mine	
2787	1	miner	
2788	1	minutieuses	
2789	1	mirage	
2790	1	mirent	
2791	1	mocassins	
2792	1	moindres	
2793	1	molles	
2794	1	moments	
2795	1	monstre	
2796	1	montait	
2797	1	monticules	
2798	1	montra	
2799	1	montrèrent	
2800	1	montré	
2801	1	montèrent	
2802	1	monté	
2803	1	moribond	
2804	1	mortelle	
2805	1	mortellement	
2806	1	motif	
2807	1	mouchoir	
2808	1	mourras	
2809	1	mourut	
2810	1	mouvaient	
2811	1	mouvantes	
2812	1	mouvants	
2813	1	moyens	
2814	1	muni	
2815	1	munis	
2816	1	munit	
2817	1	mur	
2818	1	muraille	
2819	1	murmurait	
2820	1	murs	
2821	1	muscles	
2822	1	myriades	
2823	1	mère	
2824	1	mètres	
2825	1	ménagée	
2826	1	méridional	
2827	1	métallique	
2828	1	mêlaient	
2829	1	mêlèrent	
2830	1	mît	
2831	1	natale	
2832	1	naturellement	
2833	1	nettement	
2834	1	neuf	
2835	1	nez	
2836	1	niveau	
2837	1	noir	
2838	1	noirs	
2839	1	nommé	
2840	1	norvégienne	
2841	1	notaire	
2842	1	nourries	
2843	1	nouvel	
2844	1	nuages	
2845	1	nuire	
2846	1	nutritifs	
2847	1	nécessitait	
2848	1	négligé	
2849	1	négociant	
2850	1	nôtres	
2851	1	objet	
2852	1	obligatoire	
2853	1	obligea	
2854	1	obligeait	
2855	1	obligée	
2856	1	obliquité	
2857	1	observait	
2858	1	observations	
2859	1	obstacle	
2860	1	obstruait	
2861	1	obstruée	
2862	1	obéi	
2863	1	obéir	
2864	1	obéissance	
2865	1	occasionnait	
2866	1	occasions	
2867	1	occupaient	
2868	1	occupe	
2869	1	occuper	
2870	1	occupé	
2871	1	odieux	
2872	1	odorat	
2873	1	offraient	
2874	1	offrant	
2875	1	offrir	
2876	1	oies	
2877	1	oiseau	
2878	1	ondulation	
2879	1	onze	
2880	1	ophtalmies	
2881	1	opposition	
2882	1	opérait	
2883	1	opération	
2884	1	opérations	
2885	1	opéré	
2886	1	ordinaire	
2887	1	ordonnateur	
2888	1	organisaient	
2889	1	orientant	
2890	1	orienter	
2891	1	orientons	
2892	1	orientées	
2893	1	orifice	
2894	1	origine	
2895	1	osa	
2896	1	oscillait	
2897	1	osèrent	
2898	1	oublia	
2899	1	ouragan	
2900	1	outils	
2901	1	ouverte	
2902	1	ouvraient	
2903	1	ouvrait	
2904	1	ouvrant	
2905	1	ouvrît	
2906	1	pagaye	
2907	1	pantalon	
2908	1	paraissait	
2909	1	parait	
2910	1	paraît	
2911	1	parce	
2912	1	parcourus	
2913	1	pareil	
2914	1	paresseusement	
2915	1	parla	
2916	1	paroi	
2917	1	partager	
2918	1	particulier	
2919	1	particulière	
2920	1	particulièrement	
2921	1	parties	
2922	1	partir	
2923	1	partirent	
2924	1	partit	
2925	1	partout	
2926	1	parts	
2927	1	parurent	
2928	1	parvenait	
2929	1	parvenus	
2930	1	parvinrent	
2931	1	parvînt	
2932	1	parèrent	
2933	1	parée	
2934	1	passages	
2935	1	passant	
2936	1	passerons	
2937	1	passèrent	
2938	1	passée	
2939	1	passés	
2940	1	paternel	
2941	1	pauvres	
2942	1	peindre	
2943	1	penchée	
2944	1	pendaient	
2945	1	pensait	
2946	1	perceptibles	
2947	1	percé	
2948	1	perdent	
2949	1	permettez	
2950	1	permettra	
2951	1	permirent	
2952	1	permît	
2953	1	perpétuelle	
2954	1	perroquet	
2955	1	perroquets	
2956	1	perspective	
2957	1	perçait	
2958	1	pesaient	
2959	1	pesait	
2960	1	pesanteur	
2961	1	petites	
2962	1	petits	
2963	1	phosphorescentes	
2964	1	phrases	
2965	1	physionomie	
2966	1	phénomène	
2967	1	phénomènes	
2968	1	pic	
2969	1	pics	
2970	1	pieux	
2971	1	piques	
2972	1	pirogues	
2973	1	pièce	
2974	1	plage	
2975	1	plaindre	
2976	1	plairait	
2977	1	plaisait	
2978	1	plaisanteries	
2979	1	plantèrent	
2980	1	plat	
2981	1	plats	
2982	1	plaît	
2983	1	pleinement	
2984	1	pleines	
2985	1	pleura	
2986	1	pleurèrent	
2987	1	pleuré	
2988	1	plier	
2989	1	plonger	
2990	1	plongèrent	
2991	1	plongé	
2992	1	pluies	
2993	1	plupart	
2994	1	poignarde	
2995	1	poignées	
2996	1	pointes	
2997	1	pommes	
2998	1	population	
2999	1	porc	
3000	1	porta	
3001	1	portatif	
3002	1	portes	
3003	1	ports	
3004	1	portée	
3005	1	possession	
3006	1	possibles	
3007	1	possédait	
3008	1	posée	
3009	1	pouces	
3010	1	pourrai	
3011	1	pourraient	
3012	1	poursuite	
3013	1	poursuivit	
3014	1	pourtant	
3015	1	pourvu	
3016	1	poussant	
3017	1	poussèrent	
3018	1	poussées	
3019	1	poêles	
3020	1	prenait	
3021	1	prenant	
3022	1	prenez	
3023	1	prenons	
3024	1	pressa	
3025	1	pressentiment	
3026	1	preuves	
3027	1	priant	
3028	1	prie	
3029	1	prirent	
3030	1	prison	
3031	1	prisonniers	
3032	1	privait	
3033	1	privions	
3034	1	privé	
3035	1	privés	
3036	1	problématique	
3037	1	prochaine	
3038	1	prochains	
3039	1	procuré	
3040	1	procéda	
3041	1	produite	
3042	1	profit	
3043	1	profonde	
3044	1	projetaient	
3045	1	projetait	
3046	1	projetée	
3047	1	prolongeait	
3048	1	prolongent	
3049	1	prolongerait	
3050	1	prolongeât	
3051	1	promener	
3052	1	promenoir	
3053	1	promesse	
3054	1	promets	
3055	1	promis	
3056	1	promptitude	
3057	1	prononcé	
3058	1	proportion	
3059	1	propos	
3060	1	proposa	
3061	1	propriété	
3062	1	protecteurs	
3063	1	protégea	
3064	1	providence	
3065	1	providentiel	
3066	1	proviendrait	
3067	1	prudent	
3068	1	prudente	
3069	1	préalablement	
3070	1	préceintes	
3071	1	précipitait	
3072	1	précipitamment	
3073	1	précipiter	
3074	1	précipités	
3075	1	précisément	
3076	1	précédée	
3077	1	prémunir	
3078	1	préoccupation	
3079	1	préparait	
3080	1	préparatif	
3081	1	préparation	
3082	1	préparèrent	
3083	1	préparé	
3084	1	préposés	
3085	1	présenta	
3086	1	présentaient	
3087	1	présente	
3088	1	présentât	
3089	1	préservaient	
3090	1	préserver	
3091	1	préservera	
3092	1	préservée	
3093	1	préservés	
3094	1	présomptions	
3095	1	prétexte	
3096	1	prévalut	
3097	1	prévenu	
3098	1	prévint	
3099	1	prévisions	
3100	1	prévoyait	
3101	1	prêt	
3102	1	prêta	
3103	1	prêtant	
3104	1	prête	
3105	1	ptarmigan	
3106	1	publier	
3107	1	publiés	
3108	1	puisait	
3109	1	puissance	
3110	1	puissante	
3111	1	pussent	
3112	1	pâles	
3113	1	pâlir	
3114	1	péchés	
3115	1	péniblement	
3116	1	pénétrait	
3117	1	péremptoires	
3118	1	périlleuses	
3119	1	périr	
3120	1	pérégrinations	
3121	1	pôles	
3122	1	quatorze	
3123	1	quelle	
3124	1	quelquefois	
3125	1	quels	
3126	1	questions	
3127	1	quitta	
3128	1	quittes	
3129	1	quittons	
3130	1	quittât	
3131	1	quittèrent	
3132	1	quoiqu	
3133	1	raconter	
3134	1	radieux	
3135	1	rafales	
3136	1	raidi	
3137	1	raidissait	
3138	1	raidit	
3139	1	raisons	
3140	1	ramenant	
3141	1	ramener	
3142	1	ramenèrent	
3143	1	ramené	
3144	1	rampant	
3145	1	ramper	
3146	1	ramènerai	
3147	1	rang	
3148	1	rangèrent	
3149	1	rangé	
3150	1	rapidité	
3151	1	rappela	
3152	1	rappelez	
3153	1	rapportait	
3154	1	rapprochèrent	
3155	1	rapproché	
3156	1	rapprochée	
3157	1	rassurer	
3158	1	ration	
3159	1	rattrapé	
3160	1	rayaient	
3161	1	rebroussa	
3162	1	recevoir	
3163	1	rechargea	
3164	1	recherchait	
3165	1	recommandée	
3166	1	reconnaissait	
3167	1	reconnue	
3168	1	reconstruire	
3169	1	recourbant	
3170	1	recourbées	
3171	1	recourir	
3172	1	recours	
3173	1	recouvert	
3174	1	recouverte	
3175	1	recouvrait	
3176	1	recouvrir	
3177	1	recueilli	
3178	1	recueillir	
3179	1	recueillis	
3180	1	reculant	
3181	1	redevenu	
3182	1	redevenue	
3183	1	redevint	
3184	1	redouter	
3185	1	refermant	
3186	1	refermer	
3187	1	reflet	
3188	1	refroidir	
3189	1	refroidit	
3190	1	refusez	
3191	1	regagnaient	
3192	1	regard	
3193	1	regardait	
3194	1	regarder	
3195	1	regret	
3196	1	regrettant	
3197	1	regrettons	
3198	1	reins	
3199	1	rejoignirent	
3200	1	rejoindrons	
3201	1	rejoint	
3202	1	rejoints	
3203	1	relativement	
3204	1	releva	
3205	1	relever	
3206	1	relâchait	
3207	1	relâche	
3208	1	relâcher	
3209	1	remarqua	
3210	1	remarquèrent	
3211	1	rembarquer	
3212	1	remerciements	
3213	1	remercions	
3214	1	remettait	
3215	1	remettre	
3216	1	remirent	
3217	1	remontant	
3218	1	remontrerez	
3219	1	remontèrent	
3220	1	remords	
3221	1	remorqué	
3222	1	remplacerait	
3223	1	remplaçait	
3224	1	rempli	
3225	1	remplissait	
3226	1	remplit	
3227	1	remuer	
3228	1	rencontre	
3229	1	rencontrons	
3230	1	rendaient	
3231	1	rendez	
3232	1	rendu	
3233	1	rendue	
3234	1	renfermés	
3235	1	renouvelait	
3236	1	renouvelât	
3237	1	renouvelèrent	
3238	1	rentrant	
3239	1	rentrera	
3240	1	rentrèrent	
3241	1	rentrés	
3242	1	renverse	
3243	1	renversé	
3244	1	renversée	
3245	1	reparurent	
3246	1	replaça	
3247	1	repliées	
3248	1	reposa	
3249	1	reposant	
3250	1	reposons	
3251	1	repoussa	
3252	1	repousser	
3253	1	repoussée	
3254	1	repoussés	
3255	1	reprendrait	
3256	1	repris	
3257	1	reprocher	
3258	1	reproduisaient	
3259	1	représentations	
3260	1	respiraient	
3261	1	respirer	
3262	1	responsabilité	
3263	1	responsable	
3264	1	ressembla	
3265	1	ressentir	
3266	1	ressortir	
3267	1	ressource	
3268	1	restaient	
3269	1	restassent	
3270	1	restaurés	
3271	1	rester	
3272	1	restes	
3273	1	retarda	
3274	1	retentit	
3275	1	retenu	
3276	1	retenus	
3277	1	retirer	
3278	1	retirèrent	
3279	1	retombaient	
3280	1	retombait	
3281	1	retourna	
3282	1	retournerait	
3283	1	retourné	
3284	1	retrouverons	
3285	1	retrouvèrent	
3286	1	retrouvé	
3287	1	retrouvés	
3288	1	revenaient	
3289	1	revenait	
3290	1	reviendrai	
3291	1	revus	
3292	1	revêtait	
3293	1	reçurent	
3294	1	reçus	
3295	1	rigueur	
3296	1	rigueurs	
3297	1	riposta	
3298	1	robuste	
3299	1	robustes	
3300	1	roches	
3301	1	rompre	
3302	1	ronde	
3303	1	roses	
3304	1	rouf	
3305	1	rouge	
3306	1	rougeâtre	
3307	1	rougir	
3308	1	roulait	
3309	1	rugissements	
3310	1	rupture	
3311	1	récentes	
3312	1	réchapperons	
3313	1	réchauffer	
3314	1	récit	
3315	1	récits	
3316	1	réclamer	
3317	1	récolte	
3318	1	réconfortait	
3319	1	réfléchir	
3320	1	réfugié	
3321	1	régnait	
3322	1	régner	
3323	1	régulièrement	
3324	1	réjouissaient	
3325	1	réjouissait	
3326	1	répandit	
3327	1	réparer	
3328	1	réparèrent	
3329	1	répliquait	
3330	1	répondez	
3331	1	répondirent	
3332	1	réponse	
3333	1	répugnait	
3334	1	réserva	
3335	1	réserve	
3336	1	réserver	
3337	1	réserves	
3338	1	réservé	
3339	1	résistait	
3340	1	résistance	
3341	1	résiste	
3342	1	résultait	
3343	1	résultat	
3344	1	réuni	
3345	1	réuniraient	
3346	1	réussirent	
3347	1	réussissait	
3348	1	réussit	
3349	1	réveillèrent	
3350	1	révolter	
3351	1	rôle	
3352	1	sacerdotaux	
3353	1	sacristie	
3354	1	sacs	
3355	1	saint	
3356	1	saisirent	
3357	1	saisis	
3358	1	saisissait	
3359	1	saluer	
3360	1	salutaire	
3361	1	sarcelles	
3362	1	saut	
3363	1	sautant	
3364	1	sautèrent	
3365	1	sauvage	
3366	1	sauve	
3367	1	sauvé	
3368	1	sauvée	
3369	1	savaient	
3370	1	scoresby	
3371	1	scrupuleusement	
3372	1	scène	
3373	1	scènes	
3374	1	seconder	
3375	1	secondé	
3376	1	secouant	
3377	1	secourir	
3378	1	seizième	
3379	1	selon	
3380	1	sembla	
3381	1	semblent	
3382	1	semblé	
3383	1	sentaient	
3384	1	sentiments	
3385	1	septentrionales	
3386	1	serpentaient	
3387	1	serrèrent	
3388	1	serrée	
3389	1	services	
3390	1	servira	
3391	1	servit	
3392	1	seules	
3393	1	sextant	
3394	1	sien	
3395	1	siens	
3396	1	siffla	
3397	1	signala	
3398	1	signalée	
3399	1	signaux	
3400	1	silencieusement	
3401	1	sillage	
3402	1	sincères	
3403	1	sinistre	
3404	1	sinistres	
3405	1	situé	
3406	1	situées	
3407	1	soigner	
3408	1	soirées	
3409	1	sois	
3410	1	soixantaine	
3411	1	solidarité	
3412	1	solidifièrent	
3413	1	solitudes	
3414	1	sommet	
3415	1	sommets	
3416	1	sondait	
3417	1	songe	
3418	1	songez	
3419	1	sons	
3420	1	sort	
3421	1	sortait	
3422	1	souffert	
3423	1	souffrait	
3424	1	souffrants	
3425	1	souffre	
3426	1	souffrirent	
3427	1	souffrit	
3428	1	soulevait	
3429	1	soulevé	
3430	1	soulevés	
3431	1	source	
3432	1	sourds	
3433	1	sourire	
3434	1	sourires	
3435	1	soutenu	
3436	1	souvenez	
3437	1	souverain	
3438	1	souviens	
3439	1	soyez	
3440	1	spectacle	
3441	1	spectateurs	
3442	1	spitzberg	
3443	1	spécialement	
3444	1	spécifique	
3445	1	stable	
3446	1	stupéfaction	
3447	1	subi	
3448	1	submergé	
3449	1	submergés	
3450	1	substantiel	
3451	1	successivement	
3452	1	succomber	
3453	1	succombons	
3454	1	sucer	
3455	1	suffire	
3456	1	suffirent	
3457	1	suffisante	
3458	1	suffoqué	
3459	1	suinta	
3460	1	suit	
3461	1	suivaient	
3462	1	suivante	
3463	1	suivants	
3464	1	suivirent	
3465	1	suivrait	
3466	1	supplier	
3467	1	supporteras	
3468	1	supporté	
3469	1	supposa	
3470	1	supposant	
3471	1	suppose	
3472	1	suprême	
3473	1	supérieure	
3474	1	supérieures	
3475	1	surcroît	
3476	1	surexcité	
3477	1	surfaces	
3478	1	surplus	
3479	1	surtout	
3480	1	surveillait	
3481	1	surveillance	
3482	1	surveillés	
3483	1	susceptible	
3484	1	symptômes	
3485	1	séjour	
3486	1	séparation	
3487	1	sépare	
3488	1	séparer	
3489	1	séparés	
3490	1	sûreté	
3491	1	sûrs	
3492	1	sœur	
3493	1	tabac	
3494	1	tableau	
3495	1	taches	
3496	1	tailles	
3497	1	taillés	
3498	1	tapissée	
3499	1	tardent	
3500	1	tardives	
3501	1	tasse	
3502	1	teint	
3503	1	telles	
3504	1	tenaient	
3505	1	tendant	
3506	1	tendent	
3507	1	tendit	
3508	1	tendre	
3509	1	tendresse	
3510	1	tendue	
3511	1	tenez	
3512	1	terme	
3513	1	termes	
3514	1	terminait	
3515	1	terminées	
3516	1	terrasser	
3517	1	terrassé	
3518	1	terres	
3519	1	tiendrai	
3520	1	timidement	
3521	1	timides	
3522	1	tinrent	
3523	1	tintera	
3524	1	tira	
3525	1	tirage	
3526	1	tireur	
3527	1	tirèrent	
3528	1	tirées	
3529	1	tirés	
3530	1	tisons	
3531	1	toiles	
3532	1	toit	
3533	1	tombaient	
3534	1	tombant	
3535	1	tombante	
3536	1	tombeau	
3537	1	tomberait	
3538	1	tombé	
3539	1	tonneau	
3540	1	torpeur	
3541	1	torrentielles	
3542	1	totale	
3543	1	touchant	
3544	1	touché	
3545	1	tourbillon	
3546	1	tourments	
3547	1	tournèrent	
3548	1	trains	
3549	1	traits	
3550	1	transes	
3551	1	transport	
3552	1	transporter	
3553	1	transporté	
3554	1	transportée	
3555	1	transportés	
3556	1	trapus	
3557	1	travailla	
3558	1	travaillèrent	
3559	1	traîna	
3560	1	traîner	
3561	1	traînèrent	
3562	1	trembla	
3563	1	tremblé	
3564	1	tressaillir	
3565	1	tribus	
3566	1	tristement	
3567	1	tristes	
3568	1	trombe	
3569	1	trompait	
3570	1	trompe	
3571	1	tromper	
3572	1	trouve	
3573	1	trouvions	
3574	1	trouvèrent	
3575	1	trouvé	
3576	1	trouvée	
3577	1	tua	
3578	1	tuerai	
3579	1	tuyaux	
3580	1	tuèrent	
3581	1	tués	
3582	1	tâtonnant	
3583	1	têtes	
3584	1	tôt	
3585	1	unies	
3586	1	unis	
3587	1	unième	
3588	1	user	
3589	1	usuelles	
3590	1	utile	
3591	1	utilement	
3592	1	utiles	
3593	1	utilisée	
3594	1	vague	
3595	1	vaillant	
3596	1	vaincu	
3597	1	vainement	
3598	1	vains	
3599	1	valent	
3600	1	valides	
3601	1	vallées	
3602	1	valoir	
3603	1	variés	
3604	1	vastes	
3605	1	veaux	
3606	1	veillait	
3607	1	veiller	
3608	1	veines	
3609	1	vendre	
3610	1	venez	
3611	1	venir	
3612	1	ventre	
3613	1	venue	
3614	1	venus	
3615	1	vergue	
3616	1	verre	
3617	1	vicaire	
3618	1	vides	
3619	1	vieille	
3620	1	viendrez	
3621	1	viennent	
3622	1	vigies	
3623	1	vigoureuse	
3624	1	vigoureusement	
3625	1	vigueur	
3626	1	ville	
3627	1	vingtaine	
3628	1	violemment	
3629	1	violentes	
3630	1	violons	
3631	1	virer	
3632	1	visa	
3633	1	visage	
3634	1	visita	
3635	1	visitèrent	
3636	1	visé	
3637	1	vite	
3638	1	vitesse	
3639	1	vivants	
3640	1	vives	
3641	1	vivre	
3642	1	voguaient	
3643	1	voguait	
3644	1	voguent	
3645	1	voile	
3646	1	voit	
3647	1	vol	
3648	1	volonté	
3649	1	voltigeaient	
3650	1	voltigeant	
3651	1	volume	
3652	1	volés	
3653	1	voudrez	
3654	1	vouer	
3655	1	voulaient	
3656	1	voulant	
3657	1	voulez	
3658	1	voulons	
3659	1	voulue	
3660	1	voulues	
3661	1	voyaient	
3662	1	véritablement	
3663	1	véritables	
3664	1	vêtu	
3665	1	vôtres	
3666	1	vœux	
3667	1	zèle	
3668	1	âge	
3669	1	ça	
3670	1	çà	
3671	1	éblouissements	
3672	1	éboulement	
3673	1	ébranler	
3674	1	ébranlé	
3675	1	écarta	
3676	1	écarte	
3677	1	échange	
3678	1	échangées	
3679	1	échappa	
3680	1	échappait	
3681	1	échapper	
3682	1	échappons	
3683	1	échec	
3684	1	échoué	
3685	1	éclairait	
3686	1	éclaircies	
3687	1	éclaircit	
3688	1	éclairèrent	
3689	1	éclairée	
3690	1	éclatait	
3691	1	écoulés	
3692	1	écouta	
3693	1	écrasement	
3694	1	écriait	
3695	1	écriant	
3696	1	écueils	
3697	1	écume	
3698	1	écumer	
3699	1	égale	
3700	1	élança	
3701	1	élançaient	
3702	1	élançant	
3703	1	éleva	
3704	1	élevaient	
3705	1	élevèrent	
3706	1	éloignaient	
3707	1	éloigné	
3708	1	éloignée	
3709	1	éloignés	
3710	1	élément	
3711	1	émanation	
3712	1	énergique	
3713	1	épaissie	
3714	1	épaissir	
3715	1	épargna	
3716	1	éphémère	
3717	1	épouser	
3718	1	épouvantable	
3719	1	épouvanté	
3720	1	éprouva	
3721	1	éprouvèrent	
3722	1	éprouvés	
3723	1	épuiser	
3724	1	épuisée	
3725	1	épuisées	
3726	1	équinoxe	
3727	1	équipages	
3728	1	établi	
3729	1	établir	
3730	1	établirent	
3731	1	établissait	
3732	1	étau	
3733	1	étayé	
3734	1	éteinte	
3735	1	étendit	
3736	1	étendu	
3737	1	étions	
3738	1	étole	
3739	1	étonnement	
3740	1	étrange	
3741	1	étreinte	
3742	1	étreintes	
3743	1	étroits	
3744	1	étudier	
3745	1	évanoui	
3746	1	évasivement	
3747	1	éveillée	
3748	1	évitaient	
3749	1	événements	
3750	1	êtres	
3751	1	îles	
3752	1	ôtèrent	
