#Word Types: 3096
#Word Tokens: 13223
#Search Hits: 0
1	485	de	
2	321	je	
3	320	et	
4	290	la	
5	248	à	
6	242	il	
7	230	l	
8	222	le	
9	198	un	
10	192	que	
11	180	en	
12	156	d	
13	155	vous	
14	152	me	
15	149	qui	
16	147	une	
17	140	m	
18	126	les	
19	123	j	
20	113	ne	
21	103	pas	
22	100	est	
23	93	dans	
24	88	des	
25	87	n	
26	85	qu	
27	84	nous	
28	77	du	
29	76	s	
30	73	ce	
31	73	était	
32	71	mon	
33	70	mais	
34	68	lui	
35	68	plus	
36	62	avait	
37	61	moi	
38	59	se	
39	58	sur	
40	56	vincent	
41	53	par	
42	51	a	
43	50	avec	
44	50	si	
45	49	pour	
46	48	au	
47	47	comme	
48	46	c	
49	46	son	
50	46	tout	
51	44	avais	
52	42	bien	
53	42	mes	
54	42	y	
55	41	cette	
56	39	enfant	
57	38	ma	
58	36	elle	
59	33	homme	
60	31	ai	
61	31	sa	
62	31	ses	
63	30	encore	
64	30	être	
65	29	dont	
66	28	même	
67	28	sans	
68	26	votre	
69	25	ans	
70	25	deux	
71	25	puis	
72	25	étais	
73	24	science	
74	23	où	
75	22	ces	
76	22	dit	
77	22	mort	
78	21	non	
79	21	quand	
80	21	vie	
81	20	là	
82	20	on	
83	20	quelques	
84	20	thévenin	
85	19	cet	
86	19	depuis	
87	19	mère	
88	19	suis	
89	19	t	
90	19	tu	
91	19	été	
92	18	aux	
93	18	cela	
94	18	donc	
95	18	fille	
96	18	ou	
97	18	toute	
98	17	après	
99	17	point	
100	16	dire	
101	16	dis	
102	16	docteur	
103	16	mois	
104	16	oui	
105	16	père	
106	16	sais	
107	16	sous	
108	16	tous	
109	15	coup	
110	15	fait	
111	15	fois	
112	15	gaston	
113	15	monsieur	
114	15	pauvre	
115	15	temps	
116	15	vieillard	
117	14	alors	
118	14	chez	
119	14	dix	
120	14	oh	
121	14	pendant	
122	14	toujours	
123	13	aucun	
124	13	car	
125	13	heure	
126	13	petit	
127	13	peut	
128	13	quelque	
129	13	rien	
130	13	six	
131	13	vérité	
132	13	état	
133	12	auprès	
134	12	cependant	
135	12	jeune	
136	12	maison	
137	12	peu	
138	12	semblait	
139	12	vers	
140	12	vis	
141	12	voix	
142	12	étaient	
143	11	ailleurs	
144	11	avez	
145	11	avoir	
146	11	bras	
147	11	heures	
148	11	ici	
149	11	ils	
150	11	médecin	
151	11	notre	
152	11	reprit	
153	11	yeux	
154	11	êtes	
155	10	aussi	
156	10	effet	
157	10	faire	
158	10	instant	
159	10	moment	
160	10	nom	
161	10	passé	
162	10	peine	
163	10	porte	
164	10	première	
165	10	seul	
166	10	trop	
167	10	très	
168	9	celle	
169	9	enfants	
170	9	femme	
171	9	fut	
172	9	jamais	
173	9	jusqu	
174	9	ni	
175	9	personne	
176	9	pourquoi	
177	9	presque	
178	9	quelle	
179	9	vos	
180	8	ajouta	
181	8	ami	
182	8	aujourd	
183	8	avant	
184	8	concierge	
185	8	corps	
186	8	devant	
187	8	enfin	
188	8	face	
189	8	force	
190	8	fort	
191	8	fou	
192	8	hui	
193	8	jours	
194	8	mal	
195	8	moins	
196	8	mot	
197	8	personnage	
198	8	quoi	
199	8	serait	
200	8	tant	
201	8	écriai	
202	8	étrange	
203	7	ah	
204	7	années	
205	7	autre	
206	7	avaient	
207	7	celui	
208	7	cent	
209	7	cerveau	
210	7	chaque	
211	7	contre	
212	7	doute	
213	7	fit	
214	7	grand	
215	7	impossible	
216	7	lentement	
217	7	maintenant	
218	7	maître	
219	7	morte	
220	7	nul	
221	7	quel	
222	7	raison	
223	7	repris	
224	7	seule	
225	7	surtout	
226	7	te	
227	7	trois	
228	7	visage	
229	6	ainsi	
230	6	assez	
231	6	aurais	
232	6	bruit	
233	6	centenaire	
234	6	confrère	
235	6	confrères	
236	6	donner	
237	6	déjà	
238	6	elles	
239	6	eût	
240	6	folie	
241	6	jeunesse	
242	6	leur	
243	6	lit	
244	6	magnétisme	
245	6	main	
246	6	mains	
247	6	malade	
248	6	nature	
249	6	observations	
250	6	pavillon	
251	6	petite	
252	6	pris	
253	6	produit	
254	6	près	
255	6	regard	
256	6	rencontré	
257	6	reste	
258	6	sang	
259	6	seconde	
260	6	singulier	
261	6	sont	
262	6	sorte	
263	6	sujet	
264	6	suprême	
265	6	toi	
266	6	viens	
267	6	voici	
268	6	voulez	
269	6	âge	
270	6	étant	
271	5	abord	
272	5	aucune	
273	5	autres	
274	5	avoue	
275	5	ayant	
276	5	bas	
277	5	bientôt	
278	5	bonne	
279	5	bossaye	
280	5	cabinet	
281	5	certaine	
282	5	circonstances	
283	5	criminelle	
284	5	demandai	
285	5	dernier	
286	5	devait	
287	5	dites	
288	5	eh	
289	5	entendre	
290	5	eu	
291	5	expression	
292	5	fût	
293	5	infirmiers	
294	5	intérêt	
295	5	jour	
296	5	laquelle	
297	5	loin	
298	5	nos	
299	5	paraît	
300	5	parler	
301	5	parole	
302	5	part	
303	5	parut	
304	5	plusieurs	
305	5	pourtant	
306	5	premier	
307	5	période	
308	5	quatre	
309	5	quinze	
310	5	rue	
311	5	répondit	
312	5	répondre	
313	5	savant	
314	5	secret	
315	5	sera	
316	5	soit	
317	5	souffle	
318	5	travail	
319	5	veux	
320	5	vieux	
321	5	vivement	
322	5	vrai	
323	5	vue	
324	5	émotion	
325	5	œil	
326	4	air	
327	4	aperçus	
328	4	auparavant	
329	4	autant	
330	4	besoin	
331	4	but	
332	4	chose	
333	4	choses	
334	4	comprenais	
335	4	conditions	
336	4	connais	
337	4	continua	
338	4	courage	
339	4	court	
340	4	cœur	
341	4	dehors	
342	4	diagnostic	
343	4	donnait	
344	4	donne	
345	4	dépit	
346	4	désir	
347	4	entretien	
348	4	entrée	
349	4	esprit	
350	4	eus	
351	4	examiner	
352	4	excès	
353	4	f	
354	4	façon	
355	4	fils	
356	4	fis	
357	4	fluide	
358	4	fond	
359	4	garçon	
360	4	grande	
361	4	histoire	
362	4	hypnotisme	
363	4	idées	
364	4	impression	
365	4	instants	
366	4	inutile	
367	4	jardin	
368	4	jeunes	
369	4	leurs	
370	4	livres	
371	4	lors	
372	4	lueur	
373	4	lutte	
374	4	lèvres	
375	4	mesmer	
376	4	mesure	
377	4	mis	
378	4	mots	
379	4	mourir	
380	4	médecine	
381	4	médecins	
382	4	nouveau	
383	4	ordre	
384	4	organes	
385	4	organisme	
386	4	parfois	
387	4	paris	
388	4	parlé	
389	4	peur	
390	4	pièce	
391	4	portait	
392	4	possible	
393	4	pouvait	
394	4	premiers	
395	4	prendre	
396	4	propre	
397	4	question	
398	4	rendre	
399	4	rose	
400	4	santé	
401	4	seulement	
402	4	situation	
403	4	société	
404	4	soir	
405	4	somme	
406	4	symptômes	
407	4	traits	
408	4	tête	
409	4	vieillesse	
410	4	vigoureux	
411	4	vingt	
412	4	vitale	
413	4	vivait	
414	4	vivant	
415	4	voilà	
416	4	élève	
417	4	études	
418	3	abominable	
419	3	accent	
420	3	action	
421	3	actuel	
422	3	ait	
423	3	allait	
424	3	allures	
425	3	allée	
426	3	amis	
427	3	ancien	
428	3	aperçu	
429	3	apparence	
430	3	appel	
431	3	appelé	
432	3	appris	
433	3	appréciable	
434	3	arrivé	
435	3	arrêta	
436	3	assassin	
437	3	attention	
438	3	attraction	
439	3	auquel	
440	3	aurait	
441	3	avenir	
442	3	basse	
443	3	blanche	
444	3	bon	
445	3	boulevard	
446	3	brave	
447	3	brisé	
448	3	caractère	
449	3	centuple	
450	3	chambre	
451	3	changement	
452	3	ci	
453	3	cinq	
454	3	client	
455	3	colère	
456	3	combien	
457	3	comprends	
458	3	connaître	
459	3	connu	
460	3	conscience	
461	3	continuait	
462	3	contraire	
463	3	courut	
464	3	crime	
465	3	crimes	
466	3	criminel	
467	3	crois	
468	3	curiosité	
469	3	côté	
470	3	date	
471	3	davantage	
472	3	demain	
473	3	demanda	
474	3	derniers	
475	3	dernières	
476	3	doucement	
477	3	douter	
478	3	droit	
479	3	dès	
480	3	dépêche	
481	3	détails	
482	3	eau	
483	3	effort	
484	3	embarrassé	
485	3	entrer	
486	3	environ	
487	3	eusse	
488	3	exactement	
489	3	examen	
490	3	exige	
491	3	expliquer	
492	3	expérience	
493	3	faiblesse	
494	3	fais	
495	3	faisait	
496	3	faits	
497	3	fallait	
498	3	faut	
499	3	flamme	
500	3	frappa	
501	3	frappé	
502	3	fraîche	
503	3	fraîcheur	
504	3	fus	
505	3	garde	
506	3	georges	
507	3	geste	
508	3	grâce	
509	3	guère	
510	3	gâteau	
511	3	horreur	
512	3	horrible	
513	3	hâtai	
514	3	hésiter	
515	3	idée	
516	3	importe	
517	3	indicible	
518	3	introduire	
519	3	inégalité	
520	3	justement	
521	3	laissant	
522	3	laisser	
523	3	lampe	
524	3	lequel	
525	3	lois	
526	3	longtemps	
527	3	lorsque	
528	3	lumière	
529	3	lâcheté	
530	3	lésion	
531	3	maladie	
532	3	meurt	
533	3	mieux	
534	3	monomanie	
535	3	mémoire	
536	3	nouvelle	
537	3	nulle	
538	3	obtenir	
539	3	occupations	
540	3	ont	
541	3	or	
542	3	ordres	
543	3	oreille	
544	3	outre	
545	3	ouvert	
546	3	ouvris	
547	3	ouvrit	
548	3	papa	
549	3	parce	
550	3	parfaite	
551	3	parlait	
552	3	passer	
553	3	pauline	
554	3	pensées	
555	3	perron	
556	3	poids	
557	3	poumons	
558	3	poussai	
559	3	prenez	
560	3	prier	
561	3	problème	
562	3	profonde	
563	3	pu	
564	3	puisque	
565	3	rajeuni	
566	3	rapide	
567	3	reconnu	
568	3	regardait	
569	3	respecté	
570	3	saisissant	
571	3	sauver	
572	3	savais	
573	3	savants	
574	3	savez	
575	3	semaines	
576	3	sembla	
577	3	sens	
578	3	sentais	
579	3	sentiment	
580	3	serai	
581	3	serais	
582	3	seuil	
583	3	silence	
584	3	soirée	
585	3	souriant	
586	3	soustraire	
587	3	souvenez	
588	3	souvenir	
589	3	spécialement	
590	3	subite	
591	3	suggestion	
592	3	suite	
593	3	suivit	
594	3	suivre	
595	3	superbe	
596	3	tenant	
597	3	tenté	
598	3	terre	
599	3	terrible	
600	3	tour	
601	3	tournant	
602	3	trace	
603	3	traité	
604	3	trouvais	
605	3	trouver	
606	3	user	
607	3	va	
608	3	vaincus	
609	3	vainqueurs	
610	3	venez	
611	3	venu	
612	3	venue	
613	3	verre	
614	3	vite	
615	3	vivre	
616	3	voie	
617	3	voiture	
618	3	volonté	
619	3	voulait	
620	3	voulu	
621	3	écria	
622	3	étude	
623	2	abandon	
624	2	absence	
625	2	absolu	
626	2	absolument	
627	2	absorbant	
628	2	absorbe	
629	2	académie	
630	2	accès	
631	2	active	
632	2	actuelle	
633	2	adeptes	
634	2	adolescence	
635	2	adorable	
636	2	adorait	
637	2	affaire	
638	2	affection	
639	2	affirmai	
640	2	agis	
641	2	agissait	
642	2	agitation	
643	2	aide	
644	2	aimait	
645	2	aime	
646	2	ajoutant	
647	2	aliéniste	
648	2	aller	
649	2	amener	
650	2	angoisse	
651	2	animal	
652	2	anémie	
653	2	appartement	
654	2	apparu	
655	2	appelait	
656	2	appellerai	
657	2	argent	
658	2	arrête	
659	2	assurer	
660	2	atteint	
661	2	attentivement	
662	2	attirer	
663	2	auraient	
664	2	autorité	
665	2	autour	
666	2	autrui	
667	2	avançait	
668	2	aventure	
669	2	avions	
670	2	avril	
671	2	banal	
672	2	banale	
673	2	bandit	
674	2	bibliothèque	
675	2	billet	
676	2	bizarres	
677	2	calme	
678	2	camarade	
679	2	caractéristique	
680	2	carte	
681	2	cas	
682	2	catastrophe	
683	2	cauchemar	
684	2	chapeau	
685	2	charlatanisme	
686	2	cher	
687	2	cherchant	
688	2	chercheur	
689	2	cheveux	
690	2	cinquante	
691	2	clameur	
692	2	clients	
693	2	cocher	
694	2	cochère	
695	2	comment	
696	2	commis	
697	2	communiquer	
698	2	complète	
699	2	comprendre	
700	2	condamner	
701	2	condition	
702	2	confesser	
703	2	confier	
704	2	connues	
705	2	conquis	
706	2	conserver	
707	2	consommation	
708	2	consomme	
709	2	constatai	
710	2	cou	
711	2	coupa	
712	2	course	
713	2	cri	
714	2	criant	
715	2	croire	
716	2	croit	
717	2	croix	
718	2	crookes	
719	2	croyez	
720	2	cru	
721	2	crus	
722	2	créature	
723	2	curieuses	
724	2	curieux	
725	2	dame	
726	2	dangereux	
727	2	degré	
728	2	delà	
729	2	demandais	
730	2	demande	
731	2	derrière	
732	2	devoir	
733	2	différence	
734	2	dirai	
735	2	directement	
736	2	directeur	
737	2	direction	
738	2	disant	
739	2	disparaître	
740	2	disparu	
741	2	disposition	
742	2	distance	
743	2	doigt	
744	2	dois	
745	2	donnai	
746	2	donné	
747	2	douloureuse	
748	2	dus	
749	2	décidé	
750	2	découragement	
751	2	découvre	
752	2	décrépitude	
753	2	définitivement	
754	2	désespoir	
755	2	désespérance	
756	2	désespéré	
757	2	désignant	
758	2	dû	
759	2	effluves	
760	2	embrassa	
761	2	empare	
762	2	employé	
763	2	emporte	
764	2	emporter	
765	2	empêché	
766	2	engagement	
767	2	entendu	
768	2	entier	
769	2	entière	
770	2	entre	
771	2	entrâmes	
772	2	entré	
773	2	espoir	
774	2	essayais	
775	2	estimé	
776	2	eurent	
777	2	eux	
778	2	examiné	
779	2	exemple	
780	2	existait	
781	2	expériences	
782	2	extérieure	
783	2	eûmes	
784	2	faisaient	
785	2	faite	
786	2	fallu	
787	2	fameux	
788	2	fantastique	
789	2	fausse	
790	2	fauteuil	
791	2	fenêtre	
792	2	feuilles	
793	2	fin	
794	2	fiévreux	
795	2	flot	
796	2	foi	
797	2	follement	
798	2	foule	
799	2	frais	
800	2	francs	
801	2	frissonnais	
802	2	froid	
803	2	front	
804	2	furent	
805	2	gaz	
806	2	gens	
807	2	grosse	
808	2	hasard	
809	2	haut	
810	2	hommes	
811	2	honneur	
812	2	huit	
813	2	humaine	
814	2	humaines	
815	2	hypothèses	
816	2	hâte	
817	2	hôpital	
818	2	ignorance	
819	2	ignorant	
820	2	importance	
821	2	importants	
822	2	impuissant	
823	2	inclina	
824	2	indice	
825	2	inexplicable	
826	2	inexpliqué	
827	2	instinctivement	
828	2	interdit	
829	2	interné	
830	2	interrompit	
831	2	inventé	
832	2	invinciblement	
833	2	irritation	
834	2	jailli	
835	2	jeta	
836	2	joie	
837	2	joues	
838	2	journée	
839	2	juin	
840	2	laisse	
841	2	laissé	
842	2	lecture	
843	2	lendemain	
844	2	lesquels	
845	2	lettre	
846	2	leçons	
847	2	liqueur	
848	2	livre	
849	2	loge	
850	2	long	
851	2	longuement	
852	2	longues	
853	2	légèrement	
854	2	maigreur	
855	2	malades	
856	2	manifestations	
857	2	manquer	
858	2	marche	
859	2	marquis	
860	2	matin	
861	2	mienne	
862	2	mille	
863	2	minute	
864	2	minutes	
865	2	miracle	
866	2	motifs	
867	2	mourut	
868	2	mouvement	
869	2	moyen	
870	2	moyens	
871	2	mérite	
872	2	métamorphose	
873	2	mêmes	
874	2	nettement	
875	2	neuf	
876	2	nouvelles	
877	2	objection	
878	2	observation	
879	2	obtenu	
880	2	obéis	
881	2	obéissant	
882	2	occupe	
883	2	orgueil	
884	2	osant	
885	2	oublié	
886	2	paraissait	
887	2	pardon	
888	2	parlais	
889	2	paroles	
890	2	partie	
891	2	paru	
892	2	parvenu	
893	2	passage	
894	2	passait	
895	2	passe	
896	2	passion	
897	2	pense	
898	2	pension	
899	2	pensionnaire	
900	2	pensée	
901	2	perdu	
902	2	permettre	
903	2	personnalité	
904	2	petits	
905	2	peuvent	
906	2	physionomie	
907	2	physique	
908	2	phénomène	
909	2	piste	
910	2	plein	
911	2	poignantes	
912	2	pores	
913	2	portière	
914	2	porté	
915	2	positif	
916	2	poussée	
917	2	pouvais	
918	2	praticien	
919	2	pratiques	
920	2	prenait	
921	2	prie	
922	2	principal	
923	2	prit	
924	2	prix	
925	2	profond	
926	2	progrès	
927	2	proie	
928	2	promeneurs	
929	2	précède	
930	2	prédisposition	
931	2	préjugés	
932	2	présentaient	
933	2	présentait	
934	2	prévu	
935	2	prêté	
936	2	puységur	
937	2	pâle	
938	2	pénétrâmes	
939	2	périodes	
940	2	quarante	
941	2	quelles	
942	2	quelqu	
943	2	quitter	
944	2	quoique	
945	2	quotidienne	
946	2	raisonnante	
947	2	rapides	
948	2	rapidité	
949	2	redressant	
950	2	refus	
951	2	regarda	
952	2	remarquai	
953	2	remords	
954	2	rencontra	
955	2	rentra	
956	2	rentrer	
957	2	reprenais	
958	2	ressentais	
959	2	restait	
960	2	restâmes	
961	2	retour	
962	2	retrouvé	
963	2	revenir	
964	2	revoir	
965	2	revu	
966	2	riant	
967	2	robuste	
968	2	rompit	
969	2	réalité	
970	2	réclamait	
971	2	réellement	
972	2	réflexe	
973	2	répondait	
974	2	répète	
975	2	révéler	
976	2	saine	
977	2	salon	
978	2	satisfît	
979	2	second	
980	2	secrétaire	
981	2	selon	
982	2	semblaient	
983	2	semble	
984	2	sensation	
985	2	sentant	
986	2	sentir	
987	2	sept	
988	2	septembre	
989	2	signe	
990	2	silhouette	
991	2	simple	
992	2	sincère	
993	2	singulière	
994	2	siècle	
995	2	siège	
996	2	soif	
997	2	soin	
998	2	soixante	
999	2	solennel	
1000	2	solide	
1001	2	sommes	
1002	2	songeant	
1003	2	sortis	
1004	2	sou	
1005	2	soudain	
1006	2	souffrance	
1007	2	souvenais	
1008	2	souvent	
1009	2	subi	
1010	2	subitement	
1011	2	substance	
1012	2	suivions	
1013	2	supposez	
1014	2	supérieure	
1015	2	surpris	
1016	2	surprise	
1017	2	sympathie	
1018	2	sûr	
1019	2	tantôt	
1020	2	tard	
1021	2	tardai	
1022	2	teint	
1023	2	tel	
1024	2	telle	
1025	2	tenait	
1026	2	terme	
1027	2	terminé	
1028	2	thèse	
1029	2	tomber	
1030	2	touchant	
1031	2	toucher	
1032	2	toutes	
1033	2	travers	
1034	2	trouble	
1035	2	trouvâmes	
1036	2	tué	
1037	2	tôt	
1038	2	universel	
1039	2	uns	
1040	2	vampire	
1041	2	veille	
1042	2	veines	
1043	2	venaient	
1044	2	venait	
1045	2	venions	
1046	2	veut	
1047	2	veuve	
1048	2	vient	
1049	2	vint	
1050	2	visions	
1051	2	visiteur	
1052	2	vital	
1053	2	vitalité	
1054	2	vivace	
1055	2	voir	
1056	2	voisine	
1057	2	voler	
1058	2	volontaire	
1059	2	voulais	
1060	2	voyais	
1061	2	voyons	
1062	2	vraie	
1063	2	vu	
1064	2	vénéneuse	
1065	2	vêtu	
1066	2	vîmes	
1067	2	ç	
1068	2	ça	
1069	2	écarter	
1070	2	échanger	
1071	2	échappe	
1072	2	échapper	
1073	2	échappé	
1074	2	écoute	
1075	2	élèves	
1076	2	énigmatique	
1077	2	épaule	
1078	2	épouvantait	
1079	2	épouvante	
1080	2	épuisement	
1081	2	équilibre	
1082	2	érudition	
1083	2	établissement	
1084	2	étendaient	
1085	2	étonnante	
1086	2	évidemment	
1087	2	êtres	
1088	2	œuvre	
1089	1	abandonna	
1090	1	abandonné	
1091	1	abattu	
1092	1	aboutiraient	
1093	1	absent	
1094	1	absolue	
1095	1	absorbé	
1096	1	absorbés	
1097	1	académies	
1098	1	académique	
1099	1	accentuai	
1100	1	accentuait	
1101	1	acceptant	
1102	1	accepter	
1103	1	acceptez	
1104	1	accident	
1105	1	accidents	
1106	1	accomplies	
1107	1	accomplis	
1108	1	accomplit	
1109	1	accouplés	
1110	1	accourant	
1111	1	accoutumée	
1112	1	accueillaient	
1113	1	accuser	
1114	1	accélération	
1115	1	acharnement	
1116	1	acharné	
1117	1	acheva	
1118	1	acquisition	
1119	1	acquérais	
1120	1	actionnaires	
1121	1	actives	
1122	1	adieu	
1123	1	admettons	
1124	1	admettre	
1125	1	administration	
1126	1	admirablement	
1127	1	admirait	
1128	1	admiration	
1129	1	admire	
1130	1	admis	
1131	1	adoré	
1132	1	adorée	
1133	1	adressai	
1134	1	adressant	
1135	1	affaiblissant	
1136	1	affaires	
1137	1	affections	
1138	1	affinât	
1139	1	affirma	
1140	1	affirmait	
1141	1	affirmation	
1142	1	affirmer	
1143	1	afflux	
1144	1	afin	
1145	1	agaçant	
1146	1	agir	
1147	1	agira	
1148	1	agite	
1149	1	agonie	
1150	1	agonisait	
1151	1	agonisant	
1152	1	agrandies	
1153	1	agréable	
1154	1	agréables	
1155	1	agrégation	
1156	1	aider	
1157	1	aidé	
1158	1	aie	
1159	1	aimant	
1160	1	aisance	
1161	1	aisément	
1162	1	ajoutai	
1163	1	ajoutait	
1164	1	ajouter	
1165	1	ajoutez	
1166	1	alchimie	
1167	1	alcoolisée	
1168	1	alerte	
1169	1	alexandre	
1170	1	algèbre	
1171	1	alinéa	
1172	1	aliénation	
1173	1	aliénés	
1174	1	allais	
1175	1	allez	
1176	1	allions	
1177	1	allumait	
1178	1	allumé	
1179	1	allure	
1180	1	alléché	
1181	1	alter	
1182	1	altéré	
1183	1	amassée	
1184	1	amateur	
1185	1	ambition	
1186	1	ambitions	
1187	1	amenai	
1188	1	amenèrent	
1189	1	amené	
1190	1	amicaux	
1191	1	amiens	
1192	1	amitié	
1193	1	amitiés	
1194	1	amour	
1195	1	analysé	
1196	1	anciennes	
1197	1	animant	
1198	1	animique	
1199	1	annoter	
1200	1	anodins	
1201	1	anormal	
1202	1	apercevais	
1203	1	apercevra	
1204	1	aperçoivent	
1205	1	aperçut	
1206	1	apostolat	
1207	1	apparaissait	
1208	1	apparaître	
1209	1	apparences	
1210	1	apparition	
1211	1	appartenait	
1212	1	appartenir	
1213	1	appelant	
1214	1	appeler	
1215	1	appeliez	
1216	1	appellent	
1217	1	appelée	
1218	1	appelés	
1219	1	apportant	
1220	1	apprendrais	
1221	1	apprendre	
1222	1	approcha	
1223	1	approchait	
1224	1	appréciais	
1225	1	apprécié	
1226	1	appuierai	
1227	1	arbres	
1228	1	ardente	
1229	1	arrache	
1230	1	arrachement	
1231	1	arraché	
1232	1	arrangeâmes	
1233	1	arrivai	
1234	1	arrivés	
1235	1	arrosé	
1236	1	arrêt	
1237	1	arrêtaient	
1238	1	arrêtais	
1239	1	arrêtait	
1240	1	arrêtés	
1241	1	articuler	
1242	1	as	
1243	1	asphalte	
1244	1	assassinais	
1245	1	asseoir	
1246	1	assis	
1247	1	assit	
1248	1	atroce	
1249	1	attacha	
1250	1	attachais	
1251	1	attachée	
1252	1	attachés	
1253	1	attaqué	
1254	1	atteints	
1255	1	attendais	
1256	1	attendant	
1257	1	attendez	
1258	1	attendri	
1259	1	attends	
1260	1	attirant	
1261	1	attirante	
1262	1	attrayante	
1263	1	attribuer	
1264	1	attristé	
1265	1	audace	
1266	1	augmentait	
1267	1	augmente	
1268	1	aurai	
1269	1	aurez	
1270	1	auscultai	
1271	1	ausculter	
1272	1	auteur	
1273	1	automnales	
1274	1	autopsié	
1275	1	autorisant	
1276	1	autrefois	
1277	1	auxquelles	
1278	1	avance	
1279	1	avances	
1280	1	aveu	
1281	1	aveugles	
1282	1	avignon	
1283	1	avons	
1284	1	avouer	
1285	1	avouez	
1286	1	aéré	
1287	1	baguette	
1288	1	bail	
1289	1	bailleurs	
1290	1	balbutiant	
1291	1	banalités	
1292	1	bandes	
1293	1	bannière	
1294	1	barrait	
1295	1	base	
1296	1	beau	
1297	1	beaucoup	
1298	1	belle	
1299	1	belles	
1300	1	berceau	
1301	1	bertrand	
1302	1	besogne	
1303	1	bienveillance	
1304	1	bienvenue	
1305	1	bizarre	
1306	1	bière	
1307	1	blafard	
1308	1	blanc	
1309	1	blanchâtres	
1310	1	blancs	
1311	1	blesser	
1312	1	blessure	
1313	1	bleuis	
1314	1	boire	
1315	1	bondis	
1316	1	bonheur	
1317	1	bords	
1318	1	bornes	
1319	1	bouche	
1320	1	bouchons	
1321	1	bouffie	
1322	1	bougeait	
1323	1	bougie	
1324	1	bouleversa	
1325	1	bourbons	
1326	1	bourgeois	
1327	1	brandissant	
1328	1	branlant	
1329	1	brasserie	
1330	1	brevet	
1331	1	brillait	
1332	1	brillants	
1333	1	brisant	
1334	1	brusquement	
1335	1	brutalement	
1336	1	brûlure	
1337	1	bâtiment	
1338	1	cacher	
1339	1	cachée	
1340	1	cadavre	
1341	1	cadavres	
1342	1	café	
1343	1	calomniatrice	
1344	1	campagne	
1345	1	caniculaire	
1346	1	capital	
1347	1	caractères	
1348	1	caractérisait	
1349	1	carafe	
1350	1	caressai	
1351	1	carra	
1352	1	carton	
1353	1	cassé	
1354	1	catalepsie	
1355	1	causa	
1356	1	causaient	
1357	1	causait	
1358	1	cause	
1359	1	causent	
1360	1	causerons	
1361	1	causée	
1362	1	ceci	
1363	1	celles	
1364	1	cendres	
1365	1	centième	
1366	1	centre	
1367	1	cents	
1368	1	cercle	
1369	1	certaines	
1370	1	certains	
1371	1	certes	
1372	1	certificat	
1373	1	cerveaux	
1374	1	cessa	
1375	1	cesse	
1376	1	chagrin	
1377	1	chaire	
1378	1	chaise	
1379	1	chaleureuses	
1380	1	chancela	
1381	1	chancelant	
1382	1	chandelles	
1383	1	changements	
1384	1	chapitre	
1385	1	charlatan	
1386	1	charpente	
1387	1	chaste	
1388	1	chat	
1389	1	chaud	
1390	1	chef	
1391	1	chemin	
1392	1	chemins	
1393	1	cherchai	
1394	1	cherche	
1395	1	chercher	
1396	1	cherchez	
1397	1	cheval	
1398	1	chevet	
1399	1	chirurgien	
1400	1	choisi	
1401	1	choléra	
1402	1	chopes	
1403	1	christ	
1404	1	circulaire	
1405	1	citai	
1406	1	citées	
1407	1	claires	
1408	1	clairon	
1409	1	clamai	
1410	1	classer	
1411	1	classés	
1412	1	clientèle	
1413	1	clous	
1414	1	clouée	
1415	1	cohausen	
1416	1	coller	
1417	1	colosse	
1418	1	combat	
1419	1	combine	
1420	1	commander	
1421	1	commencèrent	
1422	1	commença	
1423	1	commençant	
1424	1	commerce	
1425	1	commettre	
1426	1	commettriez	
1427	1	commun	
1428	1	commune	
1429	1	communications	
1430	1	communiquant	
1431	1	communs	
1432	1	commères	
1433	1	compagnie	
1434	1	comparution	
1435	1	compatir	
1436	1	complaisamment	
1437	1	complaisants	
1438	1	complet	
1439	1	complice	
1440	1	comporte	
1441	1	comporté	
1442	1	composé	
1443	1	comprenait	
1444	1	comprenant	
1445	1	comprenez	
1446	1	compris	
1447	1	compter	
1448	1	concentrée	
1449	1	concept	
1450	1	conclus	
1451	1	conducteur	
1452	1	conduisait	
1453	1	conduisez	
1454	1	confia	
1455	1	confidences	
1456	1	confirmer	
1457	1	confondait	
1458	1	conformée	
1459	1	confortable	
1460	1	confortablement	
1461	1	congé	
1462	1	congédiant	
1463	1	connaissais	
1464	1	connaissances	
1465	1	connaissant	
1466	1	connaissez	
1467	1	connaît	
1468	1	conquit	
1469	1	consacrer	
1470	1	conservant	
1471	1	conservé	
1472	1	consigne	
1473	1	consiste	
1474	1	consolatrice	
1475	1	constatais	
1476	1	constatant	
1477	1	constater	
1478	1	constaté	
1479	1	consultation	
1480	1	consultations	
1481	1	contemplait	
1482	1	contemplés	
1483	1	contemporain	
1484	1	contentant	
1485	1	continuerai	
1486	1	continuez	
1487	1	contours	
1488	1	contraction	
1489	1	contracté	
1490	1	contraindre	
1491	1	contraint	
1492	1	convaincre	
1493	1	convaincus	
1494	1	convenablement	
1495	1	convenue	
1496	1	conviction	
1497	1	conçoivent	
1498	1	conçue	
1499	1	coordonner	
1500	1	coquetterie	
1501	1	corridor	
1502	1	coucher	
1503	1	coulait	
1504	1	coule	
1505	1	couleurs	
1506	1	coulé	
1507	1	coupable	
1508	1	coupons	
1509	1	coups	
1510	1	courais	
1511	1	courait	
1512	1	courant	
1513	1	courantes	
1514	1	courbât	
1515	1	courent	
1516	1	courrais	
1517	1	cours	
1518	1	craignant	
1519	1	craignîmes	
1520	1	craindre	
1521	1	crainte	
1522	1	craquer	
1523	1	creusées	
1524	1	cria	
1525	1	criais	
1526	1	criminels	
1527	1	cristaux	
1528	1	critiquer	
1529	1	croissance	
1530	1	croyais	
1531	1	croyant	
1532	1	croyiez	
1533	1	crut	
1534	1	créanciers	
1535	1	cuivre	
1536	1	cultivateur	
1537	1	célèbre	
1538	1	cérébrales	
1539	1	cœurs	
1540	1	dangereuses	
1541	1	dardant	
1542	1	dates	
1543	1	debout	
1544	1	deleuze	
1545	1	demander	
1546	1	demandons	
1547	1	demeure	
1548	1	demeurons	
1549	1	demi	
1550	1	descendais	
1551	1	descendant	
1552	1	descendis	
1553	1	descendu	
1554	1	descendîmes	
1555	1	desquels	
1556	1	dessein	
1557	1	dessinées	
1558	1	dessus	
1559	1	destinée	
1560	1	deuxième	
1561	1	devaient	
1562	1	devenaient	
1563	1	devenait	
1564	1	devenir	
1565	1	devenu	
1566	1	devenues	
1567	1	devez	
1568	1	devinait	
1569	1	devinant	
1570	1	devine	
1571	1	deviner	
1572	1	devinerais	
1573	1	devint	
1574	1	deviné	
1575	1	deviser	
1576	1	devons	
1577	1	dictionnaire	
1578	1	dicté	
1579	1	digne	
1580	1	dilution	
1581	1	diminuât	
1582	1	dirais	
1583	1	dirait	
1584	1	dirigeait	
1585	1	disait	
1586	1	discours	
1587	1	discrétion	
1588	1	discussion	
1589	1	dise	
1590	1	disiez	
1591	1	disparaissaient	
1592	1	disparues	
1593	1	disparut	
1594	1	disposais	
1595	1	disposait	
1596	1	dispose	
1597	1	disposé	
1598	1	dissimulaient	
1599	1	distinctement	
1600	1	distinctes	
1601	1	distraction	
1602	1	diverse	
1603	1	divulguer	
1604	1	docile	
1605	1	docte	
1606	1	doigts	
1607	1	doit	
1608	1	dominé	
1609	1	donnaient	
1610	1	donnerait	
1611	1	donnez	
1612	1	donnée	
1613	1	dos	
1614	1	double	
1615	1	douleurs	
1616	1	douloureusement	
1617	1	doutes	
1618	1	douze	
1619	1	draps	
1620	1	dressé	
1621	1	dubois	
1622	1	dur	
1623	1	dura	
1624	1	dureté	
1625	1	dussault	
1626	1	déboucha	
1627	1	début	
1628	1	débuts	
1629	1	décider	
1630	1	décision	
1631	1	déclaré	
1632	1	déclinaient	
1633	1	décolorés	
1634	1	décore	
1635	1	découragé	
1636	1	découvert	
1637	1	découverte	
1638	1	découverts	
1639	1	découvrir	
1640	1	décrire	
1641	1	dédoublement	
1642	1	déductions	
1643	1	défaite	
1644	1	défendre	
1645	1	défends	
1646	1	défi	
1647	1	défiance	
1648	1	définissais	
1649	1	déguiser	
1650	1	dégénérescence	
1651	1	délais	
1652	1	délicats	
1653	1	délicieusement	
1654	1	démenti	
1655	1	démontrait	
1656	1	dénouement	
1657	1	dépasser	
1658	1	dépens	
1659	1	dépense	
1660	1	dépensez	
1661	1	déperdition	
1662	1	dépolis	
1663	1	déposai	
1664	1	dépouillera	
1665	1	dépression	
1666	1	dérangement	
1667	1	dérangé	
1668	1	désappointement	
1669	1	désespérés	
1670	1	désigna	
1671	1	désintéresser	
1672	1	désirait	
1673	1	désobéir	
1674	1	désolé	
1675	1	déséquilibrations	
1676	1	détail	
1677	1	déterminé	
1678	1	détournent	
1679	1	développés	
1680	1	dévoilant	
1681	1	dévorante	
1682	1	dévouement	
1683	1	efforts	
1684	1	efforçais	
1685	1	effrayé	
1686	1	ego	
1687	1	embonpoint	
1688	1	emplissaient	
1689	1	emportant	
1690	1	emportement	
1691	1	emportez	
1692	1	emporté	
1693	1	empressai	
1694	1	empressement	
1695	1	empêchèrent	
1696	1	encourageante	
1697	1	encyclopédie	
1698	1	encyclopédique	
1699	1	endosmose	
1700	1	enfance	
1701	1	enfermé	
1702	1	enfouissant	
1703	1	enfuit	
1704	1	engagea	
1705	1	engageai	
1706	1	engourdissement	
1707	1	enivraient	
1708	1	enivrante	
1709	1	enjambées	
1710	1	enleva	
1711	1	enlevait	
1712	1	ennemi	
1713	1	ennemie	
1714	1	ennemis	
1715	1	enseignements	
1716	1	entassée	
1717	1	entendant	
1718	1	entendez	
1719	1	entendis	
1720	1	entends	
1721	1	entendues	
1722	1	entendîmes	
1723	1	entrai	
1724	1	entrait	
1725	1	entrant	
1726	1	entraîna	
1727	1	entraînais	
1728	1	entraîne	
1729	1	entraîner	
1730	1	entraîné	
1731	1	entretenir	
1732	1	entrevue	
1733	1	entrons	
1734	1	entrouvrit	
1735	1	entrés	
1736	1	entêtement	
1737	1	entêté	
1738	1	envers	
1739	1	envoie	
1740	1	envole	
1741	1	envoyant	
1742	1	erreur	
1743	1	escalier	
1744	1	eson	
1745	1	esprits	
1746	1	espérances	
1747	1	esquisser	
1748	1	essayai	
1749	1	essayez	
1750	1	estomac	
1751	1	europe	
1752	1	eut	
1753	1	exact	
1754	1	examens	
1755	1	examinant	
1756	1	examinent	
1757	1	examinez	
1758	1	excellentes	
1759	1	excentricités	
1760	1	excentriques	
1761	1	exception	
1762	1	exceptionnelle	
1763	1	exceptionnelles	
1764	1	excessif	
1765	1	excitait	
1766	1	excitante	
1767	1	exclamation	
1768	1	excuse	
1769	1	exerce	
1770	1	exercer	
1771	1	exercée	
1772	1	exerçait	
1773	1	exhale	
1774	1	exhaustion	
1775	1	existence	
1776	1	existent	
1777	1	explications	
1778	1	expliquez	
1779	1	expliquât	
1780	1	explosion	
1781	1	exposer	
1782	1	exsangue	
1783	1	externe	
1784	1	extinction	
1785	1	extrémité	
1786	1	extrêmes	
1787	1	extérieur	
1788	1	exubérance	
1789	1	exécuter	
1790	1	faciles	
1791	1	faculté	
1792	1	facultés	
1793	1	faible	
1794	1	faiblesses	
1795	1	faim	
1796	1	faisais	
1797	1	faites	
1798	1	fakir	
1799	1	fallut	
1800	1	falot	
1801	1	falote	
1802	1	fameuse	
1803	1	famille	
1804	1	fantaisies	
1805	1	fascination	
1806	1	fasciner	
1807	1	fasse	
1808	1	fatal	
1809	1	fatigue	
1810	1	fatiguer	
1811	1	faudra	
1812	1	fausseté	
1813	1	femmes	
1814	1	fer	
1815	1	ferai	
1816	1	ferait	
1817	1	ferrée	
1818	1	fervents	
1819	1	fidèlement	
1820	1	fiez	
1821	1	figure	
1822	1	fini	
1823	1	finir	
1824	1	fixa	
1825	1	fixait	
1826	1	fixant	
1827	1	fixé	
1828	1	flagellait	
1829	1	fleur	
1830	1	fluidiques	
1831	1	folies	
1832	1	folles	
1833	1	fonctionnement	
1834	1	fonds	
1835	1	fondé	
1836	1	fondée	
1837	1	forcené	
1838	1	forces	
1839	1	formant	
1840	1	formellement	
1841	1	formelles	
1842	1	formidables	
1843	1	formé	
1844	1	forte	
1845	1	forts	
1846	1	fortune	
1847	1	foudroyantes	
1848	1	fouettait	
1849	1	fouillant	
1850	1	fouillé	
1851	1	fournisseurs	
1852	1	fous	
1853	1	france	
1854	1	franchement	
1855	1	franchi	
1856	1	franchir	
1857	1	française	
1858	1	frapper	
1859	1	frapperaient	
1860	1	fraîcheurs	
1861	1	frissonner	
1862	1	frisés	
1863	1	frugal	
1864	1	fréquentons	
1865	1	fréquentés	
1866	1	frêle	
1867	1	fuir	
1868	1	fumeuses	
1869	1	funèbre	
1870	1	fureur	
1871	1	furie	
1872	1	fussé	
1873	1	futiles	
1874	1	félicitations	
1875	1	féminine	
1876	1	féroce	
1877	1	gaie	
1878	1	gamin	
1879	1	garantie	
1880	1	garda	
1881	1	gardiens	
1882	1	gares	
1883	1	gars	
1884	1	gauloiserie	
1885	1	genoux	
1886	1	genre	
1887	1	georget	
1888	1	germait	
1889	1	giron	
1890	1	gisait	
1891	1	glacé	
1892	1	glissant	
1893	1	glissement	
1894	1	glisser	
1895	1	globe	
1896	1	gorge	
1897	1	gouffre	
1898	1	goutte	
1899	1	gouvernement	
1900	1	grade	
1901	1	grades	
1902	1	grandes	
1903	1	grandissait	
1904	1	grandissant	
1905	1	grandit	
1906	1	grands	
1907	1	gras	
1908	1	grave	
1909	1	gravement	
1910	1	graves	
1911	1	gravée	
1912	1	gravées	
1913	1	gredin	
1914	1	griffonnage	
1915	1	grille	
1916	1	gris	
1917	1	grisâtre	
1918	1	gronda	
1919	1	groupant	
1920	1	grouper	
1921	1	guette	
1922	1	gueux	
1923	1	général	
1924	1	généralement	
1925	1	généreux	
1926	1	habile	
1927	1	habit	
1928	1	habitez	
1929	1	habitiez	
1930	1	habitude	
1931	1	haleine	
1932	1	hantaient	
1933	1	hantise	
1934	1	hardiesse	
1935	1	haute	
1936	1	henri	
1937	1	hermippus	
1938	1	heureuse	
1939	1	heureux	
1940	1	heurta	
1941	1	heurtais	
1942	1	hideux	
1943	1	hier	
1944	1	hippocrate	
1945	1	hochèrent	
1946	1	honnêteté	
1947	1	horizon	
1948	1	horribles	
1949	1	hors	
1950	1	humain	
1951	1	humait	
1952	1	humanité	
1953	1	humilié	
1954	1	husson	
1955	1	hypnotique	
1956	1	hypothèse	
1957	1	hystériques	
1958	1	hâtais	
1959	1	hé	
1960	1	hélas	
1961	1	hémorragie	
1962	1	hésita	
1963	1	hésitant	
1964	1	hésité	
1965	1	hôte	
1966	1	identiques	
1967	1	ignorants	
1968	1	ignore	
1969	1	ignores	
1970	1	ignorez	
1971	1	illusion	
1972	1	illusions	
1973	1	illustré	
1974	1	imagination	
1975	1	imbibition	
1976	1	immobile	
1977	1	immédiat	
1978	1	immédiate	
1979	1	immédiatement	
1980	1	impalpable	
1981	1	impatiemment	
1982	1	impatience	
1983	1	imperceptible	
1984	1	imposaient	
1985	1	imposé	
1986	1	impressions	
1987	1	imprimaient	
1988	1	impuissance	
1989	1	impulsion	
1990	1	in	
1991	1	inaccoutumée	
1992	1	inanition	
1993	1	inassouvie	
1994	1	incapable	
1995	1	incessant	
1996	1	incident	
1997	1	inclinai	
1998	1	incliner	
1999	1	incohérentes	
2000	1	inconnu	
2001	1	inconnue	
2002	1	incroyable	
2003	1	indication	
2004	1	indications	
2005	1	indifférents	
2006	1	indulgente	
2007	1	ineffaçable	
2008	1	inertes	
2009	1	inexplicables	
2010	1	inexpliquée	
2011	1	infaillible	
2012	1	infaillibles	
2013	1	infamie	
2014	1	infirmerie	
2015	1	infirmier	
2016	1	influence	
2017	1	inférieure	
2018	1	ingratitude	
2019	1	inintelligence	
2020	1	initiative	
2021	1	initié	
2022	1	innocents	
2023	1	inouï	
2024	1	inouïe	
2025	1	inquiète	
2026	1	inquiétude	
2027	1	inquiétudes	
2028	1	inscrite	
2029	1	insinuation	
2030	1	insista	
2031	1	insistai	
2032	1	insister	
2033	1	insisté	
2034	1	insoluble	
2035	1	inspirait	
2036	1	inspiration	
2037	1	installation	
2038	1	installé	
2039	1	instantanée	
2040	1	instruments	
2041	1	insu	
2042	1	intact	
2043	1	intacts	
2044	1	intelligence	
2045	1	intensité	
2046	1	intention	
2047	1	interdits	
2048	1	interjections	
2049	1	interlocuteur	
2050	1	internat	
2051	1	interne	
2052	1	interner	
2053	1	interrogea	
2054	1	interrogeai	
2055	1	interrogeant	
2056	1	interrogée	
2057	1	interrompais	
2058	1	interrompis	
2059	1	interrompue	
2060	1	intervint	
2061	1	intimidation	
2062	1	introduisiez	
2063	1	introduisit	
2064	1	intéressantes	
2065	1	intéressants	
2066	1	intéresse	
2067	1	intérieure	
2068	1	inutilité	
2069	1	invincible	
2070	1	invisible	
2071	1	invitation	
2072	1	iras	
2073	1	irraisonnée	
2074	1	irritaient	
2075	1	irritante	
2076	1	irrite	
2077	1	irrité	
2078	1	irrésistible	
2079	1	irrévocable	
2080	1	irrévérencieuse	
2081	1	isolé	
2082	1	ivre	
2083	1	ivresse	
2084	1	jaillirait	
2085	1	jardins	
2086	1	jaunâtre	
2087	1	jean	
2088	1	jetai	
2089	1	jetait	
2090	1	jetée	
2091	1	joli	
2092	1	jonglerie	
2093	1	jouissait	
2094	1	jouissance	
2095	1	journées	
2096	1	jouée	
2097	1	jugeais	
2098	1	jugez	
2099	1	jugèrent	
2100	1	juillet	
2101	1	jupe	
2102	1	jure	
2103	1	jurer	
2104	1	juron	
2105	1	juré	
2106	1	juste	
2107	1	justesse	
2108	1	justifiée	
2109	1	juxtaposait	
2110	1	jésus	
2111	1	laissa	
2112	1	laissais	
2113	1	laissent	
2114	1	lancer	
2115	1	largement	
2116	1	lassitude	
2117	1	latente	
2118	1	lauriers	
2119	1	lente	
2120	1	lenteur	
2121	1	lesquelles	
2122	1	leva	
2123	1	levai	
2124	1	levant	
2125	1	liait	
2126	1	libre	
2127	1	lieu	
2128	1	ligne	
2129	1	lignes	
2130	1	limites	
2131	1	lisez	
2132	1	livrant	
2133	1	livrer	
2134	1	livrez	
2135	1	livrâmes	
2136	1	lobes	
2137	1	local	
2138	1	logis	
2139	1	logogriphe	
2140	1	logé	
2141	1	lointaine	
2142	1	loisir	
2143	1	longue	
2144	1	longévité	
2145	1	loquacité	
2146	1	lourd	
2147	1	lourdeur	
2148	1	lu	
2149	1	lucide	
2150	1	lucidité	
2151	1	lus	
2152	1	lutter	
2153	1	lymphatisme	
2154	1	lâchetés	
2155	1	légaux	
2156	1	légendaires	
2157	1	lésions	
2158	1	macabre	
2159	1	machinalement	
2160	1	magnifique	
2161	1	magnétique	
2162	1	magnétiseurs	
2163	1	magnétisés	
2164	1	mahomet	
2165	1	mai	
2166	1	maigre	
2167	1	maigres	
2168	1	maisons	
2169	1	maladies	
2170	1	maladif	
2171	1	malgré	
2172	1	malheur	
2173	1	malheureuse	
2174	1	manger	
2175	1	manifester	
2176	1	manque	
2177	1	manuel	
2178	1	manuscrit	
2179	1	marchait	
2180	1	marchant	
2181	1	marcher	
2182	1	marge	
2183	1	mari	
2184	1	marié	
2185	1	masque	
2186	1	matériel	
2187	1	mauvais	
2188	1	meilleure	
2189	1	membres	
2190	1	menace	
2191	1	mensonge	
2192	1	mentais	
2193	1	mentale	
2194	1	mentalement	
2195	1	mesmérien	
2196	1	messieurs	
2197	1	mettons	
2198	1	meublé	
2199	1	meure	
2200	1	meurtre	
2201	1	miens	
2202	1	milieu	
2203	1	minces	
2204	1	minime	
2205	1	ministère	
2206	1	minutieuses	
2207	1	minutieux	
2208	1	mirville	
2209	1	mise	
2210	1	misérable	
2211	1	mit	
2212	1	modifié	
2213	1	moindre	
2214	1	moitié	
2215	1	monde	
2216	1	monter	
2217	1	montrait	
2218	1	montrant	
2219	1	montâmes	
2220	1	monté	
2221	1	mordu	
2222	1	mortelle	
2223	1	mortes	
2224	1	morts	
2225	1	motif	
2226	1	mouche	
2227	1	mourait	
2228	1	mourant	
2229	1	mourante	
2230	1	mouvements	
2231	1	moyenne	
2232	1	muet	
2233	1	murmura	
2234	1	murmurai	
2235	1	murmurer	
2236	1	murs	
2237	1	mystère	
2238	1	mystérieuse	
2239	1	mèches	
2240	1	médicale	
2241	1	méditations	
2242	1	méningite	
2243	1	métal	
2244	1	mêlé	
2245	1	mûr	
2246	1	narrai	
2247	1	naturelle	
2248	1	naturellement	
2249	1	navrée	
2250	1	nerveuse	
2251	1	nerveuses	
2252	1	net	
2253	1	nettes	
2254	1	noir	
2255	1	noirs	
2256	1	nombreuse	
2257	1	nommai	
2258	1	note	
2259	1	nourrir	
2260	1	nourriture	
2261	1	nouveaux	
2262	1	nouvel	
2263	1	novembre	
2264	1	nu	
2265	1	nudité	
2266	1	nº	
2267	1	nécessaires	
2268	1	obituaire	
2269	1	objectif	
2270	1	objurguant	
2271	1	obscure	
2272	1	observer	
2273	1	observez	
2274	1	obsession	
2275	1	obsèdent	
2276	1	obtiendrais	
2277	1	obéir	
2278	1	obéissais	
2279	1	obélisque	
2280	1	occasion	
2281	1	occuper	
2282	1	occupions	
2283	1	odorantes	
2284	1	offrir	
2285	1	opposait	
2286	1	opposer	
2287	1	oppressé	
2288	1	opérée	
2289	1	ordinaire	
2290	1	ordinairement	
2291	1	ordinaires	
2292	1	ordonne	
2293	1	oreilles	
2294	1	organisation	
2295	1	ormes	
2296	1	os	
2297	1	osciller	
2298	1	osez	
2299	1	oublient	
2300	1	oublier	
2301	1	oubliez	
2302	1	outil	
2303	1	ouvrage	
2304	1	ouvrais	
2305	1	ouvrant	
2306	1	page	
2307	1	pain	
2308	1	papier	
2309	1	paraissant	
2310	1	paraissez	
2311	1	parchemineuse	
2312	1	parcheminé	
2313	1	pardi	
2314	1	pardonnez	
2315	1	parents	
2316	1	parfait	
2317	1	parla	
2318	1	parlant	
2319	1	parle	
2320	1	parlez	
2321	1	parmi	
2322	1	pars	
2323	1	partir	
2324	1	parvienne	
2325	1	pascal	
2326	1	passa	
2327	1	passais	
2328	1	passent	
2329	1	passerez	
2330	1	passes	
2331	1	passez	
2332	1	passions	
2333	1	passèrent	
2334	1	patatras	
2335	1	pathologie	
2336	1	patiemment	
2337	1	patience	
2338	1	paupières	
2339	1	payait	
2340	1	payant	
2341	1	pays	
2342	1	paysan	
2343	1	peau	
2344	1	peindre	
2345	1	pencha	
2346	1	penchai	
2347	1	pensai	
2348	1	pensez	
2349	1	pensionnaires	
2350	1	perceptible	
2351	1	perception	
2352	1	percevais	
2353	1	perdant	
2354	1	perdre	
2355	1	perdîmes	
2356	1	permettait	
2357	1	permettant	
2358	1	permettez	
2359	1	permettrez	
2360	1	permis	
2361	1	perpétuel	
2362	1	perpétuelle	
2363	1	personnel	
2364	1	personnelles	
2365	1	persévérance	
2366	1	petites	
2367	1	peux	
2368	1	philosophale	
2369	1	phraséologie	
2370	1	physiologie	
2371	1	physiologique	
2372	1	physionomies	
2373	1	pied	
2374	1	pierre	
2375	1	pigmentaire	
2376	1	pile	
2377	1	piochais	
2378	1	pires	
2379	1	pitié	
2380	1	placidité	
2381	1	plairait	
2382	1	plaisait	
2383	1	plaisanterie	
2384	1	plaisir	
2385	1	plantureuse	
2386	1	plaque	
2387	1	plaqué	
2388	1	plaît	
2389	1	pleurait	
2390	1	pleurant	
2391	1	pleuvoir	
2392	1	plisser	
2393	1	plu	
2394	1	plutôt	
2395	1	poignait	
2396	1	poignée	
2397	1	poing	
2398	1	pointes	
2399	1	points	
2400	1	poison	
2401	1	poitrines	
2402	1	poliment	
2403	1	pommettes	
2404	1	population	
2405	1	portant	
2406	1	portassent	
2407	1	portent	
2408	1	porterez	
2409	1	portée	
2410	1	posa	
2411	1	posant	
2412	1	pose	
2413	1	positivement	
2414	1	possession	
2415	1	possibilité	
2416	1	possédait	
2417	1	possédez	
2418	1	posé	
2419	1	potassons	
2420	1	pourboire	
2421	1	pourrai	
2422	1	pourraient	
2423	1	pourrait	
2424	1	pourriez	
2425	1	pourront	
2426	1	poursuites	
2427	1	poursuivre	
2428	1	poussa	
2429	1	pousser	
2430	1	poussé	
2431	1	pouvaient	
2432	1	pouvez	
2433	1	pouvoir	
2434	1	pratiquer	
2435	1	prenant	
2436	1	prescriptions	
2437	1	pressante	
2438	1	priai	
2439	1	prive	
2440	1	probants	
2441	1	prochain	
2442	1	proclamer	
2443	1	proclamerais	
2444	1	procède	
2445	1	procédé	
2446	1	professeurs	
2447	1	professorat	
2448	1	profité	
2449	1	proférer	
2450	1	projets	
2451	1	projeté	
2452	1	projetée	
2453	1	prolongation	
2454	1	prolonger	
2455	1	prolongé	
2456	1	promenade	
2457	1	promesse	
2458	1	promis	
2459	1	promptement	
2460	1	prononcer	
2461	1	prononcé	
2462	1	prophète	
2463	1	propos	
2464	1	proposes	
2465	1	proprement	
2466	1	propres	
2467	1	protesta	
2468	1	prouve	
2469	1	provient	
2470	1	provision	
2471	1	provoqué	
2472	1	prurit	
2473	1	précis	
2474	1	précéda	
2475	1	précédente	
2476	1	précédé	
2477	1	prédit	
2478	1	préférence	
2479	1	préoccupations	
2480	1	préoccupé	
2481	1	préparation	
2482	1	préparer	
2483	1	présence	
2484	1	présent	
2485	1	présenta	
2486	1	présentai	
2487	1	présenter	
2488	1	prétendue	
2489	1	prétention	
2490	1	prévenu	
2491	1	prévision	
2492	1	prêt	
2493	1	prîmes	
2494	1	puisse	
2495	1	pupilles	
2496	1	pus	
2497	1	pussent	
2498	1	pâleur	
2499	1	pâli	
2500	1	pâlir	
2501	1	pénible	
2502	1	péniblement	
2503	1	pénètre	
2504	1	pénétrai	
2505	1	pénétrant	
2506	1	pénétrante	
2507	1	pénétration	
2508	1	péremptoire	
2509	1	périphérie	
2510	1	quant	
2511	1	quartier	
2512	1	quasi	
2513	1	quelquefois	
2514	1	quels	
2515	1	querelle	
2516	1	questionner	
2517	1	questions	
2518	1	quittez	
2519	1	quitté	
2520	1	quittée	
2521	1	quolibets	
2522	1	raconta	
2523	1	raconter	
2524	1	raconterai	
2525	1	radiante	
2526	1	radieux	
2527	1	radiomètre	
2528	1	rafraîchir	
2529	1	rageusement	
2530	1	railla	
2531	1	raisonnable	
2532	1	raisonnement	
2533	1	raisons	
2534	1	rajeunissement	
2535	1	ranimer	
2536	1	rapidement	
2537	1	rappela	
2538	1	rappelai	
2539	1	rappelais	
2540	1	rappelait	
2541	1	rappeler	
2542	1	rappelle	
2543	1	rapport	
2544	1	rapportées	
2545	1	rare	
2546	1	rarement	
2547	1	rares	
2548	1	rassérénaient	
2549	1	rayonne	
2550	1	rayonnement	
2551	1	rayons	
2552	1	rayures	
2553	1	rebute	
2554	1	recherches	
2555	1	recherchez	
2556	1	reconduisait	
2557	1	reconnaissais	
2558	1	reconnaissez	
2559	1	reconnaissions	
2560	1	reconnaître	
2561	1	reconnus	
2562	1	reconnut	
2563	1	recoucha	
2564	1	recouvré	
2565	1	rectitude	
2566	1	recul	
2567	1	redivivus	
2568	1	redoutant	
2569	1	redouter	
2570	1	referma	
2571	1	refermée	
2572	1	reflet	
2573	1	refroidis	
2574	1	refusa	
2575	1	refuse	
2576	1	regardai	
2577	1	regarde	
2578	1	regards	
2579	1	regardé	
2580	1	regret	
2581	1	regrette	
2582	1	regretteriez	
2583	1	rejoignit	
2584	1	relater	
2585	1	relations	
2586	1	relativement	
2587	1	releva	
2588	1	religion	
2589	1	remarqués	
2590	1	remis	
2591	1	remit	
2592	1	remontait	
2593	1	remonter	
2594	1	remontâmes	
2595	1	rempart	
2596	1	remuante	
2597	1	remuer	
2598	1	remède	
2599	1	remèdes	
2600	1	renaître	
2601	1	rendait	
2602	1	rendez	
2603	1	rendis	
2604	1	rendu	
2605	1	rendîmes	
2606	1	renoncé	
2607	1	renonça	
2608	1	renouvellement	
2609	1	rente	
2610	1	rentrai	
2611	1	rentrait	
2612	1	rentrons	
2613	1	renversât	
2614	1	repas	
2615	1	replet	
2616	1	reporté	
2617	1	reposé	
2618	1	reprîmes	
2619	1	respect	
2620	1	respirait	
2621	1	ressentons	
2622	1	ressortait	
2623	1	ressources	
2624	1	ressouvenir	
2625	1	ressuscité	
2626	1	restai	
2627	1	restais	
2628	1	restant	
2629	1	restauration	
2630	1	restauré	
2631	1	rester	
2632	1	restions	
2633	1	restitution	
2634	1	resté	
2635	1	retapé	
2636	1	retard	
2637	1	retardataire	
2638	1	retirer	
2639	1	retomba	
2640	1	retombée	
2641	1	retrinquer	
2642	1	retrouve	
2643	1	revenons	
2644	1	revenu	
2645	1	reviendra	
2646	1	reviendrai	
2647	1	revivifiant	
2648	1	revues	
2649	1	revînmes	
2650	1	reçus	
2651	1	ri	
2652	1	ricanant	
2653	1	ricanante	
2654	1	rideaux	
2655	1	rieuse	
2656	1	rigoureux	
2657	1	rire	
2658	1	ris	
2659	1	risque	
2660	1	rit	
2661	1	rivés	
2662	1	romanesques	
2663	1	rompre	
2664	1	rompu	
2665	1	rosé	
2666	1	roulait	
2667	1	route	
2668	1	routine	
2669	1	routines	
2670	1	routinier	
2671	1	rubanière	
2672	1	rude	
2673	1	rudesse	
2674	1	rues	
2675	1	réaction	
2676	1	réclame	
2677	1	réclusion	
2678	1	réduction	
2679	1	réelle	
2680	1	réflexions	
2681	1	réfléchir	
2682	1	réglant	
2683	1	régnait	
2684	1	régnants	
2685	1	régularisée	
2686	1	régulier	
2687	1	réinjectait	
2688	1	réintégré	
2689	1	répondis	
2690	1	réponse	
2691	1	répéta	
2692	1	répétais	
2693	1	réserve	
2694	1	résida	
2695	1	résistait	
2696	1	résister	
2697	1	résisté	
2698	1	résolu	
2699	1	résolument	
2700	1	résorption	
2701	1	résultat	
2702	1	résultats	
2703	1	résumé	
2704	1	résurrection	
2705	1	révolution	
2706	1	rôle	
2707	1	sachant	
2708	1	sacrifice	
2709	1	saillantes	
2710	1	sain	
2711	1	sains	
2712	1	saisi	
2713	1	saisit	
2714	1	salle	
2715	1	salut	
2716	1	salué	
2717	1	sanglot	
2718	1	sanglotant	
2719	1	sanglots	
2720	1	sarcastique	
2721	1	sarthe	
2722	1	sauf	
2723	1	saurais	
2724	1	saussure	
2725	1	sauta	
2726	1	sautais	
2727	1	sauvais	
2728	1	sauvera	
2729	1	sauvé	
2730	1	savent	
2731	1	saveur	
2732	1	savoir	
2733	1	scalpel	
2734	1	sceptique	
2735	1	sceptiques	
2736	1	schémas	
2737	1	scientifique	
2738	1	scientifiquement	
2739	1	secondes	
2740	1	secrets	
2741	1	semblable	
2742	1	semblé	
2743	1	sensations	
2744	1	sensibilité	
2745	1	sensés	
2746	1	sentez	
2747	1	senti	
2748	1	sentinelle	
2749	1	sentis	
2750	1	septuagénaire	
2751	1	serez	
2752	1	seriez	
2753	1	serment	
2754	1	serrèrent	
2755	1	servait	
2756	1	serve	
2757	1	service	
2758	1	servir	
2759	1	seuls	
2760	1	signalé	
2761	1	signons	
2762	1	signée	
2763	1	silencieuse	
2764	1	silencieusement	
2765	1	silencieux	
2766	1	simplicité	
2767	1	sincèrement	
2768	1	sincères	
2769	1	sincérité	
2770	1	singuliers	
2771	1	sinistre	
2772	1	sinon	
2773	1	sobre	
2774	1	soi	
2775	1	soient	
2776	1	soignais	
2777	1	soigner	
2778	1	sois	
2779	1	soleil	
2780	1	solidement	
2781	1	sommeil	
2782	1	somnambulique	
2783	1	songe	
2784	1	sonnette	
2785	1	sortie	
2786	1	sortir	
2787	1	sortit	
2788	1	sortîmes	
2789	1	soucieux	
2790	1	soucoupes	
2791	1	soudainement	
2792	1	souffrais	
2793	1	souffrant	
2794	1	soulagement	
2795	1	souleva	
2796	1	soulevai	
2797	1	soulevait	
2798	1	soulever	
2799	1	soulevé	
2800	1	soumettant	
2801	1	soumettre	
2802	1	soupirait	
2803	1	soupçonner	
2804	1	soupçonneuse	
2805	1	soupçonné	
2806	1	soupçons	
2807	1	source	
2808	1	soutenu	
2809	1	soutins	
2810	1	soutirent	
2811	1	souvenirs	
2812	1	soyez	
2813	1	spacieux	
2814	1	spasme	
2815	1	spirite	
2816	1	spécial	
2817	1	spéciales	
2818	1	spécialité	
2819	1	strictement	
2820	1	stupeur	
2821	1	stupides	
2822	1	stupéfiait	
2823	1	stupéfiante	
2824	1	stupéfiantes	
2825	1	su	
2826	1	subit	
2827	1	sublime	
2828	1	subsistassent	
2829	1	subtile	
2830	1	succession	
2831	1	succomber	
2832	1	succès	
2833	1	sucre	
2834	1	suicide	
2835	1	suisse	
2836	1	suivi	
2837	1	suivis	
2838	1	suivons	
2839	1	superficielle	
2840	1	superposées	
2841	1	supposant	
2842	1	suppose	
2843	1	supposer	
2844	1	suppositions	
2845	1	supérieures	
2846	1	surchargé	
2847	1	surhumain	
2848	1	surnommait	
2849	1	surprenait	
2850	1	surveillaient	
2851	1	surveillance	
2852	1	survenue	
2853	1	suspectée	
2854	1	suçant	
2855	1	symptôme	
2856	1	système	
2857	1	sénile	
2858	1	sénilité	
2859	1	sépare	
2860	1	séparions	
2861	1	sérieux	
2862	1	sûrs	
2863	1	tableau	
2864	1	taille	
2865	1	tais	
2866	1	tandis	
2867	1	tapotant	
2868	1	taquiner	
2869	1	teinte	
2870	1	tempes	
2871	1	tendre	
2872	1	tendus	
2873	1	tenez	
2874	1	tenir	
2875	1	tentait	
2876	1	tente	
2877	1	tenu	
2878	1	termes	
2879	1	termina	
2880	1	terminait	
2881	1	termine	
2882	1	terne	
2883	1	terrain	
2884	1	terrifiée	
2885	1	thallium	
2886	1	thaumaturge	
2887	1	théorie	
2888	1	théories	
2889	1	tiens	
2890	1	timidement	
2891	1	timidités	
2892	1	tira	
2893	1	tissu	
2894	1	tocasson	
2895	1	tombé	
2896	1	tort	
2897	1	torture	
2898	1	total	
2899	1	tourner	
2900	1	tournés	
2901	1	tracer	
2902	1	tracée	
2903	1	trahissait	
2904	1	traitement	
2905	1	traitements	
2906	1	trajet	
2907	1	tranquille	
2908	1	transcrire	
2909	1	transversale	
2910	1	travailler	
2911	1	travailleur	
2912	1	travailleurs	
2913	1	travaillez	
2914	1	travaux	
2915	1	traversait	
2916	1	traverser	
2917	1	traîné	
2918	1	trembler	
2919	1	tremblotement	
2920	1	trente	
2921	1	tressautant	
2922	1	trinquer	
2923	1	troisième	
2924	1	trompent	
2925	1	trompez	
2926	1	trompé	
2927	1	trottoir	
2928	1	troublait	
2929	1	troubler	
2930	1	troublés	
2931	1	trous	
2932	1	trouvant	
2933	1	trouve	
2934	1	trouvez	
2935	1	troènes	
2936	1	tuais	
2937	1	tuerez	
2938	1	témoignage	
2939	1	témoignait	
2940	1	ténacité	
2941	1	ultime	
2942	1	unes	
2943	1	uniquement	
2944	1	universelle	
2945	1	usage	
2946	1	vague	
2947	1	vagues	
2948	1	vaillances	
2949	1	vaincre	
2950	1	vaincu	
2951	1	vais	
2952	1	vaisseaux	
2953	1	valeur	
2954	1	vaquerai	
2955	1	vaste	
2956	1	vendeur	
2957	1	venir	
2958	1	vertige	
2959	1	vertigineuse	
2960	1	vertèbres	
2961	1	verve	
2962	1	vestiges	
2963	1	vibré	
2964	1	victime	
2965	1	victimes	
2966	1	vieilli	
2967	1	vienne	
2968	1	vigoureusement	
2969	1	vigoureuses	
2970	1	vigueur	
2971	1	violemment	
2972	1	violent	
2973	1	violente	
2974	1	vise	
2975	1	visible	
2976	1	vision	
2977	1	visite	
2978	1	visité	
2979	1	visière	
2980	1	vit	
2981	1	vitales	
2982	1	vitaux	
2983	1	vivants	
2984	1	vive	
2985	1	vivifiant	
2986	1	vivifiante	
2987	1	vois	
2988	1	voisin	
2989	1	voisines	
2990	1	voisins	
2991	1	voit	
2992	1	volontaires	
2993	1	volume	
2994	1	volupté	
2995	1	volé	
2996	1	volée	
2997	1	voulut	
2998	1	voué	
2999	1	voyait	
3000	1	voyant	
3001	1	voyez	
3002	1	voûte	
3003	1	voûté	
3004	1	vudoklacks	
3005	1	vécut	
3006	1	vérifications	
3007	1	vérifiée	
3008	1	véritable	
3009	1	véritablement	
3010	1	vêtue	
3011	1	vôtre	
3012	1	zeste	
3013	1	zone	
3014	1	âgé	
3015	1	âme	
3016	1	ébranlé	
3017	1	écartai	
3018	1	écarte	
3019	1	écartée	
3020	1	écartés	
3021	1	échange	
3022	1	échappa	
3023	1	éclaira	
3024	1	éclairage	
3025	1	éclairer	
3026	1	éclairés	
3027	1	éclat	
3028	1	école	
3029	1	économisais	
3030	1	économisez	
3031	1	écoulèrent	
3032	1	écouta	
3033	1	écoutais	
3034	1	écoutez	
3035	1	écrasant	
3036	1	écrasé	
3037	1	écriant	
3038	1	écris	
3039	1	écrit	
3040	1	écrivit	
3041	1	édictée	
3042	1	également	
3043	1	égoïste	
3044	1	élan	
3045	1	élancé	
3046	1	élançai	
3047	1	électrique	
3048	1	élevée	
3049	1	élevés	
3050	1	éloignés	
3051	1	éloquence	
3052	1	émanait	
3053	1	émanant	
3054	1	émergeait	
3055	1	émeut	
3056	1	émigré	
3057	1	émouvoir	
3058	1	énerva	
3059	1	énigme	
3060	1	épeler	
3061	1	épidémie	
3062	1	époque	
3063	1	épreuve	
3064	1	éprouvai	
3065	1	éprouvais	
3066	1	éprouvant	
3067	1	éprouvé	
3068	1	épuisé	
3069	1	équivalait	
3070	1	équivalente	
3071	1	équivoque	
3072	1	établissements	
3073	1	étage	
3074	1	étages	
3075	1	éteints	
3076	1	étendis	
3077	1	étendre	
3078	1	étendu	
3079	1	étendue	
3080	1	éternel	
3081	1	éthérienne	
3082	1	étions	
3083	1	étisie	
3084	1	étonna	
3085	1	étonnement	
3086	1	étonnerais	
3087	1	étonné	
3088	1	étrangement	
3089	1	étroit	
3090	1	étudie	
3091	1	étudier	
3092	1	étudiée	
3093	1	évadons	
3094	1	évanouie	
3095	1	évanouir	
3096	1	évoquez	
