1,856,de
2,555,la
3,528,et
4,395,le
5,387,je
6,360,à
7,340,l
8,326,que
9,323,qui
10,256,il
11,255,d
12,231,dans
13,215,pas
14,213,qu
15,212,elle
16,212,un
17,211,une
18,210,en
19,202,ne
20,199,les
21,192,n
22,184,ce
23,175,était
24,172,plus
25,162,cette
26,157,j
27,156,me
28,149,avait
29,146,comme
30,144,pour
31,128,mais
32,114,des
33,111,y
34,104,sur
35,103,on
36,103,son
37,102,vous
38,101,si
39,100,du
40,98,tout
41,97,au
42,90,est
43,90,moi
44,89,par
45,88,s
46,87,m
47,87,sa
48,86,nous
49,78,avec
50,77,se
51,71,où
52,70,c
53,69,être
54,66,ses
55,65,a
56,63,quand
57,60,avais
58,60,bien
59,60,là
60,59,ces
61,59,ma
62,57,mon
63,52,même
64,50,alberte
65,48,ou
66,46,deux
67,45,lui
68,44,étais
69,43,dont
70,43,sous
71,42,mes
72,41,sans
73,39,aussi
74,39,jamais
75,38,cela
76,38,toujours
77,38,très
78,37,ai
79,37,aux
80,35,encore
81,35,fille
82,34,car
83,34,fenêtre
84,33,faire
85,33,ni
86,33,nuit
87,32,main
88,31,fait
89,31,peut
90,31,vicomte
91,30,brassard
92,30,chambre
93,30,moins
94,30,peu
95,29,aurait
96,29,chez
97,29,leur
98,28,femme
99,28,temps
100,28,vie
101,27,après
102,27,avoir
103,27,fut
104,27,quelque
105,27,rien
106,26,homme
107,26,table
108,25,ville
109,25,été
110,24,alors
111,24,dit
112,24,faisait
113,24,fois
114,24,ils
115,22,mère
116,22,non
117,21,capitaine
118,21,tête
119,20,autre
120,20,grande
121,20,personne
122,20,peur
123,20,tous
124,20,toutes
125,20,étaient
126,19,chose
127,19,dire
128,19,elles
129,19,jour
130,19,leurs
131,19,porte
132,18,air
133,18,ans
134,18,avaient
135,18,bras
136,18,coup
137,18,cœur
138,18,heure
139,18,toute
140,17,cet
141,17,depuis
142,17,dix
143,17,donc
144,17,femmes
145,17,première
146,17,yeux
147,16,autres
148,16,gens
149,16,jeune
150,16,militaire
151,16,moment
152,16,tant
153,16,trop
154,16,voir
155,15,derrière
156,15,dîner
157,15,entre
158,15,histoire
159,15,point
160,15,pouvait
161,15,sont
162,15,tard
163,14,heures
164,14,laquelle
165,14,monde
166,14,mort
167,14,parents
168,14,venait
169,14,voiture
170,13,ainsi
171,13,beaucoup
172,13,contre
173,13,eux
174,13,fond
175,13,mienne
176,13,pied
177,13,pris
178,13,sept
179,13,seule
180,13,voix
181,13,vu
182,12,amour
183,12,bruit
184,12,ceux
185,12,corps
186,12,disait
187,12,déjà
188,12,eût
189,12,fit
190,12,louis
191,12,maison
192,12,rideau
193,12,seulement
194,11,allait
195,11,assez
196,11,beau
197,11,chevaux
198,11,colonel
199,11,dis
200,11,fallait
201,11,feu
202,11,force
203,11,fût
204,11,idée
205,11,mettre
206,11,mois
207,11,mot
208,11,passer
209,11,pendant
210,11,petite
211,11,premier
212,11,père
213,11,quelques
214,11,sensation
215,10,bleu
216,10,cadavre
217,10,chaque
218,10,devant
219,10,eu
220,10,fis
221,10,grand
222,10,hôtel
223,10,jours
224,10,lequel
225,10,mlle
226,10,pieds
227,10,pu
228,10,puis
229,10,sang
230,10,soir
231,10,votre
232,9,affût
233,9,ah
234,9,avez
235,9,billet
236,9,canapé
237,9,chercher
238,9,choses
239,9,devait
240,9,diligence
241,9,fort
242,9,garde
243,9,guère
244,9,jusqu
245,9,mari
246,9,moyen
247,9,officier
248,9,ont
249,9,passé
250,9,peine
251,9,poste
252,9,savoir
253,9,soldat
254,9,voulais
255,8,ailleurs
256,8,allais
257,8,aller
258,8,aurais
259,8,cacher
260,8,connu
261,8,dandy
262,8,dessus
263,8,dès
264,8,effet
265,8,empereur
266,8,enfin
267,8,eus
268,8,froid
269,8,front
270,8,garnison
271,8,ici
272,8,long
273,8,lumière
274,8,maintenant
275,8,messe
276,8,mis
277,8,mouvement
278,8,nos
279,8,oui
280,8,partout
281,8,pensée
282,8,pourtant
283,8,prendre
284,8,presque
285,8,puisque
286,8,quatre
287,8,rue
288,8,régiment
289,8,saint
290,8,sais
291,8,savais
292,8,savait
293,8,silence
294,8,souvent
295,8,suis
296,8,travers
297,8,vieux
298,8,vingt
299,8,vis
300,8,visage
301,7,appartement
302,7,belle
303,7,bout
304,7,celle
305,7,cependant
306,7,certainement
307,7,croire
308,7,diable
309,7,disais
310,7,eh
311,7,espèce
312,7,face
313,7,faisais
314,7,honneur
315,7,lieutenant
316,7,lit
317,7,lèvres
318,7,manière
319,7,maîtresse
320,7,mien
321,7,notre
322,7,nuits
323,7,parler
324,7,probablement
325,7,près
326,7,reste
327,7,serait
328,7,service
329,7,ton
330,7,trois
331,7,trouver
332,7,uniforme
333,7,va
334,7,âge
335,7,étions
336,6,aucune
337,6,autant
338,6,avant
339,6,bonheur
340,6,bouche
341,6,coin
342,6,crois
343,6,crus
344,6,curiosité
345,6,côté
346,6,dessous
347,6,désir
348,6,esprit
349,6,hommes
350,6,horrible
351,6,impériale
352,6,jeunesse
353,6,lampe
354,6,lendemain
355,6,longtemps
356,6,mains
357,6,maisons
358,6,marbre
359,6,maroquin
360,6,maréchal
361,6,mauvais
362,6,meung
363,6,moindre
364,6,montrer
365,6,noir
366,6,officiers
367,6,ordinaire
368,6,paraissait
369,6,parlait
370,6,passion
371,6,place
372,6,placée
373,6,poitrine
374,6,pouvais
375,6,prise
376,6,prit
377,6,province
378,6,raison
379,6,regard
380,6,reprit
381,6,répondit
382,6,réveiller
383,6,soleil
384,6,sortait
385,6,t
386,6,villes
387,6,vit
388,6,vite
389,5,abord
390,5,aimais
391,5,aimait
392,5,allé
393,5,aplomb
394,5,armes
395,5,auprès
396,5,autour
397,5,ayant
398,5,beauté
399,5,belles
400,5,bientôt
401,5,blanc
402,5,bonne
403,5,bourgeois
404,5,calme
405,5,campagne
406,5,celui
407,5,charron
408,5,cheveux
409,5,ci
410,5,ciel
411,5,compris
412,5,coupé
413,5,croyais
414,5,davantage
415,5,devenir
416,5,disent
417,5,dû
418,5,empire
419,5,endormie
420,5,entendu
421,5,entier
422,5,escalier
423,5,eut
424,5,fier
425,5,filles
426,5,font
427,5,genre
428,5,hasard
429,5,haut
430,5,heureux
431,5,hôtes
432,5,impossible
433,5,inutile
434,5,jeunes
435,5,jouait
436,5,jusque
437,5,monsieur
438,5,morte
439,5,noire
440,5,nom
441,5,or
442,5,parce
443,5,parfaitement
444,5,partie
445,5,pensant
446,5,possible
447,5,pourquoi
448,5,pût
449,5,regardais
450,5,relais
451,5,rendre
452,5,retrouver
453,5,rideaux
454,5,route
455,5,sait
456,5,salle
457,5,savez
458,5,semblait
459,5,sens
460,5,seul
461,5,six
462,5,soldats
463,5,sombre
464,5,souvenir
465,5,terrible
466,5,trouvé
467,5,vieilles
468,5,voilà
469,5,voyait
470,5,voyez
471,5,vrai
472,5,vue
473,5,état
474,5,œil
475,4,ajouta
476,4,amant
477,4,années
478,4,appeler
479,4,attendais
480,4,aujourd
481,4,auxquels
482,4,avoue
483,4,baiser
484,4,baisers
485,4,bon
486,4,brusquement
487,4,camarades
488,4,capuchon
489,4,certes
490,4,chargé
491,4,cinq
492,4,comment
493,4,compagnie
494,4,contraire
495,4,corridor
496,4,cours
497,4,cramoisi
498,4,cuivre
499,4,dandysme
500,4,danger
501,4,dents
502,4,dieu
503,4,donna
504,4,donnaient
505,4,dormaient
506,4,duré
507,4,e
508,4,enfer
509,4,entendais
510,4,entrer
511,4,excepté
512,4,faite
513,4,faut
514,4,figure
515,4,fin
516,4,forte
517,4,france
518,4,geste
519,4,glace
520,4,haine
521,4,hui
522,4,idées
523,4,image
524,4,impassible
525,4,infante
526,4,lettre
527,4,loin
528,4,longues
529,4,lorsqu
530,4,lorsque
531,4,malgré
532,4,manger
533,4,midi
534,4,mieux
535,4,minutes
536,4,mots
537,4,mystère
538,4,mépris
539,4,net
540,4,olive
541,4,ouverte
542,4,parle
543,4,partir
544,4,passais
545,4,pauvre
546,4,pavé
547,4,penser
548,4,petits
549,4,physionomie
550,4,pitié
551,4,plaisanterie
552,4,plutôt
553,4,pointe
554,4,politesse
555,4,pouvoir
556,4,premiers
557,4,prenais
558,4,profond
559,4,proportions
560,4,présent
561,4,puisse
562,4,pâle
563,4,question
564,4,quoi
565,4,quoiqu
566,4,quoique
567,4,race
568,4,rencontrer
569,4,repris
570,4,ressource
571,4,revenait
572,4,risque
573,4,rémy
574,4,révolution
575,4,seconde
576,4,sentiment
577,4,sentis
578,4,servait
579,4,sien
580,4,silencieuse
581,4,siège
582,4,sommes
583,4,sortir
584,4,sphinx
585,4,surprise
586,4,telle
587,4,terre
588,4,toilette
589,4,tombait
590,4,tomber
591,4,tranquilles
592,4,veille
593,4,volonté
594,4,éclairée
595,4,étonnement
596,3,absolue
597,3,acier
598,3,aisance
599,3,albertine
600,3,allaient
601,3,ami
602,3,ancien
603,3,arrivé
604,3,arrêta
605,3,aura
606,3,auriez
607,3,aventure
608,3,bal
609,3,balai
610,3,balle
611,3,bas
612,3,blessure
613,3,bonnet
614,3,bu
615,3,buvait
616,3,cause
617,3,certaine
618,3,cerveau
619,3,chair
620,3,changement
621,3,changé
622,3,chapeau
623,3,chefs
624,3,clé
625,3,compartiment
626,3,comprenais
627,3,conduite
628,3,connaissais
629,3,continua
630,3,conversations
631,3,cour
632,3,couvert
633,3,croient
634,3,croyant
635,3,dandys
636,3,demain
637,3,dessinais
638,3,dimanche
639,3,dirai
640,3,discipline
641,3,donner
642,3,dormir
643,3,doute
644,3,départ
645,3,dépassé
646,3,eau
647,3,embarras
648,3,entendre
649,3,entendue
650,3,environ
651,3,faisant
652,3,fatuité
653,3,façade
654,3,façon
655,3,fermé
656,3,fermée
657,3,finit
658,3,folie
659,3,folle
660,3,fou
661,3,foudre
662,3,frappé
663,3,froideur
664,3,fus
665,3,galop
666,3,gonds
667,3,gorge
668,3,grave
669,3,gros
670,3,habitude
671,3,habituellement
672,3,hardie
673,3,hors
674,3,huit
675,3,immenses
676,3,immobile
677,3,impatience
678,3,impression
679,3,incroyable
680,3,indifférence
681,3,interrompis
682,3,intérêt
683,3,jeter
684,3,jeté
685,3,laissé
686,3,large
687,3,largeur
688,3,lentement
689,3,lenteur
690,3,lesquelles
691,3,lesquels
692,3,lieu
693,3,ligne
694,3,lire
695,3,livres
696,3,loge
697,3,longs
698,3,longue
699,3,madame
700,3,maître
701,3,met
702,3,miens
703,3,militaires
704,3,moitié
705,3,moments
706,3,montait
707,3,moustache
708,3,mères
709,3,médecin
710,3,mépriser
711,3,naturellement
712,3,naître
713,3,noirs
714,3,obscurité
715,3,ombre
716,3,ordre
717,3,oreilles
718,3,outrance
719,3,parbleu
720,3,pardieu
721,3,paris
722,3,parlais
723,3,paroles
724,3,part
725,3,parut
726,3,passa
727,3,passions
728,3,patère
729,3,paupières
730,3,pensai
731,3,pense
732,3,pension
733,3,pensé
734,3,permission
735,3,personnes
736,3,petit
737,3,petites
738,3,plaisir
739,3,ponceau
740,3,portait
741,3,portes
742,3,portée
743,3,position
744,3,postillon
745,3,pourrais
746,3,pourrait
747,3,poésie
748,3,prenait
749,3,produisit
750,3,propos
751,3,puisqu
752,3,quelle
753,3,quitter
754,3,raconter
755,3,regardai
756,3,regarder
757,3,regards
758,3,rejoindre
759,3,relayer
760,3,releva
761,3,ressemblait
762,3,resta
763,3,restais
764,3,restait
765,3,restauration
766,3,revenir
767,3,revue
768,3,robuste
769,3,rouges
770,3,rues
771,3,réalité
772,3,régiments
773,3,régulièrement
774,3,répondait
775,3,répondre
776,3,réponse
777,3,sabre
778,3,sauver
779,3,semble
780,3,sensations
781,3,sent
782,3,sienne
783,3,simple
784,3,simplement
785,3,soie
786,3,suivre
787,3,sujet
788,3,superbe
789,3,surtout
790,3,sûr
791,3,taille
792,3,tambour
793,3,tandis
794,3,tapis
795,3,tenait
796,3,tenez
797,3,tenue
798,3,tombée
799,3,tour
800,3,tournure
801,3,tranquille
802,3,trente
803,3,trouve
804,3,tuer
805,3,tué
806,3,têtes
807,3,venue
808,3,verre
809,3,vers
810,3,veut
811,3,vieille
812,3,vient
813,3,vif
814,3,vitre
815,3,vivais
816,3,voulez
817,3,voulu
818,3,voyant
819,3,âme
820,3,école
821,3,écrire
822,3,égarement
823,3,émotion
824,3,épaules
825,3,époque
826,3,étonnait
827,3,étreintes
828,2,absolu
829,2,absolument
830,2,abîme
831,2,accrocher
832,2,achever
833,2,activité
834,2,affaire
835,2,affronté
836,2,afin
837,2,aigu
838,2,ajoutait
839,2,allumer
840,2,allumette
841,2,allumé
842,2,anglais
843,2,angle
844,2,angleterre
845,2,animé
846,2,apercevait
847,2,aperçus
848,2,apoplexie
849,2,appelaient
850,2,appelle
851,2,appris
852,2,argent
853,2,arriver
854,2,arrêter
855,2,aspect
856,2,assoupissement
857,2,attendant
858,2,attendis
859,2,attendu
860,2,aucun
861,2,auquel
862,2,avancée
863,2,averti
864,2,avions
865,2,baissés
866,2,barbe
867,2,barbes
868,2,barricade
869,2,basse
870,2,bastille
871,2,bataille
872,2,battait
873,2,battements
874,2,battu
875,2,berg
876,2,besoin
877,2,blessé
878,2,bohême
879,2,boire
880,2,bois
881,2,bonnes
882,2,bordeaux
883,2,bottes
884,2,boulevard
885,2,bourbons
886,2,brantôme
887,2,brave
888,2,braves
889,2,brillait
890,2,brillant
891,2,brillants
892,2,buvant
893,2,cadre
894,2,calmes
895,2,canon
896,2,capable
897,2,caprice
898,2,caresse
899,2,carré
900,2,carrée
901,2,ceci
902,2,celles
903,2,certitude
904,2,chaises
905,2,chamboran
906,2,chape
907,2,charmant
908,2,chasse
909,2,chaud
910,2,chef
911,2,chemins
912,2,cherchait
913,2,chevalier
914,2,châle
915,2,château
916,2,circonstance
917,2,claire
918,2,claquer
919,2,clarté
920,2,colère
921,2,commandait
922,2,commandement
923,2,commencer
924,2,commençait
925,2,compagnies
926,2,complète
927,2,comprendre
928,2,compte
929,2,conducteur
930,2,connais
931,2,connaissez
932,2,connaître
933,2,conseil
934,2,conséquent
935,2,conversation
936,2,coquetterie
937,2,corsage
938,2,cou
939,2,couché
940,2,couchée
941,2,coups
942,2,courir
943,2,court
944,2,craindre
945,2,cri
946,2,cria
947,2,crier
948,2,croirez
949,2,croisée
950,2,croyez
951,2,crâne
952,2,curieux
953,2,côtés
954,2,damnés
955,2,debout
956,2,dehors
957,2,demandai
958,2,demande
959,2,demeurait
960,2,demoiselle
961,2,dernière
962,2,descendais
963,2,desquels
964,2,destinée
965,2,devenu
966,2,devint
967,2,difficile
968,2,discret
969,2,distinguait
970,2,distractions
971,2,dites
972,2,doit
973,2,donnait
974,2,donne
975,2,donné
976,2,dormait
977,2,dos
978,2,douter
979,2,douze
980,2,droite
981,2,duchesse
982,2,dur
983,2,dura
984,2,décorations
985,2,dédaigneux
986,2,dénouement
987,2,désert
988,2,détails
989,2,dévots
990,2,effort
991,2,efforçai
992,2,effroyable
993,2,embrasser
994,2,embrasure
995,2,empêcha
996,2,enfant
997,2,enflammée
998,2,enlever
999,2,ennemi
1000,2,ennui
1001,2,entendis
1002,2,entière
1003,2,entrouverte
1004,2,entrouvrit
1005,2,entré
1006,2,envie
1007,2,envoyer
1008,2,escalade
1009,2,espace
1010,2,espérais
1011,2,espérance
1012,2,etc
1013,2,eusse
1014,2,exemple
1015,2,exercice
1016,2,existence
1017,2,existent
1018,2,expliquer
1019,2,exposait
1020,2,expressif
1021,2,expression
1022,2,expérience
1023,2,f
1024,2,faisaient
1025,2,faisions
1026,2,fat
1027,2,fenêtres
1028,2,fer
1029,2,ferait
1030,2,fermeté
1031,2,filant
1032,2,fine
1033,2,fini
1034,2,fixe
1035,2,fleur
1036,2,foi
1037,2,folies
1038,2,forme
1039,2,formidable
1040,2,fortune
1041,2,fouet
1042,2,franc
1043,2,français
1044,2,frapper
1045,2,fraîcheur
1046,2,froide
1047,2,froidement
1048,2,froids
1049,2,fui
1050,2,gaiement
1051,2,garder
1052,2,gardé
1053,2,garnisons
1054,2,garçon
1055,2,gauche
1056,2,genoux
1057,2,giron
1058,2,glacés
1059,2,glissé
1060,2,grandeur
1061,2,grandiose
1062,2,grands
1063,2,grec
1064,2,grenadiers
1065,2,grâce
1066,2,guerre
1067,2,général
1068,2,habitais
1069,2,haleine
1070,2,hauteur
1071,2,henri
1072,2,heureuse
1073,2,histoires
1074,2,honte
1075,2,horriblement
1076,2,humain
1077,2,hypocrisie
1078,2,héroïque
1079,2,imaginer
1080,2,imiter
1081,2,immense
1082,2,immédiatement
1083,2,impassibilité
1084,2,impossibilité
1085,2,imprudence
1086,2,impénétrable
1087,2,incompréhensible
1088,2,indifférent
1089,2,inexpérience
1090,2,inquiétude
1091,2,insensées
1092,2,insupportable
1093,2,intention
1094,2,intrigue
1095,2,intéressante
1096,2,jadis
1097,2,jambes
1098,2,jaune
1099,2,jolie
1100,2,joliment
1101,2,joseph
1102,2,joues
1103,2,jouissais
1104,2,journée
1105,2,laissaient
1106,2,laisser
1107,2,langage
1108,2,langueur
1109,2,lettres
1110,2,levai
1111,2,levait
1112,2,levant
1113,2,lion
1114,2,logis
1115,2,longueur
1116,2,louaient
1117,2,lovelace
1118,2,lu
1119,2,luxe
1120,2,lâche
1121,2,lâcheté
1122,2,léger
1123,2,légèrement
1124,2,madeleine
1125,2,mademoiselle
1126,2,magnifique
1127,2,mal
1128,2,manchons
1129,2,manières
1130,2,manqua
1131,2,merisier
1132,2,mettais
1133,2,mettez
1134,2,mi
1135,2,milieu
1136,2,militairement
1137,2,milliers
1138,2,mince
1139,2,ministre
1140,2,minute
1141,2,mit
1142,2,monosyllabe
1143,2,montai
1144,2,montais
1145,2,moquer
1146,2,muette
1147,2,mur
1148,2,muscles
1149,2,musique
1150,2,mystérieux
1151,2,mémoire
1152,2,méprisant
1153,2,mêmes
1154,2,mœurs
1155,2,nature
1156,2,naturel
1157,2,nettement
1158,2,niais
1159,2,ninon
1160,2,nouveau
1161,2,nul
1162,2,nulle
1163,2,nuque
1164,2,nus
1165,2,néant
1166,2,obligé
1167,2,observation
1168,2,odalisques
1169,2,offrir
1170,2,oh
1171,2,oie
1172,2,oisif
1173,2,oncles
1174,2,op
1175,2,opposer
1176,2,opéra
1177,2,ordinairement
1178,2,ordonnance
1179,2,osai
1180,2,oublier
1181,2,oublié
1182,2,ouest
1183,2,ouvrait
1184,2,ouvrir
1185,2,ouvris
1186,2,ouï
1187,2,paraître
1188,2,pareil
1189,2,pareille
1190,2,parlant
1191,2,particulier
1192,2,passait
1193,2,passe
1194,2,patte
1195,2,pattes
1196,2,pauvres
1197,2,pays
1198,2,pensais
1199,2,pensionnaire
1200,2,perdait
1201,2,perdit
1202,2,perdre
1203,2,persiennes
1204,2,perte
1205,2,pesait
1206,2,physiologiquement
1207,2,pierre
1208,2,piqué
1209,2,pistolets
1210,2,pièce
1211,2,placé
1212,2,plaisanter
1213,2,plaisirs
1214,2,plein
1215,2,pluie
1216,2,porté
1217,2,positivement
1218,2,poussait
1219,2,pouvaient
1220,2,pouvez
1221,2,premières
1222,2,prend
1223,2,princesse
1224,2,promener
1225,2,propre
1226,2,précaution
1227,2,précautions
1228,2,précisément
1229,2,prétendait
1230,2,prétentions
1231,2,prévu
1232,2,publique
1233,2,pâles
1234,2,pâleur
1235,2,pâlissait
1236,2,pâmoisons
1237,2,pénétraient
1238,2,quant
1239,2,quel
1240,2,quelquefois
1241,2,questions
1242,2,quitta
1243,2,raconté
1244,2,raies
1245,2,rapidement
1246,2,rapprochement
1247,2,rares
1248,2,regarda
1249,2,regardant
1250,2,relations
1251,2,rencontrée
1252,2,rend
1253,2,rendu
1254,2,renouveler
1255,2,rentrer
1256,2,repas
1257,2,respirait
1258,2,restée
1259,2,restées
1260,2,revanche
1261,2,revenu
1262,2,revenus
1263,2,riche
1264,2,richelieu
1265,2,riches
1266,2,romans
1267,2,roulâmes
1268,2,ruban
1269,2,rubans
1270,2,rueil
1271,2,réflexion
1272,2,révéler
1273,2,rêves
1274,2,sagesse
1275,2,saisit
1276,2,salon
1277,2,sauvé
1278,2,saxe
1279,2,semblaient
1280,2,semblât
1281,2,sentais
1282,2,sentiments
1283,2,sentinelle
1284,2,sera
1285,2,serraient
1286,2,serrure
1287,2,serviette
1288,2,seules
1289,2,signe
1290,2,silencieux
1291,2,singulier
1292,2,situation
1293,2,soi
1294,2,soit
1295,2,soldatesque
1296,2,sommeil
1297,2,sortais
1298,2,sortant
1299,2,sorte
1300,2,sortes
1301,2,sortie
1302,2,souper
1303,2,soutenu
1304,2,souviens
1305,2,splendide
1306,2,stupidité
1307,2,su
1308,2,succédé
1309,2,sucrier
1310,2,suivis
1311,2,sujets
1312,2,suppliant
1313,2,surpris
1314,2,suspendait
1315,2,svelte
1316,2,tache
1317,2,tactique
1318,2,tels
1319,2,tempéraments
1320,2,tenais
1321,2,terreur
1322,2,terribles
1323,2,timide
1324,2,tomba
1325,2,tonnerre
1326,2,torse
1327,2,touchaient
1328,2,tournait
1329,2,tourner
1330,2,trahir
1331,2,trait
1332,2,tranquillement
1333,2,travaillait
1334,2,traverser
1335,2,traversâmes
1336,2,tressaillir
1337,2,triste
1338,2,trompé
1339,2,trouvait
1340,2,tu
1341,2,unique
1342,2,vanité
1343,2,veines
1344,2,venaient
1345,2,venant
1346,2,venions
1347,2,venir
1348,2,verrait
1349,2,vide
1350,2,vieillards
1351,2,vifs
1352,2,vin
1353,2,violon
1354,2,vivant
1355,2,vivre
1356,2,voici
1357,2,voluptueux
1358,2,volupté
1359,2,voudrais
1360,2,voudrez
1361,2,voulus
1362,2,voyageur
1363,2,voyageurs
1364,2,vulgaires
1365,2,véritable
1366,2,vêpres
1367,2,waterloo
1368,2,zoom
1369,2,éclair
1370,2,éclairé
1371,2,écrirait
1372,2,écrou
1373,2,écurie
1374,2,égal
1375,2,église
1376,2,élevé
1377,2,épargner
1378,2,épaule
1379,2,épaulettes
1380,2,épouvantable
1381,2,épouvante
1382,2,épouvanté
1383,2,éprouvais
1384,2,épée
1385,2,éteint
1386,2,éternellement
1387,2,étrange
1388,2,étreinte
1389,2,évanouir
1390,2,éveillé
1391,2,événement
1392,2,êtes
1393,2,ôté
1394,2,œuvre
1395,1,abandon
1396,1,abandonne
1397,1,abandonnée
1398,1,abattue
1399,1,abdication
1400,1,aboli
1401,1,abolit
1402,1,abondantes
1403,1,absence
1404,1,absurde
1405,1,accident
1406,1,accidents
1407,1,accompagnement
1408,1,accompli
1409,1,accomplissait
1410,1,accoutume
1411,1,accoutumée
1412,1,accrocs
1413,1,accroupi
1414,1,accru
1415,1,accusateur
1416,1,acharnement
1417,1,acheva
1418,1,acide
1419,1,acte
1420,1,action
1421,1,actuellement
1422,1,admettant
1423,1,adoraient
1424,1,adressai
1425,1,adresse
1426,1,adressât
1427,1,affectais
1428,1,affectation
1429,1,affreuse
1430,1,affreusement
1431,1,agacement
1432,1,agenouillaient
1433,1,agissait
1434,1,agissant
1435,1,agitais
1436,1,agités
1437,1,agrafer
1438,1,agrafée
1439,1,ahuri
1440,1,aie
1441,1,aient
1442,1,aiguille
1443,1,aiguilles
1444,1,aiguillettes
1445,1,aimables
1446,1,aimées
1447,1,aisée
1448,1,ait
1449,1,ajoutaient
1450,1,ajoute
1451,1,ajustait
1452,1,ajusté
1453,1,alentis
1454,1,allai
1455,1,allassent
1456,1,allemagne
1457,1,allez
1458,1,allions
1459,1,alluma
1460,1,allumait
1461,1,allumée
1462,1,altitude
1463,1,ambition
1464,1,amenait
1465,1,amenant
1466,1,amertume
1467,1,ameublement
1468,1,amie
1469,1,amis
1470,1,amoureuse
1471,1,amuser
1472,1,ancienne
1473,1,anciennes
1474,1,anglaise
1475,1,angles
1476,1,angoulême
1477,1,animalité
1478,1,animaux
1479,1,anneaux
1480,1,année
1481,1,antique
1482,1,anxiété
1483,1,apercevoir
1484,1,aperçue
1485,1,aperçurent
1486,1,aperçut
1487,1,apparaissait
1488,1,apparemment
1489,1,apparition
1490,1,appartements
1491,1,appartenais
1492,1,apparut
1493,1,appela
1494,1,appelait
1495,1,appelez
1496,1,appelions
1497,1,appelé
1498,1,appesantissement
1499,1,appliqua
1500,1,appliqué
1501,1,apprenaient
1502,1,apprendrait
1503,1,apprennent
1504,1,approcher
1505,1,approuve
1506,1,appuie
1507,1,appuya
1508,1,appuyait
1509,1,appuyant
1510,1,arcade
1511,1,archiduchesse
1512,1,ardillons
1513,1,argenterie
1514,1,armure
1515,1,armé
1516,1,armée
1517,1,arrachai
1518,1,arraché
1519,1,arrange
1520,1,arrangeais
1521,1,arrangement
1522,1,arrangent
1523,1,arriva
1524,1,arrivai
1525,1,arrivaient
1526,1,arriverait
1527,1,arrivés
1528,1,arrêtai
1529,1,arrêtaient
1530,1,arrêtant
1531,1,arrête
1532,1,arrêts
1533,1,arrêtés
1534,1,artères
1535,1,as
1536,1,ascendant
1537,1,asie
1538,1,aspirée
1539,1,assise
1540,1,assistai
1541,1,assister
1542,1,assoupit
1543,1,astracan
1544,1,astreint
1545,1,atroce
1546,1,atteignit
1547,1,atteint
1548,1,attelage
1549,1,attendait
1550,1,attendent
1551,1,attendre
1552,1,attentif
1553,1,attention
1554,1,attentivement
1555,1,attirer
1556,1,attisante
1557,1,attribué
1558,1,auberge
1559,1,audace
1560,1,audaces
1561,1,audacieuse
1562,1,auparavant
1563,1,auraient
1564,1,automne
1565,1,autorité
1566,1,autrefois
1567,1,autrement
1568,1,auxquelles
1569,1,avance
1570,1,avancement
1571,1,avancé
1572,1,avantages
1573,1,avare
1574,1,avenir
1575,1,aventurer
1576,1,aventures
1577,1,avertie
1578,1,avertît
1579,1,aveuglément
1580,1,baguette
1581,1,bain
1582,1,bains
1583,1,baissa
1584,1,baissais
1585,1,baissait
1586,1,baissant
1587,1,baissée
1588,1,balayait
1589,1,balayer
1590,1,balles
1591,1,bals
1592,1,bambin
1593,1,bancs
1594,1,bandière
1595,1,banquette
1596,1,barricades
1597,1,base
1598,1,bassesses
1599,1,bassompierre
1600,1,bat
1601,1,batailles
1602,1,bataillon
1603,1,bataillons
1604,1,battent
1605,1,baïonnettes
1606,1,beaux
1607,1,bel
1608,1,berceau
1609,1,berlue
1610,1,berry
1611,1,besogne
1612,1,biceps
1613,1,billets
1614,1,blanche
1615,1,blanches
1616,1,blasa
1617,1,blasai
1618,1,blasé
1619,1,blasée
1620,1,blessés
1621,1,bleus
1622,1,bleuâtre
1623,1,blocs
1624,1,blonde
1625,1,bombé
1626,1,bombées
1627,1,bonhomie
1628,1,bonhomme
1629,1,bons
1630,1,bordée
1631,1,bouchon
1632,1,bouclaient
1633,1,bouclait
1634,1,boucles
1635,1,boudaient
1636,1,bougeais
1637,1,bougeait
1638,1,bougé
1639,1,bouillais
1640,1,bouillonner
1641,1,boulets
1642,1,bouleversante
1643,1,bouleversement
1644,1,bouquet
1645,1,bourgades
1646,1,bouteille
1647,1,bouton
1648,1,boîte
1649,1,bracelet
1650,1,braguard
1651,1,brandebourgs
1652,1,brasiers
1653,1,bravement
1654,1,bravoure
1655,1,bravé
1656,1,bredouillait
1657,1,brick
1658,1,bride
1659,1,brillante
1660,1,briques
1661,1,briser
1662,1,brisque
1663,1,brisée
1664,1,brodequins
1665,1,brodée
1666,1,bronza
1667,1,bronze
1668,1,bruits
1669,1,brummel
1670,1,brûlait
1671,1,brûlante
1672,1,brûlantes
1673,1,brûlants
1674,1,buffleteries
1675,1,bureau
1676,1,burnous
1677,1,busc
1678,1,buste
1679,1,buveur
1680,1,béant
1681,1,bégueules
1682,1,cabinet
1683,1,cachait
1684,1,cachent
1685,1,cachés
1686,1,cadran
1687,1,cafés
1688,1,cage
1689,1,caillou
1690,1,calcul
1691,1,calebasse
1692,1,calomnier
1693,1,calèche
1694,1,cambré
1695,1,cambrée
1696,1,campions
1697,1,camées
1698,1,cannelés
1699,1,capables
1700,1,carabines
1701,1,caractère
1702,1,caractériser
1703,1,carafe
1704,1,caravansérails
1705,1,caresses
1706,1,caressée
1707,1,carotides
1708,1,carrefour
1709,1,carrés
1710,1,cartes
1711,1,casque
1712,1,cassé
1713,1,catégorique
1714,1,causerie
1715,1,causeur
1716,1,causâmes
1717,1,causée
1718,1,ceinture
1719,1,cent
1720,1,centaines
1721,1,certain
1722,1,certifier
1723,1,cervelle
1724,1,cesser
1725,1,cessèrent
1726,1,chaleur
1727,1,champ
1728,1,chanceler
1729,1,chansons
1730,1,chaos
1731,1,charger
1732,1,chargerait
1733,1,charles
1734,1,charmante
1735,1,chasser
1736,1,chasseur
1737,1,chassé
1738,1,chat
1739,1,chauffé
1740,1,chaussons
1741,1,chaussée
1742,1,chemin
1743,1,cheminée
1744,1,cher
1745,1,cherchant
1746,1,cherche
1747,1,cherchèrent
1748,1,cherché
1749,1,chevalerie
1750,1,chiffon
1751,1,chiffonnière
1752,1,chiffres
1753,1,chine
1754,1,choc
1755,1,choisie
1756,1,choquer
1757,1,cigare
1758,1,circonstances
1759,1,ciseaux
1760,1,clairière
1761,1,claret
1762,1,classe
1763,1,cloison
1764,1,clou
1765,1,clouait
1766,1,coagulèrent
1767,1,cocher
1768,1,cochère
1769,1,coiffure
1770,1,coins
1771,1,col
1772,1,collective
1773,1,collée
1774,1,colonne
1775,1,coloris
1776,1,combien
1777,1,combinaison
1778,1,combinez
1779,1,comblait
1780,1,comique
1781,1,commanderie
1782,1,commençais
1783,1,commençant
1784,1,commerce
1785,1,commisération
1786,1,commode
1787,1,communes
1788,1,commère
1789,1,commérages
1790,1,compagnon
1791,1,comparaison
1792,1,complet
1793,1,complices
1794,1,complicité
1795,1,compliquée
1796,1,comprendra
1797,1,comprendrez
1798,1,comprise
1799,1,compromettre
1800,1,comptais
1801,1,comte
1802,1,comtesse
1803,1,concurrence
1804,1,condamné
1805,1,conduisait
1806,1,conduisit
1807,1,confessai
1808,1,confesser
1809,1,confiance
1810,1,confiante
1811,1,confitures
1812,1,confusion
1813,1,congrès
1814,1,conjugalement
1815,1,connaissait
1816,1,connaissances
1817,1,connaissent
1818,1,connivents
1819,1,connût
1820,1,conquis
1821,1,conquérant
1822,1,consacrer
1823,1,conscience
1824,1,consciente
1825,1,conservé
1826,1,considérer
1827,1,consommateur
1828,1,consommation
1829,1,conspirateurs
1830,1,construites
1831,1,contact
1832,1,conter
1833,1,conteur
1834,1,continence
1835,1,contrariant
1836,1,contrarier
1837,1,contrarié
1838,1,contrariété
1839,1,convenait
1840,1,convenir
1841,1,conviendraient
1842,1,coquets
1843,1,coquetteries
1844,1,coquine
1845,1,coquines
1846,1,cordes
1847,1,cordialement
1848,1,cornes
1849,1,correct
1850,1,corselet
1851,1,couchais
1852,1,couchant
1853,1,couchées
1854,1,coude
1855,1,coula
1856,1,couleur
1857,1,couleurs
1858,1,coupa
1859,1,coupable
1860,1,coupant
1861,1,coupe
1862,1,coupée
1863,1,coupés
1864,1,courant
1865,1,courions
1866,1,courte
1867,1,cousette
1868,1,couvercle
1869,1,couverts
1870,1,couvrais
1871,1,couvrait
1872,1,cracher
1873,1,craignais
1874,1,craignît
1875,1,craquements
1876,1,craquer
1877,1,cravate
1878,1,crayon
1879,1,criait
1880,1,criblais
1881,1,crispée
1882,1,cristal
1883,1,croira
1884,1,croirait
1885,1,croisa
1886,1,croissants
1887,1,croit
1888,1,croupes
1889,1,croyiez
1890,1,cru
1891,1,cruel
1892,1,cruelle
1893,1,cruellement
1894,1,crânement
1895,1,crépuscule
1896,1,cyr
1897,1,célèbre
1898,1,céruse
1899,1,cérémonie
1900,1,cérémonies
1901,1,côtes
1902,1,dalila
1903,1,dame
1904,1,dames
1905,1,damier
1906,1,damnante
1907,1,damne
1908,1,dangereuses
1909,1,dansant
1910,1,danseuse
1911,1,dante
1912,1,dardait
1913,1,demandais
1914,1,demander
1915,1,demanderai
1916,1,demeurant
1917,1,demeurer
1918,1,demeuré
1919,1,demie
1920,1,densité
1921,1,dentelle
1922,1,dernier
1923,1,dernières
1924,1,descendant
1925,1,descendis
1926,1,descendre
1927,1,descendu
1928,1,despotisme
1929,1,desserrèrent
1930,1,dessinant
1931,1,destin
1932,1,destinées
1933,1,destitution
1934,1,devais
1935,1,devenues
1936,1,deviner
1937,1,devinez
1938,1,devinrent
1939,1,devins
1940,1,deviné
1941,1,devoir
1942,1,devrait
1943,1,diablement
1944,1,diablesse
1945,1,diaboliquement
1946,1,diane
1947,1,difficulté
1948,1,différait
1949,1,différentes
1950,1,digne
1951,1,dignes
1952,1,diligences
1953,1,diminuant
1954,1,dira
1955,1,dirait
1956,1,disaient
1957,1,discerner
1958,1,disons
1959,1,disparaissaient
1960,1,disparu
1961,1,disparus
1962,1,dispersés
1963,1,disposition
1964,1,disposé
1965,1,dissoudre
1966,1,distance
1967,1,distraire
1968,1,distraite
1969,1,doigts
1970,1,domination
1971,1,donnai
1972,1,donnant
1973,1,donnerais
1974,1,donnions
1975,1,donnés
1976,1,dormais
1977,1,dormant
1978,1,dormants
1979,1,dorment
1980,1,dormions
1981,1,doré
1982,1,double
1983,1,doublé
1984,1,doucement
1985,1,douces
1986,1,doutaient
1987,1,doutais
1988,1,doutez
1989,1,doutés
1990,1,doux
1991,1,douzaine
1992,1,dragonne
1993,1,dragons
1994,1,drame
1995,1,drames
1996,1,drapeau
1997,1,dressai
1998,1,dressée
1999,1,dressées
2000,1,duel
2001,1,duquel
2002,1,durant
2003,1,durement
2004,1,dus
2005,1,dynastie
2006,1,dé
2007,1,débattais
2008,1,débauchant
2009,1,débordait
2010,1,début
2011,1,décamper
2012,1,décence
2013,1,décents
2014,1,déchoir
2015,1,décidé
2016,1,déclarations
2017,1,déclinant
2018,1,déconcertait
2019,1,découvert
2020,1,dédaigner
2021,1,dédaigné
2022,1,dédommagements
2023,1,défaillantes
2024,1,défendu
2025,1,défiait
2026,1,défiance
2027,1,dégagé
2028,1,dégagée
2029,1,dégarnissant
2030,1,dégrisant
2031,1,délicate
2032,1,délices
2033,1,délicieusement
2034,1,délicieux
2035,1,démence
2036,1,démences
2037,1,démentie
2038,1,démentit
2039,1,démon
2040,1,démoralisée
2041,1,dépassa
2042,1,dépassait
2043,1,déplacé
2044,1,dépliais
2045,1,déployait
2046,1,dépravée
2047,1,dérange
2048,1,dés
2049,1,désespérément
2050,1,déshonneur
2051,1,déshonorant
2052,1,déshonorante
2053,1,déshonorée
2054,1,désigna
2055,1,désirais
2056,1,désormais
2057,1,détachement
2058,1,détaché
2059,1,détachée
2060,1,détail
2061,1,dételés
2062,1,déteste
2063,1,détirent
2064,1,détournèrent
2065,1,développer
2066,1,déverrouiller
2067,1,dévisageassent
2068,1,dévorante
2069,1,dévore
2070,1,déçus
2071,1,dînai
2072,1,dîners
2073,1,dît
2074,1,ecclésiastique
2075,1,effacer
2076,1,effaré
2077,1,effaçait
2078,1,effets
2079,1,effrayante
2080,1,effrayée
2081,1,effroi
2082,1,effrontée
2083,1,embarrassait
2084,1,embarrasse
2085,1,embarrassée
2086,1,embellissait
2087,1,embrassai
2088,1,empara
2089,1,emplir
2090,1,emploient
2091,1,employé
2092,1,emportant
2093,1,emporter
2094,1,emportée
2095,1,empourprer
2096,1,empêcher
2097,1,empêché
2098,1,enchantée
2099,1,encoignures
2100,1,encourageant
2101,1,encourus
2102,1,endormi
2103,1,endormies
2104,1,endormis
2105,1,endormit
2106,1,endroits
2107,1,enfance
2108,1,enfants
2109,1,enfoncement
2110,1,enfoncés
2111,1,enfonçai
2112,1,enfuis
2113,1,engourdit
2114,1,enivrant
2115,1,enivrantes
2116,1,enivré
2117,1,enlacer
2118,1,enlacée
2119,1,enleva
2120,1,enlevée
2121,1,ennuyais
2122,1,ennuyeux
2123,1,enragé
2124,1,ensemble
2125,1,entendait
2126,1,entendant
2127,1,entendez
2128,1,entendions
2129,1,entendus
2130,1,entendît
2131,1,enthousiasmés
2132,1,entiers
2133,1,entièrement
2134,1,entouraient
2135,1,entourés
2136,1,entrai
2137,1,entrant
2138,1,entrasse
2139,1,entrebâillée
2140,1,entrevue
2141,1,entrez
2142,1,entrouvrant
2143,1,entrée
2144,1,envahissait
2145,1,enveloppante
2146,1,enveloppement
2147,1,envoyé
2148,1,errait
2149,1,escadron
2150,1,escaliers
2151,1,escrime
2152,1,espagnolette
2153,1,espoir
2154,1,espérant
2155,1,essayais
2156,1,essuyer
2157,1,estompe
2158,1,estompée
2159,1,eue
2160,1,eussé
2161,1,exacte
2162,1,exaltait
2163,1,examen
2164,1,examiner
2165,1,exaspéré
2166,1,exaspérée
2167,1,excellent
2168,1,exceptionnelle
2169,1,excite
2170,1,exercices
2171,1,exhiber
2172,1,exigeait
2173,1,exigu
2174,1,existait
2175,1,existez
2176,1,exposer
2177,1,exposée
2178,1,expressément
2179,1,exprimer
2180,1,extraire
2181,1,extérieurs
2182,1,eûmes
2183,1,fabuleux
2184,1,faces
2185,1,facile
2186,1,facteur
2187,1,factice
2188,1,fais
2189,1,faites
2190,1,fallut
2191,1,fameusement
2192,1,familles
2193,1,fange
2194,1,fantaisies
2195,1,fardeau
2196,1,fascinante
2197,1,faste
2198,1,fatalité
2199,1,fatigue
2200,1,fatigues
2201,1,fatiguée
2202,1,faubourg
2203,1,fausser
2204,1,faux
2205,1,faveur
2206,1,faveurs
2207,1,fendrait
2208,1,fendre
2209,1,ferez
2210,1,fermait
2211,1,ferme
2212,1,fermer
2213,1,fermèrent
2214,1,feux
2215,1,fiches
2216,1,fidèle
2217,1,fiers
2218,1,fierté
2219,1,figé
2220,1,figée
2221,1,file
2222,1,filtré
2223,1,finie
2224,1,finir
2225,1,finis
2226,1,finissais
2227,1,finîtes
2228,1,firent
2229,1,fixer
2230,1,fixés
2231,1,fière
2232,1,fièvre
2233,1,flacons
2234,1,flambeau
2235,1,flamber
2236,1,flammes
2237,1,fleurets
2238,1,fleurs
2239,1,flot
2240,1,flûtant
2241,1,folles
2242,1,fondit
2243,1,forcés
2244,1,formes
2245,1,forêt
2246,1,foudroyant
2247,1,fouettaient
2248,1,fouetter
2249,1,four
2250,1,fourrai
2251,1,fourre
2252,1,fourrer
2253,1,foyer
2254,1,frac
2255,1,franchement
2256,1,franchir
2257,1,franges
2258,1,franquette
2259,1,française
2260,1,françois
2261,1,frappa
2262,1,frappais
2263,1,frappée
2264,1,frascati
2265,1,fraîche
2266,1,fraîchement
2267,1,frisson
2268,1,frissonne
2269,1,frissonnements
2270,1,frivole
2271,1,froides
2272,1,froidi
2273,1,froissés
2274,1,frémissement
2275,1,fuir
2276,1,fuite
2277,1,fumait
2278,1,funèbre
2279,1,furent
2280,1,furie
2281,1,furieusement
2282,1,furtivement
2283,1,fusil
2284,1,fusils
2285,1,fusse
2286,1,fussent
2287,1,fuyaient
2288,1,fuyait
2289,1,fuyant
2290,1,fuyard
2291,1,fées
2292,1,féroce
2293,1,fêtaient
2294,1,fît
2295,1,gagner
2296,1,gagneriez
2297,1,gaie
2298,1,gaillards
2299,1,galetas
2300,1,galopaient
2301,1,galvaniser
2302,1,gamin
2303,1,gand
2304,1,gant
2305,1,gants
2306,1,garda
2307,1,gardât
2308,1,gares
2309,1,garçons
2310,1,germain
2311,1,gibier
2312,1,gilet
2313,1,glacé
2314,1,glacée
2315,1,glisser
2316,1,gonflements
2317,1,gorgée
2318,1,gouffre
2319,1,gouttes
2320,1,gouvernement
2321,1,goût
2322,1,gracieuse
2323,1,gracieux
2324,1,grandir
2325,1,grandissant
2326,1,granit
2327,1,gravement
2328,1,gravures
2329,1,grenadier
2330,1,gril
2331,1,grillagée
2332,1,grimpais
2333,1,grinça
2334,1,grinçaient
2335,1,gris
2336,1,griserie
2337,1,grises
2338,1,grisettes
2339,1,grièvement
2340,1,grosse
2341,1,guettais
2342,1,guettant
2343,1,gueules
2344,1,guillaume
2345,1,guise
2346,1,gémissement
2347,1,générale
2348,1,génération
2349,1,gêne
2350,1,gêner
2351,1,gœthe
2352,1,habillai
2353,1,habillais
2354,1,habille
2355,1,habitants
2356,1,habitudes
2357,1,habité
2358,1,haletant
2359,1,hallucination
2360,1,hanches
2361,1,harassés
2362,1,hardiment
2363,1,hasards
2364,1,hausse
2365,1,haute
2366,1,haïr
2367,1,hein
2368,1,heureuses
2369,1,heurter
2370,1,hideuse
2371,1,hier
2372,1,hissé
2373,1,hiver
2374,1,hiérarchie
2375,1,hongrie
2376,1,honnêtes
2377,1,honnêteté
2378,1,honorable
2379,1,honteux
2380,1,horizon
2381,1,horreur
2382,1,horreurs
2383,1,hortensia
2384,1,hospitalité
2385,1,huile
2386,1,huilés
2387,1,humaine
2388,1,humanitaires
2389,1,humiliation
2390,1,humilier
2391,1,héros
2392,1,héroïsme
2393,1,idéal
2394,1,ier
2395,1,ignoble
2396,1,ignominie
2397,1,ignorais
2398,1,ignorance
2399,1,illusion
2400,1,images
2401,1,imagination
2402,1,imbécile
2403,1,imitais
2404,1,immeubles
2405,1,immobiles
2406,1,immobilité
2407,1,immoralité
2408,1,impasse
2409,1,impatientants
2410,1,impertinemment
2411,1,imperturbablement
2412,1,importait
2413,1,importun
2414,1,imposant
2415,1,imposante
2416,1,impossibilités
2417,1,imprenables
2418,1,impressions
2419,1,imprima
2420,1,imprudemment
2421,1,imprudent
2422,1,imprudentes
2423,1,impudence
2424,1,impudeur
2425,1,impuissante
2426,1,impunément
2427,1,impénétrables
2428,1,impérieuse
2429,1,impérieux
2430,1,inanimé
2431,1,inattendu
2432,1,inaugurer
2433,1,incapable
2434,1,incendiaire
2435,1,incomparables
2436,1,inconnues
2437,1,inconvenance
2438,1,incorrigible
2439,1,incorrigibles
2440,1,incroyablement
2441,1,indicible
2442,1,indifférentes
2443,1,indifférents
2444,1,indignées
2445,1,indique
2446,1,indues
2447,1,inexplicable
2448,1,infanterie
2449,1,infernalement
2450,1,infiniment
2451,1,informer
2452,1,inférieure
2453,1,innocent
2454,1,innocente
2455,1,inopinément
2456,1,inouï
2457,1,inquiet
2458,1,inquiétais
2459,1,inquiétant
2460,1,insatiables
2461,1,inscription
2462,1,insensé
2463,1,insensée
2464,1,insensément
2465,1,insignifiant
2466,1,insolent
2467,1,insolente
2468,1,insoluble
2469,1,insouciance
2470,1,insouciant
2471,1,inspecteur
2472,1,inspire
2473,1,instant
2474,1,instants
2475,1,instructions
2476,1,instruments
2477,1,insubordination
2478,1,insultais
2479,1,insultant
2480,1,insupportablement
2481,1,insurgé
2482,1,intelligence
2483,1,interpellation
2484,1,interposé
2485,1,interrogation
2486,1,interrogeait
2487,1,interrompaient
2488,1,interrompit
2489,1,intimité
2490,1,intimités
2491,1,intitulait
2492,1,intéressaient
2493,1,intéressant
2494,1,intéressantes
2495,1,intéressé
2496,1,intérieur
2497,1,inverse
2498,1,issue
2499,1,ivresse
2500,1,ivresses
2501,1,jalouses
2502,1,jalousie
2503,1,jaugeait
2504,1,jaunes
2505,1,jean
2506,1,jetai
2507,1,jetais
2508,1,jette
2509,1,jeu
2510,1,jolies
2511,1,jolis
2512,1,joui
2513,1,jouissance
2514,1,journées
2515,1,joué
2516,1,juge
2517,1,juillet
2518,1,jupe
2519,1,jupes
2520,1,jurant
2521,1,jure
2522,1,juron
2523,1,juste
2524,1,justement
2525,1,justice
2526,1,labourai
2527,1,lacée
2528,1,laid
2529,1,laissais
2530,1,laisse
2531,1,laisseraient
2532,1,laisserait
2533,1,laissez
2534,1,lait
2535,1,lambrissés
2536,1,lame
2537,1,lames
2538,1,lampées
2539,1,langue
2540,1,lanterne
2541,1,laque
2542,1,largement
2543,1,larges
2544,1,lassé
2545,1,laurent
2546,1,lectures
2547,1,leipsick
2548,1,leste
2549,1,lever
2550,1,levé
2551,1,levée
2552,1,liberté
2553,1,lieutenants
2554,1,lignes
2555,1,linge
2556,1,lionceau
2557,1,littéralement
2558,1,livrait
2559,1,liée
2560,1,logement
2561,1,loger
2562,1,loges
2563,1,loisir
2564,1,longes
2565,1,longuement
2566,1,louant
2567,1,loupe
2568,1,lourde
2569,1,lourdement
2570,1,loué
2571,1,lucide
2572,1,luire
2573,1,luisant
2574,1,luit
2575,1,lumineuses
2576,1,lumineux
2577,1,lurait
2578,1,luron
2579,1,lutter
2580,1,lyre
2581,1,lâcha
2582,1,lèvent
2583,1,lèvre
2584,1,légers
2585,1,légère
2586,1,maigrelets
2587,1,maigreur
2588,1,maintes
2589,1,majestueuse
2590,1,majestueux
2591,1,major
2592,1,malade
2593,1,maladie
2594,1,malheur
2595,1,malheureuse
2596,1,malheureusement
2597,1,malheureux
2598,1,malhonnêtement
2599,1,malte
2600,1,maman
2601,1,mangeais
2602,1,manie
2603,1,manque
2604,1,manqué
2605,1,manteaux
2606,1,manège
2607,1,manœuvres
2608,1,marais
2609,1,marchandé
2610,1,marché
2611,1,marmont
2612,1,marquise
2613,1,marqué
2614,1,mars
2615,1,martingale
2616,1,masque
2617,1,masquées
2618,1,massacrai
2619,1,masser
2620,1,mathématiques
2621,1,matin
2622,1,matins
2623,1,maudite
2624,1,maussade
2625,1,mauvaise
2626,1,mazarin
2627,1,maîtres
2628,1,maîtresses
2629,1,meilleur
2630,1,meilleure
2631,1,menait
2632,1,menaçait
2633,1,menaçante
2634,1,mener
2635,1,menions
2636,1,mensonge
2637,1,menus
2638,1,mesure
2639,1,mettait
2640,1,mettions
2641,1,mettrait
2642,1,meuble
2643,1,meubles
2644,1,meurt
2645,1,meurtri
2646,1,miennes
2647,1,mille
2648,1,minotaure
2649,1,minuit
2650,1,mirent
2651,1,mise
2652,1,misérables
2653,1,mode
2654,1,modestie
2655,1,modifier
2656,1,modifié
2657,1,moelleux
2658,1,moindres
2659,1,moine
2660,1,mondit
2661,1,monotone
2662,1,monstrueuse
2663,1,monté
2664,1,monumentale
2665,1,moquait
2666,1,moqueur
2667,1,moqueuse
2668,1,moqué
2669,1,moralistes
2670,1,moralité
2671,1,mordant
2672,1,mordis
2673,1,morne
2674,1,morsures
2675,1,mortes
2676,1,motifs
2677,1,mouche
2678,1,mourir
2679,1,mourraient
2680,1,mousseline
2681,1,moustaches
2682,1,mouvoir
2683,1,muet
2684,1,muets
2685,1,multipliait
2686,1,murat
2687,1,murs
2688,1,musclées
2689,1,musicale
2690,1,mystérieuse
2691,1,mystérieusement
2692,1,mâle
2693,1,médaille
2694,1,médecine
2695,1,médiocre
2696,1,médiocrité
2697,1,médisance
2698,1,méduse
2699,1,mélancolie
2700,1,mélancoliquement
2701,1,mémoires
2702,1,ménager
2703,1,ménagée
2704,1,méprisable
2705,1,méprisait
2706,1,méprisent
2707,1,méprisez
2708,1,mêlai
2709,1,mêlais
2710,1,nectar
2711,1,nef
2712,1,nerfs
2713,1,neuf
2714,1,ney
2715,1,nicolas
2716,1,niobé
2717,1,nièces
2718,1,noblesse
2719,1,noie
2720,1,noirceur
2721,1,noires
2722,1,noirmoutier
2723,1,nomment
2724,1,nommé
2725,1,nommée
2726,1,normande
2727,1,nostalgies
2728,1,note
2729,1,notion
2730,1,nouer
2731,1,nourrice
2732,1,nouvelle
2733,1,nu
2734,1,nuance
2735,1,nuances
2736,1,nue
2737,1,nues
2738,1,nécessaire
2739,1,nécessairement
2740,1,négliger
2741,1,néronien
2742,1,nés
2743,1,objets
2744,1,obligations
2745,1,obligée
2746,1,obscur
2747,1,observais
2748,1,observateurs
2749,1,observe
2750,1,observer
2751,1,obsession
2752,1,obstiné
2753,1,occasion
2754,1,occupais
2755,1,oisivetés
2756,1,ombres
2757,1,opinion
2758,1,oppose
2759,1,opposé
2760,1,opulent
2761,1,orbes
2762,1,ordinaires
2763,1,ordonné
2764,1,ordres
2765,1,oreille
2766,1,oreiller
2767,1,organisation
2768,1,orgies
2769,1,orgueilleuse
2770,1,orgueilleusement
2771,1,orléans
2772,1,orsay
2773,1,osait
2774,1,oser
2775,1,osé
2776,1,osées
2777,1,ouate
2778,1,oublie
2779,1,oublieux
2780,1,outrepassait
2781,1,ouvert
2782,1,ouvrage
2783,1,ouvrant
2784,1,ouvrit
2785,1,paie
2786,1,paix
2787,1,palpitations
2788,1,palpitèrent
2789,1,panique
2790,1,panorama
2791,1,pantalonnades
2792,1,papiers
2793,1,parade
2794,1,paraît
2795,1,pardonner
2796,1,parfois
2797,1,parfum
2798,1,pari
2799,1,parierais
2800,1,parlai
2801,1,parlaient
2802,1,parlent
2803,1,parlerai
2804,1,parlez
2805,1,parlé
2806,1,parmi
2807,1,parole
2808,1,parquetée
2809,1,parti
2810,1,particulières
2811,1,parties
2812,1,paru
2813,1,passable
2814,1,passai
2815,1,passaient
2816,1,passant
2817,1,passez
2818,1,passionné
2819,1,passât
2820,1,paternité
2821,1,patricienne
2822,1,pavots
2823,1,paysage
2824,1,peau
2825,1,peints
2826,1,pendit
2827,1,pendue
2828,1,pensait
2829,1,pensasse
2830,1,pensions
2831,1,pensées
2832,1,perchée
2833,1,perds
2834,1,perdu
2835,1,perdue
2836,1,perler
2837,1,permanentes
2838,1,permets
2839,1,permettent
2840,1,permettrai
2841,1,permis
2842,1,perpendiculaire
2843,1,perpétuel
2844,1,personnalité
2845,1,personnelle
2846,1,perspective
2847,1,pesante
2848,1,pesanteur
2849,1,peupliers
2850,1,peurs
2851,1,peuvent
2852,1,philosopher
2853,1,philosophiques
2854,1,phrase
2855,1,physionomies
2856,1,physique
2857,1,piaffaient
2858,1,pic
2859,1,pieuse
2860,1,pile
2861,1,piles
2862,1,piloter
2863,1,piquant
2864,1,piquante
2865,1,pire
2866,1,pis
2867,1,pistolet
2868,1,pittoresque
2869,1,piétiné
2870,1,piété
2871,1,placer
2872,1,placidité
2873,1,plaintif
2874,1,plaisait
2875,1,plaisantions
2876,1,plantai
2877,1,plantais
2878,1,plaquait
2879,1,plaque
2880,1,platitude
2881,1,plats
2882,1,plaçait
2883,1,plaît
2884,1,pleine
2885,1,plis
2886,1,plongea
2887,1,plonger
2888,1,plongés
2889,1,plupart
2890,1,plusieurs
2891,1,poignard
2892,1,poil
2893,1,poils
2894,1,pointilleux
2895,1,points
2896,1,pois
2897,1,poissons
2898,1,poitrinait
2899,1,polonais
2900,1,pompe
2901,1,pompette
2902,1,pompon
2903,1,pomponner
2904,1,pont
2905,1,population
2906,1,portai
2907,1,porter
2908,1,portât
2909,1,portées
2910,1,possibilité
2911,1,possédé
2912,1,postillons
2913,1,posée
2914,1,potage
2915,1,poudreuse
2916,1,poudrière
2917,1,pouls
2918,1,pourrai
2919,1,pourraient
2920,1,poursuivie
2921,1,poursuivre
2922,1,pousser
2923,1,poussé
2924,1,pouvant
2925,1,pouvions
2926,1,pouvons
2927,1,poétiquement
2928,1,poétisait
2929,1,prairies
2930,1,prenaient
2931,1,prenant
2932,1,prends
2933,1,pressaient
2934,1,pressait
2935,1,presser
2936,1,preste
2937,1,prestesse
2938,1,prié
2939,1,probabilités
2940,1,procède
2941,1,produire
2942,1,produisait
2943,1,profanation
2944,1,profil
2945,1,profit
2946,1,profits
2947,1,profonde
2948,1,profondes
2949,1,profondeur
2950,1,proie
2951,1,prolongés
2952,1,promenades
2953,1,protection
2954,1,prouvé
2955,1,provocante
2956,1,provocations
2957,1,provocatrice
2958,1,précipita
2959,1,précipité
2960,1,précis
2961,1,précocité
2962,1,précédent
2963,1,préoccupation
2964,1,présence
2965,1,présentèrent
2966,1,prétexte
2967,1,prévenu
2968,1,prévoir
2969,1,prête
2970,1,prêts
2971,1,prîmes
2972,1,prît
2973,1,publics
2974,1,pucelage
2975,1,pudeur
2976,1,puissant
2977,1,puissent
2978,1,puissions
2979,1,puits
2980,1,punch
2981,1,puni
2982,1,purent
2983,1,putiphar
2984,1,pâlots
2985,1,pâturé
2986,1,pédant
2987,1,pénétrant
2988,1,pénétrer
2989,1,périlleux
2990,1,période
2991,1,pûmes
2992,1,qualités
2993,1,quarts
2994,1,quatrième
2995,1,quelqu
2996,1,quels
2997,1,queue
2998,1,quinze
2999,1,quittait
3000,1,racler
3001,1,radieuse
3002,1,raffolais
3003,1,raflait
3004,1,rage
3005,1,raguse
3006,1,raidi
3007,1,railleusement
3008,1,raisonner
3009,1,ramassaient
3010,1,ramasser
3011,1,ramassez
3012,1,ramassé
3013,1,ramassés
3014,1,rangea
3015,1,rangs
3016,1,rangées
3017,1,rangés
3018,1,rapide
3019,1,rappelait
3020,1,rappelant
3021,1,rappelez
3022,1,rapportaient
3023,1,raquette
3024,1,rarement
3025,1,rassasiais
3026,1,rattraper
3027,1,rattrapé
3028,1,ravissait
3029,1,rayonnaient
3030,1,really
3031,1,recevait
3032,1,rechange
3033,1,recommencer
3034,1,recommença
3035,1,recommençai
3036,1,recommençant
3037,1,reconnais
3038,1,reconnaissiez
3039,1,reconnu
3040,1,reculai
3041,1,reculer
3042,1,redingote
3043,1,redoutable
3044,1,redoutes
3045,1,referma
3046,1,refermer
3047,1,refermée
3048,1,refrappant
3049,1,regagner
3050,1,regardaient
3051,1,regardait
3052,1,regardiez
3053,1,regardées
3054,1,registre
3055,1,relation
3056,1,relayions
3057,1,relevai
3058,1,relevais
3059,1,relevé
3060,1,remarquable
3061,1,remarquer
3062,1,remarquées
3063,1,remettre
3064,1,remonta
3065,1,remontant
3066,1,remonter
3067,1,remontreraient
3068,1,remonté
3069,1,remords
3070,1,remplir
3071,1,rencontrait
3072,1,rencontre
3073,1,rencontrerais
3074,1,rencontres
3075,1,rencontrions
3076,1,rencontrât
3077,1,rencontrés
3078,1,rendant
3079,1,rendue
3080,1,renoncer
3081,1,renoncé
3082,1,rentrai
3083,1,rentrais
3084,1,rentrait
3085,1,rentrée
3086,1,renversai
3087,1,renverse
3088,1,renvoya
3089,1,repartir
3090,1,repartis
3091,1,repartit
3092,1,repentir
3093,1,replaçai
3094,1,repliée
3095,1,reporter
3096,1,reportée
3097,1,reposaient
3098,1,reprendrait
3099,1,reprendre
3100,1,reproches
3101,1,repêché
3102,1,respect
3103,1,respecter
3104,1,respectât
3105,1,respiration
3106,1,respirations
3107,1,ressemble
3108,1,ressentis
3109,1,resserrer
3110,1,ressources
3111,1,ressusciterait
3112,1,ressusciteurs
3113,1,restai
3114,1,restaient
3115,1,rester
3116,1,restera
3117,1,retard
3118,1,retenti
3119,1,retentis
3120,1,retirai
3121,1,retirer
3122,1,retombaient
3123,1,retour
3124,1,retourna
3125,1,retournai
3126,1,retournait
3127,1,retourne
3128,1,retournez
3129,1,retournée
3130,1,retrouvait
3131,1,retrouverai
3132,1,retrouvez
3133,1,revenue
3134,1,reviendront
3135,1,revinrent
3136,1,revois
3137,1,revînt
3138,1,reçu
3139,1,reçus
3140,1,reçut
3141,1,richement
3142,1,ride
3143,1,ridicule
3144,1,riens
3145,1,rigide
3146,1,rigidité
3147,1,risqué
3148,1,risquée
3149,1,robe
3150,1,robes
3151,1,roi
3152,1,romancier
3153,1,rompre
3154,1,rompu
3155,1,ronde
3156,1,ronflements
3157,1,ronfler
3158,1,ronger
3159,1,rose
3160,1,roses
3161,1,rosette
3162,1,rosâtre
3163,1,roues
3164,1,rouge
3165,1,rougeur
3166,1,roulais
3167,1,roulement
3168,1,roulez
3169,1,roulé
3170,1,roussie
3171,1,routes
3172,1,routine
3173,1,rouvrit
3174,1,royale
3175,1,ruinées
3176,1,râclait
3177,1,réalisant
3178,1,récalcitrants
3179,1,réchauffais
3180,1,réchauffer
3181,1,réellement
3182,1,réflexions
3183,1,réglée
3184,1,réglées
3185,1,régularité
3186,1,régulier
3187,1,répartis
3188,1,répercuter
3189,1,répondis
3190,1,répondu
3191,1,réprima
3192,1,réprimant
3193,1,répugnait
3194,1,répéta
3195,1,réserve
3196,1,résolu
3197,1,résolument
3198,1,résolutions
3199,1,réunions
3200,1,réussir
3201,1,réussite
3202,1,réveilla
3203,1,réveillé
3204,1,réverbères
3205,1,révolte
3206,1,révélerait
3207,1,rêvais
3208,1,rêvant
3209,1,rêve
3210,1,rêver
3211,1,rêverie
3212,1,rêveur
3213,1,sabler
3214,1,sabotant
3215,1,sachant
3216,1,sacrée
3217,1,saignant
3218,1,saigner
3219,1,saignée
3220,1,saisi
3221,1,saisie
3222,1,saluai
3223,1,saluer
3224,1,salut
3225,1,samson
3226,1,sanguin
3227,1,saphirs
3228,1,satin
3229,1,saurai
3230,1,saurait
3231,1,saute
3232,1,sauté
3233,1,sauve
3234,1,saviez
3235,1,scandales
3236,1,scruter
3237,1,sec
3238,1,secondaire
3239,1,secrètement
3240,1,secrétaire
3241,1,secs
3242,1,sein
3243,1,sembla
3244,1,semblent
3245,1,sembler
3246,1,semestre
3247,1,semé
3248,1,semées
3249,1,sensuellement
3250,1,sentait
3251,1,sentimental
3252,1,sentir
3253,1,sentit
3254,1,serai
3255,1,serais
3256,1,serrant
3257,1,sert
3258,1,seuil
3259,1,siennes
3260,1,siens
3261,1,sifflant
3262,1,sifflent
3263,1,silencieusement
3264,1,sillonna
3265,1,simagrées
3266,1,simples
3267,1,simplicité
3268,1,simplifie
3269,1,singulière
3270,1,sinistre
3271,1,siècle
3272,1,sobre
3273,1,soif
3274,1,soirées
3275,1,solitairement
3276,1,sommeillait
3277,1,sommet
3278,1,songeais
3279,1,songer
3280,1,songeries
3281,1,songez
3282,1,sonnai
3283,1,sonnait
3284,1,sonné
3285,1,sonnés
3286,1,sonore
3287,1,sons
3288,1,sorti
3289,1,sortirait
3290,1,sots
3291,1,sottise
3292,1,souci
3293,1,souciaient
3294,1,souffle
3295,1,souffleta
3296,1,souffrais
3297,1,souffrante
3298,1,soulagé
3299,1,soulevai
3300,1,soulevant
3301,1,soulever
3302,1,soulèvement
3303,1,soupait
3304,1,soupir
3305,1,soupirs
3306,1,soupçon
3307,1,soupçonner
3308,1,soupé
3309,1,sourcilière
3310,1,sourcils
3311,1,soustraire
3312,1,soutenant
3313,1,soutiré
3314,1,souvenirs
3315,1,souveraineté
3316,1,spasmes
3317,1,spencer
3318,1,stupeur
3319,1,stupides
3320,1,stupéfié
3321,1,stupéfiée
3322,1,suavement
3323,1,subite
3324,1,submergeait
3325,1,succions
3326,1,succéder
3327,1,suicide
3328,1,suivait
3329,1,suivant
3330,1,suivi
3331,1,suivirent
3332,1,sultans
3333,1,superficielle
3334,1,suppliciantes
3335,1,supprimé
3336,1,suraigu
3337,1,surgir
3338,1,surgit
3339,1,surhumain
3340,1,surnaturelle
3341,1,surnaturellement
3342,1,surprit
3343,1,sursaut
3344,1,sus
3345,1,suspecter
3346,1,suspendant
3347,1,sèche
3348,1,séance
3349,1,séduit
3350,1,séjour
3351,1,séparait
3352,1,sûre
3353,1,sûres
3354,1,sœur
3355,1,tabac
3356,1,tableaux
3357,1,tables
3358,1,taillés
3359,1,tamisée
3360,1,tardif
3361,1,tas
3362,1,tassée
3363,1,tel
3364,1,tempe
3365,1,tempes
3366,1,tempête
3367,1,tenant
3368,1,tenante
3369,1,tendue
3370,1,tenir
3371,1,termes
3372,1,terminer
3373,1,terriblement
3374,1,terrifiant
3375,1,thaumaturges
3376,1,thomassin
3377,1,tient
3378,1,timbré
3379,1,timbrée
3380,1,timidité
3381,1,tintèrent
3382,1,tira
3383,1,tirai
3384,1,tirait
3385,1,tirebouchonné
3386,1,tirer
3387,1,tiroirs
3388,1,titus
3389,1,tiédir
3390,1,toits
3391,1,tombaient
3392,1,tombe
3393,1,tondit
3394,1,tondu
3395,1,tonné
3396,1,torchées
3397,1,tordais
3398,1,torsion
3399,1,tortillée
3400,1,touchais
3401,1,touchait
3402,1,touchant
3403,1,toucher
3404,1,touché
3405,1,toupie
3406,1,tourmenté
3407,1,tournés
3408,1,tragique
3409,1,trahissait
3410,1,train
3411,1,traitent
3412,1,traits
3413,1,traités
3414,1,tranchait
3415,1,tranchée
3416,1,transis
3417,1,transissait
3418,1,transparences
3419,1,transpirait
3420,1,transports
3421,1,travail
3422,1,travaillent
3423,1,travaillé
3424,1,traversa
3425,1,traversait
3426,1,traversé
3427,1,traversée
3428,1,traîna
3429,1,traînard
3430,1,traîné
3431,1,traînés
3432,1,tremblait
3433,1,tremblement
3434,1,trembler
3435,1,tricoter
3436,1,triomphant
3437,1,trompait
3438,1,tromperiez
3439,1,trompette
3440,1,trompions
3441,1,trompée
3442,1,trottaient
3443,1,trou
3444,1,troublait
3445,1,troupe
3446,1,trouva
3447,1,trouvais
3448,1,trouvera
3449,1,trouverait
3450,1,trépassée
3451,1,tua
3452,1,tuant
3453,1,tuileries
3454,1,tumulte
3455,1,turcs
3456,1,tut
3457,1,tuée
3458,1,type
3459,1,tâtonnant
3460,1,tâtons
3461,1,témérité
3462,1,ténèbres
3463,1,tétât
3464,1,tôt
3465,1,uniformes
3466,1,utopiquement
3467,1,v
3468,1,vague
3469,1,vain
3470,1,vaincue
3471,1,vainement
3472,1,vais
3473,1,valeter
3474,1,valeur
3475,1,vantés
3476,1,vapeur
3477,1,vas
3478,1,vaste
3479,1,vaut
3480,1,veillent
3481,1,veiller
3482,1,veilles
3483,1,velasquez
3484,1,velours
3485,1,venais
3486,1,vent
3487,1,ventre
3488,1,verdâtres
3489,1,vermillon
3490,1,vernis
3491,1,verrez
3492,1,verriez
3493,1,versa
3494,1,verser
3495,1,vert
3496,1,verte
3497,1,verts
3498,1,vertébrale
3499,1,veuvage
3500,1,veuve
3501,1,vibrante
3502,1,vidais
3503,1,vidait
3504,1,vident
3505,1,vieillesse
3506,1,viendra
3507,1,viendrait
3508,1,viens
3509,1,vigoureux
3510,1,vint
3511,1,violemment
3512,1,violente
3513,1,violentes
3514,1,violet
3515,1,violée
3516,1,viotti
3517,1,virginité
3518,1,vision
3519,1,visions
3520,1,visiter
3521,1,visse
3522,1,vivante
3523,1,vivement
3524,1,vivent
3525,1,voilait
3526,1,voiles
3527,1,vois
3528,1,voisinage
3529,1,voisine
3530,1,voisines
3531,1,voisins
3532,1,voitures
3533,1,volant
3534,1,voler
3535,1,voleur
3536,1,voleurs
3537,1,volontiers
3538,1,volontés
3539,1,voluptueusement
3540,1,volés
3541,1,vos
3542,1,voudrait
3543,1,voulaient
3544,1,voulait
3545,1,voulut
3546,1,voyagent
3547,1,voyager
3548,1,voyagé
3549,1,voyaient
3550,1,voyais
3551,1,voyions
3552,1,voyons
3553,1,vraie
3554,1,vraiment
3555,1,vues
3556,1,vulgairement
3557,1,vus
3558,1,vécu
3559,1,vécus
3560,1,vérité
3561,1,vînt
3562,1,wagon
3563,1,werther
3564,1,x
3565,1,xixe
3566,1,xvie
3567,1,âgé
3568,1,âgés
3569,1,ça
3570,1,çà
3571,1,écartai
3572,1,échangea
3573,1,échapper
3574,1,échappé
3575,1,éclairait
3576,1,éclairer
3577,1,écouta
3578,1,écoutai
3579,1,écoutais
3580,1,écoutant
3581,1,écouter
3582,1,écoutez
3583,1,écrit
3584,1,écrivais
3585,1,écrivait
3586,1,écrivis
3587,1,écriée
3588,1,écroulement
3589,1,éducation
3590,1,égards
3591,1,élancer
3592,1,élançai
3593,1,élançâmes
3594,1,élevée
3595,1,éloignée
3596,1,éloquente
3597,1,élèves
3598,1,élégamment
3599,1,élégance
3600,1,élévation
3601,1,émail
3602,1,émeute
3603,1,émotions
3604,1,ému
3605,1,énergique
3606,1,énigmatique
3607,1,énorme
3608,1,épagneul
3609,1,épais
3610,1,épaisse
3611,1,épaisseur
3612,1,éparpillait
3613,1,épiant
3614,1,épinglé
3615,1,épithètes
3616,1,épouser
3617,1,épouvanter
3618,1,éprouvai
3619,1,éprouvait
3620,1,éprouver
3621,1,éprouvées
3622,1,érectiles
3623,1,établissait
3624,1,étage
3625,1,éteindre
3626,1,étendaient
3627,1,étendait
3628,1,étendre
3629,1,étendu
3630,1,étendue
3631,1,éternelle
3632,1,étincelaient
3633,1,étincelants
3634,1,étoffe
3635,1,étoffé
3636,1,étoiles
3637,1,étonna
3638,1,étonnai
3639,1,étonner
3640,1,étouffer
3641,1,étouffée
3642,1,étranges
3643,1,étranglée
3644,1,étreignant
3645,1,étroite
3646,1,étroites
3647,1,étudiiez
3648,1,évanoui
3649,1,éveillait
3650,1,éveillent
3651,1,éveiller
3652,1,éventail
3653,1,évidence
3654,1,évident
3655,1,évita
3656,1,évitait
3657,1,évite
3658,1,éviter
3659,1,êtres
3660,1,ôta
