#Word Types: 4860
#Word Tokens: 23323
#Search Hits: 0
1	966	de	
2	623	la	
3	569	le	
4	514	l	
5	513	et	
6	436	les	
7	428	à	
8	367	un	
9	346	il	
10	328	d	
11	302	qui	
12	275	en	
13	234	une	
14	233	des	
15	230	vous	
16	227	que	
17	218	dans	
18	178	par	
19	163	est	
20	161	se	
21	153	je	
22	151	du	
23	147	pour	
24	145	ce	
25	136	s	
26	135	son	
27	132	ne	
28	130	plus	
29	124	sa	
30	122	qu	
31	121	sur	
32	120	n	
33	118	pas	
34	113	au	
35	113	si	
36	109	cette	
37	106	ses	
38	105	lui	
39	96	a	
40	95	elle	
41	90	mais	
42	88	où	
43	86	gambara	
44	78	musique	
45	77	dit	
46	75	tout	
47	74	avec	
48	73	avait	
49	68	j	
50	65	ces	
51	65	homme	
52	65	marianna	
53	64	comte	
54	63	andrea	
55	62	femme	
56	62	nous	
57	58	était	
58	57	sans	
59	56	bien	
60	56	comme	
61	56	y	
62	53	me	
63	49	être	
64	47	aux	
65	44	deux	
66	44	votre	
67	42	grand	
68	40	giardini	
69	39	ai	
70	39	m	
71	39	mahomet	
72	39	ou	
73	38	moi	
74	37	dont	
75	37	mon	
76	37	opéra	
77	36	voix	
78	35	vie	
79	34	même	
80	34	tous	
81	33	avez	
82	33	cet	
83	33	faire	
84	33	leur	
85	33	ma	
86	33	quelques	
87	32	amour	
88	32	monde	
89	31	avoir	
90	31	car	
91	31	on	
92	31	point	
93	30	encore	
94	29	quand	
95	29	t	
96	28	après	
97	28	fait	
98	27	fut	
99	27	sous	
100	26	autre	
101	26	compositeur	
102	26	ont	
103	26	peu	
104	26	peut	
105	26	sont	
106	25	chœur	
107	25	robert	
108	25	tant	
109	25	toutes	
110	24	chez	
111	24	cuisinier	
112	24	pauvre	
113	24	toujours	
114	23	air	
115	23	majeur	
116	23	ni	
117	22	aussi	
118	22	belle	
119	22	enfin	
120	22	ils	
121	22	jamais	
122	22	laquelle	
123	22	mes	
124	22	temps	
125	21	celui	
126	21	là	
127	21	non	
128	21	yeux	
129	20	génie	
130	20	leurs	
131	20	rien	
132	19	depuis	
133	19	fit	
134	19	instruments	
135	19	mineur	
136	19	âme	
137	18	cœur	
138	18	entre	
139	18	esprit	
140	18	grande	
141	18	idées	
142	18	jusqu	
143	18	mari	
144	18	moins	
145	18	premier	
146	17	ainsi	
147	17	art	
148	17	eût	
149	17	fois	
150	17	harmonie	
151	17	hommes	
152	17	orchestre	
153	17	pendant	
154	17	quelque	
155	17	toute	
156	17	ut	
157	17	voici	
158	17	œuvre	
159	16	alors	
160	16	c	
161	16	moment	
162	16	monsieur	
163	16	paris	
164	16	regard	
165	16	reprit	
166	16	suis	
167	16	été	
168	15	donc	
169	15	ici	
170	15	musicien	
171	15	science	
172	15	trop	
173	15	tête	
174	15	écria	
175	14	assez	
176	14	basse	
177	14	bon	
178	14	elles	
179	14	femmes	
180	14	gens	
181	14	instrument	
182	14	jour	
183	14	mal	
184	14	pensée	
185	14	souvent	
186	14	vin	
187	14	étaient	
188	13	artiste	
189	13	beaucoup	
190	13	beethoven	
191	13	chants	
192	13	dernier	
193	13	diable	
194	13	fort	
195	13	maison	
196	13	noble	
197	13	répondit	
198	13	seul	
199	13	signor	
200	13	soir	
201	13	vers	
202	12	bertram	
203	12	bientôt	
204	12	celle	
205	12	ceux	
206	12	devant	
207	12	dieu	
208	12	déjà	
209	12	excellence	
210	12	italie	
211	12	jeune	
212	12	lieu	
213	12	longtemps	
214	12	notre	
215	12	poésie	
216	12	première	
217	12	quelle	
218	12	rue	
219	12	table	
220	12	voilà	
221	11	ans	
222	11	bémol	
223	11	ciel	
224	11	compris	
225	11	croire	
226	11	dire	
227	11	faut	
228	11	feu	
229	11	italienne	
230	11	lois	
231	11	misère	
232	11	mouvement	
233	11	mélodie	
234	11	oreille	
235	11	passion	
236	11	prophète	
237	11	près	
238	11	puis	
239	11	sens	
240	10	acte	
241	10	aime	
242	10	alice	
243	10	arrive	
244	10	avaient	
245	10	commence	
246	10	contre	
247	10	coup	
248	10	don	
249	10	expression	
250	10	fa	
251	10	faisait	
252	10	fille	
253	10	heure	
254	10	intelligence	
255	10	juan	
256	10	loin	
257	10	lutte	
258	10	mis	
259	10	musical	
260	10	nature	
261	10	parler	
262	10	poète	
263	10	quatre	
264	10	quel	
265	10	riche	
266	10	rossini	
267	10	scène	
268	10	sol	
269	10	thème	
270	10	vient	
271	10	voulait	
272	9	ailleurs	
273	9	autant	
274	9	autres	
275	9	comment	
276	9	entendre	
277	9	finale	
278	9	folie	
279	9	français	
280	9	heureux	
281	9	italien	
282	9	lequel	
283	9	meyerbeer	
284	9	mi	
285	9	mieux	
286	9	milieu	
287	9	montre	
288	9	mot	
289	9	mots	
290	9	mozart	
291	9	or	
292	9	parut	
293	9	pays	
294	9	plein	
295	9	père	
296	9	quoi	
297	9	raison	
298	9	religion	
299	9	situation	
300	9	sorte	
301	9	sublime	
302	9	triomphe	
303	9	vieux	
304	9	vint	
305	9	voyez	
306	9	êtes	
307	8	afin	
308	8	ami	
309	8	aujourd	
310	8	beau	
311	8	but	
312	8	cadhige	
313	8	cependant	
314	8	chant	
315	8	chaque	
316	8	cher	
317	8	convives	
318	8	devait	
319	8	donné	
320	8	dès	
321	8	enfer	
322	8	entendez	
323	8	fantaisie	
324	8	fils	
325	8	gloire	
326	8	grands	
327	8	hui	
328	8	inconnue	
329	8	lumière	
330	8	magnifique	
331	8	main	
332	8	malheur	
333	8	mille	
334	8	musicale	
335	8	notes	
336	8	oui	
337	8	passer	
338	8	personne	
339	8	piano	
340	8	pitié	
341	8	pouvait	
342	8	seule	
343	8	théâtre	
344	8	vos	
345	7	abord	
346	7	allemagne	
347	7	aller	
348	7	aspect	
349	7	aurait	
350	7	avant	
351	7	belles	
352	7	chose	
353	7	corps	
354	7	costume	
355	7	crut	
356	7	cuisine	
357	7	demanda	
358	7	divine	
359	7	doit	
360	7	dominante	
361	7	donne	
362	7	duo	
363	7	effets	
364	7	eu	
365	7	eut	
366	7	exprimer	
367	7	exécution	
368	7	fond	
369	7	font	
370	7	forces	
371	7	foule	
372	7	froidmanteau	
373	7	hôte	
374	7	idée	
375	7	intérêt	
376	7	malheureux	
377	7	morceau	
378	7	motifs	
379	7	musicales	
380	7	napolitain	
381	7	paolo	
382	7	peuple	
383	7	place	
384	7	porte	
385	7	prière	
386	7	profonde	
387	7	pu	
388	7	quoique	
389	7	sons	
390	7	sourire	
391	7	succès	
392	7	talent	
393	7	travail	
394	7	trois	
395	7	trouva	
396	7	va	
397	7	vit	
398	7	voir	
399	7	vu	
400	7	âmes	
401	7	état	
402	6	ah	
403	6	ange	
404	6	anges	
405	6	appartement	
406	6	appelle	
407	6	arabes	
408	6	arrivent	
409	6	avais	
410	6	beauté	
411	6	beaux	
412	6	certes	
413	6	demi	
414	6	difficile	
415	6	digne	
416	6	disait	
417	6	donner	
418	6	doute	
419	6	efforts	
420	6	enfance	
421	6	ensemble	
422	6	entendu	
423	6	eux	
424	6	fallait	
425	6	formes	
426	6	fou	
427	6	grandeur	
428	6	grâce	
429	6	hasard	
430	6	honneur	
431	6	horrible	
432	6	jeté	
433	6	leva	
434	6	maître	
435	6	merveilleuse	
436	6	mort	
437	6	mère	
438	6	nom	
439	6	nos	
440	6	palais	
441	6	parce	
442	6	partie	
443	6	partition	
444	6	pauvres	
445	6	peine	
446	6	phrases	
447	6	premiers	
448	6	prendre	
449	6	principes	
450	6	produire	
451	6	puissance	
452	6	quelles	
453	6	quels	
454	6	rendit	
455	6	second	
456	6	seigneur	
457	6	sentiments	
458	6	sera	
459	6	service	
460	6	seulement	
461	6	sujet	
462	6	traits	
463	6	troublée	
464	6	trouvait	
465	6	trouver	
466	6	vingt	
467	6	vins	
468	6	visage	
469	6	vive	
470	6	vue	
471	6	étranger	
472	6	œil	
473	5	aisance	
474	5	amoureux	
475	5	arrivée	
476	5	arrière	
477	5	attention	
478	5	autour	
479	5	ayant	
480	5	bonheur	
481	5	cavatine	
482	5	cent	
483	5	chanter	
484	5	chef	
485	5	cinq	
486	5	composition	
487	5	comprendre	
488	5	connaître	
489	5	célestes	
490	5	dessus	
491	5	doigts	
492	5	donnait	
493	5	donnent	
494	5	double	
495	5	douce	
496	5	drame	
497	5	délices	
498	5	démons	
499	5	effet	
500	5	entier	
501	5	entra	
502	5	entrer	
503	5	espoir	
504	5	face	
505	5	faisant	
506	5	faite	
507	5	fin	
508	5	francs	
509	5	furent	
510	5	humaines	
511	5	hôtel	
512	5	imagination	
513	5	immense	
514	5	innovations	
515	5	italiens	
516	5	jouer	
517	5	laisser	
518	5	laissé	
519	5	langue	
520	5	lève	
521	5	malgré	
522	5	malheurs	
523	5	manière	
524	5	marche	
525	5	marcosini	
526	5	mauvais	
527	5	mets	
528	5	mettre	
529	5	milanais	
530	5	mélancolie	
531	5	mêmes	
532	5	nouveau	
533	5	nuit	
534	5	offrir	
535	5	oh	
536	5	opéras	
537	5	oreilles	
538	5	part	
539	5	patrie	
540	5	perdu	
541	5	petits	
542	5	pièce	
543	5	plaisanterie	
544	5	plusieurs	
545	5	pouvoir	
546	5	propre	
547	5	regrattier	
548	5	rendre	
549	5	reste	
550	5	récitatif	
551	5	sait	
552	5	sentiment	
553	5	serai	
554	5	serait	
555	5	servi	
556	5	signora	
557	5	soit	
558	5	souvenir	
559	5	suivant	
560	5	taille	
561	5	terre	
562	5	terrible	
563	5	ton	
564	5	tour	
565	5	troisième	
566	5	trésors	
567	5	unique	
568	5	veut	
569	5	veux	
570	5	voulu	
571	5	voyait	
572	5	voyant	
573	5	vrai	
574	5	vérité	
575	5	élevé	
576	5	époux	
577	4	aboubecker	
578	4	absorbé	
579	4	abîme	
580	4	accords	
581	4	aiesha	
582	4	aiment	
583	4	airs	
584	4	ait	
585	4	ali	
586	4	alla	
587	4	allemand	
588	4	allez	
589	4	amant	
590	4	années	
591	4	aperçu	
592	4	arrêta	
593	4	aucune	
594	4	auprès	
595	4	auquel	
596	4	aura	
597	4	aussitôt	
598	4	auteur	
599	4	avance	
600	4	bizarre	
601	4	boire	
602	4	causait	
603	4	chambre	
604	4	champagne	
605	4	chercher	
606	4	choses	
607	4	commencé	
608	4	composer	
609	4	compositeurs	
610	4	connu	
611	4	conversation	
612	4	couleur	
613	4	courage	
614	4	crois	
615	4	croyants	
616	4	créé	
617	4	demande	
618	4	di	
619	4	différents	
620	4	diverses	
621	4	dièse	
622	4	désir	
623	4	détache	
624	4	eau	
625	4	effort	
626	4	empire	
627	4	emploie	
628	4	entends	
629	4	entrant	
630	4	espérance	
631	4	espérances	
632	4	expliquer	
633	4	extase	
634	4	fil	
635	4	filles	
636	4	fini	
637	4	force	
638	4	forme	
639	4	france	
640	4	gagner	
641	4	grandes	
642	4	grave	
643	4	générale	
644	4	harmonies	
645	4	heures	
646	4	hier	
647	4	histoire	
648	4	huit	
649	4	humaine	
650	4	héroïque	
651	4	inspiration	
652	4	isabelle	
653	4	ivre	
654	4	ivresse	
655	4	jeta	
656	4	jeu	
657	4	jeunes	
658	4	jeunesse	
659	4	larmes	
660	4	lendemain	
661	4	lèvres	
662	4	légèrement	
663	4	madame	
664	4	maintenant	
665	4	malade	
666	4	manteau	
667	4	martyrs	
668	4	mathématiques	
669	4	matinée	
670	4	mauvaise	
671	4	mecque	
672	4	misérable	
673	4	mit	
674	4	moyens	
675	4	mélodies	
676	4	ménage	
677	4	naturel	
678	4	nez	
679	4	ouvert	
680	4	pain	
681	4	paraissait	
682	4	parlez	
683	4	parties	
684	4	passionnée	
685	4	passions	
686	4	passé	
687	4	peinture	
688	4	pensées	
689	4	permettez	
690	4	personnage	
691	4	pied	
692	4	placé	
693	4	plaisir	
694	4	plan	
695	4	plutôt	
696	4	points	
697	4	posa	
698	4	pourquoi	
699	4	poème	
700	4	premières	
701	4	presque	
702	4	produit	
703	4	proie	
704	4	proportions	
705	4	puissante	
706	4	reconnaître	
707	4	reconnu	
708	4	regarda	
709	4	rencontré	
710	4	repas	
711	4	ressources	
712	4	restaurant	
713	4	retenir	
714	4	ridicule	
715	4	rome	
716	4	royal	
717	4	ré	
718	4	réalité	
719	4	récit	
720	4	saint	
721	4	saisi	
722	4	salle	
723	4	semble	
724	4	sensations	
725	4	sentait	
726	4	sert	
727	4	simple	
728	4	sombre	
729	4	sortit	
730	4	suivi	
731	4	surtout	
732	4	tandis	
733	4	tantôt	
734	4	tard	
735	4	trente	
736	4	triomphes	
737	4	très	
738	4	venait	
739	4	venez	
740	4	verre	
741	4	vertu	
742	4	vieillard	
743	4	vogue	
744	4	voulez	
745	4	école	
746	4	écrit	
747	4	émotions	
748	4	énergie	
749	4	époque	
750	4	étonnement	
751	3	abandonner	
752	3	absence	
753	3	abus	
754	3	accents	
755	3	accepter	
756	3	acclamations	
757	3	adore	
758	3	ailes	
759	3	aimable	
760	3	aimait	
761	3	aimer	
762	3	aimé	
763	3	aimée	
764	3	ajouta	
765	3	allegro	
766	3	angoisses	
767	3	annonce	
768	3	apparence	
769	3	arabie	
770	3	arriver	
771	3	arrivé	
772	3	arrêter	
773	3	arts	
774	3	assis	
775	3	attitude	
776	3	aucun	
777	3	aurais	
778	3	autrement	
779	3	avons	
780	3	bleu	
781	3	bonne	
782	3	bonnes	
783	3	bornes	
784	3	bourgeoise	
785	3	bras	
786	3	brave	
787	3	brusquement	
788	3	calme	
789	3	causa	
790	3	causes	
791	3	cela	
792	3	celles	
793	3	cesse	
794	3	chante	
795	3	chapeau	
796	3	charme	
797	3	chemin	
798	3	chevalerie	
799	3	chevaliers	
800	3	chimère	
801	3	ci	
802	3	coin	
803	3	combat	
804	3	commençait	
805	3	commun	
806	3	compositions	
807	3	composé	
808	3	comprenez	
809	3	compte	
810	3	connais	
811	3	construction	
812	3	contraint	
813	3	contredanses	
814	3	convenable	
815	3	couleurs	
816	3	crescendo	
817	3	cri	
818	3	croit	
819	3	croyant	
820	3	cruel	
821	3	cuivres	
822	3	céleste	
823	3	côté	
824	3	dehors	
825	3	demain	
826	3	devenu	
827	3	disant	
828	3	discussion	
829	3	dissonances	
830	3	dites	
831	3	divin	
832	3	doivent	
833	3	donna	
834	3	douceur	
835	3	douze	
836	3	droite	
837	3	duquel	
838	3	défaut	
839	3	dégoût	
840	3	dérobée	
841	3	détails	
842	3	développent	
843	3	développer	
844	3	dévouement	
845	3	dîner	
846	3	eh	
847	3	embarras	
848	3	enchantements	
849	3	enfant	
850	3	enfers	
851	3	enfuit	
852	3	entière	
853	3	entrailles	
854	3	escalier	
855	3	essais	
856	3	exactes	
857	3	existe	
858	3	facteur	
859	3	facultés	
860	3	faiblesse	
861	3	fidèle	
862	3	figures	
863	3	finit	
864	3	frais	
865	3	front	
866	3	fréquentes	
867	3	fût	
868	3	gabriel	
869	3	galante	
870	3	gauche	
871	3	genre	
872	3	giro	
873	3	gluck	
874	3	goût	
875	3	grâces	
876	3	guerrière	
877	3	généreux	
878	3	habile	
879	3	hafsa	
880	3	heureuse	
881	3	hors	
882	3	immenses	
883	3	inconnu	
884	3	inconnues	
885	3	infernal	
886	3	inspiré	
887	3	janvier	
888	3	joie	
889	3	journaux	
890	3	journée	
891	3	jugement	
892	3	juger	
893	3	jérusalem	
894	3	laissa	
895	3	laissez	
896	3	lesquelles	
897	3	lesquels	
898	3	lit	
899	3	lueur	
900	3	luxe	
901	3	légèreté	
902	3	maestro	
903	3	magistrats	
904	3	mains	
905	3	majestueuse	
906	3	malicieux	
907	3	manie	
908	3	marches	
909	3	marcia	
910	3	maîtres	
911	3	meilleur	
912	3	messe	
913	3	met	
914	3	mettait	
915	3	modifié	
916	3	mois	
917	3	moments	
918	3	morceaux	
919	3	moyen	
920	3	mélancolique	
921	3	mœurs	
922	3	naturelle	
923	3	noirs	
924	3	nommait	
925	3	nouveaux	
926	3	nouvelle	
927	3	nouvelles	
928	3	né	
929	3	néanmoins	
930	3	offre	
931	3	omar	
932	3	opposer	
933	3	opposition	
934	3	orgie	
935	3	orgueil	
936	3	ottoboni	
937	3	ouverture	
938	3	paraît	
939	3	parfois	
940	3	parisien	
941	3	parisiens	
942	3	parlé	
943	3	parole	
944	3	partitions	
945	3	passe	
946	3	paternité	
947	3	paul	
948	3	payer	
949	3	pencha	
950	3	pense	
951	3	percer	
952	3	permettait	
953	3	peuvent	
954	3	phrase	
955	3	physiques	
956	3	plaintes	
957	3	plat	
958	3	pleins	
959	3	plupart	
960	3	police	
961	3	politique	
962	3	poussa	
963	3	poussé	
964	3	poêle	
965	3	princesse	
966	3	pris	
967	3	prise	
968	3	prit	
969	3	procèdent	
970	3	projets	
971	3	promet	
972	3	propres	
973	3	précautions	
974	3	puissances	
975	3	pure	
976	3	put	
977	3	quarante	
978	3	quart	
979	3	quitte	
980	3	quitter	
981	3	raimbaut	
982	3	rappeler	
983	3	rare	
984	3	recevoir	
985	3	recherches	
986	3	regards	
987	3	religieuse	
988	3	religions	
989	3	rentre	
990	3	reproduire	
991	3	restait	
992	3	restaurateur	
993	3	rester	
994	3	retour	
995	3	revenir	
996	3	revient	
997	3	revint	
998	3	riant	
999	3	richesses	
1000	3	romance	
1001	3	rythme	
1002	3	récompense	
1003	3	réflexion	
1004	3	réfugiés	
1005	3	répond	
1006	3	répondre	
1007	3	répugnance	
1008	3	réputation	
1009	3	rêvé	
1010	3	rôle	
1011	3	sainte	
1012	3	sais	
1013	3	saisit	
1014	3	savoir	
1015	3	secours	
1016	3	secret	
1017	3	selon	
1018	3	semblable	
1019	3	semblait	
1020	3	septièmes	
1021	3	silence	
1022	3	simplicité	
1023	3	singulière	
1024	3	six	
1025	3	solo	
1026	3	sommes	
1027	3	songé	
1028	3	soprano	
1029	3	sortir	
1030	3	soudaines	
1031	3	soutenu	
1032	3	souvenirs	
1033	3	sphère	
1034	3	splendide	
1035	3	substance	
1036	3	surpris	
1037	3	surprise	
1038	3	sympathies	
1039	3	symphonie	
1040	3	séparer	
1041	3	tableau	
1042	3	talents	
1043	3	tempo	
1044	3	tenir	
1045	3	théories	
1046	3	tiennent	
1047	3	tombait	
1048	3	touches	
1049	3	transition	
1050	3	transitions	
1051	3	travailler	
1052	3	travaux	
1053	3	travers	
1054	3	trio	
1055	3	trouve	
1056	3	trouvé	
1057	3	tuer	
1058	3	vaincre	
1059	3	vais	
1060	3	velours	
1061	3	vendu	
1062	3	vent	
1063	3	venu	
1064	3	verres	
1065	3	viennent	
1066	3	violent	
1067	3	vivement	
1068	3	vivre	
1069	3	voie	
1070	3	vois	
1071	3	volonté	
1072	3	voluptés	
1073	3	âge	
1074	3	éclatent	
1075	3	écoute	
1076	3	écoutez	
1077	3	écrire	
1078	3	également	
1079	3	élever	
1080	3	émotion	
1081	3	épicier	
1082	3	étais	
1083	3	éternellement	
1084	3	étiez	
1085	3	étonné	
1086	2	abondant	
1087	2	abstractions	
1088	2	accepte	
1089	2	accompagnait	
1090	2	accompagnée	
1091	2	accord	
1092	2	accorde	
1093	2	accueillies	
1094	2	accusait	
1095	2	accusé	
1096	2	acheter	
1097	2	adieu	
1098	2	adieux	
1099	2	admirable	
1100	2	admiration	
1101	2	adressant	
1102	2	adresse	
1103	2	affecte	
1104	2	agissait	
1105	2	agitation	
1106	2	aide	
1107	2	aiguille	
1108	2	aimez	
1109	2	allait	
1110	2	allant	
1111	2	alliance	
1112	2	allée	
1113	2	allégro	
1114	2	alpes	
1115	2	amants	
1116	2	ambassadeur	
1117	2	ambitieux	
1118	2	amené	
1119	2	an	
1120	2	analogues	
1121	2	anciens	
1122	2	andante	
1123	2	anime	
1124	2	animée	
1125	2	annoncent	
1126	2	annonçait	
1127	2	année	
1128	2	antagonisme	
1129	2	apparaît	
1130	2	appel	
1131	2	apprendre	
1132	2	approprier	
1133	2	appuyant	
1134	2	appuyé	
1135	2	architecture	
1136	2	arracher	
1137	2	arriva	
1138	2	arrêtait	
1139	2	artistes	
1140	2	asseoir	
1141	2	assister	
1142	2	assit	
1143	2	assure	
1144	2	assurément	
1145	2	attaché	
1146	2	attaques	
1147	2	atteint	
1148	2	attendant	
1149	2	auditeur	
1150	2	auditeurs	
1151	2	autel	
1152	2	auteurs	
1153	2	autorité	
1154	2	autriche	
1155	2	avalanche	
1156	2	aventure	
1157	2	aventures	
1158	2	aviez	
1159	2	bacchanale	
1160	2	bafouaient	
1161	2	ballade	
1162	2	beautés	
1163	2	blanche	
1164	2	blasé	
1165	2	bois	
1166	2	bons	
1167	2	bouchée	
1168	2	bouffons	
1169	2	bourse	
1170	2	bravoure	
1171	2	brillant	
1172	2	brillante	
1173	2	brune	
1174	2	bu	
1175	2	buffet	
1176	2	cachés	
1177	2	cadence	
1178	2	cadences	
1179	2	califes	
1180	2	calmer	
1181	2	camp	
1182	2	caprice	
1183	2	cas	
1184	2	catholique	
1185	2	ceci	
1186	2	cents	
1187	2	certain	
1188	2	cerveau	
1189	2	cerveaux	
1190	2	chacun	
1191	2	chagrin	
1192	2	chaise	
1193	2	champs	
1194	2	changement	
1195	2	chanta	
1196	2	chassé	
1197	2	cherchant	
1198	2	chevalier	
1199	2	choisie	
1200	2	chrétien	
1201	2	chrétiens	
1202	2	chère	
1203	2	chœurs	
1204	2	circonstance	
1205	2	clairement	
1206	2	clartés	
1207	2	colère	
1208	2	combien	
1209	2	commença	
1210	2	communiquer	
1211	2	comparable	
1212	2	complaisance	
1213	2	composais	
1214	2	comprend	
1215	2	comprennent	
1216	2	concourent	
1217	2	conditions	
1218	2	conduire	
1219	2	conduite	
1220	2	confiance	
1221	2	connaissait	
1222	2	consoler	
1223	2	construit	
1224	2	contraste	
1225	2	cordes	
1226	2	coups	
1227	2	coupé	
1228	2	cour	
1229	2	couronne	
1230	2	couronner	
1231	2	cours	
1232	2	course	
1233	2	courte	
1234	2	coutume	
1235	2	couvert	
1236	2	craindre	
1237	2	cris	
1238	2	croient	
1239	2	croyait	
1240	2	croyez	
1241	2	cru	
1242	2	création	
1243	2	crédit	
1244	2	crémone	
1245	2	curieux	
1246	2	césar	
1247	2	danger	
1248	2	dansent	
1249	2	davantage	
1250	2	demander	
1251	2	demeure	
1252	2	dernière	
1253	2	destiné	
1254	2	devient	
1255	2	devions	
1256	2	devoirs	
1257	2	difficultés	
1258	2	différentes	
1259	2	dignité	
1260	2	dilettante	
1261	2	diminuées	
1262	2	dirai	
1263	2	dirigea	
1264	2	dis	
1265	2	discordances	
1266	2	disent	
1267	2	dispositions	
1268	2	distinctions	
1269	2	distraire	
1270	2	divines	
1271	2	dix	
1272	2	dois	
1273	2	domination	
1274	2	donnant	
1275	2	donnés	
1276	2	douces	
1277	2	douceurs	
1278	2	douleur	
1279	2	doux	
1280	2	doué	
1281	2	dramatique	
1282	2	dupe	
1283	2	durent	
1284	2	débris	
1285	2	début	
1286	2	déchaînées	
1287	2	déclamation	
1288	2	dédaigneusement	
1289	2	délivrée	
1290	2	démarche	
1291	2	démon	
1292	2	dénouement	
1293	2	dépassé	
1294	2	dépouillé	
1295	2	désespoir	
1296	2	développa	
1297	2	développé	
1298	2	dévoué	
1299	2	dû	
1300	2	emploi	
1301	2	empreinte	
1302	2	empressement	
1303	2	empêche	
1304	2	empêcher	
1305	2	enragé	
1306	2	entendant	
1307	2	entendue	
1308	2	entrevoir	
1309	2	entrevu	
1310	2	entrée	
1311	2	environ	
1312	2	envole	
1313	2	erreur	
1314	2	espèce	
1315	2	essence	
1316	2	estomac	
1317	2	eus	
1318	2	eussent	
1319	2	eussiez	
1320	2	examiner	
1321	2	excitation	
1322	2	exclamations	
1323	2	exemple	
1324	2	exige	
1325	2	existences	
1326	2	exprimait	
1327	2	exprime	
1328	2	expériences	
1329	2	exécuter	
1330	2	facile	
1331	2	facilement	
1332	2	faisaient	
1333	2	fantastique	
1334	2	farouche	
1335	2	fatigue	
1336	2	faudrait	
1337	2	fausse	
1338	2	fenêtre	
1339	2	fera	
1340	2	ferait	
1341	2	ferons	
1342	2	figure	
1343	2	fioritures	
1344	2	fis	
1345	2	fière	
1346	2	foi	
1347	2	folies	
1348	2	fonctions	
1349	2	fondé	
1350	2	forment	
1351	2	fortes	
1352	2	fortune	
1353	2	française	
1354	2	fraîches	
1355	2	fromage	
1356	2	frémir	
1357	2	fuir	
1358	2	fureur	
1359	2	fus	
1360	2	fusées	
1361	2	fébrile	
1362	2	gagne	
1363	2	gaiement	
1364	2	galant	
1365	2	galerie	
1366	2	garde	
1367	2	gaz	
1368	2	gentilhomme	
1369	2	geste	
1370	2	glissa	
1371	2	glorieusement	
1372	2	gosier	
1373	2	gouvernement	
1374	2	goûté	
1375	2	gracieux	
1376	2	grains	
1377	2	grandeurs	
1378	2	grandiose	
1379	2	gras	
1380	2	gravité	
1381	2	greniers	
1382	2	grisait	
1383	2	grisette	
1384	2	grotesque	
1385	2	génies	
1386	2	général	
1387	2	générosité	
1388	2	habilement	
1389	2	habileté	
1390	2	habiter	
1391	2	habitués	
1392	2	haendel	
1393	2	harmoniques	
1394	2	haut	
1395	2	hautes	
1396	2	haydn	
1397	2	horreur	
1398	2	houris	
1399	2	humides	
1400	2	hé	
1401	2	héros	
1402	2	hésitait	
1403	2	hôtes	
1404	2	idéal	
1405	2	idéalisme	
1406	2	illusion	
1407	2	imaginez	
1408	2	importe	
1409	2	impossible	
1410	2	impression	
1411	2	impressions	
1412	2	inclina	
1413	2	indique	
1414	2	infernale	
1415	2	infernales	
1416	2	infinies	
1417	2	infortunes	
1418	2	inspira	
1419	2	inspirations	
1420	2	instant	
1421	2	instants	
1422	2	instinct	
1423	2	instruction	
1424	2	instrumental	
1425	2	interroger	
1426	2	interrompit	
1427	2	interrompu	
1428	2	intimes	
1429	2	introduction	
1430	2	introduit	
1431	2	inventeur	
1432	2	invocation	
1433	2	ironie	
1434	2	jetait	
1435	2	jetant	
1436	2	joies	
1437	2	joues	
1438	2	jouet	
1439	2	journaliste	
1440	2	jours	
1441	2	joyeux	
1442	2	juive	
1443	2	juste	
1444	2	jésus	
1445	2	khaled	
1446	2	laissaient	
1447	2	laissait	
1448	2	laissant	
1449	2	laisse	
1450	2	laisserait	
1451	2	langage	
1452	2	large	
1453	2	lazzi	
1454	2	lever	
1455	2	liberté	
1456	2	libretti	
1457	2	libretto	
1458	2	lire	
1459	2	liszt	
1460	2	livrer	
1461	2	livres	
1462	2	logement	
1463	2	long	
1464	2	longues	
1465	2	lors	
1466	2	lorsqu	
1467	2	magie	
1468	2	magnétique	
1469	2	maigre	
1470	2	manger	
1471	2	manque	
1472	2	marchait	
1473	2	marché	
1474	2	massimilla	
1475	2	matin	
1476	2	matérielle	
1477	2	maîtresse	
1478	2	meilleure	
1479	2	merci	
1480	2	meurt	
1481	2	mienne	
1482	2	mine	
1483	2	mission	
1484	2	modulation	
1485	2	modulations	
1486	2	moindre	
1487	2	moindres	
1488	2	moiré	
1489	2	monotonie	
1490	2	monter	
1491	2	montra	
1492	2	motif	
1493	2	mourir	
1494	2	mousseline	
1495	2	musiciens	
1496	2	mystérieuse	
1497	2	médine	
1498	2	métallique	
1499	2	métier	
1500	2	mêlée	
1501	2	naissent	
1502	2	napolitaine	
1503	2	napoléon	
1504	2	nappe	
1505	2	nations	
1506	2	naïve	
1507	2	nerveux	
1508	2	neuf	
1509	2	noblesse	
1510	2	noir	
1511	2	noire	
1512	2	nombre	
1513	2	normandie	
1514	2	note	
1515	2	nuage	
1516	2	nuages	
1517	2	nuance	
1518	2	nulle	
1519	2	nécessaires	
1520	2	négligé	
1521	2	objets	
1522	2	obscure	
1523	2	observations	
1524	2	occasion	
1525	2	occuper	
1526	2	offrait	
1527	2	offrant	
1528	2	ombre	
1529	2	ondes	
1530	2	opinion	
1531	2	opinions	
1532	2	orage	
1533	2	organes	
1534	2	organisations	
1535	2	orgue	
1536	2	origine	
1537	2	osait	
1538	2	panharmonicon	
1539	2	papier	
1540	2	paradis	
1541	2	paraissez	
1542	2	pardon	
1543	2	pareil	
1544	2	pareille	
1545	2	parisienne	
1546	2	parlait	
1547	2	parle	
1548	2	parmi	
1549	2	parodie	
1550	2	paroles	
1551	2	particules	
1552	2	partout	
1553	2	patience	
1554	2	penser	
1555	2	perdre	
1556	2	perfection	
1557	2	permet	
1558	2	physique	
1559	2	pigeon	
1560	2	placer	
1561	2	plaisirs	
1562	2	pleurs	
1563	2	plis	
1564	2	plongé	
1565	2	plume	
1566	2	poitrine	
1567	2	politiques	
1568	2	polygamie	
1569	2	porteur	
1570	2	porté	
1571	2	posé	
1572	2	pourrait	
1573	2	poursuite	
1574	2	poursuivie	
1575	2	pousser	
1576	2	pouvez	
1577	2	pouvoirs	
1578	2	poèmes	
1579	2	poètes	
1580	2	poétique	
1581	2	prenait	
1582	2	prend	
1583	2	prenez	
1584	2	pressentir	
1585	2	prie	
1586	2	primo	
1587	2	prince	
1588	2	principe	
1589	2	procès	
1590	2	prodigieux	
1591	2	prodigue	
1592	2	profondeur	
1593	2	progrès	
1594	2	promptement	
1595	2	providence	
1596	2	précaution	
1597	2	précisément	
1598	2	préfère	
1599	2	présence	
1600	2	présentait	
1601	2	présente	
1602	2	prétendue	
1603	2	puisque	
1604	2	pâle	
1605	2	pères	
1606	2	quant	
1607	2	quelconque	
1608	2	questions	
1609	2	queue	
1610	2	quinte	
1611	2	rapidement	
1612	2	rapport	
1613	2	rarement	
1614	2	rattacher	
1615	2	ravissante	
1616	2	reconnaissait	
1617	2	reconnaissant	
1618	2	reconnut	
1619	2	reculé	
1620	2	regardait	
1621	2	relations	
1622	2	releva	
1623	2	remarquables	
1624	2	rencontre	
1625	2	rencontrer	
1626	2	rendez	
1627	2	rendu	
1628	2	reparaissent	
1629	2	reprend	
1630	2	reprochait	
1631	2	représentation	
1632	2	représente	
1633	2	respecter	
1634	2	ressemble	
1635	2	ressemblent	
1636	2	resta	
1637	2	restaurants	
1638	2	retrouva	
1639	2	retrouve	
1640	2	riches	
1641	2	ritournelle	
1642	2	rivaliser	
1643	2	roman	
1644	2	romances	
1645	2	rompre	
1646	2	rond	
1647	2	rouge	
1648	2	rougir	
1649	2	rougissant	
1650	2	roule	
1651	2	ruiné	
1652	2	réelle	
1653	2	régularité	
1654	2	régénération	
1655	2	répandre	
1656	2	répondent	
1657	2	réservé	
1658	2	résigner	
1659	2	résister	
1660	2	résolut	
1661	2	réveiller	
1662	2	rêve	
1663	2	rêves	
1664	2	sacrifier	
1665	2	sage	
1666	2	sagesse	
1667	2	saints	
1668	2	saisissez	
1669	2	salons	
1670	2	satisfaire	
1671	2	satisfait	
1672	2	saurai	
1673	2	sauta	
1674	2	savent	
1675	2	seconde	
1676	2	semblables	
1677	2	semi	
1678	2	sensualisme	
1679	2	sentant	
1680	2	septième	
1681	2	servir	
1682	2	seules	
1683	2	sextuor	
1684	2	sien	
1685	2	simplement	
1686	2	sincère	
1687	2	siècle	
1688	2	soient	
1689	2	soixante	
1690	2	soldats	
1691	2	somme	
1692	2	somnambule	
1693	2	sonore	
1694	2	sort	
1695	2	soudaine	
1696	2	souffrances	
1697	2	sourd	
1698	2	sourde	
1699	2	souriait	
1700	2	souriant	
1701	2	sourit	
1702	2	soutiendrais	
1703	2	soutiennent	
1704	2	spectacle	
1705	2	spirituelle	
1706	2	strette	
1707	2	style	
1708	2	suave	
1709	2	suaves	
1710	2	sublimes	
1711	2	substances	
1712	2	succession	
1713	2	suivre	
1714	2	supplice	
1715	2	supériorité	
1716	2	sut	
1717	2	symphonies	
1718	2	séduction	
1719	2	teintes	
1720	2	tel	
1721	2	telle	
1722	2	telles	
1723	2	tenait	
1724	2	tendresse	
1725	2	tente	
1726	2	tenue	
1727	2	terme	
1728	2	terrain	
1729	2	tes	
1730	2	théâtres	
1731	2	tient	
1732	2	tierce	
1733	2	timbales	
1734	2	tissu	
1735	2	toi	
1736	2	toilette	
1737	2	toits	
1738	2	tomba	
1739	2	tomber	
1740	2	tonner	
1741	2	torrents	
1742	2	touchante	
1743	2	tournoi	
1744	2	transporté	
1745	2	trompé	
1746	2	trouvent	
1747	2	trouvez	
1748	2	trouvât	
1749	2	trouvère	
1750	2	tu	
1751	2	tâcher	
1752	2	unes	
1753	2	union	
1754	2	unis	
1755	2	uns	
1756	2	usage	
1757	2	vaincu	
1758	2	valet	
1759	2	vaste	
1760	2	veille	
1761	2	veines	
1762	2	vertus	
1763	2	vibrations	
1764	2	vice	
1765	2	vieillie	
1766	2	viens	
1767	2	vierge	
1768	2	ville	
1769	2	vinrent	
1770	2	vives	
1771	2	vont	
1772	2	voulant	
1773	2	voulut	
1774	2	voyage	
1775	2	vraiment	
1776	2	vulgaires	
1777	2	vénitienne	
1778	2	véritables	
1779	2	vôtres	
1780	2	çà	
1781	2	échappait	
1782	2	échapper	
1783	2	éclairer	
1784	2	éclairée	
1785	2	éclat	
1786	2	éclate	
1787	2	écouta	
1788	2	écoutais	
1789	2	écoutant	
1790	2	écouter	
1791	2	écrivent	
1792	2	éducation	
1793	2	égal	
1794	2	élevée	
1795	2	émue	
1796	2	épileptique	
1797	2	épouvante	
1798	2	épouvanté	
1799	2	épreuve	
1800	2	épris	
1801	2	éprouvait	
1802	2	épuisé	
1803	2	épuisées	
1804	2	étage	
1805	2	éteignent	
1806	2	étend	
1807	2	étendit	
1808	2	éternelles	
1809	2	étrange	
1810	2	étudier	
1811	2	œillades	
1812	2	œuvres	
1813	1	abaisse	
1814	1	abandonnant	
1815	1	abandonné	
1816	1	abandonnée	
1817	1	abbaye	
1818	1	abbés	
1819	1	abdiquer	
1820	1	abdollah	
1821	1	abjurèrent	
1822	1	aboutissent	
1823	1	abri	
1824	1	absolu	
1825	1	absolutisme	
1826	1	absolutiste	
1827	1	absurde	
1828	1	absurdité	
1829	1	abusé	
1830	1	accablant	
1831	1	accentuation	
1832	1	acceptant	
1833	1	acceptez	
1834	1	accessible	
1835	1	accident	
1836	1	accidents	
1837	1	accompagna	
1838	1	accompagnant	
1839	1	accompagne	
1840	1	accompagnement	
1841	1	accompagnements	
1842	1	accompagner	
1843	1	accompagné	
1844	1	accompagnés	
1845	1	accompli	
1846	1	accordent	
1847	1	accordées	
1848	1	accoutument	
1849	1	accueilli	
1850	1	accueillie	
1851	1	accueillir	
1852	1	accéléré	
1853	1	acheté	
1854	1	achevant	
1855	1	achever	
1856	1	achèvent	
1857	1	acoustique	
1858	1	acquérir	
1859	1	action	
1860	1	actions	
1861	1	actuels	
1862	1	admettre	
1863	1	admirablement	
1864	1	admirateur	
1865	1	admire	
1866	1	admirez	
1867	1	admiriez	
1868	1	admis	
1869	1	adorable	
1870	1	adoraient	
1871	1	adorent	
1872	1	adorée	
1873	1	adoucit	
1874	1	adressé	
1875	1	adressées	
1876	1	affaire	
1877	1	affamés	
1878	1	affanni	
1879	1	affectait	
1880	1	affecté	
1881	1	affectée	
1882	1	affligeantes	
1883	1	affluence	
1884	1	affreuse	
1885	1	affreux	
1886	1	africaine	
1887	1	agenouillés	
1888	1	agitant	
1889	1	agneau	
1890	1	agrandir	
1891	1	agrandis	
1892	1	agrandissent	
1893	1	agrandit	
1894	1	agréments	
1895	1	aiderez	
1896	1	aidé	
1897	1	aient	
1898	1	aigus	
1899	1	aille	
1900	1	aimerez	
1901	1	aimiez	
1902	1	aise	
1903	1	ajoutant	
1904	1	ajouter	
1905	1	alcoran	
1906	1	alhambra	
1907	1	allai	
1908	1	allaient	
1909	1	allais	
1910	1	allemande	
1911	1	allemands	
1912	1	allonge	
1913	1	allongeant	
1914	1	alluma	
1915	1	allument	
1916	1	allumettes	
1917	1	allure	
1918	1	allées	
1919	1	almaviva	
1920	1	altère	
1921	1	amalgame	
1922	1	amas	
1923	1	amasser	
1924	1	ambassade	
1925	1	ambroisie	
1926	1	ambulant	
1927	1	amener	
1928	1	amenés	
1929	1	amer	
1930	1	amie	
1931	1	amis	
1932	1	amoureuse	
1933	1	amoureuses	
1934	1	amours	
1935	1	amphitryon	
1936	1	amrou	
1937	1	amèrement	
1938	1	analogie	
1939	1	analogue	
1940	1	analyser	
1941	1	ancien	
1942	1	ancienne	
1943	1	andantino	
1944	1	andrieux	
1945	1	andréa	
1946	1	angéliques	
1947	1	anima	
1948	1	animant	
1949	1	animé	
1950	1	anniversaire	
1951	1	annonça	
1952	1	annonçaient	
1953	1	anticipée	
1954	1	antique	
1955	1	antérieur	
1956	1	apaise	
1957	1	apercevant	
1958	1	aperçoit	
1959	1	aperçoivent	
1960	1	aperçurent	
1961	1	apocalypse	
1962	1	apoplexies	
1963	1	apparaissaient	
1964	1	apparaissent	
1965	1	apparaître	
1966	1	apparition	
1967	1	appartient	
1968	1	apparut	
1969	1	appelait	
1970	1	appeler	
1971	1	appeliez	
1972	1	appellent	
1973	1	appelèrent	
1974	1	applaudissant	
1975	1	applicables	
1976	1	appliquant	
1977	1	appointements	
1978	1	apporta	
1979	1	apportaient	
1980	1	apportait	
1981	1	apporte	
1982	1	apprendrai	
1983	1	apprises	
1984	1	approbateur	
1985	1	approchant	
1986	1	approche	
1987	1	approches	
1988	1	approprié	
1989	1	approuva	
1990	1	appréciation	
1991	1	apprécié	
1992	1	appréhension	
1993	1	apprêt	
1994	1	appuya	
1995	1	appuyer	
1996	1	appétit	
1997	1	appétits	
1998	1	arabies	
1999	1	arc	
2000	1	arcades	
2001	1	ardent	
2002	1	argent	
2003	1	aride	
2004	1	aristocrates	
2005	1	aristocratiques	
2006	1	armeraient	
2007	1	armes	
2008	1	armoiries	
2009	1	armées	
2010	1	arrachaient	
2011	1	arranger	
2012	1	arrivant	
2013	1	arrivâmes	
2014	1	arrivèrent	
2015	1	arrosait	
2016	1	arrosée	
2017	1	arrêt	
2018	1	arrêtèrent	
2019	1	artisan	
2020	1	artistiques	
2021	1	ascendant	
2022	1	assaillaient	
2023	1	assaini	
2024	1	assiette	
2025	1	assiettes	
2026	1	assisté	
2027	1	associe	
2028	1	associer	
2029	1	assombrie	
2030	1	assortie	
2031	1	assuré	
2032	1	athlètes	
2033	1	atone	
2034	1	atroce	
2035	1	attachait	
2036	1	attachantes	
2037	1	attache	
2038	1	attachée	
2039	1	attaquaient	
2040	1	attaquer	
2041	1	attaquez	
2042	1	attaqués	
2043	1	atteinte	
2044	1	atteintes	
2045	1	attendaient	
2046	1	attendait	
2047	1	attendit	
2048	1	attendre	
2049	1	attendrira	
2050	1	attendu	
2051	1	attendue	
2052	1	attentivement	
2053	1	attestait	
2054	1	attire	
2055	1	attiré	
2056	1	attiédir	
2057	1	attribue	
2058	1	attribuer	
2059	1	audition	
2060	1	auditoire	
2061	1	aumônes	
2062	1	aurai	
2063	1	aurez	
2064	1	auriez	
2065	1	aurore	
2066	1	autrefois	
2067	1	autrichien	
2068	1	auxquelles	
2069	1	avalait	
2070	1	avances	
2071	1	avantageuses	
2072	1	avançait	
2073	1	averse	
2074	1	aveugle	
2075	1	avide	
2076	1	avoisinaient	
2077	1	avoua	
2078	1	avouant	
2079	1	avoue	
2080	1	bacchus	
2081	1	bach	
2082	1	bachique	
2083	1	bagage	
2084	1	bah	
2085	1	bain	
2086	1	baisa	
2087	1	baissa	
2088	1	baissant	
2089	1	baissés	
2090	1	balancées	
2091	1	balançant	
2092	1	balayures	
2093	1	balbutiait	
2094	1	balcons	
2095	1	ballets	
2096	1	ballotté	
2097	1	banal	
2098	1	banalité	
2099	1	banni	
2100	1	bannir	
2101	1	banquier	
2102	1	barbarie	
2103	1	barbouillé	
2104	1	barcarolle	
2105	1	baroque	
2106	1	barricadé	
2107	1	barrière	
2108	1	baryton	
2109	1	bas	
2110	1	base	
2111	1	bassement	
2112	1	basson	
2113	1	basta	
2114	1	bataille	
2115	1	battements	
2116	1	batterie	
2117	1	batteries	
2118	1	battre	
2119	1	bavarde	
2120	1	becs	
2121	1	belleville	
2122	1	bellevue	
2123	1	belloy	
2124	1	berceaux	
2125	1	besoin	
2126	1	beurre	
2127	1	bianca	
2128	1	biens	
2129	1	bissac	
2130	1	blanchir	
2131	1	blesser	
2132	1	bleue	
2133	1	bleus	
2134	1	bocconi	
2135	1	boisseau	
2136	1	bondissant	
2137	1	bondit	
2138	1	bonhomme	
2139	1	bonté	
2140	1	borne	
2141	1	borné	
2142	1	bottes	
2143	1	bouche	
2144	1	bouclés	
2145	1	bouffe	
2146	1	bouffes	
2147	1	bouffées	
2148	1	bouge	
2149	1	bougies	
2150	1	boulanger	
2151	1	bourgeois	
2152	1	bourgeoises	
2153	1	bourreau	
2154	1	bouteille	
2155	1	bouteilles	
2156	1	boutique	
2157	1	boutiques	
2158	1	branches	
2159	1	braves	
2160	1	brillaient	
2161	1	brille	
2162	1	briller	
2163	1	brisant	
2164	1	brisés	
2165	1	brode	
2166	1	brodée	
2167	1	brouhaha	
2168	1	bruit	
2169	1	brunes	
2170	1	brusque	
2171	1	brutalité	
2172	1	bruyantes	
2173	1	brèche	
2174	1	brûlé	
2175	1	bureau	
2176	1	buvaient	
2177	1	buveurs	
2178	1	byron	
2179	1	bâton	
2180	1	bâtons	
2181	1	bénévole	
2182	1	cachant	
2183	1	cache	
2184	1	cachent	
2185	1	cacher	
2186	1	cachets	
2187	1	caché	
2188	1	cacophonie	
2189	1	cadre	
2190	1	cadrent	
2191	1	café	
2192	1	cage	
2193	1	caillette	
2194	1	caisse	
2195	1	calculait	
2196	1	campagnes	
2197	1	cantabile	
2198	1	cantilène	
2199	1	capable	
2200	1	capables	
2201	1	cape	
2202	1	capello	
2203	1	capisco	
2204	1	capital	
2205	1	capitole	
2206	1	capricieusement	
2207	1	cara	
2208	1	caractère	
2209	1	cardinal	
2210	1	caressant	
2211	1	caresser	
2212	1	carissimi	
2213	1	carrefour	
2214	1	carrière	
2215	1	cassis	
2216	1	cathédrale	
2217	1	cauchemar	
2218	1	causant	
2219	1	cause	
2220	1	cavaliers	
2221	1	cavalli	
2222	1	centimes	
2223	1	centons	
2224	1	centre	
2225	1	centres	
2226	1	certaine	
2227	1	certainement	
2228	1	certaines	
2229	1	certains	
2230	1	cervelle	
2231	1	cessa	
2232	1	cessant	
2233	1	cesser	
2234	1	chaises	
2235	1	chaleureusement	
2236	1	chameliers	
2237	1	chanceler	
2238	1	chances	
2239	1	change	
2240	1	changea	
2241	1	changeant	
2242	1	changements	
2243	1	chantaient	
2244	1	chantent	
2245	1	chanteur	
2246	1	chanté	
2247	1	chantée	
2248	1	charge	
2249	1	chargeons	
2250	1	chargé	
2251	1	charmant	
2252	1	charmé	
2253	1	chassant	
2254	1	chassent	
2255	1	chasseur	
2256	1	chassèrent	
2257	1	chats	
2258	1	chaude	
2259	1	chauds	
2260	1	chauve	
2261	1	chaîne	
2262	1	chaînes	
2263	1	cheminé	
2264	1	cherchaient	
2265	1	cherchait	
2266	1	cherche	
2267	1	chercheurs	
2268	1	cherché	
2269	1	cheveux	
2270	1	chevrotante	
2271	1	chien	
2272	1	choisir	
2273	1	christ	
2274	1	christi	
2275	1	chute	
2276	1	château	
2277	1	châtelet	
2278	1	chèvre	
2279	1	cicérone	
2280	1	cieux	
2281	1	cigare	
2282	1	cils	
2283	1	cinquante	
2284	1	cinquième	
2285	1	civilités	
2286	1	claire	
2287	1	clairons	
2288	1	clairs	
2289	1	clairvoyante	
2290	1	clarinette	
2291	1	clarté	
2292	1	classa	
2293	1	classique	
2294	1	classiques	
2295	1	clavecin	
2296	1	clavier	
2297	1	clef	
2298	1	col	
2299	1	collectivement	
2300	1	collines	
2301	1	collèges	
2302	1	colorait	
2303	1	coloration	
2304	1	coloris	
2305	1	colorées	
2306	1	combattait	
2307	1	combattue	
2308	1	combinée	
2309	1	comique	
2310	1	commandé	
2311	1	commandée	
2312	1	commencement	
2313	1	commencerai	
2314	1	commencèrent	
2315	1	commençaient	
2316	1	commerce	
2317	1	commissaire	
2318	1	communication	
2319	1	compagne	
2320	1	compagnie	
2321	1	comparaison	
2322	1	comparent	
2323	1	comparer	
2324	1	comparez	
2325	1	compartiments	
2326	1	comparée	
2327	1	compatriote	
2328	1	compatriotes	
2329	1	complexe	
2330	1	complication	
2331	1	complice	
2332	1	compliment	
2333	1	complimenta	
2334	1	complète	
2335	1	complètement	
2336	1	comportaient	
2337	1	comportait	
2338	1	compose	
2339	1	composée	
2340	1	comprenait	
2341	1	comprendrez	
2342	1	comprise	
2343	1	comprit	
2344	1	compréhensive	
2345	1	comptait	
2346	1	comptoir	
2347	1	concentra	
2348	1	concentrant	
2349	1	concentré	
2350	1	concert	
2351	1	concerts	
2352	1	concierge	
2353	1	conclave	
2354	1	concours	
2355	1	condamnait	
2356	1	condamnés	
2357	1	conduisait	
2358	1	conduisit	
2359	1	conduit	
2360	1	confection	
2361	1	confectionner	
2362	1	confidences	
2363	1	confie	
2364	1	confiée	
2365	1	confrères	
2366	1	conjurer	
2367	1	connaissance	
2368	1	connaissent	
2369	1	connaisseurs	
2370	1	connaissions	
2371	1	connaissons	
2372	1	connaît	
2373	1	connues	
2374	1	conquis	
2375	1	conquise	
2376	1	conquérir	
2377	1	conquête	
2378	1	conscience	
2379	1	conseil	
2380	1	conseillé	
2381	1	consens	
2382	1	consentit	
2383	1	conserve	
2384	1	conservent	
2385	1	conservée	
2386	1	consigne	
2387	1	consistait	
2388	1	consolait	
2389	1	consolider	
2390	1	constance	
2391	1	constante	
2392	1	constituants	
2393	1	construits	
2394	1	consulte	
2395	1	conséquence	
2396	1	contempla	
2397	1	contemplait	
2398	1	contemplant	
2399	1	contempler	
2400	1	contenir	
2401	1	content	
2402	1	contentement	
2403	1	contenue	
2404	1	conteurs	
2405	1	contexture	
2406	1	continuant	
2407	1	continue	
2408	1	continuelle	
2409	1	continuer	
2410	1	contours	
2411	1	contractait	
2412	1	contractions	
2413	1	contradiction	
2414	1	contradictions	
2415	1	contraignit	
2416	1	contralto	
2417	1	contrarierais	
2418	1	contredire	
2419	1	contribuent	
2420	1	contribué	
2421	1	convenait	
2422	1	convenez	
2423	1	convenu	
2424	1	conversations	
2425	1	conviendront	
2426	1	conviens	
2427	1	convier	
2428	1	convive	
2429	1	conçus	
2430	1	coquet	
2431	1	cor	
2432	1	cordial	
2433	1	corneille	
2434	1	cornets	
2435	1	corrigé	
2436	1	cors	
2437	1	cou	
2438	1	couchette	
2439	1	couché	
2440	1	coupables	
2441	1	coupent	
2442	1	couple	
2443	1	couplet	
2444	1	couronnerait	
2445	1	courses	
2446	1	court	
2447	1	cousin	
2448	1	cousine	
2449	1	couverte	
2450	1	couverts	
2451	1	couvertures	
2452	1	couvrir	
2453	1	couvrirent	
2454	1	coûtait	
2455	1	craignait	
2456	1	craint	
2457	1	crasse	
2458	1	creuses	
2459	1	crevassées	
2460	1	crime	
2461	1	criminel	
2462	1	crispations	
2463	1	critique	
2464	1	critiques	
2465	1	croatie	
2466	1	croisait	
2467	1	croix	
2468	1	crottés	
2469	1	croyaient	
2470	1	croyance	
2471	1	croûte	
2472	1	crudeli	
2473	1	créations	
2474	1	créature	
2475	1	cueillais	
2476	1	culinaires	
2477	1	culminant	
2478	1	culte	
2479	1	cultivait	
2480	1	cumulerez	
2481	1	curiosité	
2482	1	cède	
2483	1	céderait	
2484	1	célébrités	
2485	1	cénacle	
2486	1	côtoya	
2487	1	dada	
2488	1	dame	
2489	1	damné	
2490	1	dansaient	
2491	1	dansant	
2492	1	danse	
2493	1	danses	
2494	1	danseuse	
2495	1	dardaient	
2496	1	date	
2497	1	degré	
2498	1	degrés	
2499	1	delà	
2500	1	demandant	
2501	1	demandent	
2502	1	demanderai	
2503	1	demandiez	
2504	1	demandé	
2505	1	demeurait	
2506	1	demeurée	
2507	1	derrière	
2508	1	descendante	
2509	1	descendit	
2510	1	descendue	
2511	1	descendît	
2512	1	desquelles	
2513	1	desquels	
2514	1	dessert	
2515	1	dessiller	
2516	1	dessillés	
2517	1	dessina	
2518	1	dessinent	
2519	1	dessous	
2520	1	destinait	
2521	1	destinée	
2522	1	deuxieme	
2523	1	devaient	
2524	1	devais	
2525	1	devancer	
2526	1	devanciers	
2527	1	devancé	
2528	1	devenir	
2529	1	devenue	
2530	1	devez	
2531	1	deviendrait	
2532	1	deviennent	
2533	1	devinant	
2534	1	devine	
2535	1	deviner	
2536	1	devinera	
2537	1	devinrent	
2538	1	devint	
2539	1	deviné	
2540	1	devoir	
2541	1	devront	
2542	1	diables	
2543	1	diabolique	
2544	1	diaprées	
2545	1	dicter	
2546	1	diffèrent	
2547	1	différence	
2548	1	dignes	
2549	1	diminuée	
2550	1	dirait	
2551	1	directeurs	
2552	1	direz	
2553	1	dirigeant	
2554	1	disciples	
2555	1	discordants	
2556	1	discrètes	
2557	1	disiez	
2558	1	disparaît	
2559	1	disparaître	
2560	1	dispersait	
2561	1	disposaient	
2562	1	disposer	
2563	1	disposition	
2564	1	disposée	
2565	1	disposés	
2566	1	disputé	
2567	1	dissemblance	
2568	1	dissemblances	
2569	1	dissipa	
2570	1	dissipaient	
2571	1	dissipent	
2572	1	dissiper	
2573	1	dissipé	
2574	1	dissonants	
2575	1	disséminés	
2576	1	distinguait	
2577	1	distinguer	
2578	1	distraction	
2579	1	distraits	
2580	1	distribués	
2581	1	divertir	
2582	1	divertissement	
2583	1	divinement	
2584	1	divinisée	
2585	1	divinité	
2586	1	divins	
2587	1	doigt	
2588	1	doigté	
2589	1	domestiques	
2590	1	domine	
2591	1	dominent	
2592	1	dominé	
2593	1	dommage	
2594	1	donjuanise	
2595	1	donnez	
2596	1	donnina	
2597	1	donnions	
2598	1	donnèrent	
2599	1	donnée	
2600	1	dora	
2601	1	dormirais	
2602	1	dos	
2603	1	doubler	
2604	1	doublé	
2605	1	douleurs	
2606	1	douloureux	
2607	1	doutant	
2608	1	douter	
2609	1	doutiez	
2610	1	douzaine	
2611	1	douée	
2612	1	dragées	
2613	1	drapant	
2614	1	drapé	
2615	1	duchesse	
2616	1	due	
2617	1	duos	
2618	1	dura	
2619	1	durs	
2620	1	durées	
2621	1	débité	
2622	1	décelaient	
2623	1	décelèrent	
2624	1	décembre	
2625	1	déception	
2626	1	déceptions	
2627	1	décharge	
2628	1	déchaîne	
2629	1	déchaînement	
2630	1	déchirant	
2631	1	déchire	
2632	1	déchirements	
2633	1	déchirer	
2634	1	décidera	
2635	1	décidé	
2636	1	décidément	
2637	1	déclinant	
2638	1	décomposition	
2639	1	décomposée	
2640	1	décoration	
2641	1	découverte	
2642	1	découvertes	
2643	1	découvraient	
2644	1	découvrait	
2645	1	découvrir	
2646	1	découvrit	
2647	1	dédaigner	
2648	1	dédaigneux	
2649	1	dédain	
2650	1	déesse	
2651	1	défaite	
2652	1	défauts	
2653	1	défendre	
2654	1	définis	
2655	1	défrayer	
2656	1	dégagea	
2657	1	dégager	
2658	1	dégels	
2659	1	dégoûté	
2660	1	délicates	
2661	1	délicieuse	
2662	1	délicieux	
2663	1	délirante	
2664	1	délivrées	
2665	1	déloger	
2666	1	démentait	
2667	1	démentent	
2668	1	démentir	
2669	1	démentit	
2670	1	démesuré	
2671	1	démoniaques	
2672	1	démonte	
2673	1	démontrant	
2674	1	dénué	
2675	1	dépasser	
2676	1	dépens	
2677	1	dépense	
2678	1	dépit	
2679	1	déploie	
2680	1	déploient	
2681	1	déplorable	
2682	1	déposant	
2683	1	dépouillée	
2684	1	dépourvue	
2685	1	dérange	
2686	1	dérobant	
2687	1	dérobé	
2688	1	désaccord	
2689	1	désastre	
2690	1	désert	
2691	1	désertent	
2692	1	désespère	
2693	1	désespérerez	
2694	1	déshonorer	
2695	1	désignait	
2696	1	désignant	
2697	1	désintéressé	
2698	1	désirable	
2699	1	désirait	
2700	1	désirs	
2701	1	désordonnées	
2702	1	désordonnés	
2703	1	désormais	
2704	1	détachent	
2705	1	détacher	
2706	1	détail	
2707	1	détestable	
2708	1	détestables	
2709	1	détournant	
2710	1	détours	
2711	1	détruira	
2712	1	détruit	
2713	1	détrôner	
2714	1	développe	
2715	1	développements	
2716	1	développées	
2717	1	déviée	
2718	1	dévorera	
2719	1	dévoré	
2720	1	dévorés	
2721	1	dévot	
2722	1	dévouer	
2723	1	dévouée	
2724	1	dînerons	
2725	1	dîné	
2726	1	e	
2727	1	ecco	
2728	1	efficaces	
2729	1	effleura	
2730	1	effleurait	
2731	1	efforcé	
2732	1	efforçais	
2733	1	efforçant	
2734	1	effraya	
2735	1	effrayant	
2736	1	effrayé	
2737	1	effroi	
2738	1	effroyable	
2739	1	effroyables	
2740	1	ematto	
2741	1	embarrassait	
2742	1	embarrassé	
2743	1	embarrassée	
2744	1	embellissait	
2745	1	embrasse	
2746	1	emilio	
2747	1	empara	
2748	1	emphase	
2749	1	emplir	
2750	1	employant	
2751	1	employer	
2752	1	employé	
2753	1	employée	
2754	1	empoisonner	
2755	1	emportaient	
2756	1	emportait	
2757	1	emporte	
2758	1	empressa	
2759	1	emprunté	
2760	1	encadraient	
2761	1	encens	
2762	1	enchantés	
2763	1	enchaînée	
2764	1	encourage	
2765	1	encouragea	
2766	1	encouragent	
2767	1	endimanchée	
2768	1	endormie	
2769	1	endormirait	
2770	1	endroit	
2771	1	enfants	
2772	1	enfler	
2773	1	enfonce	
2774	1	enfumé	
2775	1	engage	
2776	1	engagement	
2777	1	engager	
2778	1	engagée	
2779	1	engloutir	
2780	1	engourdis	
2781	1	enharmoniques	
2782	1	enivré	
2783	1	enlaidir	
2784	1	enlevait	
2785	1	ennemi	
2786	1	ennui	
2787	1	ennuie	
2788	1	enroué	
2789	1	enseigne	
2790	1	enseignement	
2791	1	enseignements	
2792	1	entama	
2793	1	entame	
2794	1	entassait	
2795	1	entasser	
2796	1	entassées	
2797	1	entend	
2798	1	entendais	
2799	1	entendons	
2800	1	enthousiasme	
2801	1	enthousiaste	
2802	1	entièrement	
2803	1	entouré	
2804	1	entraînaient	
2805	1	entraînant	
2806	1	entraînent	
2807	1	entraîné	
2808	1	entrechats	
2809	1	entrelacent	
2810	1	entreprise	
2811	1	entretien	
2812	1	entrevoyais	
2813	1	entrevoyez	
2814	1	entrevues	
2815	1	entrons	
2816	1	entrouverte	
2817	1	entrouvrait	
2818	1	envahi	
2819	1	envahit	
2820	1	enveloppe	
2821	1	enveloppé	
2822	1	enverrai	
2823	1	envie	
2824	1	envoyé	
2825	1	errante	
2826	1	errer	
2827	1	erreurs	
2828	1	es	
2829	1	escamotage	
2830	1	escarmouche	
2831	1	esclaves	
2832	1	escomptons	
2833	1	espagne	
2834	1	espagnol	
2835	1	espard	
2836	1	esprits	
2837	1	espérait	
2838	1	espérez	
2839	1	esquisse	
2840	1	essaie	
2841	1	essaya	
2842	1	essayez	
2843	1	essayé	
2844	1	essentiel	
2845	1	essor	
2846	1	essuya	
2847	1	essuyant	
2848	1	estimez	
2849	1	eurent	
2850	1	europe	
2851	1	européenne	
2852	1	exaltaient	
2853	1	exaltation	
2854	1	examinait	
2855	1	excellents	
2856	1	exception	
2857	1	excepté	
2858	1	excite	
2859	1	excitent	
2860	1	excusez	
2861	1	excès	
2862	1	exempte	
2863	1	exemptes	
2864	1	exerce	
2865	1	exercice	
2866	1	exercée	
2867	1	exigeait	
2868	1	exil	
2869	1	exorbitant	
2870	1	expirantes	
2871	1	expire	
2872	1	expirent	
2873	1	expliqua	
2874	1	expliquant	
2875	1	explique	
2876	1	exploiter	
2877	1	explosion	
2878	1	exposeriez	
2879	1	exposition	
2880	1	exprimant	
2881	1	expriment	
2882	1	exprimât	
2883	1	exprimée	
2884	1	exprimées	
2885	1	expéditions	
2886	1	expérience	
2887	1	extraire	
2888	1	extravagant	
2889	1	extrémités	
2890	1	extrême	
2891	1	extérieur	
2892	1	extérieurs	
2893	1	exécuta	
2894	1	exécutaient	
2895	1	exécutait	
2896	1	exécutant	
2897	1	exécutants	
2898	1	exécutés	
2899	1	fable	
2900	1	fabriquées	
2901	1	faces	
2902	1	facilité	
2903	1	faculté	
2904	1	faible	
2905	1	faibles	
2906	1	faibli	
2907	1	failli	
2908	1	fais	
2909	1	faisais	
2910	1	faiseur	
2911	1	faiseurs	
2912	1	faites	
2913	1	faits	
2914	1	fallut	
2915	1	fameuse	
2916	1	familière	
2917	1	familièrement	
2918	1	famille	
2919	1	fanfares	
2920	1	fantôme	
2921	1	farceur	
2922	1	fascination	
2923	1	fasse	
2924	1	fatalement	
2925	1	fatigantes	
2926	1	fatiguerait	
2927	1	fatigué	
2928	1	fatiguée	
2929	1	fatuité	
2930	1	faubourg	
2931	1	faucon	
2932	1	faute	
2933	1	fautes	
2934	1	fauteuil	
2935	1	faux	
2936	1	faveur	
2937	1	favorable	
2938	1	favorablement	
2939	1	façon	
2940	1	façons	
2941	1	fenice	
2942	1	fentes	
2943	1	fenêtres	
2944	1	ferme	
2945	1	fermée	
2946	1	fermés	
2947	1	feuillus	
2948	1	fiacre	
2949	1	fiacres	
2950	1	fiasco	
2951	1	fiers	
2952	1	figurais	
2953	1	figurer	
2954	1	figurez	
2955	1	filet	
2956	1	filiae	
2957	1	filii	
2958	1	finales	
2959	1	finie	
2960	1	finissent	
2961	1	fins	
2962	1	firent	
2963	1	fixes	
2964	1	flairées	
2965	1	fleureté	
2966	1	fleuri	
2967	1	fleurs	
2968	1	flonflons	
2969	1	fléchir	
2970	1	flétrissant	
2971	1	flûtes	
2972	1	folles	
2973	1	fondamentale	
2974	1	fondant	
2975	1	fondre	
2976	1	fondés	
2977	1	fontaine	
2978	1	fontainebleau	
2979	1	fontaines	
2980	1	forcené	
2981	1	forcez	
2982	1	forcé	
2983	1	forgeant	
2984	1	former	
2985	1	formule	
2986	1	forte	
2987	1	fortement	
2988	1	fortifia	
2989	1	forêt	
2990	1	foudroyante	
2991	1	fourvoyer	
2992	1	fragments	
2993	1	franche	
2994	1	franchirent	
2995	1	françaises	
2996	1	frappa	
2997	1	frappait	
2998	1	frappant	
2999	1	frappe	
3000	1	frapper	
3001	1	frappé	
3002	1	frappée	
3003	1	fraîcheur	
3004	1	fredonnait	
3005	1	friandises	
3006	1	frissonnant	
3007	1	frissonné	
3008	1	froncements	
3009	1	fruit	
3010	1	fruits	
3011	1	frère	
3012	1	frétillant	
3013	1	frétille	
3014	1	fuirai	
3015	1	fuite	
3016	1	fumait	
3017	1	fumée	
3018	1	fumées	
3019	1	funeste	
3020	1	fureurs	
3021	1	furieuses	
3022	1	fécond	
3023	1	féconde	
3024	1	félicitations	
3025	1	fête	
3026	1	fîtes	
3027	1	fûmes	
3028	1	gagna	
3029	1	gagneraient	
3030	1	gagné	
3031	1	gaieté	
3032	1	gaillards	
3033	1	gain	
3034	1	gala	
3035	1	galanterie	
3036	1	galeries	
3037	1	galopa	
3038	1	gants	
3039	1	gardait	
3040	1	gardant	
3041	1	gardent	
3042	1	gardien	
3043	1	gargote	
3044	1	gascon	
3045	1	gentilshommes	
3046	1	gerbes	
3047	1	gestes	
3048	1	gigantesque	
3049	1	gigantesques	
3050	1	gigelmi	
3051	1	gilet	
3052	1	girandoles	
3053	1	glace	
3054	1	glacis	
3055	1	glorieuses	
3056	1	glorieux	
3057	1	gourmet	
3058	1	gourmets	
3059	1	goûtai	
3060	1	goûter	
3061	1	goûts	
3062	1	grammaires	
3063	1	grandioses	
3064	1	grassement	
3065	1	grasses	
3066	1	gratis	
3067	1	grecque	
3068	1	grenier	
3069	1	griffes	
3070	1	grimaces	
3071	1	gris	
3072	1	griser	
3073	1	grosses	
3074	1	grossi	
3075	1	grossit	
3076	1	grotesques	
3077	1	grouillants	
3078	1	groupe	
3079	1	groupent	
3080	1	groupes	
3081	1	guerre	
3082	1	guerriers	
3083	1	guetter	
3084	1	guide	
3085	1	guidée	
3086	1	guitare	
3087	1	guitares	
3088	1	guérir	
3089	1	guérira	
3090	1	guérison	
3091	1	gâteaux	
3092	1	gâter	
3093	1	gâtée	
3094	1	gémis	
3095	1	gémissements	
3096	1	généralife	
3097	1	généralités	
3098	1	généraux	
3099	1	générosités	
3100	1	géométrique	
3101	1	géométriques	
3102	1	gérolamo	
3103	1	gênes	
3104	1	habiles	
3105	1	habillement	
3106	1	habiller	
3107	1	habillé	
3108	1	habillée	
3109	1	habit	
3110	1	habitait	
3111	1	habitude	
3112	1	habitudes	
3113	1	habituel	
3114	1	habituellement	
3115	1	habitué	
3116	1	habituée	
3117	1	habituées	
3118	1	hachées	
3119	1	hais	
3120	1	halle	
3121	1	hallucination	
3122	1	hanche	
3123	1	hanches	
3124	1	hanté	
3125	1	hantée	
3126	1	hardies	
3127	1	harmonieuse	
3128	1	harmonique	
3129	1	harmoniquement	
3130	1	haussant	
3131	1	hautbois	
3132	1	haute	
3133	1	hauteurs	
3134	1	heurtée	
3135	1	historiques	
3136	1	hoffman	
3137	1	holtei	
3138	1	hommage	
3139	1	homogène	
3140	1	homère	
3141	1	hongrie	
3142	1	honnêtement	
3143	1	honoré	
3144	1	honteuse	
3145	1	horizons	
3146	1	horribles	
3147	1	hostiles	
3148	1	huissiers	
3149	1	hum	
3150	1	humain	
3151	1	humains	
3152	1	humble	
3153	1	humectèrent	
3154	1	hurlaient	
3155	1	hurlement	
3156	1	hurlé	
3157	1	hygiène	
3158	1	hâtait	
3159	1	hâte	
3160	1	hégire	
3161	1	héroïne	
3162	1	héroïsme	
3163	1	hérésie	
3164	1	hésita	
3165	1	i	
3166	1	ideal	
3167	1	identique	
3168	1	idéale	
3169	1	ignoble	
3170	1	ignobles	
3171	1	ignoraient	
3172	1	ignorait	
3173	1	ignorer	
3174	1	ignoriez	
3175	1	ii	
3176	1	illuminer	
3177	1	image	
3178	1	imaginaires	
3179	1	imaginait	
3180	1	imaginé	
3181	1	imitation	
3182	1	imite	
3183	1	immobile	
3184	1	immobilité	
3185	1	immonde	
3186	1	immortel	
3187	1	imparfait	
3188	1	imparfaite	
3189	1	imparfaitement	
3190	1	impassible	
3191	1	impatience	
3192	1	importance	
3193	1	imposait	
3194	1	imposée	
3195	1	improbation	
3196	1	improvisa	
3197	1	improvisant	
3198	1	improvisation	
3199	1	in	
3200	1	incandescence	
3201	1	incapacité	
3202	1	incendie	
3203	1	inclinait	
3204	1	incliner	
3205	1	incohérente	
3206	1	inconnus	
3207	1	incontestable	
3208	1	incorruptible	
3209	1	incroyables	
3210	1	incrédules	
3211	1	incrédulités	
3212	1	incurable	
3213	1	indice	
3214	1	indicible	
3215	1	indifférent	
3216	1	indigeste	
3217	1	indiquait	
3218	1	indiquant	
3219	1	indiqués	
3220	1	individuelles	
3221	1	indolence	
3222	1	indépendamment	
3223	1	indépendantes	
3224	1	ineptie	
3225	1	inertie	
3226	1	inespérée	
3227	1	infaillible	
3228	1	infect	
3229	1	infernaux	
3230	1	infini	
3231	1	informe	
3232	1	informèrent	
3233	1	infortune	
3234	1	infranchissable	
3235	1	infâme	
3236	1	inférieure	
3237	1	ingrat	
3238	1	ingrates	
3239	1	ingénieuses	
3240	1	innocence	
3241	1	inouïes	
3242	1	inquiéter	
3243	1	inquiétude	
3244	1	insensée	
3245	1	inspirez	
3246	1	inspirée	
3247	1	inspirés	
3248	1	instincts	
3249	1	instituée	
3250	1	institués	
3251	1	instructions	
3252	1	instruit	
3253	1	instrumentale	
3254	1	instrumentation	
3255	1	insu	
3256	1	insulter	
3257	1	insulté	
3258	1	intellectuelles	
3259	1	intelligences	
3260	1	intelligente	
3261	1	interdire	
3262	1	interposa	
3263	1	interprètes	
3264	1	interprétations	
3265	1	interrogeait	
3266	1	interrogeant	
3267	1	interrogée	
3268	1	interrompue	
3269	1	interruptions	
3270	1	intervalle	
3271	1	intervenir	
3272	1	intime	
3273	1	intrigue	
3274	1	introduisait	
3275	1	intégrante	
3276	1	intéressait	
3277	1	intéressante	
3278	1	intéresser	
3279	1	intéressé	
3280	1	intérieur	
3281	1	intérieures	
3282	1	inutile	
3283	1	inutiles	
3284	1	inventé	
3285	1	inventés	
3286	1	inverse	
3287	1	invincibles	
3288	1	invisibles	
3289	1	invite	
3290	1	invités	
3291	1	involontairement	
3292	1	invétérée	
3293	1	irions	
3294	1	ironiquement	
3295	1	irons	
3296	1	irréprochables	
3297	1	irrésistibles	
3298	1	isole	
3299	1	italiennes	
3300	1	ivoire	
3301	1	ivresses	
3302	1	jalousie	
3303	1	jaloux	
3304	1	jambe	
3305	1	jette	
3306	1	jettent	
3307	1	jetées	
3308	1	jetés	
3309	1	joignant	
3310	1	joints	
3311	1	jolies	
3312	1	joua	
3313	1	joue	
3314	1	jouerez	
3315	1	joueur	
3316	1	jouez	
3317	1	jouissait	
3318	1	jouissance	
3319	1	jouissances	
3320	1	jouit	
3321	1	journaliers	
3322	1	journées	
3323	1	joyaux	
3324	1	judicieusement	
3325	1	judicieuses	
3326	1	jugeai	
3327	1	jugés	
3328	1	juifs	
3329	1	juillet	
3330	1	juin	
3331	1	jure	
3332	1	justice	
3333	1	kalifes	
3334	1	kasba	
3335	1	lacryma	
3336	1	laide	
3337	1	laissent	
3338	1	laisserez	
3339	1	lambeaux	
3340	1	lampe	
3341	1	lance	
3342	1	lancé	
3343	1	lança	
3344	1	largement	
3345	1	larges	
3346	1	las	
3347	1	latium	
3348	1	laver	
3349	1	lecteur	
3350	1	lenteur	
3351	1	levaient	
3352	1	leçon	
3353	1	leçons	
3354	1	liaison	
3355	1	libation	
3356	1	libations	
3357	1	libre	
3358	1	libéral	
3359	1	libérales	
3360	1	libéralité	
3361	1	libéraux	
3362	1	libéré	
3363	1	lie	
3364	1	lien	
3365	1	lierres	
3366	1	lieues	
3367	1	lieux	
3368	1	lignes	
3369	1	limant	
3370	1	linge	
3371	1	lion	
3372	1	liqueur	
3373	1	lis	
3374	1	lisse	
3375	1	littéraires	
3376	1	livrait	
3377	1	livre	
3378	1	livrée	
3379	1	locale	
3380	1	loger	
3381	1	logés	
3382	1	loisir	
3383	1	longs	
3384	1	longue	
3385	1	lorsque	
3386	1	lot	
3387	1	louanges	
3388	1	louvoyait	
3389	1	loyer	
3390	1	loyers	
3391	1	lubies	
3392	1	lucide	
3393	1	lucidité	
3394	1	lueurs	
3395	1	luire	
3396	1	lulli	
3397	1	lumineuse	
3398	1	lumineuses	
3399	1	lumières	
3400	1	lutter	
3401	1	luttes	
3402	1	lutté	
3403	1	lâche	
3404	1	lâcheté	
3405	1	lâchèrent	
3406	1	léger	
3407	1	légère	
3408	1	léonarde	
3409	1	machine	
3410	1	machinistes	
3411	1	maestoso	
3412	1	magasin	
3413	1	magies	
3414	1	magistrale	
3415	1	magistralement	
3416	1	magnifiquement	
3417	1	magnifiques	
3418	1	maintenir	
3419	1	majestueux	
3420	1	majesté	
3421	1	majeure	
3422	1	majeures	
3423	1	majordome	
3424	1	majorité	
3425	1	malades	
3426	1	maladie	
3427	1	malheureusement	
3428	1	malheureuses	
3429	1	malles	
3430	1	malveillance	
3431	1	manerville	
3432	1	manifesta	
3433	1	manières	
3434	1	manquaient	
3435	1	manquerais	
3436	1	mansardes	
3437	1	manège	
3438	1	marasquin	
3439	1	marcha	
3440	1	marchand	
3441	1	marchands	
3442	1	marguerites	
3443	1	mariage	
3444	1	marier	
3445	1	marié	
3446	1	mariée	
3447	1	marquis	
3448	1	marquise	
3449	1	martyr	
3450	1	matelas	
3451	1	maternité	
3452	1	matière	
3453	1	maçon	
3454	1	menaces	
3455	1	menacée	
3456	1	menacés	
3457	1	mendié	
3458	1	mené	
3459	1	merveilles	
3460	1	merveilleusement	
3461	1	merveilleux	
3462	1	messie	
3463	1	mesura	
3464	1	mesurant	
3465	1	mesures	
3466	1	mesurée	
3467	1	mette	
3468	1	michel	
3469	1	miei	
3470	1	mien	
3471	1	mil	
3472	1	milles	
3473	1	milliers	
3474	1	millionnaire	
3475	1	mineure	
3476	1	minuit	
3477	1	minutes	
3478	1	miracle	
3479	1	mirage	
3480	1	mise	
3481	1	mises	
3482	1	mobilier	
3483	1	moderne	
3484	1	modeste	
3485	1	modestement	
3486	1	modestie	
3487	1	modifiais	
3488	1	modifiant	
3489	1	modifiés	
3490	1	modulé	
3491	1	molles	
3492	1	mollesse	
3493	1	mondes	
3494	1	monotone	
3495	1	montagnes	
3496	1	montefiascone	
3497	1	montmartre	
3498	1	montrant	
3499	1	montrer	
3500	1	monté	
3501	1	montée	
3502	1	moral	
3503	1	moresque	
3504	1	moresques	
3505	1	morne	
3506	1	mosaïque	
3507	1	mosè	
3508	1	mourra	
3509	1	mourrais	
3510	1	moustaches	
3511	1	mouton	
3512	1	mouvements	
3513	1	muet	
3514	1	multipliés	
3515	1	murmura	
3516	1	murmure	
3517	1	muse	
3518	1	mutuellement	
3519	1	mystification	
3520	1	mystères	
3521	1	mène	
3522	1	méchant	
3523	1	méchante	
3524	1	mécontenter	
3525	1	médecin	
3526	1	médianoche	
3527	1	médicale	
3528	1	méditais	
3529	1	mélancoliquement	
3530	1	mélancoliques	
3531	1	mélodieuse	
3532	1	mélodique	
3533	1	mélodiques	
3534	1	ménager	
3535	1	méridionaux	
3536	1	mérite	
3537	1	métal	
3538	1	métamorphosa	
3539	1	métaphysique	
3540	1	naissance	
3541	1	naples	
3542	1	natales	
3543	1	naturels	
3544	1	natures	
3545	1	nausée	
3546	1	naître	
3547	1	naïf	
3548	1	naïfs	
3549	1	naïveté	
3550	1	nerveuses	
3551	1	nettement	
3552	1	neufs	
3553	1	neutres	
3554	1	neuve	
3555	1	nient	
3556	1	nierez	
3557	1	noblement	
3558	1	nobles	
3559	1	noirci	
3560	1	nommé	
3561	1	noté	
3562	1	noueux	
3563	1	nouvel	
3564	1	nouvellement	
3565	1	novateur	
3566	1	nuancée	
3567	1	nuança	
3568	1	nuançaient	
3569	1	nudité	
3570	1	nue	
3571	1	nuire	
3572	1	nuits	
3573	1	nullement	
3574	1	numéros	
3575	1	nécessaire	
3576	1	nécessairement	
3577	1	négligemment	
3578	1	négligent	
3579	1	négligerait	
3580	1	nés	
3581	1	o	
3582	1	obligations	
3583	1	obligé	
3584	1	oblique	
3585	1	obscurs	
3586	1	observait	
3587	1	observateur	
3588	1	obstacles	
3589	1	obstiné	
3590	1	obtenu	
3591	1	obtiennent	
3592	1	obéit	
3593	1	occident	
3594	1	occupa	
3595	1	occupais	
3596	1	occupe	
3597	1	occupée	
3598	1	occupées	
3599	1	octaves	
3600	1	odeur	
3601	1	odieux	
3602	1	offensé	
3603	1	office	
3604	1	offrirait	
3605	1	offririons	
3606	1	offrit	
3607	1	olympe	
3608	1	oncle	
3609	1	onde	
3610	1	onze	
3611	1	oppose	
3612	1	opposé	
3613	1	oppresse	
3614	1	opérer	
3615	1	orages	
3616	1	orbites	
3617	1	ordinaire	
3618	1	ordinaires	
3619	1	ordres	
3620	1	organe	
3621	1	organisation	
3622	1	orgueilleuse	
3623	1	orient	
3624	1	orientale	
3625	1	originalité	
3626	1	orphée	
3627	1	orvieto	
3628	1	osaient	
3629	1	osais	
3630	1	oublia	
3631	1	oublie	
3632	1	oubliera	
3633	1	oublièrent	
3634	1	oubliés	
3635	1	outre	
3636	1	outrepassé	
3637	1	ouverte	
3638	1	ouverts	
3639	1	ouvrage	
3640	1	ouvrages	
3641	1	ouvrant	
3642	1	ouvrent	
3643	1	ouvrit	
3644	1	paganini	
3645	1	paiement	
3646	1	paille	
3647	1	paix	
3648	1	palestrina	
3649	1	palpitante	
3650	1	papiers	
3651	1	papillotage	
3652	1	parade	
3653	1	paradoxal	
3654	1	paraissent	
3655	1	parallèles	
3656	1	paraître	
3657	1	parchemin	
3658	1	parcourue	
3659	1	pare	
3660	1	pareils	
3661	1	parent	
3662	1	parer	
3663	1	paresseux	
3664	1	parfaite	
3665	1	parfumé	
3666	1	parfumée	
3667	1	parité	
3668	1	parlaient	
3669	1	parlerai	
3670	1	parlons	
3671	1	parme	
3672	1	parois	
3673	1	partagée	
3674	1	partagés	
3675	1	partent	
3676	1	parti	
3677	1	particulières	
3678	1	partir	
3679	1	partirait	
3680	1	partis	
3681	1	parvenue	
3682	1	parvint	
3683	1	passages	
3684	1	passagère	
3685	1	passais	
3686	1	passait	
3687	1	passeport	
3688	1	pasta	
3689	1	pastorales	
3690	1	pateline	
3691	1	paternelles	
3692	1	pathétique	
3693	1	patria	
3694	1	patriotiques	
3695	1	patrouilles	
3696	1	paupières	
3697	1	pause	
3698	1	pauvretés	
3699	1	pavillons	
3700	1	paya	
3701	1	payé	
3702	1	païen	
3703	1	peau	
3704	1	peignant	
3705	1	peignent	
3706	1	peines	
3707	1	peint	
3708	1	peintre	
3709	1	pensa	
3710	1	penseur	
3711	1	pensez	
3712	1	percent	
3713	1	perdais	
3714	1	perdra	
3715	1	perdue	
3716	1	perdues	
3717	1	perfectionné	
3718	1	perfectionnée	
3719	1	pergolèse	
3720	1	perlés	
3721	1	permettent	
3722	1	permettre	
3723	1	permission	
3724	1	perpétuelle	
3725	1	perron	
3726	1	persiste	
3727	1	persisterait	
3728	1	personnages	
3729	1	personnel	
3730	1	personnes	
3731	1	personnifiée	
3732	1	perspicacité	
3733	1	persuadant	
3734	1	persuadé	
3735	1	persécution	
3736	1	persécuté	
3737	1	persécutée	
3738	1	perçait	
3739	1	perçues	
3740	1	petite	
3741	1	petites	
3742	1	peuplade	
3743	1	phases	
3744	1	philosophes	
3745	1	phénomènes	
3746	1	pieds	
3747	1	pieux	
3748	1	pinacle	
3749	1	pique	
3750	1	piqué	
3751	1	piteux	
3752	1	piémontais	
3753	1	placerai	
3754	1	placées	
3755	1	placés	
3756	1	plafond	
3757	1	plagale	
3758	1	plaidoyer	
3759	1	plaies	
3760	1	plaindrez	
3761	1	plaint	
3762	1	plainte	
3763	1	plaintifs	
3764	1	plaisanta	
3765	1	plaisanteries	
3766	1	planait	
3767	1	planant	
3768	1	plans	
3769	1	plantureuse	
3770	1	plaqué	
3771	1	plaquée	
3772	1	plaqués	
3773	1	plaçaient	
3774	1	plaît	
3775	1	pleura	
3776	1	pleurer	
3777	1	pleurez	
3778	1	plier	
3779	1	plonge	
3780	1	plu	
3781	1	plumes	
3782	1	pluralité	
3783	1	plurent	
3784	1	poids	
3785	1	poignantes	
3786	1	poisson	
3787	1	polichinelle	
3788	1	pompe	
3789	1	pompes	
3790	1	pompeusement	
3791	1	pompeux	
3792	1	ponts	
3793	1	populaire	
3794	1	population	
3795	1	portais	
3796	1	portant	
3797	1	poser	
3798	1	position	
3799	1	posséder	
3800	1	posée	
3801	1	posément	
3802	1	pot	
3803	1	poudre	
3804	1	poudreux	
3805	1	pourpres	
3806	1	pourrez	
3807	1	pourront	
3808	1	poursuit	
3809	1	poursuivaient	
3810	1	poursuivait	
3811	1	poursuivant	
3812	1	poursuivent	
3813	1	poursuiviez	
3814	1	poursuivit	
3815	1	pourtant	
3816	1	pourvus	
3817	1	poussière	
3818	1	pouvaient	
3819	1	pouvais	
3820	1	pouvons	
3821	1	poésies	
3822	1	pratiqué	
3823	1	pressé	
3824	1	prestesse	
3825	1	preuve	
3826	1	pria	
3827	1	prier	
3828	1	principal	
3829	1	principessa	
3830	1	prises	
3831	1	prisez	
3832	1	prisme	
3833	1	privilège	
3834	1	privé	
3835	1	prochaine	
3836	1	proclame	
3837	1	prodiges	
3838	1	productions	
3839	1	produisaient	
3840	1	profit	
3841	1	profita	
3842	1	profitait	
3843	1	profite	
3844	1	profond	
3845	1	profondes	
3846	1	profonds	
3847	1	profondément	
3848	1	progressif	
3849	1	progression	
3850	1	projet	
3851	1	promenade	
3852	1	promeneur	
3853	1	promenez	
3854	1	promesse	
3855	1	promettant	
3856	1	promettre	
3857	1	promu	
3858	1	prononça	
3859	1	prophétie	
3860	1	propos	
3861	1	proposition	
3862	1	propriétaire	
3863	1	propriété	
3864	1	proscrit	
3865	1	proscrite	
3866	1	prostituées	
3867	1	protecteur	
3868	1	protectrice	
3869	1	protéger	
3870	1	prouver	
3871	1	prouvé	
3872	1	providentiellement	
3873	1	provocants	
3874	1	prudent	
3875	1	précieux	
3876	1	précédente	
3877	1	prédilection	
3878	1	préliminaire	
3879	1	préoccupation	
3880	1	préparation	
3881	1	préparer	
3882	1	préparé	
3883	1	présage	
3884	1	présagent	
3885	1	présenta	
3886	1	préservera	
3887	1	prétentieux	
3888	1	prête	
3889	1	prêtres	
3890	1	prêtresse	
3891	1	pucelle	
3892	1	puiser	
3893	1	puisqu	
3894	1	puissant	
3895	1	puissent	
3896	1	puits	
3897	1	pulmonique	
3898	1	pur	
3899	1	purement	
3900	1	pures	
3901	1	pussent	
3902	1	pâlir	
3903	1	pâmé	
3904	1	pèlerin	
3905	1	pédales	
3906	1	pénible	
3907	1	péniblement	
3908	1	pénibles	
3909	1	pénètre	
3910	1	pénètrent	
3911	1	pénétrait	
3912	1	pénétrant	
3913	1	péril	
3914	1	périr	
3915	1	péristyle	
3916	1	pût	
3917	1	quantité	
3918	1	quarantième	
3919	1	quarte	
3920	1	quartier	
3921	1	quatorze	
3922	1	quatrième	
3923	1	quatuor	
3924	1	quelquefois	
3925	1	questionna	
3926	1	quiconque	
3927	1	quintes	
3928	1	quintessence	
3929	1	quintetto	
3930	1	quinze	
3931	1	quittez	
3932	1	quoiqu	
3933	1	raccommodages	
3934	1	raccommodant	
3935	1	raccommodeur	
3936	1	raccourcit	
3937	1	racine	
3938	1	racines	
3939	1	raconter	
3940	1	radicale	
3941	1	raffinements	
3942	1	rafraîchit	
3943	1	rage	
3944	1	ragoûts	
3945	1	raisonne	
3946	1	rajusta	
3947	1	rallier	
3948	1	ralluma	
3949	1	ramena	
3950	1	ramenait	
3951	1	ramener	
3952	1	ramenée	
3953	1	rangeant	
3954	1	rapide	
3955	1	rapidité	
3956	1	rappel	
3957	1	rappela	
3958	1	rappelaient	
3959	1	rappelle	
3960	1	rapporterait	
3961	1	rapprochant	
3962	1	rares	
3963	1	rassemblons	
3964	1	rasseoir	
3965	1	rasseyant	
3966	1	rassit	
3967	1	rassurait	
3968	1	rattache	
3969	1	ravira	
3970	1	ravissement	
3971	1	rayon	
3972	1	rayonnent	
3973	1	rayons	
3974	1	rebelle	
3975	1	rebutés	
3976	1	recettes	
3977	1	recevait	
3978	1	recevant	
3979	1	rechercher	
3980	1	recommencer	
3981	1	recommenceriez	
3982	1	reconnaissance	
3983	1	reconnaît	
3984	1	recouvré	
3985	1	recueillait	
3986	1	recueillement	
3987	1	recueilli	
3988	1	recula	
3989	1	reculant	
3990	1	recèle	
3991	1	redevint	
3992	1	redingote	
3993	1	redoublés	
3994	1	refaire	
3995	1	refleuri	
3996	1	refroidir	
3997	1	refusa	
3998	1	refusera	
3999	1	regarde	
4000	1	regarder	
4001	1	regardé	
4002	1	regrat	
4003	1	regrettant	
4004	1	regretter	
4005	1	reine	
4006	1	rejetaient	
4007	1	relatif	
4008	1	religieusement	
4009	1	religieuses	
4010	1	religieux	
4011	1	relève	
4012	1	remarquer	
4013	1	remarques	
4014	1	remerciement	
4015	1	remonte	
4016	1	remonter	
4017	1	remplacer	
4018	1	rempli	
4019	1	remplissait	
4020	1	remportant	
4021	1	remuent	
4022	1	renaissance	
4023	1	rencontrai	
4024	1	rencontrant	
4025	1	rencontreront	
4026	1	rencontrés	
4027	1	rend	
4028	1	rendant	
4029	1	rendent	
4030	1	renfermât	
4031	1	renonce	
4032	1	renseignements	
4033	1	rente	
4034	1	rentrer	
4035	1	renvoient	
4036	1	reparaît	
4037	1	reparaître	
4038	1	reparut	
4039	1	repentirs	
4040	1	reperdu	
4041	1	reporta	
4042	1	reporté	
4043	1	repose	
4044	1	reposent	
4045	1	repoussaient	
4046	1	repoussant	
4047	1	repousse	
4048	1	repousser	
4049	1	reprenais	
4050	1	reprendre	
4051	1	repris	
4052	1	reproche	
4053	1	reprocher	
4054	1	représentations	
4055	1	représentent	
4056	1	représentées	
4057	1	requiem	
4058	1	respecta	
4059	1	respectueuse	
4060	1	respectueusement	
4061	1	respire	
4062	1	ressemblance	
4063	1	ressemblant	
4064	1	ressentait	
4065	1	ressenties	
4066	1	resserrant	
4067	1	ressort	
4068	1	restant	
4069	1	resté	
4070	1	restés	
4071	1	retenant	
4072	1	retentissait	
4073	1	retentissent	
4074	1	retenue	
4075	1	retirés	
4076	1	retombait	
4077	1	retombons	
4078	1	retombé	
4079	1	retourna	
4080	1	retournant	
4081	1	retraite	
4082	1	retrancha	
4083	1	retrouvant	
4084	1	revenant	
4085	1	revendeur	
4086	1	revendeuses	
4087	1	revenus	
4088	1	reviendrai	
4089	1	reviennent	
4090	1	revoir	
4091	1	revue	
4092	1	revêtit	
4093	1	reçois	
4094	1	reçoivent	
4095	1	ri	
4096	1	riait	
4097	1	rideau	
4098	1	rimer	
4099	1	rire	
4100	1	ris	
4101	1	rivales	
4102	1	rive	
4103	1	riz	
4104	1	romaine	
4105	1	romans	
4106	1	rompant	
4107	1	rompue	
4108	1	rompues	
4109	1	rompus	
4110	1	ronde	
4111	1	ronflait	
4112	1	rose	
4113	1	rosine	
4114	1	rossi	
4115	1	rossignol	
4116	1	rossignolades	
4117	1	rossignols	
4118	1	rouerie	
4119	1	rougeur	
4120	1	rougi	
4121	1	rougissait	
4122	1	rougit	
4123	1	roulèrent	
4124	1	roulé	
4125	1	route	
4126	1	routine	
4127	1	rues	
4128	1	ruinait	
4129	1	ruine	
4130	1	ruinés	
4131	1	ruisseau	
4132	1	ruisseaux	
4133	1	ruisselait	
4134	1	rumeur	
4135	1	râpé	
4136	1	règlement	
4137	1	règles	
4138	1	règne	
4139	1	réagit	
4140	1	réalisera	
4141	1	réalités	
4142	1	réclama	
4143	1	réclame	
4144	1	réconcilier	
4145	1	réduit	
4146	1	réduite	
4147	1	réduits	
4148	1	réfléchissait	
4149	1	réfugié	
4150	1	régale	
4151	1	régiments	
4152	1	régions	
4153	1	régit	
4154	1	régler	
4155	1	réglé	
4156	1	régna	
4157	1	régner	
4158	1	réguliers	
4159	1	régulières	
4160	1	régénérer	
4161	1	réitérés	
4162	1	réjouirent	
4163	1	réjouissez	
4164	1	réminiscence	
4165	1	répandait	
4166	1	répandu	
4167	1	répandue	
4168	1	répliqua	
4169	1	répliques	
4170	1	répondait	
4171	1	répondant	
4172	1	réponse	
4173	1	réprouvé	
4174	1	répètent	
4175	1	répéter	
4176	1	répétition	
4177	1	répété	
4178	1	réservait	
4179	1	réserve	
4180	1	résigné	
4181	1	résistance	
4182	1	résisté	
4183	1	résolution	
4184	1	résonner	
4185	1	résonné	
4186	1	résout	
4187	1	résuma	
4188	1	résument	
4189	1	résumer	
4190	1	résumées	
4191	1	réunion	
4192	1	réussi	
4193	1	réussir	
4194	1	réveillait	
4195	1	réveille	
4196	1	réveillent	
4197	1	réverbère	
4198	1	révolutions	
4199	1	révèle	
4200	1	révélaient	
4201	1	révélassent	
4202	1	rêver	
4203	1	rêvée	
4204	1	sabre	
4205	1	sabéiques	
4206	1	sabéisme	
4207	1	sachant	
4208	1	sachez	
4209	1	sachiez	
4210	1	sacrifice	
4211	1	sacrifices	
4212	1	sacrifiée	
4213	1	sagesses	
4214	1	saintes	
4215	1	saisies	
4216	1	saisir	
4217	1	saisissait	
4218	1	saisissant	
4219	1	saisissiez	
4220	1	sale	
4221	1	salissaient	
4222	1	saltimbanque	
4223	1	samaritaine	
4224	1	sanctuaire	
4225	1	sang	
4226	1	sape	
4227	1	sardaigne	
4228	1	satisfaits	
4229	1	satiété	
4230	1	saules	
4231	1	saumon	
4232	1	saurais	
4233	1	saurait	
4234	1	saurez	
4235	1	sauver	
4236	1	sauvera	
4237	1	sauvé	
4238	1	sauvée	
4239	1	savamment	
4240	1	savant	
4241	1	savantes	
4242	1	savons	
4243	1	savoure	
4244	1	savourer	
4245	1	savoyards	
4246	1	scarlati	
4247	1	schikaneder	
4248	1	scientifiques	
4249	1	scott	
4250	1	sculptées	
4251	1	scélérate	
4252	1	sec	
4253	1	secondo	
4254	1	secondé	
4255	1	secoua	
4256	1	secourable	
4257	1	secrètes	
4258	1	secrétaire	
4259	1	seigneurie	
4260	1	seigneurs	
4261	1	sembla	
4262	1	semblants	
4263	1	semblent	
4264	1	semblera	
4265	1	semblez	
4266	1	semblé	
4267	1	sensation	
4268	1	sensibilité	
4269	1	sensées	
4270	1	sent	
4271	1	sentent	
4272	1	sentir	
4273	1	seraient	
4274	1	serais	
4275	1	sereine	
4276	1	serez	
4277	1	seriez	
4278	1	serions	
4279	1	serpent	
4280	1	serrant	
4281	1	sers	
4282	1	sertisseur	
4283	1	servait	
4284	1	servis	
4285	1	seuil	
4286	1	seuls	
4287	1	sicile	
4288	1	sicilienne	
4289	1	siens	
4290	1	signalait	
4291	1	signes	
4292	1	signorina	
4293	1	sillonna	
4294	1	sillonné	
4295	1	simples	
4296	1	sincérité	
4297	1	singe	
4298	1	singulier	
4299	1	singulières	
4300	1	sinon	
4301	1	situations	
4302	1	sixte	
4303	1	sobriété	
4304	1	sociales	
4305	1	socrate	
4306	1	soi	
4307	1	soigne	
4308	1	soins	
4309	1	soirs	
4310	1	soirée	
4311	1	soirées	
4312	1	sois	
4313	1	soleil	
4314	1	solennité	
4315	1	solitaire	
4316	1	solitaires	
4317	1	sollicité	
4318	1	sombres	
4319	1	sommaire	
4320	1	sommeils	
4321	1	sommelier	
4322	1	somptueux	
4323	1	sondé	
4324	1	songe	
4325	1	songeai	
4326	1	songeait	
4327	1	songeant	
4328	1	sonnaient	
4329	1	sonnets	
4330	1	sonores	
4331	1	sophistes	
4332	1	sortaient	
4333	1	sortait	
4334	1	sortant	
4335	1	sortie	
4336	1	sostenuto	
4337	1	sottise	
4338	1	sottises	
4339	1	sotto	
4340	1	sou	
4341	1	soucie	
4342	1	soufflé	
4343	1	souffrir	
4344	1	souillure	
4345	1	souliers	
4346	1	soulèvent	
4347	1	soumis	
4348	1	soupe	
4349	1	souper	
4350	1	soupirez	
4351	1	soupçonneuse	
4352	1	soupçonné	
4353	1	soupçons	
4354	1	soupèrent	
4355	1	sourcils	
4356	1	souri	
4357	1	soustrayaient	
4358	1	soutenaient	
4359	1	soutenir	
4360	1	soutenue	
4361	1	soutenus	
4362	1	souverainement	
4363	1	souvint	
4364	1	soyez	
4365	1	spasmes	
4366	1	spectateurs	
4367	1	sphères	
4368	1	splendeurs	
4369	1	squelette	
4370	1	stratagèmes	
4371	1	stupeur	
4372	1	stupide	
4373	1	stupéfaits	
4374	1	subirons	
4375	1	subordonné	
4376	1	subordonnées	
4377	1	substantielle	
4378	1	subtilités	
4379	1	successivement	
4380	1	succéda	
4381	1	sueur	
4382	1	suffi	
4383	1	suffirent	
4384	1	suffisante	
4385	1	suffit	
4386	1	suffrages	
4387	1	suite	
4388	1	suivante	
4389	1	suivent	
4390	1	suivie	
4391	1	suivit	
4392	1	supportable	
4393	1	supporter	
4394	1	suppose	
4395	1	supposition	
4396	1	supérieur	
4397	1	supérieure	
4398	1	supérieurs	
4399	1	surdité	
4400	1	surexcitées	
4401	1	surhumain	
4402	1	surnaturel	
4403	1	surnaturelle	
4404	1	surpassé	
4405	1	surplus	
4406	1	surprendre	
4407	1	surprendront	
4408	1	surprenez	
4409	1	surveillé	
4410	1	survenu	
4411	1	suspect	
4412	1	suspendu	
4413	1	sympathisent	
4414	1	séance	
4415	1	sébastien	
4416	1	séchée	
4417	1	séductions	
4418	1	séduire	
4419	1	séduis	
4420	1	séduisent	
4421	1	séduit	
4422	1	séparait	
4423	1	séquestrés	
4424	1	sérail	
4425	1	sérieusement	
4426	1	sérieuses	
4427	1	sérénité	
4428	1	sévère	
4429	1	sûr	
4430	1	sûre	
4431	1	tabac	
4432	1	tableaux	
4433	1	tables	
4434	1	taisez	
4435	1	tait	
4436	1	talisman	
4437	1	tambours	
4438	1	tante	
4439	1	taon	
4440	1	tarda	
4441	1	tatouées	
4442	1	te	
4443	1	tedeschi	
4444	1	teint	
4445	1	tellement	
4446	1	tels	
4447	1	tempes	
4448	1	temple	
4449	1	tempérait	
4450	1	tempérament	
4451	1	tempête	
4452	1	tendait	
4453	1	tendit	
4454	1	tendre	
4455	1	tendu	
4456	1	tentations	
4457	1	tenterai	
4458	1	tentée	
4459	1	terminant	
4460	1	termine	
4461	1	terminée	
4462	1	terrestres	
4463	1	terribles	
4464	1	textes	
4465	1	thèmes	
4466	1	thèse	
4467	1	thé	
4468	1	théorie	
4469	1	théorèmes	
4470	1	tiens	
4471	1	tierces	
4472	1	timbale	
4473	1	timidement	
4474	1	tint	
4475	1	tira	
4476	1	tiranni	
4477	1	tirer	
4478	1	tirèrent	
4479	1	tiré	
4480	1	tirés	
4481	1	tissus	
4482	1	titre	
4483	1	toile	
4484	1	toisant	
4485	1	tokai	
4486	1	tolère	
4487	1	tombai	
4488	1	tombeau	
4489	1	tombé	
4490	1	tombés	
4491	1	tonalité	
4492	1	tons	
4493	1	torrent	
4494	1	torturèrent	
4495	1	toscane	
4496	1	totalement	
4497	1	touchants	
4498	1	touche	
4499	1	touché	
4500	1	touffe	
4501	1	tourmente	
4502	1	tournant	
4503	1	tourner	
4504	1	tournure	
4505	1	tournures	
4506	1	tournée	
4507	1	toutefois	
4508	1	trace	
4509	1	tracer	
4510	1	traces	
4511	1	traduire	
4512	1	tragédies	
4513	1	trahir	
4514	1	trahissaient	
4515	1	train	
4516	1	traitaient	
4517	1	traitement	
4518	1	traités	
4519	1	trame	
4520	1	tranquille	
4521	1	tranquilles	
4522	1	tranquillité	
4523	1	transforme	
4524	1	transformée	
4525	1	transmise	
4526	1	transparent	
4527	1	transport	
4528	1	transporter	
4529	1	transportée	
4530	1	travaillais	
4531	1	travaillait	
4532	1	travaille	
4533	1	travaillent	
4534	1	travaillez	
4535	1	traversant	
4536	1	traînants	
4537	1	tremolo	
4538	1	trempais	
4539	1	tressaillaient	
4540	1	tressaille	
4541	1	tressaillit	
4542	1	tribunal	
4543	1	tribus	
4544	1	trinquant	
4545	1	triomphale	
4546	1	triomphalement	
4547	1	triomphantes	
4548	1	triomphants	
4549	1	triomphateur	
4550	1	triompher	
4551	1	triple	
4552	1	triste	
4553	1	tristes	
4554	1	trié	
4555	1	troisieme	
4556	1	trombone	
4557	1	trottait	
4558	1	trotté	
4559	1	trou	
4560	1	trouvai	
4561	1	trouvais	
4562	1	trouveront	
4563	1	trouvions	
4564	1	trouvée	
4565	1	trouvées	
4566	1	trouvés	
4567	1	trépigné	
4568	1	tue	
4569	1	tuera	
4570	1	tumulte	
4571	1	tumultes	
4572	1	tumultueuses	
4573	1	turin	
4574	1	tutelle	
4575	1	tutti	
4576	1	tuyaux	
4577	1	tué	
4578	1	tuée	
4579	1	tyrannique	
4580	1	tyranniquement	
4581	1	tâchait	
4582	1	tâche	
4583	1	tâtonner	
4584	1	témoignages	
4585	1	témoin	
4586	1	ténor	
4587	1	ténors	
4588	1	tériakis	
4589	1	têtes	
4590	1	tôt	
4591	1	uniformes	
4592	1	unirent	
4593	1	unissait	
4594	1	unit	
4595	1	unité	
4596	1	univers	
4597	1	universelle	
4598	1	usées	
4599	1	utiliser	
4600	1	vagues	
4601	1	vain	
4602	1	vainement	
4603	1	vaisselle	
4604	1	valaient	
4605	1	valait	
4606	1	valent	
4607	1	valse	
4608	1	valu	
4609	1	vapeurs	
4610	1	varese	
4611	1	variations	
4612	1	variée	
4613	1	variées	
4614	1	vassal	
4615	1	vassaux	
4616	1	vaudeville	
4617	1	vaudra	
4618	1	vaut	
4619	1	veau	
4620	1	veillait	
4621	1	veillent	
4622	1	veiller	
4623	1	veine	
4624	1	venant	
4625	1	vend	
4626	1	vendait	
4627	1	vendangeur	
4628	1	vengeance	
4629	1	venir	
4630	1	venise	
4631	1	vente	
4632	1	venue	
4633	1	venues	
4634	1	verba	
4635	1	verbe	
4636	1	vero	
4637	1	verrez	
4638	1	verrous	
4639	1	versant	
4640	1	verte	
4641	1	vertige	
4642	1	vertueuse	
4643	1	vertueuses	
4644	1	vesari	
4645	1	veuille	
4646	1	veuillez	
4647	1	veulent	
4648	1	veuve	
4649	1	vicaires	
4650	1	victime	
4651	1	victimes	
4652	1	vidait	
4653	1	vide	
4654	1	vides	
4655	1	vieil	
4656	1	vieille	
4657	1	viendra	
4658	1	vigne	
4659	1	vigoureuses	
4660	1	vigueur	
4661	1	vili	
4662	1	village	
4663	1	villes	
4664	1	vindicative	
4665	1	vingtaine	
4666	1	viol	
4667	1	violemment	
4668	1	violon	
4669	1	violonistes	
4670	1	violé	
4671	1	virent	
4672	1	vis	
4673	1	viser	
4674	1	visez	
4675	1	vision	
4676	1	visions	
4677	1	visite	
4678	1	vivace	
4679	1	vivacité	
4680	1	vivait	
4681	1	vivant	
4682	1	vivez	
4683	1	vivons	
4684	1	vivra	
4685	1	vocalisation	
4686	1	vocation	
4687	1	voce	
4688	1	voces	
4689	1	voile	
4690	1	voiles	
4691	1	voisinage	
4692	1	voisine	
4693	1	voisins	
4694	1	voit	
4695	1	voiture	
4696	1	voitures	
4697	1	voltaire	
4698	1	voltige	
4699	1	volumes	
4700	1	volumineux	
4701	1	voudrait	
4702	1	voulaient	
4703	1	voulais	
4704	1	vouliez	
4705	1	vouloir	
4706	1	voulus	
4707	1	voué	
4708	1	voyageais	
4709	1	voyageant	
4710	1	voyaient	
4711	1	voyais	
4712	1	voûtes	
4713	1	vrais	
4714	1	vulgaire	
4715	1	vus	
4716	1	vécu	
4717	1	végétation	
4718	1	vénitien	
4719	1	véritable	
4720	1	vétusté	
4721	1	vêtements	
4722	1	vôtre	
4723	1	vœux	
4724	1	walter	
4725	1	zara	
4726	1	zoologie	
4727	1	âpres	
4728	1	ça	
4729	1	ère	
4730	1	ébloui	
4731	1	éblouissant	
4732	1	éblouissantes	
4733	1	ébranla	
4734	1	ébranlent	
4735	1	échantillon	
4736	1	échappa	
4737	1	échappé	
4738	1	échauffa	
4739	1	échauffaient	
4740	1	échelle	
4741	1	éclair	
4742	1	éclairé	
4743	1	éclatante	
4744	1	éclats	
4745	1	éclipsée	
4746	1	économies	
4747	1	écossais	
4748	1	écoutait	
4749	1	écouterez	
4750	1	écouté	
4751	1	écrasées	
4752	1	écrie	
4753	1	écrin	
4754	1	écrirait	
4755	1	écrite	
4756	1	écrites	
4757	1	écrivait	
4758	1	écrivez	
4759	1	écrivit	
4760	1	éculés	
4761	1	écume	
4762	1	écus	
4763	1	égala	
4764	1	égalé	
4765	1	égards	
4766	1	égare	
4767	1	égarée	
4768	1	égayée	
4769	1	égide	
4770	1	église	
4771	1	égout	
4772	1	élan	
4773	1	élance	
4774	1	élancent	
4775	1	élança	
4776	1	élasticités	
4777	1	éleva	
4778	1	élevèrent	
4779	1	élite	
4780	1	éloge	
4781	1	éloges	
4782	1	éloigna	
4783	1	élucubrations	
4784	1	élysées	
4785	1	élégance	
4786	1	élégant	
4787	1	élévation	
4788	1	émis	
4789	1	émouvoir	
4790	1	ému	
4791	1	énergique	
4792	1	énergiquement	
4793	1	énorme	
4794	1	énormes	
4795	1	épanouir	
4796	1	épargnait	
4797	1	épargne	
4798	1	épargné	
4799	1	épaule	
4800	1	épaules	
4801	1	éperdu	
4802	1	éperon	
4803	1	épiait	
4804	1	épier	
4805	1	épilepsie	
4806	1	épithète	
4807	1	épouse	
4808	1	épousseter	
4809	1	éprennent	
4810	1	épreuves	
4811	1	éprouvant	
4812	1	éprouverait	
4813	1	éprouvé	
4814	1	épée	
4815	1	équipées	
4816	1	établies	
4817	1	établit	
4818	1	étalait	
4819	1	étalant	
4820	1	éteignait	
4821	1	éteints	
4822	1	étendait	
4823	1	étendant	
4824	1	étendue	
4825	1	éternelle	
4826	1	éthérée	
4827	1	étincelait	
4828	1	étincelante	
4829	1	étoile	
4830	1	étonna	
4831	1	étonnait	
4832	1	étonner	
4833	1	étonnée	
4834	1	étouffe	
4835	1	étouffera	
4836	1	étouffée	
4837	1	étouffées	
4838	1	étouffés	
4839	1	étourdi	
4840	1	étourdissante	
4841	1	étrangers	
4842	1	étranges	
4843	1	étrangeté	
4844	1	étrangères	
4845	1	étreintes	
4846	1	étroite	
4847	1	études	
4848	1	étudiais	
4849	1	étudié	
4850	1	évaporées	
4851	1	éveillé	
4852	1	éventaires	
4853	1	évidemment	
4854	1	évitait	
4855	1	éviter	
4856	1	éviterait	
4857	1	évocation	
4858	1	évoqué	
4859	1	êtres	
4860	1	ôte	
