1,1106,de
2,637,et
3,622,le
4,604,la
5,522,il
6,449,à
7,363,l
8,309,un
9,281,les
10,273,d
11,249,en
12,241,son
13,213,que
14,213,se
15,212,qui
16,211,du
17,200,une
18,187,au
19,171,s
20,158,ce
21,152,sur
22,149,sa
23,140,est
24,136,noël
25,135,des
26,133,dans
27,133,je
28,132,était
29,126,qu
30,125,ne
31,125,plélan
32,123,pour
33,116,toussaint
34,115,n
35,112,avait
36,111,dit
37,107,malestroit
38,104,mais
39,99,lui
40,93,ses
41,91,vous
42,87,elle
43,84,par
44,83,marguerite
45,81,chantepie
46,79,nous
47,78,pas
48,77,deux
49,71,on
50,71,plus
51,71,si
52,68,avec
53,67,mon
54,67,point
55,63,marais
56,62,tout
57,61,c
58,59,comme
59,58,t
60,57,où
61,56,bien
62,56,tu
63,51,guy
64,48,enfant
65,47,armes
66,46,sans
67,45,blaise
68,45,chaland
69,44,encore
70,42,autre
71,42,aux
72,42,hommes
73,42,ils
74,41,cheval
75,40,a
76,40,madame
77,39,capitaine
78,39,cette
79,39,vers
80,38,femme
81,38,mort
82,38,voix
83,37,fit
84,37,m
85,37,puis
86,37,répondit
87,37,y
88,37,écria
89,36,dame
90,36,fils
91,36,guer
92,36,homme
93,36,me
94,34,ermengarde
95,33,blanche
96,32,château
97,32,fut
98,32,même
99,31,être
100,30,dont
101,30,là
102,30,ou
103,30,père
104,29,coup
105,29,dieu
106,29,moment
107,29,quand
108,28,ai
109,28,murmura
110,28,reprit
111,28,temps
112,28,tous
113,28,tête
114,27,amaury
115,27,fois
116,27,j
117,27,ma
118,27,main
119,26,chemin
120,26,moi
121,26,peut
122,25,avant
123,25,ces
124,25,leurs
125,24,eau
126,24,faire
127,24,monseigneur
128,24,près
129,24,toujours
130,24,veneur
131,23,dernier
132,23,gens
133,22,barque
134,22,fait
135,22,oust
136,22,prit
137,22,quelques
138,21,bon
139,21,car
140,21,cœur
141,21,demanda
142,21,entre
143,20,faut
144,20,mes
145,20,messire
146,20,mit
147,20,nom
148,20,notre
149,20,nuit
150,20,or
151,20,rohan
152,20,route
153,19,avaient
154,19,bras
155,19,donc
156,19,gourlâ
157,19,jour
158,19,loin
159,19,manoir
160,19,quelque
161,19,regard
162,19,seigneur
163,18,bateau
164,18,cria
165,18,français
166,18,rive
167,18,te
168,18,tournant
169,18,votre
170,17,après
171,17,eût
172,17,jeune
173,17,maintenant
174,17,milieu
175,17,ni
176,17,pauvre
177,17,rien
178,17,rivage
179,17,soldats
180,17,yeux
181,17,épée
182,16,cela
183,16,mains
184,16,maître
185,16,renot
186,16,ton
187,16,voir
188,16,étaient
189,15,as
190,15,bas
191,15,bonnet
192,15,cavaliers
193,15,jusqu
194,15,soit
195,15,sous
196,15,torrec
197,15,toute
198,15,trop
199,14,ainsi
200,14,bientôt
201,14,bord
202,14,brouillard
203,14,bruit
204,14,celui
205,14,cet
206,14,courant
207,14,depuis
208,14,disait
209,14,huguenots
210,14,lac
211,14,long
212,14,perche
213,14,porte
214,14,sont
215,14,vit
216,13,chaque
217,13,distance
218,13,effet
219,13,feu
220,13,fond
221,13,grand
222,13,grande
223,13,heure
224,13,instant
225,13,leur
226,13,pays
227,13,place
228,13,semblait
229,13,seul
230,13,soleil
231,13,ta
232,13,terre
233,13,vue
234,13,été
235,13,œil
236,12,aurait
237,12,avoir
238,12,batelier
239,12,beau
240,12,belle
241,12,côté
242,12,devant
243,12,diable
244,12,dire
245,12,fort
246,12,garde
247,12,gentilhomme
248,12,gouffre
249,12,lieu
250,12,noble
251,12,petit
252,12,pied
253,12,toi
254,12,vieille
255,12,visage
256,12,voici
257,11,anneau
258,11,chevalier
259,11,contre
260,11,derrière
261,11,dessus
262,11,doute
263,11,déjà
264,11,faible
265,11,front
266,11,plein
267,11,quimper
268,11,sais
269,11,saisit
270,11,sera
271,11,sire
272,11,soldat
273,11,sorcière
274,11,tour
275,11,trémeulé
276,11,veux
277,11,vie
278,11,vient
279,11,ça
280,10,alors
281,10,aussitôt
282,10,autour
283,10,autres
284,10,bac
285,10,basse
286,10,bonne
287,10,celle
288,10,chevaux
289,10,chose
290,10,eux
291,10,face
292,10,force
293,10,forêt
294,10,huguenot
295,10,ici
296,10,lorsque
297,10,lune
298,10,malheureux
299,10,mis
300,10,mère
301,10,parce
302,10,parfois
303,10,peu
304,10,presque
305,10,secours
306,10,trois
307,10,venait
308,10,vin
309,9,air
310,9,aussi
311,9,but
312,9,ci
313,9,cou
314,9,danger
315,9,dix
316,9,eaux
317,9,enfin
318,9,entendu
319,9,gauthier
320,9,haut
321,9,joie
322,9,maîtresse
323,9,mots
324,9,nantais
325,9,nos
326,9,oreille
327,9,partie
328,9,pouvait
329,9,premier
330,9,pu
331,9,put
332,9,péril
333,9,quel
334,9,rapidement
335,9,restait
336,9,rieux
337,9,saint
338,9,salle
339,9,sentit
340,9,sergent
341,9,serviteur
342,9,silence
343,9,tant
344,9,tenait
345,9,vannes
346,9,vieux
347,9,çà
348,8,aura
349,8,bons
350,8,brave
351,8,chef
352,8,chercher
353,8,faisait
354,8,fille
355,8,longtemps
356,8,merci
357,8,minutes
358,8,non
359,8,parler
360,8,pendant
361,8,petite
362,8,première
363,8,pris
364,8,périls
365,8,rire
366,8,répéta
367,8,sang
368,8,seulement
369,8,suis
370,8,tapisserie
371,8,tard
372,8,tristement
373,8,va
374,8,vais
375,8,vincent
376,8,voilà
377,8,voyage
378,8,vu
379,8,île
380,7,aide
381,7,arbres
382,7,arquebuses
383,7,arrêta
384,7,avez
385,7,avirons
386,7,bernard
387,7,bretagne
388,7,bride
389,7,ciel
390,7,combat
391,7,courage
392,7,cri
393,7,croix
394,7,donner
395,7,drôle
396,7,entendre
397,7,es
398,7,espoir
399,7,fin
400,7,fût
401,7,genoux
402,7,guerre
403,7,hervé
404,7,interrompit
405,7,jeta
406,7,large
407,7,leva
408,7,lieues
409,7,longue
410,7,lèvres
411,7,mal
412,7,mettre
413,7,mieux
414,7,moitié
415,7,montra
416,7,morte
417,7,neuf
418,7,ombre
419,7,ont
420,7,passeur
421,7,passé
422,7,peine
423,7,pitié
424,7,portait
425,7,poussa
426,7,prendre
427,7,quarante
428,7,rameurs
429,7,roche
430,7,sentinelle
431,7,servir
432,7,seuil
433,7,signe
434,7,six
435,7,sorte
436,7,sourire
437,7,table
438,7,venir
439,7,vilaine
440,7,voulut
441,7,époux
442,6,afin
443,6,arquebuse
444,6,arriva
445,6,avons
446,6,barques
447,6,cessa
448,6,ceux
449,6,combattre
450,6,comtesse
451,6,continua
452,6,cours
453,6,davantage
454,6,demi
455,6,disparut
456,6,doigt
457,6,droite
458,6,désespoir
459,6,ensuite
460,6,entra
461,6,ferme
462,6,fidèle
463,6,gagner
464,6,importe
465,6,jamais
466,6,lutin
467,6,légende
468,6,macres
469,6,maison
470,6,maudit
471,6,moins
472,6,mourir
473,6,nouveau
474,6,nuage
475,6,nulle
476,6,os
477,6,partit
478,6,passant
479,6,passe
480,6,pensa
481,6,pieds
482,6,plaît
483,6,porter
484,6,ramez
485,6,redon
486,6,regarda
487,6,reliquaire
488,6,reste
489,6,retraite
490,6,revint
491,6,rivière
492,6,répondre
493,6,sauver
494,6,secrète
495,6,signal
496,6,sortit
497,6,subitement
498,6,tendit
499,6,tira
500,6,touchant
501,6,toutes
502,6,trouver
503,6,trouvé
504,6,vaillant
505,6,vassal
506,6,vassaux
507,6,vent
508,6,vilain
509,6,ville
510,6,vint
511,6,vivement
512,6,vos
513,6,église
514,5,aimait
515,5,allaient
516,5,aller
517,5,ami
518,5,arbalète
519,5,assez
520,5,attendre
521,5,auprès
522,5,auquel
523,5,baissa
524,5,blanc
525,5,bords
526,5,carabine
527,5,cause
528,5,ceci
529,5,cents
530,5,colère
531,5,corentin
532,5,courants
533,5,courut
534,5,criait
535,5,demande
536,5,derniers
537,5,devait
538,5,direction
539,5,donna
540,5,donné
541,5,détachement
542,5,effort
543,5,endroit
544,5,entendit
545,5,esprit
546,5,faites
547,5,flambeau
548,5,frappa
549,5,galop
550,5,halbrans
551,5,histoire
552,5,héritier
553,5,impatience
554,5,laissé
555,5,larmes
556,5,lit
557,5,lourde
558,5,manière
559,5,marthe
560,5,matin
561,5,misérable
562,5,monsieur
563,5,mouvement
564,5,murailles
565,5,naguère
566,5,ordinaire
567,5,oui
568,5,parle
569,5,parti
570,5,passait
571,5,passer
572,5,pensait
573,5,portrait
574,5,portée
575,5,pourquoi
576,5,prier
577,5,prière
578,5,quatre
579,5,quitté
580,5,quoi
581,5,rapide
582,5,rayons
583,5,releva
584,5,resté
585,5,revenir
586,5,rocher
587,5,roi
588,5,rustre
589,5,récompense
590,5,salut
591,5,sauta
592,5,savoir
593,5,seigneurs
594,5,sens
595,5,sentait
596,5,sentinelles
597,5,soir
598,5,sommeil
599,5,sommes
600,5,souterrain
601,5,souvent
602,5,suivant
603,5,terrible
604,5,toucha
605,5,travers
606,5,traversée
607,5,troupe
608,5,vaincu
609,5,voyait
610,5,voyez
611,5,âge
612,5,éclata
613,5,épais
614,5,êtes
615,4,abord
616,4,adressant
617,4,aime
618,4,ait
619,4,ajouta
620,4,allait
621,4,allez
622,4,arriver
623,4,attendait
624,4,avais
625,4,aviron
626,4,bandit
627,4,besoin
628,4,blessé
629,4,bouche
630,4,bourse
631,4,bout
632,4,brille
633,4,briller
634,4,broc
635,4,calme
636,4,camp
637,4,cependant
638,4,chair
639,4,chambre
640,4,chanson
641,4,chasse
642,4,cher
643,4,cinq
644,4,clous
645,4,commença
646,4,convulsivement
647,4,cordes
648,4,course
649,4,courte
650,4,cris
651,4,crois
652,4,crut
653,4,debout
654,4,dessous
655,4,dis
656,4,donne
657,4,duquel
658,4,durant
659,4,dès
660,4,découvrit
661,4,défendre
662,4,démon
663,4,désormais
664,4,ennemi
665,4,eut
666,4,faisant
667,4,fallait
668,4,faudra
669,4,femmes
670,4,fi
671,4,fief
672,4,firent
673,4,flacons
674,4,forme
675,4,france
676,4,frapper
677,4,fugitifs
678,4,gagné
679,4,gauche
680,4,geste
681,4,glace
682,4,glisser
683,4,gobelet
684,4,grommela
685,4,hardi
686,4,hautes
687,4,heures
688,4,hâte
689,4,hélas
690,4,immobile
691,4,issue
692,4,jeté
693,4,jours
694,4,laissait
695,4,laissez
696,4,lande
697,4,lente
698,4,ligne
699,4,livrer
700,4,lutte
701,4,maîtres
702,4,membres
703,4,mer
704,4,mois
705,4,monde
706,4,monotone
707,4,monté
708,4,morne
709,4,mot
710,4,mèche
711,4,nenni
712,4,neuve
713,4,nombre
714,4,objet
715,4,obscurité
716,4,obéit
717,4,page
718,4,papiste
719,4,parchemin
720,4,passage
721,4,pauvres
722,4,pelouse
723,4,pendre
724,4,penses
725,4,percer
726,4,perdait
727,4,personne
728,4,peur
729,4,pistolets
730,4,pleine
731,4,plusieurs
732,4,poignard
733,4,porta
734,4,pourrait
735,4,poursuite
736,4,poursuivit
737,4,pourtant
738,4,poussière
739,4,prise
740,4,présence
741,4,prétends
742,4,prêts
743,4,pût
744,4,quelqu
745,4,quitta
746,4,quitter
747,4,rame
748,4,rames
749,4,rasade
750,4,regardaient
751,4,revient
752,4,robe
753,4,rudement
754,4,sainte
755,4,saisir
756,4,santé
757,4,saules
758,4,sauvé
759,4,second
760,4,sortir
761,4,sourd
762,4,souriait
763,4,suivre
764,4,taille
765,4,taillis
766,4,tandis
767,4,tenaient
768,4,tenir
769,4,terrain
770,4,tourna
771,4,trait
772,4,troisième
773,4,trouve
774,4,tuer
775,4,vaste
776,4,veille
777,4,versa
778,4,veut
779,4,vide
780,4,vitesse
781,4,voile
782,4,volonté
783,4,voulu
784,4,véritable
785,4,écus
786,4,élança
787,4,épaule
788,4,étonné
789,3,ah
790,3,aigu
791,3,ailleurs
792,3,allons
793,3,allumé
794,3,angoisse
795,3,anne
796,3,apercevait
797,3,apercevoir
798,3,apparence
799,3,appelait
800,3,approcha
801,3,approchaient
802,3,approchait
803,3,arbalètes
804,3,arme
805,3,arrivait
806,3,assit
807,3,attaquera
808,3,atteindre
809,3,aujourd
810,3,auray
811,3,automne
812,3,avidement
813,3,avis
814,3,ayant
815,3,bacs
816,3,bague
817,3,baiser
818,3,ballade
819,3,balle
820,3,bambin
821,3,beauté
822,3,brillait
823,3,brume
824,3,brutal
825,3,bruyamment
826,3,bénisse
827,3,cachez
828,3,campagne
829,3,catholiques
830,3,cavalier
831,3,cercle
832,3,cesse
833,3,chacun
834,3,champ
835,3,champs
836,3,changer
837,3,chantait
838,3,chantant
839,3,chargé
840,3,cheveux
841,3,châtelaine
842,3,complètement
843,3,compte
844,3,connaissait
845,3,continuer
846,3,cordon
847,3,couchés
848,3,coupé
849,3,demain
850,3,demeurait
851,3,deniers
852,3,deuxième
853,3,devenu
854,3,deviné
855,3,diriger
856,3,disant
857,3,dos
858,3,doubler
859,3,découvert
860,3,déposa
861,3,détour
862,3,effroi
863,3,endormi
864,3,endormit
865,3,enfance
866,3,ennemis
867,3,environs
868,3,envoya
869,3,eu
870,3,eussent
871,3,expression
872,3,facilement
873,3,fais
874,3,faite
875,3,fasse
876,3,fatigue
877,3,fenêtres
878,3,fer
879,3,fera
880,3,flacon
881,3,flamme
882,3,foi
883,3,formait
884,3,fou
885,3,franchit
886,3,frayeur
887,3,frémir
888,3,fugitif
889,3,furent
890,3,furieux
891,3,fuyez
892,3,gage
893,3,gagnait
894,3,gant
895,3,garçon
896,3,gentilshommes
897,3,gigantesque
898,3,grands
899,3,grave
900,3,gros
901,3,habitude
902,3,haie
903,3,hasard
904,3,haute
905,3,herbe
906,3,heureuse
907,3,heureux
908,3,horizon
909,3,hui
910,3,humide
911,3,hâter
912,3,hé
913,3,hérétiques
914,3,idée
915,3,image
916,3,intelligence
917,3,intrépide
918,3,intrépidité
919,3,invincible
920,3,jambes
921,3,joue
922,3,journées
923,3,joyeux
924,3,jurait
925,3,juste
926,3,laisser
927,3,laquelle
928,3,lendemain
929,3,lequel
930,3,longs
931,3,lors
932,3,lueur
933,3,lumière
934,3,lâche
935,3,lèvre
936,3,léger
937,3,manant
938,3,marche
939,3,marché
940,3,maudite
941,3,meilleur
942,3,message
943,3,mesure
944,3,mets
945,3,mille
946,3,minute
947,3,mirent
948,3,mission
949,3,mm
950,3,monstre
951,3,monta
952,3,montait
953,3,monture
954,3,montée
955,3,moyen
956,3,mule
957,3,muraille
958,3,murmurait
959,3,murmure
960,3,naissance
961,3,nobles
962,3,noire
963,3,nul
964,3,occasion
965,3,oh
966,3,ordre
967,3,oreilles
968,3,oublier
969,3,ouest
970,3,ouvrir
971,3,parmi
972,3,paroles
973,3,part
974,3,parte
975,3,parts
976,3,passion
977,3,passèrent
978,3,paupière
979,3,payer
980,3,paysan
981,3,paysans
982,3,pensez
983,3,percher
984,3,perte
985,3,petites
986,3,pierre
987,3,piqua
988,3,pleurait
989,3,plis
990,3,poignée
991,3,poitrine
992,3,porté
993,3,poste
994,3,pourra
995,3,poursuivre
996,3,pouvaient
997,3,pressa
998,3,prirent
999,3,proie
1000,3,prononça
1001,3,présent
1002,3,présentait
1003,3,pêcheur
1004,3,quant
1005,3,quart
1006,3,quelle
1007,3,race
1008,3,rage
1009,3,rapière
1010,3,reconnais
1011,3,reconnaître
1012,3,reflets
1013,3,regarde
1014,3,regards
1015,3,remit
1016,3,rencontre
1017,3,rendit
1018,3,rendre
1019,3,rentra
1020,3,reprendre
1021,3,respect
1022,3,resta
1023,3,retour
1024,3,rouet
1025,3,récit
1026,3,répondirent
1027,3,sauveur
1028,3,savait
1029,3,secouant
1030,3,sentir
1031,3,serait
1032,3,serve
1033,3,soin
1034,3,soixante
1035,3,souper
1036,3,sourcils
1037,3,souriant
1038,3,sourit
1039,3,souvenir
1040,3,subite
1041,3,suivait
1042,3,suivi
1043,3,supérieurs
1044,3,surprendre
1045,3,surtout
1046,3,suspendue
1047,3,séparait
1048,3,tel
1049,3,tentes
1050,3,tiens
1051,3,toile
1052,3,tomba
1053,3,tomber
1054,3,tordrai
1055,3,toucher
1056,3,transport
1057,3,trappe
1058,3,traverser
1059,3,traversé
1060,3,traître
1061,3,trente
1062,3,tristesse
1063,3,tromper
1064,3,trouvait
1065,3,trésor
1066,3,tué
1067,3,têtes
1068,3,vainqueurs
1069,3,venu
1070,3,venue
1071,3,verdure
1072,3,vierge
1073,3,vins
1074,3,vira
1075,3,vis
1076,3,visite
1077,3,vite
1078,3,vive
1079,3,vois
1080,3,voulait
1081,3,voulant
1082,3,vrai
1083,3,âme
1084,3,échappé
1085,3,éclatant
1086,3,écoutez
1087,3,écume
1088,3,également
1089,3,éloignée
1090,3,énorme
1091,3,épouvante
1092,3,épuisé
1093,3,établi
1094,3,étrange
1095,3,éveilla
1096,3,ôta
1097,2,abri
1098,2,accablement
1099,2,accomplir
1100,2,acculer
1101,2,acte
1102,2,action
1103,2,adieu
1104,2,aille
1105,2,alla
1106,2,allégresse
1107,2,angle
1108,2,annoncer
1109,2,années
1110,2,aperçut
1111,2,appel
1112,2,appela
1113,2,appelle
1114,2,approcher
1115,2,appuya
1116,2,appuyé
1117,2,appuyée
1118,2,aride
1119,2,armés
1120,2,arquebusade
1121,2,arrière
1122,2,arrêt
1123,2,arrêtait
1124,2,arrêtèrent
1125,2,asile
1126,2,aspect
1127,2,assis
1128,2,attaqué
1129,2,attendaient
1130,2,attendant
1131,2,attendez
1132,2,attente
1133,2,attentivement
1134,2,attitude
1135,2,aurai
1136,2,aurais
1137,2,autrefois
1138,2,avance
1139,2,avantage
1140,2,avançait
1141,2,baisa
1142,2,baissés
1143,2,bande
1144,2,baudet
1145,2,beaucoup
1146,2,biais
1147,2,blanchâtre
1148,2,blessure
1149,2,boire
1150,2,bonheur
1151,2,bonnes
1152,2,bourg
1153,2,braves
1154,2,breton
1155,2,bretonne
1156,2,brillant
1157,2,broyée
1158,2,broyés
1159,2,bu
1160,2,bâton
1161,2,béni
1162,2,bénédiction
1163,2,cabane
1164,2,cache
1165,2,cailloux
1166,2,calvin
1167,2,capables
1168,2,carreaux
1169,2,cavalcade
1170,2,ceinture
1171,2,changeait
1172,2,chante
1173,2,chanter
1174,2,chasseur
1175,2,chaume
1176,2,chercha
1177,2,chez
1178,2,choc
1179,2,choisir
1180,2,choix
1181,2,cinquante
1182,2,circonstance
1183,2,cité
1184,2,combien
1185,2,commandement
1186,2,commencement
1187,2,comment
1188,2,commençait
1189,2,commun
1190,2,compagnie
1191,2,comprends
1192,2,comptait
1193,2,compère
1194,2,confiance
1195,2,confident
1196,2,confié
1197,2,conseil
1198,2,conservé
1199,2,considérablement
1200,2,construit
1201,2,continuait
1202,2,continuèrent
1203,2,convenait
1204,2,convient
1205,2,corde
1206,2,cornouailles
1207,2,couchée
1208,2,coule
1209,2,couplet
1210,2,coupée
1211,2,cour
1212,2,courent
1213,2,courir
1214,2,couvrait
1215,2,couvre
1216,2,couvrit
1217,2,craignait
1218,2,craignant
1219,2,craindre
1220,2,craint
1221,2,croisa
1222,2,croyait
1223,2,cru
1224,2,crue
1225,2,crépuscule
1226,2,curiosité
1227,2,cède
1228,2,côtes
1229,2,côtés
1230,2,daigne
1231,2,damoiselle
1232,2,dangereux
1233,2,dangers
1234,2,delà
1235,2,demandait
1236,2,demander
1237,2,demeure
1238,2,dernière
1239,2,dernières
1240,2,descendit
1241,2,descendu
1242,2,dessein
1243,2,dessinait
1244,2,devenait
1245,2,devenir
1246,2,devoir
1247,2,diabolique
1248,2,diminuer
1249,2,disparaît
1250,2,disque
1251,2,distinguait
1252,2,dites
1253,2,domaine
1254,2,don
1255,2,donnerait
1256,2,dormait
1257,2,douzaine
1258,2,droit
1259,2,duc
1260,2,dur
1261,2,dut
1262,2,débris
1263,2,décharge
1264,2,découvrir
1265,2,défenses
1266,2,défiait
1267,2,défie
1268,2,déguiser
1269,2,délire
1270,2,départ
1271,2,dépêche
1272,2,dépôt
1273,2,déterminé
1274,2,détresse
1275,2,dévouement
1276,2,dévoué
1277,2,eh
1278,2,elles
1279,2,emploi
1280,2,emportée
1281,2,empêcher
1282,2,enfantine
1283,2,enfonce
1284,2,engagea
1285,2,entend
1286,2,entendait
1287,2,entends
1288,2,entière
1289,2,entraîner
1290,2,entreprise
1291,2,entretenir
1292,2,entrèrent
1293,2,envie
1294,2,escarcelle
1295,2,espion
1296,2,eurent
1297,2,exhalait
1298,2,faisaient
1299,2,faits
1300,2,fanfaron
1301,2,fauteuil
1302,2,façon
1303,2,fend
1304,2,ferait
1305,2,fermer
1306,2,fermé
1307,2,feuillage
1308,2,feuille
1309,2,figurer
1310,2,fil
1311,2,fine
1312,2,finissait
1313,2,firmament
1314,2,flanc
1315,2,flèche
1316,2,forcer
1317,2,forces
1318,2,formés
1319,2,forts
1320,2,fracas
1321,2,franchirent
1322,2,frappant
1323,2,frappé
1324,2,frappée
1325,2,froid
1326,2,frotter
1327,2,fuir
1328,2,fuite
1329,2,fureur
1330,2,fussent
1331,2,fuyait
1332,2,fuyant
1333,2,gai
1334,2,garda
1335,2,garnie
1336,2,garçons
1337,2,genou
1338,2,gestes
1339,2,gibier
1340,2,gorge
1341,2,grandi
1342,2,grimace
1343,2,gris
1344,2,grosse
1345,2,grâce
1346,2,guerroyer
1347,2,guettait
1348,2,général
1349,2,généreux
1350,2,haine
1351,2,hennepont
1352,2,hier
1353,2,hiver
1354,2,honneur
1355,2,honnête
1356,2,hors
1357,2,humeur
1358,2,humides
1359,2,hurla
1360,2,hâta
1361,2,héritage
1362,2,héros
1363,2,hésitait
1364,2,ignorant
1365,2,imagination
1366,2,immense
1367,2,impitoyables
1368,2,inclina
1369,2,indifférence
1370,2,insensiblement
1371,2,instinct
1372,2,intelligent
1373,2,intérieur
1374,2,inégale
1375,2,jetait
1376,2,jetant
1377,2,jette
1378,2,jeu
1379,2,journée
1380,2,joyeusement
1381,2,judas
1382,2,jusque
1383,2,laisse
1384,2,laissée
1385,2,lancé
1386,2,landes
1387,2,langues
1388,2,lança
1389,2,largeur
1390,2,lentement
1391,2,lenteur
1392,2,lieutenant
1393,2,limier
1394,2,lisse
1395,2,lointain
1396,2,loisir
1397,2,longues
1398,2,longueur
1399,2,lorsqu
1400,2,lutter
1401,2,légitime
1402,2,maire
1403,2,malgré
1404,2,malheur
1405,2,marchait
1406,2,marteau
1407,2,matois
1408,2,mens
1409,2,mercœur
1410,2,messeigneurs
1411,2,mettant
1412,2,miroir
1413,2,moine
1414,2,moines
1415,2,monter
1416,2,montrait
1417,2,montés
1418,2,mortel
1419,2,morts
1420,2,mourant
1421,2,moururent
1422,2,mourut
1423,2,moutons
1424,2,mugissait
1425,2,mèches
1426,2,mène
1427,2,méchante
1428,2,mêle
1429,2,mêlée
1430,2,nager
1431,2,naturel
1432,2,noir
1433,2,noirs
1434,2,nommait
1435,2,nomme
1436,2,noms
1437,2,normand
1438,2,nouvelle
1439,2,nuages
1440,2,néanmoins
1441,2,obéir
1442,2,oisif
1443,2,oraison
1444,2,ordonné
1445,2,orgueil
1446,2,osait
1447,2,ossements
1448,2,oublié
1449,2,palis
1450,2,parcourir
1451,2,pareille
1452,2,pareils
1453,2,parole
1454,2,partir
1455,2,partirent
1456,2,partout
1457,2,passa
1458,2,passaient
1459,2,passée
1460,2,penchèrent
1461,2,pendus
1462,2,pensant
1463,2,pensée
1464,2,perdu
1465,2,physionomie
1466,2,pie
1467,2,pieux
1468,2,pillage
1469,2,piquant
1470,2,piste
1471,2,pistolet
1472,2,planait
1473,2,plat
1474,2,poids
1475,2,poing
1476,2,pointe
1477,2,points
1478,2,pontivy
1479,2,portaient
1480,2,portant
1481,2,portes
1482,2,portraits
1483,2,pourpre
1484,2,poursuivis
1485,2,poussé
1486,2,pouvons
1487,2,prairie
1488,2,premiers
1489,2,pressant
1490,2,prieront
1491,2,prisonnier
1492,2,prix
1493,2,proclamation
1494,2,profonde
1495,2,prolongé
1496,2,promesse
1497,2,promesses
1498,2,promis
1499,2,promise
1500,2,propre
1501,2,proue
1502,2,prudent
1503,2,précaution
1504,2,précieux
1505,2,précipita
1506,2,précipitation
1507,2,précoce
1508,2,prêt
1509,2,prêta
1510,2,prête
1511,2,puisse
1512,2,pâle
1513,2,pâlissant
1514,2,pèlerinage
1515,2,pèlerins
1516,2,péché
1517,2,quartier
1518,2,quiconque
1519,2,quittait
1520,2,raconter
1521,2,rangs
1522,2,rangèrent
1523,2,rassit
1524,2,rebord
1525,2,reconnaissance
1526,2,reconnue
1527,2,recours
1528,2,recueillir
1529,2,recula
1530,2,reculé
1531,2,referma
1532,2,refrain
1533,2,regardait
1534,2,regardez
1535,2,rejoignant
1536,2,rejoindre
1537,2,rejoint
1538,2,relever
1539,2,religion
1540,2,relâche
1541,2,remplis
1542,2,rentrer
1543,2,ressemble
1544,2,restaient
1545,2,rester
1546,2,retint
1547,2,retourna
1548,2,retrouver
1549,2,revenait
1550,2,revoir
1551,2,reçu
1552,2,reçut
1553,2,riche
1554,2,rideau
1555,2,rougeâtre
1556,2,rude
1557,2,ruisseaux
1558,2,réfléchit
1559,2,répliqua
1560,2,répondait
1561,2,résolument
1562,2,résolut
1563,2,résultat
1564,2,rétrécit
1565,2,réunion
1566,2,saisissant
1567,2,sait
1568,2,salon
1569,2,satisfait
1570,2,sauf
1571,2,saurions
1572,2,sauva
1573,2,sauvés
1574,2,sec
1575,2,seconde
1576,2,secoua
1577,2,sein
1578,2,seizième
1579,2,selle
1580,2,semblaient
1581,2,sentier
1582,2,sept
1583,2,serrées
1584,2,serviteurs
1585,2,seule
1586,2,sienne
1587,2,sifflant
1588,2,signes
1589,2,silencieusement
1590,2,sincère
1591,2,siècle
1592,2,soie
1593,2,sol
1594,2,sombre
1595,2,songeaient
1596,2,sort
1597,2,soudard
1598,2,souleva
1599,2,soupçons
1600,2,sourde
1601,2,souterrains
1602,2,souvint
1603,2,spectre
1604,2,su
1605,2,sud
1606,2,sueur
1607,2,suffit
1608,2,suit
1609,2,suite
1610,2,suivaient
1611,2,suivez
1612,2,suivit
1613,2,sujets
1614,2,surface
1615,2,surprise
1616,2,suspendait
1617,2,séparer
1618,2,sévère
1619,2,sûr
1620,2,talus
1621,2,tels
1622,2,tempête
1623,2,tendresse
1624,2,tendue
1625,2,tenez
1626,2,tenons
1627,2,terreur
1628,2,tes
1629,2,tiendrai
1630,2,tirant
1631,2,tirer
1632,2,tirez
1633,2,tombait
1634,2,tombant
1635,2,tombeau
1636,2,touché
1637,2,tourner
1638,2,trahi
1639,2,traits
1640,2,tranquille
1641,2,traversa
1642,2,traversant
1643,2,traversèrent
1644,2,triste
1645,2,trot
1646,2,trou
1647,2,trouva
1648,2,trouvaient
1649,2,trouvèrent
1650,2,tue
1651,2,unique
1652,2,vagues
1653,2,vaillants
1654,2,vain
1655,2,vaincre
1656,2,vaincus
1657,2,vapeur
1658,2,vassale
1659,2,veillez
1660,2,verre
1661,2,vertubleu
1662,2,vida
1663,2,vidait
1664,2,vider
1665,2,vieillards
1666,2,viendra
1667,2,viens
1668,2,villages
1669,2,vingtaine
1670,2,violemment
1671,2,virent
1672,2,viser
1673,2,visiter
1674,2,vivant
1675,2,voilée
1676,2,voisinage
1677,2,voit
1678,2,zénith
1679,2,échappa
1680,2,échapper
1681,2,échappée
1682,2,éclair
1683,2,éclairée
1684,2,écusson
1685,2,égale
1686,2,éleva
1687,2,élève
1688,2,énergie
1689,2,épaisse
1690,2,éperdue
1691,2,époque
1692,2,épouvanté
1693,2,établit
1694,2,éteint
1695,2,étendait
1696,2,étendit
1697,2,éterpeur
1698,2,étions
1699,2,étonnement
1700,2,étouffa
1701,2,étroit
1702,2,événement
1703,1,abaissant
1704,1,abandonna
1705,1,abandonnée
1706,1,abattre
1707,1,aboie
1708,1,abordage
1709,1,abordait
1710,1,abrités
1711,1,absence
1712,1,absent
1713,1,abîme
1714,1,abîmes
1715,1,accepta
1716,1,accepte
1717,1,accident
1718,1,accolade
1719,1,accompagner
1720,1,accompagné
1721,1,accompagnés
1722,1,accord
1723,1,accouraient
1724,1,accoutumées
1725,1,accrue
1726,1,accueillirent
1727,1,acculera
1728,1,acheminait
1729,1,acheter
1730,1,achever
1731,1,acier
1732,1,actuelle
1733,1,adieux
1734,1,admirable
1735,1,admiration
1736,1,admirer
1737,1,adoption
1738,1,adressait
1739,1,adversaire
1740,1,advienne
1741,1,advint
1742,1,affaissa
1743,1,affectant
1744,1,affermés
1745,1,afficher
1746,1,affirmativement
1747,1,affligée
1748,1,affolé
1749,1,agenouilla
1750,1,agenouille
1751,1,agenouiller
1752,1,agirait
1753,1,agit
1754,1,agita
1755,1,agonisant
1756,1,agonisants
1757,1,agresseurs
1758,1,aidé
1759,1,aient
1760,1,aiguiser
1761,1,aiment
1762,1,aimerais
1763,1,aimé
1764,1,ais
1765,1,aises
1766,1,ajoncs
1767,1,ajoutait
1768,1,alain
1769,1,alarme
1770,1,alentours
1771,1,alerte
1772,1,allumer
1773,1,allèrent
1774,1,alternative
1775,1,alternatives
1776,1,amarré
1777,1,amen
1778,1,amenait
1779,1,amener
1780,1,amers
1781,1,amitié
1782,1,amollissent
1783,1,amollit
1784,1,amorcé
1785,1,amphithéâtres
1786,1,ample
1787,1,ampleur
1788,1,amènera
1789,1,amènerai
1790,1,amènerait
1791,1,an
1792,1,anciens
1793,1,anima
1794,1,animer
1795,1,annonce
1796,1,annoncent
1797,1,annonçait
1798,1,annonçant
1799,1,année
1800,1,ans
1801,1,antagoniste
1802,1,apathique
1803,1,aperçoit
1804,1,apparaît
1805,1,apparaître
1806,1,apparente
1807,1,appartient
1808,1,apparut
1809,1,appelant
1810,1,appeler
1811,1,appellent
1812,1,appels
1813,1,appelé
1814,1,apporta
1815,1,apporter
1816,1,appris
1817,1,approche
1818,1,approchèrent
1819,1,approchée
1820,1,apprêtez
1821,1,appui
1822,1,appétit
1823,1,aquatiques
1824,1,arbre
1825,1,argent
1826,1,argentera
1827,1,armoriés
1828,1,armures
1829,1,armée
1830,1,arracha
1831,1,arrangea
1832,1,arrivaient
1833,1,arrive
1834,1,arriverait
1835,1,arrivé
1836,1,arrivée
1837,1,arrivés
1838,1,arrêtant
1839,1,arrêter
1840,1,arrêté
1841,1,arçons
1842,1,arête
1843,1,aspira
1844,1,aspirait
1845,1,assassinat
1846,1,asseyait
1847,1,assiette
1848,1,assise
1849,1,assiste
1850,1,assiéger
1851,1,assurer
1852,1,astucieuse
1853,1,atmosphère
1854,1,attacha
1855,1,attaché
1856,1,atteignent
1857,1,atteignirent
1858,1,atteignit
1859,1,atteint
1860,1,attend
1861,1,attendit
1862,1,attendons
1863,1,attendrai
1864,1,attendus
1865,1,attention
1866,1,attira
1867,1,attire
1868,1,attiré
1869,1,attraction
1870,1,aucun
1871,1,audace
1872,1,audacieux
1873,1,audience
1874,1,audit
1875,1,auras
1876,1,aurez
1877,1,auriez
1878,1,aurons
1879,1,auront
1880,1,austère
1881,1,autant
1882,1,auxquels
1883,1,avancer
1884,1,avança
1885,1,avançaient
1886,1,avenir
1887,1,aventure
1888,1,avenue
1889,1,averti
1890,1,avides
1891,1,avidité
1892,1,avisé
1893,1,axe
1894,1,ayez
1895,1,ayons
1896,1,bah
1897,1,baigné
1898,1,baisant
1899,1,baissèrent
1900,1,baisât
1901,1,balancèrent
1902,1,balayés
1903,1,bancs
1904,1,bandes
1905,1,bandez
1906,1,bandées
1907,1,barbe
1908,1,barrer
1909,1,bascule
1910,1,basses
1911,1,basset
1912,1,bassin
1913,1,bat
1914,1,bataille
1915,1,batailleurs
1916,1,bateaux
1917,1,bateliers
1918,1,battaient
1919,1,battait
1920,1,battements
1921,1,battent
1922,1,bauge
1923,1,bavard
1924,1,bavardait
1925,1,beaux
1926,1,belliqueuse
1927,1,belliqueux
1928,1,berceau
1929,1,bercé
1930,1,besace
1931,1,besogne
1932,1,bidet
1933,1,bienvenue
1934,1,blafarde
1935,1,blaireau
1936,1,blanchi
1937,1,blanchir
1938,1,blanchis
1939,1,blanchissaient
1940,1,blanchissait
1941,1,blasphème
1942,1,blasphémateurs
1943,1,blasphémer
1944,1,blessés
1945,1,blême
1946,1,boirai
1947,1,boiseries
1948,1,boisseaux
1949,1,boiteuse
1950,1,bond
1951,1,bondit
1952,1,bordent
1953,1,borna
1954,1,bornant
1955,1,botte
1956,1,boucles
1957,1,bouclés
1958,1,bouge
1959,1,bouquet
1960,1,bourgades
1961,1,bourgs
1962,1,boussole
1963,1,bouteille
1964,1,bouts
1965,1,brancard
1966,1,branche
1967,1,branches
1968,1,brandit
1969,1,braquées
1970,1,brasse
1971,1,bravait
1972,1,bravant
1973,1,braver
1974,1,bravoure
1975,1,brebis
1976,1,brigand
1977,1,brillaient
1978,1,brin
1979,1,brisa
1980,1,brisé
1981,1,brodé
1982,1,brodée
1983,1,broncha
1984,1,brouillards
1985,1,bruc
1986,1,bruits
1987,1,brumeuse
1988,1,brumeux
1989,1,brune
1990,1,brusquement
1991,1,brutalement
1992,1,bruyantes
1993,1,brèche
1994,1,brûlait
1995,1,bure
1996,1,buvait
1997,1,buvons
1998,1,bâtard
1999,1,béant
2000,1,bénignement
2001,1,bénéfice
2002,1,cachait
2003,1,cacher
2004,1,cachette
2005,1,cachée
2006,1,cadavre
2007,1,cadavres
2008,1,cadeau
2009,1,cadences
2010,1,cadencée
2011,1,calculer
2012,1,cale
2013,1,calvinistes
2014,1,camarade
2015,1,camarades
2016,1,campagnes
2017,1,campait
2018,1,cap
2019,1,capable
2020,1,capitale
2021,1,captivité
2022,1,caractère
2023,1,caractéristiques
2024,1,caravelle
2025,1,carreau
2026,1,carène
2027,1,cas
2028,1,catholique
2029,1,cauchemar
2030,1,causer
2031,1,cauteleuses
2032,1,cauteleux
2033,1,cave
2034,1,caves
2035,1,celles
2036,1,celliers
2037,1,cent
2038,1,centaine
2039,1,centenaire
2040,1,certaine
2041,1,certitude
2042,1,cessant
2043,1,chacune
2044,1,chaire
2045,1,chalands
2046,1,champion
2047,1,chandeleur
2048,1,changeant
2049,1,changé
2050,1,chansonnettes
2051,1,chant
2052,1,chanta
2053,1,chantaient
2054,1,chanteur
2055,1,chants
2056,1,chanté
2057,1,chapeau
2058,1,chapelle
2059,1,charge
2060,1,chargea
2061,1,charger
2062,1,charitable
2063,1,charme
2064,1,charmer
2065,1,chasser
2066,1,chassèrent
2067,1,chassés
2068,1,chaud
2069,1,chaudes
2070,1,chaumes
2071,1,chaumières
2072,1,chausser
2073,1,chausses
2074,1,chaîne
2075,1,chaînes
2076,1,chemins
2077,1,chenue
2078,1,cherchait
2079,1,cherchant
2080,1,cherchez
2081,1,cherché
2082,1,chers
2083,1,chevaliers
2084,1,chevaucher
2085,1,chien
2086,1,chiens
2087,1,choisi
2088,1,chorus
2089,1,chrétien
2090,1,chrétiens
2091,1,chut
2092,1,châteaux
2093,1,châtelain
2094,1,chérie
2095,1,chêne
2096,1,chœur
2097,1,cils
2098,1,circonstances
2099,1,circulaire
2100,1,claire
2101,1,claires
2102,1,clairière
2103,1,clameurs
2104,1,clef
2105,1,clerc
2106,1,cligna
2107,1,clin
2108,1,clocher
2109,1,cloches
2110,1,close
2111,1,colas
2112,1,colline
2113,1,collines
2114,1,colossal
2115,1,colossale
2116,1,combattent
2117,1,combattit
2118,1,comble
2119,1,commanda
2120,1,commence
2121,1,commencera
2122,1,commencèrent
2123,1,commodément
2124,1,compacte
2125,1,compagnon
2126,1,compagnons
2127,1,comparer
2128,1,compartiments
2129,1,complaisant
2130,1,complète
2131,1,composait
2132,1,compose
2133,1,comprend
2134,1,comprendre
2135,1,comptant
2136,1,compté
2137,1,comte
2138,1,concarneau
2139,1,concentrée
2140,1,conclu
2141,1,concourait
2142,1,concurrents
2143,1,conduire
2144,1,conduisait
2145,1,conduisant
2146,1,conduit
2147,1,conduite
2148,1,confia
2149,1,confluent
2150,1,confond
2151,1,confondait
2152,1,confondant
2153,1,confus
2154,1,confusément
2155,1,congé
2156,1,connais
2157,1,connaissance
2158,1,connaissant
2159,1,conseille
2160,1,conseiller
2161,1,consentement
2162,1,considérable
2163,1,consigné
2164,1,consistance
2165,1,consolait
2166,1,construire
2167,1,conta
2168,1,contemplait
2169,1,contenait
2170,1,contenir
2171,1,contenue
2172,1,conter
2173,1,continuellement
2174,1,continué
2175,1,contours
2176,1,contraindre
2177,1,contraire
2178,1,contredire
2179,1,contrées
2180,1,convalescence
2181,1,convenablement
2182,1,convenir
2183,1,convers
2184,1,conçut
2185,1,coquetterie
2186,1,coquin
2187,1,cor
2188,1,corne
2189,1,cornet
2190,1,cornouaille
2191,1,corps
2192,1,corridor
2193,1,costume
2194,1,cotonneuse
2195,1,couche
2196,1,coucher
2197,1,couchèrent
2198,1,couché
2199,1,coula
2200,1,couleur
2201,1,couleurs
2202,1,coulevrines
2203,1,coupa
2204,1,coupait
2205,1,coupant
2206,1,coupe
2207,1,couper
2208,1,couperait
2209,1,coupes
2210,1,coups
2211,1,coupées
2212,1,courageux
2213,1,couraient
2214,1,courait
2215,1,couramment
2216,1,courba
2217,1,courbait
2218,1,courez
2219,1,couronne
2220,1,couronnent
2221,1,courre
2222,1,court
2223,1,courtes
2224,1,courus
2225,1,cousin
2226,1,couteau
2227,1,coutume
2228,1,couvent
2229,1,couvercle
2230,1,couverte
2231,1,couvrant
2232,1,couvrent
2233,1,cracherai
2234,1,craignent
2235,1,crains
2236,1,crainte
2237,1,craintif
2238,1,craquaient
2239,1,criaient
2240,1,crible
2241,1,crinière
2242,1,croisées
2243,1,croupe
2244,1,croyance
2245,1,croyant
2246,1,cruelle
2247,1,créance
2248,1,culbuter
2249,1,cultivés
2250,1,célèbre
2251,1,dagues
2252,1,damnée
2253,1,damnés
2254,1,darde
2255,1,dedans
2256,1,dehors
2257,1,demandaient
2258,1,demandant
2259,1,demanderait
2260,1,demandes
2261,1,demandèrent
2262,1,demeura
2263,1,demeuraient
2264,1,demeuré
2265,1,denses
2266,1,dents
2267,1,descendaient
2268,1,descendez
2269,1,descendirent
2270,1,descendre
2271,1,dessinaient
2272,1,devancer
2273,1,deviendras
2274,1,devine
2275,1,deviner
2276,1,devint
2277,1,devinée
2278,1,dextrement
2279,1,diamantés
2280,1,diaphane
2281,1,dicta
2282,1,difficile
2283,1,digne
2284,1,diminuait
2285,1,dira
2286,1,dirai
2287,1,directement
2288,1,dirigea
2289,1,dirigée
2290,1,discourtois
2291,1,dise
2292,1,disent
2293,1,disons
2294,1,disparaissait
2295,1,disparaître
2296,1,dispersent
2297,1,dispersèrent
2298,1,dispositions
2299,1,disputer
2300,1,disputé
2301,1,dissimula
2302,1,dissiper
2303,1,dissonantes
2304,1,disséminés
2305,1,distinction
2306,1,distincts
2307,1,distingua
2308,1,distinguer
2309,1,divergents
2310,1,divers
2311,1,dixième
2312,1,doigts
2313,1,dois
2314,1,dolent
2315,1,domaines
2316,1,dominait
2317,1,dominent
2318,1,dominé
2319,1,dommages
2320,1,donnaient
2321,1,donnait
2322,1,donnerai
2323,1,donnerais
2324,1,donneras
2325,1,donnerez
2326,1,dormante
2327,1,dormeur
2328,1,dormira
2329,1,dorés
2330,1,doubla
2331,1,double
2332,1,doucement
2333,1,douceur
2334,1,douloureusement
2335,1,douter
2336,1,doutes
2337,1,douze
2338,1,dressa
2339,1,dressait
2340,1,dressé
2341,1,droits
2342,1,drôles
2343,1,dura
2344,1,durée
2345,1,dà
2346,1,débarquèrent
2347,1,débordait
2348,1,déborde
2349,1,débotté
2350,1,déboucha
2351,1,débouchaient
2352,1,décapités
2353,1,déchargeant
2354,1,déchargé
2355,1,déchirant
2356,1,déclaraient
2357,1,déclarée
2358,1,découlait
2359,1,découragement
2360,1,découragée
2361,1,décroissant
2362,1,défaut
2363,1,défense
2364,1,défiez
2365,1,dégagement
2366,1,dégagé
2367,1,dégel
2368,1,déjeuner
2369,1,délicat
2370,1,délicate
2371,1,délices
2372,1,délicieuse
2373,1,délivrance
2374,1,délivré
2375,1,déloyal
2376,1,démasquant
2377,1,démentait
2378,1,démesurée
2379,1,dénouement
2380,1,dépende
2381,1,déploya
2382,1,déposèrent
2383,1,dépouiller
2384,1,dépouillés
2385,1,dérida
2386,1,dérive
2387,1,désappointement
2388,1,désarma
2389,1,désarmés
2390,1,déserts
2391,1,désespérait
2392,1,désespérée
2393,1,déshonorer
2394,1,déshonoré
2395,1,désir
2396,1,désolation
2397,1,désordre
2398,1,détachaient
2399,1,détacher
2400,1,détente
2401,1,détonations
2402,1,détourna
2403,1,détours
2404,1,dévasté
2405,1,dévotions
2406,1,déçu
2407,1,dû
2408,1,effleura
2409,1,effleurait
2410,1,effleurant
2411,1,efforts
2412,1,efforça
2413,1,effraient
2414,1,effrayante
2415,1,effrayer
2416,1,embarquait
2417,1,embarquer
2418,1,embarquions
2419,1,embarqué
2420,1,embarqués
2421,1,embouchure
2422,1,embrassa
2423,1,embrasures
2424,1,emparait
2425,1,emparer
2426,1,empire
2427,1,emplirai
2428,1,emporter
2429,1,emportera
2430,1,empressa
2431,1,empressement
2432,1,empressée
2433,1,emprunta
2434,1,empêchait
2435,1,empêchera
2436,1,empêché
2437,1,encadré
2438,1,encolure
2439,1,endormis
2440,1,endroits
2441,1,enfants
2442,1,enfer
2443,1,enfle
2444,1,enfonça
2445,1,enfourché
2446,1,engage
2447,1,engager
2448,1,engagé
2449,1,engagés
2450,1,engourdir
2451,1,enjoignit
2452,1,ennemies
2453,1,ennui
2454,1,enrouaient
2455,1,enrouée
2456,1,enseigna
2457,1,enseignaient
2458,1,ensemble
2459,1,entendaient
2460,1,entendis
2461,1,enthousiasme
2462,1,entier
2463,1,entièrement
2464,1,entières
2465,1,entonnoir
2466,1,entonné
2467,1,entourait
2468,1,entoure
2469,1,entouré
2470,1,entrait
2471,1,entraîna
2472,1,entraînant
2473,1,entraînées
2474,1,entrent
2475,1,entrer
2476,1,entretenaient
2477,1,enverrai
2478,1,environnants
2479,1,envoyer
2480,1,errante
2481,1,escarpées
2482,1,espèce
2483,1,esquif
2484,1,esquiva
2485,1,essaya
2486,1,essayaient
2487,1,essayait
2488,1,essayer
2489,1,essuya
2490,1,essuyant
2491,1,estimiez
2492,1,exacte
2493,1,exagérés
2494,1,exaucera
2495,1,exciter
2496,1,exclamations
2497,1,exemple
2498,1,exercer
2499,1,exercée
2500,1,exhortaient
2501,1,exigeaient
2502,1,expiation
2503,1,expliquer
2504,1,exprima
2505,1,exprimait
2506,1,exprès
2507,1,expédition
2508,1,extraordinaire
2509,1,extérieure
2510,1,exécutèrent
2511,1,exécuté
2512,1,faiblesse
2513,1,faiblissait
2514,1,faille
2515,1,famille
2516,1,fantaisie
2517,1,fantastique
2518,1,fantastiques
2519,1,fantômes
2520,1,faouët
2521,1,farce
2522,1,farouche
2523,1,farouches
2524,1,fatigues
2525,1,fatigués
2526,1,faute
2527,1,favorable
2528,1,favorisent
2529,1,favorite
2530,1,façons
2531,1,feint
2532,1,fendait
2533,1,fenêtre
2534,1,ferai
2535,1,feraient
2536,1,feras
2537,1,ferma
2538,1,fermai
2539,1,fermait
2540,1,fermement
2541,1,fermés
2542,1,feront
2543,1,fervents
2544,1,feutrée
2545,1,fiançailles
2546,1,fichée
2547,1,fidèles
2548,1,fiers
2549,1,filtrait
2550,1,finesse
2551,1,fini
2552,1,finir
2553,1,fis
2554,1,fissures
2555,1,fixera
2556,1,fière
2557,1,flair
2558,1,fleuve
2559,1,flottaient
2560,1,fléchir
2561,1,fondre
2562,1,fonds
2563,1,font
2564,1,for
2565,1,former
2566,1,formé
2567,1,forteresse
2568,1,fortune
2569,1,força
2570,1,fougueuse
2571,1,fouille
2572,1,fouine
2573,1,fournir
2574,1,fourrageurs
2575,1,foyer
2576,1,franc
2577,1,franchise
2578,1,frange
2579,1,françois
2580,1,frappants
2581,1,fraîche
2582,1,frocs
2583,1,froidement
2584,1,froissa
2585,1,froncés
2586,1,fronçant
2587,1,frotta
2588,1,fruit
2589,1,frère
2590,1,fréquente
2591,1,fréquents
2592,1,frêle
2593,1,fumer
2594,1,fumée
2595,1,funestes
2596,1,funèbre
2597,1,funèbres
2598,1,fureter
2599,1,furieuse
2600,1,furtif
2601,1,futé
2602,1,fâ
2603,1,féodalement
2604,1,fêtait
2605,1,fêtes
2606,1,gagna
2607,1,gagnaient
2608,1,gagnerait
2609,1,gagnons
2610,1,gaiement
2611,1,gaies
2612,1,gaieté
2613,1,gaillard
2614,1,galopant
2615,1,galopez
2616,1,gambade
2617,1,gantelets
2618,1,ganymède
2619,1,gardaient
2620,1,gardant
2621,1,gardent
2622,1,gardes
2623,1,gardez
2624,1,gardiens
2625,1,gardé
2626,1,garnison
2627,1,gascogne
2628,1,gauchement
2629,1,gautier
2630,1,gelée
2631,1,genre
2632,1,gerbes
2633,1,giron
2634,1,girouette
2635,1,gisait
2636,1,givre
2637,1,glacée
2638,1,glissaient
2639,1,glissait
2640,1,glorieuse
2641,1,gobelets
2642,1,gonflèrent
2643,1,gorgée
2644,1,gorgées
2645,1,goulot
2646,1,gourde
2647,1,gourmandant
2648,1,goûter
2649,1,graduellement
2650,1,grandement
2651,1,grandes
2652,1,grandir
2653,1,grandissait
2654,1,grange
2655,1,gratta
2656,1,gratuit
2657,1,gravement
2658,1,gravé
2659,1,griffe
2660,1,grincement
2661,1,grise
2662,1,grises
2663,1,grisonnants
2664,1,grognement
2665,1,grossie
2666,1,grossier
2667,1,grossière
2668,1,groupe
2669,1,groupes
2670,1,grêle
2671,1,guet
2672,1,guibert
2673,1,guide
2674,1,guidé
2675,1,guidés
2676,1,guilbert
2677,1,gutturale
2678,1,guère
2679,1,guéméné
2680,1,gémissaient
2681,1,généreuse
2682,1,habilement
2683,1,habileté
2684,1,habit
2685,1,habitant
2686,1,habitants
2687,1,habits
2688,1,haleine
2689,1,haletant
2690,1,haquenée
2691,1,hardis
2692,1,harnais
2693,1,hart
2694,1,haussant
2695,1,hautain
2696,1,hautaine
2697,1,hautaines
2698,1,hauteur
2699,1,heureusement
2700,1,heurtant
2701,1,hideux
2702,1,histoires
2703,1,hochait
2704,1,hochant
2705,1,honnêtes
2706,1,honteux
2707,1,hop
2708,1,horreur
2709,1,horrible
2710,1,houssine
2711,1,houx
2712,1,humaine
2713,1,humilié
2714,1,hypocrite
2715,1,hâtait
2716,1,hérissés
2717,1,hésita
2718,1,hésitation
2719,1,hésité
2720,1,hôtes
2721,1,idées
2722,1,ignoraient
2723,1,ignore
2724,1,ignorât
2725,1,illumina
2726,1,illumine
2727,1,illuminer
2728,1,imaginaire
2729,1,imita
2730,1,imparfaitement
2731,1,impatientaient
2732,1,impatientait
2733,1,impies
2734,1,importance
2735,1,important
2736,1,importante
2737,1,importants
2738,1,imposa
2739,1,imprenable
2740,1,improviste
2741,1,imprudent
2742,1,imprudente
2743,1,imprévoyante
2744,1,impuissante
2745,1,impulsion
2746,1,impunément
2747,1,impérieuse
2748,1,impérieusement
2749,1,impérieux
2750,1,inaccoutumée
2751,1,incertitude
2752,1,incessamment
2753,1,incessant
2754,1,incontinent
2755,1,indiquer
2756,1,indiqué
2757,1,indistinct
2758,1,indistinctes
2759,1,indomptable
2760,1,indécis
2761,1,indécise
2762,1,indécises
2763,1,inexplicable
2764,1,infailliblement
2765,1,infernal
2766,1,infinies
2767,1,infirmités
2768,1,infligé
2769,1,informes
2770,1,infortunée
2771,1,infranchissable
2772,1,infâme
2773,1,innombrables
2774,1,inonda
2775,1,inondation
2776,1,inquiet
2777,1,insaisissable
2778,1,inscrit
2779,1,insolence
2780,1,insolent
2781,1,inspirent
2782,1,installé
2783,1,instruit
2784,1,insulte
2785,1,intelligente
2786,1,intentions
2787,1,interdit
2788,1,interminables
2789,1,interposait
2790,1,interrogeait
2791,1,interrogèrent
2792,1,interrompant
2793,1,interrompre
2794,1,introduise
2795,1,inutilement
2796,1,inutiles
2797,1,involontaire
2798,1,invoquer
2799,1,inévitablement
2800,1,irai
2801,1,ironique
2802,1,irrésolution
2803,1,isthme
2804,1,itinéraire
2805,1,ivre
2806,1,ivres
2807,1,ivresse
2808,1,jetaient
2809,1,jets
2810,1,jetèrent
2811,1,jeunes
2812,1,jeunesse
2813,1,joignant
2814,1,joindre
2815,1,joint
2816,1,joints
2817,1,jointures
2818,1,joli
2819,1,jonché
2820,1,joua
2821,1,jouer
2822,1,joujou
2823,1,joyeuses
2824,1,juds
2825,1,jura
2826,1,jure
2827,1,jurer
2828,1,juré
2829,1,justement
2830,1,justesse
2831,1,jésus
2832,1,laboureur
2833,1,laine
2834,1,laissèrent
2835,1,lampe
2836,1,lampes
2837,1,lance
2838,1,lancer
2839,1,lancée
2840,1,langue
2841,1,lançait
2842,1,larges
2843,1,larme
2844,1,las
2845,1,lasse
2846,1,lecteurs
2847,1,lestement
2848,1,lettres
2849,1,levait
2850,1,levèrent
2851,1,levé
2852,1,libre
2853,1,lieue
2854,1,liges
2855,1,lignes
2856,1,ligua
2857,1,ligue
2858,1,limant
2859,1,livrait
2860,1,livrerait
2861,1,livreras
2862,1,livres
2863,1,locataire
2864,1,loge
2865,1,loi
2866,1,lorraine
2867,1,louanges
2868,1,louis
2869,1,lourd
2870,1,lourds
2871,1,louveteau
2872,1,lueurs
2873,1,luire
2874,1,lumineuse
2875,1,lumineux
2876,1,lut
2877,1,lâcha
2878,1,lâchait
2879,1,lâcher
2880,1,légères
2881,1,lézardées
2882,1,macles
2883,1,macre
2884,1,magique
2885,1,malade
2886,1,malin
2887,1,malmenés
2888,1,malédictions
2889,1,maniait
2890,1,manie
2891,1,manifestation
2892,1,manques
2893,1,mante
2894,1,manœuvra
2895,1,manœuvre
2896,1,marcha
2897,1,marchant
2898,1,marcher
2899,1,marches
2900,1,marie
2901,1,marine
2902,1,marins
2903,1,masse
2904,1,masses
2905,1,matinée
2906,1,matinées
2907,1,maudire
2908,1,maugréant
2909,1,meilleure
2910,1,menacer
2911,1,menacé
2912,1,menait
2913,1,menant
2914,1,menaçaient
2915,1,menaçait
2916,1,menaçante
2917,1,mener
2918,1,messager
2919,1,messe
2920,1,messes
2921,1,mesurant
2922,1,mesurer
2923,1,mesuré
2924,1,mettait
2925,1,mettent
2926,1,mettez
2927,1,mettrait
2928,1,meurs
2929,1,meurtre
2930,1,miens
2931,1,millier
2932,1,mince
2933,1,mine
2934,1,minuit
2935,1,mira
2936,1,miraient
2937,1,mise
2938,1,mises
2939,1,misère
2940,1,misérables
2941,1,miséricorde
2942,1,moisson
2943,1,mollement
2944,1,momeries
2945,1,mondit
2946,1,montagnes
2947,1,montant
2948,1,monte
2949,1,montez
2950,1,montraient
2951,1,montrant
2952,1,montrer
2953,1,montrerait
2954,1,montrèrent
2955,1,montèrent
2956,1,morceau
2957,1,moribond
2958,1,mortelle
2959,1,mortels
2960,1,motif
2961,1,mourait
2962,1,mourante
2963,1,mourra
2964,1,mourrai
2965,1,moussue
2966,1,muet
2967,1,muets
2968,1,mugissement
2969,1,mulets
2970,1,munifiques
2971,1,munis
2972,1,murmurant
2973,1,murs
2974,1,musique
2975,1,mutilé
2976,1,mutuellement
2977,1,mystérieuse
2978,1,mystérieuses
2979,1,mystérieux
2980,1,mât
2981,1,méchanceté
2982,1,méchant
2983,1,mécréant
2984,1,mécréants
2985,1,médiocrement
2986,1,méditations
2987,1,méfiais
2988,1,méfiait
2989,1,méfier
2990,1,mélancolique
2991,1,mélancoliques
2992,1,ménagères
2993,1,mépris
2994,1,mésaventure
2995,1,métier
2996,1,mêlait
2997,1,nage
2998,1,nagea
2999,1,nains
3000,1,nantes
3001,1,nargue
3002,1,narines
3003,1,nature
3004,1,naufrage
3005,1,naufrages
3006,1,naval
3007,1,naïve
3008,1,nerveux
3009,1,niveau
3010,1,nombreuse
3011,1,nombreux
3012,1,nommaient
3013,1,nommes
3014,1,nonchalance
3015,1,nord
3016,1,notables
3017,1,note
3018,1,notes
3019,1,nouveaux
3020,1,nouvelles
3021,1,nouées
3022,1,noyer
3023,1,nullement
3024,1,nuptial
3025,1,objecter
3026,1,objets
3027,1,oblique
3028,1,obscure
3029,1,observât
3030,1,obstacles
3031,1,obstinément
3032,1,occasionne
3033,1,occasions
3034,1,occupation
3035,1,octroyer
3036,1,odeur
3037,1,odieuse
3038,1,office
3039,1,officier
3040,1,offrande
3041,1,offris
3042,1,oiseaux
3043,1,oisiveté
3044,1,onces
3045,1,ondés
3046,1,opaque
3047,1,oppresseur
3048,1,ordres
3049,1,orfraies
3050,1,orgie
3051,1,orner
3052,1,ornée
3053,1,orphelin
3054,1,osaient
3055,1,ose
3056,1,osé
3057,1,outrage
3058,1,outre
3059,1,ouverts
3060,1,ouverture
3061,1,ouvre
3062,1,ouïe
3063,1,ouïr
3064,1,paierait
3065,1,paieront
3066,1,paille
3067,1,pain
3068,1,paisiblement
3069,1,paissaient
3070,1,paissant
3071,1,paix
3072,1,palissades
3073,1,pancarte
3074,1,panier
3075,1,papistes
3076,1,paquet
3077,1,paraissait
3078,1,parallèlement
3079,1,paralysaient
3080,1,parc
3081,1,parcourait
3082,1,parcourue
3083,1,parcoururent
3084,1,pareil
3085,1,pareilles
3086,1,parer
3087,1,parfaite
3088,1,parfaitement
3089,1,parier
3090,1,paris
3091,1,parlais
3092,1,parlait
3093,1,parlant
3094,1,parles
3095,1,parlé
3096,1,paroisse
3097,1,paroissiale
3098,1,partageaient
3099,1,partageait
3100,1,particulier
3101,1,partisse
3102,1,parut
3103,1,passagère
3104,1,passionnément
3105,1,passées
3106,1,patient
3107,1,pauvreté
3108,1,pauvretés
3109,1,paysage
3110,1,paysanne
3111,1,peignit
3112,1,peints
3113,1,pelle
3114,1,pencha
3115,1,penchant
3116,1,pend
3117,1,pendable
3118,1,pendaient
3119,1,pendaison
3120,1,pende
3121,1,pendrai
3122,1,pendu
3123,1,pennons
3124,1,pensaient
3125,1,penserai
3126,1,pensé
3127,1,perce
3128,1,perceptibles
3129,1,perchait
3130,1,percheur
3131,1,perdant
3132,1,perdre
3133,1,perdue
3134,1,permet
3135,1,permets
3136,1,permettait
3137,1,permettrait
3138,1,permission
3139,1,permît
3140,1,perpendiculairement
3141,1,perpétuel
3142,1,personnage
3143,1,persuadé
3144,1,perça
3145,1,perçaient
3146,1,perçait
3147,1,perçants
3148,1,pesait
3149,1,pesant
3150,1,peuvent
3151,1,peux
3152,1,phare
3153,1,phosphorescente
3154,1,physionomies
3155,1,pierreux
3156,1,pillaient
3157,1,pirouetter
3158,1,pis
3159,1,piège
3160,1,piètre
3161,1,placera
3162,1,plaine
3163,1,plaintif
3164,1,plaira
3165,1,plairait
3166,1,plaisir
3167,1,planches
3168,1,planer
3169,1,plantés
3170,1,plate
3171,1,plaça
3172,1,pleuraient
3173,1,pleurant
3174,1,pleurer
3175,1,pleureront
3176,1,pleuré
3177,1,plomb
3178,1,plongea
3179,1,plongeant
3180,1,plongé
3181,1,ploërmel
3182,1,plupart
3183,1,plutôt
3184,1,plût
3185,1,poignante
3186,1,poindre
3187,1,pointes
3188,1,polie
3189,1,pommeau
3190,1,pompes
3191,1,pont
3192,1,ponts
3193,1,portez
3194,1,portion
3195,1,pose
3196,1,position
3197,1,possible
3198,1,possédait
3199,1,possédant
3200,1,posséder
3201,1,poster
3202,1,potence
3203,1,poterne
3204,1,pouah
3205,1,poudre
3206,1,poudreux
3207,1,poupe
3208,1,pourfendrai
3209,1,pourrais
3210,1,pourrez
3211,1,pourrons
3212,1,poursuit
3213,1,poursuivait
3214,1,poursuivant
3215,1,poursuivants
3216,1,poursuivi
3217,1,poursuivie
3218,1,poursuivirent
3219,1,poussait
3220,1,pousse
3221,1,pousser
3222,1,poussèrent
3223,1,pouvant
3224,1,pouvez
3225,1,pouviez
3226,1,pouvoir
3227,1,poète
3228,1,pratique
3229,1,premières
3230,1,prenait
3231,1,prend
3232,1,prends
3233,1,prenez
3234,1,pressaient
3235,1,pressait
3236,1,presse
3237,1,pressentait
3238,1,preuve
3239,1,pria
3240,1,prient
3241,1,prismes
3242,1,prisonniers
3243,1,probabilités
3244,1,prochain
3245,1,proclamer
3246,1,procura
3247,1,procurer
3248,1,produisit
3249,1,produit
3250,1,profession
3251,1,profil
3252,1,profit
3253,1,profiter
3254,1,profitons
3255,1,profond
3256,1,profondeur
3257,1,profondeurs
3258,1,profonds
3259,1,profondément
3260,1,projet
3261,1,prolongement
3262,1,prolongements
3263,1,promet
3264,1,promettant
3265,1,promontoires
3266,1,prompt
3267,1,prononcé
3268,1,prononçait
3269,1,prononçant
3270,1,proportions
3271,1,propos
3272,1,proposa
3273,1,propriété
3274,1,prose
3275,1,protecteur
3276,1,protéger
3277,1,protégera
3278,1,protégé
3279,1,prouva
3280,1,proverbe
3281,1,providence
3282,1,provisions
3283,1,provoquant
3284,1,provoque
3285,1,provoqué
3286,1,prudemment
3287,1,prudence
3288,1,précautions
3289,1,précieusement
3290,1,précipitamment
3291,1,précipités
3292,1,précis
3293,1,précédemment
3294,1,préféra
3295,1,prémédité
3296,1,préoccupation
3297,1,préoccupée
3298,1,préparez
3299,1,présage
3300,1,présenta
3301,1,présentaient
3302,1,présentant
3303,1,présenterait
3304,1,présentes
3305,1,présentèrent
3306,1,prétend
3307,1,prétendue
3308,1,prétexte
3309,1,prévenir
3310,1,prévoir
3311,1,prévoyait
3312,1,prît
3313,1,puisque
3314,1,puissance
3315,1,puissant
3316,1,puisses
3317,1,puissions
3318,1,punir
3319,1,pupille
3320,1,pur
3321,1,pussent
3322,1,pâleur
3323,1,pâlirent
3324,1,pâtre
3325,1,pères
3326,1,pèserait
3327,1,péage
3328,1,péniblement
3329,1,pénètre
3330,1,pépie
3331,1,périrent
3332,1,pétrifié
3333,1,pêche
3334,1,pêcherait
3335,1,pêle
3336,1,quelconque
3337,1,quelquefois
3338,1,quels
3339,1,questembert
3340,1,question
3341,1,quille
3342,1,quittèrent
3343,1,quoique
3344,1,quête
3345,1,rabougris
3346,1,raconta
3347,1,raides
3348,1,raison
3349,1,raisonnable
3350,1,ralentir
3351,1,ramage
3352,1,ramasser
3353,1,rameaux
3354,1,ramenez
3355,1,rameur
3356,1,rampe
3357,1,rampes
3358,1,rampez
3359,1,ramène
3360,1,ramènera
3361,1,ramènerai
3362,1,rançon
3363,1,rapetissé
3364,1,rapides
3365,1,rapidité
3366,1,rapines
3367,1,rapport
3368,1,rapportera
3369,1,rapprochant
3370,1,rassembla
3371,1,rassurer
3372,1,rate
3373,1,rauque
3374,1,rayonna
3375,1,rayonnant
3376,1,rayonner
3377,1,rebelle
3378,1,recette
3379,1,recevra
3380,1,rechargea
3381,1,recherche
3382,1,recherches
3383,1,recommandations
3384,1,recommencerais
3385,1,recommença
3386,1,reconnaîtriez
3387,1,reconnu
3388,1,reconnurent
3389,1,reconnut
3390,1,recouvré
3391,1,recteur
3392,1,recueilli
3393,1,reculant
3394,1,redoublait
3395,1,redoubler
3396,1,redoutée
3397,1,redressa
3398,1,refermant
3399,1,refermer
3400,1,refermé
3401,1,reflua
3402,1,reflète
3403,1,refuser
3404,1,regagnait
3405,1,regagner
3406,1,regagné
3407,1,regardais
3408,1,regardant
3409,1,regarder
3410,1,regretta
3411,1,rejeta
3412,1,rejoints
3413,1,relevèrent
3414,1,religieux
3415,1,remarquable
3416,1,rembrunissait
3417,1,remercie
3418,1,remettant
3419,1,remettre
3420,1,remonta
3421,1,remontant
3422,1,remparts
3423,1,remplacer
3424,1,remplir
3425,1,remplirent
3426,1,remplissait
3427,1,remplit
3428,1,remuaient
3429,1,remuer
3430,1,rencontraient
3431,1,rencontré
3432,1,rendait
3433,1,rende
3434,1,rendrai
3435,1,rends
3436,1,rendue
3437,1,rendus
3438,1,renfermait
3439,1,renforça
3440,1,rengorgeant
3441,1,rennes
3442,1,renommée
3443,1,renouveler
3444,1,reposer
3445,1,reposerons
3446,1,repoussa
3447,1,repoussé
3448,1,reprenaient
3449,1,reprenait
3450,1,reprenant
3451,1,reprendront
3452,1,repris
3453,1,reprises
3454,1,représentait
3455,1,représentant
3456,1,représenté
3457,1,requérir
3458,1,respectueusement
3459,1,respirait
3460,1,respiration
3461,1,ressaisissait
3462,1,ressembler
3463,1,ressentant
3464,1,resserraient
3465,1,restant
3466,1,restants
3467,1,restés
3468,1,retard
3469,1,retardataires
3470,1,retards
3471,1,retenez
3472,1,retenir
3473,1,retentissaient
3474,1,retentissante
3475,1,retentissement
3476,1,retentit
3477,1,retenu
3478,1,retirant
3479,1,retirer
3480,1,retirée
3481,1,retirées
3482,1,retomba
3483,1,retombait
3484,1,retournant
3485,1,retournèrent
3486,1,retranché
3487,1,retrouva
3488,1,retrouvait
3489,1,retrouvât
3490,1,revanche
3491,1,revenue
3492,1,reverront
3493,1,revoie
3494,1,revu
3495,1,revêtait
3496,1,reçois
3497,1,reçurent
3498,1,riaient
3499,1,riant
3500,1,rimes
3501,1,rinforzando
3502,1,risque
3503,1,risquer
3504,1,rival
3505,1,riverains
3506,1,rives
3507,1,roc
3508,1,rocheux
3509,1,ronde
3510,1,rose
3511,1,roturier
3512,1,rouge
3513,1,rouges
3514,1,rougeur
3515,1,rouillé
3516,1,roula
3517,1,roulèrent
3518,1,roulées
3519,1,roussâtre
3520,1,rubans
3521,1,ruines
3522,1,ruisseau
3523,1,rumeurs
3524,1,rustique
3525,1,rusé
3526,1,râtelier
3527,1,réalise
3528,1,récitant
3529,1,réciter
3530,1,réellement
3531,1,réflexion
3532,1,réfléchir
3533,1,réfléchissant
3534,1,réformée
3535,1,réfraction
3536,1,réfugiée
3537,1,réguliers
3538,1,réjouissaient
3539,1,réjouissait
3540,1,répercuter
3541,1,répliquer
3542,1,répond
3543,1,répondu
3544,1,réponse
3545,1,réprima
3546,1,réputée
3547,1,répétaient
3548,1,répétait
3549,1,répétée
3550,1,répétés
3551,1,résistaient
3552,1,rétrécissait
3553,1,rétrécissant
3554,1,réunies
3555,1,réussit
3556,1,réveillée
3557,1,rêve
3558,1,rêveur
3559,1,rôdait
3560,1,rôle
3561,1,sable
3562,1,sac
3563,1,sagacité
3564,1,saints
3565,1,saisie
3566,1,saisissez
3567,1,saison
3568,1,salaire
3569,1,salons
3570,1,saluent
3571,1,salutation
3572,1,sanglant
3573,1,sanglante
3574,1,sanglier
3575,1,sanglota
3576,1,sanglots
3577,1,sarcasme
3578,1,satan
3579,1,satisfaction
3580,1,saurai
3581,1,saurais
3582,1,saurez
3583,1,sautilla
3584,1,sauvage
3585,1,sauvera
3586,1,sauverons
3587,1,sauvée
3588,1,savez
3589,1,savourait
3590,1,scella
3591,1,sceptique
3592,1,scintillent
3593,1,scintiller
3594,1,scène
3595,1,scélérat
3596,1,secondes
3597,1,secouer
3598,1,secouru
3599,1,secret
3600,1,secrets
3601,1,seigneurie
3602,1,sella
3603,1,sellé
3604,1,selon
3605,1,semaines
3606,1,sembla
3607,1,semblable
3608,1,semble
3609,1,semblèrent
3610,1,semblé
3611,1,semés
3612,1,sensiblement
3613,1,sentant
3614,1,sentirent
3615,1,serai
3616,1,serais
3617,1,seras
3618,1,serment
3619,1,serments
3620,1,serons
3621,1,seront
3622,1,serra
3623,1,serrer
3624,1,serré
3625,1,servait
3626,1,servant
3627,1,servante
3628,1,servi
3629,1,seuls
3630,1,sien
3631,1,siennes
3632,1,signaient
3633,1,silencieuse
3634,1,sillage
3635,1,sillonnant
3636,1,simples
3637,1,simplicité
3638,1,sinistres
3639,1,sinon
3640,1,sinuosités
3641,1,sires
3642,1,situé
3643,1,située
3644,1,sitôt
3645,1,sixième
3646,1,soi
3647,1,soixantaine
3648,1,solidement
3649,1,solitaire
3650,1,sommet
3651,1,songeait
3652,1,songeant
3653,1,songer
3654,1,sonnions
3655,1,sortaient
3656,1,sortait
3657,1,sortant
3658,1,sorti
3659,1,sortira
3660,1,soubresaut
3661,1,souci
3662,1,soudain
3663,1,soudainement
3664,1,soudards
3665,1,soufflet
3666,1,soufre
3667,1,souhaiter
3668,1,souhaiteriez
3669,1,souhaitée
3670,1,soulagement
3671,1,soulevaient
3672,1,soulever
3673,1,soulevez
3674,1,soumis
3675,1,soupir
3676,1,soupira
3677,1,soupirs
3678,1,soupçon
3679,1,soupçonnait
3680,1,soutenir
3681,1,soutenu
3682,1,souvenait
3683,1,souvenant
3684,1,souvenez
3685,1,souviens
3686,1,soyez
3687,1,soyons
3688,1,strident
3689,1,stridents
3690,1,subit
3691,1,submergé
3692,1,succombez
3693,1,succombé
3694,1,succès
3695,1,suffi
3696,1,suffira
3697,1,suites
3698,1,suivirent
3699,1,suivra
3700,1,suivrai
3701,1,sujet
3702,1,superficie
3703,1,superstitieuse
3704,1,supplie
3705,1,supporter
3706,1,suprême
3707,1,supériorité
3708,1,surmonter
3709,1,surnommé
3710,1,surpris
3711,1,sursaut
3712,1,surveillance
3713,1,suspendit
3714,1,sut
3715,1,suzeraine
3716,1,sécher
3717,1,sécurité
3718,1,sépulcre
3719,1,sûre
3720,1,talon
3721,1,tape
3722,1,tapit
3723,1,tarde
3724,1,tardera
3725,1,teignaient
3726,1,teinte
3727,1,telle
3728,1,tempérait
3729,1,tenant
3730,1,tendait
3731,1,tenta
3732,1,tenter
3733,1,tentera
3734,1,terme
3735,1,termine
3736,1,terne
3737,1,terres
3738,1,terriblement
3739,1,terribles
3740,1,tiendrait
3741,1,tiendront
3742,1,tint
3743,1,tinténiac
3744,1,tireur
3745,1,toast
3746,1,toises
3747,1,toiture
3748,1,tombe
3749,1,tombé
3750,1,tondus
3751,1,tonne
3752,1,tonsures
3753,1,toque
3754,1,tord
3755,1,tortillant
3756,1,tortures
3757,1,touchait
3758,1,touche
3759,1,touchèrent
3760,1,touffus
3761,1,tourbillonna
3762,1,tournaient
3763,1,tournait
3764,1,tourne
3765,1,tournois
3766,1,tournoyait
3767,1,tournèrent
3768,1,tourné
3769,1,tracé
3770,1,trahissait
3771,1,tranche
3772,1,transports
3773,1,travailler
3774,1,traversait
3775,1,traverse
3776,1,traînait
3777,1,traîneau
3778,1,traînée
3779,1,trembla
3780,1,tremblaient
3781,1,tremblement
3782,1,trembler
3783,1,tressaillit
3784,1,tributaires
3785,1,triomphe
3786,1,triomphes
3787,1,trompait
3788,1,troncs
3789,1,troubler
3790,1,troublé
3791,1,troupeaux
3792,1,troupes
3793,1,trouvant
3794,1,trouvent
3795,1,trouverai
3796,1,trouves
3797,1,trouvez
3798,1,trouvées
3799,1,troué
3800,1,trépas
3801,1,tubleu
3802,1,tuerai
3803,1,tuette
3804,1,tumulte
3805,1,tâcha
3806,1,tâcherai
3807,1,tâta
3808,1,tâtonnait
3809,1,témoin
3810,1,téméraires
3811,1,ténèbres
3812,1,tôt
3813,1,uniforme
3814,1,uniformément
3815,1,unissait
3816,1,uns
3817,1,usage
3818,1,vache
3819,1,vaches
3820,1,vacillants
3821,1,vague
3822,1,vaguement
3823,1,vaillamment
3824,1,vaisseau
3825,1,vaisseaux
3826,1,valet
3827,1,vapeurs
3828,1,vas
3829,1,vastes
3830,1,vaudrait
3831,1,vaut
3832,1,veillait
3833,1,veillera
3834,1,veillons
3835,1,veillé
3836,1,veines
3837,1,venaient
3838,1,vendra
3839,1,vendre
3840,1,venez
3841,1,vengeance
3842,1,venger
3843,1,vengé
3844,1,venons
3845,1,vente
3846,1,ventre
3847,1,ventrebleu
3848,1,venus
3849,1,vermoulue
3850,1,verra
3851,1,verrai
3852,1,verrez
3853,1,verrons
3854,1,verront
3855,1,versait
3856,1,versant
3857,1,verse
3858,1,verte
3859,1,vertes
3860,1,veste
3861,1,veuille
3862,1,veulent
3863,1,veuve
3864,1,victorieusement
3865,1,viderai
3866,1,vides
3867,1,vidé
3868,1,vieil
3869,1,vieillesse
3870,1,viendrai
3871,1,vienne
3872,1,vigilance
3873,1,vigoureuse
3874,1,vigueur
3875,1,vilains
3876,1,village
3877,1,villageois
3878,1,villes
3879,1,vingt
3880,1,violent
3881,1,virant
3882,1,vire
3883,1,visages
3884,1,visez
3885,1,visière
3886,1,visé
3887,1,vitraux
3888,1,vivacité
3889,1,vivait
3890,1,vociférer
3891,1,voisin
3892,1,voisine
3893,1,vola
3894,1,volait
3895,1,voleur
3896,1,voleurs
3897,1,volontaire
3898,1,volontiers
3899,1,volée
3900,1,vont
3901,1,voudrais
3902,1,voudras
3903,1,voudront
3904,1,voulez
3905,1,vouloir
3906,1,voulons
3907,1,voyages
3908,1,voyant
3909,1,voyons
3910,1,vraie
3911,1,vérité
3912,1,xiii
3913,1,ébahi
3914,1,ébahis
3915,1,ébranlaient
3916,1,ébranlèrent
3917,1,ébranlée
3918,1,écart
3919,1,écartelées
3920,1,échange
3921,1,échanson
3922,1,échappe
3923,1,échappera
3924,1,échauffée
3925,1,éclaircissait
3926,1,éclairs
3927,1,éclat
3928,1,éclats
3929,1,écoulés
3930,1,écoutait
3931,1,écoutant
3932,1,écoute
3933,1,écouter
3934,1,écrasant
3935,1,écrire
3936,1,écriture
3937,1,écrièrent
3938,1,écrue
3939,1,écu
3940,1,écuries
3941,1,écuyer
3942,1,édenté
3943,1,égarant
3944,1,élancer
3945,1,élargit
3946,1,éloignaient
3947,1,éloignait
3948,1,éloigne
3949,1,éloigner
3950,1,élément
3951,1,émail
3952,1,émerveillé
3953,1,émissaires
3954,1,émotion
3955,1,épanouir
3956,1,épanouit
3957,1,éparses
3958,1,épaula
3959,1,épaules
3960,1,épelant
3961,1,éperon
3962,1,éperons
3963,1,épervier
3964,1,épouse
3965,1,épouvantée
3966,1,épuisés
3967,1,épées
3968,1,équilibrer
3969,1,équipage
3970,1,équipages
3971,1,étais
3972,1,état
3973,1,étau
3974,1,étend
3975,1,étendant
3976,1,étendent
3977,1,étendez
3978,1,étendre
3979,1,éterpe
3980,1,étincelants
3981,1,étoiles
3982,1,étonnait
3983,1,étonne
3984,1,étonnés
3985,1,étouffé
3986,1,étouffée
3987,1,étrangler
3988,1,étranglerai
3989,1,étranglée
3990,1,étrier
3991,1,étriers
3992,1,étroite
3993,1,étroites
3994,1,évanouissement
3995,1,évasion
3996,1,éveil
3997,1,éveillait
3998,1,éveillé
3999,1,éviter
4000,1,îles
