1,562,de
2,406,la
3,372,et
4,319,les
5,264,le
6,257,à
7,246,l
8,227,un
9,189,des
10,187,une
11,182,il
12,176,on
13,174,d
14,155,se
15,140,en
16,127,elle
17,126,qu
18,119,dans
19,116,qui
20,112,ne
21,92,sa
22,91,pour
23,91,que
24,86,pas
25,82,du
26,78,s
27,76,avec
28,73,mais
29,72,comme
30,70,était
31,69,au
32,69,avait
33,69,son
34,68,plus
35,67,par
36,64,tout
37,57,ses
38,54,n
39,53,ils
40,53,vous
41,51,ce
42,50,bien
43,50,loiseau
44,48,lui
45,48,si
46,47,est
47,42,ces
48,40,deux
49,40,sur
50,39,je
51,39,leur
52,39,sans
53,38,même
54,37,c
55,37,cette
56,36,aux
57,36,suif
58,35,boule
59,35,tous
60,34,comte
61,34,puis
62,31,a
63,31,alors
64,30,cornudet
65,30,leurs
66,30,où
67,29,m
68,29,quand
69,28,ou
70,27,dit
71,25,autre
72,25,fait
73,25,toute
74,24,peu
75,24,sous
76,23,femme
77,23,là
78,23,trois
79,22,avaient
80,22,nous
81,21,hommes
82,21,mme
83,21,rien
84,20,encore
85,20,fut
86,20,monde
87,19,carré
88,19,dont
89,19,elles
90,19,femmes
91,19,voix
92,19,être
93,18,car
94,18,comtesse
95,18,fille
96,18,lamadon
97,18,officier
98,18,temps
99,18,toutes
100,18,voiture
101,18,y
102,18,yeux
103,17,bonnes
104,17,faire
105,17,fit
106,17,gens
107,17,vers
108,17,ça
109,17,étaient
110,16,après
111,16,entre
112,16,grand
113,16,homme
114,16,point
115,16,quelque
116,16,semblait
117,15,autres
118,15,chacun
119,15,dames
120,15,grande
121,15,heures
122,14,avoir
123,14,enfin
124,14,faisait
125,14,neige
126,14,sœurs
127,13,bout
128,13,follenvie
129,13,prussien
130,13,prussiens
131,13,toujours
132,12,air
133,12,aussitôt
134,12,choses
135,12,fin
136,12,fois
137,12,j
138,12,jamais
139,12,non
140,12,parfois
141,12,personne
142,12,porte
143,12,pouvait
144,12,quatre
145,12,tant
146,12,très
147,11,abord
148,11,chaque
149,11,coup
150,11,depuis
151,11,eut
152,11,fort
153,11,ma
154,11,madame
155,11,monsieur
156,11,oui
157,11,parler
158,11,pendant
159,11,peut
160,11,place
161,11,quelques
162,11,sont
163,11,terre
164,11,tête
165,10,beaucoup
166,10,celui
167,10,cependant
168,10,disait
169,10,fond
170,10,gros
171,10,guerre
172,10,heure
173,10,sentait
174,9,allait
175,9,avant
176,9,bientôt
177,9,côté
178,9,français
179,9,grands
180,9,jour
181,9,main
182,9,manger
183,9,moi
184,9,nuit
185,9,ordre
186,9,pays
187,9,répondit
188,9,seul
189,9,soldats
190,9,table
191,9,tenait
192,9,ville
193,8,aurait
194,8,barbe
195,8,bonne
196,8,bras
197,8,cela
198,8,chevaux
199,8,chez
200,8,chose
201,8,dix
202,8,face
203,8,longtemps
204,8,mains
205,8,mari
206,8,mot
207,8,ont
208,8,parla
209,8,partie
210,8,peine
211,8,petite
212,8,pieds
213,8,pleine
214,8,pourquoi
215,8,prit
216,8,provisions
217,8,voyageurs
218,7,ai
219,7,allemand
220,7,argent
221,7,armée
222,7,auberge
223,7,aussi
224,7,bas
225,7,bon
226,7,cocher
227,7,cuisine
228,7,devant
229,7,dieu
230,7,doute
231,7,jusqu
232,7,leva
233,7,lèvres
234,7,maison
235,7,matin
236,7,me
237,7,midi
238,7,officiers
239,7,parce
240,7,petits
241,7,reste
242,7,route
243,7,soir
244,7,été
245,6,ayant
246,6,bruit
247,6,bréville
248,6,chambre
249,6,compagnons
250,6,demanda
251,6,dignité
252,6,dire
253,6,déjà
254,6,ennemi
255,6,eût
256,6,faisant
257,6,faut
258,6,font
259,6,fût
260,6,grosse
261,6,général
262,6,haut
263,6,maisons
264,6,mal
265,6,manufacturier
266,6,mettre
267,6,mon
268,6,panier
269,6,parole
270,6,parut
271,6,passer
272,6,petit
273,6,pipe
274,6,presque
275,6,proposa
276,6,rouen
277,6,sais
278,6,semblaient
279,6,silence
280,6,songeait
281,6,sourire
282,6,subitement
283,6,tandis
284,6,tantôt
285,6,ton
286,6,tour
287,6,vie
288,6,vin
289,6,vite
290,6,voir
291,6,voisins
292,6,voyage
293,6,étant
294,6,œil
295,5,ajouta
296,5,assez
297,5,assurément
298,5,aucun
299,5,autour
300,5,avis
301,5,cause
302,5,cet
303,5,charmante
304,5,chef
305,5,comprenait
306,5,conversation
307,5,demander
308,5,demeurait
309,5,devait
310,5,diligence
311,5,donc
312,5,déclara
313,5,ensuite
314,5,entendait
315,5,esprits
316,5,eux
317,5,faisaient
318,5,foi
319,5,force
320,5,froid
321,5,havre
322,5,ici
323,5,jolie
324,5,lendemain
325,5,loin
326,5,long
327,5,malgré
328,5,messieurs
329,5,milieu
330,5,mit
331,5,moins
332,5,moment
333,5,mouvement
334,5,nature
335,5,parlaient
336,5,pensée
337,5,pied
338,5,plaisanteries
339,5,plutôt
340,5,pourrait
341,5,premier
342,5,raconta
343,5,regard
344,5,regarda
345,5,regardait
346,5,reparut
347,5,rousset
348,5,routes
349,5,sacrifice
350,5,serait
351,5,seulement
352,5,six
353,5,souvent
354,5,suite
355,5,surtout
356,5,trop
357,5,trouvait
358,5,trouve
359,5,tu
360,5,tut
361,5,vainqueurs
362,5,vieille
363,5,église
364,4,ainsi
365,4,alla
366,4,allaient
367,4,anciens
368,4,aperçut
369,4,aubergiste
370,4,besoin
371,4,bordeaux
372,4,bouche
373,4,bourgeois
374,4,brusquement
375,4,café
376,4,calme
377,4,cartes
378,4,ceux
379,4,chambres
380,4,colère
381,4,contre
382,4,coucher
383,4,cria
384,4,cœur
385,4,dedans
386,4,devint
387,4,dieppe
388,4,donné
389,4,découvrir
390,4,déjeuner
391,4,départ
392,4,dîner
393,4,embarras
394,4,esprit
395,4,farce
396,4,feu
397,4,fortune
398,4,france
399,4,gelée
400,4,geste
401,4,honnêtes
402,4,honte
403,4,hésitait
404,4,hôtel
405,4,immédiatement
406,4,indignation
407,4,interrogea
408,4,jeune
409,4,lentement
410,4,longs
411,4,longue
412,4,maintenant
413,4,marche
414,4,mieux
415,4,mirent
416,4,mlle
417,4,morceau
418,4,mourir
419,4,mêmes
420,4,nom
421,4,nos
422,4,nouveau
423,4,obscurité
424,4,oh
425,4,parlant
426,4,paroles
427,4,part
428,4,passait
429,4,pauvres
430,4,pensées
431,4,personnes
432,4,plusieurs
433,4,poitrine
434,4,pont
435,4,portant
436,4,première
437,4,près
438,4,pu
439,4,quelqu
440,4,religieuses
441,4,reprit
442,4,restait
443,4,rester
444,4,rire
445,4,rouge
446,4,résistance
447,4,seule
448,4,société
449,4,sortait
450,4,sortit
451,4,souper
452,4,suis
453,4,timbale
454,4,tombant
455,4,triste
456,4,tuer
457,4,tôtes
458,4,uniforme
459,4,vague
460,4,ventre
461,4,veut
462,4,vieux
463,4,vis
464,4,vivement
465,4,voisines
466,4,voulait
467,4,voulut
468,4,voyait
469,4,élisabeth
470,4,étranger
471,4,êtes
472,3,accepta
473,3,afin
474,3,ah
475,3,ailleurs
476,3,aimable
477,3,allez
478,3,allons
479,3,amis
480,3,amour
481,3,amusaient
482,3,ancien
483,3,annonça
484,3,apercevait
485,3,apporté
486,3,arme
487,3,armes
488,3,arrêta
489,3,aspect
490,3,atteler
491,3,attendait
492,3,attendit
493,3,aucune
494,3,autant
495,3,avez
496,3,belle
497,3,blancs
498,3,bois
499,3,bouches
500,3,bouteilles
501,3,bravoure
502,3,bête
503,3,ca
504,3,campagne
505,3,cas
506,3,causer
507,3,cesse
508,3,champagne
509,3,chapelets
510,3,cheminée
511,3,chercher
512,3,chope
513,3,chère
514,3,ci
515,3,cité
516,3,clair
517,3,comment
518,3,commerce
519,3,commis
520,3,connu
521,3,conseil
522,3,continu
523,3,continuait
524,3,corde
525,3,corps
526,3,corridor
527,3,coururent
528,3,croire
529,3,côtés
530,3,dame
531,3,dehors
532,3,dents
533,3,derrière
534,3,descendre
535,3,dessus
536,3,dis
537,3,doigts
538,3,dur
539,3,dédaigneux
540,3,défend
541,3,eau
542,3,enveloppé
543,3,exaspérée
544,3,faim
545,3,faits
546,3,famille
547,3,façon
548,3,figure
549,3,figures
550,3,filles
551,3,firent
552,3,formidable
553,3,forte
554,3,francs
555,3,française
556,3,fumant
557,3,furent
558,3,féroce
559,3,gagner
560,3,gardait
561,3,garder
562,3,genoux
563,3,gloire
564,3,gouttes
565,3,goût
566,3,grandissait
567,3,gras
568,3,graves
569,3,haute
570,3,histoire
571,3,hiver
572,3,hubert
573,3,héroïques
574,3,immobile
575,3,immobiles
576,3,jambes
577,3,jeta
578,3,jeu
579,3,joie
580,3,jours
581,3,lever
582,3,lieu
583,3,lieues
584,3,longues
585,3,lorsque
586,3,lumière
587,3,léger
588,3,légers
589,3,mademoiselle
590,3,mettant
591,3,militaires
592,3,mille
593,3,mince
594,3,minutes
595,3,moments
596,3,monter
597,3,murmure
598,3,mépris
599,3,naturelle
600,3,normandie
601,3,odeur
602,3,or
603,3,ordonnance
604,3,oreille
605,3,oreilles
606,3,ouvrit
607,3,paraissait
608,3,pareils
609,3,parmi
610,3,partir
611,3,partit
612,3,passaient
613,3,patrie
614,3,patron
615,3,peuple
616,3,places
617,3,plein
618,3,poche
619,3,politesse
620,3,pommes
621,3,prirent
622,3,prisonniers
623,3,profonde
624,3,propre
625,3,propres
626,3,prêts
627,3,pâle
628,3,pâté
629,3,père
630,3,pénible
631,3,quelquefois
632,3,question
633,3,raison
634,3,refusa
635,3,regards
636,3,religion
637,3,rue
638,3,répondre
639,3,répétant
640,3,rôle
641,3,satisfait
642,3,savoir
643,3,seconde
644,3,seigneur
645,3,sens
646,3,signe
647,3,situation
648,3,soirée
649,3,soit
650,3,soldat
651,3,sommeil
652,3,songer
653,3,soudain
654,3,soupir
655,3,suivant
656,3,sûr
657,3,sœur
658,3,tard
659,3,tendresse
660,3,tendue
661,3,terreur
662,3,terrine
663,3,tombait
664,3,traits
665,3,travers
666,3,troublée
667,3,troupes
668,3,trouva
669,3,trouvaient
670,3,trouver
671,3,tué
672,3,têtes
673,3,vaste
674,3,verre
675,3,village
676,3,vins
677,3,violente
678,3,vive
679,3,voisine
680,3,votre
681,3,voulu
682,3,voyageur
683,3,vrai
684,3,vraie
685,3,âme
686,3,épaules
687,3,œufs
688,2,aborda
689,2,absolument
690,2,affaires
691,2,allemands
692,2,aller
693,2,allumé
694,2,amies
695,2,an
696,2,anglais
697,2,angleterre
698,2,angoisse
699,2,année
700,2,ans
701,2,apercevoir
702,2,apparaissaient
703,2,apparut
704,2,apporter
705,2,approcha
706,2,approche
707,2,appétit
708,2,arbres
709,2,asthme
710,2,atmosphère
711,2,attaque
712,2,attaques
713,2,attelle
714,2,attelée
715,2,attente
716,2,attention
717,2,aurais
718,2,autorisation
719,2,autorité
720,2,baiser
721,2,baissa
722,2,baissant
723,2,baissé
724,2,banquette
725,2,baptême
726,2,barbares
727,2,barbarie
728,2,basse
729,2,bataille
730,2,batailles
731,2,battit
732,2,blanche
733,2,blanches
734,2,blancheur
735,2,blond
736,2,bonjour
737,2,bord
738,2,bourg
739,2,bouteille
740,2,bu
741,2,bêtes
742,2,cafés
743,2,calma
744,2,campagnes
745,2,canaille
746,2,canette
747,2,caprices
748,2,carrément
749,2,casque
750,2,causait
751,2,cave
752,2,celle
753,2,celles
754,2,cent
755,2,certain
756,2,champ
757,2,changé
758,2,chant
759,2,charbon
760,2,che
761,2,chemin
762,2,cher
763,2,cherchait
764,2,cheveux
765,2,choqua
766,2,chut
767,2,chérie
768,2,ciel
769,2,cinq
770,2,cita
771,2,citoyens
772,2,cochon
773,2,commençait
774,2,commerçants
775,2,compagne
776,2,complaisances
777,2,comprenez
778,2,conducteur
779,2,confiance
780,2,connaissait
781,2,connaissance
782,2,conseils
783,2,considérable
784,2,contact
785,2,continua
786,2,contraignit
787,2,convenable
788,2,couloir
789,2,cour
790,2,courage
791,2,couteau
792,2,couvert
793,2,crainte
794,2,crapule
795,2,craquements
796,2,crevée
797,2,croupe
798,2,croyait
799,2,cru
800,2,célèbre
801,2,cérémonie
802,2,cœurs
803,2,debout
804,2,demain
805,2,demandé
806,2,demeura
807,2,derniers
808,2,descendirent
809,2,descendit
810,2,devenait
811,2,devenu
812,2,devient
813,2,devoir
814,2,devrait
815,2,disaient
816,2,discutaient
817,2,discutait
818,2,disparut
819,2,dites
820,2,divers
821,2,docilité
822,2,dominer
823,2,donna
824,2,donnait
825,2,donnant
826,2,donnent
827,2,drap
828,2,droit
829,2,drôle
830,2,dure
831,2,débitants
832,2,décider
833,2,découvrit
834,2,démarche
835,2,démoc
836,2,démocrates
837,2,déroulant
838,2,désespéré
839,2,désir
840,2,détresse
841,2,dévouement
842,2,effet
843,2,effrayé
844,2,emplissait
845,2,employer
846,2,emporta
847,2,enfant
848,2,enfants
849,2,enleva
850,2,enrouements
851,2,entendez
852,2,entendit
853,2,enthousiasme
854,2,entier
855,2,entra
856,2,entrer
857,2,entrée
858,2,envahisseurs
859,2,espérant
860,2,estime
861,2,eu
862,2,eurent
863,2,exaspération
864,2,exaspérés
865,2,exception
866,2,exemples
867,2,expression
868,2,fais
869,2,fallait
870,2,fallut
871,2,familier
872,2,fatigue
873,2,faïence
874,2,fermes
875,2,feux
876,2,fils
877,2,finit
878,2,fleuve
879,2,flocons
880,2,fonds
881,2,formes
882,2,foulez
883,2,fous
884,2,foyer
885,2,fracas
886,2,françaises
887,2,frappaient
888,2,fruits
889,2,frères
890,2,fureur
891,2,gagna
892,2,gaieté
893,2,galanterie
894,2,gardé
895,2,garçons
896,2,gelés
897,2,gentilhomme
898,2,gibier
899,2,glorieuse
900,2,gorge
901,2,gourde
902,2,goûté
903,2,grandes
904,2,grosses
905,2,guettait
906,2,guère
907,2,habitants
908,2,haine
909,2,harnais
910,2,haussa
911,2,hommage
912,2,honteuse
913,2,horrible
914,2,huit
915,2,humide
916,2,inconnu
917,2,indigné
918,2,indignée
919,2,infamie
920,2,inquiétude
921,2,insistait
922,2,insolent
923,2,intention
924,2,intérieur
925,2,invasion
926,2,jaune
927,2,jeter
928,2,jeunes
929,2,joignit
930,2,journal
931,2,laisser
932,2,laissé
933,2,lamentable
934,2,lampe
935,2,lancé
936,2,lanterne
937,2,lanternes
938,2,laquelle
939,2,lard
940,2,lavait
941,2,lequel
942,2,liberté
943,2,lit
944,2,lièvre
945,2,longuement
946,2,lorsqu
947,2,lourds
948,2,lueur
949,2,luisaient
950,2,luisante
951,2,légère
952,2,malade
953,2,maladie
954,2,malheureux
955,2,mangeaient
956,2,mangeant
957,2,marchand
958,2,marchands
959,2,marchant
960,2,marché
961,2,mariées
962,2,mauvais
963,2,maître
964,2,maîtres
965,2,merci
966,2,mignonne
967,2,misérable
968,2,mois
969,2,monotone
970,2,monta
971,2,montaient
972,2,montra
973,2,montraient
974,2,montrer
975,2,montèrent
976,2,mort
977,2,mots
978,2,mousse
979,2,moustache
980,2,moyens
981,2,murs
982,2,mystères
983,2,ménage
984,2,métier
985,2,nobles
986,2,noire
987,2,noirs
988,2,nombre
989,2,noms
990,2,normand
991,2,nourrir
992,2,nouveaux
993,2,nuages
994,2,numéro
995,2,néanmoins
996,2,occasion
997,2,offrir
998,2,ombre
999,2,orgue
1000,2,ouvraient
1001,2,paille
1002,2,pain
1003,2,partout
1004,2,parurent
1005,2,passa
1006,2,pauvre
1007,2,pavé
1008,2,paysans
1009,2,peau
1010,2,penser
1011,2,perdues
1012,2,petites
1013,2,peux
1014,2,phalanges
1015,2,phrase
1016,2,pitié
1017,2,plaisir
1018,2,plan
1019,2,pleins
1020,2,pleurait
1021,2,pleure
1022,2,pointe
1023,2,points
1024,2,poires
1025,2,portière
1026,2,position
1027,2,possible
1028,2,poulet
1029,2,poulets
1030,2,pourvu
1031,2,pouvaient
1032,2,prenait
1033,2,prenant
1034,2,prier
1035,2,profondes
1036,2,promenade
1037,2,prostituée
1038,2,protection
1039,2,province
1040,2,préfecture
1041,2,préfet
1042,2,préparées
1043,2,présentait
1044,2,présenter
1045,2,prêt
1046,2,pudeur
1047,2,puisqu
1048,2,puisque
1049,2,puissant
1050,2,pur
1051,2,put
1052,2,pâtés
1053,2,quel
1054,2,rapide
1055,2,rapidement
1056,2,rapides
1057,2,rebondie
1058,2,recommença
1059,2,reconnaissance
1060,2,redoutaient
1061,2,refus
1062,2,refuserait
1063,2,religieuse
1064,2,remarqua
1065,2,remises
1066,2,remit
1067,2,rendit
1068,2,rendre
1069,2,rentrée
1070,2,repas
1071,2,repos
1072,2,respectables
1073,2,ressembler
1074,2,resta
1075,2,restaient
1076,2,retenir
1077,2,retira
1078,2,retirèrent
1079,2,retourna
1080,2,revint
1081,2,reçu
1082,2,riches
1083,2,robe
1084,2,ronde
1085,2,rosaire
1086,2,rues
1087,2,ruses
1088,2,rythmé
1089,2,république
1090,2,résista
1091,2,réveiller
1092,2,sabre
1093,2,sac
1094,2,sacré
1095,2,saint
1096,2,sainte
1097,2,sait
1098,2,sale
1099,2,salons
1100,2,salua
1101,2,sang
1102,2,saucisson
1103,2,sensation
1104,2,sentaient
1105,2,sentant
1106,2,sentiment
1107,2,sentiments
1108,2,seraient
1109,2,serrure
1110,2,serré
1111,2,seuls
1112,2,silencieuse
1113,2,simple
1114,2,simplement
1115,2,sociale
1116,2,soigner
1117,2,soin
1118,2,sol
1119,2,soleil
1120,2,songez
1121,2,songé
1122,2,sonner
1123,2,sorte
1124,2,sortir
1125,2,souffrait
1126,2,souffrance
1127,2,sourit
1128,2,subite
1129,2,suivait
1130,2,suivre
1131,2,supérieure
1132,2,surprise
1133,2,sut
1134,2,tables
1135,2,taille
1136,2,tempérament
1137,2,tendait
1138,2,tendit
1139,2,tenter
1140,2,terminé
1141,2,tira
1142,2,tirage
1143,2,tirant
1144,2,tirer
1145,2,tirée
1146,2,toilette
1147,2,tomba
1148,2,tombe
1149,2,tort
1150,2,toucher
1151,2,tourna
1152,2,tourne
1153,2,tournure
1154,2,tremper
1155,2,trente
1156,2,tressaillir
1157,2,trou
1158,2,trous
1159,2,trouvèrent
1160,2,trouvé
1161,2,tâchait
1162,2,tâcher
1163,2,témérité
1164,2,uniformes
1165,2,va
1166,2,vain
1167,2,vaincre
1168,2,vaincus
1169,2,vases
1170,2,veille
1171,2,vengeurs
1172,2,venir
1173,2,venu
1174,2,verts
1175,2,veux
1176,2,victorieux
1177,2,vint
1178,2,violent
1179,2,visages
1180,2,vivre
1181,2,voilées
1182,2,voisin
1183,2,volontiers
1184,2,vos
1185,2,voyant
1186,2,voyez
1187,2,vraiment
1188,2,vue
1189,2,vérole
1190,2,âgée
1191,2,écart
1192,2,éclata
1193,2,écoutant
1194,2,écume
1195,2,écurie
1196,2,éleva
1197,2,élevé
1198,2,énorme
1199,2,épouvante
1200,2,établie
1201,2,étendit
1202,1,abandon
1203,1,abandonna
1204,1,abandonnée
1205,1,abomination
1206,1,abondante
1207,1,abraham
1208,1,abri
1209,1,absout
1210,1,accablés
1211,1,accentuer
1212,1,acceptables
1213,1,accepte
1214,1,acceptez
1215,1,acceptons
1216,1,acceptèrent
1217,1,acclamait
1218,1,accompagna
1219,1,accompagnait
1220,1,accompli
1221,1,accomplis
1222,1,achard
1223,1,acheta
1224,1,acheté
1225,1,achevait
1226,1,achever
1227,1,achevé
1228,1,achète
1229,1,actes
1230,1,action
1231,1,activité
1232,1,admettrait
1233,1,admirablement
1234,1,adorant
1235,1,adressait
1236,1,affaire
1237,1,affairé
1238,1,affamées
1239,1,affinité
1240,1,affirma
1241,1,affola
1242,1,affolement
1243,1,affolé
1244,1,agacés
1245,1,agir
1246,1,agit
1247,1,agonisante
1248,1,aide
1249,1,aider
1250,1,aigres
1251,1,aigus
1252,1,ail
1253,1,aile
1254,1,aimables
1255,1,aimais
1256,1,aimes
1257,1,aimé
1258,1,aimée
1259,1,airs
1260,1,aise
1261,1,ajoutait
1262,1,ajouter
1263,1,alcool
1264,1,ale
1265,1,alentours
1266,1,alerte
1267,1,alertes
1268,1,alignés
1269,1,aliments
1270,1,allais
1271,1,allant
1272,1,allemande
1273,1,allonger
1274,1,allongés
1275,1,allumèrent
1276,1,allumée
1277,1,allure
1278,1,allusion
1279,1,allusions
1280,1,allégresse
1281,1,alsacien
1282,1,ambassadeurs
1283,1,amener
1284,1,amicaux
1285,1,amincissant
1286,1,amoncellement
1287,1,amortis
1288,1,amusant
1289,1,amuse
1290,1,anglaise
1291,1,animait
1292,1,animal
1293,1,annibal
1294,1,anxieuse
1295,1,anxieusement
1296,1,apaisa
1297,1,apaiser
1298,1,apaisée
1299,1,aperçue
1300,1,aplomb
1301,1,appareils
1302,1,apparence
1303,1,apparences
1304,1,appartenant
1305,1,appelait
1306,1,appelant
1307,1,appeler
1308,1,appellations
1309,1,appelle
1310,1,appellerait
1311,1,appelées
1312,1,appliquaient
1313,1,apporta
1314,1,apporteraient
1315,1,apportèrent
1316,1,apprendre
1317,1,apprise
1318,1,approbateur
1319,1,approchent
1320,1,approches
1321,1,apprécier
1322,1,appréhensions
1323,1,apprêter
1324,1,appui
1325,1,appuierait
1326,1,appétissante
1327,1,apôtre
1328,1,arc
1329,1,ardeur
1330,1,argument
1331,1,arguments
1332,1,arithmétique
1333,1,armateur
1334,1,arrachées
1335,1,arrangé
1336,1,arriva
1337,1,arrivait
1338,1,arriver
1339,1,arrivée
1340,1,arrière
1341,1,arrogance
1342,1,arrondissant
1343,1,arrêtaient
1344,1,arrêtant
1345,1,arrêtèrent
1346,1,arrêté
1347,1,arrêtée
1348,1,arrêtées
1349,1,artifices
1350,1,artilleurs
1351,1,artiste
1352,1,assaut
1353,1,assiette
1354,1,assister
1355,1,assit
1356,1,assombries
1357,1,assouplie
1358,1,assujettissant
1359,1,assumer
1360,1,assurance
1361,1,assurer
1362,1,asthmatique
1363,1,atomes
1364,1,attablé
1365,1,attacha
1366,1,attaqua
1367,1,atteignait
1368,1,atteignit
1369,1,atteints
1370,1,attelait
1371,1,attendaient
1372,1,attendu
1373,1,attiraient
1374,1,attirail
1375,1,attirées
1376,1,attitude
1377,1,attitudes
1378,1,auberges
1379,1,audemer
1380,1,augmenta
1381,1,augmentant
1382,1,augmenter
1383,1,aujourd
1384,1,auquel
1385,1,auraient
1386,1,aurore
1387,1,auteur
1388,1,autorisé
1389,1,autorisés
1390,1,autriche
1391,1,avais
1392,1,avala
1393,1,avalaient
1394,1,avaler
1395,1,avantages
1396,1,avança
1397,1,avançaient
1398,1,avançait
1399,1,ave
1400,1,avenir
1401,1,aventure
1402,1,avoine
1403,1,avouait
1404,1,axiome
1405,1,ayons
1406,1,aïeule
1407,1,badinguet
1408,1,baisaient
1409,1,baisers
1410,1,baissait
1411,1,balbutia
1412,1,balbutiait
1413,1,balbutié
1414,1,ballon
1415,1,banc
1416,1,bandits
1417,1,baptiser
1418,1,barbu
1419,1,bardée
1420,1,barre
1421,1,basses
1422,1,bataillons
1423,1,battait
1424,1,battant
1425,1,battre
1426,1,battu
1427,1,beau
1428,1,bedeau
1429,1,bedonnants
1430,1,berçait
1431,1,biens
1432,1,bienveillant
1433,1,bienveillante
1434,1,biessart
1435,1,bière
1436,1,blessa
1437,1,blessaient
1438,1,blesser
1439,1,blessés
1440,1,bleu
1441,1,bleus
1442,1,blocus
1443,1,blâmable
1444,1,bocks
1445,1,boire
1446,1,boisguillaume
1447,1,bonaparte
1448,1,bonapartiste
1449,1,bordé
1450,1,bordée
1451,1,bornes
1452,1,bottes
1453,1,bouffis
1454,1,bougeoir
1455,1,bouleversements
1456,1,boutique
1457,1,boutiques
1458,1,bouton
1459,1,braves
1460,1,bravo
1461,1,bredouillant
1462,1,bretelles
1463,1,breuvage
1464,1,brillaient
1465,1,brillant
1466,1,brisa
1467,1,brisé
1468,1,broches
1469,1,broussailles
1470,1,bruits
1471,1,brune
1472,1,brusque
1473,1,brutalement
1474,1,brutalité
1475,1,bruyant
1476,1,brèche
1477,1,bureau
1478,1,but
1479,1,buvaient
1480,1,buvait
1481,1,buée
1482,1,bâche
1483,1,bâillait
1484,1,bâtiment
1485,1,béant
1486,1,bégayant
1487,1,bésigue
1488,1,bétail
1489,1,bêtise
1490,1,bœufs
1491,1,cabaret
1492,1,cacha
1493,1,cachait
1494,1,cachemire
1495,1,cacher
1496,1,cadavre
1497,1,cadavres
1498,1,cahots
1499,1,camps
1500,1,canon
1501,1,capitaines
1502,1,capoue
1503,1,caprice
1504,1,capuchon
1505,1,caractère
1506,1,carcasse
1507,1,caressante
1508,1,caresser
1509,1,caresses
1510,1,carte
1511,1,casquette
1512,1,casse
1513,1,caste
1514,1,casuistique
1515,1,cataclysmes
1516,1,catherine
1517,1,catin
1518,1,causa
1519,1,causèrent
1520,1,cavalièrement
1521,1,ceinture
1522,1,centaines
1523,1,certaine
1524,1,certainement
1525,1,cervelle
1526,1,cessa
1527,1,cessé
1528,1,chair
1529,1,chaises
1530,1,chaleur
1531,1,changeait
1532,1,chanson
1533,1,chansons
1534,1,chante
1535,1,chanter
1536,1,chants
1537,1,charcuterie
1538,1,chargea
1539,1,chargée
1540,1,charmantes
1541,1,charogne
1542,1,chasseur
1543,1,chasseurs
1544,1,chasteté
1545,1,chaudière
1546,1,chauffer
1547,1,chaufferette
1548,1,chaufferettes
1549,1,chaumière
1550,1,chaîne
1551,1,chefs
1552,1,chercha
1553,1,cherchaient
1554,1,cheval
1555,1,chiens
1556,1,chimique
1557,1,chipie
1558,1,chipé
1559,1,choux
1560,1,chuchotements
1561,1,chuchotés
1562,1,chétive
1563,1,cidre
1564,1,cils
1565,1,cinglant
1566,1,circonstance
1567,1,circulaire
1568,1,cirée
1569,1,cirées
1570,1,citadelle
1571,1,citoyen
1572,1,citoyenne
1573,1,citoyennes
1574,1,civiles
1575,1,clameur
1576,1,claquait
1577,1,clarté
1578,1,cloche
1579,1,closes
1580,1,cléopâtre
1581,1,coalition
1582,1,cochers
1583,1,coffre
1584,1,coiffeur
1585,1,coiffure
1586,1,coin
1587,1,coins
1588,1,colla
1589,1,collait
1590,1,collation
1591,1,collègue
1592,1,combat
1593,1,combats
1594,1,combattait
1595,1,commandant
1596,1,commandements
1597,1,commandé
1598,1,commencèrent
1599,1,commencée
1600,1,commença
1601,1,commettre
1602,1,commission
1603,1,commisération
1604,1,commun
1605,1,communicatif
1606,1,communs
1607,1,compagnie
1608,1,comparaison
1609,1,comparant
1610,1,comparés
1611,1,complexion
1612,1,complications
1613,1,complice
1614,1,complimenteur
1615,1,compliments
1616,1,complètement
1617,1,complétant
1618,1,comprenant
1619,1,comprendrai
1620,1,comprendre
1621,1,comprimait
1622,1,compris
1623,1,comptait
1624,1,compte
1625,1,condamne
1626,1,condescendance
1627,1,conditions
1628,1,conduis
1629,1,conduisaient
1630,1,conduit
1631,1,confiseur
1632,1,confit
1633,1,confrère
1634,1,connaissances
1635,1,connaisseur
1636,1,connaissez
1637,1,connaître
1638,1,conquérants
1639,1,conscience
1640,1,consentir
1641,1,consentirent
1642,1,consentit
1643,1,conservait
1644,1,conservateurs
1645,1,conservât
1646,1,considérables
1647,1,considérant
1648,1,considération
1649,1,considérer
1650,1,considérât
1651,1,consolation
1652,1,consommations
1653,1,conspira
1654,1,conspiration
1655,1,conséquent
1656,1,contagieuse
1657,1,contenait
1658,1,contente
1659,1,contentèrent
1660,1,continuaient
1661,1,contraction
1662,1,contraignant
1663,1,contrainte
1664,1,contraints
1665,1,convaincre
1666,1,convenance
1667,1,convenu
1668,1,conversations
1669,1,convint
1670,1,convié
1671,1,coqs
1672,1,coque
1673,1,cordiale
1674,1,cornette
1675,1,cornichons
1676,1,corset
1677,1,coton
1678,1,cotonnière
1679,1,cotons
1680,1,coucha
1681,1,couchaient
1682,1,couche
1683,1,coulant
1684,1,couleur
1685,1,couplets
1686,1,coupon
1687,1,coups
1688,1,courbe
1689,1,couronnait
1690,1,cours
1691,1,course
1692,1,courtes
1693,1,courtisane
1694,1,courtois
1695,1,courtoises
1696,1,courue
1697,1,couteaux
1698,1,couvercle
1699,1,couverts
1700,1,couvertures
1701,1,couvrir
1702,1,coûtaient
1703,1,coûtait
1704,1,crachait
1705,1,cracher
1706,1,craignant
1707,1,cramoisie
1708,1,crassane
1709,1,creusaient
1710,1,creuser
1711,1,creux
1712,1,crier
1713,1,crimes
1714,1,crimée
1715,1,crispa
1716,1,crispation
1717,1,crispées
1718,1,criés
1719,1,crois
1720,1,croisa
1721,1,croisset
1722,1,croix
1723,1,crottin
1724,1,croulantes
1725,1,croyance
1726,1,croûton
1727,1,crudités
1728,1,cruellement
1729,1,crut
1730,1,crânes
1731,1,créée
1732,1,cuisinier
1733,1,cuisse
1734,1,cuivre
1735,1,culotte
1736,1,culottes
1737,1,culottée
1738,1,cultivaient
1739,1,curieusement
1740,1,curé
1741,1,curés
1742,1,céda
1743,1,cédé
1744,1,célérité
1745,1,côte
1746,1,côtes
1747,1,danger
1748,1,dangereuses
1749,1,darnetal
1750,1,davantage
1751,1,degré
1752,1,demandant
1753,1,demande
1754,1,demandèrent
1755,1,demandées
1756,1,demeuraient
1757,1,demeure
1758,1,demeures
1759,1,demeurée
1760,1,demeurés
1761,1,demi
1762,1,demie
1763,1,dent
1764,1,dentelles
1765,1,dernière
1766,1,dernières
1767,1,descendait
1768,1,descendant
1769,1,despotiques
1770,1,dessert
1771,1,dessine
1772,1,dessous
1773,1,destinées
1774,1,devaient
1775,1,devenaient
1776,1,devenant
1777,1,devenue
1778,1,devinrent
1779,1,diable
1780,1,dieppedalle
1781,1,difficile
1782,1,difficiles
1783,1,difficultés
1784,1,différentes
1785,1,digestions
1786,1,digne
1787,1,dignités
1788,1,digérait
1789,1,diplomate
1790,1,direction
1791,1,direz
1792,1,dirigeait
1793,1,disant
1794,1,discipline
1795,1,discret
1796,1,discrètes
1797,1,discussion
1798,1,disparaissaient
1799,1,disparates
1800,1,disparaître
1801,1,disparu
1802,1,disparue
1803,1,dissimuler
1804,1,distinguait
1805,1,distraction
1806,1,division
1807,1,doctrinaire
1808,1,doctrine
1809,1,dois
1810,1,doit
1811,1,dominait
1812,1,dompter
1813,1,donnaient
1814,1,donne
1815,1,donner
1816,1,donnèrent
1817,1,dormait
1818,1,dormir
1819,1,dormit
1820,1,dos
1821,1,double
1822,1,douce
1823,1,douceur
1824,1,douloureuse
1825,1,douloureux
1826,1,douter
1827,1,doué
1828,1,dragon
1829,1,drapeau
1830,1,dressa
1831,1,dressait
1832,1,droite
1833,1,droits
1834,1,duplicités
1835,1,duquel
1836,1,dura
1837,1,durci
1838,1,durs
1839,1,dut
1840,1,déballa
1841,1,débandées
1842,1,débauchés
1843,1,débordé
1844,1,déboucher
1845,1,débouché
1846,1,débris
1847,1,débâcle
1848,1,décidé
1849,1,décidément
1850,1,décision
1851,1,décisions
1852,1,déclarèrent
1853,1,déconcertent
1854,1,décorations
1855,1,découpa
1856,1,découpés
1857,1,découvertes
1858,1,découvraient
1859,1,dédaigneusement
1860,1,défaillante
1861,1,défaite
1862,1,défaut
1863,1,défendent
1864,1,défendre
1865,1,défendrez
1866,1,défendu
1867,1,défense
1868,1,défenses
1869,1,défenseurs
1870,1,défiant
1871,1,défoncement
1872,1,défoncée
1873,1,dégager
1874,1,dégourdir
1875,1,dégoût
1876,1,déguster
1877,1,dégâts
1878,1,déjeuné
1879,1,délicatement
1880,1,délicates
1881,1,délicatesse
1882,1,délicatesses
1883,1,délivrance
1884,1,délivré
1885,1,démesurée
1886,1,démocratiques
1887,1,démêlant
1888,1,département
1889,1,dépeignit
1890,1,dépend
1891,1,dépendait
1892,1,dépeça
1893,1,déplaire
1894,1,déplorable
1895,1,dérobée
1896,1,déroula
1897,1,dérouler
1898,1,déroute
1899,1,désastreusement
1900,1,désertes
1901,1,désespérait
1902,1,désirer
1903,1,désirez
1904,1,désirons
1905,1,désolait
1906,1,désunir
1907,1,désœuvrement
1908,1,détacha
1909,1,détachant
1910,1,détachements
1911,1,détailla
1912,1,détestés
1913,1,détournant
1914,1,détournèrent
1915,1,détruit
1916,1,dévastations
1917,1,développant
1918,1,développèrent
1919,1,dévoiler
1920,1,dévorait
1921,1,dévorante
1922,1,dévorées
1923,1,dévot
1924,1,dîna
1925,1,dînaient
1926,1,ecclésiastique
1927,1,effarement
1928,1,effarées
1929,1,effaçait
1930,1,effets
1931,1,effleurements
1932,1,efforcent
1933,1,effort
1934,1,efforts
1935,1,efforçait
1936,1,effrayants
1937,1,effroyablement
1938,1,eh
1939,1,embarqueraient
1940,1,embarrassée
1941,1,embaumait
1942,1,emblée
1943,1,embonpoint
1944,1,embrassait
1945,1,embrassée
1946,1,emmenait
1947,1,emmener
1948,1,emmène
1949,1,empaqueter
1950,1,emphase
1951,1,empire
1952,1,emplir
1953,1,emploient
1954,1,employa
1955,1,employait
1956,1,emportements
1957,1,empressaient
1958,1,empêcha
1959,1,empêcher
1960,1,endormir
1961,1,endroit
1962,1,enfermer
1963,1,enflamma
1964,1,enfoncèrent
1965,1,enfoncées
1966,1,enfonçaient
1967,1,engageait
1968,1,engagés
1969,1,engloutissaient
1970,1,engraissé
1971,1,enhardit
1972,1,enjouée
1973,1,ennemis
1974,1,ennuyait
1975,1,enseigne
1976,1,ensemble
1977,1,ensevelie
1978,1,ensevelissaient
1979,1,entassement
1980,1,entend
1981,1,entendant
1982,1,entendent
1983,1,entendre
1984,1,entente
1985,1,ententes
1986,1,entiers
1987,1,entourée
1988,1,entourés
1989,1,entrailles
1990,1,entrant
1991,1,entraîner
1992,1,entrechat
1993,1,entremêlement
1994,1,entreprendre
1995,1,entretient
1996,1,entretint
1997,1,entrouvrit
1998,1,enveloppa
1999,1,enveloppées
2000,1,envers
2001,1,envie
2002,1,environ
2003,1,envoya
2004,1,envoyait
2005,1,envoyer
2006,1,envoyés
2007,1,escaladée
2008,1,esclave
2009,1,espace
2010,1,espoir
2011,1,esquintent
2012,1,essayait
2013,1,essayant
2014,1,essoufflés
2015,1,essuyée
2016,1,essuyées
2017,1,estomac
2018,1,etrelles
2019,1,eues
2020,1,evêque
2021,1,ex
2022,1,exalta
2023,1,examina
2024,1,excelle
2025,1,excellent
2026,1,excepté
2027,1,excessivement
2028,1,exciter
2029,1,exemple
2030,1,exercice
2031,1,exigeaient
2032,1,exiger
2033,1,exiguë
2034,1,exigé
2035,1,existe
2036,1,expatrier
2037,1,exposés
2038,1,exprimer
2039,1,exprimée
2040,1,extermine
2041,1,extrême
2042,1,exécrant
2043,1,exécuter
2044,1,fables
2045,1,faciles
2046,1,faiblesse
2047,1,faiblit
2048,1,faisceau
2049,1,faisions
2050,1,faites
2051,1,fallu
2052,1,fameuse
2053,1,familière
2054,1,familles
2055,1,fanatique
2056,1,fanfarons
2057,1,fantaisiste
2058,1,fantassins
2059,1,farces
2060,1,fasse
2061,1,fatal
2062,1,fatigués
2063,1,faudra
2064,1,faudrait
2065,1,faute
2066,1,fauteuil
2067,1,favoris
2068,1,fendre
2069,1,fenêtre
2070,1,fer
2071,1,ferai
2072,1,ferais
2073,1,ferait
2074,1,ferma
2075,1,fermaient
2076,1,fermait
2077,1,fermèrent
2078,1,fermés
2079,1,ferré
2080,1,feuillettes
2081,1,ficelé
2082,1,fil
2083,1,filait
2084,1,filatures
2085,1,filets
2086,1,filou
2087,1,filtrait
2088,1,filtrent
2089,1,fine
2090,1,fini
2091,1,fixe
2092,1,fixés
2093,1,fière
2094,1,fièrement
2095,1,flambait
2096,1,flamboyante
2097,1,flamme
2098,1,flancs
2099,1,flanelle
2100,1,flattée
2101,1,fleurir
2102,1,flot
2103,1,flots
2104,1,flottant
2105,1,fléaux
2106,1,foie
2107,1,foilà
2108,1,follement
2109,1,folles
2110,1,fonction
2111,1,fonctions
2112,1,forcer
2113,1,forces
2114,1,forfaits
2115,1,forma
2116,1,formaient
2117,1,formalité
2118,1,formellement
2119,1,forteresse
2120,1,forts
2121,1,fortunes
2122,1,forêts
2123,1,fouet
2124,1,fouillait
2125,1,fournira
2126,1,fourrages
2127,1,fourreau
2128,1,fourrures
2129,1,fours
2130,1,foyers
2131,1,franc
2132,1,franchement
2133,1,frangée
2134,1,fraternellement
2135,1,fraîcheur
2136,1,fredonnait
2137,1,friandises
2138,1,fripon
2139,1,frisson
2140,1,frissonner
2141,1,froidement
2142,1,froissement
2143,1,front
2144,1,frottement
2145,1,frère
2146,1,frémissement
2147,1,frémissements
2148,1,frôlement
2149,1,fuite
2150,1,fumaient
2151,1,fumier
2152,1,fumée
2153,1,furibond
2154,1,furieux
2155,1,fusil
2156,1,fusillant
2157,1,fusils
2158,1,fussent
2159,1,futilités
2160,1,fuyaient
2161,1,fuyait
2162,1,fâcha
2163,1,félicita
2164,1,férocement
2165,1,fête
2166,1,gagnant
2167,1,gagnerons
2168,1,gai
2169,1,gaiement
2170,1,galant
2171,1,galantes
2172,1,galons
2173,1,gamme
2174,1,garce
2175,1,garde
2176,1,gardes
2177,1,gargote
2178,1,garnison
2179,1,garçon
2180,1,gaspillé
2181,1,gazeuse
2182,1,geignait
2183,1,gendarme
2184,1,gentille
2185,1,germer
2186,1,gigantesque
2187,1,gisait
2188,1,givre
2189,1,glace
2190,1,glacée
2191,1,glaires
2192,1,glissa
2193,1,glissaient
2194,1,glissèrent
2195,1,gonflé
2196,1,goujaterie
2197,1,goulots
2198,1,goulûment
2199,1,gourmand
2200,1,gouvernements
2201,1,gouverneur
2202,1,gouverné
2203,1,goûtée
2204,1,gracieuses
2205,1,gracieux
2206,1,graillonnante
2207,1,graine
2208,1,graines
2209,1,graisse
2210,1,grasse
2211,1,grave
2212,1,gravement
2213,1,gravité
2214,1,gredins
2215,1,grelots
2216,1,grelottaient
2217,1,grenier
2218,1,grillait
2219,1,grisonnants
2220,1,grivoiseries
2221,1,grivoises
2222,1,grouillaient
2223,1,gruyère
2224,1,guenilles
2225,1,guerriers
2226,1,guesclin
2227,1,guettaient
2228,1,gueuse
2229,1,gueux
2230,1,guigne
2231,1,gutturale
2232,1,guêpe
2233,1,générale
2234,1,générations
2235,1,généraux
2236,1,gêneraient
2237,1,gît
2238,1,habile
2239,1,habilement
2240,1,habileté
2241,1,habit
2242,1,habitant
2243,1,habitude
2244,1,habitué
2245,1,habituées
2246,1,hachées
2247,1,hantait
2248,1,hardi
2249,1,hardie
2250,1,hasard
2251,1,hautains
2252,1,henri
2253,1,heureuse
2254,1,heureusement
2255,1,heurts
2256,1,hideux
2257,1,hier
2258,1,histoires
2259,1,hivernages
2260,1,holopherne
2261,1,honneur
2262,1,honorabilité
2263,1,hordes
2264,1,horizon
2265,1,horreurs
2266,1,horribles
2267,1,hui
2268,1,humaine
2269,1,humait
2270,1,humble
2271,1,humblement
2272,1,humeur
2273,1,humiliation
2274,1,humiliée
2275,1,hurla
2276,1,hurler
2277,1,hussard
2278,1,hussards
2279,1,hypocritement
2280,1,hâtant
2281,1,hâte
2282,1,hélas
2283,1,héros
2284,1,héroïsmes
2285,1,hôpitaux
2286,1,hôtesse
2287,1,idée
2288,1,idées
2289,1,ier
2290,1,ignoble
2291,1,ignorants
2292,1,illimitée
2293,1,illuminés
2294,1,illustra
2295,1,illustres
2296,1,image
2297,1,imaginant
2298,1,imagination
2299,1,imitait
2300,1,imiter
2301,1,impassible
2302,1,impatiemment
2303,1,impayable
2304,1,imperceptiblement
2305,1,imperceptibles
2306,1,impertinent
2307,1,implorait
2308,1,importance
2309,1,impossible
2310,1,impotente
2311,1,impression
2312,1,impressions
2313,1,imprimait
2314,1,imprimé
2315,1,improductives
2316,1,impur
2317,1,impérial
2318,1,inappréciables
2319,1,inattendue
2320,1,incapables
2321,1,incendie
2322,1,inclina
2323,1,inclinés
2324,1,incomparable
2325,1,inconnue
2326,1,inconnus
2327,1,inconsciente
2328,1,indiquaient
2329,1,indiquer
2330,1,indirecte
2331,1,indisciplinés
2332,1,indiscutée
2333,1,indisposée
2334,1,industrie
2335,1,industriel
2336,1,industriels
2337,1,industries
2338,1,indécises
2339,1,indéfiniment
2340,1,indéterminé
2341,1,indéterminée
2342,1,infection
2343,1,inflexible
2344,1,influence
2345,1,inintelligence
2346,1,ininterrompu
2347,1,injures
2348,1,innommable
2349,1,inoccupés
2350,1,inoculer
2351,1,inoffensif
2352,1,inquiets
2353,1,inquiéter
2354,1,inscrire
2355,1,insignifiantes
2356,1,inspiration
2357,1,inspire
2358,1,installa
2359,1,installèrent
2360,1,instantanément
2361,1,instants
2362,1,instinct
2363,1,instinctive
2364,1,instruite
2365,1,intendance
2366,1,intense
2367,1,interloqué
2368,1,interminable
2369,1,interpella
2370,1,interpeller
2371,1,interposa
2372,1,interrogeait
2373,1,interroger
2374,1,interrogée
2375,1,interrompait
2376,1,interruption
2377,1,intimes
2378,1,intimidé
2379,1,intimidée
2380,1,intolérable
2381,1,introduits
2382,1,intrépides
2383,1,intéresser
2384,1,intérêt
2385,1,intérêts
2386,1,inutile
2387,1,inutiles
2388,1,investie
2389,1,invisible
2390,1,invita
2391,1,invraisemblables
2392,1,irai
2393,1,irascible
2394,1,irraisonnée
2395,1,issu
2396,1,italie
2397,1,iv
2398,1,jaillissait
2399,1,jambonneau
2400,1,jeanne
2401,1,jetaient
2402,1,jetant
2403,1,jeté
2404,1,jetée
2405,1,jeun
2406,1,jeûner
2407,1,joignirent
2408,1,joli
2409,1,joue
2410,1,jouerait
2411,1,joues
2412,1,jouissait
2413,1,journaux
2414,1,journée
2415,1,journées
2416,1,jovialité
2417,1,joyeuse
2418,1,judith
2419,1,jugeait
2420,1,jugements
2421,1,jupes
2422,1,jupons
2423,1,jurant
2424,1,jure
2425,1,jusque
2426,1,juste
2427,1,justice
2428,1,justifie
2429,1,laissa
2430,1,laissait
2431,1,laissées
2432,1,lait
2433,1,lambeaux
2434,1,langage
2435,1,langue
2436,1,lapin
2437,1,large
2438,1,larmes
2439,1,larynx
2440,1,las
2441,1,lesquels
2442,1,levait
2443,1,levant
2444,1,levée
2445,1,libre
2446,1,lieutenants
2447,1,lignards
2448,1,ligne
2449,1,limonade
2450,1,linge
2451,1,liquide
2452,1,litières
2453,1,livrer
2454,1,livres
2455,1,liés
2456,1,locale
2457,1,locomotive
2458,1,loger
2459,1,logeât
2460,1,logé
2461,1,lois
2462,1,longueur
2463,1,loques
2464,1,louable
2465,1,louchaient
2466,1,louer
2467,1,louis
2468,1,loup
2469,1,lourde
2470,1,lucrèce
2471,1,lugubre
2472,1,luisant
2473,1,luisantes
2474,1,luisants
2475,1,lumières
2476,1,lundi
2477,1,lâcha
2478,1,légal
2479,1,légendaire
2480,1,légende
2481,1,légion
2482,1,légions
2483,1,légitimes
2484,1,maculer
2485,1,madras
2486,1,madré
2487,1,magistralement
2488,1,magnifique
2489,1,magnifiques
2490,1,maigres
2491,1,malades
2492,1,maladive
2493,1,malheureusement
2494,1,malheureuses
2495,1,malpropre
2496,1,manches
2497,1,mangea
2498,1,mangeait
2499,1,mangé
2500,1,maniait
2501,1,manufacturière
2502,1,manœuvres
2503,1,marchaient
2504,1,marchait
2505,1,mardi
2506,1,mariage
2507,1,mariniers
2508,1,marmottant
2509,1,marmottement
2510,1,marmotter
2511,1,marquée
2512,1,marseillaise
2513,1,martyrs
2514,1,massacrant
2515,1,massacrer
2516,1,massacré
2517,1,masse
2518,1,mastiquaient
2519,1,mat
2520,1,matinée
2521,1,mauvaises
2522,1,mauviettes
2523,1,maçonnerie
2524,1,meilleures
2525,1,membre
2526,1,mensonges
2527,1,mentalement
2528,1,mentionnés
2529,1,mercenaires
2530,1,mes
2531,1,mesdames
2532,1,mesure
2533,1,mettaient
2534,1,mettait
2535,1,meublée
2536,1,meurtrier
2537,1,meurtriers
2538,1,mi
2539,1,microscopiques
2540,1,mijaurée
2541,1,milieux
2542,1,militaire
2543,1,millionnaire
2544,1,millionnaires
2545,1,minces
2546,1,minuit
2547,1,mioche
2548,1,miraculeusement
2549,1,miroitait
2550,1,mis
2551,1,mission
2552,1,misère
2553,1,misérables
2554,1,mitraille
2555,1,mmes
2556,1,mobile
2557,1,mobilier
2558,1,mobilisés
2559,1,moblots
2560,1,modestement
2561,1,modifié
2562,1,modérée
2563,1,moitié
2564,1,molle
2565,1,monopole
2566,1,montait
2567,1,montez
2568,1,montrant
2569,1,montre
2570,1,montrât
2571,1,montrés
2572,1,monté
2573,1,morale
2574,1,mordant
2575,1,mordre
2576,1,mornes
2577,1,mortes
2578,1,morveuse
2579,1,motif
2580,1,moudre
2581,1,moulue
2582,1,mourante
2583,1,mousser
2584,1,mousseux
2585,1,moustaches
2586,1,mouton
2587,1,moyen
2588,1,muet
2589,1,muette
2590,1,muettes
2591,1,murmura
2592,1,murmurait
2593,1,murmurant
2594,1,murmuré
2595,1,mystère
2596,1,mystérieuse
2597,1,mâcha
2598,1,mâchoire
2599,1,mâchoires
2600,1,mère
2601,1,méchants
2602,1,médaille
2603,1,ménageait
2604,1,ménageant
2605,1,ménager
2606,1,ménages
2607,1,mériter
2608,1,méritoire
2609,1,méritée
2610,1,mêlée
2611,1,naguère
2612,1,nantes
2613,1,napoléon
2614,1,narines
2615,1,nationale
2616,1,nationales
2617,1,naturellement
2618,1,naturels
2619,1,naufragés
2620,1,navire
2621,1,navré
2622,1,nerveux
2623,1,nez
2624,1,nicéphore
2625,1,noblesse
2626,1,noir
2627,1,nommé
2628,1,nommés
2629,1,nord
2630,1,notes
2631,1,notre
2632,1,nouant
2633,1,nourrisse
2634,1,nourrissent
2635,1,nourriture
2636,1,nourritures
2637,1,noyée
2638,1,noyés
2639,1,nuage
2640,1,nuance
2641,1,nuisibles
2642,1,nus
2643,1,né
2644,1,nécessaire
2645,1,nécessaires
2646,1,négoce
2647,1,négociant
2648,1,obligent
2649,1,obscure
2650,1,obscures
2651,1,obscurs
2652,1,observer
2653,1,observé
2654,1,observées
2655,1,obstination
2656,1,obstinément
2657,1,obtenir
2658,1,obtenue
2659,1,obtiendrait
2660,1,obèses
2661,1,obéirent
2662,1,obéissants
2663,1,occupaient
2664,1,occupait
2665,1,occupation
2666,1,occuper
2667,1,occupèrent
2668,1,occupé
2669,1,occupée
2670,1,odieux
2671,1,offensif
2672,1,offrant
2673,1,offres
2674,1,offrit
2675,1,oignons
2676,1,ombragés
2677,1,onctueuse
2678,1,onze
2679,1,opinions
2680,1,opposition
2681,1,opulence
2682,1,opulent
2683,1,ordinaire
2684,1,ordurent
2685,1,organiser
2686,1,organisèrent
2687,1,orléaniste
2688,1,orléans
2689,1,orties
2690,1,orémus
2691,1,osais
2692,1,osait
2693,1,osant
2694,1,oserai
2695,1,otages
2696,1,oubliait
2697,1,oubliée
2698,1,outils
2699,1,outrage
2700,1,outragée
2701,1,outrance
2702,1,outre
2703,1,ouvertes
2704,1,ouvrait
2705,1,ouvrir
2706,1,pacifiques
2707,1,pains
2708,1,paisible
2709,1,pale
2710,1,paletot
2711,1,panache
2712,1,panique
2713,1,pantalon
2714,1,papier
2715,1,paquet
2716,1,paquets
2717,1,paraphrase
2718,1,parbleu
2719,1,parcelle
2720,1,parcelles
2721,1,parcourant
2722,1,parcourut
2723,1,pardonne
2724,1,pareil
2725,1,pareillement
2726,1,parfum
2727,1,parfumée
2728,1,partager
2729,1,partageurs
2730,1,partent
2731,1,parti
2732,1,particulier
2733,1,particulière
2734,1,partirait
2735,1,partis
2736,1,partisan
2737,1,parvenir
2738,1,passage
2739,1,passant
2740,1,passions
2741,1,passé
2742,1,pater
2743,1,paternel
2744,1,patriotique
2745,1,patriotisme
2746,1,paupières
2747,1,pavés
2748,1,payaient
2749,1,paye
2750,1,payer
2751,1,payerait
2752,1,paysan
2753,1,paysanne
2754,1,paysannes
2755,1,peignoir
2756,1,pelotonnée
2757,1,pencha
2758,1,penchant
2759,1,pendait
2760,1,pendants
2761,1,pensait
2762,1,pense
2763,1,pensez
2764,1,perdait
2765,1,perdre
2766,1,perdu
2767,1,perfection
2768,1,permettait
2769,1,permis
2770,1,permission
2771,1,perpétuel
2772,1,personnelles
2773,1,pertes
2774,1,pesant
2775,1,peser
2776,1,philippe
2777,1,phrases
2778,1,phtisique
2779,1,physionomie
2780,1,physique
2781,1,piano
2782,1,pien
2783,1,pierre
2784,1,pigeons
2785,1,pillant
2786,1,pillards
2787,1,pillé
2788,1,pincer
2789,1,piquait
2790,1,pivoine
2791,1,pièges
2792,1,piétiner
2793,1,placer
2794,1,placeras
2795,1,placidement
2796,1,plafond
2797,1,plaignait
2798,1,plaine
2799,1,plaines
2800,1,plaisait
2801,1,plancher
2802,1,plans
2803,1,plané
2804,1,plate
2805,1,platitudes
2806,1,plaça
2807,1,pleuraient
2808,1,pleurer
2809,1,pleurs
2810,1,pleuré
2811,1,pli
2812,1,pliant
2813,1,plongeant
2814,1,plongé
2815,1,pluie
2816,1,plumes
2817,1,poches
2818,1,poids
2819,1,poils
2820,1,poings
2821,1,poire
2822,1,poitrines
2823,1,poli
2824,1,polissonne
2825,1,polissons
2826,1,politique
2827,1,polonais
2828,1,pomme
2829,1,populacier
2830,1,populaire
2831,1,porcelaine
2832,1,porcs
2833,1,port
2834,1,portaient
2835,1,portait
2836,1,portes
2837,1,posa
2838,1,possèdent
2839,1,posé
2840,1,posés
2841,1,potage
2842,1,poudrait
2843,1,poufez
2844,1,poule
2845,1,poumons
2846,1,pourraient
2847,1,pourrais
2848,1,poursuivis
2849,1,pourtant
2850,1,poussa
2851,1,poussait
2852,1,poussant
2853,1,pousser
2854,1,poussée
2855,1,poutres
2856,1,pouvant
2857,1,pouvoir
2858,1,premiers
2859,1,premières
2860,1,prenaient
2861,1,prend
2862,1,prendre
2863,1,presbytère
2864,1,pressa
2865,1,pression
2866,1,pria
2867,1,prime
2868,1,prince
2869,1,principes
2870,1,printemps
2871,1,pris
2872,1,prise
2873,1,privé
2874,1,prochain
2875,1,proclamant
2876,1,proclamations
2877,1,prodigieusement
2878,1,produisit
2879,1,produit
2880,1,profession
2881,1,profilait
2882,1,profit
2883,1,profita
2884,1,profitable
2885,1,profond
2886,1,profondément
2887,1,projets
2888,1,prolongé
2889,1,promena
2890,1,promenaient
2891,1,prompts
2892,1,prononça
2893,1,propos
2894,1,proposer
2895,1,proposé
2896,1,proprement
2897,1,propriétaire
2898,1,protester
2899,1,protégeaient
2900,1,provocant
2901,1,prudence
2902,1,prudentes
2903,1,prussiennes
2904,1,précaution
2905,1,précautions
2906,1,précipita
2907,1,précipitant
2908,1,précipitèrent
2909,1,précoce
2910,1,préférait
2911,1,préférant
2912,1,préférez
2913,1,préférées
2914,1,préméditation
2915,1,prépara
2916,1,préparait
2917,1,préparant
2918,1,préparatifs
2919,1,prépare
2920,1,présence
2921,1,prétendaient
2922,1,prétendait
2923,1,prétexte
2924,1,prévint
2925,1,prévoyaient
2926,1,prévoyant
2927,1,prête
2928,1,prêtre
2929,1,public
2930,1,publique
2931,1,publiques
2932,1,puissants
2933,1,puisés
2934,1,pâles
2935,1,pâte
2936,1,pénétra
2937,1,périlleuses
2938,1,périr
2939,1,pêcheurs
2940,1,pôle
2941,1,quadrille
2942,1,qualité
2943,1,qualités
2944,1,quant
2945,1,quart
2946,1,quatorze
2947,1,quelle
2948,1,quenottes
2949,1,quiconque
2950,1,quitta
2951,1,quittant
2952,1,quitter
2953,1,quitté
2954,1,quoi
2955,1,racheter
2956,1,racontant
2957,1,raconté
2958,1,radieux
2959,1,raffoleraient
2960,1,rage
2961,1,rageur
2962,1,raide
2963,1,raides
2964,1,raidit
2965,1,raisonnement
2966,1,ralliement
2967,1,ramassa
2968,1,ramassant
2969,1,ramasser
2970,1,ramenaient
2971,1,ramenés
2972,1,ran
2973,1,rangs
2974,1,rançon
2975,1,rappeler
2976,1,rapport
2977,1,rapprocha
2978,1,rapprochement
2979,1,rapprochèrent
2980,1,rapprochés
2981,1,rassemblement
2982,1,rassurez
2983,1,rat
2984,1,rattrapés
2985,1,ravages
2986,1,ravagée
2987,1,ravir
2988,1,ravissante
2989,1,recevait
2990,1,recevoir
2991,1,recommençaient
2992,1,reconnaissances
2993,1,reconnaissant
2994,1,reconnaître
2995,1,reconnue
2996,1,reconnurent
2997,1,recourbée
2998,1,recouvrant
2999,1,redescendit
3000,1,redressait
3001,1,reflet
3002,1,refroidie
3003,1,refroidissement
3004,1,refuse
3005,1,refuser
3006,1,refusèrent
3007,1,refusé
3008,1,regagna
3009,1,regardaient
3010,1,regardais
3011,1,regardant
3012,1,regarde
3013,1,regrettait
3014,1,regrettant
3015,1,rejetée
3016,1,rejoignit
3017,1,releva
3018,1,relever
3019,1,remarquer
3020,1,rembrunirent
3021,1,remercia
3022,1,remerciant
3023,1,remerciements
3024,1,remercions
3025,1,remonta
3026,1,remontèrent
3027,1,remous
3028,1,remplir
3029,1,remua
3030,1,remuait
3031,1,remuer
3032,1,rencontre
3033,1,rencontres
3034,1,rencontrées
3035,1,rendaient
3036,1,rendait
3037,1,rendez
3038,1,rendirent
3039,1,rendrait
3040,1,rendu
3041,1,rendues
3042,1,rengorgés
3043,1,renommée
3044,1,renouvela
3045,1,renouvelât
3046,1,renouvelé
3047,1,renseignements
3048,1,rentiers
3049,1,rentrer
3050,1,rentrèrent
3051,1,rentrés
3052,1,rentée
3053,1,renversa
3054,1,renversé
3055,1,reparaît
3056,1,repartaient
3057,1,reparurent
3058,1,repeuplent
3059,1,replié
3060,1,replète
3061,1,reposant
3062,1,reprenait
3063,1,reprenant
3064,1,reprise
3065,1,reprises
3066,1,reproche
3067,1,représentait
3068,1,représente
3069,1,respect
3070,1,respecte
3071,1,respectueusement
3072,1,respira
3073,1,responsabilité
3074,1,ressemblaient
3075,1,ressemblait
3076,1,ressemblance
3077,1,ressentaient
3078,1,resté
3079,1,restés
3080,1,retentissante
3081,1,retentissement
3082,1,retenue
3083,1,retirer
3084,1,retour
3085,1,retourner
3086,1,retraite
3087,1,retranchements
3088,1,revenait
3089,1,revenge
3090,1,revenu
3091,1,reviendrons
3092,1,revoyions
3093,1,revêche
3094,1,reçut
3095,1,rhum
3096,1,ri
3097,1,riait
3098,1,richesses
3099,1,rideau
3100,1,rigide
3101,1,rigueurs
3102,1,risquées
3103,1,rivière
3104,1,rivières
3105,1,roche
3106,1,roi
3107,1,roidis
3108,1,rois
3109,1,rome
3110,1,rompit
3111,1,rond
3112,1,ronflement
3113,1,rongée
3114,1,rose
3115,1,rouennais
3116,1,roues
3117,1,rougeaude
3118,1,rouges
3119,1,rougissante
3120,1,roule
3121,1,roulèrent
3122,1,roulé
3123,1,rousse
3124,1,roussâtre
3125,1,rubicon
3126,1,rude
3127,1,ruineux
3128,1,ruiné
3129,1,râlant
3130,1,réchauffe
3131,1,réclama
3132,1,récoltes
3133,1,réduisant
3134,1,réflexion
3135,1,réfléchir
3136,1,réfléchissait
3137,1,réfléchit
3138,1,régence
3139,1,régiment
3140,1,régla
3141,1,régna
3142,1,régulier
3143,1,régulièrement
3144,1,répandit
3145,1,répandue
3146,1,réparent
3147,1,réprobation
3148,1,répugnance
3149,1,réputation
3150,1,répéta
3151,1,répétait
3152,1,répéter
3153,1,réserve
3154,1,réserves
3155,1,résistait
3156,1,résister
3157,1,résolue
3158,1,résolurent
3159,1,résolut
3160,1,résolution
3161,1,résulter
3162,1,résulteraient
3163,1,résuma
3164,1,réunirent
3165,1,réveil
3166,1,réveilla
3167,1,révoltés
3168,1,révolution
3169,1,révolutionnaires
3170,1,révéla
3171,1,révélerait
3172,1,rôtir
3173,1,sabot
3174,1,sacrifié
3175,1,sacrifiée
3176,1,sacrée
3177,1,sacs
3178,1,sagesse
3179,1,saillait
3180,1,saintes
3181,1,saints
3182,1,saisir
3183,1,saligaud
3184,1,salir
3185,1,salive
3186,1,salon
3187,1,salut
3188,1,sanglot
3189,1,sanglots
3190,1,saperlipopette
3191,1,satisfaction
3192,1,saucisses
3193,1,sauf
3194,1,sautillait
3195,1,sauté
3196,1,sauvages
3197,1,sauvait
3198,1,sauver
3199,1,sauveur
3200,1,sauvé
3201,1,sauvés
3202,1,savaient
3203,1,savate
3204,1,savent
3205,1,savon
3206,1,savons
3207,1,scabreuses
3208,1,scrupules
3209,1,second
3210,1,secourable
3211,1,secours
3212,1,secousse
3213,1,secrètement
3214,1,seine
3215,1,selon
3216,1,semblable
3217,1,semblant
3218,1,semblent
3219,1,semé
3220,1,semée
3221,1,sensible
3222,1,sensibles
3223,1,sensualité
3224,1,sentinelles
3225,1,sentir
3226,1,sentit
3227,1,septembre
3228,1,sereine
3229,1,serez
3230,1,serions
3231,1,sermonna
3232,1,serons
3233,1,serpent
3234,1,serrèrent
3235,1,servant
3236,1,servante
3237,1,servantes
3238,1,servi
3239,1,serviable
3240,1,service
3241,1,serviette
3242,1,servilités
3243,1,servir
3244,1,servit
3245,1,sever
3246,1,sextus
3247,1,sien
3248,1,sienne
3249,1,sifflants
3250,1,sifflement
3251,1,sifflements
3252,1,siffloter
3253,1,signaient
3254,1,signalement
3255,1,signes
3256,1,signée
3257,1,silencieux
3258,1,simples
3259,1,sincères
3260,1,singulières
3261,1,sitôt
3262,1,siècles
3263,1,siège
3264,1,soi
3265,1,soient
3266,1,soif
3267,1,soigneusement
3268,1,soldatesques
3269,1,solennité
3270,1,solitaire
3271,1,sollicitée
3272,1,sollicitées
3273,1,sombra
3274,1,sombres
3275,1,somme
3276,1,sommeillaient
3277,1,somnolentes
3278,1,songea
3279,1,sonna
3280,1,sonnaient
3281,1,sortaient
3282,1,sortie
3283,1,sortirent
3284,1,sortis
3285,1,soucieux
3286,1,soudard
3287,1,soudards
3288,1,souffla
3289,1,soufflaient
3290,1,soufflant
3291,1,souffle
3292,1,souffler
3293,1,souffles
3294,1,souffre
3295,1,souffrirent
3296,1,souillée
3297,1,soulagement
3298,1,souleva
3299,1,soumissions
3300,1,soupe
3301,1,soupirer
3302,1,soupière
3303,1,souplesse
3304,1,sourd
3305,1,sourds
3306,1,souriait
3307,1,soutane
3308,1,soutanes
3309,1,soutenant
3310,1,soutenir
3311,1,soutiens
3312,1,spirituelles
3313,1,spécialité
3314,1,stupéfaite
3315,1,su
3316,1,subir
3317,1,subtil
3318,1,subtilités
3319,1,succulente
3320,1,sud
3321,1,sueur
3322,1,suffit
3323,1,suffoquant
3324,1,suffoquer
3325,1,suffoqués
3326,1,suivaient
3327,1,suivirent
3328,1,suivis
3329,1,suivit
3330,1,suivraient
3331,1,sujet
3332,1,superbe
3333,1,supplice
3334,1,suprême
3335,1,supérieur
3336,1,surface
3337,1,surmonté
3338,1,surnom
3339,1,surpris
3340,1,surprises
3341,1,sèchement
3342,1,sécurité
3343,1,sépara
3344,1,séparer
3345,1,sût
3346,1,t
3347,1,tacher
3348,1,taché
3349,1,tacites
3350,1,taire
3351,1,taisait
3352,1,tambours
3353,1,tan
3354,1,tantale
3355,1,tapa
3356,1,tari
3357,1,tasse
3358,1,te
3359,1,tel
3360,1,tellement
3361,1,tenaient
3362,1,tenant
3363,1,tendus
3364,1,terme
3365,1,termes
3366,1,terminait
3367,1,terminée
3368,1,terrible
3369,1,terribles
3370,1,tes
3371,1,tescentre
3372,1,tient
3373,1,timide
3374,1,timidement
3375,1,timon
3376,1,timoniers
3377,1,tinta
3378,1,tirait
3379,1,tireurs
3380,1,titres
3381,1,titubait
3382,1,toit
3383,1,toits
3384,1,tombaient
3385,1,tombante
3386,1,tomber
3387,1,tordit
3388,1,tourmentait
3389,1,tournant
3390,1,tournel
3391,1,tourner
3392,1,tournures
3393,1,tourné
3394,1,toussait
3395,1,toussant
3396,1,tragique
3397,1,trahi
3398,1,train
3399,1,traitant
3400,1,traitée
3401,1,trancha
3402,1,tranche
3403,1,tranches
3404,1,tranquille
3405,1,tranquillement
3406,1,tranquilles
3407,1,transmettre
3408,1,transmis
3409,1,travail
3410,1,travailla
3411,1,travaillaient
3412,1,travaillait
3413,1,travaillent
3414,1,travaux
3415,1,traversaient
3416,1,traverser
3417,1,traversèrent
3418,1,traversé
3419,1,traînaient
3420,1,tremblant
3421,1,tremblante
3422,1,tremblement
3423,1,tremblements
3424,1,trempait
3425,1,tressaillit
3426,1,tribus
3427,1,tricher
3428,1,triomphale
3429,1,triomphe
3430,1,tripotant
3431,1,troisième
3432,1,trompe
3433,1,trompettes
3434,1,troubla
3435,1,troublaient
3436,1,troublait
3437,1,trouble
3438,1,troupe
3439,1,trouvera
3440,1,trouverons
3441,1,tumultueuse
3442,1,tus
3443,1,tutoyant
3444,1,tâtonnements
3445,1,témoignèrent
3446,1,ténèbres
3447,1,tôt
3448,1,uhlans
3449,1,unes
3450,1,union
3451,1,unique
3452,1,uniquement
3453,1,uns
3454,1,urbanité
3455,1,utile
3456,1,utiles
3457,1,vaincu
3458,1,valet
3459,1,valu
3460,1,vanter
3461,1,vapeur
3462,1,variante
3463,1,vastes
3464,1,veau
3465,1,venaient
3466,1,venait
3467,1,venant
3468,1,vendait
3469,1,vendre
3470,1,vendue
3471,1,venez
3472,1,vengeance
3473,1,vengeances
3474,1,vengeur
3475,1,venue
3476,1,verbeuse
3477,1,vergogne
3478,1,vernie
3479,1,verrait
3480,1,verser
3481,1,vertu
3482,1,viandes
3483,1,vibrante
3484,1,vide
3485,1,vidé
3486,1,vieillesse
3487,1,vient
3488,1,vies
3489,1,vif
3490,1,vinaigre
3491,1,vingt
3492,1,violemment
3493,1,violences
3494,1,virent
3495,1,visage
3496,1,visite
3497,1,visiter
3498,1,vit
3499,1,vitres
3500,1,vitrée
3501,1,vivacité
3502,1,vivante
3503,1,voici
3504,1,voient
3505,1,voies
3506,1,voilà
3507,1,voilés
3508,1,voit
3509,1,voiturier
3510,1,vola
3511,1,vole
3512,1,volets
3513,1,volontés
3514,1,voltigeait
3515,1,volé
3516,1,voudrai
3517,1,voulaient
3518,1,voulez
3519,1,vouloir
3520,1,voulurent
3521,1,voyiez
3522,1,voyons
3523,1,vu
3524,1,vus
3525,1,vêtements
3526,1,vêtus
3527,1,yvetot
3528,1,ébauchât
3529,1,éblouissante
3530,1,ébranla
3531,1,écarquillés
3532,1,écarter
3533,1,écarts
3534,1,écarté
3535,1,écartés
3536,1,échanger
3537,1,échangées
3538,1,échantillon
3539,1,échec
3540,1,échéance
3541,1,éclaira
3542,1,éclairaient
3543,1,éclatait
3544,1,éclatante
3545,1,éclose
3546,1,économie
3547,1,écouta
3548,1,écouter
3549,1,écrasant
3550,1,écrasée
3551,1,écrits
3552,1,écuries
3553,1,écus
3554,1,édifiante
3555,1,éducation
3556,1,égal
3557,1,égale
3558,1,égrenaient
3559,1,égrillarde
3560,1,élargissant
3561,1,élevaient
3562,1,élevait
3563,1,élevant
3564,1,élevés
3565,1,élite
3566,1,éloigna
3567,1,éloquence
3568,1,élément
3569,1,émanations
3570,1,émasculés
3571,1,émotion
3572,1,émoustillé
3573,1,émue
3574,1,émulation
3575,1,énergie
3576,1,énergique
3577,1,énormément
3578,1,énumérèrent
3579,1,épais
3580,1,épaisses
3581,1,épanouissaient
3582,1,éparpillaient
3583,1,éperdu
3584,1,épluchait
3585,1,épouse
3586,1,épouses
3587,1,épouvantait
3588,1,épouvantée
3589,1,épouvantés
3590,1,époux
3591,1,éprouvant
3592,1,éprouvé
3593,1,éreintés
3594,1,établi
3595,1,établissait
3596,1,établissement
3597,1,établit
3598,1,étage
3599,1,étais
3600,1,état
3601,1,éteint
3602,1,étendu
3603,1,éternelle
3604,1,étions
3605,1,étoiles
3606,1,étonné
3607,1,étouffait
3608,1,étouffement
3609,1,étrange
3610,1,étranglait
3611,1,étrangler
3612,1,étranglés
3613,1,étrangère
3614,1,étrillait
3615,1,étroite
3616,1,évidente
3617,1,éviter
3618,1,êtres
