#Word Types: 2693
#Word Tokens: 16176
#Search Hits: 0
1	469	de	
2	407	et	
3	399	je	
4	391	vous	
5	329	que	
6	260	à	
7	243	un	
8	241	en	
9	224	le	
10	221	est	
11	216	l	
12	206	il	
13	199	la	
14	190	d	
15	190	ne	
16	182	qu	
17	151	pour	
18	147	ce	
19	138	si	
20	137	qui	
21	136	mon	
22	133	me	
23	114	bien	
24	113	n	
25	111	j	
26	110	m	
27	109	une	
28	108	moi	
29	106	pas	
30	101	nous	
31	99	les	
32	96	on	
33	87	tout	
34	87	votre	
35	85	mais	
36	82	tu	
37	74	ma	
38	74	point	
39	72	c	
40	68	ai	
41	67	a	
42	66	plus	
43	65	son	
44	64	au	
45	64	fait	
46	64	lui	
47	62	s	
48	55	se	
49	55	être	
50	54	sans	
51	53	par	
52	52	coeur	
53	52	dans	
54	52	sa	
55	51	faire	
56	49	où	
57	49	suis	
58	48	cette	
59	47	rien	
60	46	même	
61	43	du	
62	43	non	
63	42	amour	
64	42	te	
65	42	veux	
66	41	encore	
67	40	elle	
68	40	trop	
69	39	comme	
70	38	avec	
71	38	quoi	
72	37	lucile	
73	37	tous	
74	36	dis	
75	36	enfin	
76	36	peut	
77	35	des	
78	35	monsieur	
79	35	peu	
80	35	âme	
81	34	mes	
82	34	quand	
83	34	quelque	
84	34	sur	
85	33	autre	
86	33	donc	
87	33	dont	
88	32	voir	
89	31	jamais	
90	31	oui	
91	30	faut	
92	29	dit	
93	28	ces	
94	28	fort	
95	28	là	
96	28	toute	
97	28	vos	
98	27	soit	
99	26	cet	
100	26	hé	
101	26	ici	
102	26	ou	
103	26	père	
104	25	aussi	
105	25	aux	
106	25	tant	
107	25	voilà	
108	24	ainsi	
109	24	avez	
110	24	bon	
111	24	chose	
112	24	va	
113	24	vois	
114	23	cela	
115	23	dieu	
116	23	yeux	
117	22	moins	
118	22	vient	
119	21	avoir	
120	21	deux	
121	21	maître	
122	21	oh	
123	21	sais	
124	21	t	
125	21	toi	
126	21	veut	
127	21	y	
128	20	grâce	
129	20	ha	
130	20	quel	
131	20	ses	
132	20	valère	
133	19	mal	
134	19	notre	
135	19	parler	
136	18	affaire	
137	18	assez	
138	18	discours	
139	18	doit	
140	18	esprit	
141	18	foi	
142	18	gens	
143	18	homme	
144	18	secret	
145	17	albert	
146	17	après	
147	17	crois	
148	17	femme	
149	17	fille	
150	17	fils	
151	17	grand	
152	17	ta	
153	17	ton	
154	17	éraste	
155	16	car	
156	16	peur	
157	16	sont	
158	16	tel	
159	15	aime	
160	15	beau	
161	15	flamme	
162	15	ni	
163	14	ascagne	
164	14	contre	
165	14	mot	
166	14	pouvoir	
167	14	toujours	
168	14	voeux	
169	13	bonne	
170	13	doute	
171	13	fais	
172	13	mieux	
173	13	puis	
174	13	sait	
175	13	voulez	
176	13	était	
177	12	doux	
178	12	feux	
179	12	fois	
180	12	jour	
181	12	leur	
182	12	mascarille	
183	12	ont	
184	12	prendre	
185	12	pu	
186	12	raison	
187	12	seigneur	
188	12	sort	
189	12	trouver	
190	12	tête	
191	11	adieu	
192	11	aura	
193	11	avant	
194	11	celle	
195	11	cent	
196	11	ciel	
197	11	depuis	
198	11	dire	
199	11	dois	
200	11	donner	
201	11	honneur	
202	11	hymen	
203	11	moment	
204	11	objet	
205	11	seul	
206	11	sous	
207	11	su	
208	11	tantôt	
209	11	êtes	
210	10	action	
211	10	alors	
212	10	ardeur	
213	10	bras	
214	10	coup	
215	10	extrême	
216	10	laissez	
217	10	marinette	
218	10	mettre	
219	10	mots	
220	10	prends	
221	10	sera	
222	10	temps	
223	10	venir	
224	10	viens	
225	10	voit	
226	10	état	
227	9	amant	
228	9	autres	
229	9	aventure	
230	9	belle	
231	9	bonheur	
232	9	chercher	
233	9	dessus	
234	9	entre	
235	9	eux	
236	9	frère	
237	9	gros	
238	9	hélas	
239	9	ils	
240	9	jusqu	
241	9	longtemps	
242	9	maîtresse	
243	9	monde	
244	9	mort	
245	9	nuit	
246	9	place	
247	9	puisque	
248	9	rendre	
249	9	rival	
250	9	savez	
251	9	soins	
252	9	tiens	
253	9	transport	
254	9	vais	
255	9	voudrais	
256	9	vrai	
257	8	ah	
258	8	chez	
259	8	courroux	
260	8	croire	
261	8	dites	
262	8	effet	
263	8	eh	
264	8	frosine	
265	8	grande	
266	8	intérêt	
267	8	jaloux	
268	8	juste	
269	8	laisse	
270	8	madame	
271	8	maintenant	
272	8	nos	
273	8	part	
274	8	peine	
275	8	puisse	
276	8	quelle	
277	8	reste	
278	8	soeur	
279	8	tes	
280	8	voyez	
281	8	étrange	
282	7	accord	
283	7	aller	
284	7	allez	
285	7	aurais	
286	7	aveu	
287	7	beaucoup	
288	7	bouche	
289	7	celui	
290	7	comment	
291	7	demande	
292	7	diable	
293	7	entretien	
294	7	faites	
295	7	fasse	
296	7	fera	
297	7	font	
298	7	fut	
299	7	garde	
300	7	honte	
301	7	jours	
302	7	maison	
303	7	mystère	
304	7	nouvelle	
305	7	parole	
306	7	passe	
307	7	pourrait	
308	7	rend	
309	7	rené	
310	7	sentiment	
311	7	sujet	
312	7	surprendre	
313	7	telle	
314	7	touche	
315	7	traître	
316	7	trouble	
317	7	vie	
318	7	vraiment	
319	7	vôtre	
320	6	ait	
321	6	allons	
322	6	aurait	
323	6	avais	
324	6	bonjour	
325	6	ceci	
326	6	cependant	
327	6	certain	
328	6	chaîne	
329	6	colère	
330	6	coups	
331	6	crains	
332	6	croyez	
333	6	dessein	
334	6	donne	
335	6	dès	
336	6	entendre	
337	6	envie	
338	6	espoir	
339	6	eût	
340	6	faute	
341	6	faveur	
342	6	fit	
343	6	heure	
344	6	imposture	
345	6	intérêts	
346	6	langage	
347	6	leurs	
348	6	lieu	
349	6	lors	
350	6	main	
351	6	mien	
352	6	montrer	
353	6	mourir	
354	6	nom	
355	6	offense	
356	6	paraître	
357	6	pardon	
358	6	parle	
359	6	pense	
360	6	pensée	
361	6	perdre	
362	6	personne	
363	6	plaisir	
364	6	pourquoi	
365	6	présence	
366	6	prétends	
367	6	rire	
368	6	savoir	
369	6	secrète	
370	6	semble	
371	6	sens	
372	6	serait	
373	6	seulement	
374	6	sexe	
375	6	souvent	
376	6	toutes	
377	6	valet	
378	6	vite	
379	6	voici	
380	6	écrit	
381	6	époux	
382	5	abord	
383	5	ans	
384	5	apprendre	
385	5	assuré	
386	5	attendre	
387	5	audace	
388	5	aujourd	
389	5	avons	
390	5	ayez	
391	5	cause	
392	5	cher	
393	5	chère	
394	5	ci	
395	5	coquin	
396	5	courage	
397	5	cru	
398	5	dedans	
399	5	dernière	
400	5	desseins	
401	5	destin	
402	5	douceur	
403	5	découvrir	
404	5	déjà	
405	5	faible	
406	5	faite	
407	5	famille	
408	5	façon	
409	5	ferai	
410	5	feu	
411	5	fou	
412	5	fuir	
413	5	fureur	
414	5	heureux	
415	5	hier	
416	5	hui	
417	5	las	
418	5	malgré	
419	5	mauvais	
420	5	moindre	
421	5	mère	
422	5	mépris	
423	5	nécessaire	
424	5	nôtre	
425	5	pareil	
426	5	pauvre	
427	5	polydore	
428	5	porte	
429	5	pouvait	
430	5	pouvez	
431	5	premier	
432	5	prie	
433	5	propos	
434	5	quelqu	
435	5	raillerie	
436	5	recevoir	
437	5	servir	
438	5	sien	
439	5	sommes	
440	5	suffit	
441	5	trompe	
442	5	trouve	
443	5	vas	
444	5	voulu	
445	5	éclat	
446	5	écoute	
447	5	étais	
448	5	étant	
449	4	affliger	
450	4	afin	
451	4	aille	
452	4	amis	
453	4	animal	
454	4	as	
455	4	assurance	
456	4	aucun	
457	4	aurai	
458	4	aurez	
459	4	autant	
460	4	avait	
461	4	avantage	
462	4	avouerai	
463	4	ayant	
464	4	besoin	
465	4	bourreau	
466	4	bout	
467	4	bâton	
468	4	bête	
469	4	cacher	
470	4	caché	
471	4	capable	
472	4	certes	
473	4	chagrin	
474	4	choses	
475	4	comparaison	
476	4	compliment	
477	4	connaître	
478	4	content	
479	4	corps	
480	4	croit	
481	4	côté	
482	4	dirai	
483	4	défendre	
484	4	déguisement	
485	4	emporte	
486	4	encor	
487	4	endroit	
488	4	ensemble	
489	4	excuse	
490	4	faisait	
491	4	feinte	
492	4	femmes	
493	4	fortune	
494	4	fourbe	
495	4	galant	
496	4	grands	
497	4	haut	
498	4	hors	
499	4	humeur	
500	4	indifférence	
501	4	ingrate	
502	4	jalousie	
503	4	jambes	
504	4	jeune	
505	4	justement	
506	4	laissons	
507	4	loin	
508	4	lorsque	
509	4	mariage	
510	4	mille	
511	4	misérable	
512	4	montre	
513	4	obtenir	
514	4	oreille	
515	4	ouvrir	
516	4	parlons	
517	4	parti	
518	4	passer	
519	4	patron	
520	4	peste	
521	4	petit	
522	4	plutôt	
523	4	poursuivre	
524	4	pourvu	
525	4	pris	
526	4	projets	
527	4	promets	
528	4	prompt	
529	4	présent	
530	4	puissant	
531	4	pure	
532	4	rare	
533	4	remède	
534	4	rends	
535	4	rompre	
536	4	romps	
537	4	saison	
538	4	satisfaire	
539	4	sentiments	
540	4	serais	
541	4	serez	
542	4	silence	
543	4	soin	
544	4	sot	
545	4	souffrir	
546	4	succès	
547	4	suivre	
548	4	tendresse	
549	4	tenez	
550	4	tort	
551	4	trait	
552	4	traits	
553	4	trépas	
554	4	tôt	
555	4	verrait	
556	4	ville	
557	4	vingt	
558	4	violence	
559	4	vu	
560	4	été	
561	4	événement	
562	3	absolument	
563	3	abuse	
564	3	accorder	
565	3	adresse	
566	3	agit	
567	3	ailleurs	
568	3	aimer	
569	3	aimé	
570	3	air	
571	3	aise	
572	3	apparence	
573	3	appas	
574	3	appelle	
575	3	arrive	
576	3	arrêter	
577	3	assure	
578	3	attente	
579	3	biens	
580	3	bientôt	
581	3	bois	
582	3	brave	
583	3	bruit	
584	3	cache	
585	3	cas	
586	3	certains	
587	3	change	
588	3	charmes	
589	3	chef	
590	3	cherche	
591	3	chien	
592	3	combat	
593	3	conjure	
594	3	consens	
595	3	constant	
596	3	conte	
597	3	contenter	
598	3	continue	
599	3	contrainte	
600	3	coupable	
601	3	cours	
602	3	crainte	
603	3	crédit	
604	3	côtés	
605	3	davantage	
606	3	demeurer	
607	3	demi	
608	3	dessous	
609	3	devait	
610	3	diantre	
611	3	digne	
612	3	donné	
613	3	doucement	
614	3	douleur	
615	3	découvre	
616	3	déguiser	
617	3	dépit	
618	3	désormais	
619	3	effort	
620	3	embarras	
621	3	ennemi	
622	3	entends	
623	3	entière	
624	3	erreur	
625	3	expliquer	
626	3	faiblesse	
627	3	fallait	
628	3	faudra	
629	3	faux	
630	3	favorable	
631	3	ferez	
632	3	ferme	
633	3	fierté	
634	3	filles	
635	3	flots	
636	3	forte	
637	3	furie	
638	3	fût	
639	3	grimace	
640	3	guère	
641	3	habit	
642	3	haute	
643	3	ho	
644	3	héritage	
645	3	ignore	
646	3	indigne	
647	3	interdit	
648	3	issue	
649	3	jette	
650	3	jeu	
651	3	joie	
652	3	jusques	
653	3	langue	
654	3	libre	
655	3	lumière	
656	3	malheureux	
657	3	marché	
658	3	mari	
659	3	meilleure	
660	3	met	
661	3	meure	
662	3	moments	
663	3	moyen	
664	3	nature	
665	3	nenni	
666	3	ombre	
667	3	oses	
668	3	outre	
669	3	parlez	
670	3	passé	
671	3	penses	
672	3	pensez	
673	3	perds	
674	3	pique	
675	3	pis	
676	3	plaire	
677	3	plût	
678	3	pointe	
679	3	pourra	
680	3	pourriez	
681	3	pourtant	
682	3	pousser	
683	3	poussez	
684	3	prend	
685	3	presse	
686	3	preuve	
687	3	promesse	
688	3	prudence	
689	3	près	
690	3	présentement	
691	3	prétend	
692	3	prêt	
693	3	pudeur	
694	3	punir	
695	3	put	
696	3	quant	
697	3	querelle	
698	3	raisons	
699	3	regarder	
700	3	regret	
701	3	respect	
702	3	ressentiment	
703	3	rester	
704	3	retour	
705	3	rigueur	
706	3	réparer	
707	3	répondre	
708	3	sang	
709	3	satisfait	
710	3	saura	
711	3	saurez	
712	3	semblable	
713	3	sensible	
714	3	seront	
715	3	service	
716	3	soir	
717	3	songer	
718	3	sorte	
719	3	sortes	
720	3	sotte	
721	3	souffre	
722	3	souhaite	
723	3	soupçons	
724	3	sujets	
725	3	superflus	
726	3	supplice	
727	3	surprend	
728	3	surtout	
729	3	sus	
730	3	tenté	
731	3	tirer	
732	3	tour	
733	3	transports	
734	3	triste	
735	3	très	
736	3	témoin	
737	3	témoins	
738	3	venger	
739	3	vent	
740	3	verra	
741	3	vieux	
742	3	virgile	
743	3	vitement	
744	3	voile	
745	3	vont	
746	3	vouloir	
747	3	vue	
748	3	vérité	
749	3	éclairci	
750	3	épouse	
751	3	ô	
752	3	ôter	
753	2	abandonne	
754	2	absent	
755	2	abuser	
756	2	accident	
757	2	accroît	
758	2	accuser	
759	2	adorable	
760	2	affaires	
761	2	affection	
762	2	affront	
763	2	aimez	
764	2	aisément	
765	2	amoureux	
766	2	amène	
767	2	aperçois	
768	2	approuve	
769	2	appréhende	
770	2	armes	
771	2	arriver	
772	2	arrêté	
773	2	assurément	
774	2	atteinte	
775	2	attendez	
776	2	aucune	
777	2	auprès	
778	2	auriez	
779	2	aurons	
780	2	auteur	
781	2	autrui	
782	2	averti	
783	2	aviez	
784	2	balancer	
785	2	bas	
786	2	beaux	
787	2	blesse	
788	2	blesser	
789	2	blessure	
790	2	bons	
791	2	bontés	
792	2	but	
793	2	caprice	
794	2	causer	
795	2	certaine	
796	2	chacun	
797	2	chagrins	
798	2	champ	
799	2	changer	
800	2	changé	
801	2	chargé	
802	2	chemin	
803	2	cherché	
804	2	choisi	
805	2	chéri	
806	2	chérir	
807	2	close	
808	2	combien	
809	2	comprendre	
810	2	comprends	
811	2	comptez	
812	2	conduite	
813	2	confession	
814	2	confirmer	
815	2	confondre	
816	2	confus	
817	2	connais	
818	2	connaissance	
819	2	connaissant	
820	2	connaissez	
821	2	conseil	
822	2	conseils	
823	2	conserver	
824	2	considéré	
825	2	constance	
826	2	couvrir	
827	2	craindre	
828	2	crime	
829	2	criminel	
830	2	croyance	
831	2	cruelle	
832	2	cérémonie	
833	2	demeure	
834	2	dernier	
835	2	destins	
836	2	destinée	
837	2	devais	
838	2	devez	
839	2	devriez	
840	2	dieux	
841	2	difficile	
842	2	disais	
843	2	discourir	
844	2	disent	
845	2	dispose	
846	2	disposé	
847	2	dix	
848	2	donnait	
849	2	donnez	
850	2	droit	
851	2	droits	
852	2	dupe	
853	2	dur	
854	2	défends	
855	2	défense	
856	2	déité	
857	2	démens	
858	2	démon	
859	2	désespoir	
860	2	désirs	
861	2	désordre	
862	2	détail	
863	2	détestable	
864	2	détruit	
865	2	dît	
866	2	effacer	
867	2	effrontés	
868	2	embarrasse	
869	2	empire	
870	2	enfant	
871	2	engage	
872	2	engagé	
873	2	ennui	
874	2	entraîne	
875	2	entretenir	
876	2	envers	
877	2	es	
878	2	esprits	
879	2	eut	
880	2	excuser	
881	2	exemple	
882	2	expresse	
883	2	exprime	
884	2	extrémité	
885	2	face	
886	2	facile	
887	2	fard	
888	2	fatal	
889	2	fausse	
890	2	fausseté	
891	2	faveurs	
892	2	feindre	
893	2	ferais	
894	2	ferons	
895	2	fers	
896	2	fie	
897	2	fin	
898	2	fis	
899	2	fond	
900	2	forme	
901	2	forts	
902	2	frotter	
903	2	fuite	
904	2	fâcheux	
905	2	fâché	
906	2	gagner	
907	2	garder	
908	2	garçon	
909	2	gendre	
910	2	gloire	
911	2	grandement	
912	2	grandeur	
913	2	grecs	
914	2	grâces	
915	2	gré	
916	2	généreux	
917	2	habile	
918	2	haine	
919	2	heureuse	
920	2	hommes	
921	2	honnête	
922	2	horrible	
923	2	hyménée	
924	2	ignès	
925	2	image	
926	2	important	
927	2	importe	
928	2	impute	
929	2	inclination	
930	2	informé	
931	2	infâme	
932	2	injure	
933	2	injustement	
934	2	injustice	
935	2	innocent	
936	2	insigne	
937	2	intelligence	
938	2	interprète	
939	2	introduire	
940	2	intéresse	
941	2	inutile	
942	2	ira	
943	2	jeter	
944	2	jeunes	
945	2	joint	
946	2	jointe	
947	2	jugez	
948	2	latin	
949	2	lettre	
950	2	liberté	
951	2	licence	
952	2	lien	
953	2	lisez	
954	2	logis	
955	2	lois	
956	2	lâche	
957	2	lâcheté	
958	2	manière	
959	2	maux	
960	2	menace	
961	2	menti	
962	2	mer	
963	2	merci	
964	2	merveille	
965	2	message	
966	2	miens	
967	2	mine	
968	2	mis	
969	2	miséricorde	
970	2	mois	
971	2	mortel	
972	2	mourut	
973	2	mouvement	
974	2	mouvements	
975	2	museau	
976	2	méchant	
977	2	mémoire	
978	2	naissance	
979	2	nez	
980	2	noeud	
981	2	nonobstant	
982	2	nourri	
983	2	nourrie	
984	2	nouvelles	
985	2	oblige	
986	2	obligeant	
987	2	obliger	
988	2	obligé	
989	2	obéissance	
990	2	offenser	
991	2	offrir	
992	2	ombrage	
993	2	oppose	
994	2	ordre	
995	2	oreilles	
996	2	outrage	
997	2	ouïr	
998	2	paille	
999	2	paisible	
1000	2	paix	
1001	2	pareille	
1002	2	parfois	
1003	2	parlé	
1004	2	parmi	
1005	2	partie	
1006	2	passion	
1007	2	paternel	
1008	2	paye	
1009	2	peau	
1010	2	penser	
1011	2	perfidie	
1012	2	permet	
1013	2	peuvent	
1014	2	pieds	
1015	2	piqué	
1016	2	pire	
1017	2	pitié	
1018	2	plains	
1019	2	plaisant	
1020	2	poltron	
1021	2	porter	
1022	2	portes	
1023	2	possible	
1024	2	pourrais	
1025	2	pourront	
1026	2	poursuivez	
1027	2	pouvais	
1028	2	prenez	
1029	2	prenons	
1030	2	promettez	
1031	2	promis	
1032	2	promptement	
1033	2	propose	
1034	2	propres	
1035	2	présente	
1036	2	prétendre	
1037	2	puisqu	
1038	2	puissiez	
1039	2	quels	
1040	2	quitte	
1041	2	quitter	
1042	2	quoiqu	
1043	2	raisonnable	
1044	2	rang	
1045	2	rapière	
1046	2	rapport	
1047	2	ravi	
1048	2	rebuts	
1049	2	rebuté	
1050	2	recourir	
1051	2	refuser	
1052	2	rejette	
1053	2	rencontrer	
1054	2	rende	
1055	2	rendez	
1056	2	rendit	
1057	2	rendu	
1058	2	renfermer	
1059	2	renverser	
1060	2	repos	
1061	2	retenir	
1062	2	reviens	
1063	2	revient	
1064	2	reçu	
1065	2	reçut	
1066	2	rie	
1067	2	ris	
1068	2	rompons	
1069	2	romprons	
1070	2	rouer	
1071	2	ruse	
1072	2	réponds	
1073	2	résolu	
1074	2	résoudre	
1075	2	résout	
1076	2	sable	
1077	2	sachant	
1078	2	sage	
1079	2	sagement	
1080	2	saluer	
1081	2	satisfaits	
1082	2	saurai	
1083	2	saurait	
1084	2	scrupule	
1085	2	seconde	
1086	2	secrets	
1087	2	sein	
1088	2	serai	
1089	2	seras	
1090	2	serments	
1091	2	signe	
1092	2	songe	
1093	2	songé	
1094	2	sortir	
1095	2	souffrez	
1096	2	soupirs	
1097	2	sourde	
1098	2	stratagème	
1099	2	sue	
1100	2	suite	
1101	2	supposition	
1102	2	surprise	
1103	2	sévère	
1104	2	tard	
1105	2	tempête	
1106	2	tenant	
1107	2	tenir	
1108	2	tenons	
1109	2	tentation	
1110	2	tenter	
1111	2	terme	
1112	2	terminer	
1113	2	testament	
1114	2	tient	
1115	2	touché	
1116	2	touchée	
1117	2	tremble	
1118	2	troisième	
1119	2	tromperie	
1120	2	trompeur	
1121	2	trouvent	
1122	2	tuer	
1123	2	témoigne	
1124	2	vain	
1125	2	valeur	
1126	2	venez	
1127	2	verrez	
1128	2	verrons	
1129	2	verront	
1130	2	veuille	
1131	2	vieillards	
1132	2	visage	
1133	2	vit	
1134	2	vivre	
1135	2	voient	
1136	2	voudra	
1137	2	voudras	
1138	2	voudrez	
1139	2	voulait	
1140	2	voyant	
1141	2	voyons	
1142	2	vôtres	
1143	2	échauffer	
1144	2	écouté	
1145	2	épargner	
1146	2	étaient	
1147	2	étiez	
1148	2	étonnement	
1149	2	éviter	
1150	2	ôtez	
1151	1	abat	
1152	1	abondant	
1153	1	aborder	
1154	1	abusa	
1155	1	abusez	
1156	1	abusée	
1157	1	accepte	
1158	1	acceptez	
1159	1	accidents	
1160	1	accommodement	
1161	1	accompagne	
1162	1	accompagné	
1163	1	accomplisse	
1164	1	accorderez	
1165	1	accoucha	
1166	1	accrocher	
1167	1	accroire	
1168	1	accueil	
1169	1	accuse	
1170	1	accuserez	
1171	1	accusez	
1172	1	accusés	
1173	1	accès	
1174	1	acheminez	
1175	1	achever	
1176	1	achevez	
1177	1	achevé	
1178	1	achèvera	
1179	1	acoquiné	
1180	1	acquitter	
1181	1	acte	
1182	1	adouci	
1183	1	adoucir	
1184	1	adouciras	
1185	1	adversaire	
1186	1	advient	
1187	1	affranchi	
1188	1	affronte	
1189	1	agate	
1190	1	agite	
1191	1	agnelets	
1192	1	agréer	
1193	1	aide	
1194	1	aider	
1195	1	aient	
1196	1	aimable	
1197	1	aimant	
1198	1	aimerai	
1199	1	aimons	
1200	1	aimât	
1201	1	aisé	
1202	1	aisée	
1203	1	ajoute	
1204	1	ajuste	
1205	1	ajusté	
1206	1	alarmer	
1207	1	alarmes	
1208	1	albanois	
1209	1	allait	
1210	1	allasse	
1211	1	allemand	
1212	1	alliance	
1213	1	allégement	
1214	1	allégresse	
1215	1	alte	
1216	1	altérée	
1217	1	amants	
1218	1	ambassade	
1219	1	ambassadeur	
1220	1	amener	
1221	1	amitié	
1222	1	amoureuse	
1223	1	amours	
1224	1	ange	
1225	1	animé	
1226	1	annoncé	
1227	1	apaiser	
1228	1	apaisé	
1229	1	aperçoit	
1230	1	aperçu	
1231	1	aperçus	
1232	1	application	
1233	1	apporté	
1234	1	apprend	
1235	1	apprendrais	
1236	1	apprends	
1237	1	approchez	
1238	1	approuver	
1239	1	appréhendez	
1240	1	apprête	
1241	1	apprêtés	
1242	1	appui	
1243	1	arc	
1244	1	ardente	
1245	1	ardents	
1246	1	ardeurs	
1247	1	ardez	
1248	1	aristote	
1249	1	arme	
1250	1	armer	
1251	1	armure	
1252	1	armé	
1253	1	armés	
1254	1	arrache	
1255	1	arrivé	
1256	1	arrête	
1257	1	asseoir	
1258	1	assiette	
1259	1	assistance	
1260	1	assister	
1261	1	assommer	
1262	1	assurait	
1263	1	assurer	
1264	1	assurera	
1265	1	assurez	
1266	1	assuriez	
1267	1	assurée	
1268	1	astre	
1269	1	atanaton	
1270	1	attachée	
1271	1	attaquer	
1272	1	attaqué	
1273	1	attendrie	
1274	1	attendrit	
1275	1	attendu	
1276	1	atticus	
1277	1	audience	
1278	1	auguste	
1279	1	auraient	
1280	1	austère	
1281	1	auteurs	
1282	1	autrefois	
1283	1	autrement	
1284	1	avance	
1285	1	avancer	
1286	1	avarice	
1287	1	avertir	
1288	1	aveugle	
1289	1	avions	
1290	1	avis	
1291	1	avortés	
1292	1	avouer	
1293	1	avoué	
1294	1	badin	
1295	1	bagatelle	
1296	1	bague	
1297	1	baise	
1298	1	banc	
1299	1	bannissant	
1300	1	basque	
1301	1	bassesse	
1302	1	battre	
1303	1	baye	
1304	1	beauté	
1305	1	bienséance	
1306	1	bile	
1307	1	billet	
1308	1	bière	
1309	1	blanchir	
1310	1	blancs	
1311	1	blessée	
1312	1	blâmai	
1313	1	blâmais	
1314	1	bonhomme	
1315	1	bonos	
1316	1	bonté	
1317	1	bouger	
1318	1	bouquetière	
1319	1	bourrasque	
1320	1	bourru	
1321	1	boutique	
1322	1	bracelet	
1323	1	branle	
1324	1	bref	
1325	1	briller	
1326	1	brusque	
1327	1	brutale	
1328	1	brûle	
1329	1	bâtonneront	
1330	1	cachaient	
1331	1	cachet	
1332	1	cachette	
1333	1	cachée	
1334	1	caillou	
1335	1	cap	
1336	1	capriole	
1337	1	caquet	
1338	1	caressait	
1339	1	caresse	
1340	1	carnage	
1341	1	carreau	
1342	1	carrière	
1343	1	cassant	
1344	1	casser	
1345	1	casserai	
1346	1	cassé	
1347	1	cassés	
1348	1	causeur	
1349	1	cautionne	
1350	1	cave	
1351	1	celer	
1352	1	cerveau	
1353	1	cervelle	
1354	1	cessons	
1355	1	ceux	
1356	1	chair	
1357	1	chaire	
1358	1	chaleur	
1359	1	chamailler	
1360	1	chamaillerons	
1361	1	changements	
1362	1	chanson	
1363	1	chantent	
1364	1	chaque	
1365	1	charmant	
1366	1	charmante	
1367	1	charmants	
1368	1	charmé	
1369	1	chasse	
1370	1	chattemites	
1371	1	chausses	
1372	1	chercherais	
1373	1	cherchez	
1374	1	cheveux	
1375	1	chienne	
1376	1	chiens	
1377	1	choisir	
1378	1	choisis	
1379	1	chrétien	
1380	1	châtiment	
1381	1	chétif	
1382	1	chômer	
1383	1	cieux	
1384	1	cinq	
1385	1	cinquante	
1386	1	ciseaux	
1387	1	civile	
1388	1	clerc	
1389	1	cloche	
1390	1	coeurs	
1391	1	combattants	
1392	1	combattent	
1393	1	combattre	
1394	1	commandement	
1395	1	commandements	
1396	1	commençons	
1397	1	commerce	
1398	1	commis	
1399	1	commune	
1400	1	compare	
1401	1	compas	
1402	1	complaisance	
1403	1	comprenait	
1404	1	compromis	
1405	1	compère	
1406	1	compétiter	
1407	1	comète	
1408	1	concert	
1409	1	concerté	
1410	1	concevoir	
1411	1	conclu	
1412	1	conclue	
1413	1	condamnable	
1414	1	condamne	
1415	1	condamner	
1416	1	condamné	
1417	1	conduisent	
1418	1	conduit	
1419	1	confesse	
1420	1	confesser	
1421	1	confessé	
1422	1	confidence	
1423	1	confident	
1424	1	confirme	
1425	1	confirment	
1426	1	confirmé	
1427	1	confonde	
1428	1	confondus	
1429	1	confusion	
1430	1	conférence	
1431	1	conjecture	
1432	1	connaisse	
1433	1	connu	
1434	1	conscience	
1435	1	conseillez	
1436	1	consentement	
1437	1	consentez	
1438	1	conservons	
1439	1	conservé	
1440	1	consomme	
1441	1	conspire	
1442	1	constamment	
1443	1	conter	
1444	1	contes	
1445	1	conteste	
1446	1	contester	
1447	1	contez	
1448	1	contraindre	
1449	1	contraire	
1450	1	contribuerait	
1451	1	convaincre	
1452	1	convier	
1453	1	conçue	
1454	1	corrompe	
1455	1	cou	
1456	1	coupe	
1457	1	couper	
1458	1	courir	
1459	1	couronner	
1460	1	couronnera	
1461	1	couronné	
1462	1	courrière	
1463	1	courroucer	
1464	1	court	
1465	1	courtoisie	
1466	1	courts	
1467	1	cousin	
1468	1	couteau	
1469	1	couvre	
1470	1	couvrit	
1471	1	coûta	
1472	1	coûtent	
1473	1	cracher	
1474	1	craignais	
1475	1	craignez	
1476	1	craint	
1477	1	craintes	
1478	1	craintif	
1479	1	criminelle	
1480	1	criminels	
1481	1	critiques	
1482	1	crocodile	
1483	1	croiras	
1484	1	croyais	
1485	1	cruauté	
1486	1	crue	
1487	1	cruelles	
1488	1	crut	
1489	1	créance	
1490	1	cueille	
1491	1	cuisants	
1492	1	cure	
1493	1	curo	
1494	1	cède	
1495	1	césar	
1496	1	daignez	
1497	1	damnable	
1498	1	damoiseaux	
1499	1	dangereux	
1500	1	dehors	
1501	1	demandait	
1502	1	demander	
1503	1	derechef	
1504	1	descendre	
1505	1	desserre	
1506	1	destine	
1507	1	deuil	
1508	1	devaient	
1509	1	devenons	
1510	1	devenu	
1511	1	devoir	
1512	1	devoirs	
1513	1	devrais	
1514	1	devîntes	
1515	1	dia	
1516	1	diamant	
1517	1	die	
1518	1	diffamer	
1519	1	difficulté	
1520	1	digression	
1521	1	diligence	
1522	1	diligenter	
1523	1	dirais	
1524	1	dirait	
1525	1	diras	
1526	1	diriez	
1527	1	diroit	
1528	1	dirons	
1529	1	disait	
1530	1	disant	
1531	1	discourant	
1532	1	discret	
1533	1	dise	
1534	1	disgrâce	
1535	1	disgrâces	
1536	1	dispense	
1537	1	distinctement	
1538	1	distingue	
1539	1	distraire	
1540	1	divers	
1541	1	doctement	
1542	1	docteur	
1543	1	doctrine	
1544	1	doigts	
1545	1	dommage	
1546	1	dompte	
1547	1	dompter	
1548	1	don	
1549	1	donna	
1550	1	donnant	
1551	1	donnas	
1552	1	dorothée	
1553	1	double	
1554	1	douce	
1555	1	douceurs	
1556	1	doutez	
1557	1	douze	
1558	1	dulcifié	
1559	1	duper	
1560	1	durera	
1561	1	durerait	
1562	1	durs	
1563	1	débuter	
1564	1	déclaré	
1565	1	déclarés	
1566	1	découverte	
1567	1	découvrez	
1568	1	dédaigneux	
1569	1	dédain	
1570	1	dédire	
1571	1	défaut	
1572	1	défauts	
1573	1	défend	
1574	1	défendez	
1575	1	défilées	
1576	1	dégagé	
1577	1	dégainer	
1578	1	déguise	
1579	1	dégénèrent	
1580	1	délicat	
1581	1	délier	
1582	1	démangeaison	
1583	1	démenti	
1584	1	démêler	
1585	1	dénaturé	
1586	1	dépens	
1587	1	déplaire	
1588	1	déplaise	
1589	1	déplaisir	
1590	1	déplaisirs	
1591	1	déplaît	
1592	1	déplié	
1593	1	déployer	
1594	1	déportements	
1595	1	dépositaire	
1596	1	dérobez	
1597	1	désavouerait	
1598	1	désenamourée	
1599	1	désespérez	
1600	1	désir	
1601	1	détachée	
1602	1	détester	
1603	1	détestés	
1604	1	dévorent	
1605	1	déçu	
1606	1	dû	
1607	1	effaroucher	
1608	1	effectuer	
1609	1	effectuez	
1610	1	efforts	
1611	1	effronterie	
1612	1	elles	
1613	1	embarrasser	
1614	1	embarrassée	
1615	1	embrasser	
1616	1	embrassons	
1617	1	embûches	
1618	1	emmaigrir	
1619	1	emploiera	
1620	1	employer	
1621	1	employez	
1622	1	empoisonne	
1623	1	emporter	
1624	1	emporté	
1625	1	empressement	
1626	1	encline	
1627	1	encombre	
1628	1	endurci	
1629	1	endure	
1630	1	enfants	
1631	1	enflamme	
1632	1	enflammé	
1633	1	engagement	
1634	1	engager	
1635	1	enlève	
1636	1	ennemie	
1637	1	ennuis	
1638	1	ennuyeux	
1639	1	enrage	
1640	1	enragera	
1641	1	entendent	
1642	1	entendu	
1643	1	entier	
1644	1	entrai	
1645	1	entrer	
1646	1	entretiens	
1647	1	entrez	
1648	1	entré	
1649	1	esclavonie	
1650	1	escorte	
1651	1	espérais	
1652	1	espérance	
1653	1	essaie	
1654	1	essence	
1655	1	estime	
1656	1	estimer	
1657	1	eu	
1658	1	eus	
1659	1	eusse	
1660	1	eusses	
1661	1	eussions	
1662	1	eussé	
1663	1	exact	
1664	1	excès	
1665	1	exige	
1666	1	expier	
1667	1	expliquant	
1668	1	explique	
1669	1	expliquez	
1670	1	expose	
1671	1	exposer	
1672	1	exprimer	
1673	1	exterminé	
1674	1	facilement	
1675	1	faiblement	
1676	1	faibles	
1677	1	faiblesses	
1678	1	faille	
1679	1	faim	
1680	1	faisais	
1681	1	faisiez	
1682	1	falloit	
1683	1	fameux	
1684	1	fanfare	
1685	1	fantasque	
1686	1	faquin	
1687	1	farouche	
1688	1	fatale	
1689	1	feignent	
1690	1	feignons	
1691	1	femelle	
1692	1	fendez	
1693	1	fer	
1694	1	feras	
1695	1	feriez	
1696	1	ferions	
1697	1	fermeté	
1698	1	feront	
1699	1	ferragu	
1700	1	fidélité	
1701	1	fil	
1702	1	filio	
1703	1	filius	
1704	1	fine	
1705	1	finir	
1706	1	finisse	
1707	1	firent	
1708	1	fières	
1709	1	fièvre	
1710	1	flammes	
1711	1	flattait	
1712	1	flatte	
1713	1	flatter	
1714	1	fleurette	
1715	1	foible	
1716	1	foin	
1717	1	foire	
1718	1	folies	
1719	1	fonde	
1720	1	fondre	
1721	1	fondé	
1722	1	force	
1723	1	forcer	
1724	1	forcé	
1725	1	formalités	
1726	1	former	
1727	1	fortement	
1728	1	fortes	
1729	1	fortunés	
1730	1	fourbes	
1731	1	fournir	
1732	1	fous	
1733	1	fragile	
1734	1	franchement	
1735	1	frappe	
1736	1	frappée	
1737	1	fraude	
1738	1	fraîche	
1739	1	fricasse	
1740	1	friperie	
1741	1	frivole	
1742	1	frivoles	
1743	1	froid	
1744	1	froide	
1745	1	froideur	
1746	1	fromage	
1747	1	front	
1748	1	fruit	
1749	1	frères	
1750	1	fuis	
1751	1	funeste	
1752	1	furtif	
1753	1	fustigés	
1754	1	fuyez	
1755	1	fâcher	
1756	1	fâcherai	
1757	1	fâcherais	
1758	1	fâcheuse	
1759	1	fâchez	
1760	1	fâchés	
1761	1	félon	
1762	1	fête	
1763	1	fît	
1764	1	galante	
1765	1	garant	
1766	1	garantira	
1767	1	gardez	
1768	1	gardien	
1769	1	gare	
1770	1	genoux	
1771	1	gentillesse	
1772	1	geste	
1773	1	gibets	
1774	1	gille	
1775	1	girouette	
1776	1	glisser	
1777	1	gonflé	
1778	1	gouffre	
1779	1	gouverne	
1780	1	goûtez	
1781	1	grec	
1782	1	grenier	
1783	1	grimpant	
1784	1	gronde	
1785	1	grossesse	
1786	1	grossi	
1787	1	guères	
1788	1	guérir	
1789	1	gâtent	
1790	1	gâter	
1791	1	gênes	
1792	1	habits	
1793	1	harangue	
1794	1	hardi	
1795	1	hardiesse	
1796	1	hardis	
1797	1	hautement	
1798	1	heu	
1799	1	heur	
1800	1	heures	
1801	1	holà	
1802	1	honoré	
1803	1	honteuse	
1804	1	honteux	
1805	1	huit	
1806	1	humain	
1807	1	humanité	
1808	1	humilie	
1809	1	humilité	
1810	1	hurhaut	
1811	1	hère	
1812	1	imagine	
1813	1	immortelle	
1814	1	impatience	
1815	1	impatient	
1816	1	implore	
1817	1	implorer	
1818	1	importance	
1819	1	importante	
1820	1	importun	
1821	1	importunités	
1822	1	impose	
1823	1	imposteur	
1824	1	imprudence	
1825	1	imprévu	
1826	1	impudence	
1827	1	impudent	
1828	1	impuissance	
1829	1	in	
1830	1	incapable	
1831	1	incident	
1832	1	incidents	
1833	1	incitation	
1834	1	incommode	
1835	1	incontinent	
1836	1	indignité	
1837	1	indignités	
1838	1	industrie	
1839	1	infamie	
1840	1	infidèle	
1841	1	infinie	
1842	1	inflammation	
1843	1	informer	
1844	1	infortunée	
1845	1	inique	
1846	1	innocente	
1847	1	inquiets	
1848	1	insensible	
1849	1	insensiblement	
1850	1	insolence	
1851	1	instamment	
1852	1	instant	
1853	1	intelligiblement	
1854	1	intention	
1855	1	interrompre	
1856	1	interruption	
1857	1	intrigue	
1858	1	intéressez	
1859	1	inutiles	
1860	1	inventeur	
1861	1	inégalité	
1862	1	irais	
1863	1	irons	
1864	1	irritée	
1865	1	irruption	
1866	1	ivre	
1867	1	jadis	
1868	1	jambe	
1869	1	jardin	
1870	1	jargon	
1871	1	jeté	
1872	1	jetée	
1873	1	jodelet	
1874	1	joignant	
1875	1	joindrait	
1876	1	joints	
1877	1	joue	
1878	1	jouer	
1879	1	joug	
1880	1	journellement	
1881	1	joué	
1882	1	jovem	
1883	1	jugement	
1884	1	juges	
1885	1	jugés	
1886	1	jure	
1887	1	jurer	
1888	1	juré	
1889	1	jus	
1890	1	justes	
1891	1	justice	
1892	1	justifieront	
1893	1	laissais	
1894	1	laissent	
1895	1	laisser	
1896	1	laissé	
1897	1	laiton	
1898	1	langueur	
1899	1	lanterne	
1900	1	largesses	
1901	1	larrons	
1902	1	latine	
1903	1	lenteur	
1904	1	lequel	
1905	1	lestrygon	
1906	1	lettres	
1907	1	licou	
1908	1	liens	
1909	1	lieux	
1910	1	lis	
1911	1	lit	
1912	1	lièvre	
1913	1	locus	
1914	1	loisir	
1915	1	lorgne	
1916	1	loue	
1917	1	loups	
1918	1	loué	
1919	1	lâchant	
1920	1	lâcher	
1921	1	léger	
1922	1	légitime	
1923	1	machine	
1924	1	magister	
1925	1	magnifique	
1926	1	maintienne	
1927	1	malade	
1928	1	malheur	
1929	1	mandatum	
1930	1	manger	
1931	1	manigance	
1932	1	manières	
1933	1	manqué	
1934	1	maraud	
1935	1	marc	
1936	1	marchander	
1937	1	marchant	
1938	1	marier	
1939	1	maris	
1940	1	marié	
1941	1	marque	
1942	1	martel	
1943	1	martyre	
1944	1	masque	
1945	1	maternelle	
1946	1	matin	
1947	1	matière	
1948	1	matoise	
1949	1	matrimonion	
1950	1	maudit	
1951	1	maudites	
1952	1	mauvaise	
1953	1	maîtres	
1954	1	meilleur	
1955	1	meilleures	
1956	1	meilleurs	
1957	1	menacez	
1958	1	mens	
1959	1	menteurs	
1960	1	mentir	
1961	1	menton	
1962	1	mené	
1963	1	merveilles	
1964	1	merveilleux	
1965	1	mets	
1966	1	mette	
1967	1	mettent	
1968	1	mettez	
1969	1	mettons	
1970	1	meures	
1971	1	meurs	
1972	1	meurt	
1973	1	mienne	
1974	1	mignon	
1975	1	milieu	
1976	1	minois	
1977	1	miracle	
1978	1	mise	
1979	1	misère	
1980	1	modèle	
1981	1	monstre	
1982	1	moque	
1983	1	moquez	
1984	1	morceau	
1985	1	mortelles	
1986	1	motif	
1987	1	mou	
1988	1	mouche	
1989	1	mourra	
1990	1	mourras	
1991	1	mouvant	
1992	1	muet	
1993	1	mufle	
1994	1	murmure	
1995	1	mutuel	
1996	1	mutuels	
1997	1	mystères	
1998	1	méchante	
1999	1	méchants	
2000	1	ménage	
2001	1	ménager	
2002	1	méprise	
2003	1	mérite	
2004	1	mériter	
2005	1	mériterait	
2006	1	mériteriez	
2007	1	métamorphose	
2008	1	mêler	
2009	1	mêmes	
2010	1	naturel	
2011	1	nautonier	
2012	1	naître	
2013	1	neige	
2014	1	nescio	
2015	1	nisi	
2016	1	noble	
2017	1	nocturnes	
2018	1	noeuds	
2019	1	noir	
2020	1	nommé	
2021	1	nompareille	
2022	1	notaire	
2023	1	nourrir	
2024	1	nouveau	
2025	1	nouveautés	
2026	1	nuire	
2027	1	nul	
2028	1	nulle	
2029	1	nullement	
2030	1	nulles	
2031	1	obligeante	
2032	1	obligeants	
2033	1	obscurité	
2034	1	obscurités	
2035	1	observaient	
2036	1	obstinons	
2037	1	obstiné	
2038	1	obéir	
2039	1	occasions	
2040	1	occupe	
2041	1	odieux	
2042	1	oeil	
2043	1	oeufs	
2044	1	offerts	
2045	1	offrent	
2046	1	oncle	
2047	1	onde	
2048	1	opinion	
2049	1	opprobre	
2050	1	or	
2051	1	orage	
2052	1	oraison	
2053	1	ordinaire	
2054	1	orgueil	
2055	1	ormin	
2056	1	os	
2057	1	osais	
2058	1	ose	
2059	1	oserait	
2060	1	osez	
2061	1	osois	
2062	1	ouais	
2063	1	oubli	
2064	1	oubliais	
2065	1	oublié	
2066	1	outragerait	
2067	1	outragé	
2068	1	outré	
2069	1	ouvert	
2070	1	ouvrit	
2071	1	ouï	
2072	1	pacifiques	
2073	1	paraît	
2074	1	parbleu	
2075	1	pardonne	
2076	1	parenté	
2077	1	parfait	
2078	1	paris	
2079	1	parlant	
2080	1	parles	
2081	1	parleurs	
2082	1	paroles	
2083	1	paroître	
2084	1	partageons	
2085	1	particulier	
2086	1	partout	
2087	1	paru	
2088	1	passa	
2089	1	passagère	
2090	1	passait	
2091	1	passant	
2092	1	passent	
2093	1	passera	
2094	1	passionné	
2095	1	passons	
2096	1	passât	
2097	1	patience	
2098	1	paya	
2099	1	payement	
2100	1	peaux	
2101	1	pendards	
2102	1	pende	
2103	1	pendre	
2104	1	pendu	
2105	1	pensers	
2106	1	per	
2107	1	percerais	
2108	1	perdait	
2109	1	perde	
2110	1	perdu	
2111	1	perfide	
2112	1	peritos	
2113	1	perles	
2114	1	permettre	
2115	1	permis	
2116	1	perplexité	
2117	1	personnage	
2118	1	persuadait	
2119	1	perte	
2120	1	pervertit	
2121	1	petite	
2122	1	philosophe	
2123	1	philosophie	
2124	1	physionomie	
2125	1	pied	
2126	1	pièce	
2127	1	plaie	
2128	1	plaindrez	
2129	1	plaint	
2130	1	plaira	
2131	1	plaisez	
2132	1	planté	
2133	1	plaît	
2134	1	pleine	
2135	1	pleinement	
2136	1	plongé	
2137	1	plupart	
2138	1	portrait	
2139	1	possède	
2140	1	posséder	
2141	1	possédé	
2142	1	possédée	
2143	1	postérité	
2144	1	potage	
2145	1	potence	
2146	1	potest	
2147	1	poules	
2148	1	pourrai	
2149	1	pourrez	
2150	1	pourrons	
2151	1	pourvue	
2152	1	poussait	
2153	1	poussant	
2154	1	pousse	
2155	1	poussé	
2156	1	pouvons	
2157	1	praeferri	
2158	1	pratique	
2159	1	première	
2160	1	prenais	
2161	1	prenait	
2162	1	prenant	
2163	1	prendrait	
2164	1	pressait	
2165	1	pressez	
2166	1	prier	
2167	1	prison	
2168	1	prit	
2169	1	prive	
2170	1	prix	
2171	1	prières	
2172	1	proche	
2173	1	procuré	
2174	1	procédé	
2175	1	produire	
2176	1	produisent	
2177	1	produit	
2178	1	profond	
2179	1	projet	
2180	1	promise	
2181	1	promit	
2182	1	prompte	
2183	1	promène	
2184	1	propice	
2185	1	propices	
2186	1	proposer	
2187	1	propre	
2188	1	prospères	
2189	1	protestations	
2190	1	proteste	
2191	1	prudemment	
2192	1	prudhomie	
2193	1	précepte	
2194	1	précepteur	
2195	1	précipices	
2196	1	précipiter	
2197	1	préférés	
2198	1	préparer	
2199	1	présents	
2200	1	présomption	
2201	1	prétende	
2202	1	prévenir	
2203	1	prévu	
2204	1	prêcher	
2205	1	prête	
2206	1	prêtons	
2207	1	publie	
2208	1	publique	
2209	1	puissance	
2210	1	puisses	
2211	1	pussiez	
2212	1	pèse	
2213	1	pécheur	
2214	1	péché	
2215	1	péchés	
2216	1	pédagogue	
2217	1	pénible	
2218	1	pêcher	
2219	1	pût	
2220	1	quatre	
2221	1	quelquefois	
2222	1	quelques	
2223	1	quereller	
2224	1	quintilien	
2225	1	quittez	
2226	1	quoique	
2227	1	rage	
2228	1	raillais	
2229	1	railler	
2230	1	raillez	
2231	1	raillois	
2232	1	raisonne	
2233	1	raisonnement	
2234	1	raisonner	
2235	1	raisonnons	
2236	1	raisonné	
2237	1	rajusté	
2238	1	ramentevons	
2239	1	ramène	
2240	1	rangé	
2241	1	rapatrier	
2242	1	rappeliez	
2243	1	rapportais	
2244	1	rapporte	
2245	1	ravage	
2246	1	ravie	
2247	1	ravissement	
2248	1	rebutait	
2249	1	rebutât	
2250	1	rebutés	
2251	1	recherche	
2252	1	recherché	
2253	1	recoin	
2254	1	reconnaître	
2255	1	reconnut	
2256	1	recule	
2257	1	reculé	
2258	1	redits	
2259	1	redonnât	
2260	1	redouble	
2261	1	redoutant	
2262	1	redouter	
2263	1	refusez	
2264	1	regardes	
2265	1	regards	
2266	1	regardé	
2267	1	regretter	
2268	1	regretté	
2269	1	rejeter	
2270	1	rejetés	
2271	1	relâchait	
2272	1	relâche	
2273	1	remenez	
2274	1	remercierez	
2275	1	remette	
2276	1	remettons	
2277	1	remises	
2278	1	remontrent	
2279	1	remplaçait	
2280	1	remue	
2281	1	renards	
2282	1	rendait	
2283	1	rendent	
2284	1	rendons	
2285	1	renonce	
2286	1	rentre	
2287	1	rentrer	
2288	1	rentrez	
2289	1	repaissait	
2290	1	repartie	
2291	1	repartir	
2292	1	reprendrai	
2293	1	reprier	
2294	1	reproche	
2295	1	reprocher	
2296	1	requises	
2297	1	respects	
2298	1	respectueuse	
2299	1	ressens	
2300	1	resserrent	
2301	1	ressort	
2302	1	ressorts	
2303	1	restez	
2304	1	retardé	
2305	1	retenu	
2306	1	retient	
2307	1	retire	
2308	1	retirerai	
2309	1	retirez	
2310	1	retirons	
2311	1	retourner	
2312	1	retracer	
2313	1	revenir	
2314	1	revenons	
2315	1	reviendrait	
2316	1	revienne	
2317	1	revivre	
2318	1	revoir	
2319	1	revoulait	
2320	1	revînt	
2321	1	reçois	
2322	1	reçus	
2323	1	riche	
2324	1	richesse	
2325	1	richesses	
2326	1	rieurs	
2327	1	rigueurs	
2328	1	rirai	
2329	1	risquer	
2330	1	rit	
2331	1	rivalité	
2332	1	rocher	
2333	1	roidir	
2334	1	roland	
2335	1	rompez	
2336	1	rompt	
2337	1	rompue	
2338	1	rond	
2339	1	rougir	
2340	1	rougis	
2341	1	roulent	
2342	1	rue	
2343	1	ruine	
2344	1	rumine	
2345	1	rusés	
2346	1	réflexions	
2347	1	réfléchi	
2348	1	réglisse	
2349	1	réglé	
2350	1	régnant	
2351	1	régnera	
2352	1	réjouis	
2353	1	réparons	
2354	1	réplique	
2355	1	répondu	
2356	1	réponse	
2357	1	réservait	
2358	1	résolution	
2359	1	résoudra	
2360	1	résoudrez	
2361	1	résous	
2362	1	réussi	
2363	1	révère	
2364	1	révéler	
2365	1	révélé	
2366	1	révélées	
2367	1	rêver	
2368	1	rêverie	
2369	1	rêvé	
2370	1	sachez	
2371	1	sachiez	
2372	1	sachons	
2373	1	sacrifice	
2374	1	sacrifier	
2375	1	sacré	
2376	1	saignera	
2377	1	saillie	
2378	1	saillies	
2379	1	sain	
2380	1	saint	
2381	1	saisie	
2382	1	saisir	
2383	1	saisit	
2384	1	satisfaite	
2385	1	satisferais	
2386	1	satisferons	
2387	1	satrape	
2388	1	saurais	
2389	1	sauriez	
2390	1	saurons	
2391	1	sauter	
2392	1	savais	
2393	1	savant	
2394	1	savants	
2395	1	scandale	
2396	1	scandalisé	
2397	1	sceptres	
2398	1	science	
2399	1	scribendo	
2400	1	scélérat	
2401	1	secessu	
2402	1	secessus	
2403	1	secours	
2404	1	seigneurie	
2405	1	selon	
2406	1	semblait	
2407	1	semblant	
2408	1	semblé	
2409	1	semé	
2410	1	sensiblement	
2411	1	sensibles	
2412	1	sensitive	
2413	1	sent	
2414	1	sentence	
2415	1	sentez	
2416	1	sentinelle	
2417	1	sentir	
2418	1	sentirait	
2419	1	sequare	
2420	1	seriez	
2421	1	serions	
2422	1	serment	
2423	1	sermon	
2424	1	seroit	
2425	1	serré	
2426	1	sert	
2427	1	servi	
2428	1	serviez	
2429	1	serviteur	
2430	1	seule	
2431	1	seuls	
2432	1	sied	
2433	1	sienne	
2434	1	siens	
2435	1	similitude	
2436	1	simon	
2437	1	sincère	
2438	1	singulier	
2439	1	sinistre	
2440	1	sinon	
2441	1	sire	
2442	1	six	
2443	1	siècle	
2444	1	soient	
2445	1	soigneusement	
2446	1	sois	
2447	1	soleil	
2448	1	solennité	
2449	1	sonde	
2450	1	songez	
2451	1	sonner	
2452	1	sorcière	
2453	1	sornettes	
2454	1	sors	
2455	1	sortez	
2456	1	sorti	
2457	1	sortie	
2458	1	sots	
2459	1	sottise	
2460	1	soucie	
2461	1	soudaine	
2462	1	souffert	
2463	1	souffle	
2464	1	soufflet	
2465	1	souffrirai	
2466	1	souhaitiez	
2467	1	souhaits	
2468	1	soupire	
2469	1	souplesse	
2470	1	soupçon	
2471	1	soupçonne	
2472	1	soupçonner	
2473	1	soustraire	
2474	1	soutenir	
2475	1	soutient	
2476	1	soyez	
2477	1	soyons	
2478	1	soûl	
2479	1	stable	
2480	1	style	
2481	1	subit	
2482	1	suborneur	
2483	1	subtile	
2484	1	subtiliser	
2485	1	subtils	
2486	1	succéder	
2487	1	suffisant	
2488	1	suit	
2489	1	suivante	
2490	1	suivie	
2491	1	superflue	
2492	1	suppliant	
2493	1	supposé	
2494	1	surpris	
2495	1	séduit	
2496	1	sérieux	
2497	1	sûr	
2498	1	sûrement	
2499	1	sût	
2500	1	table	
2501	1	tache	
2502	1	tailleur	
2503	1	taillis	
2504	1	tairas	
2505	1	tais	
2506	1	taisez	
2507	1	tait	
2508	1	talents	
2509	1	tandis	
2510	1	tarderais	
2511	1	tardé	
2512	1	telles	
2513	1	temple	
2514	1	tend	
2515	1	tendre	
2516	1	tendrement	
2517	1	tendres	
2518	1	tenoit	
2519	1	tenu	
2520	1	termes	
2521	1	terminé	
2522	1	terre	
2523	1	terrible	
2524	1	tiendra	
2525	1	tienne	
2526	1	tiennes	
2527	1	tinsse	
2528	1	tirait	
2529	1	tire	
2530	1	tirez	
2531	1	tiré	
2532	1	tison	
2533	1	titre	
2534	1	tombe	
2535	1	tombée	
2536	1	tombés	
2537	1	torture	
2538	1	toucher	
2539	1	touchât	
2540	1	tourmente	
2541	1	tourne	
2542	1	tournent	
2543	1	tourner	
2544	1	tourné	
2545	1	toutefois	
2546	1	toux	
2547	1	trahison	
2548	1	traitable	
2549	1	traite	
2550	1	traitement	
2551	1	traitements	
2552	1	traiter	
2553	1	traitez	
2554	1	traitée	
2555	1	trancher	
2556	1	tranquille	
2557	1	tranquillité	
2558	1	transporte	
2559	1	transporté	
2560	1	travaillez	
2561	1	travaillée	
2562	1	traîtresse	
2563	1	trempe	
2564	1	tributs	
2565	1	triompher	
2566	1	triomphez	
2567	1	trois	
2568	1	trompant	
2569	1	trompât	
2570	1	trompé	
2571	1	trompée	
2572	1	trotter	
2573	1	troubleront	
2574	1	trouves	
2575	1	trouvez	
2576	1	trouvé	
2577	1	trouvés	
2578	1	trépasse	
2579	1	tuez	
2580	1	tulle	
2581	1	tuum	
2582	1	tâche	
2583	1	tâter	
2584	1	tâtons	
2585	1	témoignage	
2586	1	témoigner	
2587	1	témoignera	
2588	1	téméraire	
2589	1	unir	
2590	1	usage	
2591	1	user	
2592	1	usure	
2593	1	utile	
2594	1	vainqueurs	
2595	1	vaisseau	
2596	1	valent	
2597	1	valez	
2598	1	valoir	
2599	1	valu	
2600	1	valût	
2601	1	vanité	
2602	1	vante	
2603	1	vanter	
2604	1	venais	
2605	1	venants	
2606	1	venge	
2607	1	vengeance	
2608	1	vengeront	
2609	1	venons	
2610	1	venue	
2611	1	verras	
2612	1	verrions	
2613	1	vers	
2614	1	vertu	
2615	1	veulent	
2616	1	victoire	
2617	1	vide	
2618	1	vidée	
2619	1	vieillard	
2620	1	vienne	
2621	1	vilaine	
2622	1	vils	
2623	1	violente	
2624	1	violer	
2625	1	virginité	
2626	1	visite	
2627	1	visites	
2628	1	vivais	
2629	1	vive	
2630	1	vivendo	
2631	1	vivrais	
2632	1	volage	
2633	1	volonté	
2634	1	volontés	
2635	1	voudrai	
2636	1	voudrait	
2637	1	voudriez	
2638	1	voudrions	
2639	1	voudront	
2640	1	voulais	
2641	1	vouliez	
2642	1	voulut	
2643	1	voyait	
2644	1	vraie	
2645	1	vraisemblance	
2646	1	vus	
2647	1	véritable	
2648	1	vérités	
2649	1	vînt	
2650	1	vîtes	
2651	1	zzzst	
2652	1	zèle	
2653	1	âge	
2654	1	çà	
2655	1	ébattent	
2656	1	écarté	
2657	1	éclaircir	
2658	1	éclaircissez	
2659	1	éclairé	
2660	1	éclate	
2661	1	éclater	
2662	1	écoliers	
2663	1	écoutés	
2664	1	écrits	
2665	1	édits	
2666	1	égale	
2667	1	égorger	
2668	1	émouvoir	
2669	1	ému	
2670	1	émue	
2671	1	énigmes	
2672	1	épingle	
2673	1	épingles	
2674	1	épreuve	
2675	1	équité	
2676	1	éteigne	
2677	1	éteindre	
2678	1	éteins	
2679	1	étendre	
2680	1	éternel	
2681	1	éternelle	
2682	1	étions	
2683	1	étoit	
2684	1	étonne	
2685	1	étonner	
2686	1	étroites	
2687	1	étude	
2688	1	évaporé	
2689	1	éveillée	
2690	1	éventée	
2691	1	ôte	
2692	1	ôté	
2693	1	ôtée	
