#Word Types: 2563
#Word Tokens: 16218
#Search Hits: 0
1	578	et	
2	452	de	
3	404	que	
4	325	vous	
5	290	il	
6	290	un	
7	287	le	
8	281	l	
9	274	qu	
10	260	je	
11	246	à	
12	237	est	
13	221	la	
14	218	ce	
15	206	en	
16	202	d	
17	166	si	
18	159	qui	
19	148	mon	
20	140	pour	
21	132	son	
22	130	ne	
23	113	les	
24	113	ma	
25	99	mais	
26	97	n	
27	93	une	
28	91	me	
29	90	plus	
30	87	a	
31	86	votre	
32	82	pas	
33	80	des	
34	80	sa	
35	79	m	
36	75	par	
37	71	j	
38	68	bien	
39	66	on	
40	66	sans	
41	65	s	
42	61	lui	
43	60	cette	
44	60	mes	
45	60	ses	
46	59	fait	
47	57	coeur	
48	57	elle	
49	56	c	
50	56	vos	
51	53	au	
52	53	ou	
53	52	puis	
54	51	tout	
55	50	même	
56	49	nous	
57	48	point	
58	48	se	
59	47	amour	
60	47	du	
61	46	dans	
62	44	sang	
63	42	ah	
64	41	moi	
65	38	cet	
66	37	grand	
67	37	mort	
68	36	enfin	
69	35	melistrate	
70	34	oui	
71	33	avec	
72	33	coup	
73	33	dont	
74	31	oronclide	
75	31	où	
76	31	tu	
77	31	être	
78	30	âme	
79	28	ai	
80	28	dieux	
81	28	donc	
82	28	faut	
83	27	faire	
84	27	gloire	
85	27	trop	
86	26	autre	
87	26	aux	
88	26	fut	
89	26	ninus	
90	26	peut	
91	26	yeux	
92	25	ces	
93	25	ni	
94	25	ont	
95	25	reine	
96	25	suis	
97	25	sur	
98	25	tant	
99	25	veux	
100	24	jour	
101	24	non	
102	23	comme	
103	23	objet	
104	23	t	
105	22	encore	
106	22	jamais	
107	22	madame	
108	22	temps	
109	22	trône	
110	21	doit	
111	21	main	
112	21	peu	
113	21	ô	
114	20	aussi	
115	20	esprit	
116	20	merzabane	
117	20	moins	
118	20	rendre	
119	20	ton	
120	20	vertu	
121	19	courage	
122	19	fils	
123	19	juste	
124	19	nos	
125	19	quand	
126	19	quoi	
127	19	roi	
128	18	vain	
129	17	effet	
130	17	ils	
131	17	rien	
132	17	vient	
133	16	aime	
134	16	assez	
135	16	honneur	
136	16	jours	
137	16	lors	
138	16	lâche	
139	16	prazimène	
140	16	tous	
141	16	traits	
142	16	veut	
143	16	vie	
144	16	voir	
145	16	y	
146	16	état	
147	15	ait	
148	15	après	
149	15	avait	
150	15	avez	
151	15	bras	
152	15	celui	
153	15	désormais	
154	15	empire	
155	15	haine	
156	15	ici	
157	15	père	
158	15	soit	
159	15	vu	
160	14	amant	
161	14	aujourd	
162	14	doute	
163	14	effets	
164	14	eut	
165	14	hui	
166	14	mépris	
167	14	notre	
168	14	plutôt	
169	14	prince	
170	14	quel	
171	14	seigneur	
172	14	toute	
173	14	était	
174	13	allez	
175	13	couronne	
176	13	dessein	
177	13	doux	
178	13	ingrat	
179	13	pu	
180	13	sceptre	
181	13	sens	
182	13	sont	
183	13	sort	
184	13	superbe	
185	13	te	
186	12	aurait	
187	12	désirs	
188	12	effort	
189	12	flamme	
190	12	perfide	
191	12	pouvoir	
192	12	rois	
193	12	toujours	
194	12	tête	
195	12	voeux	
196	11	ambition	
197	11	comment	
198	11	crime	
199	11	lois	
200	11	mains	
201	11	orgueil	
202	11	rend	
203	11	sujet	
204	11	tes	
205	11	trépas	
206	11	éclat	
207	10	alors	
208	10	ardeur	
209	10	ayant	
210	10	bonheur	
211	10	contre	
212	10	deux	
213	10	dis	
214	10	donner	
215	10	déjà	
216	10	ennemis	
217	10	horreur	
218	10	illustre	
219	10	lieu	
220	10	nature	
221	10	présent	
222	10	périr	
223	10	quelle	
224	10	quelque	
225	10	raison	
226	10	sera	
227	10	ta	
228	10	tombeau	
229	10	va	
230	10	vainqueur	
231	10	vais	
232	10	venger	
233	10	vois	
234	9	beau	
235	9	cour	
236	9	croyez	
237	9	dit	
238	9	droits	
239	9	envie	
240	9	faveur	
241	9	fers	
242	9	feu	
243	9	funeste	
244	9	généreux	
245	9	hé	
246	9	mieux	
247	9	occasion	
248	9	outrage	
249	9	perdre	
250	9	rang	
251	9	sais	
252	9	seulement	
253	9	trahir	
254	9	traître	
255	9	valeur	
256	9	voix	
257	9	voyez	
258	9	zèle	
259	8	ardeurs	
260	8	avant	
261	8	beaucoup	
262	8	cher	
263	8	confus	
264	8	courroux	
265	8	crois	
266	8	dedans	
267	8	devoir	
268	8	dites	
269	8	faits	
270	8	fit	
271	8	fois	
272	8	foudre	
273	8	justes	
274	8	leur	
275	8	mourir	
276	8	mémoire	
277	8	nobles	
278	8	parfait	
279	8	peine	
280	8	pourtant	
281	8	premier	
282	8	sauver	
283	8	tour	
284	8	voyant	
285	8	éclate	
286	8	étrange	
287	7	avoir	
288	7	car	
289	7	cent	
290	7	charmes	
291	7	ciel	
292	7	demande	
293	7	destin	
294	7	donne	
295	7	dépit	
296	7	esprits	
297	7	ferai	
298	7	fureur	
299	7	grandeurs	
300	7	heureux	
301	7	hélas	
302	7	injuste	
303	7	loin	
304	7	légitime	
305	7	mille	
306	7	obéir	
307	7	ordre	
308	7	palmédon	
309	7	plaît	
310	7	plein	
311	7	princesse	
312	7	projet	
313	7	secret	
314	7	sein	
315	7	soins	
316	7	soldat	
317	7	sorte	
318	7	sous	
319	7	telle	
320	7	toi	
321	7	tort	
322	7	toutefois	
323	7	triste	
324	7	viens	
325	7	vrai	
326	6	abandonne	
327	6	achève	
328	6	aimer	
329	6	ainsi	
330	6	aura	
331	6	avais	
332	6	belle	
333	6	bon	
334	6	ceux	
335	6	chère	
336	6	corps	
337	6	crainte	
338	6	cède	
339	6	desseins	
340	6	dieu	
341	6	désir	
342	6	désordre	
343	6	ennemi	
344	6	extrême	
345	6	exécuter	
346	6	faites	
347	6	fasse	
348	6	femme	
349	6	fer	
350	6	fidèle	
351	6	flatte	
352	6	fort	
353	6	fortune	
354	6	haute	
355	6	hommage	
356	6	humains	
357	6	insolent	
358	6	mal	
359	6	malgré	
360	6	malheureux	
361	6	nom	
362	6	orgueilleux	
363	6	paraître	
364	6	parle	
365	6	personne	
366	6	respect	
367	6	reste	
368	6	résoudre	
369	6	seule	
370	6	songez	
371	6	souvent	
372	6	souveraine	
373	6	suffit	
374	6	sémiramis	
375	6	trouve	
376	6	tôt	
377	6	univers	
378	6	vengeance	
379	6	victime	
380	6	visage	
381	6	élever	
382	6	états	
383	5	achever	
384	5	ambitieux	
385	5	ami	
386	5	apprête	
387	5	armes	
388	5	aucun	
389	5	aventure	
390	5	aveugle	
391	5	bas	
392	5	beaux	
393	5	blessé	
394	5	bruit	
395	5	camp	
396	5	cause	
397	5	chacun	
398	5	connaître	
399	5	croit	
400	5	cruel	
401	5	degré	
402	5	demi	
403	5	devez	
404	5	digne	
405	5	dire	
406	5	discours	
407	5	divers	
408	5	dois	
409	5	douter	
410	5	dès	
411	5	enfant	
412	5	espoir	
413	5	estime	
414	5	exploits	
415	5	fais	
416	5	font	
417	5	fruit	
418	5	glorieux	
419	5	grands	
420	5	grâce	
421	5	honte	
422	5	honteux	
423	5	immoler	
424	5	lettre	
425	5	lieux	
426	5	là	
427	5	lâchement	
428	5	majesté	
429	5	mars	
430	5	maître	
431	5	meurs	
432	5	moment	
433	5	monde	
434	5	monstre	
435	5	montrer	
436	5	mérite	
437	5	naissance	
438	5	nuit	
439	5	obéissance	
440	5	orage	
441	5	ouvrage	
442	5	parler	
443	5	princes	
444	5	prodige	
445	5	produit	
446	5	projets	
447	5	prompte	
448	5	puissant	
449	5	rare	
450	5	rendu	
451	5	retire	
452	5	retour	
453	5	reçu	
454	5	règne	
455	5	répond	
456	5	sacrifice	
457	5	savez	
458	5	serez	
459	5	soient	
460	5	souffrir	
461	5	soupirs	
462	5	trait	
463	5	trouble	
464	5	venez	
465	5	verra	
466	5	victoire	
467	5	vit	
468	5	voici	
469	5	vôtre	
470	5	écrit	
471	5	étonne	
472	4	abord	
473	4	adore	
474	4	affection	
475	4	affront	
476	4	aller	
477	4	amoureux	
478	4	arrêter	
479	4	assurer	
480	4	attend	
481	4	autres	
482	4	avantage	
483	4	barbare	
484	4	benzamin	
485	4	cesse	
486	4	changement	
487	4	charmer	
488	4	choix	
489	4	chose	
490	4	combien	
491	4	commande	
492	4	commencé	
493	4	complice	
494	4	connais	
495	4	couronné	
496	4	cours	
497	4	crimes	
498	4	croire	
499	4	crût	
500	4	céder	
501	4	célèbre	
502	4	depuis	
503	4	dernier	
504	4	dessous	
505	4	devoirs	
506	4	douleur	
507	4	dés	
508	4	employer	
509	4	espère	
510	4	espérance	
511	4	eu	
512	4	faisons	
513	4	fatal	
514	4	fatale	
515	4	fera	
516	4	ferait	
517	4	ferme	
518	4	fin	
519	4	fis	
520	4	grande	
521	4	grandeur	
522	4	haut	
523	4	heureuse	
524	4	illustres	
525	4	indigne	
526	4	innocent	
527	4	interdits	
528	4	jeune	
529	4	joie	
530	4	jusqu	
531	4	jusques	
532	4	laisse	
533	4	lâches	
534	4	maintenant	
535	4	merveilleux	
536	4	mis	
537	4	noble	
538	4	nouveau	
539	4	office	
540	4	ose	
541	4	parait	
542	4	paraît	
543	4	parlez	
544	4	part	
545	4	partage	
546	4	passion	
547	4	penser	
548	4	permis	
549	4	perte	
550	4	pitié	
551	4	pourpre	
552	4	pouvez	
553	4	presse	
554	4	prudence	
555	4	prêt	
556	4	puissance	
557	4	puissants	
558	4	puisse	
559	4	punir	
560	4	périsse	
561	4	quelques	
562	4	quitte	
563	4	rage	
564	4	raisons	
565	4	recevoir	
566	4	refus	
567	4	regret	
568	4	rende	
569	4	rends	
570	4	repos	
571	4	sait	
572	4	satisfaire	
573	4	saurais	
574	4	secours	
575	4	seigneurs	
576	4	serais	
577	4	seul	
578	4	silence	
579	4	songe	
580	4	souffrez	
581	4	souvenez	
582	4	souverain	
583	4	suivre	
584	4	sujets	
585	4	supplice	
586	4	terre	
587	4	trame	
588	4	triomphant	
589	4	tyran	
590	4	vaincre	
591	4	vanité	
592	4	vengez	
593	4	violence	
594	4	vivre	
595	4	voilà	
596	4	égal	
597	4	événement	
598	4	ôte	
599	3	abaisser	
600	3	action	
601	3	admirable	
602	3	adorer	
603	3	adresse	
604	3	adroit	
605	3	afin	
606	3	agir	
607	3	aimez	
608	3	aisément	
609	3	ajouter	
610	3	amène	
611	3	appas	
612	3	apprends	
613	3	appui	
614	3	arme	
615	3	armée	
616	3	arrogant	
617	3	arrêt	
618	3	arrêtez	
619	3	as	
620	3	atteinte	
621	3	attends	
622	3	attente	
623	3	auguste	
624	3	autorité	
625	3	avouer	
626	3	babylone	
627	3	belles	
628	3	besoin	
629	3	bientôt	
630	3	blesse	
631	3	borne	
632	3	bouche	
633	3	bourreau	
634	3	capable	
635	3	celle	
636	3	cependant	
637	3	charmant	
638	3	chaîne	
639	3	colère	
640	3	combat	
641	3	combattu	
642	3	commandement	
643	3	confusion	
644	3	conquête	
645	3	conseil	
646	3	constance	
647	3	contenter	
648	3	coupable	
649	3	demander	
650	3	deuil	
651	3	devant	
652	3	diadème	
653	3	dirai	
654	3	discret	
655	3	dispose	
656	3	dorénavant	
657	3	droit	
658	3	découvert	
659	3	démon	
660	3	détestable	
661	3	détruire	
662	3	détruit	
663	3	effroi	
664	3	emploi	
665	3	emporte	
666	3	empêcher	
667	3	enfer	
668	3	entre	
669	3	erreur	
670	3	esclave	
671	3	faisant	
672	3	faux	
673	3	feinte	
674	3	feux	
675	3	flammes	
676	3	foi	
677	3	frappez	
678	3	frère	
679	3	garde	
680	3	guerre	
681	3	hautaine	
682	3	homme	
683	3	hommes	
684	3	héros	
685	3	importance	
686	3	ingrate	
687	3	injustice	
688	3	laissez	
689	3	larmes	
690	3	lauriers	
691	3	leurs	
692	3	lit	
693	3	longtemps	
694	3	marques	
695	3	mettre	
696	3	meurtre	
697	3	mien	
698	3	mienne	
699	3	monarque	
700	3	moyens	
701	3	murs	
702	3	naître	
703	3	nécessaire	
704	3	obstacle	
705	3	offense	
706	3	offre	
707	3	offrir	
708	3	ouvrir	
709	3	palais	
710	3	pardonne	
711	3	parlant	
712	3	parmi	
713	3	parricide	
714	3	parti	
715	3	parut	
716	3	passe	
717	3	perdons	
718	3	peuple	
719	3	peur	
720	3	plaisir	
721	3	plût	
722	3	poignard	
723	3	porte	
724	3	poudre	
725	3	prend	
726	3	presque	
727	3	preuve	
728	3	prit	
729	3	prodigieux	
730	3	propres	
731	3	près	
732	3	précipice	
733	3	préparer	
734	3	présence	
735	3	prétend	
736	3	prétendre	
737	3	qualité	
738	3	qualités	
739	3	quelqu	
740	3	quels	
741	3	rarement	
742	3	rares	
743	3	ravi	
744	3	ravir	
745	3	remords	
746	3	rendez	
747	3	rendit	
748	3	rougir	
749	3	royale	
750	3	réduit	
751	3	sache	
752	3	salut	
753	3	sanglant	
754	3	sanglante	
755	3	savoir	
756	3	secourir	
757	3	sensible	
758	3	sentiment	
759	3	serai	
760	3	serment	
761	3	sien	
762	3	simple	
763	3	soi	
764	3	soldats	
765	3	sommes	
766	3	sortant	
767	3	soumis	
768	3	soupirer	
769	3	suivant	
770	3	suivez	
771	3	tandis	
772	3	tel	
773	3	tenait	
774	3	tenez	
775	3	tient	
776	3	tirer	
777	3	toutes	
778	3	travaux	
779	3	tremble	
780	3	triompher	
781	3	trois	
782	3	témoignage	
783	3	témoins	
784	3	téméraire	
785	3	témérité	
786	3	vaincu	
787	3	vassaux	
788	3	verrez	
789	3	vers	
790	3	vice	
791	3	vis	
792	3	voie	
793	3	volontés	
794	3	vont	
795	3	voulez	
796	3	véritable	
797	3	âmes	
798	3	éclater	
799	3	égale	
800	3	époux	
801	3	été	
802	3	êtes	
803	2	abattu	
804	2	accord	
805	2	achevez	
806	2	achevé	
807	2	acquis	
808	2	actions	
809	2	admiré	
810	2	affranchir	
811	2	agréable	
812	2	aimable	
813	2	amante	
814	2	annonce	
815	2	ans	
816	2	apaiser	
817	2	apparence	
818	2	appartement	
819	2	apprendre	
820	2	approuve	
821	2	arbre	
822	2	arménie	
823	2	arrête	
824	2	artifice	
825	2	ascalon	
826	2	asie	
827	2	asile	
828	2	aspirer	
829	2	assurance	
830	2	assure	
831	2	assuré	
832	2	astre	
833	2	attaque	
834	2	atteindre	
835	2	attendre	
836	2	attentat	
837	2	attenter	
838	2	audace	
839	2	audacieux	
840	2	auparavant	
841	2	auprès	
842	2	aurai	
843	2	aurais	
844	2	aussitôt	
845	2	autant	
846	2	autel	
847	2	autels	
848	2	auteur	
849	2	autrefois	
850	2	avancez	
851	2	aventures	
852	2	aveu	
853	2	avons	
854	2	avoue	
855	2	ayez	
856	2	bandeau	
857	2	batailles	
858	2	beauté	
859	2	bel	
860	2	biens	
861	2	blessure	
862	2	blâme	
863	2	bontés	
864	2	branche	
865	2	brave	
866	2	braver	
867	2	briser	
868	2	cache	
869	2	calme	
870	2	calmes	
871	2	caractère	
872	2	carrière	
873	2	causes	
874	2	celez	
875	2	cercueil	
876	2	certaines	
877	2	certes	
878	2	chambre	
879	2	change	
880	2	charme	
881	2	charmé	
882	2	chaînes	
883	2	chemin	
884	2	choisir	
885	2	cieux	
886	2	coeurs	
887	2	combats	
888	2	combattant	
889	2	commandé	
890	2	commission	
891	2	comprendre	
892	2	condamne	
893	2	conjoncture	
894	2	connu	
895	2	conquérant	
896	2	conquêtes	
897	2	conseils	
898	2	consente	
899	2	consentement	
900	2	contente	
901	2	contraire	
902	2	couche	
903	2	coups	
904	2	craindre	
905	2	crains	
906	2	craint	
907	2	cruelles	
908	2	crû	
909	2	curiosité	
910	2	cédant	
911	2	deviendront	
912	2	devrait	
913	2	différez	
914	2	discerner	
915	2	dispute	
916	2	doive	
917	2	donnez	
918	2	donné	
919	2	débris	
920	2	déclarer	
921	2	défense	
922	2	délibère	
923	2	démenti	
924	2	dépend	
925	2	déplaisir	
926	2	déplorable	
927	2	désespoir	
928	2	déteste	
929	2	encens	
930	2	enflamme	
931	2	ensemble	
932	2	entendre	
933	2	entends	
934	2	espérez	
935	2	eus	
936	2	eux	
937	2	excès	
938	2	exemple	
939	2	expier	
940	2	expire	
941	2	exposer	
942	2	faible	
943	2	faibles	
944	2	faiblesse	
945	2	faisait	
946	2	fameuse	
947	2	feintes	
948	2	fidélité	
949	2	figurez	
950	2	flots	
951	2	forcé	
952	2	former	
953	2	formés	
954	2	força	
955	2	froideur	
956	2	front	
957	2	funérailles	
958	2	fus	
959	2	gardes	
960	2	genoux	
961	2	gré	
962	2	généreuse	
963	2	hais	
964	2	hasarde	
965	2	hasards	
966	2	heure	
967	2	homicide	
968	2	horrible	
969	2	hors	
970	2	humeur	
971	2	idolâtre	
972	2	ignorez	
973	2	illusion	
974	2	importune	
975	2	imprudemment	
976	2	imprudence	
977	2	inclination	
978	2	indifférence	
979	2	infâme	
980	2	inhumain	
981	2	injustes	
982	2	innocence	
983	2	insensible	
984	2	insigne	
985	2	inspire	
986	2	intérêt	
987	2	intérêts	
988	2	inutilement	
989	2	jeté	
990	2	jeunes	
991	2	joindre	
992	2	joug	
993	2	jouirez	
994	2	justement	
995	2	laissant	
996	2	lancez	
997	2	langue	
998	2	lent	
999	2	long	
1000	2	lumière	
1001	2	lumières	
1002	2	lâcheté	
1003	2	légèretés	
1004	2	maintenir	
1005	2	malheur	
1006	2	maux	
1007	2	maximes	
1008	2	maîtresse	
1009	2	menace	
1010	2	merveille	
1011	2	met	
1012	2	mets	
1013	2	meure	
1014	2	miens	
1015	2	miracles	
1016	2	mise	
1017	2	misérable	
1018	2	mit	
1019	2	moindre	
1020	2	monarques	
1021	2	mortel	
1022	2	mots	
1023	2	mourant	
1024	2	mourras	
1025	2	moyen	
1026	2	mépriser	
1027	2	naufrage	
1028	2	nôtre	
1029	2	occurrence	
1030	2	odieux	
1031	2	offensée	
1032	2	ombre	
1033	2	opposer	
1034	2	ordres	
1035	2	orient	
1036	2	ornement	
1037	2	osa	
1038	2	osé	
1039	2	oubli	
1040	2	ouvrages	
1041	2	ouï	
1042	2	paix	
1043	2	pardonnez	
1044	2	pareil	
1045	2	pareillement	
1046	2	parlé	
1047	2	parque	
1048	2	passa	
1049	2	passer	
1050	2	patrie	
1051	2	pensant	
1052	2	pense	
1053	2	pensé	
1054	2	pensée	
1055	2	percer	
1056	2	percé	
1057	2	perd	
1058	2	perdant	
1059	2	perde	
1060	2	perdit	
1061	2	permettez	
1062	2	peuples	
1063	2	peuvent	
1064	2	pieds	
1065	2	pitoyable	
1066	2	place	
1067	2	plaint	
1068	2	plaire	
1069	2	plaisirs	
1070	2	pleins	
1071	2	poids	
1072	2	porter	
1073	2	possible	
1074	2	pourquoi	
1075	2	pourrez	
1076	2	pouvant	
1077	2	preuves	
1078	2	pris	
1079	2	prix	
1080	2	profane	
1081	2	prompt	
1082	2	promptement	
1083	2	propice	
1084	2	propos	
1085	2	propose	
1086	2	propre	
1087	2	provinces	
1088	2	préparé	
1089	2	présente	
1090	2	présents	
1091	2	prétends	
1092	2	puisque	
1093	2	puissante	
1094	2	puni	
1095	2	péril	
1096	2	quelles	
1097	2	quiconque	
1098	2	quittez	
1099	2	ravie	
1100	2	ravit	
1101	2	reconnaît	
1102	2	reconnaître	
1103	2	reconnus	
1104	2	redoutable	
1105	2	regarde	
1106	2	remettre	
1107	2	remis	
1108	2	remparts	
1109	2	rencontre	
1110	2	repentir	
1111	2	respects	
1112	2	retirez	
1113	2	retiré	
1114	2	revient	
1115	2	reçoit	
1116	2	rigueur	
1117	2	rivale	
1118	2	rivaux	
1119	2	ruiner	
1120	2	récompenser	
1121	2	régner	
1122	2	répare	
1123	2	réparera	
1124	2	réponse	
1125	2	résolu	
1126	2	résout	
1127	2	rétablir	
1128	2	réussit	
1129	2	réveil	
1130	2	réveillé	
1131	2	révère	
1132	2	sacré	
1133	2	sage	
1134	2	sainte	
1135	2	saisit	
1136	2	saison	
1137	2	salaire	
1138	2	satisfait	
1139	2	satisfaits	
1140	2	saurez	
1141	2	sauva	
1142	2	second	
1143	2	seconde	
1144	2	seconder	
1145	2	semble	
1146	2	sentiments	
1147	2	serve	
1148	2	service	
1149	2	servir	
1150	2	servit	
1151	2	singulier	
1152	2	soin	
1153	2	sommeil	
1154	2	songer	
1155	2	sortons	
1156	2	source	
1157	2	souvenir	
1158	2	souverains	
1159	2	souviens	
1160	2	soyez	
1161	2	subir	
1162	2	suborneur	
1163	2	succombe	
1164	2	suit	
1165	2	suivi	
1166	2	surpris	
1167	2	séduit	
1168	2	tantôt	
1169	2	tempêtes	
1170	2	tenter	
1171	2	terme	
1172	2	thermodonte	
1173	2	tige	
1174	2	titre	
1175	2	toucha	
1176	2	touche	
1177	2	tourment	
1178	2	trahison	
1179	2	transports	
1180	2	travailler	
1181	2	triomphe	
1182	2	tristesse	
1183	2	trouva	
1184	2	trouver	
1185	2	trouvez	
1186	2	trésor	
1187	2	tue	
1188	2	tâche	
1189	2	usurpateur	
1190	2	vaine	
1191	2	vainement	
1192	2	vainquit	
1193	2	venais	
1194	2	venge	
1195	2	vengé	
1196	2	vertus	
1197	2	villes	
1198	2	visible	
1199	2	vive	
1200	2	vives	
1201	2	voit	
1202	2	voulant	
1203	2	voulu	
1204	2	xidiane	
1205	2	âge	
1206	2	éclairs	
1207	2	écoute	
1208	2	élevé	
1209	2	épris	
1210	2	étais	
1211	2	étant	
1212	2	éteindre	
1213	2	étiez	
1214	2	étonnement	
1215	2	évitez	
1216	1	abaisserais	
1217	1	abaissés	
1218	1	abandonnant	
1219	1	abandonner	
1220	1	abattre	
1221	1	abhorre	
1222	1	aborde	
1223	1	abords	
1224	1	abri	
1225	1	abrégeant	
1226	1	absent	
1227	1	absente	
1228	1	absolu	
1229	1	absolument	
1230	1	accablé	
1231	1	acceptai	
1232	1	accepte	
1233	1	accident	
1234	1	accomplisse	
1235	1	accords	
1236	1	accordée	
1237	1	accoutumé	
1238	1	accoutumée	
1239	1	accroître	
1240	1	accueil	
1241	1	accuse	
1242	1	acquerrait	
1243	1	acquérons	
1244	1	acte	
1245	1	admirateurs	
1246	1	admire	
1247	1	admirer	
1248	1	adorable	
1249	1	adorables	
1250	1	adoré	
1251	1	adorée	
1252	1	adressait	
1253	1	adressant	
1254	1	adresses	
1255	1	adroite	
1256	1	adversité	
1257	1	affaibli	
1258	1	affections	
1259	1	affermi	
1260	1	affermissement	
1261	1	affranchie	
1262	1	affranchis	
1263	1	affreux	
1264	1	affronterai	
1265	1	agissait	
1266	1	agissant	
1267	1	agit	
1268	1	agiter	
1269	1	agréables	
1270	1	agréez	
1271	1	aide	
1272	1	aigrir	
1273	1	aille	
1274	1	aimai	
1275	1	aimait	
1276	1	aiment	
1277	1	aimerait	
1278	1	aimé	
1279	1	ajoute	
1280	1	alcide	
1281	1	allions	
1282	1	alliée	
1283	1	allons	
1284	1	allumé	
1285	1	allégeance	
1286	1	alléguez	
1287	1	allégé	
1288	1	altier	
1289	1	altières	
1290	1	altération	
1291	1	altérations	
1292	1	altérer	
1293	1	amants	
1294	1	amazone	
1295	1	ambassadeur	
1296	1	ample	
1297	1	anime	
1298	1	animé	
1299	1	annoncer	
1300	1	apaisé	
1301	1	apanage	
1302	1	aperçois	
1303	1	appareil	
1304	1	appartient	
1305	1	appeler	
1306	1	appelle	
1307	1	apporte	
1308	1	apprend	
1309	1	apprenez	
1310	1	apprenne	
1311	1	appris	
1312	1	approchant	
1313	1	approche	
1314	1	approuvons	
1315	1	appuyer	
1316	1	arbitre	
1317	1	ardemment	
1318	1	ardent	
1319	1	ardente	
1320	1	arma	
1321	1	armai	
1322	1	armait	
1323	1	armet	
1324	1	arrache	
1325	1	arracher	
1326	1	arraché	
1327	1	arriver	
1328	1	arrière	
1329	1	arrogance	
1330	1	arrogante	
1331	1	arroser	
1332	1	arrêté	
1333	1	aspect	
1334	1	aspirant	
1335	1	aspire	
1336	1	assassin	
1337	1	assassiné	
1338	1	asservie	
1339	1	assoupis	
1340	1	assurait	
1341	1	assurances	
1342	1	assureriez	
1343	1	assyrie	
1344	1	assyrien	
1345	1	assyrte	
1346	1	astres	
1347	1	attaché	
1348	1	atteignent	
1349	1	atteindrait	
1350	1	atteint	
1351	1	atteintes	
1352	1	attendais	
1353	1	attendant	
1354	1	attendez	
1355	1	attire	
1356	1	attraits	
1357	1	aucunes	
1358	1	auquel	
1359	1	auraient	
1360	1	autrement	
1361	1	avaient	
1362	1	avance	
1363	1	aveuglement	
1364	1	aveugler	
1365	1	aveuglé	
1366	1	aveuglément	
1367	1	aviez	
1368	1	avis	
1369	1	avouerez	
1370	1	avoué	
1371	1	baisa	
1372	1	balance	
1373	1	banni	
1374	1	barzane	
1375	1	bassesse	
1376	1	bat	
1377	1	bienveillance	
1378	1	bizarre	
1379	1	blessée	
1380	1	blâmiez	
1381	1	bons	
1382	1	bonté	
1383	1	bord	
1384	1	bords	
1385	1	bornes	
1386	1	bornèrent	
1387	1	bout	
1388	1	bravant	
1389	1	brillaient	
1390	1	brillant	
1391	1	brillante	
1392	1	brillantes	
1393	1	brûlant	
1394	1	brûle	
1395	1	brûlez	
1396	1	brûlé	
1397	1	butte	
1398	1	bâtira	
1399	1	caché	
1400	1	capables	
1401	1	capitaine	
1402	1	capitaines	
1403	1	captivité	
1404	1	caresses	
1405	1	carreaux	
1406	1	cartel	
1407	1	causent	
1408	1	causer	
1409	1	celles	
1410	1	cendre	
1411	1	censeur	
1412	1	certain	
1413	1	certaine	
1414	1	certifier	
1415	1	cesser	
1416	1	cessera	
1417	1	cessez	
1418	1	cessé	
1419	1	chaleurs	
1420	1	changer	
1421	1	changé	
1422	1	changée	
1423	1	char	
1424	1	chargé	
1425	1	charmante	
1426	1	charmants	
1427	1	charmée	
1428	1	chasser	
1429	1	chassez	
1430	1	cherche	
1431	1	cherchent	
1432	1	cheveux	
1433	1	chez	
1434	1	choisi	
1435	1	choisis	
1436	1	choisit	
1437	1	choquant	
1438	1	choquer	
1439	1	choques	
1440	1	choses	
1441	1	chérit	
1442	1	civiles	
1443	1	civilités	
1444	1	clair	
1445	1	clarté	
1446	1	clef	
1447	1	clefs	
1448	1	combattent	
1449	1	combattit	
1450	1	combattra	
1451	1	combattre	
1452	1	combleront	
1453	1	commandait	
1454	1	commandez	
1455	1	commençons	
1456	1	commet	
1457	1	commis	
1458	1	commun	
1459	1	commune	
1460	1	communique	
1461	1	communs	
1462	1	complaisance	
1463	1	complices	
1464	1	complot	
1465	1	comptez	
1466	1	conclure	
1467	1	concurrents	
1468	1	condamner	
1469	1	condamnez	
1470	1	conduise	
1471	1	conduite	
1472	1	confidence	
1473	1	confident	
1474	1	confond	
1475	1	confondra	
1476	1	confusions	
1477	1	confusément	
1478	1	conjecture	
1479	1	connaissait	
1480	1	connaissant	
1481	1	connaissez	
1482	1	connaît	
1483	1	connaîtrez	
1484	1	connus	
1485	1	conquis	
1486	1	conquise	
1487	1	conquit	
1488	1	conquérir	
1489	1	consent	
1490	1	consentez	
1491	1	consenti	
1492	1	conserver	
1493	1	considérer	
1494	1	consolai	
1495	1	conspire	
1496	1	constamment	
1497	1	constant	
1498	1	constante	
1499	1	consultez	
1500	1	conséquence	
1501	1	contemple	
1502	1	content	
1503	1	contentez	
1504	1	conteste	
1505	1	contester	
1506	1	continue	
1507	1	contraignis	
1508	1	contraint	
1509	1	contrainte	
1510	1	contribue	
1511	1	conçu	
1512	1	conçus	
1513	1	coule	
1514	1	couler	
1515	1	couleurs	
1516	1	courages	
1517	1	courir	
1518	1	couronnez	
1519	1	couronnée	
1520	1	courrier	
1521	1	course	
1522	1	courtois	
1523	1	courtoisie	
1524	1	couvert	
1525	1	couverte	
1526	1	couvrait	
1527	1	coûta	
1528	1	craignant	
1529	1	croira	
1530	1	croirai	
1531	1	croirais	
1532	1	croyable	
1533	1	croyais	
1534	1	croyait	
1535	1	croyant	
1536	1	cru	
1537	1	cruelle	
1538	1	crus	
1539	1	crève	
1540	1	créance	
1541	1	créature	
1542	1	crédit	
1543	1	crédule	
1544	1	cédé	
1545	1	célèbres	
1546	1	daignez	
1547	1	dais	
1548	1	dame	
1549	1	dangereuses	
1550	1	dangers	
1551	1	davantage	
1552	1	delà	
1553	1	demandez	
1554	1	demandée	
1555	1	demeure	
1556	1	demeurer	
1557	1	dernière	
1558	1	dernièrement	
1559	1	descend	
1560	1	descendre	
1561	1	dessille	
1562	1	dessus	
1563	1	destins	
1564	1	destiné	
1565	1	devais	
1566	1	devait	
1567	1	devance	
1568	1	devenu	
1569	1	deviendra	
1570	1	deviez	
1571	1	devinrent	
1572	1	différant	
1573	1	différents	
1574	1	différons	
1575	1	différé	
1576	1	différée	
1577	1	dignement	
1578	1	dignes	
1579	1	diligence	
1580	1	discrétion	
1581	1	dispense	
1582	1	disposa	
1583	1	dissimulez	
1584	1	dissipé	
1585	1	divin	
1586	1	divine	
1587	1	divinité	
1588	1	divins	
1589	1	divisant	
1590	1	divisions	
1591	1	dompter	
1592	1	donnait	
1593	1	donnant	
1594	1	donnons	
1595	1	double	
1596	1	douce	
1597	1	dressant	
1598	1	durant	
1599	1	durée	
1600	1	dus	
1601	1	déchire	
1602	1	déchirer	
1603	1	déclarant	
1604	1	découverte	
1605	1	dédaigne	
1606	1	dédaigneuse	
1607	1	dédains	
1608	1	défait	
1609	1	défaite	
1610	1	défaut	
1611	1	défend	
1612	1	défendre	
1613	1	défier	
1614	1	défiez	
1615	1	déférence	
1616	1	dégager	
1617	1	déguisai	
1618	1	déguisait	
1619	1	déguisé	
1620	1	délices	
1621	1	déloyal	
1622	1	dément	
1623	1	démente	
1624	1	démesurée	
1625	1	démons	
1626	1	dénonçai	
1627	1	départi	
1628	1	dépens	
1629	1	déplaire	
1630	1	déplaît	
1631	1	dépêcher	
1632	1	dérobé	
1633	1	désarmé	
1634	1	désastre	
1635	1	désavouer	
1636	1	désire	
1637	1	désirez	
1638	1	désiré	
1639	1	désobéir	
1640	1	désordres	
1641	1	détourné	
1642	1	détours	
1643	1	détruis	
1644	1	détruisez	
1645	1	détruisit	
1646	1	effacer	
1647	1	efforts	
1648	1	effronterie	
1649	1	embelli	
1650	1	emmène	
1651	1	empliront	
1652	1	emploierai	
1653	1	emplois	
1654	1	empoisonnés	
1655	1	emporter	
1656	1	empressement	
1657	1	emprunte	
1658	1	enchaîne	
1659	1	endroits	
1660	1	enflammé	
1661	1	enflé	
1662	1	engage	
1663	1	engagé	
1664	1	enlevai	
1665	1	enlève	
1666	1	ennui	
1667	1	ennuis	
1668	1	enragé	
1669	1	enseveli	
1670	1	ensevelie	
1671	1	entend	
1672	1	enterrons	
1673	1	entier	
1674	1	entièrement	
1675	1	entrai	
1676	1	entrailles	
1677	1	entrant	
1678	1	entrepris	
1679	1	envieux	
1680	1	envoyer	
1681	1	errant	
1682	1	errantes	
1683	1	espérant	
1684	1	espérer	
1685	1	espériez	
1686	1	estes	
1687	1	estimais	
1688	1	estimerai	
1689	1	eussiez	
1690	1	excellente	
1691	1	exciter	
1692	1	excité	
1693	1	excités	
1694	1	excuse	
1695	1	exempter	
1696	1	expirait	
1697	1	expirer	
1698	1	expiré	
1699	1	exploit	
1700	1	exposa	
1701	1	exposé	
1702	1	expérience	
1703	1	extrémité	
1704	1	exécrable	
1705	1	eût	
1706	1	eûtes	
1707	1	face	
1708	1	facile	
1709	1	faiblesses	
1710	1	faillir	
1711	1	faisaient	
1712	1	faix	
1713	1	fallait	
1714	1	fameuses	
1715	1	fameux	
1716	1	fantôme	
1717	1	fard	
1718	1	faste	
1719	1	fausse	
1720	1	faute	
1721	1	faveurs	
1722	1	favorable	
1723	1	façon	
1724	1	feignez	
1725	1	feignit	
1726	1	feignons	
1727	1	feint	
1728	1	femmes	
1729	1	fendre	
1730	1	ferez	
1731	1	feront	
1732	1	ferveur	
1733	1	fiant	
1734	1	fier	
1735	1	fiez	
1736	1	figurant	
1737	1	fini	
1738	1	finir	
1739	1	finissements	
1740	1	finissez	
1741	1	finit	
1742	1	firent	
1743	1	flanc	
1744	1	flatter	
1745	1	fleur	
1746	1	fleuve	
1747	1	fleuves	
1748	1	fléchir	
1749	1	fond	
1750	1	force	
1751	1	forcerez	
1752	1	forces	
1753	1	forcène	
1754	1	forfait	
1755	1	forme	
1756	1	foudroyer	
1757	1	fourni	
1758	1	franchement	
1759	1	franchir	
1760	1	frappant	
1761	1	frappe	
1762	1	fraîchement	
1763	1	froid	
1764	1	froideurs	
1765	1	frémis	
1766	1	fuis	
1767	1	fumant	
1768	1	fumée	
1769	1	funestes	
1770	1	fureurs	
1771	1	furie	
1772	1	furieux	
1773	1	futures	
1774	1	féconds	
1775	1	fûtes	
1776	1	gage	
1777	1	gardez	
1778	1	gardé	
1779	1	gens	
1780	1	germain	
1781	1	glaive	
1782	1	glaçons	
1783	1	glissant	
1784	1	glorieuse	
1785	1	glorieusement	
1786	1	gouvernement	
1787	1	grade	
1788	1	grandes	
1789	1	gronder	
1790	1	guide	
1791	1	guérir	
1792	1	guérison	
1793	1	gémit	
1794	1	générosité	
1795	1	gêne	
1796	1	habille	
1797	1	hait	
1798	1	hardi	
1799	1	hardie	
1800	1	hardiment	
1801	1	hardis	
1802	1	hasardait	
1803	1	hasarderai	
1804	1	hasardez	
1805	1	hautain	
1806	1	hautement	
1807	1	hautes	
1808	1	haïr	
1809	1	heur	
1810	1	histoire	
1811	1	hommages	
1812	1	honneurs	
1813	1	honore	
1814	1	honorer	
1815	1	honoré	
1816	1	honteusement	
1817	1	horreurs	
1818	1	humbles	
1819	1	humiliés	
1820	1	hymen	
1821	1	hyménée	
1822	1	hésite	
1823	1	idole	
1824	1	idolâtrie	
1825	1	ignore	
1826	1	illégitimes	
1827	1	imita	
1828	1	imitateurs	
1829	1	imite	
1830	1	immole	
1831	1	immolons	
1832	1	immortel	
1833	1	immortelle	
1834	1	immortels	
1835	1	impatience	
1836	1	impatient	
1837	1	implore	
1838	1	imposture	
1839	1	impression	
1840	1	impressions	
1841	1	impérieuse	
1842	1	incertain	
1843	1	inclinations	
1844	1	inconstante	
1845	1	incroyable	
1846	1	indulgent	
1847	1	infaillible	
1848	1	infidèle	
1849	1	infortunée	
1850	1	ingrats	
1851	1	injustement	
1852	1	insensé	
1853	1	insignes	
1854	1	insolence	
1855	1	insolente	
1856	1	instrument	
1857	1	intelligence	
1858	1	intentions	
1859	1	interdit	
1860	1	introduit	
1861	1	inutile	
1862	1	investir	
1863	1	invincible	
1864	1	invite	
1865	1	inégale	
1866	1	ire	
1867	1	jaloux	
1868	1	joigne	
1869	1	journée	
1870	1	juge	
1871	1	jure	
1872	1	juré	
1873	1	justice	
1874	1	justifier	
1875	1	laissais	
1876	1	lancé	
1877	1	langage	
1878	1	languissante	
1879	1	larcin	
1880	1	lave	
1881	1	laverait	
1882	1	legerde	
1883	1	lequel	
1884	1	lettres	
1885	1	lever	
1886	1	liberté	
1887	1	libre	
1888	1	liens	
1889	1	limites	
1890	1	liront	
1891	1	lis	
1892	1	lorsque	
1893	1	lumineux	
1894	1	légère	
1895	1	légèrement	
1896	1	magnificence	
1897	1	magnifique	
1898	1	maintes	
1899	1	malheurs	
1900	1	malice	
1901	1	manifeste	
1902	1	manque	
1903	1	manquer	
1904	1	manqué	
1905	1	marcher	
1906	1	marque	
1907	1	martyre	
1908	1	mas	
1909	1	massacré	
1910	1	matin	
1911	1	matière	
1912	1	mauvais	
1913	1	maîtres	
1914	1	meilleure	
1915	1	menacé	
1916	1	mensonge	
1917	1	merveilles	
1918	1	merzbabane	
1919	1	mesure	
1920	1	meurt	
1921	1	meurtres	
1922	1	meurtrier	
1923	1	meurtrière	
1924	1	milieu	
1925	1	ministre	
1926	1	miracle	
1927	1	modestie	
1928	1	modèle	
1929	1	moments	
1930	1	monarchie	
1931	1	monstres	
1932	1	monter	
1933	1	montre	
1934	1	montrent	
1935	1	montré	
1936	1	morale	
1937	1	mortels	
1938	1	morts	
1939	1	mot	
1940	1	motifs	
1941	1	mourrai	
1942	1	mourrait	
1943	1	mourrez	
1944	1	mourut	
1945	1	mouvement	
1946	1	muni	
1947	1	murailles	
1948	1	murmure	
1949	1	mutuel	
1950	1	mutuelle	
1951	1	mèdes	
1952	1	mène	
1953	1	médicaments	
1954	1	mélancolie	
1955	1	ménager	
1956	1	mépriserait	
1957	1	méprisé	
1958	1	méprisée	
1959	1	méritais	
1960	1	méritent	
1961	1	mériterait	
1962	1	mériterions	
1963	1	mérites	
1964	1	mêle	
1965	1	mêmes	
1966	1	nagea	
1967	1	naissent	
1968	1	naquit	
1969	1	naît	
1970	1	nier	
1971	1	noblement	
1972	1	noie	
1973	1	noir	
1974	1	noire	
1975	1	nourrit	
1976	1	nouvel	
1977	1	nouvelle	
1978	1	nouvelles	
1979	1	noyant	
1980	1	nue	
1981	1	néanmoins	
1982	1	née	
1983	1	néglige	
1984	1	négliger	
1985	1	négligions	
1986	1	négligé	
1987	1	oblige	
1988	1	obligé	
1989	1	obscurcit	
1990	1	obscure	
1991	1	observer	
1992	1	obtenir	
1993	1	obéie	
1994	1	obéirai	
1995	1	obéis	
1996	1	obéissances	
1997	1	obéissons	
1998	1	occasions	
1999	1	odieuse	
2000	1	oeil	
2001	1	offensez	
2002	1	offert	
2003	1	offerts	
2004	1	offrait	
2005	1	offrant	
2006	1	offrez	
2007	1	offrit	
2008	1	ois	
2009	1	onde	
2010	1	opiniâtre	
2011	1	opposez	
2012	1	opposons	
2013	1	oracles	
2014	1	ordinaire	
2015	1	ordinairement	
2016	1	ordinaires	
2017	1	oreille	
2018	1	oreilles	
2019	1	orgueilleuse	
2020	1	ornements	
2021	1	orné	
2022	1	osai	
2023	1	osant	
2024	1	oser	
2025	1	osera	
2026	1	oublie	
2027	1	oubliez	
2028	1	oublions	
2029	1	oubliée	
2030	1	outrager	
2031	1	ouvert	
2032	1	ouverte	
2033	1	ouverture	
2034	1	ouvre	
2035	1	ouïr	
2036	1	paisible	
2037	1	palmes	
2038	1	pardon	
2039	1	pareille	
2040	1	parfaits	
2041	1	parleriez	
2042	1	parlons	
2043	1	parole	
2044	1	partagerait	
2045	1	parthes	
2046	1	partie	
2047	1	partir	
2048	1	partisan	
2049	1	parts	
2050	1	passage	
2051	1	passé	
2052	1	passés	
2053	1	paupières	
2054	1	pays	
2055	1	peines	
2056	1	peintures	
2057	1	pend	
2058	1	pensa	
2059	1	pensif	
2060	1	pensées	
2061	1	perce	
2062	1	perdra	
2063	1	perdrait	
2064	1	perdu	
2065	1	perfection	
2066	1	perfections	
2067	1	perfidie	
2068	1	permet	
2069	1	permets	
2070	1	permettent	
2071	1	permettre	
2072	1	persans	
2073	1	persévérance	
2074	1	persévérez	
2075	1	pesants	
2076	1	peurs	
2077	1	peux	
2078	1	phaëton	
2079	1	pique	
2080	1	pire	
2081	1	plainte	
2082	1	plaira	
2083	1	plairait	
2084	1	pleinement	
2085	1	pleurs	
2086	1	plonge	
2087	1	plu	
2088	1	plupart	
2089	1	poison	
2090	1	pompe	
2091	1	pompeuse	
2092	1	porté	
2093	1	possède	
2094	1	potentat	
2095	1	pourpres	
2096	1	pourrai	
2097	1	pourraient	
2098	1	pourrais	
2099	1	pourrait	
2100	1	pourras	
2101	1	pourriez	
2102	1	pourrons	
2103	1	pourront	
2104	1	pourvu	
2105	1	pouvais	
2106	1	pouvait	
2107	1	pratiquer	
2108	1	premièrement	
2109	1	premières	
2110	1	prendre	
2111	1	prendrons	
2112	1	prends	
2113	1	prenez	
2114	1	presqu	
2115	1	pressez	
2116	1	pressé	
2117	1	preste	
2118	1	prestes	
2119	1	priant	
2120	1	prier	
2121	1	prise	
2122	1	prière	
2123	1	prochaine	
2124	1	proche	
2125	1	procurer	
2126	1	procédé	
2127	1	prodiguer	
2128	1	produire	
2129	1	produisit	
2130	1	produits	
2131	1	profond	
2132	1	proie	
2133	1	promesse	
2134	1	promesses	
2135	1	promets	
2136	1	promis	
2137	1	prononcer	
2138	1	proposes	
2139	1	prospérités	
2140	1	proteste	
2141	1	prudent	
2142	1	prudente	
2143	1	précieuse	
2144	1	précipitez	
2145	1	préférence	
2146	1	prépariez	
2147	1	présumez	
2148	1	prétexte	
2149	1	prévenir	
2150	1	prévenons	
2151	1	prévenu	
2152	1	prévois	
2153	1	prévoyance	
2154	1	prête	
2155	1	prêtez	
2156	1	publique	
2157	1	puissantes	
2158	1	punis	
2159	1	punisse	
2160	1	punit	
2161	1	pure	
2162	1	purs	
2163	1	pus	
2164	1	pâle	
2165	1	pâlir	
2166	1	péris	
2167	1	périt	
2168	1	quelquefois	
2169	1	quitter	
2170	1	quitté	
2171	1	race	
2172	1	races	
2173	1	raisonnable	
2174	1	rallumer	
2175	1	rappeler	
2176	1	rappelez	
2177	1	rappelés	
2178	1	rapporté	
2179	1	ravirez	
2180	1	ravoir	
2181	1	rayonnant	
2182	1	rebelle	
2183	1	recevrai	
2184	1	reconnaissez	
2185	1	reconnue	
2186	1	reculer	
2187	1	redemandez	
2188	1	redire	
2189	1	redouble	
2190	1	redoutables	
2191	1	redoute	
2192	1	redouter	
2193	1	referma	
2194	1	refleurir	
2195	1	refuse	
2196	1	refuser	
2197	1	refusez	
2198	1	refusons	
2199	1	regards	
2200	1	rejeta	
2201	1	relevez	
2202	1	relâche	
2203	1	relâcher	
2204	1	remarque	
2205	1	remet	
2206	1	remonter	
2207	1	rempli	
2208	1	remplir	
2209	1	remplisse	
2210	1	rencontrerez	
2211	1	rendant	
2212	1	rendirent	
2213	1	rendons	
2214	1	rendra	
2215	1	rendrait	
2216	1	rendus	
2217	1	renommés	
2218	1	renonce	
2219	1	renoncer	
2220	1	rentrez	
2221	1	renverser	
2222	1	repentira	
2223	1	reposait	
2224	1	reposer	
2225	1	repousser	
2226	1	reprenez	
2227	1	reprocherai	
2228	1	reproché	
2229	1	requête	
2230	1	respectueuse	
2231	1	respecté	
2232	1	respire	
2233	1	ressent	
2234	1	ressenti	
2235	1	ressentiment	
2236	1	resserrer	
2237	1	retardement	
2238	1	retenu	
2239	1	retira	
2240	1	retirer	
2241	1	retourner	
2242	1	retournera	
2243	1	retracent	
2244	1	retraite	
2245	1	retrancher	
2246	1	reviens	
2247	1	revête	
2248	1	revêtu	
2249	1	reçue	
2250	1	reçus	
2251	1	reçut	
2252	1	rigoureux	
2253	1	rocher	
2254	1	rompre	
2255	1	rompu	
2256	1	rougissez	
2257	1	rougit	
2258	1	royal	
2259	1	ruse	
2260	1	règle	
2261	1	récit	
2262	1	réduisez	
2263	1	réduite	
2264	1	régir	
2265	1	régler	
2266	1	réglé	
2267	1	régnera	
2268	1	répandaient	
2269	1	répandant	
2270	1	répande	
2271	1	réparent	
2272	1	réparez	
2273	1	répliquai	
2274	1	répondent	
2275	1	répondez	
2276	1	répugnez	
2277	1	réside	
2278	1	résistance	
2279	1	résolut	
2280	1	résulte	
2281	1	réveille	
2282	1	révolutions	
2283	1	révoquent	
2284	1	révéler	
2285	1	révérez	
2286	1	rênes	
2287	1	sachez	
2288	1	sacrifier	
2289	1	sacrifié	
2290	1	sagement	
2291	1	saisie	
2292	1	saisisse	
2293	1	salle	
2294	1	sanglantes	
2295	1	sanglants	
2296	1	satisfaite	
2297	1	saurai	
2298	1	saurait	
2299	1	sauras	
2300	1	sauriez	
2301	1	sauvant	
2302	1	sauverez	
2303	1	sauvez	
2304	1	savais	
2305	1	savants	
2306	1	savent	
2307	1	secondait	
2308	1	secondant	
2309	1	secondera	
2310	1	semant	
2311	1	sensiblement	
2312	1	sent	
2313	1	sente	
2314	1	sentir	
2315	1	serait	
2316	1	sereins	
2317	1	serments	
2318	1	serons	
2319	1	sert	
2320	1	servant	
2321	1	services	
2322	1	servira	
2323	1	seuls	
2324	1	sexe	
2325	1	sienne	
2326	1	signe	
2327	1	signés	
2328	1	sil	
2329	1	simples	
2330	1	sincérité	
2331	1	sinistre	
2332	1	siècle	
2333	1	siècles	
2334	1	sois	
2335	1	soleil	
2336	1	songeait	
2337	1	sors	
2338	1	sortent	
2339	1	sortir	
2340	1	soudain	
2341	1	soudainement	
2342	1	souffert	
2343	1	soufferts	
2344	1	souffre	
2345	1	souhaitait	
2346	1	souhaite	
2347	1	souhaiter	
2348	1	souhaits	
2349	1	souillé	
2350	1	soulager	
2351	1	soupirez	
2352	1	soupçonner	
2353	1	soupçons	
2354	1	soutenu	
2355	1	souvenant	
2356	1	souveraines	
2357	1	souvient	
2358	1	su	
2359	1	subirons	
2360	1	subjugua	
2361	1	subjugués	
2362	1	subtile	
2363	1	successeur	
2364	1	succomber	
2365	1	succède	
2366	1	suffira	
2367	1	suivie	
2368	1	suivis	
2369	1	suivons	
2370	1	suivrai	
2371	1	superbes	
2372	1	superflu	
2373	1	supplanté	
2374	1	supplices	
2375	1	supplie	
2376	1	suppliez	
2377	1	suppléez	
2378	1	supposer	
2379	1	surmonte	
2380	1	surmonté	
2381	1	surprend	
2382	1	surprendre	
2383	1	surprenez	
2384	1	surprit	
2385	1	surtout	
2386	1	survis	
2387	1	survivez	
2388	1	suspect	
2389	1	suspende	
2390	1	suspendu	
2391	1	sut	
2392	1	syriens	
2393	1	sévère	
2394	1	tableau	
2395	1	taire	
2396	1	taisez	
2397	1	teinte	
2398	1	teintes	
2399	1	tels	
2400	1	temple	
2401	1	temples	
2402	1	tempête	
2403	1	tenaient	
2404	1	tenant	
2405	1	tendrement	
2406	1	tendresse	
2407	1	tendresses	
2408	1	tenir	
2409	1	tente	
2410	1	tentez	
2411	1	tenu	
2412	1	termineront	
2413	1	teste	
2414	1	tiendront	
2415	1	tiens	
2416	1	tire	
2417	1	tolérance	
2418	1	tombeaux	
2419	1	tombé	
2420	1	tonnerre	
2421	1	torrent	
2422	1	touchés	
2423	1	tourments	
2424	1	tracent	
2425	1	trahi	
2426	1	trahie	
2427	1	trahissant	
2428	1	trahit	
2429	1	traite	
2430	1	traitement	
2431	1	traitez	
2432	1	tranche	
2433	1	transport	
2434	1	travaille	
2435	1	tremblant	
2436	1	tremblez	
2437	1	tribut	
2438	1	triompha	
2439	1	triomphaient	
2440	1	triomphait	
2441	1	triomphes	
2442	1	tristes	
2443	1	trompa	
2444	1	trompe	
2445	1	trompé	
2446	1	trompée	
2447	1	trompés	
2448	1	trophées	
2449	1	troubler	
2450	1	troublez	
2451	1	troublé	
2452	1	trouverai	
2453	1	tyr	
2454	1	témoigne	
2455	1	témoigner	
2456	1	ténèbres	
2457	1	têtes	
2458	1	unie	
2459	1	union	
2460	1	unira	
2461	1	usage	
2462	1	usez	
2463	1	usurpa	
2464	1	usurpateurs	
2465	1	usurper	
2466	1	usurpée	
2467	1	vaillance	
2468	1	vaillants	
2469	1	vaincus	
2470	1	vaines	
2471	1	vainqueurs	
2472	1	vains	
2473	1	valeureuse	
2474	1	vas	
2475	1	vassal	
2476	1	veille	
2477	1	venait	
2478	1	vengent	
2479	1	vengeons	
2480	1	vengeur	
2481	1	vengeurs	
2482	1	vengée	
2483	1	venue	
2484	1	verrais	
2485	1	verras	
2486	1	verrous	
2487	1	verse	
2488	1	veuve	
2489	1	vices	
2490	1	victimes	
2491	1	victorieux	
2492	1	vienne	
2493	1	viennent	
2494	1	vigoureux	
2495	1	vigueur	
2496	1	ville	
2497	1	vint	
2498	1	violés	
2499	1	virent	
2500	1	visages	
2501	1	visiblement	
2502	1	vivait	
2503	1	volonté	
2504	1	volé	
2505	1	vomi	
2506	1	voudrait	
2507	1	voulais	
2508	1	vouloir	
2509	1	voulons	
2510	1	voyons	
2511	1	vue	
2512	1	vulgaire	
2513	1	vérité	
2514	1	zenophire	
2515	1	éblouir	
2516	1	éblouit	
2517	1	ébranler	
2518	1	échafaud	
2519	1	éclair	
2520	1	éclaircit	
2521	1	éclata	
2522	1	écouter	
2523	1	écrie	
2524	1	écrits	
2525	1	écriture	
2526	1	écueil	
2527	1	égaux	
2528	1	élance	
2529	1	éloigner	
2530	1	émouvoir	
2531	1	émue	
2532	1	épargnait	
2533	1	épargne	
2534	1	épargner	
2535	1	épars	
2536	1	épousa	
2537	1	épouvantable	
2538	1	éprouvera	
2539	1	éprouvez	
2540	1	épée	
2541	1	équitable	
2542	1	équité	
2543	1	établir	
2544	1	établit	
2545	1	étaient	
2546	1	étaler	
2547	1	éteindront	
2548	1	éteints	
2549	1	étend	
2550	1	étende	
2551	1	éternel	
2552	1	étonné	
2553	1	étouffa	
2554	1	étouffer	
2555	1	étouffez	
2556	1	étouffées	
2557	1	étranges	
2558	1	étude	
2559	1	éventer	
2560	1	évite	
2561	1	éviter	
2562	1	ôter	
2563	1	ôté	
