#Word Types: 2848
#Word Tokens: 16626
#Search Hits: 0
1	571	de	
2	384	que	
3	357	et	
4	342	en	
5	279	à	
6	278	qu	
7	262	je	
8	237	l	
9	232	un	
10	228	le	
11	224	d	
12	203	est	
13	200	ne	
14	186	il	
15	183	vous	
16	182	la	
17	181	ce	
18	168	n	
19	154	tu	
20	151	qui	
21	145	si	
22	137	pour	
23	135	me	
24	125	a	
25	120	ma	
26	117	m	
27	111	plus	
28	110	les	
29	110	mon	
30	101	j	
31	99	une	
32	98	te	
33	93	son	
34	89	mais	
35	89	pas	
36	81	elle	
37	75	tout	
38	74	bien	
39	74	t	
40	72	moi	
41	71	sa	
42	66	c	
43	66	par	
44	64	s	
45	63	ton	
46	62	lui	
47	61	mes	
48	61	on	
49	60	des	
50	60	se	
51	59	trop	
52	57	du	
53	57	nous	
54	55	mélite	
55	55	sans	
56	54	ces	
57	51	amour	
58	51	cette	
59	51	fait	
60	50	ai	
61	50	point	
62	48	autre	
63	48	peu	
64	48	ta	
65	48	votre	
66	46	au	
67	45	dans	
68	44	sur	
69	43	avec	
70	42	peut	
71	42	rien	
72	42	veux	
73	38	coeur	
74	37	ses	
75	37	tous	
76	36	ainsi	
77	36	tes	
78	36	être	
79	35	quelque	
80	35	quoi	
81	35	tant	
82	34	donc	
83	33	deux	
84	33	leur	
85	33	ont	
86	33	y	
87	33	yeux	
88	32	faut	
89	31	toi	
90	31	vos	
91	30	aux	
92	30	jamais	
93	30	mieux	
94	30	ou	
95	30	voir	
96	29	philandre	
97	29	âme	
98	28	comme	
99	27	dont	
100	27	ils	
101	27	moins	
102	27	même	
103	27	tircis	
104	26	là	
105	25	leurs	
106	24	frère	
107	24	sais	
108	24	sont	
109	23	nos	
110	23	raison	
111	22	après	
112	22	dis	
113	22	eraste	
114	22	esprit	
115	22	faire	
116	22	où	
117	21	flamme	
118	21	suis	
119	20	adieu	
120	20	belle	
121	20	fort	
122	19	amant	
123	19	mal	
124	19	peine	
125	19	soeur	
126	19	visage	
127	18	aime	
128	18	assez	
129	18	crois	
130	17	ah	
131	17	avoir	
132	17	foi	
133	17	non	
134	16	chloris	
135	16	dieux	
136	16	discours	
137	16	effet	
138	16	encore	
139	16	jour	
140	16	vain	
141	15	aussi	
142	15	courage	
143	15	dire	
144	15	fois	
145	15	jusqu	
146	15	quand	
147	15	vois	
148	15	vu	
149	14	beauté	
150	14	feux	
151	14	main	
152	14	mérite	
153	14	puis	
154	14	rendre	
155	14	sens	
156	14	seul	
157	14	temps	
158	13	affection	
159	13	ami	
160	13	donne	
161	13	doux	
162	13	déjà	
163	13	encor	
164	13	ici	
165	13	maîtresse	
166	13	vie	
167	12	aimer	
168	12	cet	
169	12	mort	
170	12	prendre	
171	12	rend	
172	12	soit	
173	12	sujet	
174	12	toute	
175	12	traits	
176	12	va	
177	12	était	
178	11	cela	
179	11	celle	
180	11	dit	
181	11	douleur	
182	11	entre	
183	11	feu	
184	11	joie	
185	11	laisse	
186	11	malgré	
187	11	mépris	
188	11	objet	
189	11	oui	
190	11	parler	
191	11	part	
192	11	peux	
193	11	sois	
194	11	su	
195	11	toujours	
196	11	vaut	
197	11	vers	
198	11	voit	
199	10	amitié	
200	10	avant	
201	10	chose	
202	10	ciel	
203	10	devoir	
204	10	ensemble	
205	10	faux	
206	10	faveur	
207	10	homme	
208	10	humeur	
209	10	lieu	
210	10	mot	
211	10	sort	
212	10	tel	
213	10	tient	
214	10	vient	
215	10	vrai	
216	9	afin	
217	9	as	
218	9	autant	
219	9	avez	
220	9	avis	
221	9	ayant	
222	9	bientôt	
223	9	bon	
224	9	bonne	
225	9	cependant	
226	9	cherche	
227	9	choix	
228	9	grand	
229	9	grâce	
230	9	lettres	
231	9	malheur	
232	9	moment	
233	9	monsieur	
234	9	mère	
235	9	perdre	
236	9	puisque	
237	9	quel	
238	9	sonnet	
239	9	sorte	
240	9	tenir	
241	9	tiens	
242	9	voeux	
243	9	voilà	
244	9	voyez	
245	8	ailleurs	
246	8	ans	
247	8	appas	
248	8	auprès	
249	8	beau	
250	8	bonheur	
251	8	ceux	
252	8	chez	
253	8	contre	
254	8	coup	
255	8	demi	
256	8	donner	
257	8	enfer	
258	8	enfin	
259	8	eût	
260	8	fera	
261	8	heure	
262	8	heureux	
263	8	jours	
264	8	meilleur	
265	8	oeil	
266	8	parole	
267	8	passe	
268	8	pense	
269	8	place	
270	8	pouvoir	
271	8	prends	
272	8	pris	
273	8	quelques	
274	8	rival	
275	8	semble	
276	8	seulement	
277	8	sous	
278	8	souvenir	
279	8	toutefois	
280	8	veut	
281	8	viens	
282	8	volage	
283	8	étant	
284	8	ô	
285	7	adresse	
286	7	ait	
287	7	amours	
288	7	ardeur	
289	7	avais	
290	7	bouche	
291	7	cause	
292	7	connais	
293	7	conte	
294	7	croire	
295	7	depuis	
296	7	doit	
297	7	donnez	
298	7	désormais	
299	7	entretien	
300	7	envie	
301	7	excès	
302	7	fais	
303	7	faveurs	
304	7	font	
305	7	fût	
306	7	honte	
307	7	infidèle	
308	7	intérêt	
309	7	jaloux	
310	7	lettre	
311	7	mettre	
312	7	nom	
313	7	parle	
314	7	quelle	
315	7	sang	
316	7	seule	
317	7	souffrir	
318	7	supplice	
319	7	toutes	
320	7	trouve	
321	7	vérité	
322	7	éclat	
323	7	êtes	
324	6	affaire	
325	6	aller	
326	6	allons	
327	6	apparence	
328	6	apprends	
329	6	assurance	
330	6	attraits	
331	6	aucun	
332	6	avait	
333	6	beaucoup	
334	6	celui	
335	6	change	
336	6	chaque	
337	6	cliton	
338	6	crime	
339	6	dedans	
340	6	dois	
341	6	doute	
342	6	es	
343	6	espérance	
344	6	fin	
345	6	froideur	
346	6	honneur	
347	6	juger	
348	6	lieux	
349	6	loin	
350	6	mains	
351	6	maintenant	
352	6	met	
353	6	mine	
354	6	monde	
355	6	mots	
356	6	mourir	
357	6	notre	
358	6	nourrice	
359	6	nouveau	
360	6	oblige	
361	6	offense	
362	6	pardon	
363	6	passion	
364	6	porte	
365	6	puisse	
366	6	quitte	
367	6	regards	
368	6	regret	
369	6	reçu	
370	6	rire	
371	6	savoir	
372	6	secours	
373	6	servir	
374	6	soucis	
375	6	teint	
376	6	telle	
377	6	tour	
378	6	traître	
379	6	trouver	
380	6	tête	
381	6	vais	
382	6	vue	
383	5	aimant	
384	5	alors	
385	5	amants	
386	5	attendre	
387	5	aujourd	
388	5	aura	
389	5	aurait	
390	5	aussitôt	
391	5	bas	
392	5	beaux	
393	5	biens	
394	5	bout	
395	5	brûle	
396	5	car	
397	5	changer	
398	5	charmant	
399	5	cher	
400	5	coeurs	
401	5	crains	
402	5	davantage	
403	5	demeure	
404	5	dessein	
405	5	dites	
406	5	donnent	
407	5	douleurs	
408	5	dépens	
409	5	désespoir	
410	5	désirs	
411	5	effort	
412	5	entends	
413	5	esprits	
414	5	femme	
415	5	fille	
416	5	force	
417	5	fou	
418	5	fuite	
419	5	guérir	
420	5	hui	
421	5	insensible	
422	5	juste	
423	5	justice	
424	5	liberté	
425	5	loisir	
426	5	lumière	
427	5	maux	
428	5	mien	
429	5	mille	
430	5	montre	
431	5	ni	
432	5	parfait	
433	5	penser	
434	5	perdu	
435	5	permis	
436	5	plaindre	
437	5	plaît	
438	5	propos	
439	5	puisqu	
440	5	quitter	
441	5	raisons	
442	5	rapport	
443	5	reproche	
444	5	respect	
445	5	saurais	
446	5	sentiments	
447	5	serait	
448	5	sitôt	
449	5	soi	
450	5	soins	
451	5	souffre	
452	5	souvent	
453	5	succès	
454	5	tantôt	
455	5	trahison	
456	5	triste	
457	5	tôt	
458	5	voici	
459	5	voyant	
460	5	âmes	
461	5	égal	
462	5	épée	
463	5	état	
464	4	accorde	
465	4	achève	
466	4	adore	
467	4	air	
468	4	amis	
469	4	amoureux	
470	4	appris	
471	4	assurer	
472	4	assuré	
473	4	attend	
474	4	aurai	
475	4	aurais	
476	4	auteur	
477	4	autres	
478	4	autrui	
479	4	aveu	
480	4	billet	
481	4	caron	
482	4	chacun	
483	4	commun	
484	4	consentir	
485	4	contents	
486	4	contrainte	
487	4	couleur	
488	4	coups	
489	4	crimes	
490	4	croit	
491	4	côté	
492	4	digne	
493	4	douces	
494	4	dédain	
495	4	défauts	
496	4	dépit	
497	4	eh	
498	4	emporte	
499	4	ennemi	
500	4	espoir	
501	4	fausse	
502	4	fausses	
503	4	fidèle	
504	4	fidélité	
505	4	fond	
506	4	forte	
507	4	fourbe	
508	4	fut	
509	4	gagné	
510	4	glace	
511	4	heur	
512	4	honteux	
513	4	hymen	
514	4	hélas	
515	4	importune	
516	4	infidélité	
517	4	issue	
518	4	jalousie	
519	4	laissez	
520	4	lire	
521	4	lois	
522	4	longtemps	
523	4	malheureux	
524	4	moitié	
525	4	montrer	
526	4	moyen	
527	4	naître	
528	4	nouvelle	
529	4	occasion	
530	4	orgueil	
531	4	ose	
532	4	oses	
533	4	passions	
534	4	passé	
535	4	pensez	
536	4	perds	
537	4	pieds	
538	4	pitié	
539	4	plaire	
540	4	plaisir	
541	4	pleins	
542	4	pluton	
543	4	plutôt	
544	4	pourrais	
545	4	pourrait	
546	4	premier	
547	4	presque	
548	4	promis	
549	4	présence	
550	4	pu	
551	4	puissants	
552	4	puissent	
553	4	remettre	
554	4	remords	
555	4	rends	
556	4	repos	
557	4	reste	
558	4	rigueur	
559	4	sait	
560	4	saurait	
561	4	savez	
562	4	sensible	
563	4	sera	
564	4	serais	
565	4	service	
566	4	souci	
567	4	soudain	
568	4	tellement	
569	4	telles	
570	4	touche	
571	4	trouvé	
572	4	trêve	
573	4	tâche	
574	4	témoins	
575	4	vanité	
576	4	venge	
577	4	venger	
578	4	voix	
579	4	voulez	
580	4	ébranler	
581	4	étonne	
582	4	été	
583	3	abuse	
584	3	accident	
585	3	accord	
586	3	admirable	
587	3	affections	
588	3	aimable	
589	3	aimé	
590	3	alecton	
591	3	allez	
592	3	appelle	
593	3	apprendre	
594	3	ardeurs	
595	3	arracher	
596	3	aspect	
597	3	aucune	
598	3	auparavant	
599	3	beautés	
600	3	besoin	
601	3	blâme	
602	3	bons	
603	3	cervelle	
604	3	charme	
605	3	chéris	
606	3	chérit	
607	3	cieux	
608	3	colère	
609	3	compliments	
610	3	confesse	
611	3	consoler	
612	3	content	
613	3	contraire	
614	3	corps	
615	3	couler	
616	3	crainte	
617	3	criminel	
618	3	croyais	
619	3	curiosité	
620	3	dangereux	
621	3	demander	
622	3	dessus	
623	3	destins	
624	3	devient	
625	3	don	
626	3	donnera	
627	3	donné	
628	3	douceurs	
629	3	durée	
630	3	dès	
631	3	dédains	
632	3	défiance	
633	3	déloyauté	
634	3	démentir	
635	3	déplaisir	
636	3	déplorable	
637	3	dépêche	
638	3	désir	
639	3	désordre	
640	3	efforts	
641	3	empire	
642	3	enfers	
643	3	entendre	
644	3	entière	
645	3	entrer	
646	3	erreur	
647	3	examine	
648	3	extrême	
649	3	facile	
650	3	faible	
651	3	faibles	
652	3	fallait	
653	3	faute	
654	3	favorable	
655	3	feindre	
656	3	filles	
657	3	flatter	
658	3	forfait	
659	3	foudre	
660	3	frayeurs	
661	3	froideurs	
662	3	front	
663	3	gage	
664	3	garde	
665	3	grande	
666	3	grands	
667	3	grâces	
668	3	guérison	
669	3	hasard	
670	3	hommes	
671	3	hyménée	
672	3	importe	
673	3	imposteur	
674	3	imposture	
675	3	jadis	
676	3	jeux	
677	3	jugement	
678	3	laissant	
679	3	langue	
680	3	larmes	
681	3	libre	
682	3	loi	
683	3	longue	
684	3	lors	
685	3	lorsque	
686	3	léger	
687	3	légère	
688	3	malheurs	
689	3	manque	
690	3	martyre	
691	3	mauvais	
692	3	mis	
693	3	misérable	
694	3	moindre	
695	3	mouvements	
696	3	nouveaux	
697	3	néglige	
698	3	offrir	
699	3	outre	
700	3	paraître	
701	3	parjure	
702	3	parmi	
703	3	passage	
704	3	pauvre	
705	3	peines	
706	3	pensée	
707	3	perd	
708	3	perfide	
709	3	personne	
710	3	persévérance	
711	3	peur	
712	3	plaisirs	
713	3	plein	
714	3	porter	
715	3	portrait	
716	3	prenant	
717	3	prend	
718	3	presse	
719	3	promets	
720	3	promettre	
721	3	prompt	
722	3	propre	
723	3	précieux	
724	3	présent	
725	3	prétendre	
726	3	prétends	
727	3	puissance	
728	3	punir	
729	3	pût	
730	3	quart	
731	3	quittez	
732	3	rang	
733	3	rare	
734	3	ravir	
735	3	reconnais	
736	3	reconnaître	
737	3	remarque	
738	3	repentir	
739	3	ressens	
740	3	retour	
741	3	reviens	
742	3	riche	
743	3	richesse	
744	3	rigoureux	
745	3	rime	
746	3	récompense	
747	3	rêveur	
748	3	sache	
749	3	sauraient	
750	3	seconde	
751	3	secret	
752	3	sert	
753	3	sexe	
754	3	silence	
755	3	sinon	
756	3	soient	
757	3	sommes	
758	3	sortir	
759	3	soupir	
760	3	soyez	
761	3	suborner	
762	3	suit	
763	3	suivi	
764	3	suivre	
765	3	superflus	
766	3	supposée	
767	3	surprendre	
768	3	sûr	
769	3	terre	
770	3	tienne	
771	3	tort	
772	3	tourments	
773	3	trahir	
774	3	trait	
775	3	trompe	
776	3	trouble	
777	3	trépas	
778	3	unique	
779	3	usage	
780	3	user	
781	3	vaine	
782	3	vainqueur	
783	3	vains	
784	3	vengeance	
785	3	venir	
786	3	vertu	
787	3	violenter	
788	3	voulut	
789	3	voyons	
790	3	vraiment	
791	3	échappé	
792	3	écoute	
793	3	écrit	
794	3	étaient	
795	3	étais	
796	2	abandonne	
797	2	abondance	
798	2	aborder	
799	2	absence	
800	2	absolu	
801	2	accueil	
802	2	accuse	
803	2	accès	
804	2	adorable	
805	2	adoucir	
806	2	affront	
807	2	agir	
808	2	aimables	
809	2	aisément	
810	2	alarme	
811	2	alarmes	
812	2	amène	
813	2	approcher	
814	2	appréhender	
815	2	argent	
816	2	arrêter	
817	2	arrêtez	
818	2	artifice	
819	2	assemble	
820	2	assurée	
821	2	assurément	
822	2	attacher	
823	2	attends	
824	2	attente	
825	2	attrape	
826	2	aucunement	
827	2	auras	
828	2	aurons	
829	2	auront	
830	2	autorise	
831	2	autrefois	
832	2	autrement	
833	2	avaient	
834	2	avenir	
835	2	barbares	
836	2	belles	
837	2	blasphème	
838	2	bras	
839	2	brave	
840	2	brille	
841	2	brûler	
842	2	cacher	
843	2	cachez	
844	2	cachés	
845	2	cajoler	
846	2	caresses	
847	2	cas	
848	2	ceci	
849	2	celer	
850	2	celles	
851	2	cercueil	
852	2	certaine	
853	2	cerveau	
854	2	cesse	
855	2	cessez	
856	2	chaleur	
857	2	changement	
858	2	chaînes	
859	2	chercher	
860	2	chère	
861	2	chérir	
862	2	ciseaux	
863	2	combat	
864	2	combats	
865	2	combien	
866	2	comble	
867	2	comment	
868	2	comparable	
869	2	complaisance	
870	2	compliment	
871	2	compte	
872	2	confidence	
873	2	confus	
874	2	congé	
875	2	connaître	
876	2	connu	
877	2	conquête	
878	2	conserver	
879	2	console	
880	2	contentement	
881	2	contentements	
882	2	conter	
883	2	contrefait	
884	2	conté	
885	2	couleurs	
886	2	courir	
887	2	courroux	
888	2	cours	
889	2	craindre	
890	2	croirai	
891	2	croyance	
892	2	cru	
893	2	cruauté	
894	2	cruel	
895	2	cruelle	
896	2	cède	
897	2	demeurer	
898	2	demeuré	
899	2	derechef	
900	2	dernier	
901	2	destin	
902	2	deviez	
903	2	dextérité	
904	2	diminue	
905	2	diras	
906	2	discret	
907	2	discrétion	
908	2	dispose	
909	2	disposer	
910	2	dissipe	
911	2	distraire	
912	2	divertir	
913	2	donna	
914	2	dorénavant	
915	2	doucement	
916	2	douter	
917	2	droit	
918	2	droits	
919	2	duper	
920	2	déchire	
921	2	dédaigne	
922	2	dédire	
923	2	défendre	
924	2	déguisement	
925	2	déloyale	
926	2	dépend	
927	2	dépourvue	
928	2	détestable	
929	2	déçue	
930	2	dû	
931	2	efforce	
932	2	effroi	
933	2	elles	
934	2	empêche	
935	2	enfants	
936	2	engage	
937	2	ennui	
938	2	entr	
939	2	entreprendre	
940	2	entretiens	
941	2	envers	
942	2	estime	
943	2	estimer	
944	2	eut	
945	2	excuse	
946	2	excusez	
947	2	expose	
948	2	exprès	
949	2	extérieur	
950	2	faisais	
951	2	faites	
952	2	fantaisie	
953	2	fantasque	
954	2	fasse	
955	2	fatal	
956	2	faudra	
957	2	façon	
958	2	feinte	
959	2	ferai	
960	2	ferais	
961	2	flatte	
962	2	flatterie	
963	2	folie	
964	2	folle	
965	2	folles	
966	2	forces	
967	2	forfaits	
968	2	forme	
969	2	fortune	
970	2	franchement	
971	2	frivoles	
972	2	frénésie	
973	2	fuis	
974	2	funeste	
975	2	fureur	
976	2	furie	
977	2	fus	
978	2	galanterie	
979	2	gouverner	
980	2	goût	
981	2	gré	
982	2	guère	
983	2	gêne	
984	2	hasarder	
985	2	haut	
986	2	haïr	
987	2	honteuse	
988	2	hors	
989	2	huit	
990	2	hâtez	
991	2	ignorais	
992	2	illusion	
993	2	imaginaire	
994	2	imagine	
995	2	importance	
996	2	incomparable	
997	2	inconnu	
998	2	indifférence	
999	2	indigne	
1000	2	indignement	
1001	2	injuste	
1002	2	injustement	
1003	2	injustice	
1004	2	inutiles	
1005	2	irai	
1006	2	irrite	
1007	2	irrité	
1008	2	jette	
1009	2	jeunesse	
1010	2	joindre	
1011	2	jouer	
1012	2	joug	
1013	2	jouir	
1014	2	jugez	
1015	2	justes	
1016	2	laisser	
1017	2	langage	
1018	2	liens	
1019	2	logis	
1020	2	longueur	
1021	2	louange	
1022	2	lourd	
1023	2	lus	
1024	2	lâche	
1025	2	légitimes	
1026	2	manques	
1027	2	mari	
1028	2	marque	
1029	2	matière	
1030	2	meilleure	
1031	2	meilleurs	
1032	2	meure	
1033	2	meurt	
1034	2	miens	
1035	2	miracle	
1036	2	mise	
1037	2	mode	
1038	2	monstres	
1039	2	montrent	
1040	2	moque	
1041	2	moqueur	
1042	2	morte	
1043	2	motif	
1044	2	muse	
1045	2	médisance	
1046	2	mélancolie	
1047	2	ménage	
1048	2	mérites	
1049	2	mérité	
1050	2	naissant	
1051	2	noirs	
1052	2	nombre	
1053	2	nouveauté	
1054	2	négligé	
1055	2	o	
1056	2	obligerais	
1057	2	obstine	
1058	2	obtienne	
1059	2	obéir	
1060	2	ombre	
1061	2	ombres	
1062	2	oppose	
1063	2	oracle	
1064	2	osait	
1065	2	osant	
1066	2	oserait	
1067	2	oubli	
1068	2	oubliant	
1069	2	ouvre	
1070	2	paraît	
1071	2	pardonne	
1072	2	pardonnerez	
1073	2	parfaite	
1074	2	parques	
1075	2	partie	
1076	2	partis	
1077	2	partout	
1078	2	passer	
1079	2	passée	
1080	2	passés	
1081	2	patience	
1082	2	payer	
1083	2	perdant	
1084	2	perdent	
1085	2	perdus	
1086	2	persuader	
1087	2	petit	
1088	2	plains	
1089	2	plaintes	
1090	2	plaisant	
1091	2	plonge	
1092	2	plume	
1093	2	poids	
1094	2	possesseur	
1095	2	possible	
1096	2	possède	
1097	2	posséder	
1098	2	pourquoi	
1099	2	pourraient	
1100	2	pourriez	
1101	2	pousser	
1102	2	presser	
1103	2	preuves	
1104	2	prie	
1105	2	prix	
1106	2	promesse	
1107	2	promesses	
1108	2	promptement	
1109	2	propres	
1110	2	proserpine	
1111	2	près	
1112	2	prépare	
1113	2	préparent	
1114	2	présumez	
1115	2	prétexte	
1116	2	prévu	
1117	2	prêt	
1118	2	pudeur	
1119	2	qualités	
1120	2	quant	
1121	2	quelqu	
1122	2	quiconque	
1123	2	rage	
1124	2	rappelle	
1125	2	rarement	
1126	2	rares	
1127	2	ravie	
1128	2	rebelle	
1129	2	recevoir	
1130	2	rechercher	
1131	2	redouter	
1132	2	refuse	
1133	2	regard	
1134	2	regarde	
1135	2	regardez	
1136	2	relevez	
1137	2	remplir	
1138	2	remède	
1139	2	rencontre	
1140	2	rende	
1141	2	rendez	
1142	2	rendu	
1143	2	rentre	
1144	2	repentirs	
1145	2	ressentiment	
1146	2	ressentiments	
1147	2	revancher	
1148	2	revivre	
1149	2	revoir	
1150	2	reçoit	
1151	2	reçus	
1152	2	rit	
1153	2	rivage	
1154	2	rompre	
1155	2	ruse	
1156	2	rusé	
1157	2	règle	
1158	2	réduire	
1159	2	répond	
1160	2	réponde	
1161	2	répondre	
1162	2	rêverie	
1163	2	sachant	
1164	2	sachez	
1165	2	sage	
1166	2	sainte	
1167	2	salaire	
1168	2	saura	
1169	2	saurai	
1170	2	sauront	
1171	2	secrètes	
1172	2	semblant	
1173	2	signes	
1174	2	sincère	
1175	2	soeurs	
1176	2	soin	
1177	2	soir	
1178	2	solide	
1179	2	sortant	
1180	2	souffrance	
1181	2	souhaite	
1182	2	soupirs	
1183	2	soutient	
1184	2	souverain	
1185	2	splendeur	
1186	2	suborneur	
1187	2	subtilité	
1188	2	suffit	
1189	2	suivie	
1190	2	sujets	
1191	2	supercherie	
1192	2	supplie	
1193	2	surpris	
1194	2	sut	
1195	2	taire	
1196	2	tais	
1197	2	tandis	
1198	2	tard	
1199	2	tels	
1200	2	tenait	
1201	2	tendresses	
1202	2	tien	
1203	2	tiendrait	
1204	2	tiennent	
1205	2	tirer	
1206	2	tisiphone	
1207	2	tombeau	
1208	2	touchant	
1209	2	toucher	
1210	2	tourner	
1211	2	trahisons	
1212	2	traite	
1213	2	traitement	
1214	2	trembler	
1215	2	trompé	
1216	2	troubler	
1217	2	trouvent	
1218	2	truchements	
1219	2	trésor	
1220	2	témoignage	
1221	2	usurpée	
1222	2	vaines	
1223	2	valait	
1224	2	venez	
1225	2	vengez	
1226	2	verra	
1227	2	verras	
1228	2	verrons	
1229	2	veuille	
1230	2	vieux	
1231	2	vit	
1232	2	vivant	
1233	2	vivre	
1234	2	voeu	
1235	2	volontés	
1236	2	vont	
1237	2	voudrait	
1238	2	voulais	
1239	2	véritable	
1240	2	vôtre	
1241	2	éblouir	
1242	2	échappe	
1243	2	écrits	
1244	2	égale	
1245	2	épouser	
1246	2	éviter	
1247	1	abaissé	
1248	1	abandon	
1249	1	abandonner	
1250	1	abattus	
1251	1	abject	
1252	1	aborda	
1253	1	abréger	
1254	1	absolue	
1255	1	abîmes	
1256	1	abîmé	
1257	1	accable	
1258	1	accablée	
1259	1	accablés	
1260	1	acceptant	
1261	1	accepter	
1262	1	accommode	
1263	1	accommoder	
1264	1	accompagner	
1265	1	accomplie	
1266	1	accorder	
1267	1	accordez	
1268	1	accords	
1269	1	achever	
1270	1	achète	
1271	1	acier	
1272	1	aconit	
1273	1	acquitte	
1274	1	action	
1275	1	actions	
1276	1	admira	
1277	1	adorables	
1278	1	adroite	
1279	1	adroitement	
1280	1	affaires	
1281	1	affermi	
1282	1	affiner	
1283	1	affligent	
1284	1	affreux	
1285	1	affronter	
1286	1	affété	
1287	1	agit	
1288	1	agité	
1289	1	agréable	
1290	1	agréer	
1291	1	aidant	
1292	1	aide	
1293	1	aidera	
1294	1	aidez	
1295	1	aidés	
1296	1	aigrir	
1297	1	aimais	
1298	1	aimerai	
1299	1	aimerais	
1300	1	aimez	
1301	1	aimons	
1302	1	aise	
1303	1	aisé	
1304	1	aisés	
1305	1	alcide	
1306	1	alliance	
1307	1	allumait	
1308	1	allumer	
1309	1	allumé	
1310	1	allée	
1311	1	allégresses	
1312	1	amante	
1313	1	ambitieux	
1314	1	ambition	
1315	1	aminte	
1316	1	amorce	
1317	1	amusai	
1318	1	amuse	
1319	1	apaise	
1320	1	apaisez	
1321	1	aperçois	
1322	1	aperçu	
1323	1	apprenez	
1324	1	apprenti	
1325	1	approche	
1326	1	apprête	
1327	1	appât	
1328	1	ardemment	
1329	1	aristandre	
1330	1	arrivait	
1331	1	arrive	
1332	1	arriver	
1333	1	arrivé	
1334	1	arrivée	
1335	1	arrête	
1336	1	arrêté	
1337	1	arrêtée	
1338	1	artifices	
1339	1	aspire	
1340	1	aspirer	
1341	1	assaillent	
1342	1	assassiner	
1343	1	assassiné	
1344	1	assauts	
1345	1	assidues	
1346	1	assouvie	
1347	1	assouvir	
1348	1	assure	
1349	1	attachant	
1350	1	attachés	
1351	1	atteint	
1352	1	atteinte	
1353	1	attendait	
1354	1	attendra	
1355	1	attendrai	
1356	1	attendri	
1357	1	attenté	
1358	1	attrapé	
1359	1	audace	
1360	1	augmente	
1361	1	augmenter	
1362	1	aurez	
1363	1	aurions	
1364	1	autorisent	
1365	1	autorité	
1366	1	avance	
1367	1	avanceront	
1368	1	avancé	
1369	1	avantage	
1370	1	avantageux	
1371	1	avançant	
1372	1	avarice	
1373	1	aventure	
1374	1	avenu	
1375	1	aversion	
1376	1	avertir	
1377	1	aveugle	
1378	1	aveuglement	
1379	1	aveugles	
1380	1	aviron	
1381	1	avise	
1382	1	aviserons	
1383	1	avons	
1384	1	avoue	
1385	1	babil	
1386	1	badinages	
1387	1	balance	
1388	1	balancé	
1389	1	banni	
1390	1	bannie	
1391	1	bannir	
1392	1	barbare	
1393	1	barque	
1394	1	bateau	
1395	1	battu	
1396	1	bel	
1397	1	bienheureuses	
1398	1	bienséance	
1399	1	billets	
1400	1	blessée	
1401	1	blâmer	
1402	1	blême	
1403	1	bond	
1404	1	bonté	
1405	1	bord	
1406	1	bords	
1407	1	bornes	
1408	1	bornée	
1409	1	bouillant	
1410	1	bouillante	
1411	1	bravade	
1412	1	brillants	
1413	1	brisera	
1414	1	brisons	
1415	1	brouilla	
1416	1	brouillent	
1417	1	brouiller	
1418	1	bruit	
1419	1	brune	
1420	1	brûlais	
1421	1	but	
1422	1	bâtiments	
1423	1	bâtis	
1424	1	cabinet	
1425	1	cache	
1426	1	cachons	
1427	1	cachots	
1428	1	caché	
1429	1	cadence	
1430	1	cajoleur	
1431	1	cajolée	
1432	1	calomnier	
1433	1	caprice	
1434	1	caprices	
1435	1	caractères	
1436	1	caressé	
1437	1	carrefour	
1438	1	causeuse	
1439	1	causé	
1440	1	cavalier	
1441	1	ceignent	
1442	1	celé	
1443	1	censeur	
1444	1	cent	
1445	1	cerbère	
1446	1	cervelles	
1447	1	chagrin	
1448	1	chagrine	
1449	1	champs	
1450	1	chancelle	
1451	1	changeant	
1452	1	changera	
1453	1	changerai	
1454	1	chanson	
1455	1	chargeons	
1456	1	charger	
1457	1	chargé	
1458	1	charmants	
1459	1	charmes	
1460	1	charmé	
1461	1	charmée	
1462	1	chaste	
1463	1	chastes	
1464	1	chaîne	
1465	1	chemin	
1466	1	cherchais	
1467	1	cherchait	
1468	1	cherchent	
1469	1	chers	
1470	1	cheval	
1471	1	cheveux	
1472	1	chien	
1473	1	chimères	
1474	1	choisi	
1475	1	choisie	
1476	1	choisir	
1477	1	choisit	
1478	1	chrysolithe	
1479	1	châtiments	
1480	1	chéri	
1481	1	chérissons	
1482	1	ci	
1483	1	civilités	
1484	1	clair	
1485	1	clairement	
1486	1	clarté	
1487	1	coin	
1488	1	combles	
1489	1	commandement	
1490	1	commander	
1491	1	commence	
1492	1	commode	
1493	1	communément	
1494	1	compagnie	
1495	1	compatir	
1496	1	complaire	
1497	1	concevoir	
1498	1	concurrence	
1499	1	condition	
1500	1	conduit	
1501	1	conduite	
1502	1	confiance	
1503	1	confirmer	
1504	1	confond	
1505	1	confondre	
1506	1	confusion	
1507	1	conjectures	
1508	1	conjugal	
1509	1	conjure	
1510	1	connaissance	
1511	1	connaissant	
1512	1	connaissez	
1513	1	connus	
1514	1	conseils	
1515	1	consens	
1516	1	consente	
1517	1	consentement	
1518	1	consenti	
1519	1	conserve	
1520	1	conservez	
1521	1	considérable	
1522	1	considéré	
1523	1	constance	
1524	1	constant	
1525	1	consultez	
1526	1	consume	
1527	1	conséquence	
1528	1	contemple	
1529	1	contente	
1530	1	contenter	
1531	1	contentez	
1532	1	conteur	
1533	1	contez	
1534	1	continuez	
1535	1	contraintes	
1536	1	contrepoids	
1537	1	contretemps	
1538	1	convaincrait	
1539	1	convie	
1540	1	coquette	
1541	1	corrompu	
1542	1	cou	
1543	1	couché	
1544	1	coupable	
1545	1	courent	
1546	1	courte	
1547	1	courtoisie	
1548	1	couvre	
1549	1	coûte	
1550	1	coûterait	
1551	1	coûté	
1552	1	craignant	
1553	1	craigne	
1554	1	craindra	
1555	1	craint	
1556	1	craintes	
1557	1	creux	
1558	1	cris	
1559	1	croie	
1560	1	croirez	
1561	1	croisés	
1562	1	croyables	
1563	1	croyaient	
1564	1	cruautés	
1565	1	cruelles	
1566	1	crut	
1567	1	crédit	
1568	1	crédule	
1569	1	crédules	
1570	1	crédulité	
1571	1	cuisine	
1572	1	curieuse	
1573	1	curieux	
1574	1	côtés	
1575	1	daigne	
1576	1	daignent	
1577	1	damnable	
1578	1	damon	
1579	1	danger	
1580	1	demain	
1581	1	demande	
1582	1	demeures	
1583	1	denier	
1584	1	dent	
1585	1	dernière	
1586	1	derrière	
1587	1	descendirent	
1588	1	descendue	
1589	1	desseins	
1590	1	dessillez	
1591	1	dessous	
1592	1	destinés	
1593	1	devait	
1594	1	devancé	
1595	1	devant	
1596	1	deviendrait	
1597	1	devine	
1598	1	deviner	
1599	1	devines	
1600	1	devinez	
1601	1	devions	
1602	1	devrais	
1603	1	die	
1604	1	diffamez	
1605	1	difficile	
1606	1	difficulté	
1607	1	différant	
1608	1	différence	
1609	1	différer	
1610	1	différez	
1611	1	diligence	
1612	1	diligent	
1613	1	disait	
1614	1	discord	
1615	1	discorde	
1616	1	discourir	
1617	1	discrète	
1618	1	dispense	
1619	1	dispensent	
1620	1	dispenser	
1621	1	dispenserez	
1622	1	disposez	
1623	1	dissimuler	
1624	1	dissimulons	
1625	1	dissimulée	
1626	1	divertirait	
1627	1	divertissement	
1628	1	division	
1629	1	doivent	
1630	1	domine	
1631	1	dompter	
1632	1	donnant	
1633	1	donneraient	
1634	1	donnons	
1635	1	donnèrent	
1636	1	donnée	
1637	1	dons	
1638	1	doris	
1639	1	dos	
1640	1	douce	
1641	1	douceur	
1642	1	doutaient	
1643	1	doutes	
1644	1	douté	
1645	1	due	
1646	1	duel	
1647	1	dupe	
1648	1	duquel	
1649	1	dur	
1650	1	durable	
1651	1	durant	
1652	1	dure	
1653	1	durer	
1654	1	durera	
1655	1	dussiez	
1656	1	débarrasser	
1657	1	débattre	
1658	1	débattu	
1659	1	débauché	
1660	1	déborde	
1661	1	déchargeait	
1662	1	décharger	
1663	1	décoché	
1664	1	découvrent	
1665	1	découvrir	
1666	1	décrite	
1667	1	dédaigné	
1668	1	dédit	
1669	1	déesse	
1670	1	défaillent	
1671	1	défaire	
1672	1	défaut	
1673	1	défend	
1674	1	défendrait	
1675	1	défie	
1676	1	dégager	
1677	1	dégagée	
1678	1	dégoûté	
1679	1	déguiser	
1680	1	déguisez	
1681	1	déloyal	
1682	1	démêler	
1683	1	dénier	
1684	1	dénoncé	
1685	1	départ	
1686	1	départir	
1687	1	dépeindre	
1688	1	dépeins	
1689	1	dépeint	
1690	1	déplaire	
1691	1	déplais	
1692	1	déplaisirs	
1693	1	dérobe	
1694	1	dérobé	
1695	1	désabusé	
1696	1	désaveu	
1697	1	désavoue	
1698	1	désavouent	
1699	1	désiré	
1700	1	désoblige	
1701	1	désobliger	
1702	1	désolés	
1703	1	désunies	
1704	1	détacher	
1705	1	détourner	
1706	1	détours	
1707	1	détromperas	
1708	1	détruire	
1709	1	déçu	
1710	1	dûs	
1711	1	eau	
1712	1	eaux	
1713	1	efface	
1714	1	effacer	
1715	1	effets	
1716	1	elysiens	
1717	1	embarrasser	
1718	1	embarrassée	
1719	1	embrasement	
1720	1	emphatique	
1721	1	employer	
1722	1	emportent	
1723	1	empreints	
1724	1	empressement	
1725	1	empressés	
1726	1	emprunte	
1727	1	empruntez	
1728	1	empêcha	
1729	1	enchérit	
1730	1	enflammer	
1731	1	enflerait	
1732	1	enfuis	
1733	1	enfuyait	
1734	1	engagé	
1735	1	engloutit	
1736	1	enhardit	
1737	1	enlever	
1738	1	ennuie	
1739	1	ennuis	
1740	1	enrage	
1741	1	entendent	
1742	1	entendue	
1743	1	entier	
1744	1	entièrement	
1745	1	entour	
1746	1	entreprenez	
1747	1	entretenir	
1748	1	entretient	
1749	1	entrevoir	
1750	1	entrons	
1751	1	envi	
1752	1	envoie	
1753	1	envoyant	
1754	1	erreurs	
1755	1	escadrons	
1756	1	esclave	
1757	1	espace	
1758	1	espérances	
1759	1	essai	
1760	1	essayons	
1761	1	estimai	
1762	1	estimerais	
1763	1	estimé	
1764	1	eu	
1765	1	euménides	
1766	1	eus	
1767	1	eusse	
1768	1	eussent	
1769	1	eusses	
1770	1	eux	
1771	1	exactement	
1772	1	excite	
1773	1	excuser	
1774	1	exemplaire	
1775	1	exemple	
1776	1	exempter	
1777	1	exorable	
1778	1	expliquions	
1779	1	exposer	
1780	1	expresse	
1781	1	expressément	
1782	1	exprime	
1783	1	exprimer	
1784	1	exprimée	
1785	1	expédie	
1786	1	expérience	
1787	1	extraordinaire	
1788	1	extrémité	
1789	1	fables	
1790	1	face	
1791	1	facilement	
1792	1	faciliter	
1793	1	faille	
1794	1	failli	
1795	1	faillir	
1796	1	faisaient	
1797	1	faits	
1798	1	falsifié	
1799	1	fantômes	
1800	1	fard	
1801	1	fardeau	
1802	1	farouche	
1803	1	fassent	
1804	1	faudrait	
1805	1	faussaire	
1806	1	favori	
1807	1	favoriser	
1808	1	façons	
1809	1	feins	
1810	1	femmes	
1811	1	fendre	
1812	1	fenêtre	
1813	1	ferait	
1814	1	feriez	
1815	1	ferons	
1816	1	fers	
1817	1	fiant	
1818	1	fidèles	
1819	1	fier	
1820	1	figure	
1821	1	figurer	
1822	1	fils	
1823	1	fine	
1824	1	finement	
1825	1	finesse	
1826	1	finir	
1827	1	fit	
1828	1	flambeaux	
1829	1	flammes	
1830	1	flanc	
1831	1	flattant	
1832	1	flatteur	
1833	1	flatteurs	
1834	1	flatteuse	
1835	1	fleuve	
1836	1	flots	
1837	1	fléchi	
1838	1	follement	
1839	1	fonde	
1840	1	fondements	
1841	1	fondrait	
1842	1	forcé	
1843	1	formalités	
1844	1	fortifie	
1845	1	fouets	
1846	1	fourniront	
1847	1	franchise	
1848	1	fraude	
1849	1	frayeur	
1850	1	frisson	
1851	1	frivole	
1852	1	froncée	
1853	1	fruit	
1854	1	fruits	
1855	1	frêles	
1856	1	funestes	
1857	1	furieux	
1858	1	fuseaux	
1859	1	fussent	
1860	1	fuyez	
1861	1	fâcher	
1862	1	fâcheux	
1863	1	félicité	
1864	1	félicités	
1865	1	gager	
1866	1	gages	
1867	1	gagner	
1868	1	garant	
1869	1	garantir	
1870	1	gardait	
1871	1	garder	
1872	1	gardera	
1873	1	garderai	
1874	1	gens	
1875	1	glaces	
1876	1	glaçons	
1877	1	gloire	
1878	1	goûter	
1879	1	goûté	
1880	1	gracieux	
1881	1	grandeur	
1882	1	grison	
1883	1	grossier	
1884	1	guerre	
1885	1	guide	
1886	1	généreux	
1887	1	géronte	
1888	1	gêner	
1889	1	gît	
1890	1	habile	
1891	1	haleine	
1892	1	hantise	
1893	1	hardie	
1894	1	hardis	
1895	1	hasarde	
1896	1	haute	
1897	1	hautes	
1898	1	heures	
1899	1	heureuse	
1900	1	hier	
1901	1	hippolyte	
1902	1	hommage	
1903	1	honnête	
1904	1	honteusement	
1905	1	horreur	
1906	1	horreurs	
1907	1	humeurs	
1908	1	hurler	
1909	1	hypocrite	
1910	1	hâte	
1911	1	hâter	
1912	1	hâtés	
1913	1	héritage	
1914	1	héritière	
1915	1	idée	
1916	1	illusions	
1917	1	image	
1918	1	images	
1919	1	imaginations	
1920	1	immortelle	
1921	1	imperfections	
1922	1	impitoyable	
1923	1	importun	
1924	1	importuner	
1925	1	importunité	
1926	1	importunités	
1927	1	importuns	
1928	1	impostures	
1929	1	imprime	
1930	1	imprimer	
1931	1	imprévue	
1932	1	impuissance	
1933	1	impuissances	
1934	1	impuissant	
1935	1	impuissante	
1936	1	impuni	
1937	1	impunément	
1938	1	incapable	
1939	1	incertaine	
1940	1	incertains	
1941	1	incertitude	
1942	1	incivil	
1943	1	inclination	
1944	1	inclinations	
1945	1	inconnue	
1946	1	inconstance	
1947	1	incurable	
1948	1	indiscret	
1949	1	indiscrète	
1950	1	industrie	
1951	1	inexorable	
1952	1	infaillible	
1953	1	infidélités	
1954	1	informer	
1955	1	infâme	
1956	1	ingrate	
1957	1	inhumain	
1958	1	inhumaine	
1959	1	inhumains	
1960	1	injures	
1961	1	injustes	
1962	1	innocence	
1963	1	inquiet	
1964	1	inquiète	
1965	1	insensé	
1966	1	insensés	
1967	1	insolence	
1968	1	inspirent	
1969	1	instant	
1970	1	instruction	
1971	1	instruire	
1972	1	instruit	
1973	1	instrument	
1974	1	insuffisance	
1975	1	inséparable	
1976	1	intelligence	
1977	1	intention	
1978	1	intentions	
1979	1	interdit	
1980	1	interprètes	
1981	1	intimide	
1982	1	intéressée	
1983	1	invariable	
1984	1	inventée	
1985	1	invincible	
1986	1	invulnérable	
1987	1	iraient	
1988	1	irait	
1989	1	irons	
1990	1	iront	
1991	1	ixion	
1992	1	jaser	
1993	1	jeune	
1994	1	jolie	
1995	1	jouent	
1996	1	juge	
1997	1	jure	
1998	1	jurer	
1999	1	juré	
2000	1	jusques	
2001	1	justement	
2002	1	laide	
2003	1	laideur	
2004	1	laissent	
2005	1	laissons	
2006	1	laissé	
2007	1	laissée	
2008	1	laissées	
2009	1	larcin	
2010	1	larcins	
2011	1	large	
2012	1	lasser	
2013	1	lassez	
2014	1	lecture	
2015	1	lente	
2016	1	leçon	
2017	1	libertin	
2018	1	librement	
2019	1	lis	
2020	1	lisant	
2021	1	lisent	
2022	1	lisez	
2023	1	lisis	
2024	1	lit	
2025	1	livre	
2026	1	loger	
2027	1	lorsqu	
2028	1	louable	
2029	1	louches	
2030	1	loue	
2031	1	loyauté	
2032	1	luxe	
2033	1	lâchement	
2034	1	lâcher	
2035	1	lâches	
2036	1	lâcheté	
2037	1	lâchetés	
2038	1	lève	
2039	1	légers	
2040	1	légion	
2041	1	légitime	
2042	1	légères	
2043	1	légèreté	
2044	1	madame	
2045	1	maintien	
2046	1	maintient	
2047	1	maison	
2048	1	maisons	
2049	1	maladie	
2050	1	maladroit	
2051	1	malaisément	
2052	1	malice	
2053	1	mander	
2054	1	manière	
2055	1	manoirs	
2056	1	manquer	
2057	1	mariage	
2058	1	masque	
2059	1	maudissant	
2060	1	maudite	
2061	1	mauvaise	
2062	1	maître	
2063	1	menace	
2064	1	mendier	
2065	1	menteur	
2066	1	menteuse	
2067	1	menus	
2068	1	merci	
2069	1	merveilles	
2070	1	merveilleux	
2071	1	message	
2072	1	messager	
2073	1	messied	
2074	1	mesures	
2075	1	mette	
2076	1	mettra	
2077	1	mettrai	
2078	1	meurs	
2079	1	minos	
2080	1	miracles	
2081	1	miroir	
2082	1	miroirs	
2083	1	moindres	
2084	1	mois	
2085	1	moments	
2086	1	monarque	
2087	1	montrera	
2088	1	montrez	
2089	1	monté	
2090	1	monument	
2091	1	moquer	
2092	1	morts	
2093	1	mourant	
2094	1	mourrait	
2095	1	moyens	
2096	1	murmure	
2097	1	murmurer	
2098	1	murs	
2099	1	mutine	
2100	1	mutuelles	
2101	1	mystère	
2102	1	méchant	
2103	1	méconnaissance	
2104	1	mécontentement	
2105	1	médite	
2106	1	mégère	
2107	1	mégères	
2108	1	mémoire	
2109	1	ménagée	
2110	1	méprendre	
2111	1	méprisable	
2112	1	méprise	
2113	1	méprisé	
2114	1	méprisée	
2115	1	mériter	
2116	1	méritée	
2117	1	mérités	
2118	1	mêlés	
2119	1	mêmes	
2120	1	nacelle	
2121	1	naissante	
2122	1	naisse	
2123	1	naquit	
2124	1	nature	
2125	1	nautonier	
2126	1	neuf	
2127	1	nocher	
2128	1	noeud	
2129	1	noir	
2130	1	noire	
2131	1	nomme	
2132	1	nommer	
2133	1	nommé	
2134	1	nonpareils	
2135	1	nouvel	
2136	1	nu	
2137	1	nuages	
2138	1	nuire	
2139	1	nuit	
2140	1	néanmoins	
2141	1	négligent	
2142	1	nôtre	
2143	1	objets	
2144	1	obligent	
2145	1	obliger	
2146	1	obligé	
2147	1	obligés	
2148	1	obscur	
2149	1	obstacle	
2150	1	obstacles	
2151	1	obstination	
2152	1	obstinez	
2153	1	obstinée	
2154	1	obstinément	
2155	1	obtiendra	
2156	1	obtient	
2157	1	obéissance	
2158	1	occuper	
2159	1	odieux	
2160	1	offenser	
2161	1	office	
2162	1	officiers	
2163	1	officieux	
2164	1	offrent	
2165	1	offres	
2166	1	or	
2167	1	ordinaire	
2168	1	ordinaires	
2169	1	ordre	
2170	1	ornement	
2171	1	osa	
2172	1	osent	
2173	1	osera	
2174	1	oserais	
2175	1	osez	
2176	1	osiez	
2177	1	osé	
2178	1	oublier	
2179	1	outrage	
2180	1	outrageux	
2181	1	outragée	
2182	1	ouvert	
2183	1	ouverte	
2184	1	ouvrez	
2185	1	ouvrons	
2186	1	paiera	
2187	1	pair	
2188	1	paisiblement	
2189	1	paix	
2190	1	paraissent	
2191	1	pardonnez	
2192	1	pareille	
2193	1	pareils	
2194	1	paresse	
2195	1	paresseux	
2196	1	parfaits	
2197	1	parjurer	
2198	1	parjurée	
2199	1	parlais	
2200	1	parlant	
2201	1	parlent	
2202	1	parles	
2203	1	parlez	
2204	1	parlons	
2205	1	paroles	
2206	1	partage	
2207	1	partagé	
2208	1	partagés	
2209	1	partit	
2210	1	parts	
2211	1	parut	
2212	1	passant	
2213	1	passes	
2214	1	passez	
2215	1	paupière	
2216	1	peint	
2217	1	peinture	
2218	1	pendant	
2219	1	pensa	
2220	1	pensait	
2221	1	pensent	
2222	1	penseriez	
2223	1	pensers	
2224	1	penses	
2225	1	pensé	
2226	1	pensées	
2227	1	perdez	
2228	1	perdues	
2229	1	perfection	
2230	1	perfections	
2231	1	perfides	
2232	1	perfidie	
2233	1	permettait	
2234	1	permettez	
2235	1	persisteriez	
2236	1	personnage	
2237	1	personnes	
2238	1	perte	
2239	1	pervertir	
2240	1	petite	
2241	1	petites	
2242	1	petits	
2243	1	peuvent	
2244	1	phlégéthon	
2245	1	phébus	
2246	1	pied	
2247	1	pierreux	
2248	1	pigeon	
2249	1	pique	
2250	1	piquer	
2251	1	piqué	
2252	1	pires	
2253	1	pistole	
2254	1	pièce	
2255	1	pièces	
2256	1	piège	
2257	1	places	
2258	1	placées	
2259	1	plais	
2260	1	plaisante	
2261	1	plat	
2262	1	plausible	
2263	1	pleige	
2264	1	pleine	
2265	1	pleines	
2266	1	pleure	
2267	1	pleurs	
2268	1	plut	
2269	1	poil	
2270	1	pointes	
2271	1	poltrons	
2272	1	pomme	
2273	1	porterait	
2274	1	porteur	
2275	1	portraiture	
2276	1	porté	
2277	1	poudre	
2278	1	pourpoint	
2279	1	pourra	
2280	1	pourras	
2281	1	pourrez	
2282	1	pourrions	
2283	1	poursuite	
2284	1	poursuivie	
2285	1	pourtant	
2286	1	pourvu	
2287	1	pouvait	
2288	1	pouvez	
2289	1	pouviez	
2290	1	pratiquaient	
2291	1	pratiquer	
2292	1	pratiquez	
2293	1	premiers	
2294	1	première	
2295	1	prenaient	
2296	1	prendrai	
2297	1	prendras	
2298	1	prendrez	
2299	1	preniez	
2300	1	pressants	
2301	1	pressée	
2302	1	preuve	
2303	1	prise	
2304	1	priser	
2305	1	privauté	
2306	1	priver	
2307	1	prières	
2308	1	proches	
2309	1	prodige	
2310	1	prodiguez	
2311	1	produisaient	
2312	1	profond	
2313	1	proie	
2314	1	prolonger	
2315	1	prompte	
2316	1	promptes	
2317	1	promptitude	
2318	1	protestations	
2319	1	provient	
2320	1	prudence	
2321	1	précieuse	
2322	1	précipitant	
2323	1	préférence	
2324	1	préférer	
2325	1	préjudice	
2326	1	préparez	
2327	1	présage	
2328	1	présenter	
2329	1	préserve	
2330	1	présomptueux	
2331	1	présumes	
2332	1	prétend	
2333	1	prétention	
2334	1	prévenu	
2335	1	préviendra	
2336	1	prêtait	
2337	1	prêté	
2338	1	prît	
2339	1	public	
2340	1	pudique	
2341	1	puissamment	
2342	1	puissions	
2343	1	punies	
2344	1	punissez	
2345	1	punit	
2346	1	punition	
2347	1	pure	
2348	1	purge	
2349	1	purgez	
2350	1	put	
2351	1	pâle	
2352	1	pâlis	
2353	1	pâme	
2354	1	pâmer	
2355	1	péché	
2356	1	péril	
2357	1	périls	
2358	1	périr	
2359	1	périssable	
2360	1	quartier	
2361	1	quatre	
2362	1	quelles	
2363	1	quels	
2364	1	querelle	
2365	1	quereller	
2366	1	quittais	
2367	1	quitté	
2368	1	quittés	
2369	1	quérir	
2370	1	raillant	
2371	1	railler	
2372	1	railles	
2373	1	railleur	
2374	1	raillons	
2375	1	raisonnement	
2376	1	rallume	
2377	1	ramène	
2378	1	range	
2379	1	ranger	
2380	1	ranime	
2381	1	rapaiser	
2382	1	raretés	
2383	1	rassis	
2384	1	rattraper	
2385	1	ravale	
2386	1	ravi	
2387	1	ravis	
2388	1	ravisseur	
2389	1	ravoir	
2390	1	rayons	
2391	1	recevant	
2392	1	recevra	
2393	1	recherche	
2394	1	recommencer	
2395	1	reconnaissance	
2396	1	reconnaissez	
2397	1	reconnaîtrez	
2398	1	reconnu	
2399	1	recule	
2400	1	redonnez	
2401	1	redouble	
2402	1	redoubles	
2403	1	redoutable	
2404	1	refroidissement	
2405	1	refuit	
2406	1	refuites	
2407	1	refusaient	
2408	1	refusé	
2409	1	refusées	
2410	1	regarder	
2411	1	regardé	
2412	1	regrets	
2413	1	rejette	
2414	1	rejoindre	
2415	1	relevassiez	
2416	1	remarquez	
2417	1	rembraser	
2418	1	remerciement	
2419	1	remettez	
2420	1	remettons	
2421	1	remplis	
2422	1	remplissait	
2423	1	remplit	
2424	1	rencontrer	
2425	1	rendait	
2426	1	rendent	
2427	1	rendit	
2428	1	rendra	
2429	1	rendrez	
2430	1	rendus	
2431	1	rendît	
2432	1	renonce	
2433	1	rentrent	
2434	1	rentrez	
2435	1	renverser	
2436	1	repaissait	
2437	1	replis	
2438	1	repose	
2439	1	reposez	
2440	1	reprendre	
2441	1	reprocher	
2442	1	représentant	
2443	1	représenter	
2444	1	repu	
2445	1	ressemblance	
2446	1	ressemble	
2447	1	ressentir	
2448	1	resserre	
2449	1	ressorts	
2450	1	restitue	
2451	1	retarde	
2452	1	retenu	
2453	1	retiennent	
2454	1	retient	
2455	1	retirer	
2456	1	retirez	
2457	1	retomber	
2458	1	retournant	
2459	1	retourne	
2460	1	retracer	
2461	1	retraite	
2462	1	retraites	
2463	1	retrouves	
2464	1	revenons	
2465	1	revenu	
2466	1	reverras	
2467	1	revient	
2468	1	reçois	
2469	1	reçoive	
2470	1	reçue	
2471	1	reçût	
2472	1	riches	
2473	1	richesses	
2474	1	ridicules	
2475	1	ridé	
2476	1	riez	
2477	1	rigoureuse	
2478	1	rigueurs	
2479	1	rimeur	
2480	1	rirons	
2481	1	risée	
2482	1	rivale	
2483	1	rivaux	
2484	1	rocher	
2485	1	roi	
2486	1	romprions	
2487	1	rompu	
2488	1	rougir	
2489	1	rougis	
2490	1	roule	
2491	1	royaumes	
2492	1	rudes	
2493	1	ruinant	
2494	1	règlent	
2495	1	règles	
2496	1	règne	
2497	1	réception	
2498	1	réciproque	
2499	1	récompenser	
2500	1	récompensé	
2501	1	réflexion	
2502	1	régner	
2503	1	répandaient	
2504	1	répare	
2505	1	réparent	
2506	1	réparer	
2507	1	répondent	
2508	1	répondra	
2509	1	réponds	
2510	1	résolue	
2511	1	résolut	
2512	1	résoudre	
2513	1	résout	
2514	1	rêve	
2515	1	rêver	
2516	1	rôle	
2517	1	saccager	
2518	1	sachiez	
2519	1	sacré	
2520	1	sacrés	
2521	1	saines	
2522	1	saint	
2523	1	saintes	
2524	1	saisie	
2525	1	saisit	
2526	1	sale	
2527	1	sanglots	
2528	1	satisfaction	
2529	1	sauras	
2530	1	sauriez	
2531	1	sauve	
2532	1	sauver	
2533	1	sauvez	
2534	1	sauvé	
2535	1	savais	
2536	1	savante	
2537	1	savent	
2538	1	scrupuleuse	
2539	1	second	
2540	1	secondent	
2541	1	seconder	
2542	1	seconderait	
2543	1	secourir	
2544	1	secrets	
2545	1	secrète	
2546	1	sein	
2547	1	semblable	
2548	1	semblables	
2549	1	semblaient	
2550	1	sembles	
2551	1	sensées	
2552	1	sent	
2553	1	sentais	
2554	1	sentiment	
2555	1	sentir	
2556	1	seras	
2557	1	serez	
2558	1	serment	
2559	1	serments	
2560	1	seront	
2561	1	serpents	
2562	1	servant	
2563	1	servent	
2564	1	services	
2565	1	servie	
2566	1	servira	
2567	1	servons	
2568	1	seuls	
2569	1	sien	
2570	1	sienne	
2571	1	siens	
2572	1	simple	
2573	1	sincères	
2574	1	singulières	
2575	1	six	
2576	1	siècle	
2577	1	soleils	
2578	1	solennel	
2579	1	sollicite	
2580	1	sombre	
2581	1	sombres	
2582	1	sommeil	
2583	1	songer	
2584	1	songez	
2585	1	sorciers	
2586	1	sortes	
2587	1	sotte	
2588	1	sottes	
2589	1	sottise	
2590	1	souffrait	
2591	1	souffrez	
2592	1	souhaitent	
2593	1	souhaits	
2594	1	soulagement	
2595	1	soupirait	
2596	1	soupire	
2597	1	soupirer	
2598	1	souplesse	
2599	1	soupçonne	
2600	1	soupçonner	
2601	1	soutiens	
2602	1	souvenez	
2603	1	souvenirs	
2604	1	souveraine	
2605	1	styx	
2606	1	subornes	
2607	1	suborné	
2608	1	succomber	
2609	1	succède	
2610	1	suffoque	
2611	1	suggère	
2612	1	suite	
2613	1	suivant	
2614	1	suivent	
2615	1	suives	
2616	1	suivis	
2617	1	suivra	
2618	1	sujette	
2619	1	sujettes	
2620	1	supplante	
2621	1	suppléer	
2622	1	supportable	
2623	1	supporter	
2624	1	supposer	
2625	1	supposé	
2626	1	supprimes	
2627	1	suprême	
2628	1	surmonte	
2629	1	surmontés	
2630	1	surprenant	
2631	1	surprend	
2632	1	surprise	
2633	1	surprit	
2634	1	surtout	
2635	1	survenue	
2636	1	sus	
2637	1	suspect	
2638	1	suspendant	
2639	1	sème	
2640	1	séduisent	
2641	1	séduit	
2642	1	sépara	
2643	1	séparé	
2644	1	sépulture	
2645	1	sûre	
2646	1	sûreté	
2647	1	sûrs	
2648	1	tait	
2649	1	tarder	
2650	1	tardifs	
2651	1	tardive	
2652	1	tempête	
2653	1	tenais	
2654	1	tendresse	
2655	1	tenez	
2656	1	tenons	
2657	1	termes	
2658	1	terminé	
2659	1	théâtre	
2660	1	tiendrai	
2661	1	tira	
2662	1	tire	
2663	1	titans	
2664	1	titre	
2665	1	tombeaux	
2666	1	tomberons	
2667	1	torrent	
2668	1	touchait	
2669	1	tourment	
2670	1	tournant	
2671	1	tournent	
2672	1	tournoyez	
2673	1	tournât	
2674	1	tracer	
2675	1	trahi	
2676	1	trahisse	
2677	1	traiterais	
2678	1	trames	
2679	1	tranchent	
2680	1	transport	
2681	1	transports	
2682	1	travaillez	
2683	1	travers	
2684	1	traversés	
2685	1	tremblante	
2686	1	tremble	
2687	1	tremblerait	
2688	1	triomphe	
2689	1	triple	
2690	1	tristes	
2691	1	trois	
2692	1	troisième	
2693	1	trompa	
2694	1	tromper	
2695	1	tromperais	
2696	1	tromperie	
2697	1	trompeur	
2698	1	trompeurs	
2699	1	trompez	
2700	1	trompés	
2701	1	troublée	
2702	1	troublés	
2703	1	troue	
2704	1	troupe	
2705	1	trouvais	
2706	1	trouverait	
2707	1	trouveras	
2708	1	tue	
2709	1	tué	
2710	1	témoignages	
2711	1	témoignent	
2712	1	témoigner	
2713	1	témoignât	
2714	1	témérité	
2715	1	ténébreux	
2716	1	union	
2717	1	unir	
2718	1	use	
2719	1	userais	
2720	1	usurper	
2721	1	utile	
2722	1	vagabonds	
2723	1	vaillant	
2724	1	vaille	
2725	1	vaincu	
2726	1	valeur	
2727	1	vanités	
2728	1	vantez	
2729	1	vaste	
2730	1	vaudront	
2731	1	veilles	
2732	1	venant	
2733	1	vendue	
2734	1	vengé	
2735	1	vengée	
2736	1	vent	
2737	1	ventre	
2738	1	venu	
2739	1	venue	
2740	1	vermeil	
2741	1	verraient	
2742	1	verrais	
2743	1	verrez	
2744	1	verser	
2745	1	vertus	
2746	1	vices	
2747	1	vieille	
2748	1	viendrait	
2749	1	viendras	
2750	1	viennent	
2751	1	viennes	
2752	1	vif	
2753	1	vifs	
2754	1	vigueur	
2755	1	violer	
2756	1	violé	
2757	1	visages	
2758	1	visions	
2759	1	visite	
2760	1	visites	
2761	1	vivante	
2762	1	vivent	
2763	1	vives	
2764	1	vivrait	
2765	1	voisin	
2766	1	volaient	
2767	1	vole	
2768	1	vomira	
2769	1	voudra	
2770	1	voudrais	
2771	1	voudras	
2772	1	voudrez	
2773	1	voulait	
2774	1	voulant	
2775	1	vouloir	
2776	1	voulu	
2777	1	voyait	
2778	1	vrais	
2779	1	vulgaires	
2780	1	vénal	
2781	1	vénus	
2782	1	vérités	
2783	1	zèle	
2784	1	âge	
2785	1	âpre	
2786	1	écarter	
2787	1	écarté	
2788	1	écervelée	
2789	1	échapper	
2790	1	échappée	
2791	1	échauffent	
2792	1	éclairci	
2793	1	éclaircis	
2794	1	éclairés	
2795	1	éclate	
2796	1	éclater	
2797	1	écouter	
2798	1	écouté	
2799	1	écoutés	
2800	1	écrasons	
2801	1	écrites	
2802	1	écriture	
2803	1	également	
2804	1	égaler	
2805	1	égare	
2806	1	égaré	
2807	1	élancent	
2808	1	élection	
2809	1	élite	
2810	1	éloignant	
2811	1	éloignement	
2812	1	éloquent	
2813	1	émotion	
2814	1	émouvoir	
2815	1	épandre	
2816	1	épandu	
2817	1	épargner	
2818	1	épaules	
2819	1	épouse	
2820	1	épouvante	
2821	1	épouvanter	
2822	1	épris	
2823	1	éprit	
2824	1	éprouve	
2825	1	éprouver	
2826	1	épuisent	
2827	1	équipage	
2828	1	équitable	
2829	1	équité	
2830	1	établi	
2831	1	éteindre	
2832	1	éternel	
2833	1	éternisent	
2834	1	étincelles	
2835	1	étonnent	
2836	1	étonner	
2837	1	étouffe	
2838	1	étouffez	
2839	1	étouffé	
2840	1	étourdi	
2841	1	étrange	
2842	1	étranges	
2843	1	étreinte	
2844	1	étudiai	
2845	1	évident	
2846	1	évite	
2847	1	ôtera	
2848	1	ôté	
