#Word Types: 2599
#Word Tokens: 14807
#Search Hits: 0
1	528	vous	
2	436	je	
3	431	de	
4	358	et	
5	304	que	
6	249	le	
7	246	est	
8	237	en	
9	203	ne	
10	198	l	
11	194	il	
12	191	un	
13	189	bien	
14	185	la	
15	179	qu	
16	170	à	
17	166	me	
18	154	qui	
19	140	ce	
20	136	pour	
21	134	j	
22	123	d	
23	120	n	
24	119	m	
25	119	mon	
26	111	si	
27	110	moi	
28	109	pas	
29	100	on	
30	89	plus	
31	88	c	
32	86	mais	
33	86	une	
34	83	elle	
35	82	a	
36	72	ai	
37	72	votre	
38	70	tout	
39	69	les	
40	68	fait	
41	66	sans	
42	62	ma	
43	62	madame	
44	62	ou	
45	59	point	
46	55	don	
47	51	s	
48	50	son	
49	47	être	
50	46	des	
51	44	faire	
52	44	rien	
53	41	se	
54	39	lui	
55	38	du	
56	38	veux	
57	37	au	
58	36	cette	
59	36	nous	
60	35	par	
61	35	suis	
62	34	peu	
63	34	sa	
64	34	trop	
65	33	bon	
66	33	fort	
67	33	ha	
68	33	tant	
69	32	comme	
70	32	monsieur	
71	31	aime	
72	31	avez	
73	31	donc	
74	31	tu	
75	31	voir	
76	29	peut	
77	28	avec	
78	28	t	
79	28	y	
80	28	êtes	
81	27	aussi	
82	26	dans	
83	26	puis	
84	26	sur	
85	25	hélène	
86	24	là	
87	24	non	
88	24	quand	
89	23	amour	
90	23	dire	
91	23	diègue	
92	23	esprit	
93	23	jamais	
94	22	autre	
95	22	avoir	
96	22	coeur	
97	22	dieu	
98	22	grand	
99	22	homme	
100	22	mieux	
101	22	toujours	
102	21	dit	
103	21	dont	
104	21	mal	
105	21	sont	
106	20	assez	
107	20	dame	
108	20	dis	
109	20	faut	
110	20	mes	
111	20	quelque	
112	20	yeux	
113	19	belle	
114	19	cela	
115	19	ces	
116	19	honneur	
117	19	âme	
118	18	ils	
119	18	sais	
120	17	après	
121	17	ici	
122	17	moins	
123	17	même	
124	17	temps	
125	17	vos	
126	16	ainsi	
127	16	chose	
128	16	riche	
129	16	va	
130	16	vais	
131	15	aux	
132	15	beaucoup	
133	15	cousin	
134	15	depuis	
135	15	deux	
136	15	encore	
137	15	jour	
138	15	juan	
139	15	laquais	
140	15	te	
141	14	car	
142	14	chez	
143	14	fais	
144	14	faites	
145	14	où	
146	14	savez	
147	14	vois	
148	13	bonne	
149	13	oncle	
150	13	peine	
151	13	plaisir	
152	13	puisque	
153	13	sujet	
154	13	ton	
155	12	aimez	
156	12	avais	
157	12	beauté	
158	12	bientôt	
159	12	cent	
160	12	cet	
161	12	dites	
162	12	donne	
163	12	mille	
164	12	oui	
165	12	pourtant	
166	12	pris	
167	12	ses	
168	12	seul	
169	12	soit	
170	12	étant	
171	12	ô	
172	11	adieu	
173	11	alors	
174	11	autres	
175	11	beau	
176	11	beaux	
177	11	comment	
178	11	contre	
179	11	dessein	
180	11	discours	
181	11	doute	
182	11	font	
183	11	gens	
184	11	nom	
185	11	parler	
186	11	prendre	
187	11	prends	
188	11	seulement	
189	11	tous	
190	10	aimer	
191	10	autant	
192	10	avait	
193	10	carmagnolle	
194	10	crois	
195	10	dessus	
196	10	devant	
197	10	dois	
198	10	ferai	
199	10	feu	
200	10	fortune	
201	10	mérite	
202	10	parle	
203	10	personne	
204	10	plutôt	
205	10	pouvez	
206	10	rendre	
207	10	semble	
208	10	sera	
209	10	trois	
210	10	vient	
211	10	voulez	
212	10	vrai	
213	9	argent	
214	9	aurais	
215	9	ayant	
216	9	cause	
217	9	demain	
218	9	donner	
219	9	enfin	
220	9	femme	
221	9	foi	
222	9	hé	
223	9	main	
224	9	rire	
225	9	savoir	
226	9	sot	
227	9	tantôt	
228	9	vôtre	
229	9	était	
230	8	aimable	
231	8	allez	
232	8	ange	
233	8	aurai	
234	8	battre	
235	8	béatrix	
236	8	cas	
237	8	cavalier	
238	8	croire	
239	8	dès	
240	8	faisant	
241	8	façon	
242	8	fera	
243	8	filipin	
244	8	grâce	
245	8	hélas	
246	8	lorsque	
247	8	léonor	
248	8	mort	
249	8	mot	
250	8	paquette	
251	8	pauvre	
252	8	pedre	
253	8	serais	
254	8	toi	
255	8	venu	
256	8	visite	
257	7	auprès	
258	7	bas	
259	7	bonheur	
260	7	changer	
261	7	coup	
262	7	courage	
263	7	fut	
264	7	ingrate	
265	7	malheur	
266	7	maîtresse	
267	7	passe	
268	7	pensez	
269	7	perdu	
270	7	pu	
271	7	roquespine	
272	7	servir	
273	7	souvent	
274	7	vaut	
275	7	verrez	
276	7	veut	
277	7	visage	
278	7	vraiment	
279	7	vue	
280	7	étais	
281	7	étrange	
282	6	ait	
283	6	buffalos	
284	6	choisir	
285	6	connaître	
286	6	cour	
287	6	dedans	
288	6	déjà	
289	6	enfants	
290	6	fois	
291	6	gagner	
292	6	gros	
293	6	guerre	
294	6	hi	
295	6	ho	
296	6	inconnue	
297	6	leur	
298	6	lieu	
299	6	malgré	
300	6	mauvaise	
301	6	maître	
302	6	mendoce	
303	6	mourir	
304	6	mère	
305	6	nomme	
306	6	notre	
307	6	nuit	
308	6	ont	
309	6	parce	
310	6	pense	
311	6	peur	
312	6	porte	
313	6	prix	
314	6	quatre	
315	6	quelqu	
316	6	quelques	
317	6	quoi	
318	6	raison	
319	6	recevoir	
320	6	repos	
321	6	sait	
322	6	sens	
323	6	serait	
324	6	tour	
325	6	toutes	
326	6	trouve	
327	6	très	
328	6	vie	
329	6	viens	
330	6	voilà	
331	5	abord	
332	5	action	
333	5	affaire	
334	5	aller	
335	5	aujourd	
336	5	avecque	
337	5	bel	
338	5	brave	
339	5	carrosse	
340	5	charmes	
341	5	connais	
342	5	corps	
343	5	couleur	
344	5	coups	
345	5	courir	
346	5	demande	
347	5	demeure	
348	5	dira	
349	5	ducats	
350	5	durant	
351	5	encor	
352	5	entre	
353	5	espère	
354	5	espérance	
355	5	faudra	
356	5	faux	
357	5	heure	
358	5	hui	
359	5	importe	
360	5	jusqu	
361	5	laissé	
362	5	mauvais	
363	5	mettre	
364	5	monde	
365	5	montrer	
366	5	perdez	
367	5	plaire	
368	5	portrait	
369	5	prenez	
370	5	quel	
371	5	quoique	
372	5	riez	
373	5	sachez	
374	5	seigneur	
375	5	selon	
376	5	soins	
377	5	ta	
378	5	tel	
379	5	torrès	
380	5	toute	
381	5	trouver	
382	5	vertu	
383	5	vit	
384	5	voit	
385	5	voyez	
386	5	vu	
387	5	écoutez	
388	5	écus	
389	5	épouser	
390	5	époux	
391	4	affection	
392	4	ah	
393	4	allons	
394	4	apprendre	
395	4	appris	
396	4	attendre	
397	4	aurait	
398	4	aurez	
399	4	avis	
400	4	bons	
401	4	cabinet	
402	4	cache	
403	4	cacher	
404	4	cents	
405	4	cependant	
406	4	certaine	
407	4	chambre	
408	4	chaud	
409	4	cher	
410	4	chercher	
411	4	chien	
412	4	choses	
413	4	combien	
414	4	compte	
415	4	connaissez	
416	4	contraire	
417	4	croyez	
418	4	dames	
419	4	diable	
420	4	dirai	
421	4	doit	
422	4	doux	
423	4	dépens	
424	4	enrage	
425	4	ensemble	
426	4	entendu	
427	4	fin	
428	4	fit	
429	4	fou	
430	4	fâcher	
431	4	galice	
432	4	genoux	
433	4	grands	
434	4	gré	
435	4	humeur	
436	4	importune	
437	4	intéressée	
438	4	irai	
439	4	jeune	
440	4	jours	
441	4	laisse	
442	4	langage	
443	4	lettre	
444	4	mariage	
445	4	mien	
446	4	mine	
447	4	mois	
448	4	monnaie	
449	4	nez	
450	4	ni	
451	4	noire	
452	4	objet	
453	4	oeil	
454	4	pardon	
455	4	parlez	
456	4	part	
457	4	passer	
458	4	plaît	
459	4	plein	
460	4	pourquoi	
461	4	propos	
462	4	prétends	
463	4	qualité	
464	4	quelle	
465	4	rendu	
466	4	reste	
467	4	retire	
468	4	reviens	
469	4	rue	
470	4	saurais	
471	4	secret	
472	4	semblable	
473	4	sensible	
474	4	seront	
475	4	sois	
476	4	songer	
477	4	sort	
478	4	succession	
479	4	terre	
480	4	tiens	
481	4	tombe	
482	4	valeur	
483	4	valez	
484	4	ville	
485	4	voulu	
486	4	écoute	
487	4	écuyer	
488	4	épée	
489	3	absolument	
490	3	acte	
491	3	aie	
492	3	aise	
493	3	aisément	
494	3	alcôve	
495	3	ami	
496	3	amie	
497	3	ans	
498	3	apporte	
499	3	approchez	
500	3	assommer	
501	3	attend	
502	3	avare	
503	3	avons	
504	3	baise	
505	3	belles	
506	3	biens	
507	3	bois	
508	3	bonté	
509	3	brûlez	
510	3	béatris	
511	3	cachez	
512	3	campagnard	
513	3	certain	
514	3	certes	
515	3	chair	
516	3	chaise	
517	3	charger	
518	3	cheveux	
519	3	chère	
520	3	ciel	
521	3	clair	
522	3	commençons	
523	3	confesse	
524	3	connaît	
525	3	connu	
526	3	content	
527	3	crains	
528	3	craint	
529	3	croit	
530	3	croyais	
531	3	devais	
532	3	diamants	
533	3	dieux	
534	3	donné	
535	3	dos	
536	3	douce	
537	3	duc	
538	3	dépense	
539	3	désespoir	
540	3	désirs	
541	3	empêcher	
542	3	entends	
543	3	envoie	
544	3	eu	
545	3	eût	
546	3	fasse	
547	3	faute	
548	3	femmes	
549	3	ferais	
550	3	ferez	
551	3	fermez	
552	3	feront	
553	3	fils	
554	3	folle	
555	3	fous	
556	3	frais	
557	3	fus	
558	3	fâche	
559	3	fâcheux	
560	3	george	
561	3	gorge	
562	3	grande	
563	3	gueux	
564	3	guère	
565	3	habits	
566	3	haut	
567	3	honte	
568	3	hors	
569	3	humains	
570	3	humble	
571	3	hymen	
572	3	jouer	
573	3	journée	
574	3	justice	
575	3	laisser	
576	3	laissez	
577	3	laissée	
578	3	larmes	
579	3	lasser	
580	3	logis	
581	3	longtemps	
582	3	lorsqu	
583	3	mains	
584	3	maison	
585	3	matière	
586	3	met	
587	3	mienne	
588	3	misérable	
589	3	moindre	
590	3	moitié	
591	3	mots	
592	3	musique	
593	3	mène	
594	3	mémoire	
595	3	noir	
596	3	nouveau	
597	3	obéir	
598	3	occasion	
599	3	opulent	
600	3	or	
601	3	paix	
602	3	pareille	
603	3	parfait	
604	3	parlons	
605	3	paroles	
606	3	pedro	
607	3	pensé	
608	3	petit	
609	3	pied	
610	3	plaisante	
611	3	pleurer	
612	3	possible	
613	3	pourpoint	
614	3	pourra	
615	3	pourrais	
616	3	pourvu	
617	3	pouvoir	
618	3	première	
619	3	prend	
620	3	prise	
621	3	promettez	
622	3	près	
623	3	puisqu	
624	3	puisse	
625	3	rare	
626	3	ravir	
627	3	regret	
628	3	rendrai	
629	3	rends	
630	3	rente	
631	3	reçoit	
632	3	ridicule	
633	3	sage	
634	3	saison	
635	3	saurait	
636	3	serez	
637	3	sert	
638	3	servante	
639	3	servie	
640	3	six	
641	3	soi	
642	3	somme	
643	3	sommes	
644	3	sortir	
645	3	sotte	
646	3	souffrir	
647	3	style	
648	3	sérénade	
649	3	séville	
650	3	tableaux	
651	3	tard	
652	3	terme	
653	3	tes	
654	3	tiendra	
655	3	tort	
656	3	trouvez	
657	3	trêve	
658	3	tue	
659	3	tête	
660	3	vaille	
661	3	venez	
662	3	venir	
663	3	ventre	
664	3	vers	
665	3	veuille	
666	3	volonté	
667	3	vont	
668	3	vouloir	
669	3	voyant	
670	3	vérité	
671	3	épousant	
672	3	épouse	
673	3	état	
674	3	été	
675	2	aboyer	
676	2	abusé	
677	2	accordez	
678	2	achevez	
679	2	acquise	
680	2	adorable	
681	2	adore	
682	2	adroitement	
683	2	affermie	
684	2	agréable	
685	2	aimais	
686	2	aimait	
687	2	aimerai	
688	2	alla	
689	2	allée	
690	2	amant	
691	2	amuse	
692	2	amène	
693	2	appas	
694	2	apprit	
695	2	approche	
696	2	armes	
697	2	arrêt	
698	2	arrête	
699	2	arrêtez	
700	2	artifice	
701	2	assassine	
702	2	assassinez	
703	2	assiégée	
704	2	attendais	
705	2	attendant	
706	2	attends	
707	2	auriez	
708	2	aurons	
709	2	auteur	
710	2	autrefois	
711	2	autrement	
712	2	avantage	
713	2	aventure	
714	2	avertir	
715	2	ayez	
716	2	badiner	
717	2	beautés	
718	2	besoin	
719	2	bouger	
720	2	bourgeois	
721	2	bout	
722	2	bracamont	
723	2	braise	
724	2	bruit	
725	2	bâton	
726	2	caché	
727	2	campagne	
728	2	casser	
729	2	causes	
730	2	causé	
731	2	celer	
732	2	celle	
733	2	celui	
734	2	certaines	
735	2	cesse	
736	2	ceux	
737	2	chacun	
738	2	champ	
739	2	champs	
740	2	charité	
741	2	charmante	
742	2	chat	
743	2	cheval	
744	2	chiche	
745	2	cinq	
746	2	civette	
747	2	colère	
748	2	combats	
749	2	commanderie	
750	2	commence	
751	2	commencer	
752	2	commencé	
753	2	commis	
754	2	commun	
755	2	comparable	
756	2	conclure	
757	2	conditions	
758	2	congé	
759	2	connaissance	
760	2	conseil	
761	2	conserver	
762	2	considère	
763	2	contente	
764	2	contes	
765	2	conversation	
766	2	cornette	
767	2	crainte	
768	2	crie	
769	2	cru	
770	2	cruauté	
771	2	cruel	
772	2	crédit	
773	2	cèle	
774	2	danger	
775	2	davantage	
776	2	demi	
777	2	dents	
778	2	desquelles	
779	2	desseins	
780	2	destin	
781	2	destinée	
782	2	devait	
783	2	devez	
784	2	devrait	
785	2	devriez	
786	2	difficile	
787	2	diffère	
788	2	différez	
789	2	digne	
790	2	disant	
791	2	discret	
792	2	donnez	
793	2	dors	
794	2	doutez	
795	2	droit	
796	2	due	
797	2	dure	
798	2	défaut	
799	2	défendez	
800	2	dépend	
801	2	dépit	
802	2	détourner	
803	2	dîner	
804	2	dû	
805	2	effet	
806	2	elles	
807	2	embrasser	
808	2	embuscade	
809	2	empêché	
810	2	enfant	
811	2	enfuit	
812	2	engage	
813	2	enlève	
814	2	ennemis	
815	2	entendrai	
816	2	entière	
817	2	entrez	
818	2	entrons	
819	2	es	
820	2	espagne	
821	2	espoir	
822	2	espérer	
823	2	eux	
824	2	exprès	
825	2	face	
826	2	faiblesse	
827	2	faisait	
828	2	faite	
829	2	fanfaron	
830	2	faquin	
831	2	figure	
832	2	fille	
833	2	fièvre	
834	2	flotte	
835	2	foin	
836	2	force	
837	2	forme	
838	2	froid	
839	2	front	
840	2	frère	
841	2	fumée	
842	2	funéraille	
843	2	fussions	
844	2	fâché	
845	2	gage	
846	2	garde	
847	2	gouverneur	
848	2	goût	
849	2	groenlande	
850	2	guères	
851	2	généreuse	
852	2	hardiment	
853	2	haïr	
854	2	hercule	
855	2	heureux	
856	2	histoire	
857	2	hommes	
858	2	huant	
859	2	hyménée	
860	2	hâte	
861	2	héritier	
862	2	important	
863	2	importunité	
864	2	incivil	
865	2	indifférent	
866	2	infidèle	
867	2	inutilement	
868	2	inégal	
869	2	jabot	
870	2	jalouse	
871	2	jeunes	
872	2	joie	
873	2	joindre	
874	2	jugement	
875	2	jugez	
876	2	jure	
877	2	jusques	
878	2	justement	
879	2	justes	
880	2	laissant	
881	2	laissera	
882	2	lait	
883	2	lingots	
884	2	long	
885	2	lu	
886	2	magots	
887	2	mainte	
888	2	maintenant	
889	2	malheureuse	
890	2	malheureux	
891	2	manger	
892	2	manque	
893	2	marché	
894	2	mari	
895	2	mariée	
896	2	meilleure	
897	2	merveilles	
898	2	miens	
899	2	miroirs	
900	2	moment	
901	2	monte	
902	2	monter	
903	2	moquer	
904	2	moquette	
905	2	morale	
906	2	mordre	
907	2	mourant	
908	2	mourra	
909	2	mouton	
910	2	moyen	
911	2	méprise	
912	2	mériter	
913	2	naufrage	
914	2	noce	
915	2	notable	
916	2	nouvelles	
917	2	nullement	
918	2	née	
919	2	nôtres	
920	2	oblige	
921	2	obligeant	
922	2	obliger	
923	2	obéissant	
924	2	oeuf	
925	2	offense	
926	2	offensée	
927	2	offre	
928	2	ordre	
929	2	osez	
930	2	outre	
931	2	pain	
932	2	paraissait	
933	2	paraît	
934	2	pardonnez	
935	2	pareil	
936	2	parlé	
937	2	parmi	
938	2	parti	
939	2	partout	
940	2	passé	
941	2	passée	
942	2	pelage	
943	2	pensais	
944	2	perdre	
945	2	perdue	
946	2	perroquets	
947	2	perte	
948	2	peste	
949	2	plupart	
950	2	poltron	
951	2	poste	
952	2	pourrait	
953	2	presse	
954	2	prier	
955	2	prochain	
956	2	procès	
957	2	profit	
958	2	promesse	
959	2	prose	
960	2	présente	
961	2	prétendez	
962	2	prêt	
963	2	putain	
964	2	père	
965	2	péché	
966	2	quartaine	
967	2	quelles	
968	2	quelquefois	
969	2	quoiqu	
970	2	railler	
971	2	raisons	
972	2	redoute	
973	2	redoutez	
974	2	refuser	
975	2	regard	
976	2	regardez	
977	2	rend	
978	2	repentance	
979	2	retient	
980	2	reçu	
981	2	rigueur	
982	2	rions	
983	2	ris	
984	2	rit	
985	2	roi	
986	2	rompre	
987	2	rondelle	
988	2	rougis	
989	2	rubis	
990	2	rude	
991	2	règne	
992	2	récompense	
993	2	sache	
994	2	saint	
995	2	saoul	
996	2	satisfaire	
997	2	satisfait	
998	2	saurai	
999	2	sauve	
1000	2	savais	
1001	2	secourir	
1002	2	serai	
1003	2	serments	
1004	2	seuls	
1005	2	simple	
1006	2	sire	
1007	2	soeurs	
1008	2	soin	
1009	2	soleil	
1010	2	sollicitez	
1011	2	sortant	
1012	2	sorte	
1013	2	sortons	
1014	2	soumise	
1015	2	souvenir	
1016	2	souviens	
1017	2	soyez	
1018	2	su	
1019	2	suite	
1020	2	suivante	
1021	2	suivi	
1022	2	sûr	
1023	2	taire	
1024	2	tandis	
1025	2	tante	
1026	2	teint	
1027	2	telles	
1028	2	tendre	
1029	2	tenir	
1030	2	tiendrai	
1031	2	tient	
1032	2	tiers	
1033	2	tigresse	
1034	2	tirer	
1035	2	torride	
1036	2	tourmenter	
1037	2	toutefois	
1038	2	trahison	
1039	2	travers	
1040	2	trente	
1041	2	tristesse	
1042	2	trompe	
1043	2	trompez	
1044	2	trouble	
1045	2	trésor	
1046	2	tuteur	
1047	2	tâchez	
1048	2	tâté	
1049	2	têtes	
1050	2	tôt	
1051	2	use	
1052	2	user	
1053	2	vade	
1054	2	vaillant	
1055	2	vain	
1056	2	vaine	
1057	2	valet	
1058	2	valoir	
1059	2	vaux	
1060	2	velours	
1061	2	vengeance	
1062	2	venue	
1063	2	verrai	
1064	2	verrais	
1065	2	vert	
1066	2	viendra	
1067	2	vilain	
1068	2	violence	
1069	2	visiter	
1070	2	visiterai	
1071	2	vite	
1072	2	vitement	
1073	2	vivre	
1074	2	voici	
1075	2	voile	
1076	2	voilée	
1077	2	voudrais	
1078	2	voulais	
1079	2	vôtres	
1080	2	ça	
1081	2	ébranler	
1082	2	écrit	
1083	2	épargne	
1084	2	établir	
1085	2	étaient	
1086	2	éviter	
1087	1	abbé	
1088	1	abuse	
1089	1	abusées	
1090	1	accabler	
1091	1	accablé	
1092	1	accepte	
1093	1	accommoderai	
1094	1	accompagne	
1095	1	accompagner	
1096	1	accorder	
1097	1	accorderais	
1098	1	acharne	
1099	1	achevons	
1100	1	acquis	
1101	1	acquérez	
1102	1	adorez	
1103	1	afflige	
1104	1	affliger	
1105	1	affront	
1106	1	afin	
1107	1	agir	
1108	1	agira	
1109	1	agirai	
1110	1	agissantes	
1111	1	agit	
1112	1	agoniser	
1113	1	agrément	
1114	1	aide	
1115	1	aigle	
1116	1	aigre	
1117	1	ail	
1118	1	ailleurs	
1119	1	aimerais	
1120	1	aimerait	
1121	1	aimes	
1122	1	aimiez	
1123	1	aisée	
1124	1	alerte	
1125	1	allai	
1126	1	allais	
1127	1	allait	
1128	1	alléguée	
1129	1	altère	
1130	1	amadis	
1131	1	amants	
1132	1	amateur	
1133	1	ambigus	
1134	1	amener	
1135	1	amené	
1136	1	amies	
1137	1	amis	
1138	1	amoureuse	
1139	1	amoureuses	
1140	1	amphion	
1141	1	ample	
1142	1	amsterdam	
1143	1	amusais	
1144	1	amusé	
1145	1	amènent	
1146	1	annonce	
1147	1	années	
1148	1	antipéristase	
1149	1	aperçois	
1150	1	apollon	
1151	1	apparence	
1152	1	appelait	
1153	1	appeler	
1154	1	appelé	
1155	1	applique	
1156	1	appliquer	
1157	1	appliquerait	
1158	1	apprend	
1159	1	apprendras	
1160	1	apprends	
1161	1	apprenne	
1162	1	approbation	
1163	1	approuverez	
1164	1	approuves	
1165	1	apprêter	
1166	1	appète	
1167	1	aquavive	
1168	1	aquiline	
1169	1	ardents	
1170	1	argus	
1171	1	arment	
1172	1	armé	
1173	1	arrive	
1174	1	arrêtée	
1175	1	art	
1176	1	ase	
1177	1	assassin	
1178	1	assassinante	
1179	1	assassines	
1180	1	assassins	
1181	1	assidus	
1182	1	assistance	
1183	1	assistera	
1184	1	assiéger	
1185	1	assomme	
1186	1	assujettir	
1187	1	assurer	
1188	1	assurez	
1189	1	assuré	
1190	1	assurément	
1191	1	attabalippa	
1192	1	attaque	
1193	1	attendez	
1194	1	attendrai	
1195	1	attendu	
1196	1	attentat	
1197	1	attente	
1198	1	attention	
1199	1	attirail	
1200	1	attribuez	
1201	1	attrister	
1202	1	attristé	
1203	1	aucune	
1204	1	auditeur	
1205	1	augmente	
1206	1	augure	
1207	1	aura	
1208	1	auront	
1209	1	aurore	
1210	1	autorité	
1211	1	autrui	
1212	1	avaient	
1213	1	avalos	
1214	1	avarice	
1215	1	avecques	
1216	1	aversion	
1217	1	avertis	
1218	1	aveugle	
1219	1	aviez	
1220	1	aviserai	
1221	1	avisées	
1222	1	avocat	
1223	1	avoue	
1224	1	avouer	
1225	1	bacchus	
1226	1	baiser	
1227	1	baisser	
1228	1	baptiser	
1229	1	barbue	
1230	1	bassement	
1231	1	bat	
1232	1	batailler	
1233	1	bats	
1234	1	battait	
1235	1	baume	
1236	1	bec	
1237	1	bellerose	
1238	1	bercer	
1239	1	bienfait	
1240	1	blanc	
1241	1	blasphémons	
1242	1	blesserait	
1243	1	blessé	
1244	1	blocus	
1245	1	blâmer	
1246	1	boire	
1247	1	boiteux	
1248	1	bonhomme	
1249	1	bouche	
1250	1	boules	
1251	1	bourse	
1252	1	bref	
1253	1	brillants	
1254	1	brisons	
1255	1	broche	
1256	1	brûle	
1257	1	brûlé	
1258	1	buse	
1259	1	bâti	
1260	1	bête	
1261	1	cachent	
1262	1	cachiez	
1263	1	cachou	
1264	1	caisses	
1265	1	cajolez	
1266	1	canicule	
1267	1	capable	
1268	1	casque	
1269	1	cassé	
1270	1	caton	
1271	1	causent	
1272	1	cavaliers	
1273	1	ceci	
1274	1	cendre	
1275	1	censeur	
1276	1	certains	
1277	1	chaleur	
1278	1	chambres	
1279	1	changerai	
1280	1	changez	
1281	1	chante	
1282	1	chaque	
1283	1	chargés	
1284	1	charmant	
1285	1	chasse	
1286	1	chasser	
1287	1	chats	
1288	1	chatte	
1289	1	chausses	
1290	1	chef	
1291	1	chemin	
1292	1	chenu	
1293	1	cherche	
1294	1	chicane	
1295	1	chiens	
1296	1	choisi	
1297	1	choisie	
1298	1	choisirais	
1299	1	choisis	
1300	1	choix	
1301	1	choquant	
1302	1	choque	
1303	1	chrétiens	
1304	1	chut	
1305	1	chute	
1306	1	châtier	
1307	1	chéris	
1308	1	ci	
1309	1	cid	
1310	1	ciller	
1311	1	cimetières	
1312	1	civiles	
1313	1	civilité	
1314	1	civilités	
1315	1	claire	
1316	1	claires	
1317	1	clerc	
1318	1	clos	
1319	1	clou	
1320	1	clystère	
1321	1	cocher	
1322	1	collines	
1323	1	combat	
1324	1	combattre	
1325	1	combattu	
1326	1	combattue	
1327	1	commandements	
1328	1	commandez	
1329	1	commandiez	
1330	1	commencement	
1331	1	commissaire	
1332	1	commune	
1333	1	compagnons	
1334	1	complaisance	
1335	1	compliment	
1336	1	composer	
1337	1	comptant	
1338	1	comte	
1339	1	comète	
1340	1	concert	
1341	1	conclusion	
1342	1	condamner	
1343	1	condition	
1344	1	conduit	
1345	1	conduite	
1346	1	confesserez	
1347	1	confessé	
1348	1	confidence	
1349	1	confonde	
1350	1	confuse	
1351	1	congrès	
1352	1	conjouir	
1353	1	connaissais	
1354	1	connaissons	
1355	1	consacrer	
1356	1	consanguinité	
1357	1	consens	
1358	1	conserve	
1359	1	considérable	
1360	1	considérer	
1361	1	considériez	
1362	1	considéré	
1363	1	consolée	
1364	1	constance	
1365	1	constant	
1366	1	constants	
1367	1	contait	
1368	1	conter	
1369	1	conteste	
1370	1	contester	
1371	1	contez	
1372	1	continuez	
1373	1	contusions	
1374	1	copulatif	
1375	1	copulativement	
1376	1	coques	
1377	1	coquine	
1378	1	cou	
1379	1	couche	
1380	1	couleurs	
1381	1	coupez	
1382	1	courait	
1383	1	courant	
1384	1	coureuse	
1385	1	courez	
1386	1	courrez	
1387	1	court	
1388	1	courtisan	
1389	1	courtisans	
1390	1	couvre	
1391	1	coyonneries	
1392	1	coûte	
1393	1	coûtent	
1394	1	coûter	
1395	1	craignez	
1396	1	craindrai	
1397	1	cramoisi	
1398	1	crever	
1399	1	crevez	
1400	1	crier	
1401	1	croirai	
1402	1	croirais	
1403	1	croyiez	
1404	1	cruautés	
1405	1	cruche	
1406	1	cruelle	
1407	1	crème	
1408	1	crêpe	
1409	1	cuisine	
1410	1	cuit	
1411	1	cul	
1412	1	cultive	
1413	1	cutume	
1414	1	cérès	
1415	1	côté	
1416	1	côtés	
1417	1	daignez	
1418	1	damnée	
1419	1	damoiseau	
1420	1	damoiselle	
1421	1	damoiselles	
1422	1	dangereuse	
1423	1	dangereux	
1424	1	dehors	
1425	1	demander	
1426	1	demandez	
1427	1	demoiselle	
1428	1	dessous	
1429	1	devaient	
1430	1	devenait	
1431	1	devenez	
1432	1	devenir	
1433	1	devinais	
1434	1	devinassiez	
1435	1	devine	
1436	1	devoir	
1437	1	devons	
1438	1	diantre	
1439	1	diaphane	
1440	1	diligent	
1441	1	dirais	
1442	1	dirait	
1443	1	diras	
1444	1	diriez	
1445	1	diront	
1446	1	discourant	
1447	1	discourons	
1448	1	disiez	
1449	1	disposer	
1450	1	disputé	
1451	1	divertir	
1452	1	divertis	
1453	1	divertissent	
1454	1	divine	
1455	1	dix	
1456	1	doivent	
1457	1	domaine	
1458	1	dommage	
1459	1	donna	
1460	1	donnant	
1461	1	donnerai	
1462	1	donneriez	
1463	1	donnât	
1464	1	donnée	
1465	1	données	
1466	1	donzelle	
1467	1	doubler	
1468	1	doublerait	
1469	1	doubles	
1470	1	doucement	
1471	1	douteux	
1472	1	douze	
1473	1	drap	
1474	1	dresse	
1475	1	drogues	
1476	1	duchesse	
1477	1	dupe	
1478	1	dur	
1479	1	dureté	
1480	1	déchoir	
1481	1	déclara	
1482	1	découverte	
1483	1	découvrir	
1484	1	découvrira	
1485	1	décret	
1486	1	dédis	
1487	1	défaite	
1488	1	défendre	
1489	1	défluxion	
1490	1	défunt	
1491	1	dégagée	
1492	1	dégainer	
1493	1	dégrafe	
1494	1	déguisement	
1495	1	délasser	
1496	1	délibérer	
1497	1	délibérez	
1498	1	délicat	
1499	1	délicate	
1500	1	délivre	
1501	1	délivrer	
1502	1	démordre	
1503	1	dénombrement	
1504	1	dépenser	
1505	1	déplaire	
1506	1	déplaise	
1507	1	déplaisiez	
1508	1	déplaisir	
1509	1	déplaisirs	
1510	1	dépourvu	
1511	1	dépêche	
1512	1	dépêchons	
1513	1	désabuse	
1514	1	désapprouve	
1515	1	désespérer	
1516	1	désespéré	
1517	1	déshérité	
1518	1	désobliger	
1519	1	désordre	
1520	1	détourné	
1521	1	déçue	
1522	1	efficace	
1523	1	efforts	
1524	1	effraye	
1525	1	effroi	
1526	1	effroyable	
1527	1	embarrasser	
1528	1	embarrassée	
1529	1	embellit	
1530	1	empereur	
1531	1	emplette	
1532	1	employer	
1533	1	emporte	
1534	1	emporter	
1535	1	empêchant	
1536	1	empêche	
1537	1	empêcherai	
1538	1	enchantements	
1539	1	enchaîne	
1540	1	endormie	
1541	1	endormies	
1542	1	endormis	
1543	1	endurer	
1544	1	endurez	
1545	1	enfler	
1546	1	engagement	
1547	1	engagée	
1548	1	engendre	
1549	1	enhardir	
1550	1	enlèverait	
1551	1	ennemie	
1552	1	ennui	
1553	1	ennuyez	
1554	1	enrager	
1555	1	enragerez	
1556	1	entend	
1557	1	entende	
1558	1	entendre	
1559	1	entendue	
1560	1	entiers	
1561	1	entr	
1562	1	entremise	
1563	1	entrepris	
1564	1	entrer	
1565	1	entretenir	
1566	1	envers	
1567	1	envoyer	
1568	1	envoyez	
1569	1	escalier	
1570	1	escarboucle	
1571	1	esclaves	
1572	1	escoffion	
1573	1	escroque	
1574	1	espagnol	
1575	1	esprits	
1576	1	espérez	
1577	1	essayer	
1578	1	estafilade	
1579	1	estime	
1580	1	estimer	
1581	1	estrade	
1582	1	etc	
1583	1	excellente	
1584	1	excite	
1585	1	excuse	
1586	1	excuserez	
1587	1	excès	
1588	1	exhalaison	
1589	1	exhibe	
1590	1	expectation	
1591	1	explique	
1592	1	extase	
1593	1	exterminateur	
1594	1	extravague	
1595	1	extrême	
1596	1	facteur	
1597	1	faillir	
1598	1	faim	
1599	1	faisaient	
1600	1	faisais	
1601	1	fallait	
1602	1	fanfare	
1603	1	fanfaronnade	
1604	1	fantaisie	
1605	1	fat	
1606	1	fatale	
1607	1	faudrait	
1608	1	fausse	
1609	1	fauteuil	
1610	1	faveur	
1611	1	favori	
1612	1	favoriser	
1613	1	favorisé	
1614	1	feignez	
1615	1	feinte	
1616	1	feintes	
1617	1	femelle	
1618	1	fenêtre	
1619	1	fer	
1620	1	feraient	
1621	1	ferait	
1622	1	feriez	
1623	1	fertile	
1624	1	fesse	
1625	1	feux	
1626	1	fidèles	
1627	1	fier	
1628	1	filipins	
1629	1	filles	
1630	1	filou	
1631	1	fine	
1632	1	fini	
1633	1	finis	
1634	1	fis	
1635	1	fière	
1636	1	flandre	
1637	1	flattez	
1638	1	fleur	
1639	1	fol	
1640	1	follet	
1641	1	forces	
1642	1	fors	
1643	1	fortes	
1644	1	forts	
1645	1	fourbe	
1646	1	fourni	
1647	1	franc	
1648	1	fraîche	
1649	1	frelon	
1650	1	friche	
1651	1	friquette	
1652	1	frissonne	
1653	1	frotter	
1654	1	frustré	
1655	1	funeste	
1656	1	funérailler	
1657	1	fureur	
1658	1	furieuse	
1659	1	fustiger	
1660	1	fuyez	
1661	1	fâcherait	
1662	1	fâchez	
1663	1	fécond	
1664	1	férue	
1665	1	fête	
1666	1	fît	
1667	1	fût	
1668	1	gager	
1669	1	gagnait	
1670	1	gagnant	
1671	1	gagnerais	
1672	1	gagnerez	
1673	1	gagniez	
1674	1	gagné	
1675	1	gagnée	
1676	1	gainaccappa	
1677	1	galant	
1678	1	galants	
1679	1	galerie	
1680	1	gallégue	
1681	1	ganac	
1682	1	garantis	
1683	1	gardent	
1684	1	garder	
1685	1	gardez	
1686	1	garçon	
1687	1	germain	
1688	1	glace	
1689	1	glacez	
1690	1	glorieux	
1691	1	gobbe	
1692	1	gogues	
1693	1	gousset	
1694	1	goutte	
1695	1	graine	
1696	1	grandement	
1697	1	grandes	
1698	1	grappe	
1699	1	gris	
1700	1	grosse	
1701	1	guenuche	
1702	1	guerrières	
1703	1	guignes	
1704	1	guigné	
1705	1	gusman	
1706	1	guérissez	
1707	1	guêpe	
1708	1	gâte	
1709	1	gâter	
1710	1	gâtez	
1711	1	gâté	
1712	1	génératif	
1713	1	générative	
1714	1	générosité	
1715	1	habille	
1716	1	hais	
1717	1	hait	
1718	1	haleine	
1719	1	hardi	
1720	1	hargneux	
1721	1	hasard	
1722	1	hasarde	
1723	1	hasarder	
1724	1	hasardeux	
1725	1	haute	
1726	1	heureusement	
1727	1	hiver	
1728	1	hollandais	
1729	1	holà	
1730	1	homicide	
1731	1	homologuée	
1732	1	honnête	
1733	1	honore	
1734	1	humaniserai	
1735	1	hurler	
1736	1	héritage	
1737	1	héritiers	
1738	1	héros	
1739	1	hésiter	
1740	1	hôte	
1741	1	idée	
1742	1	ignorant	
1743	1	ignée	
1744	1	imaginer	
1745	1	immuable	
1746	1	importent	
1747	1	importun	
1748	1	importunée	
1749	1	impressions	
1750	1	impunité	
1751	1	incident	
1752	1	incivilité	
1753	1	incivilités	
1754	1	inclination	
1755	1	incommodons	
1756	1	incomparable	
1757	1	indiens	
1758	1	indifférence	
1759	1	indigne	
1760	1	indiscret	
1761	1	indue	
1762	1	informative	
1763	1	informé	
1764	1	infâme	
1765	1	ingère	
1766	1	injure	
1767	1	insensée	
1768	1	inspiré	
1769	1	instant	
1770	1	instruire	
1771	1	intention	
1772	1	interprétation	
1773	1	interrompe	
1774	1	interrompra	
1775	1	interrompt	
1776	1	intrusion	
1777	1	intérêt	
1778	1	inutiles	
1779	1	invisible	
1780	1	inégale	
1781	1	inégalité	
1782	1	ira	
1783	1	irais	
1784	1	irez	
1785	1	irruption	
1786	1	italie	
1787	1	jaloux	
1788	1	jaque	
1789	1	jaune	
1790	1	jean	
1791	1	jeté	
1792	1	jeux	
1793	1	joignant	
1794	1	joignez	
1795	1	joindrait	
1796	1	joint	
1797	1	jointe	
1798	1	joue	
1799	1	joueur	
1800	1	jouir	
1801	1	juge	
1802	1	juges	
1803	1	juifs	
1804	1	jumeaux	
1805	1	jurer	
1806	1	jurerais	
1807	1	jurez	
1808	1	juré	
1809	1	lame	
1810	1	langues	
1811	1	laquelle	
1812	1	lard	
1813	1	larron	
1814	1	las	
1815	1	lasse	
1816	1	lassitude	
1817	1	latin	
1818	1	lentement	
1819	1	lequel	
1820	1	leurs	
1821	1	lever	
1822	1	levrette	
1823	1	leçon	
1824	1	liberté	
1825	1	lier	
1826	1	lignager	
1827	1	limonade	
1828	1	limons	
1829	1	lion	
1830	1	lire	
1831	1	lirez	
1832	1	lit	
1833	1	loge	
1834	1	loin	
1835	1	loisir	
1836	1	longues	
1837	1	lors	
1838	1	louer	
1839	1	loyale	
1840	1	lucarne	
1841	1	lâche	
1842	1	lâcheté	
1843	1	lève	
1844	1	lèvres	
1845	1	légitime	
1846	1	lénitif	
1847	1	léonore	
1848	1	madrid	
1849	1	magnifique	
1850	1	maille	
1851	1	maintiendrai	
1852	1	maisons	
1853	1	malades	
1854	1	malheurs	
1855	1	maltraiter	
1856	1	malvoisie	
1857	1	mandille	
1858	1	mange	
1859	1	mangeais	
1860	1	mangera	
1861	1	mangé	
1862	1	manières	
1863	1	manquait	
1864	1	manquer	
1865	1	manquera	
1866	1	manquerai	
1867	1	manquée	
1868	1	maraude	
1869	1	marbré	
1870	1	marchander	
1871	1	marchant	
1872	1	marcher	
1873	1	marier	
1874	1	marmot	
1875	1	matinière	
1876	1	matins	
1877	1	matoise	
1878	1	matras	
1879	1	maudit	
1880	1	maudite	
1881	1	maux	
1882	1	maîtresses	
1883	1	meilleur	
1884	1	membre	
1885	1	membres	
1886	1	menace	
1887	1	mener	
1888	1	ment	
1889	1	menti	
1890	1	mené	
1891	1	mercenaire	
1892	1	merde	
1893	1	merveille	
1894	1	mets	
1895	1	mettra	
1896	1	mettront	
1897	1	meubles	
1898	1	meublée	
1899	1	meure	
1900	1	meurs	
1901	1	meurt	
1902	1	meurtre	
1903	1	milieu	
1904	1	minime	
1905	1	mise	
1906	1	misère	
1907	1	mitigez	
1908	1	mode	
1909	1	modeste	
1910	1	moineaux	
1911	1	molle	
1912	1	mondes	
1913	1	monnayé	
1914	1	montre	
1915	1	montrez	
1916	1	moque	
1917	1	moquée	
1918	1	mordrais	
1919	1	morion	
1920	1	morte	
1921	1	mouchoir	
1922	1	mouillé	
1923	1	moule	
1924	1	mourante	
1925	1	mourrait	
1926	1	mourut	
1927	1	mouvements	
1928	1	muletier	
1929	1	mystère	
1930	1	mystérieux	
1931	1	mâle	
1932	1	mâtin	
1933	1	méchanceté	
1934	1	méchant	
1935	1	méchantes	
1936	1	méchef	
1937	1	médiocre	
1938	1	médisants	
1939	1	mépris	
1940	1	mépriser	
1941	1	méritait	
1942	1	mérité	
1943	1	métamorphose	
1944	1	mêle	
1945	1	narcissus	
1946	1	naturellement	
1947	1	naufrague	
1948	1	net	
1949	1	neuf	
1950	1	nicher	
1951	1	nie	
1952	1	nique	
1953	1	noble	
1954	1	noblesse	
1955	1	noeud	
1956	1	noirci	
1957	1	nombre	
1958	1	nommer	
1959	1	nommez	
1960	1	nompareille	
1961	1	noms	
1962	1	notaire	
1963	1	nourrice	
1964	1	novice	
1965	1	nulle	
1966	1	nécessité	
1967	1	nés	
1968	1	nôtre	
1969	1	obligations	
1970	1	obligeâtes	
1971	1	obligée	
1972	1	obscure	
1973	1	obscurité	
1974	1	obstacle	
1975	1	obstination	
1976	1	obstiné	
1977	1	obtenir	
1978	1	obtenu	
1979	1	obtint	
1980	1	obéissance	
1981	1	occupés	
1982	1	oeillade	
1983	1	oeillades	
1984	1	oeuvre	
1985	1	offensé	
1986	1	offices	
1987	1	offraient	
1988	1	offrez	
1989	1	oiseau	
1990	1	oison	
1991	1	opposant	
1992	1	opposition	
1993	1	opposés	
1994	1	orangé	
1995	1	orbes	
1996	1	ordonné	
1997	1	oreille	
1998	1	oreilles	
1999	1	orgueil	
2000	1	originaux	
2001	1	ornements	
2002	1	ose	
2003	1	oser	
2004	1	oublier	
2005	1	oubliez	
2006	1	outrage	
2007	1	outrager	
2008	1	ouvrez	
2009	1	ouï	
2010	1	page	
2011	1	paisible	
2012	1	palpite	
2013	1	pandore	
2014	1	panse	
2015	1	panser	
2016	1	papiers	
2017	1	paraissez	
2018	1	parasol	
2019	1	paraître	
2020	1	pardonnerez	
2021	1	pareilles	
2022	1	parent	
2023	1	parents	
2024	1	paresse	
2025	1	parfaite	
2026	1	parjurez	
2027	1	parlait	
2028	1	parlerait	
2029	1	parleriez	
2030	1	parole	
2031	1	partie	
2032	1	paru	
2033	1	parvenir	
2034	1	passable	
2035	1	passai	
2036	1	passepoils	
2037	1	passerez	
2038	1	passion	
2039	1	pastel	
2040	1	patacons	
2041	1	patagons	
2042	1	patenôtres	
2043	1	patience	
2044	1	patins	
2045	1	paupière	
2046	1	paupières	
2047	1	pauvreté	
2048	1	pavé	
2049	1	pays	
2050	1	paysan	
2051	1	payée	
2052	1	peau	
2053	1	peindre	
2054	1	peinte	
2055	1	peintures	
2056	1	pendard	
2057	1	pende	
2058	1	pensait	
2059	1	penser	
2060	1	pension	
2061	1	pensée	
2062	1	perd	
2063	1	perdrais	
2064	1	perles	
2065	1	persuader	
2066	1	persécuter	
2067	1	persécuteur	
2068	1	pervers	
2069	1	pestant	
2070	1	pester	
2071	1	petite	
2072	1	peuvent	
2073	1	phoebus	
2074	1	phénix	
2075	1	pieds	
2076	1	pierre	
2077	1	pierres	
2078	1	piqué	
2079	1	pire	
2080	1	pis	
2081	1	pisse	
2082	1	pistache	
2083	1	pistage	
2084	1	pistoles	
2085	1	pitié	
2086	1	pitoyables	
2087	1	pièce	
2088	1	place	
2089	1	plaindre	
2090	1	plaint	
2091	1	plaintes	
2092	1	plaira	
2093	1	plairiez	
2094	1	plaisant	
2095	1	plaisants	
2096	1	plaise	
2097	1	plaisez	
2098	1	plantes	
2099	1	plantez	
2100	1	platassades	
2101	1	pleurant	
2102	1	pleure	
2103	1	pleurs	
2104	1	pleuvoir	
2105	1	plu	
2106	1	plusieurs	
2107	1	poil	
2108	1	poisson	
2109	1	porcelaine	
2110	1	port	
2111	1	porter	
2112	1	portera	
2113	1	portes	
2114	1	posons	
2115	1	possèdent	
2116	1	possédait	
2117	1	possédé	
2118	1	potentat	
2119	1	poudre	
2120	1	poulets	
2121	1	poumons	
2122	1	pourceau	
2123	1	pourrai	
2124	1	pourrie	
2125	1	pourront	
2126	1	poursuit	
2127	1	poursuivre	
2128	1	poussinière	
2129	1	pouvais	
2130	1	pouvait	
2131	1	pouviez	
2132	1	premier	
2133	1	premiers	
2134	1	premièrement	
2135	1	prenable	
2136	1	prenne	
2137	1	pressez	
2138	1	pressons	
2139	1	pressée	
2140	1	prie	
2141	1	prisse	
2142	1	prit	
2143	1	prière	
2144	1	procurez	
2145	1	procédé	
2146	1	profusion	
2147	1	promener	
2148	1	promet	
2149	1	promets	
2150	1	promettait	
2151	1	promettiez	
2152	1	promettre	
2153	1	promis	
2154	1	prompt	
2155	1	prononcer	
2156	1	prophétique	
2157	1	proposer	
2158	1	propre	
2159	1	prouesses	
2160	1	province	
2161	1	prude	
2162	1	prudence	
2163	1	prunelle	
2164	1	préface	
2165	1	préféré	
2166	1	prélats	
2167	1	présentement	
2168	1	présenter	
2169	1	président	
2170	1	prétendant	
2171	1	prétendre	
2172	1	prêcher	
2173	1	prêtre	
2174	1	prêts	
2175	1	public	
2176	1	publique	
2177	1	pue	
2178	1	puera	
2179	1	puissant	
2180	1	puissantes	
2181	1	pullulant	
2182	1	punir	
2183	1	pussent	
2184	1	pâle	
2185	1	pâmée	
2186	1	pèsent	
2187	1	pécher	
2188	1	pécore	
2189	1	pédagogue	
2190	1	pédant	
2191	1	pénitence	
2192	1	péril	
2193	1	périr	
2194	1	pérou	
2195	1	quant	
2196	1	quantité	
2197	1	quart	
2198	1	quartier	
2199	1	quasi	
2200	1	quatorze	
2201	1	question	
2202	1	quinola	
2203	1	quittant	
2204	1	quitte	
2205	1	quitté	
2206	1	quérir	
2207	1	rabat	
2208	1	racine	
2209	1	raconte	
2210	1	raffiné	
2211	1	railleries	
2212	1	raillez	
2213	1	raisonner	
2214	1	ramène	
2215	1	rapports	
2216	1	rapt	
2217	1	rases	
2218	1	rassurer	
2219	1	ravi	
2220	1	ravie	
2221	1	ravissants	
2222	1	ravissent	
2223	1	ravissez	
2224	1	rebuter	
2225	1	recevant	
2226	1	rechercher	
2227	1	recherchée	
2228	1	rechigne	
2229	1	recommencer	
2230	1	reconnais	
2231	1	reconnaîtra	
2232	1	redoutable	
2233	1	refuse	
2234	1	refusez	
2235	1	refusé	
2236	1	regagner	
2237	1	regarde	
2238	1	regarderai	
2239	1	regards	
2240	1	regardée	
2241	1	relever	
2242	1	reluire	
2243	1	remarquable	
2244	1	remerciement	
2245	1	remplit	
2246	1	remède	
2247	1	rencherie	
2248	1	rencontre	
2249	1	rencontrée	
2250	1	rendra	
2251	1	rendus	
2252	1	renonce	
2253	1	renonçant	
2254	1	rentrer	
2255	1	repaître	
2256	1	repentir	
2257	1	repose	
2258	1	reposez	
2259	1	reprend	
2260	1	reprendre	
2261	1	reprocher	
2262	1	reproché	
2263	1	respecter	
2264	1	ressentiment	
2265	1	ressouviendrai	
2266	1	retardement	
2267	1	retenez	
2268	1	retenir	
2269	1	retenu	
2270	1	retenus	
2271	1	retira	
2272	1	retirer	
2273	1	retourne	
2274	1	retrait	
2275	1	retro	
2276	1	retrouver	
2277	1	retrouverai	
2278	1	revancher	
2279	1	revenait	
2280	1	reverdir	
2281	1	reviendrai	
2282	1	revient	
2283	1	revêtus	
2284	1	reçue	
2285	1	reçus	
2286	1	reçût	
2287	1	richesses	
2288	1	rieur	
2289	1	rigoureux	
2290	1	rinaldi	
2291	1	rival	
2292	1	rivière	
2293	1	robe	
2294	1	roche	
2295	1	rocher	
2296	1	rois	
2297	1	rompant	
2298	1	rompt	
2299	1	rondache	
2300	1	rondeau	
2301	1	rouler	
2302	1	ruse	
2303	1	récit	
2304	1	récité	
2305	1	récompensés	
2306	1	réduite	
2307	1	réjouit	
2308	1	répartir	
2309	1	réponde	
2310	1	répondre	
2311	1	réponds	
2312	1	résistance	
2313	1	résolu	
2314	1	réussi	
2315	1	réussis	
2316	1	réveille	
2317	1	révéler	
2318	1	rêvant	
2319	1	rêver	
2320	1	sabot	
2321	1	saccager	
2322	1	sagement	
2323	1	sain	
2324	1	saints	
2325	1	salles	
2326	1	salut	
2327	1	salutaire	
2328	1	satanas	
2329	1	satin	
2330	1	saucer	
2331	1	sauf	
2332	1	saurez	
2333	1	saute	
2334	1	sauvant	
2335	1	sauver	
2336	1	sauvons	
2337	1	savait	
2338	1	savante	
2339	1	savons	
2340	1	scrupuleuse	
2341	1	sec	
2342	1	secours	
2343	1	secrets	
2344	1	secrétaire	
2345	1	seigneurie	
2346	1	semblables	
2347	1	semblé	
2348	1	sensiblement	
2349	1	sent	
2350	1	sentait	
2351	1	sentence	
2352	1	sentiments	
2353	1	sentira	
2354	1	sentiras	
2355	1	service	
2356	1	services	
2357	1	serviteur	
2358	1	serviteurs	
2359	1	seule	
2360	1	sexe	
2361	1	sien	
2362	1	sienne	
2363	1	signe	
2364	1	sincère	
2365	1	sincérité	
2366	1	sinon	
2367	1	sion	
2368	1	sitôt	
2369	1	soeur	
2370	1	soigne	
2371	1	soir	
2372	1	soleils	
2373	1	solliciteur	
2374	1	songe	
2375	1	songez	
2376	1	songé	
2377	1	sortent	
2378	1	sortes	
2379	1	sorti	
2380	1	sots	
2381	1	soubrette	
2382	1	soudaine	
2383	1	souffert	
2384	1	souffrez	
2385	1	souhaiter	
2386	1	souillé	
2387	1	soumettra	
2388	1	soupire	
2389	1	soupçon	
2390	1	soupçonnais	
2391	1	soupçons	
2392	1	sourd	
2393	1	sous	
2394	1	soutiens	
2395	1	souvenu	
2396	1	souviendrai	
2397	1	stratagème	
2398	1	stérile	
2399	1	subit	
2400	1	subsistance	
2401	1	succinctement	
2402	1	succède	
2403	1	suffiront	
2404	1	suffoquer	
2405	1	sui	
2406	1	suit	
2407	1	suivant	
2408	1	suivent	
2409	1	suivez	
2410	1	suivit	
2411	1	suivra	
2412	1	suivre	
2413	1	superbes	
2414	1	supercherie	
2415	1	superflus	
2416	1	surnom	
2417	1	surpasse	
2418	1	surpris	
2419	1	sursaut	
2420	1	surtout	
2421	1	susceptible	
2422	1	suspect	
2423	1	suspecte	
2424	1	sérieux	
2425	1	sérénades	
2426	1	sévérité	
2427	1	sûreté	
2428	1	tabis	
2429	1	table	
2430	1	tais	
2431	1	taise	
2432	1	taisez	
2433	1	taisons	
2434	1	tapis	
2435	1	tardive	
2436	1	tarie	
2437	1	telle	
2438	1	tels	
2439	1	temporiser	
2440	1	tenez	
2441	1	tente	
2442	1	tenté	
2443	1	termes	
2444	1	terminé	
2445	1	terni	
2446	1	terroir	
2447	1	testament	
2448	1	tiendrez	
2449	1	tigre	
2450	1	timbre	
2451	1	tirez	
2452	1	tirésie	
2453	1	toilette	
2454	1	tondent	
2455	1	touche	
2456	1	touchent	
2457	1	toucher	
2458	1	tourmentez	
2459	1	tours	
2460	1	trahit	
2461	1	train	
2462	1	traiter	
2463	1	traité	
2464	1	trajet	
2465	1	tramontane	
2466	1	transgressez	
2467	1	transplantées	
2468	1	travailler	
2469	1	traversé	
2470	1	travesti	
2471	1	traînant	
2472	1	traître	
2473	1	tremble	
2474	1	tristamie	
2475	1	triste	
2476	1	tromper	
2477	1	trouva	
2478	1	trouvera	
2479	1	trouverai	
2480	1	trouverait	
2481	1	trépas	
2482	1	trépigne	
2483	1	tuer	
2484	1	tâche	
2485	1	tâte	
2486	1	tète	
2487	1	témoignage	
2488	1	témoins	
2489	1	téméraire	
2490	1	tétons	
2491	1	union	
2492	1	unissons	
2493	1	universel	
2494	1	uns	
2495	1	usage	
2496	1	usez	
2497	1	usufruit	
2498	1	vaincus	
2499	1	vainqueur	
2500	1	vaisseaux	
2501	1	valladolid	
2502	1	vaurien	
2503	1	venant	
2504	1	vendit	
2505	1	vendue	
2506	1	venger	
2507	1	vengera	
2508	1	vengerai	
2509	1	vengez	
2510	1	venons	
2511	1	ventrue	
2512	1	verre	
2513	1	verriez	
2514	1	verrons	
2515	1	versaient	
2516	1	verser	
2517	1	vertus	
2518	1	veuf	
2519	1	veuillez	
2520	1	veuve	
2521	1	vieil	
2522	1	vieillard	
2523	1	vieille	
2524	1	vieillesse	
2525	1	vielle	
2526	1	viendrais	
2527	1	vienne	
2528	1	vieux	
2529	1	vin	
2530	1	vint	
2531	1	vipère	
2532	1	virginal	
2533	1	vis	
2534	1	visages	
2535	1	visible	
2536	1	visiblement	
2537	1	voeu	
2538	1	voie	
2539	1	voire	
2540	1	voix	
2541	1	vole	
2542	1	volontiers	
2543	1	voudrez	
2544	1	voulait	
2545	1	vouliez	
2546	1	vulgaire	
2547	1	vulgaires	
2548	1	végétatif	
2549	1	végétative	
2550	1	vénérable	
2551	1	vénérien	
2552	1	véritable	
2553	1	vérités	
2554	1	vêtement	
2555	1	zinzolin	
2556	1	zone	
2557	1	zèle	
2558	1	échange	
2559	1	échappe	
2560	1	échigne	
2561	1	éclaircissements	
2562	1	écouter	
2563	1	écouté	
2564	1	écrire	
2565	1	écu	
2566	1	édentées	
2567	1	édification	
2568	1	égale	
2569	1	également	
2570	1	église	
2571	1	éloigna	
2572	1	éloignant	
2573	1	éloigne	
2574	1	élégamment	
2575	1	éléphants	
2576	1	émeut	
2577	1	émouvoir	
2578	1	épaisse	
2579	1	épice	
2580	1	épigrammes	
2581	1	éplucher	
2582	1	épouserai	
2583	1	épouserais	
2584	1	épousons	
2585	1	épreuve	
2586	1	équipage	
2587	1	équité	
2588	1	établit	
2589	1	étalent	
2590	1	étions	
2591	1	étoffe	
2592	1	étoile	
2593	1	étonnant	
2594	1	étonne	
2595	1	étrillerai	
2596	1	évanouie	
2597	1	éveiller	
2598	1	ôter	
2599	1	ôterait	
