#Word Types: 2611
#Word Tokens: 15275
#Search Hits: 0
1	497	de	
2	451	vous	
3	315	je	
4	288	et	
5	282	que	
6	273	l	
7	245	il	
8	241	le	
9	239	à	
10	192	la	
11	174	qu	
12	173	en	
13	173	ne	
14	160	d	
15	153	un	
16	149	est	
17	140	ce	
18	135	son	
19	124	sa	
20	121	les	
21	118	qui	
22	113	me	
23	109	m	
24	107	pour	
25	107	ses	
26	104	vos	
27	102	j	
28	101	n	
29	96	dans	
30	95	ma	
31	94	mais	
32	91	on	
33	91	si	
34	86	mon	
35	84	lui	
36	84	madame	
37	83	a	
38	79	plus	
39	78	des	
40	76	seigneur	
41	76	votre	
42	73	s	
43	72	même	
44	72	néron	
45	71	une	
46	71	yeux	
47	66	moi	
48	64	pas	
49	64	point	
50	63	elle	
51	63	par	
52	61	ai	
53	61	mes	
54	61	se	
55	56	sans	
56	55	du	
57	55	tout	
58	48	sur	
59	43	au	
60	43	coeur	
61	43	quoi	
62	40	c	
63	40	tous	
64	39	trop	
65	38	peut	
66	37	ah	
67	37	narcisse	
68	37	toujours	
69	35	ces	
70	35	fait	
71	35	leur	
72	35	quel	
73	35	rome	
74	34	britannicus	
75	34	jour	
76	34	nous	
77	34	être	
78	33	avec	
79	33	burrhus	
80	33	ils	
81	33	ou	
82	32	césar	
83	32	empereur	
84	30	empire	
85	29	amour	
86	29	junie	
87	29	non	
88	29	où	
89	28	cour	
90	27	ont	
91	27	t	
92	26	cette	
93	26	dont	
94	26	mère	
95	26	tant	
96	26	tu	
97	25	faire	
98	25	vois	
99	24	moins	
100	24	soit	
101	23	bien	
102	23	faut	
103	23	fils	
104	22	avez	
105	22	nos	
106	22	quelque	
107	22	sont	
108	21	aux	
109	21	veut	
110	20	puis	
111	20	temps	
112	20	voir	
113	19	ciel	
114	19	ici	
115	19	longtemps	
116	19	octavie	
117	19	pu	
118	19	seul	
119	18	autre	
120	18	gloire	
121	18	jusqu	
122	18	nom	
123	18	soins	
124	17	agrippine	
125	17	donc	
126	17	déjà	
127	17	enfin	
128	17	frère	
129	17	leurs	
130	17	ose	
131	17	pallas	
132	17	vu	
133	16	aime	
134	16	dieux	
135	16	discours	
136	16	encor	
137	16	lieux	
138	16	main	
139	16	rien	
140	16	sais	
141	16	sang	
142	15	cet	
143	15	contre	
144	15	encore	
145	15	entre	
146	15	hélas	
147	15	mort	
148	14	dis	
149	14	jours	
150	14	loin	
151	14	prince	
152	14	secrets	
153	14	va	
154	14	veux	
155	13	courroux	
156	13	depuis	
157	13	dire	
158	13	douleur	
159	13	foi	
160	13	heureux	
161	13	laisse	
162	13	palais	
163	13	pleurs	
164	13	père	
165	13	regards	
166	12	auguste	
167	12	bientôt	
168	12	claude	
169	12	comme	
170	12	coup	
171	12	deux	
172	12	dit	
173	12	fois	
174	12	mains	
175	12	maître	
176	12	moment	
177	12	vertu	
178	12	vie	
179	12	voix	
180	11	bonheur	
181	11	crime	
182	11	doit	
183	11	dès	
184	11	quand	
185	11	soeur	
186	11	tandis	
187	11	voeux	
188	11	voulez	
189	11	âme	
190	11	était	
191	10	ait	
192	10	choix	
193	10	cours	
194	10	dessein	
195	10	ennemis	
196	10	jamais	
197	10	mille	
198	10	notre	
199	10	peuple	
200	10	pouvoir	
201	10	rang	
202	10	reste	
203	10	sait	
204	10	seule	
205	10	soupçons	
206	10	ton	
207	10	vain	
208	10	vertus	
209	10	vient	
210	10	êtes	
211	9	ainsi	
212	9	albine	
213	9	appui	
214	9	avait	
215	9	aïeux	
216	9	bouche	
217	9	ceux	
218	9	coeurs	
219	9	combien	
220	9	lorsque	
221	9	malheur	
222	9	malheurs	
223	9	peine	
224	9	plaire	
225	9	quelle	
226	9	quelques	
227	9	sous	
228	9	suis	
229	9	sénat	
230	9	sénèque	
231	9	toute	
232	9	triste	
233	9	vais	
234	9	vue	
235	9	y	
236	8	allez	
237	8	alors	
238	8	ans	
239	8	aurait	
240	8	autant	
241	8	bonté	
242	8	cependant	
243	8	chez	
244	8	claudius	
245	8	crainte	
246	8	devant	
247	8	dois	
248	8	donne	
249	8	désirs	
250	8	entendre	
251	8	faites	
252	8	honneurs	
253	8	ingrat	
254	8	joie	
255	8	liberté	
256	8	mal	
257	8	malgré	
258	8	nuit	
259	8	pensée	
260	8	prendre	
261	8	puissance	
262	8	savez	
263	8	silence	
264	8	sort	
265	8	voit	
266	7	amis	
267	7	après	
268	7	assez	
269	7	attend	
270	7	autres	
271	7	colère	
272	7	contraire	
273	7	craignez	
274	7	crois	
275	7	entends	
276	7	fidèle	
277	7	fille	
278	7	fuit	
279	7	hymen	
280	7	hé	
281	7	ignore	
282	7	jusque	
283	7	larmes	
284	7	lit	
285	7	nouvelle	
286	7	ordre	
287	7	ouvrage	
288	7	place	
289	7	plaisir	
290	7	porte	
291	7	rendre	
292	7	rival	
293	7	ruine	
294	7	semble	
295	7	soin	
296	7	soldats	
297	7	suffit	
298	7	te	
299	7	tes	
300	7	transports	
301	7	verra	
302	7	visage	
303	7	voici	
304	7	voulu	
305	7	éclater	
306	7	état	
307	7	ô	
308	6	adieu	
309	6	alarmes	
310	6	amitié	
311	6	armée	
312	6	arrêter	
313	6	attendre	
314	6	aucun	
315	6	audace	
316	6	bras	
317	6	cesse	
318	6	chaque	
319	6	commence	
320	6	conduite	
321	6	crimes	
322	6	cris	
323	6	croit	
324	6	croyez	
325	6	desseins	
326	6	destin	
327	6	digne	
328	6	doutez	
329	6	ennemi	
330	6	fais	
331	6	injuste	
332	6	mémoire	
333	6	ni	
334	6	oui	
335	6	parmi	
336	6	partout	
337	6	plaindre	
338	6	plaisirs	
339	6	plutôt	
340	6	princesse	
341	6	quels	
342	6	règne	
343	6	secret	
344	6	soupirs	
345	6	sévère	
346	6	ta	
347	6	tendresse	
348	6	toi	
349	6	trône	
350	6	tôt	
351	6	univers	
352	6	voilà	
353	6	époux	
354	5	aimer	
355	5	allais	
356	5	allons	
357	5	appartement	
358	5	arrête	
359	5	assure	
360	5	attentat	
361	5	aujourd	
362	5	aura	
363	5	auraient	
364	5	aussi	
365	5	avoir	
366	5	belle	
367	5	bienfaits	
368	5	bontés	
369	5	cacher	
370	5	chacun	
371	5	changement	
372	5	cher	
373	5	cherche	
374	5	conduire	
375	5	conduit	
376	5	confier	
377	5	coups	
378	5	crains	
379	5	croire	
380	5	disgrâce	
381	5	divorce	
382	5	doute	
383	5	doux	
384	5	droits	
385	5	enfance	
386	5	entretien	
387	5	envie	
388	5	exil	
389	5	expliquer	
390	5	eût	
391	5	famille	
392	5	faudra	
393	5	faveur	
394	5	fortune	
395	5	fureur	
396	5	fut	
397	5	gardes	
398	5	grand	
399	5	haine	
400	5	heureuse	
401	5	honneur	
402	5	hui	
403	5	image	
404	5	injustice	
405	5	instruire	
406	5	instruit	
407	5	intelligence	
408	5	jaloux	
409	5	jeunesse	
410	5	laisser	
411	5	là	
412	5	mettre	
413	5	mépris	
414	5	nouveaux	
415	5	orgueil	
416	5	paix	
417	5	perte	
418	5	peu	
419	5	pieds	
420	5	poison	
421	5	pourquoi	
422	5	premier	
423	5	promis	
424	5	puisse	
425	5	quelquefois	
426	5	regard	
427	5	respect	
428	5	sera	
429	5	songez	
430	5	souffrez	
431	5	suivre	
432	5	taire	
433	5	tour	
434	5	trouble	
435	5	venez	
436	5	vers	
437	5	vit	
438	4	amant	
439	4	armes	
440	4	arrêtez	
441	4	autels	
442	4	avant	
443	4	bruit	
444	4	charmes	
445	4	choisir	
446	4	compte	
447	4	connais	
448	4	conseils	
449	4	couler	
450	4	coupable	
451	4	courez	
452	4	croyais	
453	4	dernière	
454	4	devait	
455	4	devoir	
456	4	disputer	
457	4	distraire	
458	4	donner	
459	4	embrassements	
460	4	ennui	
461	4	fallait	
462	4	fasse	
463	4	fierté	
464	4	flatteurs	
465	4	frayeur	
466	4	genoux	
467	4	germanicus	
468	4	grandeur	
469	4	grâce	
470	4	honte	
471	4	horreur	
472	4	ignorer	
473	4	importe	
474	4	inutile	
475	4	irai	
476	4	irrité	
477	4	jeune	
478	4	joug	
479	4	juste	
480	4	langage	
481	4	las	
482	4	loi	
483	4	long	
484	4	longue	
485	4	maîtres	
486	4	menace	
487	4	mien	
488	4	mis	
489	4	misère	
490	4	mourant	
491	4	mêmes	
492	4	nommer	
493	4	obéir	
494	4	occupé	
495	4	offense	
496	4	parle	
497	4	parti	
498	4	partir	
499	4	paru	
500	4	passé	
501	4	pense	
502	4	plainte	
503	4	plein	
504	4	pleurer	
505	4	porter	
506	4	prenez	
507	4	presse	
508	4	présence	
509	4	prétends	
510	4	prêt	
511	4	prête	
512	4	punir	
513	4	raison	
514	4	raisons	
515	4	regret	
516	4	remords	
517	4	renommée	
518	4	régnez	
519	4	secours	
520	4	serait	
521	4	seuls	
522	4	soutenir	
523	4	souvenir	
524	4	tard	
525	4	tibère	
526	4	touche	
527	4	toutes	
528	4	tranquille	
529	4	trois	
530	4	témoins	
531	4	venir	
532	4	voudrais	
533	4	vôtre	
534	4	zèle	
535	4	écouter	
536	4	étonné	
537	3	abord	
538	3	absence	
539	3	accuser	
540	3	adieux	
541	3	adore	
542	3	affranchir	
543	3	affranchis	
544	3	ailleurs	
545	3	allait	
546	3	amours	
547	3	années	
548	3	arbitre	
549	3	ardeur	
550	3	arracher	
551	3	arrêt	
552	3	aurais	
553	3	autour	
554	3	avais	
555	3	avouer	
556	3	bannir	
557	3	beaucoup	
558	3	cache	
559	3	chagrins	
560	3	chemin	
561	3	chercher	
562	3	chute	
563	3	chère	
564	3	commencé	
565	3	commis	
566	3	commune	
567	3	confiance	
568	3	confondre	
569	3	connaît	
570	3	connaître	
571	3	content	
572	3	coupe	
573	3	courage	
574	3	craigne	
575	3	craint	
576	3	criminelle	
577	3	croirai	
578	3	cru	
579	3	cruel	
580	3	cruels	
581	3	crus	
582	3	danger	
583	3	demeure	
584	3	domitius	
585	3	donné	
586	3	douleurs	
587	3	dépend	
588	3	dérobe	
589	3	dû	
590	3	dût	
591	3	embrasse	
592	3	embrasser	
593	3	empresse	
594	3	entretenir	
595	3	entretiens	
596	3	erreur	
597	3	esprit	
598	3	esprits	
599	3	eux	
600	3	excité	
601	3	expier	
602	3	expose	
603	3	expérience	
604	3	faits	
605	3	farouche	
606	3	feindre	
607	3	feinte	
608	3	fera	
609	3	ferait	
610	3	fermer	
611	3	fie	
612	3	fin	
613	3	fis	
614	3	flatte	
615	3	fond	
616	3	force	
617	3	frappe	
618	3	front	
619	3	fruit	
620	3	fuite	
621	3	funeste	
622	3	grâces	
623	3	haïr	
624	3	idolâtre	
625	3	impatient	
626	3	importune	
627	3	ingrate	
628	3	inimitié	
629	3	injure	
630	3	innocence	
631	3	inquiète	
632	3	inspire	
633	3	intéresse	
634	3	intérêts	
635	3	irrite	
636	3	jadis	
637	3	jeunes	
638	3	jusques	
639	3	laissa	
640	3	libre	
641	3	lien	
642	3	liens	
643	3	lieu	
644	3	malheureux	
645	3	maîtresse	
646	3	miens	
647	3	mieux	
648	3	milieu	
649	3	ministre	
650	3	moments	
651	3	mourir	
652	3	mystère	
653	3	naissance	
654	3	nouveau	
655	3	nouvel	
656	3	objet	
657	3	obéissance	
658	3	occupée	
659	3	offensée	
660	3	ordres	
661	3	osent	
662	3	osez	
663	3	oublier	
664	3	paraître	
665	3	parler	
666	3	parlez	
667	3	partager	
668	3	passer	
669	3	penser	
670	3	pourrai	
671	3	pourvu	
672	3	pouvaient	
673	3	pouvais	
674	3	pouvait	
675	3	pouvez	
676	3	pris	
677	3	prix	
678	3	présage	
679	3	présente	
680	3	prétendre	
681	3	prétendu	
682	3	prévenue	
683	3	public	
684	3	péril	
685	3	quitter	
686	3	quoique	
687	3	ravie	
688	3	reconnais	
689	3	reconnaissance	
690	3	regrets	
691	3	rend	
692	3	repentir	
693	3	repos	
694	3	revoir	
695	3	reçus	
696	3	romains	
697	3	réponds	
698	3	salaire	
699	3	salut	
700	3	science	
701	3	serais	
702	3	serez	
703	3	servitude	
704	3	seulement	
705	3	sien	
706	3	siens	
707	3	silanus	
708	3	sois	
709	3	souffrir	
710	3	souhaiter	
711	3	source	
712	3	souvient	
713	3	spectacle	
714	3	suivez	
715	3	suivi	
716	3	surtout	
717	3	suspect	
718	3	séduit	
719	3	séparé	
720	3	tels	
721	3	tient	
722	3	tomber	
723	3	trahir	
724	3	trahit	
725	3	trembler	
726	3	trompe	
727	3	usage	
728	3	vaincre	
729	3	vainement	
730	3	vengeance	
731	3	verrez	
732	3	vienne	
733	3	vont	
734	3	voulais	
735	3	voulut	
736	3	voyant	
737	3	vrai	
738	3	écarte	
739	3	éclat	
740	3	écoute	
741	3	éloigner	
742	3	éloigné	
743	3	étaient	
744	3	étais	
745	3	évite	
746	2	abandonne	
747	2	abandonnez	
748	2	accabler	
749	2	accusateurs	
750	2	accuse	
751	2	accusez	
752	2	action	
753	2	adopté	
754	2	adresse	
755	2	affaiblie	
756	2	affermi	
757	2	affliger	
758	2	afin	
759	2	aigrir	
760	2	aimait	
761	2	aimez	
762	2	aimé	
763	2	alarmer	
764	2	alliez	
765	2	allume	
766	2	ambition	
767	2	amener	
768	2	apparence	
769	2	appelez	
770	2	appelle	
771	2	applaudissements	
772	2	apprendre	
773	2	appris	
774	2	approche	
775	2	approchez	
776	2	approuver	
777	2	art	
778	2	artifice	
779	2	as	
780	2	aspect	
781	2	assemblait	
782	2	assembler	
783	2	assurer	
784	2	assuré	
785	2	attachés	
786	2	attendez	
787	2	attiraient	
788	2	aurez	
789	2	auront	
790	2	auspices	
791	2	autorité	
792	2	avaient	
793	2	avancé	
794	2	avenir	
795	2	aveugle	
796	2	aviez	
797	2	avoue	
798	2	avouerai	
799	2	ayez	
800	2	aïeul	
801	2	balance	
802	2	banni	
803	2	bannissez	
804	2	beauté	
805	2	beaux	
806	2	blesse	
807	2	braver	
808	2	bruits	
809	2	cachez	
810	2	caché	
811	2	camp	
812	2	capable	
813	2	caprices	
814	2	car	
815	2	caresses	
816	2	celui	
817	2	censeur	
818	2	cent	
819	2	chagrin	
820	2	champ	
821	2	charmants	
822	2	chefs	
823	2	chemins	
824	2	cherchais	
825	2	choisi	
826	2	choisis	
827	2	communs	
828	2	complaire	
829	2	complots	
830	2	compter	
831	2	concevoir	
832	2	condamnée	
833	2	confidence	
834	2	confié	
835	2	confondu	
836	2	conseil	
837	2	consent	
838	2	consentir	
839	2	contrainte	
840	2	contredire	
841	2	conçois	
842	2	coûté	
843	2	craignais	
844	2	craindrais	
845	2	craindre	
846	2	croira	
847	2	croirez	
848	2	croiront	
849	2	croître	
850	2	cruelle	
851	2	crédit	
852	2	curieux	
853	2	céder	
854	2	césars	
855	2	côté	
856	2	daigné	
857	2	davantage	
858	2	demandait	
859	2	demande	
860	2	derniers	
861	2	destinées	
862	2	devenu	
863	2	devez	
864	2	devient	
865	2	deviez	
866	2	diligence	
867	2	disiez	
868	2	disputez	
869	2	distance	
870	2	dites	
871	2	donnez	
872	2	douter	
873	2	défendre	
874	2	défiance	
875	2	délices	
876	2	dépendance	
877	2	dépit	
878	2	dépositaire	
879	2	dépouille	
880	2	désordre	
881	2	désormais	
882	2	détourner	
883	2	détourné	
884	2	détours	
885	2	détrompée	
886	2	effet	
887	2	efforts	
888	2	engage	
889	2	engager	
890	2	enlever	
891	2	enlevée	
892	2	ennuis	
893	2	entend	
894	2	entende	
895	2	entière	
896	2	espère	
897	2	espérance	
898	2	essayer	
899	2	eut	
900	2	excitant	
901	2	exciter	
902	2	exclus	
903	2	excuser	
904	2	excès	
905	2	exemple	
906	2	expire	
907	2	expliquez	
908	2	facile	
909	2	faible	
910	2	faibles	
911	2	fatal	
912	2	fatigué	
913	2	femme	
914	2	fer	
915	2	ferais	
916	2	feu	
917	2	fidélité	
918	2	fiers	
919	2	flambeaux	
920	2	flattent	
921	2	flatter	
922	2	flatté	
923	2	font	
924	2	forcer	
925	2	formé	
926	2	frein	
927	2	froideurs	
928	2	fuis	
929	2	fus	
930	2	fussent	
931	2	future	
932	2	gage	
933	2	garde	
934	2	gendre	
935	2	geste	
936	2	glace	
937	2	grands	
938	2	génie	
939	2	hait	
940	2	hasard	
941	2	heure	
942	2	humains	
943	2	hyménée	
944	2	héritier	
945	2	héros	
946	2	ignominie	
947	2	ignorez	
948	2	ignorée	
949	2	imitez	
950	2	impatience	
951	2	implore	
952	2	impuissant	
953	2	inconnus	
954	2	indignes	
955	2	infidèle	
956	2	informer	
957	2	infortunés	
958	2	injures	
959	2	innocents	
960	2	inquiet	
961	2	instruira	
962	2	instruite	
963	2	inutiles	
964	2	invincibles	
965	2	jette	
966	2	jouir	
967	2	jugez	
968	2	jurait	
969	2	jurée	
970	2	justifie	
971	2	justifier	
972	2	laissez	
973	2	laissé	
974	2	lassé	
975	2	leçons	
976	2	livie	
977	2	loisir	
978	2	lorsqu	
979	2	louer	
980	2	lumière	
981	2	modeste	
982	2	moindres	
983	2	moitié	
984	2	monde	
985	2	montrent	
986	2	montrer	
987	2	mortels	
988	2	murmure	
989	2	murmures	
990	2	mérité	
991	2	naissant	
992	2	nièce	
993	2	noire	
994	2	nombre	
995	2	nomme	
996	2	nourrir	
997	2	obéisse	
998	2	obéissez	
999	2	obéit	
1000	2	odieux	
1001	2	oeil	
1002	2	ombre	
1003	2	orage	
1004	2	ordonne	
1005	2	outrage	
1006	2	ouvre	
1007	2	ouïr	
1008	2	parjure	
1009	2	parricides	
1010	2	parts	
1011	2	passe	
1012	2	passée	
1013	2	pensez	
1014	2	perdre	
1015	2	perdue	
1016	2	permis	
1017	2	persévérance	
1018	2	peuvent	
1019	2	peux	
1020	2	pison	
1021	2	placer	
1022	2	placée	
1023	2	plaignant	
1024	2	plaignez	
1025	2	plaintes	
1026	2	plautus	
1027	2	pleins	
1028	2	plût	
1029	2	pompe	
1030	2	pourra	
1031	2	pourrais	
1032	2	pourrait	
1033	2	pourrez	
1034	2	poursuis	
1035	2	premiers	
1036	2	premières	
1037	2	prend	
1038	2	prescrit	
1039	2	prodiguer	
1040	2	promesses	
1041	2	promette	
1042	2	prompte	
1043	2	propre	
1044	2	propres	
1045	2	près	
1046	2	précieux	
1047	2	prédit	
1048	2	préférer	
1049	2	prémices	
1050	2	présent	
1051	2	présenter	
1052	2	présents	
1053	2	prétendez	
1054	2	puisqu	
1055	2	puissent	
1056	2	punie	
1057	2	périr	
1058	2	quittez	
1059	2	race	
1060	2	ramener	
1061	2	ramène	
1062	2	rappeler	
1063	2	redire	
1064	2	redoutez	
1065	2	refus	
1066	2	remis	
1067	2	renonce	
1068	2	ressembler	
1069	2	retenir	
1070	2	retire	
1071	2	retirez	
1072	2	reçoit	
1073	2	rivale	
1074	2	rois	
1075	2	récit	
1076	2	réconcilie	
1077	2	régner	
1078	2	répandre	
1079	2	répondez	
1080	2	répondre	
1081	2	répudie	
1082	2	répudier	
1083	2	réunie	
1084	2	réveil	
1085	2	révère	
1086	2	sache	
1087	2	saura	
1088	2	sauver	
1089	2	savoir	
1090	2	seconde	
1091	2	sein	
1092	2	semer	
1093	2	sens	
1094	2	serment	
1095	2	serments	
1096	2	simple	
1097	2	sincère	
1098	2	sincérité	
1099	2	soi	
1100	2	soient	
1101	2	sommeil	
1102	2	sortir	
1103	2	soudaine	
1104	2	souffre	
1105	2	souhaitez	
1106	2	souhaits	
1107	2	soumis	
1108	2	soupçon	
1109	2	souscrire	
1110	2	spectacles	
1111	2	splendeur	
1112	2	stratagème	
1113	2	su	
1114	2	subitement	
1115	2	suite	
1116	2	sujet	
1117	2	suprême	
1118	2	surpris	
1119	2	survivre	
1120	2	sylla	
1121	2	séjour	
1122	2	sévérité	
1123	2	tait	
1124	2	tantôt	
1125	2	tardez	
1126	2	terreur	
1127	2	tienne	
1128	2	timides	
1129	2	titre	
1130	2	titres	
1131	2	touché	
1132	2	tracer	
1133	2	trame	
1134	2	tranquillité	
1135	2	trouver	
1136	2	tyrans	
1137	2	témoin	
1138	2	vaincu	
1139	2	vaine	
1140	2	verrai	
1141	2	victimes	
1142	2	vieillir	
1143	2	viennent	
1144	2	viens	
1145	2	violence	
1146	2	vole	
1147	2	volontés	
1148	2	vouloir	
1149	2	voyez	
1150	2	éblouir	
1151	2	écartés	
1152	2	échappe	
1153	2	éclaircir	
1154	2	écoutait	
1155	2	élever	
1156	2	élevé	
1157	2	épouse	
1158	2	épouvante	
1159	2	éteindre	
1160	2	éternel	
1161	2	étonnement	
1162	1	abaisser	
1163	1	abaissée	
1164	1	abandonna	
1165	1	abandonné	
1166	1	abject	
1167	1	abolis	
1168	1	absent	
1169	1	absente	
1170	1	abusaient	
1171	1	abuser	
1172	1	accable	
1173	1	accablera	
1174	1	accablé	
1175	1	accommoder	
1176	1	accompagne	
1177	1	accomplir	
1178	1	accordaient	
1179	1	accueil	
1180	1	accusait	
1181	1	achemine	
1182	1	achever	
1183	1	achève	
1184	1	acquitte	
1185	1	adopta	
1186	1	adoptant	
1187	1	adorent	
1188	1	adorée	
1189	1	adoucis	
1190	1	adressé	
1191	1	adroite	
1192	1	affaiblit	
1193	1	affecter	
1194	1	affectez	
1195	1	affecté	
1196	1	affermir	
1197	1	affranchi	
1198	1	affranchit	
1199	1	affreux	
1200	1	affront	
1201	1	affronts	
1202	1	agité	
1203	1	agités	
1204	1	agrippa	
1205	1	aidions	
1206	1	aigles	
1207	1	aigrissant	
1208	1	aigrissent	
1209	1	aimable	
1210	1	aimais	
1211	1	aimée	
1212	1	ajoutera	
1213	1	alarme	
1214	1	allai	
1215	1	aller	
1216	1	alliance	
1217	1	allier	
1218	1	allumez	
1219	1	allégresse	
1220	1	allés	
1221	1	altérant	
1222	1	amante	
1223	1	ambassadeurs	
1224	1	amenée	
1225	1	ami	
1226	1	amoureux	
1227	1	amène	
1228	1	an	
1229	1	ancêtres	
1230	1	animée	
1231	1	animés	
1232	1	annonce	
1233	1	annoncés	
1234	1	aperçu	
1235	1	appareil	
1236	1	apparue	
1237	1	appas	
1238	1	appela	
1239	1	appelai	
1240	1	appeler	
1241	1	appelé	
1242	1	apprend	
1243	1	apprenez	
1244	1	apprenne	
1245	1	apprit	
1246	1	apprête	
1247	1	apprêter	
1248	1	appuyez	
1249	1	appuyé	
1250	1	ardent	
1251	1	ardents	
1252	1	ardeurs	
1253	1	armer	
1254	1	arraché	
1255	1	arriver	
1256	1	arrêtai	
1257	1	arrêtera	
1258	1	arrêté	
1259	1	aspirait	
1260	1	aspire	
1261	1	assassin	
1262	1	assassinat	
1263	1	assassinats	
1264	1	assemblés	
1265	1	asservie	
1266	1	assidues	
1267	1	assidus	
1268	1	assis	
1269	1	assiégerai	
1270	1	assura	
1271	1	assurance	
1272	1	assurée	
1273	1	assurés	
1274	1	attache	
1275	1	attaqué	
1276	1	atteinte	
1277	1	atteintes	
1278	1	attendaient	
1279	1	attende	
1280	1	attendons	
1281	1	attendrais	
1282	1	attendrit	
1283	1	attends	
1284	1	attendu	
1285	1	attentats	
1286	1	attente	
1287	1	attentez	
1288	1	atteste	
1289	1	audience	
1290	1	augure	
1291	1	augustes	
1292	1	aurai	
1293	1	aussitôt	
1294	1	austère	
1295	1	auteur	
1296	1	auteurs	
1297	1	autrefois	
1298	1	avance	
1299	1	avantage	
1300	1	aventure	
1301	1	avertir	
1302	1	avertisse	
1303	1	avertissez	
1304	1	aveu	
1305	1	aveuglement	
1306	1	avilir	
1307	1	avis	
1308	1	avouerez	
1309	1	avoué	
1310	1	ayant	
1311	1	baigner	
1312	1	bannie	
1313	1	bannissement	
1314	1	barbaries	
1315	1	barrière	
1316	1	basse	
1317	1	beau	
1318	1	beautés	
1319	1	blesser	
1320	1	bords	
1321	1	bout	
1322	1	brigue	
1323	1	briguèrent	
1324	1	brigué	
1325	1	brillaient	
1326	1	brille	
1327	1	brillez	
1328	1	brûle	
1329	1	bénir	
1330	1	bénis	
1331	1	bénit	
1332	1	cachait	
1333	1	cachèrent	
1334	1	calme	
1335	1	calmer	
1336	1	calmez	
1337	1	caprice	
1338	1	captive	
1339	1	captivés	
1340	1	caresse	
1341	1	caressé	
1342	1	carrière	
1343	1	cause	
1344	1	caïus	
1345	1	certain	
1346	1	certains	
1347	1	certes	
1348	1	cessant	
1349	1	cessez	
1350	1	chaleur	
1351	1	changer	
1352	1	changez	
1353	1	changé	
1354	1	chants	
1355	1	char	
1356	1	chargé	
1357	1	charmante	
1358	1	charmer	
1359	1	charmé	
1360	1	chaste	
1361	1	cherchait	
1362	1	cherchant	
1363	1	cherché	
1364	1	chers	
1365	1	choisisse	
1366	1	choisit	
1367	1	cieux	
1368	1	clarté	
1369	1	colorant	
1370	1	combattu	
1371	1	commandez	
1372	1	commencent	
1373	1	commerce	
1374	1	commettre	
1375	1	commun	
1376	1	complice	
1377	1	composent	
1378	1	comptait	
1379	1	condamnais	
1380	1	condamne	
1381	1	condamner	
1382	1	condamniez	
1383	1	condamné	
1384	1	conduisant	
1385	1	confesser	
1386	1	confesserai	
1387	1	confident	
1388	1	confidents	
1389	1	confie	
1390	1	confirment	
1391	1	conforme	
1392	1	conformes	
1393	1	confus	
1394	1	confusion	
1395	1	conjugale	
1396	1	connaissance	
1397	1	connue	
1398	1	connus	
1399	1	connut	
1400	1	consacrés	
1401	1	consens	
1402	1	consentez	
1403	1	consenti	
1404	1	conserver	
1405	1	consolent	
1406	1	consoler	
1407	1	conspire	
1408	1	constance	
1409	1	consterné	
1410	1	consul	
1411	1	consuls	
1412	1	consulte	
1413	1	consulter	
1414	1	consultez	
1415	1	consultiez	
1416	1	consultés	
1417	1	consumer	
1418	1	consumé	
1419	1	continue	
1420	1	continuez	
1421	1	contraindre	
1422	1	contraindrez	
1423	1	convaincu	
1424	1	convaincue	
1425	1	conviés	
1426	1	conçu	
1427	1	conçut	
1428	1	corbulon	
1429	1	corps	
1430	1	corrupteurs	
1431	1	couche	
1432	1	coulent	
1433	1	couleur	
1434	1	coulés	
1435	1	courant	
1436	1	courent	
1437	1	courir	
1438	1	couronné	
1439	1	couronnés	
1440	1	course	
1441	1	couru	
1442	1	couvert	
1443	1	couverte	
1444	1	couverts	
1445	1	couvrait	
1446	1	coûter	
1447	1	coûtés	
1448	1	craignait	
1449	1	craindrai	
1450	1	craindrez	
1451	1	craintive	
1452	1	croiras	
1453	1	croyait	
1454	1	cruauté	
1455	1	cruautés	
1456	1	créance	
1457	1	créature	
1458	1	culte	
1459	1	cède	
1460	1	cédons	
1461	1	daigne	
1462	1	daignent	
1463	1	daignez	
1464	1	daigniez	
1465	1	daignât	
1466	1	degré	
1467	1	degrés	
1468	1	delà	
1469	1	demandais	
1470	1	demander	
1471	1	demanderai	
1472	1	demandez	
1473	1	demandé	
1474	1	demi	
1475	1	dernier	
1476	1	derrière	
1477	1	descendu	
1478	1	descendue	
1479	1	dessillés	
1480	1	dessus	
1481	1	destiné	
1482	1	destinée	
1483	1	devenez	
1484	1	deviendra	
1485	1	deviens	
1486	1	devinrent	
1487	1	devons	
1488	1	devraient	
1489	1	devrais	
1490	1	diadème	
1491	1	dicte	
1492	1	dicter	
1493	1	dictée	
1494	1	difficulté	
1495	1	différents	
1496	1	dignement	
1497	1	dira	
1498	1	dirai	
1499	1	direz	
1500	1	disaient	
1501	1	discordes	
1502	1	discrets	
1503	1	discrète	
1504	1	disposât	
1505	1	dissimulée	
1506	1	dissiper	
1507	1	divers	
1508	1	doivent	
1509	1	donnai	
1510	1	donnons	
1511	1	dons	
1512	1	double	
1513	1	douce	
1514	1	douceur	
1515	1	douceurs	
1516	1	dressés	
1517	1	durant	
1518	1	dureté	
1519	1	débris	
1520	1	déchus	
1521	1	décider	
1522	1	déclare	
1523	1	déclaré	
1524	1	déclin	
1525	1	décline	
1526	1	découvre	
1527	1	découvrit	
1528	1	dédains	
1529	1	défaite	
1530	1	défend	
1531	1	défendez	
1532	1	défendront	
1533	1	défenseurs	
1534	1	défie	
1535	1	défère	
1536	1	déférences	
1537	1	dégage	
1538	1	déguise	
1539	1	déguiser	
1540	1	délaissée	
1541	1	délateurs	
1542	1	délivra	
1543	1	délivre	
1544	1	démentir	
1545	1	démon	
1546	1	dénouer	
1547	1	dépens	
1548	1	déplaire	
1549	1	dépouillé	
1550	1	dépôt	
1551	1	dérobait	
1552	1	désarmé	
1553	1	déserts	
1554	1	déserté	
1555	1	désespoir	
1556	1	désespère	
1557	1	désespérer	
1558	1	désespéré	
1559	1	déshéritant	
1560	1	désir	
1561	1	désire	
1562	1	détermine	
1563	1	détruisant	
1564	1	développer	
1565	1	dévore	
1566	1	dévoue	
1567	1	effacer	
1568	1	effacera	
1569	1	effacée	
1570	1	effaçant	
1571	1	effets	
1572	1	efforce	
1573	1	effrayé	
1574	1	effusion	
1575	1	elles	
1576	1	embellir	
1577	1	embrassiez	
1578	1	emploi	
1579	1	employais	
1580	1	empoisonne	
1581	1	empoisonnement	
1582	1	empoisonneur	
1583	1	empoisonné	
1584	1	emporte	
1585	1	emportement	
1586	1	emprisonnements	
1587	1	emprisonner	
1588	1	emprunte	
1589	1	emprunté	
1590	1	enchanteur	
1591	1	enchaîné	
1592	1	enchaînées	
1593	1	enchaînés	
1594	1	endurci	
1595	1	enfant	
1596	1	enferme	
1597	1	enfermée	
1598	1	enflammé	
1599	1	engagé	
1600	1	engagée	
1601	1	enivré	
1602	1	enlève	
1603	1	enlèvement	
1604	1	enobarbus	
1605	1	ensanglantés	
1606	1	ensevelir	
1607	1	entendiez	
1608	1	entendra	
1609	1	entendrai	
1610	1	entendues	
1611	1	entier	
1612	1	entiers	
1613	1	entraînait	
1614	1	entreprendre	
1615	1	entreprise	
1616	1	entrer	
1617	1	entrons	
1618	1	entrée	
1619	1	enveloppé	
1620	1	envers	
1621	1	envier	
1622	1	envieux	
1623	1	environne	
1624	1	environnée	
1625	1	envisage	
1626	1	enviât	
1627	1	enviés	
1628	1	errant	
1629	1	errants	
1630	1	es	
1631	1	esclave	
1632	1	esclaves	
1633	1	escorte	
1634	1	espoir	
1635	1	espérer	
1636	1	essai	
1637	1	essaierai	
1638	1	estimait	
1639	1	eu	
1640	1	eus	
1641	1	eusse	
1642	1	eussiez	
1643	1	examinait	
1644	1	examine	
1645	1	excelle	
1646	1	excita	
1647	1	excitait	
1648	1	excite	
1649	1	excitera	
1650	1	excuse	
1651	1	exercer	
1652	1	exigeait	
1653	1	exiger	
1654	1	exile	
1655	1	exils	
1656	1	expirer	
1657	1	explique	
1658	1	exprès	
1659	1	face	
1660	1	faciliter	
1661	1	facilité	
1662	1	faiblesse	
1663	1	faisais	
1664	1	faisait	
1665	1	faisceaux	
1666	1	fallu	
1667	1	fallût	
1668	1	fameuse	
1669	1	farder	
1670	1	fatales	
1671	1	fatiguer	
1672	1	fatigués	
1673	1	fausse	
1674	1	faux	
1675	1	favorable	
1676	1	favorables	
1677	1	favorisaient	
1678	1	favorise	
1679	1	favoriser	
1680	1	favorisés	
1681	1	façonnés	
1682	1	feint	
1683	1	feintes	
1684	1	fermés	
1685	1	fertile	
1686	1	festin	
1687	1	feux	
1688	1	fidèlement	
1689	1	fier	
1690	1	figure	
1691	1	figurez	
1692	1	finisse	
1693	1	finit	
1694	1	flamme	
1695	1	flanc	
1696	1	flattons	
1697	1	florissant	
1698	1	flottant	
1699	1	fléchir	
1700	1	fléchiraient	
1701	1	fléchis	
1702	1	fondements	
1703	1	fonder	
1704	1	forcé	
1705	1	forfaits	
1706	1	former	
1707	1	fortifiez	
1708	1	foule	
1709	1	frappé	
1710	1	froideur	
1711	1	frémir	
1712	1	frémit	
1713	1	fumaient	
1714	1	furent	
1715	1	fureurs	
1716	1	furies	
1717	1	furieux	
1718	1	fuyait	
1719	1	fuyez	
1720	1	fâcheux	
1721	1	félicité	
1722	1	férocité	
1723	1	fût	
1724	1	fûtes	
1725	1	gages	
1726	1	garant	
1727	1	gardent	
1728	1	garder	
1729	1	garderai	
1730	1	gardez	
1731	1	glorieux	
1732	1	gouvernait	
1733	1	gouverne	
1734	1	gouverneurs	
1735	1	gouvernée	
1736	1	goûter	
1737	1	grandeurs	
1738	1	grave	
1739	1	grossir	
1740	1	gré	
1741	1	guides	
1742	1	gémir	
1743	1	généreux	
1744	1	gênait	
1745	1	gêne	
1746	1	habitude	
1747	1	habités	
1748	1	hais	
1749	1	hardi	
1750	1	hardies	
1751	1	hardiesse	
1752	1	haut	
1753	1	heureusement	
1754	1	heureuses	
1755	1	hommage	
1756	1	honora	
1757	1	honorait	
1758	1	honore	
1759	1	honorent	
1760	1	honorer	
1761	1	honorerait	
1762	1	honoré	
1763	1	honorée	
1764	1	honteux	
1765	1	horreurs	
1766	1	horrible	
1767	1	humble	
1768	1	humeur	
1769	1	hâte	
1770	1	hâter	
1771	1	hâtez	
1772	1	héritière	
1773	1	ignorance	
1774	1	illustre	
1775	1	illustres	
1776	1	imagine	
1777	1	imite	
1778	1	immobile	
1779	1	immoler	
1780	1	immortels	
1781	1	implacable	
1782	1	implorai	
1783	1	importun	
1784	1	importuner	
1785	1	importunités	
1786	1	importunés	
1787	1	imposa	
1788	1	imposer	
1789	1	impuissance	
1790	1	impuissants	
1791	1	impunément	
1792	1	imputer	
1793	1	imputez	
1794	1	imputât	
1795	1	incessamment	
1796	1	incestueux	
1797	1	incrédulité	
1798	1	indifférents	
1799	1	indigne	
1800	1	indignement	
1801	1	indignité	
1802	1	indiscret	
1803	1	indulgence	
1804	1	infaillible	
1805	1	infidélité	
1806	1	informe	
1807	1	infortune	
1808	1	infortuné	
1809	1	infâme	
1810	1	ingratitude	
1811	1	ingratitudes	
1812	1	injurieuses	
1813	1	injustices	
1814	1	inouïe	
1815	1	inquiétez	
1816	1	inquiétude	
1817	1	insensiblement	
1818	1	insensée	
1819	1	insolence	
1820	1	insolent	
1821	1	inspirée	
1822	1	instruits	
1823	1	interprète	
1824	1	interrompant	
1825	1	interrompt	
1826	1	intéressés	
1827	1	intérêt	
1828	1	invincible	
1829	1	invisible	
1830	1	inviter	
1831	1	inépuisable	
1832	1	ira	
1833	1	irritant	
1834	1	irritent	
1835	1	irriter	
1836	1	irrités	
1837	1	irrésolu	
1838	1	jalousie	
1839	1	jetez	
1840	1	jeté	
1841	1	joignait	
1842	1	jointe	
1843	1	jouer	
1844	1	jouissant	
1845	1	jouit	
1846	1	journée	
1847	1	jugerez	
1848	1	jura	
1849	1	jure	
1850	1	jurer	
1851	1	justes	
1852	1	justice	
1853	1	laissai	
1854	1	laissent	
1855	1	laissons	
1856	1	laissés	
1857	1	langages	
1858	1	languir	
1859	1	largesses	
1860	1	lasser	
1861	1	lassée	
1862	1	laurier	
1863	1	laver	
1864	1	lents	
1865	1	leva	
1866	1	levant	
1867	1	lever	
1868	1	libres	
1869	1	lie	
1870	1	liez	
1871	1	lis	
1872	1	lisez	
1873	1	livrât	
1874	1	liés	
1875	1	locuste	
1876	1	longs	
1877	1	lors	
1878	1	louait	
1879	1	lu	
1880	1	lâche	
1881	1	lève	
1882	1	lèvres	
1883	1	légion	
1884	1	légions	
1885	1	légère	
1886	1	magistrats	
1887	1	majesté	
1888	1	malheureuse	
1889	1	malice	
1890	1	malignité	
1891	1	manquant	
1892	1	marbre	
1893	1	marche	
1894	1	marcher	
1895	1	marchez	
1896	1	marchiez	
1897	1	marqua	
1898	1	marque	
1899	1	marquer	
1900	1	marquera	
1901	1	mars	
1902	1	maxime	
1903	1	maximes	
1904	1	meilleurs	
1905	1	menaces	
1906	1	menaçaient	
1907	1	mendièrent	
1908	1	mensonge	
1909	1	mesurer	
1910	1	met	
1911	1	mettent	
1912	1	mettrai	
1913	1	mettrait	
1914	1	mettront	
1915	1	mienne	
1916	1	ministres	
1917	1	miracle	
1918	1	misérables	
1919	1	mit	
1920	1	modestie	
1921	1	modèle	
1922	1	moindre	
1923	1	mois	
1924	1	monter	
1925	1	morte	
1926	1	mots	
1927	1	mouillant	
1928	1	mouillés	
1929	1	mourut	
1930	1	muet	
1931	1	muets	
1932	1	murmurant	
1933	1	murs	
1934	1	mènent	
1935	1	médite	
1936	1	méditez	
1937	1	médité	
1938	1	ménage	
1939	1	ménageons	
1940	1	mériter	
1941	1	mériteront	
1942	1	mêlant	
1943	1	mêle	
1944	1	naissante	
1945	1	naissants	
1946	1	naître	
1947	1	neveux	
1948	1	nierai	
1949	1	noblesse	
1950	1	noeud	
1951	1	noir	
1952	1	noirceur	
1953	1	noircir	
1954	1	nomma	
1955	1	nommai	
1956	1	nommerais	
1957	1	nommez	
1958	1	nommé	
1959	1	noms	
1960	1	nourrissant	
1961	1	nourrissez	
1962	1	nuage	
1963	1	nue	
1964	1	nuire	
1965	1	né	
1966	1	nécessaire	
1967	1	nécessité	
1968	1	négligence	
1969	1	nérons	
1970	1	nés	
1971	1	nôtre	
1972	1	objets	
1973	1	obscurci	
1974	1	obscure	
1975	1	obscurité	
1976	1	obscurs	
1977	1	observe	
1978	1	observent	
1979	1	obstacle	
1980	1	obtenir	
1981	1	obéi	
1982	1	obéira	
1983	1	obéis	
1984	1	obéissais	
1985	1	occasion	
1986	1	occuperont	
1987	1	odieuse	
1988	1	odieuses	
1989	1	offensé	
1990	1	officieux	
1991	1	offrez	
1992	1	offrir	
1993	1	offriront	
1994	1	ombrage	
1995	1	ombres	
1996	1	opiniâtre	
1997	1	oppose	
1998	1	opprimé	
1999	1	opprimée	
2000	1	ordonnait	
2001	1	ordonnez	
2002	1	ordonné	
2003	1	oreille	
2004	1	orgueilleux	
2005	1	ornements	
2006	1	osa	
2007	1	osait	
2008	1	osant	
2009	1	oser	
2010	1	oserez	
2011	1	osiez	
2012	1	othon	
2013	1	oubli	
2014	1	oublie	
2015	1	oubliez	
2016	1	oublié	
2017	1	outragée	
2018	1	ouvert	
2019	1	ouverts	
2020	1	ouvrirent	
2021	1	paierait	
2022	1	parais	
2023	1	paraissez	
2024	1	paraît	
2025	1	paraîtra	
2026	1	parcouru	
2027	1	pardonne	
2028	1	pardonnez	
2029	1	pare	
2030	1	parfait	
2031	1	parlais	
2032	1	parlions	
2033	1	parlons	
2034	1	parlé	
2035	1	parole	
2036	1	part	
2037	1	partagent	
2038	1	parte	
2039	1	partez	
2040	1	passage	
2041	1	passeront	
2042	1	passons	
2043	1	patience	
2044	1	patrie	
2045	1	payer	
2046	1	peines	
2047	1	penchait	
2048	1	penché	
2049	1	pente	
2050	1	percer	
2051	1	perdez	
2052	1	perdions	
2053	1	perdons	
2054	1	perdrait	
2055	1	perdrez	
2056	1	perdront	
2057	1	perdu	
2058	1	perfide	
2059	1	perfides	
2060	1	perfidie	
2061	1	perfidies	
2062	1	permettez	
2063	1	permettiez	
2064	1	persuader	
2065	1	persécutent	
2066	1	persécuteurs	
2067	1	pesez	
2068	1	peuplés	
2069	1	pitié	
2070	1	pièges	
2071	1	plaignais	
2072	1	plaigne	
2073	1	plaindrez	
2074	1	plaint	
2075	1	plairait	
2076	1	plairez	
2077	1	plaça	
2078	1	pleurant	
2079	1	pleure	
2080	1	pleurez	
2081	1	poids	
2082	1	pompes	
2083	1	port	
2084	1	portant	
2085	1	portent	
2086	1	portes	
2087	1	portez	
2088	1	portons	
2089	1	portât	
2090	1	porté	
2091	1	possesseur	
2092	1	possède	
2093	1	poursuivent	
2094	1	poursuivrai	
2095	1	poursuivre	
2096	1	pourtant	
2097	1	pouvons	
2098	1	première	
2099	1	presque	
2100	1	pressait	
2101	1	pressant	
2102	1	pressants	
2103	1	pressentiment	
2104	1	presser	
2105	1	prier	
2106	1	prit	
2107	1	prodiguant	
2108	1	prodigue	
2109	1	produiront	
2110	1	produit	
2111	1	profane	
2112	1	profite	
2113	1	profonde	
2114	1	projet	
2115	1	projets	
2116	1	promet	
2117	1	promets	
2118	1	prompt	
2119	1	prononce	
2120	1	prononcez	
2121	1	prononcé	
2122	1	protège	
2123	1	prudents	
2124	1	précaution	
2125	1	précieuses	
2126	1	précipiter	
2127	1	précipité	
2128	1	précipités	
2129	1	précédé	
2130	1	préférez	
2131	1	préoccupée	
2132	1	prépara	
2133	1	préparait	
2134	1	préparez	
2135	1	préparé	
2136	1	présenté	
2137	1	présentée	
2138	1	préserver	
2139	1	présider	
2140	1	prétend	
2141	1	prétendait	
2142	1	prétexte	
2143	1	prévenir	
2144	1	préventions	
2145	1	prévois	
2146	1	prévoit	
2147	1	prévu	
2148	1	prêter	
2149	1	prêts	
2150	1	prêté	
2151	1	publiaient	
2152	1	publiquement	
2153	1	pudeur	
2154	1	puisa	
2155	1	puisque	
2156	1	puissant	
2157	1	puissante	
2158	1	puissants	
2159	1	puissiez	
2160	1	punisse	
2161	1	punissez	
2162	1	punit	
2163	1	pure	
2164	1	pâleur	
2165	1	pénible	
2166	1	périls	
2167	1	pût	
2168	1	quant	
2169	1	quatre	
2170	1	quelles	
2171	1	querelle	
2172	1	quittant	
2173	1	quoiqu	
2174	1	rabaisser	
2175	1	rallumer	
2176	1	ramènent	
2177	1	range	
2178	1	ranger	
2179	1	rappelant	
2180	1	rappelez	
2181	1	rappelés	
2182	1	rapprochant	
2183	1	rapproche	
2184	1	rapt	
2185	1	rarement	
2186	1	rassemblés	
2187	1	rassurer	
2188	1	rassurez	
2189	1	rassurée	
2190	1	ravale	
2191	1	ravi	
2192	1	ravis	
2193	1	ravisse	
2194	1	ravisseur	
2195	1	ravisseurs	
2196	1	ravit	
2197	1	rebelle	
2198	1	reconnaissant	
2199	1	reconnaît	
2200	1	reconnaître	
2201	1	recours	
2202	1	reculer	
2203	1	redemandant	
2204	1	redemander	
2205	1	redoublé	
2206	1	redoublés	
2207	1	redoutable	
2208	1	redouter	
2209	1	refuser	
2210	1	refusé	
2211	1	regardant	
2212	1	regarde	
2213	1	rejaillit	
2214	1	relevaient	
2215	1	relégué	
2216	1	remarque	
2217	1	remerciements	
2218	1	remplie	
2219	1	remplir	
2220	1	remplit	
2221	1	remède	
2222	1	renaître	
2223	1	rencontrer	
2224	1	rende	
2225	1	rendent	
2226	1	rendez	
2227	1	rendiez	
2228	1	rendis	
2229	1	rendrais	
2230	1	rendront	
2231	1	rendue	
2232	1	renfermez	
2233	1	renfermé	
2234	1	renouvelé	
2235	1	rentre	
2236	1	renvoyait	
2237	1	repaissez	
2238	1	repens	
2239	1	reposait	
2240	1	repose	
2241	1	reposer	
2242	1	reposerai	
2243	1	reprenant	
2244	1	repris	
2245	1	reproche	
2246	1	reprocher	
2247	1	reprocheraient	
2248	1	reproches	
2249	1	respecte	
2250	1	respecter	
2251	1	respectueux	
2252	1	respirant	
2253	1	respire	
2254	1	respirer	
2255	1	respirera	
2256	1	ressens	
2257	1	ressentiment	
2258	1	ressentiments	
2259	1	ressentir	
2260	1	ressort	
2261	1	ressource	
2262	1	restait	
2263	1	retenez	
2264	1	retentit	
2265	1	retenue	
2266	1	retenus	
2267	1	retienne	
2268	1	retiennent	
2269	1	retiens	
2270	1	retient	
2271	1	retour	
2272	1	retourne	
2273	1	retournez	
2274	1	retournée	
2275	1	retraite	
2276	1	retrouve	
2277	1	retrouver	
2278	1	revenait	
2279	1	reviens	
2280	1	revêtir	
2281	1	revêtu	
2282	1	reçu	
2283	1	richesses	
2284	1	rigueurs	
2285	1	rit	
2286	1	romain	
2287	1	romaine	
2288	1	romps	
2289	1	rougir	
2290	1	rougis	
2291	1	rouvrir	
2292	1	rudes	
2293	1	rumeurs	
2294	1	réchauffent	
2295	1	réciter	
2296	1	récompense	
2297	1	récompenses	
2298	1	récuser	
2299	1	réduisant	
2300	1	régler	
2301	1	répandait	
2302	1	répandrait	
2303	1	répandue	
2304	1	répandus	
2305	1	répond	
2306	1	réponde	
2307	1	répondrai	
2308	1	répondront	
2309	1	répondu	
2310	1	réponse	
2311	1	réserve	
2312	1	réservent	
2313	1	réservez	
2314	1	résistance	
2315	1	résister	
2316	1	résistiez	
2317	1	réunion	
2318	1	réveillant	
2319	1	révoque	
2320	1	révèle	
2321	1	révèrent	
2322	1	révéler	
2323	1	sacrifice	
2324	1	sacrifices	
2325	1	sacrifier	
2326	1	sacrifié	
2327	1	sage	
2328	1	saint	
2329	1	saints	
2330	1	saisi	
2331	1	santé	
2332	1	satisfait	
2333	1	satisfasse	
2334	1	saurait	
2335	1	sauront	
2336	1	sauvage	
2337	1	sauvez	
2338	1	sauvé	
2339	1	savais	
2340	1	secondai	
2341	1	secourir	
2342	1	secrète	
2343	1	secrètement	
2344	1	selon	
2345	1	semblaient	
2346	1	semblait	
2347	1	sensible	
2348	1	sensibles	
2349	1	sent	
2350	1	sentais	
2351	1	sentiments	
2352	1	serai	
2353	1	sereins	
2354	1	seriez	
2355	1	seront	
2356	1	servent	
2357	1	servie	
2358	1	sienne	
2359	1	siennes	
2360	1	signaler	
2361	1	signalez	
2362	1	signalés	
2363	1	singulière	
2364	1	sinistres	
2365	1	sitôt	
2366	1	six	
2367	1	soigneux	
2368	1	soldat	
2369	1	solide	
2370	1	solitaire	
2371	1	solitude	
2372	1	sombre	
2373	1	sombres	
2374	1	sommes	
2375	1	songe	
2376	1	songiez	
2377	1	sortez	
2378	1	sortons	
2379	1	soudain	
2380	1	souhaitai	
2381	1	souhaite	
2382	1	soulageait	
2383	1	soulager	
2384	1	soulever	
2385	1	soumette	
2386	1	soupir	
2387	1	soupirait	
2388	1	soupirant	
2389	1	soupçonner	
2390	1	soupçonnez	
2391	1	soupçonnée	
2392	1	sourde	
2393	1	souscririez	
2394	1	soustrait	
2395	1	soutient	
2396	1	souvenez	
2397	1	souvent	
2398	1	souverain	
2399	1	souveraine	
2400	1	souviens	
2401	1	soyez	
2402	1	statue	
2403	1	successeurs	
2404	1	succède	
2405	1	succéder	
2406	1	suffrage	
2407	1	suit	
2408	1	suivons	
2409	1	suivrait	
2410	1	suivront	
2411	1	sujets	
2412	1	sujette	
2413	1	superbe	
2414	1	superflus	
2415	1	suppliante	
2416	1	surprend	
2417	1	surprendre	
2418	1	surprenons	
2419	1	surveillants	
2420	1	séditieux	
2421	1	séduire	
2422	1	séduits	
2423	1	sénateurs	
2424	1	sénécion	
2425	1	séparer	
2426	1	séparés	
2427	1	sûre	
2428	1	sûreté	
2429	1	sût	
2430	1	tairaient	
2431	1	tarder	
2432	1	tarir	
2433	1	tel	
2434	1	temple	
2435	1	tempête	
2436	1	tenait	
2437	1	tendent	
2438	1	tendre	
2439	1	tendresses	
2440	1	tenir	
2441	1	tenté	
2442	1	terminé	
2443	1	thraséas	
2444	1	théâtre	
2445	1	tien	
2446	1	tiens	
2447	1	timide	
2448	1	timon	
2449	1	tirai	
2450	1	tombe	
2451	1	touchent	
2452	1	toucher	
2453	1	tourment	
2454	1	tourmenter	
2455	1	tournant	
2456	1	tournent	
2457	1	toutefois	
2458	1	traces	
2459	1	tracé	
2460	1	trafiquent	
2461	1	traitement	
2462	1	trancher	
2463	1	tranché	
2464	1	transport	
2465	1	travaillé	
2466	1	travers	
2467	1	traversé	
2468	1	traversés	
2469	1	traînée	
2470	1	tremblant	
2471	1	tremble	
2472	1	tribun	
2473	1	triomphe	
2474	1	triompher	
2475	1	tristes	
2476	1	tristesse	
2477	1	trompais	
2478	1	trompait	
2479	1	trompeurs	
2480	1	trompez	
2481	1	trompé	
2482	1	troublez	
2483	1	troublée	
2484	1	trouvais	
2485	1	trouve	
2486	1	trouvent	
2487	1	trouvera	
2488	1	trouverait	
2489	1	trouveront	
2490	1	trésor	
2491	1	trésors	
2492	1	tue	
2493	1	tumulte	
2494	1	tutelle	
2495	1	tyran	
2496	1	tyrannie	
2497	1	tâche	
2498	1	témoignage	
2499	1	téméraire	
2500	1	tête	
2501	1	unirent	
2502	1	unissez	
2503	1	uns	
2504	1	vaincrai	
2505	1	vaincus	
2506	1	vainqueur	
2507	1	vains	
2508	1	vante	
2509	1	vantée	
2510	1	vas	
2511	1	vaut	
2512	1	veille	
2513	1	veilles	
2514	1	venait	
2515	1	vend	
2516	1	vendrai	
2517	1	vendus	
2518	1	venger	
2519	1	vengeurs	
2520	1	veniez	
2521	1	venin	
2522	1	verraient	
2523	1	verrait	
2524	1	verras	
2525	1	verrons	
2526	1	verront	
2527	1	versés	
2528	1	vertueux	
2529	1	vestales	
2530	1	victoire	
2531	1	vieillissant	
2532	1	viendront	
2533	1	vierges	
2534	1	vinrent	
2535	1	virent	
2536	1	vis	
2537	1	vivez	
2538	1	voeu	
2539	1	voie	
2540	1	voile	
2541	1	voler	
2542	1	volonté	
2543	1	voluptueux	
2544	1	voudra	
2545	1	voudras	
2546	1	voulait	
2547	1	vouliez	
2548	1	voyons	
2549	1	vécu	
2550	1	véritable	
2551	1	vérité	
2552	1	ébloui	
2553	1	éblouirent	
2554	1	écarta	
2555	1	écartait	
2556	1	écarté	
2557	1	échapper	
2558	1	échappera	
2559	1	échappé	
2560	1	échappée	
2561	1	éclaircira	
2562	1	éclaircissements	
2563	1	éclaircissez	
2564	1	éclate	
2565	1	écoutant	
2566	1	écoutent	
2567	1	écrire	
2568	1	écueils	
2569	1	égarements	
2570	1	égarer	
2571	1	égarés	
2572	1	élevée	
2573	1	éloigna	
2574	1	éloigne	
2575	1	éloignez	
2576	1	émus	
2577	1	épanchait	
2578	1	épanche	
2579	1	épargnant	
2580	1	épargne	
2581	1	épargnera	
2582	1	éperdue	
2583	1	épier	
2584	1	épousa	
2585	1	épouser	
2586	1	épouvanter	
2587	1	éprouver	
2588	1	épuisant	
2589	1	épuisé	
2590	1	équitable	
2591	1	établi	
2592	1	établie	
2593	1	éteint	
2594	1	éteinte	
2595	1	étendue	
2596	1	éternelle	
2597	1	étiez	
2598	1	étonne	
2599	1	étonnée	
2600	1	étonnés	
2601	1	étouffer	
2602	1	étouffés	
2603	1	étrange	
2604	1	étranger	
2605	1	étrangère	
2606	1	été	
2607	1	évitant	
2608	1	éviter	
2609	1	évitez	
2610	1	évité	
2611	1	ôte	
