#Word Types: 2187
#Word Tokens: 15115
#Search Hits: 0
1	495	et	
2	404	de	
3	360	vous	
4	345	l	
5	313	à	
6	297	je	
7	294	le	
8	273	un	
9	270	en	
10	257	que	
11	247	il	
12	213	pour	
13	209	mon	
14	208	la	
15	179	qu	
16	177	d	
17	160	son	
18	139	ma	
19	137	est	
20	136	me	
21	136	ne	
22	129	ce	
23	124	si	
24	123	m	
25	120	mais	
26	114	j	
27	111	par	
28	109	qui	
29	107	plus	
30	84	sa	
31	80	n	
32	79	au	
33	77	votre	
34	73	frère	
35	72	amour	
36	67	s	
37	65	moi	
38	62	lui	
39	61	du	
40	58	deux	
41	58	roi	
42	55	ai	
43	55	on	
44	54	fait	
45	54	ou	
46	53	mes	
47	53	être	
48	52	une	
49	51	fils	
50	50	même	
51	48	pas	
52	46	elle	
53	46	les	
54	44	autre	
55	44	père	
56	43	se	
57	42	point	
58	41	comme	
59	40	mort	
60	39	dans	
61	39	moins	
62	39	nous	
63	39	sans	
64	38	bien	
65	38	haine	
66	38	peut	
67	37	avec	
68	36	a	
69	36	avoir	
70	36	des	
71	36	princesse	
72	35	ainsi	
73	35	crime	
74	35	faire	
75	35	y	
76	34	donc	
77	34	tout	
78	33	ses	
79	33	ton	
80	32	arsace	
81	31	leur	
82	31	sur	
83	31	te	
84	30	empire	
85	30	t	
86	29	cette	
87	29	coeur	
88	29	soeur	
89	28	celui	
90	28	veut	
91	28	voir	
92	28	vos	
93	27	dois	
94	27	tous	
95	26	grand	
96	26	non	
97	25	prince	
98	25	quand	
99	25	tu	
100	24	contre	
101	22	aussi	
102	22	avecque	
103	22	coupable	
104	22	sera	
105	22	soit	
106	22	sort	
107	22	veux	
108	21	c	
109	21	combat	
110	21	doit	
111	21	ha	
112	21	sang	
113	20	donne	
114	20	enfin	
115	20	où	
116	20	trop	
117	19	couronne	
118	19	dont	
119	19	gloire	
120	19	innocent	
121	19	punir	
122	19	quelque	
123	19	quoi	
124	19	sceptre	
125	19	voeux	
126	18	faut	
127	18	puis	
128	18	seulement	
129	18	trône	
130	18	vie	
131	17	aux	
132	17	choix	
133	17	connaître	
134	17	coup	
135	17	régner	
136	17	ta	
137	17	venger	
138	16	cet	
139	16	effet	
140	16	fureur	
141	16	peine	
142	16	suis	
143	15	car	
144	15	main	
145	15	mourir	
146	15	sujet	
147	15	trépas	
148	15	vais	
149	15	vois	
150	15	âme	
151	15	était	
152	14	bonheur	
153	14	devoir	
154	14	donner	
155	14	faveur	
156	14	peu	
157	14	rien	
158	14	rival	
159	14	sire	
160	14	toujours	
161	14	vôtre	
162	14	étant	
163	13	après	
164	13	avant	
165	13	effort	
166	13	ici	
167	13	justice	
168	13	mieux	
169	13	pharasmane	
170	13	pouvoir	
171	13	rendre	
172	13	rigueur	
173	13	vouloir	
174	13	ôter	
175	12	aimer	
176	12	amant	
177	12	doux	
178	12	flamme	
179	12	fut	
180	12	plutôt	
181	12	puisque	
182	12	rang	
183	12	supplice	
184	12	tant	
185	12	toi	
186	12	yeux	
187	11	aime	
188	11	aura	
189	11	bras	
190	11	ces	
191	11	courroux	
192	11	encore	
193	11	innocence	
194	11	maître	
195	11	notre	
196	11	perte	
197	11	seul	
198	11	sont	
199	11	trouver	
200	11	va	
201	11	vainqueur	
202	11	vient	
203	10	ambition	
204	10	aujourd	
205	10	avez	
206	10	ciel	
207	10	colère	
208	10	contraire	
209	10	couronné	
210	10	craindre	
211	10	criminel	
212	10	dessein	
213	10	digne	
214	10	droits	
215	10	ennemi	
216	10	espoir	
217	10	eux	
218	10	fais	
219	10	faisant	
220	10	hui	
221	10	ils	
222	10	laisse	
223	10	leurs	
224	10	loin	
225	10	madame	
226	10	monarque	
227	10	pu	
228	10	serai	
229	10	toute	
230	10	égal	
231	10	époux	
232	9	alors	
233	9	arrêt	
234	9	assassin	
235	9	assurer	
236	9	attentat	
237	9	devant	
238	9	ensemble	
239	9	entre	
240	9	foi	
241	9	grâce	
242	9	jour	
243	9	juge	
244	9	jusqu	
245	9	juste	
246	9	lieu	
247	9	lorsqu	
248	9	lâche	
249	9	malheur	
250	9	nos	
251	9	perdre	
252	9	pouvant	
253	9	prix	
254	9	quel	
255	9	respect	
256	9	équitable	
257	8	crainte	
258	8	crois	
259	8	droit	
260	8	fatal	
261	8	forfait	
262	8	hymen	
263	8	lois	
264	8	malgré	
265	8	mépris	
266	8	naissance	
267	8	ni	
268	8	puisqu	
269	8	périr	
270	8	refus	
271	8	secret	
272	8	tendresse	
273	8	traître	
274	8	ô	
275	7	allons	
276	7	aurais	
277	7	aîné	
278	7	combattre	
279	7	conseil	
280	7	consulter	
281	7	contraindre	
282	7	croyez	
283	7	dire	
284	7	double	
285	7	encor	
286	7	espère	
287	7	espérance	
288	7	eut	
289	7	faites	
290	7	feu	
291	7	fois	
292	7	funeste	
293	7	honneur	
294	7	honte	
295	7	horreur	
296	7	injuste	
297	7	intérêt	
298	7	lorsque	
299	7	mains	
300	7	naître	
301	7	ordonne	
302	7	ose	
303	7	oui	
304	7	parricide	
305	7	permis	
306	7	plaindre	
307	7	propre	
308	7	remords	
309	7	sauver	
310	7	serait	
311	7	servir	
312	7	surpris	
313	7	tel	
314	7	vertu	
315	7	voulant	
316	7	voyant	
317	7	également	
318	7	équité	
319	7	état	
320	7	êtes	
321	6	adieu	
322	6	ailleurs	
323	6	amante	
324	6	attente	
325	6	aussitôt	
326	6	avais	
327	6	ayant	
328	6	cache	
329	6	croire	
330	6	croit	
331	6	donné	
332	6	doute	
333	6	défendre	
334	6	déjà	
335	6	ennemis	
336	6	femme	
337	6	fit	
338	6	grandeur	
339	6	heureux	
340	6	jours	
341	6	magnanime	
342	6	mal	
343	6	nature	
344	6	ordre	
345	6	orgueil	
346	6	peur	
347	6	pitié	
348	6	porter	
349	6	résoudre	
350	6	sentiments	
351	6	seule	
352	6	tes	
353	6	témoin	
354	6	vain	
355	6	victoire	
356	6	visage	
357	6	voulu	
358	5	affection	
359	5	afin	
360	5	agir	
361	5	aimai	
362	5	ait	
363	5	allez	
364	5	amitié	
365	5	assez	
366	5	attaquer	
367	5	attendre	
368	5	audace	
369	5	aurai	
370	5	aurait	
371	5	avait	
372	5	aveuglement	
373	5	cependant	
374	5	cher	
375	5	choisir	
376	5	connais	
377	5	coups	
378	5	craint	
379	5	demain	
380	5	disgrâce	
381	5	donnant	
382	5	donnez	
383	5	ennui	
384	5	entendre	
385	5	envie	
386	5	esprit	
387	5	espérer	
388	5	espérez	
389	5	estime	
390	5	extrême	
391	5	feinte	
392	5	force	
393	5	front	
394	5	généreux	
395	5	inspire	
396	5	instant	
397	5	irrité	
398	5	jusques	
399	5	loi	
400	5	lors	
401	5	légitime	
402	5	menace	
403	5	moment	
404	5	monter	
405	5	montre	
406	5	mortelle	
407	5	méconnaître	
408	5	médonie	
409	5	nouveau	
410	5	nouvelle	
411	5	obéissance	
412	5	offrir	
413	5	ont	
414	5	ordonnez	
415	5	paraître	
416	5	parle	
417	5	passer	
418	5	perdra	
419	5	pourra	
420	5	pourrais	
421	5	pouvez	
422	5	promettre	
423	5	prêt	
424	5	puissant	
425	5	puisse	
426	5	querelle	
427	5	quoiqu	
428	5	rage	
429	5	raison	
430	5	ravir	
431	5	rend	
432	5	rendra	
433	5	secours	
434	5	sens	
435	5	serez	
436	5	silence	
437	5	soumis	
438	5	soupçon	
439	5	sous	
440	5	vaincu	
441	5	vaine	
442	5	viens	
443	5	voulut	
444	4	aisément	
445	4	araxie	
446	4	arrête	
447	4	assassiner	
448	4	assure	
449	4	attends	
450	4	auriez	
451	4	aveugle	
452	4	beaucoup	
453	4	bouche	
454	4	cacher	
455	4	châtiment	
456	4	commettre	
457	4	confus	
458	4	connaît	
459	4	content	
460	4	contrainte	
461	4	coûte	
462	4	craignez	
463	4	crains	
464	4	cruel	
465	4	crus	
466	4	céder	
467	4	demande	
468	4	dessus	
469	4	devenir	
470	4	dieux	
471	4	douter	
472	4	due	
473	4	déplaire	
474	4	désirs	
475	4	désormais	
476	4	engage	
477	4	excès	
478	4	faisons	
479	4	fasse	
480	4	fera	
481	4	flatter	
482	4	fort	
483	4	fortune	
484	4	garde	
485	4	gardes	
486	4	immoler	
487	4	incertaine	
488	4	inhumain	
489	4	jamais	
490	4	joie	
491	4	jugez	
492	4	justement	
493	4	marque	
494	4	mienne	
495	4	noir	
496	4	oppose	
497	4	oublier	
498	4	partagé	
499	4	parti	
500	4	payer	
501	4	penser	
502	4	perfide	
503	4	pieds	
504	4	pourrait	
505	4	premier	
506	4	punition	
507	4	quitter	
508	4	rebelle	
509	4	redouter	
510	4	refuse	
511	4	regret	
512	4	reine	
513	4	rendez	
514	4	rends	
515	4	reste	
516	4	rigoureux	
517	4	rois	
518	4	sais	
519	4	sait	
520	4	serais	
521	4	sien	
522	4	sienne	
523	4	soins	
524	4	souvenir	
525	4	soyez	
526	4	successeur	
527	4	sujets	
528	4	suprême	
529	4	sévère	
530	4	tandis	
531	4	tomber	
532	4	triste	
533	4	témoigner	
534	4	unir	
535	4	vaincre	
536	4	verra	
537	4	vers	
538	4	voici	
539	4	voix	
540	4	voulez	
541	4	voulus	
542	4	vu	
543	4	vue	
544	4	étais	
545	4	été	
546	3	abaisse	
547	3	abandonner	
548	3	accuse	
549	3	acquitter	
550	3	allais	
551	3	animer	
552	3	annoncer	
553	3	apparence	
554	3	arbitre	
555	3	ardeur	
556	3	armant	
557	3	art	
558	3	asservir	
559	3	assuré	
560	3	attaque	
561	3	atteinte	
562	3	attenter	
563	3	autant	
564	3	avantage	
565	3	aversion	
566	3	aînesse	
567	3	belle	
568	3	bienfait	
569	3	biens	
570	3	bonté	
571	3	clarté	
572	3	combattrez	
573	3	commander	
574	3	concevoir	
575	3	condamne	
576	3	condamné	
577	3	confond	
578	3	connu	
579	3	consent	
580	3	contraint	
581	3	cour	
582	3	cours	
583	3	crimes	
584	3	criminelle	
585	3	croirait	
586	3	croyant	
587	3	cru	
588	3	côté	
589	3	danger	
590	3	demander	
591	3	demeurer	
592	3	dessous	
593	3	destin	
594	3	devez	
595	3	dirai	
596	3	disposer	
597	3	dit	
598	3	doive	
599	3	découvre	
600	3	détruire	
601	3	dû	
602	3	effets	
603	3	elles	
604	3	empêcher	
605	3	fa	
606	3	faute	
607	3	favorable	
608	3	feint	
609	3	forcé	
610	3	frères	
611	3	générosité	
612	3	heur	
613	3	hommage	
614	3	hé	
615	3	héréditaire	
616	3	immolé	
617	3	ingrat	
618	3	inhumains	
619	3	intérêts	
620	3	jaloux	
621	3	joindre	
622	3	joint	
623	3	juger	
624	3	laisser	
625	3	longtemps	
626	3	maintenant	
627	3	malheureux	
628	3	manque	
629	3	mettre	
630	3	mien	
631	3	mot	
632	3	mouvement	
633	3	moyen	
634	3	mérite	
635	3	mériter	
636	3	nommé	
637	3	observer	
638	3	obéir	
639	3	offense	
640	3	offensé	
641	3	ordonner	
642	3	ouverte	
643	3	parler	
644	3	part	
645	3	partage	
646	3	passé	
647	3	paternel	
648	3	perdrai	
649	3	permettez	
650	3	place	
651	3	posséder	
652	3	pourquoi	
653	3	prenant	
654	3	prendre	
655	3	presse	
656	3	prompte	
657	3	prudence	
658	3	présence	
659	3	présent	
660	3	préside	
661	3	présumez	
662	3	puissance	
663	3	puni	
664	3	péril	
665	3	qualité	
666	3	quitte	
667	3	ravie	
668	3	recevez	
669	3	repos	
670	3	reproche	
671	3	reprocher	
672	3	ressentiment	
673	3	rigueurs	
674	3	rougir	
675	3	règne	
676	3	seigneur	
677	3	sensible	
678	3	seront	
679	3	soient	
680	3	soupirs	
681	3	su	
682	3	succès	
683	3	sujette	
684	3	toutefois	
685	3	troubler	
686	3	trouvant	
687	3	trouve	
688	3	tête	
689	3	unis	
690	3	vengeance	
691	3	vertus	
692	3	victime	
693	3	vive	
694	3	voulait	
695	3	vouliez	
696	3	véritable	
697	3	éclat	
698	3	éclate	
699	3	écouter	
700	3	élève	
701	3	éviter	
702	3	ôte	
703	2	abaissement	
704	2	abandonne	
705	2	abattre	
706	2	abusé	
707	2	accorde	
708	2	accusant	
709	2	acheter	
710	2	achevez	
711	2	acquis	
712	2	acquérir	
713	2	adresse	
714	2	affaiblir	
715	2	aimez	
716	2	aimé	
717	2	ajouter	
718	2	amants	
719	2	ambitieux	
720	2	amène	
721	2	anime	
722	2	appartement	
723	2	apprendre	
724	2	appui	
725	2	arrachant	
726	2	arrêter	
727	2	artifice	
728	2	assemble	
729	2	assurait	
730	2	assurance	
731	2	assurée	
732	2	assurément	
733	2	aucun	
734	2	auguste	
735	2	aurez	
736	2	auteur	
737	2	autorise	
738	2	autorité	
739	2	aveu	
740	2	avis	
741	2	avéré	
742	2	balance	
743	2	bas	
744	2	blessure	
745	2	bon	
746	2	bontés	
747	2	caché	
748	2	capitaine	
749	2	captiver	
750	2	cause	
751	2	celle	
752	2	cessant	
753	2	ceux	
754	2	chacun	
755	2	chaleur	
756	2	changer	
757	2	chaque	
758	2	cherche	
759	2	chère	
760	2	clartés	
761	2	coeurs	
762	2	comble	
763	2	commencez	
764	2	comment	
765	2	commun	
766	2	complice	
767	2	conduire	
768	2	consentir	
769	2	considère	
770	2	consultez	
771	2	convaincu	
772	2	convie	
773	2	courage	
774	2	couriez	
775	2	couronner	
776	2	couronnez	
777	2	couvre	
778	2	croira	
779	2	croirai	
780	2	cruauté	
781	2	cruelle	
782	2	crut	
783	2	davantage	
784	2	demi	
785	2	depuis	
786	2	destiné	
787	2	devait	
788	2	deviendrez	
789	2	devient	
790	2	diadème	
791	2	différez	
792	2	différé	
793	2	discours	
794	2	doncques	
795	2	douceur	
796	2	douleur	
797	2	douteux	
798	2	dès	
799	2	défaite	
800	2	défend	
801	2	défendant	
802	2	défendez	
803	2	déferre	
804	2	dégager	
805	2	délibère	
806	2	dénaturé	
807	2	dépens	
808	2	déplaisir	
809	2	désabuser	
810	2	désespoir	
811	2	désir	
812	2	désire	
813	2	désobéir	
814	2	efface	
815	2	effroi	
816	2	emporte	
817	2	empêche	
818	2	enfants	
819	2	engager	
820	2	entière	
821	2	entreprend	
822	2	entrepris	
823	2	entrer	
824	2	envers	
825	2	esprits	
826	2	eusse	
827	2	exemple	
828	2	faiblesse	
829	2	fallait	
830	2	famille	
831	2	faudrait	
832	2	faveurs	
833	2	feindre	
834	2	feins	
835	2	ferai	
836	2	ferais	
837	2	ferait	
838	2	ferez	
839	2	fermer	
840	2	ferons	
841	2	feront	
842	2	feux	
843	2	fidèle	
844	2	fin	
845	2	finir	
846	2	flatte	
847	2	forte	
848	2	foudre	
849	2	franchise	
850	2	fuit	
851	2	fuyez	
852	2	gage	
853	2	grands	
854	2	généreuse	
855	2	haïr	
856	2	heure	
857	2	heureuse	
858	2	honteux	
859	2	hélas	
860	2	important	
861	2	indigne	
862	2	infamie	
863	2	infidèle	
864	2	infidélité	
865	2	injustice	
866	2	insolent	
867	2	instruit	
868	2	intelligence	
869	2	interprète	
870	2	intéresse	
871	2	irrite	
872	2	irritée	
873	2	jugé	
874	2	justifiant	
875	2	justifier	
876	2	laissant	
877	2	laissez	
878	2	langue	
879	2	languissante	
880	2	loisir	
881	2	là	
882	2	manquant	
883	2	mauvais	
884	2	maux	
885	2	meurs	
886	2	mis	
887	2	moitié	
888	2	montrant	
889	2	montrez	
890	2	morte	
891	2	mots	
892	2	mutuelle	
893	2	méprisée	
894	2	méritent	
895	2	mérité	
896	2	mêmes	
897	2	noble	
898	2	noblement	
899	2	noeuds	
900	2	noire	
901	2	nom	
902	2	nommant	
903	2	nouveaux	
904	2	nul	
905	2	nécessité	
906	2	objet	
907	2	obtenir	
908	2	obtiendra	
909	2	opposer	
910	2	opprime	
911	2	ordonnant	
912	2	oserai	
913	2	outrage	
914	2	paraît	
915	2	parole	
916	2	pencher	
917	2	pense	
918	2	pensée	
919	2	percer	
920	2	perd	
921	2	perfidie	
922	2	permettre	
923	2	peuvent	
924	2	peux	
925	2	plainte	
926	2	plaît	
927	2	pleurs	
928	2	poignard	
929	2	porte	
930	2	pourrai	
931	2	poursuivez	
932	2	pourtant	
933	2	poussé	
934	2	pouvons	
935	2	prenait	
936	2	prenez	
937	2	pressé	
938	2	pressée	
939	2	princes	
940	2	proche	
941	2	produit	
942	2	promesse	
943	2	promis	
944	2	prompt	
945	2	propice	
946	2	propres	
947	2	protéger	
948	2	présage	
949	2	prétends	
950	2	prévu	
951	2	public	
952	2	punirai	
953	2	punissez	
954	2	périront	
955	2	quelle	
956	2	quiconque	
957	2	quittant	
958	2	quittez	
959	2	quitté	
960	2	quoique	
961	2	raisons	
962	2	reconnaîtra	
963	2	recouvre	
964	2	redevable	
965	2	redouble	
966	2	refuser	
967	2	rejette	
968	2	remet	
969	2	rencontre	
970	2	rendu	
971	2	respects	
972	2	retenir	
973	2	revient	
974	2	royauté	
975	2	rébellion	
976	2	récompense	
977	2	réduit	
978	2	régler	
979	2	répondre	
980	2	résolu	
981	2	salaire	
982	2	sanglant	
983	2	sauvera	
984	2	savez	
985	2	savoir	
986	2	seconde	
987	2	sein	
988	2	semble	
989	2	sentir	
990	2	soi	
991	2	songez	
992	2	souffrir	
993	2	soumettre	
994	2	soutient	
995	2	souveraine	
996	2	subir	
997	2	succéder	
998	2	suite	
999	2	sépare	
1000	2	séparé	
1001	2	sévérité	
1002	2	telle	
1003	2	temps	
1004	2	tenant	
1005	2	tendresses	
1006	2	tenter	
1007	2	tiens	
1008	2	timide	
1009	2	touche	
1010	2	touché	
1011	2	toutes	
1012	2	trahi	
1013	2	trahir	
1014	2	transit	
1015	2	transport	
1016	2	tromper	
1017	2	trouble	
1018	2	trouvera	
1019	2	tue	
1020	2	tyranniques	
1021	2	témoignage	
1022	2	témoignez	
1023	2	unique	
1024	2	vainement	
1025	2	vas	
1026	2	vengeur	
1027	2	vengez	
1028	2	vengé	
1029	2	verrai	
1030	2	veulent	
1031	2	violence	
1032	2	vivante	
1033	2	voit	
1034	2	vologèse	
1035	2	voudrait	
1036	2	voyez	
1037	2	voyons	
1038	2	vérité	
1039	2	âge	
1040	2	éclatant	
1041	2	éclater	
1042	2	écoute	
1043	2	élever	
1044	2	épargner	
1045	2	épouse	
1046	2	épouser	
1047	2	étonnement	
1048	2	étonné	
1049	2	ôté	
1050	1	abattue	
1051	1	abject	
1052	1	absence	
1053	1	absolu	
1054	1	absous	
1055	1	abus	
1056	1	abusais	
1057	1	abusant	
1058	1	abuse	
1059	1	abusée	
1060	1	accepter	
1061	1	accident	
1062	1	accord	
1063	1	accordai	
1064	1	accordais	
1065	1	accorder	
1066	1	accordé	
1067	1	accours	
1068	1	accuser	
1069	1	accuserai	
1070	1	accuserais	
1071	1	accuserait	
1072	1	accusez	
1073	1	achève	
1074	1	achèvera	
1075	1	acquierre	
1076	1	acquitte	
1077	1	acquérez	
1078	1	acte	
1079	1	actions	
1080	1	adopter	
1081	1	adore	
1082	1	adorer	
1083	1	adversaire	
1084	1	affaiblit	
1085	1	affaire	
1086	1	affermi	
1087	1	affermie	
1088	1	affliger	
1089	1	affranchi	
1090	1	affranchir	
1091	1	affranchira	
1092	1	affront	
1093	1	agirait	
1094	1	agissiez	
1095	1	agissons	
1096	1	agit	
1097	1	agitait	
1098	1	agite	
1099	1	agitée	
1100	1	aider	
1101	1	aimable	
1102	1	aimais	
1103	1	aimera	
1104	1	aimerai	
1105	1	aimeriez	
1106	1	aimons	
1107	1	ainé	
1108	1	aisé	
1109	1	ajoutez	
1110	1	ajouté	
1111	1	alarmer	
1112	1	aller	
1113	1	allumée	
1114	1	allégeance	
1115	1	allégresse	
1116	1	alléguer	
1117	1	amis	
1118	1	amorce	
1119	1	ample	
1120	1	animé	
1121	1	animée	
1122	1	apaiser	
1123	1	apaiseront	
1124	1	apaisé	
1125	1	appelaient	
1126	1	appeler	
1127	1	appelez	
1128	1	appelle	
1129	1	appellera	
1130	1	apprendrez	
1131	1	apprends	
1132	1	apprenez	
1133	1	apprenne	
1134	1	appris	
1135	1	approfondir	
1136	1	apprête	
1137	1	appuyant	
1138	1	armer	
1139	1	armes	
1140	1	armés	
1141	1	arrache	
1142	1	arracher	
1143	1	arrive	
1144	1	arrivé	
1145	1	arrêtai	
1146	1	arrêtée	
1147	1	as	
1148	1	aspire	
1149	1	assassinat	
1150	1	assassine	
1151	1	assassins	
1152	1	assise	
1153	1	assouvie	
1154	1	assujettir	
1155	1	assura	
1156	1	assurant	
1157	1	attacha	
1158	1	attachais	
1159	1	attacher	
1160	1	attacherai	
1161	1	attaché	
1162	1	attaquant	
1163	1	attaqué	
1164	1	attend	
1165	1	attendez	
1166	1	attentats	
1167	1	attiré	
1168	1	audacieux	
1169	1	auecque	
1170	1	augmente	
1171	1	augmenteront	
1172	1	auprès	
1173	1	auprés	
1174	1	auquel	
1175	1	auraient	
1176	1	autoriser	
1177	1	avaient	
1178	1	avance	
1179	1	avantagé	
1180	1	averti	
1181	1	aveugler	
1182	1	aveuglé	
1183	1	aviez	
1184	1	avouer	
1185	1	avouez	
1186	1	avérer	
1187	1	ay	
1188	1	ayez	
1189	1	balancer	
1190	1	bandeau	
1191	1	bannie	
1192	1	barbare	
1193	1	beau	
1194	1	ben	
1195	1	berceau	
1196	1	bientôt	
1197	1	blesse	
1198	1	blessures	
1199	1	blessé	
1200	1	blâme	
1201	1	bornera	
1202	1	bourreau	
1203	1	brave	
1204	1	bref	
1205	1	brillants	
1206	1	brille	
1207	1	bruit	
1208	1	brûlez	
1209	1	butte	
1210	1	cachent	
1211	1	caches	
1212	1	cachée	
1213	1	camp	
1214	1	capable	
1215	1	captive	
1216	1	cent	
1217	1	cercueil	
1218	1	certain	
1219	1	certaine	
1220	1	certes	
1221	1	champ	
1222	1	change	
1223	1	changement	
1224	1	changez	
1225	1	changé	
1226	1	changée	
1227	1	charmante	
1228	1	charme	
1229	1	charmer	
1230	1	chasse	
1231	1	cherchais	
1232	1	chercher	
1233	1	cherchera	
1234	1	cherchez	
1235	1	choir	
1236	1	choisi	
1237	1	choisie	
1238	1	choisirez	
1239	1	choisit	
1240	1	chéri	
1241	1	chérir	
1242	1	cieux	
1243	1	clémence	
1244	1	collé	
1245	1	combats	
1246	1	combattez	
1247	1	combattrai	
1248	1	combattrait	
1249	1	combattrons	
1250	1	combattront	
1251	1	combattue	
1252	1	combien	
1253	1	combler	
1254	1	commande	
1255	1	commandements	
1256	1	commencement	
1257	1	commencer	
1258	1	commencé	
1259	1	commença	
1260	1	commençant	
1261	1	commettrais	
1262	1	commune	
1263	1	conclu	
1264	1	condamner	
1265	1	condamnez	
1266	1	conduisez	
1267	1	conduit	
1268	1	confidence	
1269	1	confondre	
1270	1	confondue	
1271	1	confuse	
1272	1	confusion	
1273	1	congé	
1274	1	connaissance	
1275	1	connaissant	
1276	1	connaissez	
1277	1	connaîtras	
1278	1	connue	
1279	1	connus	
1280	1	conquérir	
1281	1	conquête	
1282	1	consens	
1283	1	consentement	
1284	1	consentez	
1285	1	conserver	
1286	1	conservera	
1287	1	considérez	
1288	1	consoler	
1289	1	conspire	
1290	1	consultiez	
1291	1	contente	
1292	1	contenter	
1293	1	contraigne	
1294	1	contraignez	
1295	1	conviction	
1296	1	conçois	
1297	1	conçu	
1298	1	couleur	
1299	1	couleurs	
1300	1	coulé	
1301	1	courez	
1302	1	courir	
1303	1	courte	
1304	1	courusse	
1305	1	courut	
1306	1	couvrir	
1307	1	coûter	
1308	1	coûtera	
1309	1	craignais	
1310	1	craignant	
1311	1	craignent	
1312	1	craigniez	
1313	1	craindrais	
1314	1	cris	
1315	1	croiriez	
1316	1	croît	
1317	1	cruels	
1318	1	crû	
1319	1	cède	
1320	1	céleste	
1321	1	côtés	
1322	1	demandais	
1323	1	demandant	
1324	1	demandiez	
1325	1	demandons	
1326	1	demandé	
1327	1	dernier	
1328	1	dernière	
1329	1	descend	
1330	1	descendre	
1331	1	destine	
1332	1	destinée	
1333	1	devais	
1334	1	devenais	
1335	1	deviendra	
1336	1	deviennent	
1337	1	deviez	
1338	1	devoirs	
1339	1	devras	
1340	1	die	
1341	1	dieu	
1342	1	diffère	
1343	1	différend	
1344	1	différends	
1345	1	dis	
1346	1	discorde	
1347	1	discordes	
1348	1	discrétion	
1349	1	dispensa	
1350	1	dispenserai	
1351	1	dispenseront	
1352	1	dispensez	
1353	1	dispose	
1354	1	disposes	
1355	1	disputer	
1356	1	disputé	
1357	1	dissimule	
1358	1	dissimulez	
1359	1	dissipe	
1360	1	distraire	
1361	1	dites	
1362	1	divines	
1363	1	diviser	
1364	1	doivent	
1365	1	dompter	
1366	1	don	
1367	1	donna	
1368	1	donnait	
1369	1	donnera	
1370	1	donniez	
1371	1	donnât	
1372	1	doublement	
1373	1	douleurs	
1374	1	doutai	
1375	1	douteriez	
1376	1	douteuse	
1377	1	dures	
1378	1	déclarer	
1379	1	déclarée	
1380	1	découvert	
1381	1	découvres	
1382	1	découvrez	
1383	1	découvrir	
1384	1	découvrirait	
1385	1	dédaigner	
1386	1	dédaignez	
1387	1	dédaignons	
1388	1	dédaigné	
1389	1	dédire	
1390	1	défaut	
1391	1	défends	
1392	1	défendue	
1393	1	défère	
1394	1	déférence	
1395	1	dégagé	
1396	1	dégrade	
1397	1	déguiser	
1398	1	déguisé	
1399	1	déhonore	
1400	1	délivre	
1401	1	déloyal	
1402	1	démente	
1403	1	démon	
1404	1	dénaturés	
1405	1	départ	
1406	1	départi	
1407	1	dépend	
1408	1	déplais	
1409	1	déposent	
1410	1	déposer	
1411	1	dérobe	
1412	1	dérobent	
1413	1	dérobés	
1414	1	dés	
1415	1	désarmée	
1416	1	désavouant	
1417	1	déshonneur	
1418	1	désirais	
1419	1	désirez	
1420	1	désordre	
1421	1	détestant	
1422	1	détournait	
1423	1	dévorer	
1424	1	déçu	
1425	1	e	
1426	1	effacées	
1427	1	efforts	
1428	1	effroyable	
1429	1	embrassai	
1430	1	embrasse	
1431	1	emploi	
1432	1	employant	
1433	1	employer	
1434	1	employiez	
1435	1	employé	
1436	1	empoisonne	
1437	1	emportez	
1438	1	emporté	
1439	1	empruntait	
1440	1	emprunte	
1441	1	emprunter	
1442	1	empêchant	
1443	1	empêchez	
1444	1	enchaînée	
1445	1	ennemie	
1446	1	ennuyeuse	
1447	1	entend	
1448	1	entends	
1449	1	entraîne	
1450	1	entreprendre	
1451	1	entretenir	
1452	1	entretien	
1453	1	envi	
1454	1	envoie	
1455	1	erreur	
1456	1	esclave	
1457	1	espérai	
1458	1	eussiez	
1459	1	exaucés	
1460	1	excitait	
1461	1	excite	
1462	1	exciter	
1463	1	excitez	
1464	1	excité	
1465	1	excusera	
1466	1	excuses	
1467	1	exempt	
1468	1	exigent	
1469	1	expire	
1470	1	expirer	
1471	1	expliquer	
1472	1	exploits	
1473	1	expose	
1474	1	exposer	
1475	1	exprimant	
1476	1	exprès	
1477	1	extrémité	
1478	1	exécuter	
1479	1	eût	
1480	1	facile	
1481	1	faibles	
1482	1	failli	
1483	1	faillir	
1484	1	faisais	
1485	1	faisait	
1486	1	faite	
1487	1	fans	
1488	1	fantôme	
1489	1	fard	
1490	1	farouche	
1491	1	faudra	
1492	1	fausses	
1493	1	favorablement	
1494	1	feignant	
1495	1	fer	
1496	1	fermai	
1497	1	fermera	
1498	1	fermeté	
1499	1	fers	
1500	1	figurez	
1501	1	fille	
1502	1	fini	
1503	1	finie	
1504	1	fis	
1505	1	flattez	
1506	1	fléchir	
1507	1	fléchira	
1508	1	fonde	
1509	1	fondent	
1510	1	font	
1511	1	forcer	
1512	1	forcez	
1513	1	forcée	
1514	1	forme	
1515	1	fortuné	
1516	1	fourni	
1517	1	frappé	
1518	1	fraternelle	
1519	1	frivole	
1520	1	fuira	
1521	1	fuite	
1522	1	funestes	
1523	1	fureurs	
1524	1	fus	
1525	1	futur	
1526	1	fuyais	
1527	1	fîmes	
1528	1	fît	
1529	1	gagner	
1530	1	genre	
1531	1	gens	
1532	1	gouverne	
1533	1	goûter	
1534	1	grande	
1535	1	grâces	
1536	1	gré	
1537	1	guide	
1538	1	gêne	
1539	1	hait	
1540	1	hasard	
1541	1	hasarde	
1542	1	haut	
1543	1	haute	
1544	1	haïssez	
1545	1	honorez	
1546	1	humanité	
1547	1	hyménée	
1548	1	hâter	
1549	1	héritage	
1550	1	hérite	
1551	1	hérités	
1552	1	héros	
1553	1	ignore	
1554	1	ignorer	
1555	1	ignorez	
1556	1	illusion	
1557	1	illustre	
1558	1	imite	
1559	1	imiter	
1560	1	immolerait	
1561	1	impiété	
1562	1	importe	
1563	1	importun	
1564	1	imposa	
1565	1	imposant	
1566	1	impose	
1567	1	imposent	
1568	1	imposez	
1569	1	imposteur	
1570	1	imprévu	
1571	1	imprévue	
1572	1	impudence	
1573	1	impuissant	
1574	1	impuissante	
1575	1	impunis	
1576	1	impunité	
1577	1	impute	
1578	1	imputez	
1579	1	impétueux	
1580	1	incline	
1581	1	inconnu	
1582	1	inconstance	
1583	1	incroyable	
1584	1	indigné	
1585	1	indulgence	
1586	1	indulgent	
1587	1	infaillible	
1588	1	infini	
1589	1	infinie	
1590	1	informe	
1591	1	infortuné	
1592	1	inhumaine	
1593	1	injure	
1594	1	innocents	
1595	1	insensée	
1596	1	inspirer	
1597	1	instinct	
1598	1	instruire	
1599	1	instruite	
1600	1	interdit	
1601	1	intéressant	
1602	1	intéressé	
1603	1	intéressée	
1604	1	invite	
1605	1	inégal	
1606	1	inévitable	
1607	1	irait	
1608	1	iront	
1609	1	irrésolue	
1610	1	jalouse	
1611	1	joignant	
1612	1	joignons	
1613	1	joindrai	
1614	1	jointe	
1615	1	jugeant	
1616	1	juré	
1617	1	laissait	
1618	1	laisserait	
1619	1	lancer	
1620	1	languissant	
1621	1	larmes	
1622	1	lents	
1623	1	lequel	
1624	1	libérale	
1625	1	liens	
1626	1	livre	
1627	1	loue	
1628	1	lumière	
1629	1	lâchement	
1630	1	lâches	
1631	1	lâcheté	
1632	1	légitimes	
1633	1	lêches	
1634	1	maintenir	
1635	1	malheurs	
1636	1	mandé	
1637	1	manquais	
1638	1	manquer	
1639	1	manqué	
1640	1	marques	
1641	1	mesurant	
1642	1	met	
1643	1	mets	
1644	1	mettez	
1645	1	mettront	
1646	1	meure	
1647	1	meurtre	
1648	1	meurtrier	
1649	1	meut	
1650	1	miens	
1651	1	milieu	
1652	1	mit	
1653	1	modérer	
1654	1	modérés	
1655	1	moments	
1656	1	monde	
1657	1	monstre	
1658	1	monstres	
1659	1	montasse	
1660	1	monte	
1661	1	montrait	
1662	1	montrer	
1663	1	montres	
1664	1	montrons	
1665	1	montré	
1666	1	mortels	
1667	1	motifs	
1668	1	mou	
1669	1	mourante	
1670	1	mourrai	
1671	1	mourrais	
1672	1	mouvaient	
1673	1	muette	
1674	1	mutine	
1675	1	médoine	
1676	1	mélange	
1677	1	mépriser	
1678	1	méritée	
1679	1	mêlait	
1680	1	mêler	
1681	1	naissances	
1682	1	naquis	
1683	1	naquit	
1684	1	naturel	
1685	1	noeud	
1686	1	nomme	
1687	1	nommez	
1688	1	noms	
1689	1	nouvel	
1690	1	né	
1691	1	objets	
1692	1	obligeait	
1693	1	obligera	
1694	1	obligé	
1695	1	obligés	
1696	1	obscurité	
1697	1	obscurités	
1698	1	obstacle	
1699	1	obstine	
1700	1	obstinée	
1701	1	obtiendrai	
1702	1	obtint	
1703	1	obéirai	
1704	1	obéirait	
1705	1	obéissant	
1706	1	occasion	
1707	1	occuper	
1708	1	odieuse	
1709	1	oeil	
1710	1	offrant	
1711	1	offrez	
1712	1	offrirais	
1713	1	ombre	
1714	1	opposez	
1715	1	opprimer	
1716	1	orage	
1717	1	ordonnai	
1718	1	oreille	
1719	1	ors	
1720	1	osait	
1721	1	osant	
1722	1	osera	
1723	1	osez	
1724	1	osé	
1725	1	oubli	
1726	1	oubliera	
1727	1	oubliez	
1728	1	outrager	
1729	1	outragé	
1730	1	outragée	
1731	1	ouvrage	
1732	1	ouvrir	
1733	1	paisible	
1734	1	palais	
1735	1	parais	
1736	1	paraisse	
1737	1	paraissez	
1738	1	paraîtrai	
1739	1	pardon	
1740	1	pardonner	
1741	1	pardonnerais	
1742	1	pardonné	
1743	1	pareil	
1744	1	pareille	
1745	1	pareilles	
1746	1	pareils	
1747	1	parfois	
1748	1	parla	
1749	1	parlent	
1750	1	parlez	
1751	1	parmi	
1752	1	parricides	
1753	1	partageais	
1754	1	partager	
1755	1	parte	
1756	1	parthes	
1757	1	partir	
1758	1	paré	
1759	1	passage	
1760	1	passant	
1761	1	passe	
1762	1	passion	
1763	1	passées	
1764	1	passés	
1765	1	payant	
1766	1	peines	
1767	1	penchera	
1768	1	perdant	
1769	1	perds	
1770	1	perfides	
1771	1	permet	
1772	1	permettais	
1773	1	perse	
1774	1	persécuteur	
1775	1	perçant	
1776	1	perçants	
1777	1	phradate	
1778	1	pire	
1779	1	placer	
1780	1	plaignez	
1781	1	plaindrai	
1782	1	plaindront	
1783	1	plains	
1784	1	plaint	
1785	1	plaire	
1786	1	plaisir	
1787	1	pleinement	
1788	1	pleurer	
1789	1	portait	
1790	1	portiez	
1791	1	porté	
1792	1	portée	
1793	1	postérité	
1794	1	pourrez	
1795	1	poursuite	
1796	1	poussait	
1797	1	pouvais	
1798	1	pouvait	
1799	1	pouviez	
1800	1	première	
1801	1	prend	
1802	1	prends	
1803	1	preniez	
1804	1	prescrit	
1805	1	pressant	
1806	1	princesses	
1807	1	principe	
1808	1	pris	
1809	1	prise	
1810	1	prison	
1811	1	prive	
1812	1	prière	
1813	1	profonds	
1814	1	projet	
1815	1	projets	
1816	1	projeté	
1817	1	prolonger	
1818	1	promet	
1819	1	promettant	
1820	1	promette	
1821	1	prononce	
1822	1	prononcer	
1823	1	propose	
1824	1	proposé	
1825	1	protecteur	
1826	1	protège	
1827	1	protégeais	
1828	1	protégera	
1829	1	provinces	
1830	1	précipitant	
1831	1	précipitons	
1832	1	précéder	
1833	1	préférence	
1834	1	prépare	
1835	1	préparée	
1836	1	présentais	
1837	1	présumé	
1838	1	présuppose	
1839	1	prétend	
1840	1	prétendit	
1841	1	prétendre	
1842	1	prétexte	
1843	1	prévenant	
1844	1	prévenir	
1845	1	prévenu	
1846	1	prévoir	
1847	1	prêteront	
1848	1	prêtez	
1849	1	prêtons	
1850	1	prêts	
1851	1	puissants	
1852	1	punirais	
1853	1	punirait	
1854	1	punissant	
1855	1	pur	
1856	1	pure	
1857	1	put	
1858	1	périra	
1859	1	périrai	
1860	1	périt	
1861	1	pût	
1862	1	quelqu	
1863	1	quels	
1864	1	rabaisse	
1865	1	ralentir	
1866	1	ranger	
1867	1	rappelle	
1868	1	rapport	
1869	1	rarement	
1870	1	ravit	
1871	1	rayon	
1872	1	recevoir	
1873	1	reconnais	
1874	1	reconnaissance	
1875	1	reconnaissez	
1876	1	reconnaître	
1877	1	reconnu	
1878	1	recule	
1879	1	redonne	
1880	1	redoublant	
1881	1	refusa	
1882	1	refuserai	
1883	1	refusez	
1884	1	refusé	
1885	1	regardait	
1886	1	regarde	
1887	1	regarder	
1888	1	regardez	
1889	1	regrettable	
1890	1	rejeter	
1891	1	reluire	
1892	1	reluit	
1893	1	relâche	
1894	1	relèvent	
1895	1	remarque	
1896	1	remets	
1897	1	remplir	
1898	1	remède	
1899	1	renaître	
1900	1	rendit	
1901	1	rendons	
1902	1	rendrai	
1903	1	rendrais	
1904	1	renom	
1905	1	renouvelle	
1906	1	repens	
1907	1	repentant	
1908	1	repentir	
1909	1	respecte	
1910	1	ressembler	
1911	1	ressens	
1912	1	ressentiments	
1913	1	ressusciter	
1914	1	restait	
1915	1	retardement	
1916	1	retenue	
1917	1	retiendra	
1918	1	retienne	
1919	1	retiens	
1920	1	retient	
1921	1	retourne	
1922	1	retrancher	
1923	1	revenez	
1924	1	revoyez	
1925	1	revêtu	
1926	1	reçoit	
1927	1	reçu	
1928	1	reçue	
1929	1	risée	
1930	1	rit	
1931	1	rivale	
1932	1	rompe	
1933	1	rompre	
1934	1	rougit	
1935	1	royal	
1936	1	ruse	
1937	1	règnerai	
1938	1	récit	
1939	1	récompenser	
1940	1	réduire	
1941	1	réglant	
1942	1	régnera	
1943	1	régnerait	
1944	1	régneront	
1945	1	régnez	
1946	1	répand	
1947	1	répandre	
1948	1	répandu	
1949	1	répendrai	
1950	1	réponde	
1951	1	répondez	
1952	1	répondra	
1953	1	réponse	
1954	1	réserver	
1955	1	résister	
1956	1	résout	
1957	1	réunissant	
1958	1	réussit	
1959	1	réveille	
1960	1	révolté	
1961	1	révoltés	
1962	1	révoquai	
1963	1	révoque	
1964	1	révoquez	
1965	1	sache	
1966	1	sachez	
1967	1	sacrés	
1968	1	sainte	
1969	1	saintes	
1970	1	saisit	
1971	1	salutaire	
1972	1	sanglants	
1973	1	saurai	
1974	1	saurait	
1975	1	sauvant	
1976	1	sauve	
1977	1	sauvez	
1978	1	second	
1979	1	seconda	
1980	1	seconder	
1981	1	secrets	
1982	1	selucie	
1983	1	semant	
1984	1	semblé	
1985	1	sent	
1986	1	sentiment	
1987	1	sentiriez	
1988	1	seras	
1989	1	seriez	
1990	1	serment	
1991	1	sers	
1992	1	servage	
1993	1	servez	
1994	1	servi	
1995	1	servie	
1996	1	servira	
1997	1	seuls	
1998	1	sevère	
1999	1	siens	
2000	1	signaler	
2001	1	sincère	
2002	1	sinistre	
2003	1	sinon	
2004	1	soin	
2005	1	sois	
2006	1	sollicite	
2007	1	sollicité	
2008	1	songe	
2009	1	songer	
2010	1	sortez	
2011	1	souffrez	
2012	1	souffrirai	
2013	1	souhaite	
2014	1	souhaité	
2015	1	soulagement	
2016	1	soulèverait	
2017	1	soumet	
2018	1	soumettez	
2019	1	soumettrai	
2020	1	soumise	
2021	1	soumission	
2022	1	soumit	
2023	1	soupir	
2024	1	soupçonnant	
2025	1	soupçonner	
2026	1	source	
2027	1	sourde	
2028	1	souscrire	
2029	1	soustraire	
2030	1	soutint	
2031	1	souvent	
2032	1	souverain	
2033	1	souvient	
2034	1	spectacle	
2035	1	subit	
2036	1	succombe	
2037	1	succède	
2038	1	suivant	
2039	1	suivie	
2040	1	suivis	
2041	1	suivons	
2042	1	suivra	
2043	1	sujétion	
2044	1	superbe	
2045	1	superflus	
2046	1	supposé	
2047	1	supprime	
2048	1	surmonte	
2049	1	surplus	
2050	1	surprendra	
2051	1	survivant	
2052	1	survivre	
2053	1	suspect	
2054	1	suspecte	
2055	1	séduire	
2056	1	séparer	
2057	1	sévères	
2058	1	tache	
2059	1	tenaient	
2060	1	tendre	
2061	1	tenir	
2062	1	tenons	
2063	1	tenu	
2064	1	terme	
2065	1	terminant	
2066	1	terminez	
2067	1	ternir	
2068	1	tiendrai	
2069	1	tiendrais	
2070	1	tienne	
2071	1	tient	
2072	1	timidité	
2073	1	tins	
2074	1	tirer	
2075	1	titre	
2076	1	tombant	
2077	1	tombera	
2078	1	tour	
2079	1	tourment	
2080	1	trahirais	
2081	1	trahis	
2082	1	traitait	
2083	1	traite	
2084	1	traiteriez	
2085	1	trame	
2086	1	transports	
2087	1	tremble	
2088	1	trembler	
2089	1	triomphant	
2090	1	triomphante	
2091	1	triomphe	
2092	1	triompher	
2093	1	triple	
2094	1	tristes	
2095	1	tristesse	
2096	1	trois	
2097	1	trompe	
2098	1	trompeur	
2099	1	trompé	
2100	1	trompée	
2101	1	trouverai	
2102	1	trouvé	
2103	1	trouvée	
2104	1	témoigné	
2105	1	témoins	
2106	1	téméraire	
2107	1	tôt	
2108	1	uniraient	
2109	1	unissait	
2110	1	unit	
2111	1	usage	
2112	1	userai	
2113	1	usurpé	
2114	1	usurpés	
2115	1	valait	
2116	1	valeur	
2117	1	vassal	
2118	1	vengerais	
2119	1	vengeurs	
2120	1	venu	
2121	1	venus	
2122	1	verrais	
2123	1	verrait	
2124	1	verrez	
2125	1	verser	
2126	1	veuillent	
2127	1	vienne	
2128	1	vint	
2129	1	vis	
2130	1	vit	
2131	1	vite	
2132	1	vives	
2133	1	vivez	
2134	1	vivrai	
2135	1	voie	
2136	1	volonté	
2137	1	voudraient	
2138	1	voudrais	
2139	1	voulais	
2140	1	voulue	
2141	1	voulusse	
2142	1	voyais	
2143	1	vrai	
2144	1	véritables	
2145	1	âmes	
2146	1	ébranlée	
2147	1	échange	
2148	1	échauffe	
2149	1	éclaire	
2150	1	éclairés	
2151	1	écoutez	
2152	1	écoutés	
2153	1	écrit	
2154	1	égalité	
2155	1	égare	
2156	1	électif	
2157	1	élection	
2158	1	élevant	
2159	1	éleve	
2160	1	élevée	
2161	1	éloigne	
2162	1	émeut	
2163	1	émue	
2164	1	épargne	
2165	1	épargnera	
2166	1	épargnez	
2167	1	épousez	
2168	1	épousât	
2169	1	épouvante	
2170	1	éprouver	
2171	1	épuré	
2172	1	états	
2173	1	éteigne	
2174	1	étendra	
2175	1	étendu	
2176	1	éternelle	
2177	1	étiez	
2178	1	étonner	
2179	1	étreinte	
2180	1	évitai	
2181	1	évitant	
2182	1	évite	
2183	1	évitez	
2184	1	évènement	
2185	1	ôtant	
2186	1	ôtez	
2187	1	ôtons	
