#Word Types: 2590
#Word Tokens: 16623
#Search Hits: 0
1	484	de	
2	456	et	
3	367	vous	
4	359	je	
5	326	en	
6	320	à	
7	288	que	
8	282	le	
9	273	il	
10	269	l	
11	233	est	
12	233	un	
13	219	qu	
14	203	la	
15	198	d	
16	176	ce	
17	165	ne	
18	153	pour	
19	147	si	
20	139	n	
21	134	mais	
22	131	j	
23	125	a	
24	123	elle	
25	123	m	
26	123	me	
27	112	mon	
28	109	plus	
29	105	qui	
30	101	on	
31	100	bien	
32	93	tu	
33	91	les	
34	90	son	
35	85	tout	
36	84	moi	
37	80	pas	
38	74	fait	
39	70	ai	
40	69	lui	
41	69	une	
42	68	s	
43	66	sans	
44	63	au	
45	63	cette	
46	62	père	
47	61	avec	
48	60	nous	
49	58	sa	
50	57	point	
51	57	se	
52	56	ma	
53	55	par	
54	54	comme	
55	54	des	
56	53	du	
57	50	c	
58	48	votre	
59	47	autre	
60	45	dans	
61	45	suis	
62	44	lucrèce	
63	43	y	
64	42	dit	
65	42	même	
66	42	ou	
67	41	peu	
68	40	t	
69	40	te	
70	39	coeur	
71	39	quelque	
72	38	ces	
73	37	deux	
74	37	peut	
75	37	sur	
76	37	voir	
77	36	grand	
78	34	donc	
79	34	encore	
80	33	où	
81	32	mieux	
82	32	vos	
83	32	être	
84	31	avez	
85	31	nuit	
86	31	quand	
87	30	dis	
88	30	mes	
89	30	quoi	
90	30	rien	
91	30	toi	
92	30	ton	
93	30	tous	
94	29	faire	
95	29	monsieur	
96	28	aime	
97	28	amour	
98	28	clarice	
99	27	jamais	
100	26	alcippe	
101	26	dorante	
102	26	faut	
103	26	fort	
104	26	moins	
105	26	trop	
106	24	fais	
107	24	homme	
108	24	jour	
109	24	sais	
110	23	après	
111	23	assez	
112	23	esprit	
113	23	leur	
114	23	nom	
115	23	était	
116	22	avoir	
117	22	hier	
118	22	ses	
119	20	belle	
120	20	donne	
121	20	fourbe	
122	20	là	
123	20	temps	
124	20	toute	
125	20	veut	
126	20	yeux	
127	19	ah	
128	19	lieu	
129	19	main	
130	19	tant	
131	18	chez	
132	18	ici	
133	18	mal	
134	18	non	
135	18	veux	
136	18	vrai	
137	18	âme	
138	17	aux	
139	17	croire	
140	17	enfin	
141	17	parler	
142	17	sont	
143	16	ainsi	
144	16	bon	
145	16	dire	
146	16	déjà	
147	16	part	
148	16	présent	
149	16	quel	
150	15	heure	
151	15	ont	
152	15	secret	
153	15	ta	
154	15	vu	
155	15	êtes	
156	14	adresse	
157	14	avait	
158	14	cet	
159	14	depuis	
160	14	donner	
161	14	doux	
162	14	ni	
163	14	oui	
164	14	puis	
165	14	puisque	
166	14	souvent	
167	13	alors	
168	13	crois	
169	13	nos	
170	13	poitiers	
171	13	prendre	
172	13	tantôt	
173	13	tour	
174	13	va	
175	13	vois	
176	12	as	
177	12	aurait	
178	12	aussi	
179	12	autres	
180	12	cependant	
181	12	cliton	
182	12	conte	
183	12	discours	
184	12	flamme	
185	12	gens	
186	12	hymen	
187	12	jaloux	
188	12	objet	
189	12	soir	
190	12	soit	
191	12	sous	
192	11	adieu	
193	11	amant	
194	11	autant	
195	11	avais	
196	11	beaucoup	
197	11	chose	
198	11	ciel	
199	11	collation	
200	11	connais	
201	11	dedans	
202	11	eh	
203	11	fenêtre	
204	11	fois	
205	11	humeur	
206	11	jusqu	
207	11	maître	
208	11	mépris	
209	11	nouveau	
210	11	passer	
211	11	pu	
212	11	sait	
213	11	toujours	
214	11	vaut	
215	11	voici	
216	10	bientôt	
217	10	connaître	
218	10	donné	
219	10	effet	
220	10	marié	
221	10	mot	
222	10	mots	
223	10	musique	
224	10	paris	
225	10	peine	
226	10	place	
227	10	sang	
228	10	sera	
229	10	serait	
230	10	seul	
231	10	su	
232	10	tel	
233	10	tes	
234	10	toutes	
235	10	vie	
236	10	vient	
237	9	affaire	
238	9	auprès	
239	9	bonheur	
240	9	celle	
241	9	dites	
242	9	dont	
243	9	doute	
244	9	feux	
245	9	fut	
246	9	grâce	
247	9	hasard	
248	9	loisir	
249	9	mentir	
250	9	passe	
251	9	pris	
252	9	quatre	
253	9	rare	
254	9	reste	
255	9	retour	
256	9	savez	
257	9	sitôt	
258	9	voit	
259	9	voulu	
260	9	voyez	
261	8	air	
262	8	beau	
263	8	bonne	
264	8	car	
265	8	croyez	
266	8	entre	
267	8	entretien	
268	8	faites	
269	8	festin	
270	8	feu	
271	8	fille	
272	8	grands	
273	8	histoire	
274	8	honneur	
275	8	ils	
276	8	isabelle	
277	8	madame	
278	8	malheur	
279	8	maîtresse	
280	8	mien	
281	8	moment	
282	8	notre	
283	8	parle	
284	8	prends	
285	8	puisqu	
286	8	puisse	
287	8	quelqu	
288	8	quelques	
289	8	rougir	
290	8	savoir	
291	8	sort	
292	8	taire	
293	8	trouver	
294	8	étant	
295	7	afin	
296	7	aimer	
297	7	billet	
298	7	chaque	
299	7	dessein	
300	7	devoir	
301	7	douter	
302	7	eu	
303	7	eût	
304	7	fils	
305	7	foi	
306	7	guerre	
307	7	heureux	
308	7	honte	
309	7	jouer	
310	7	lettre	
311	7	leurs	
312	7	lieux	
313	7	mariage	
314	7	mettre	
315	7	mille	
316	7	montre	
317	7	mourir	
318	7	mérite	
319	7	occasion	
320	7	orphise	
321	7	ose	
322	7	porte	
323	7	pourquoi	
324	7	propos	
325	7	pyrandre	
326	7	raison	
327	7	rend	
328	7	seulement	
329	7	sortir	
330	7	telle	
331	7	trouve	
332	7	valet	
333	7	visage	
334	7	vivre	
335	6	ait	
336	6	allons	
337	6	amie	
338	6	appelle	
339	6	apprendre	
340	6	artifice	
341	6	aujourd	
342	6	aussitôt	
343	6	aviez	
344	6	beauté	
345	6	besoin	
346	6	bouche	
347	6	cela	
348	6	celui	
349	6	choix	
350	6	chère	
351	6	consentir	
352	6	continue	
353	6	courroux	
354	6	curiosité	
355	6	descendre	
356	6	doit	
357	6	donnez	
358	6	eau	
359	6	entrer	
360	6	faite	
361	6	hui	
362	6	joie	
363	6	laisse	
364	6	monde	
365	6	mort	
366	6	moyen	
367	6	métier	
368	6	nouvelle	
369	6	parlé	
370	6	parole	
371	6	pense	
372	6	perd	
373	6	peux	
374	6	plaire	
375	6	plaisir	
376	6	prix	
377	6	rêver	
378	6	sabine	
379	6	sache	
380	6	sens	
381	6	servir	
382	6	seule	
383	6	six	
384	6	sorti	
385	6	sujet	
386	6	vais	
387	6	vice	
388	6	voeux	
389	6	voilà	
390	6	voix	
391	6	vôtre	
392	6	âge	
393	6	écrire	
394	5	aimez	
395	5	ans	
396	5	ardeur	
397	5	armédon	
398	5	aura	
399	5	avaient	
400	5	avant	
401	5	certes	
402	5	conter	
403	5	corps	
404	5	coup	
405	5	cour	
406	5	crédit	
407	5	défiance	
408	5	effets	
409	5	encor	
410	5	engager	
411	5	entendre	
412	5	entier	
413	5	faux	
414	5	faveur	
415	5	fis	
416	5	fût	
417	5	garde	
418	5	grande	
419	5	haut	
420	5	importe	
421	5	jours	
422	5	laisser	
423	5	lire	
424	5	loi	
425	5	loin	
426	5	lois	
427	5	longtemps	
428	5	lors	
429	5	mains	
430	5	mauvais	
431	5	moindre	
432	5	mois	
433	5	perdu	
434	5	personne	
435	5	pièce	
436	5	plats	
437	5	plein	
438	5	pourrai	
439	5	pouvait	
440	5	pouvez	
441	5	pouvoir	
442	5	première	
443	5	prend	
444	5	propre	
445	5	quelle	
446	5	rencontre	
447	5	rendu	
448	5	rentre	
449	5	reçu	
450	5	rire	
451	5	sage	
452	5	semble	
453	5	servie	
454	5	tiens	
455	5	tient	
456	5	trois	
457	5	tuileries	
458	5	unique	
459	5	vertu	
460	5	viens	
461	5	vieux	
462	5	vis	
463	5	voudrais	
464	5	écoutez	
465	4	abord	
466	4	accord	
467	4	ailleurs	
468	4	aisément	
469	4	ajoute	
470	4	allez	
471	4	ami	
472	4	appas	
473	4	aucun	
474	4	aurai	
475	4	bas	
476	4	beautés	
477	4	belles	
478	4	bonhomme	
479	4	bout	
480	4	bruit	
481	4	caché	
482	4	ceux	
483	4	charmant	
484	4	cherche	
485	4	choisir	
486	4	colère	
487	4	combats	
488	4	compliment	
489	4	confesse	
490	4	connaît	
491	4	contraire	
492	4	contre	
493	4	coups	
494	4	cru	
495	4	demander	
496	4	demeure	
497	4	dernier	
498	4	dirai	
499	4	dirait	
500	4	dois	
501	4	donnée	
502	4	déchiré	
503	4	déplaire	
504	4	détours	
505	4	effort	
506	4	effronterie	
507	4	entière	
508	4	erreur	
509	4	esprits	
510	4	eus	
511	4	extrême	
512	4	famille	
513	4	femme	
514	4	ferai	
515	4	font	
516	4	force	
517	4	fortune	
518	4	france	
519	4	fus	
520	4	fâcheux	
521	4	galant	
522	4	gentilhomme	
523	4	hors	
524	4	impossible	
525	4	jeu	
526	4	juste	
527	4	libéral	
528	4	lu	
529	4	malheureux	
530	4	matin	
531	4	menteur	
532	4	meurs	
533	4	mis	
534	4	montrer	
535	4	mémoire	
536	4	naître	
537	4	noble	
538	4	nomme	
539	4	nouvelles	
540	4	oh	
541	4	penses	
542	4	perte	
543	4	pluie	
544	4	port	
545	4	pouvais	
546	4	premier	
547	4	presse	
548	4	prise	
549	4	promettre	
550	4	qualités	
551	4	querelle	
552	4	quiconque	
553	4	quitté	
554	4	rang	
555	4	rapport	
556	4	recevoir	
557	4	repos	
558	4	récit	
559	4	secrets	
560	4	serai	
561	4	service	
562	4	sien	
563	4	soins	
564	4	sot	
565	4	souci	
566	4	soudain	
567	4	souvient	
568	4	superbe	
569	4	surpris	
570	4	terre	
571	4	tombe	
572	4	tomber	
573	4	touche	
574	4	trouble	
575	4	trouvé	
576	4	vas	
577	4	venu	
578	4	ville	
579	4	vue	
580	4	vécu	
581	4	vérité	
582	4	âmes	
583	4	écoute	
584	4	épée	
585	4	état	
586	4	étonne	
587	4	été	
588	4	ô	
589	3	accès	
590	3	agir	
591	3	aide	
592	3	allemagne	
593	3	aller	
594	3	amis	
595	3	amitié	
596	3	apparence	
597	3	apporte	
598	3	armes	
599	3	attendre	
600	3	aurais	
601	3	auriez	
602	3	autrement	
603	3	aversion	
604	3	avis	
605	3	ayant	
606	3	bal	
607	3	carrosse	
608	3	cause	
609	3	cervelle	
610	3	chacun	
611	3	chambre	
612	3	champ	
613	3	charmes	
614	3	chers	
615	3	ci	
616	3	cinq	
617	3	cocher	
618	3	combien	
619	3	commune	
620	3	compte	
621	3	concerts	
622	3	confus	
623	3	conseils	
624	3	consentement	
625	3	conserver	
626	3	conté	
627	3	courage	
628	3	cours	
629	3	crainte	
630	3	croira	
631	3	croit	
632	3	croyance	
633	3	côté	
634	3	dame	
635	3	dames	
636	3	demain	
637	3	demande	
638	3	demi	
639	3	devrait	
640	3	dieu	
641	3	dira	
642	3	disiez	
643	3	divertir	
644	3	divertissement	
645	3	dix	
646	3	don	
647	3	douce	
648	3	douceur	
649	3	dupe	
650	3	durant	
651	3	dès	
652	3	découvre	
653	3	défaite	
654	3	défaut	
655	3	dépositaire	
656	3	désordre	
657	3	elles	
658	3	embarrasse	
659	3	entend	
660	3	es	
661	3	espoir	
662	3	exprès	
663	3	façons	
664	3	feint	
665	3	flammes	
666	3	gagner	
667	3	gagné	
668	3	galanteries	
669	3	gloire	
670	3	hasarde	
671	3	hasarder	
672	3	heureuse	
673	3	honnête	
674	3	hyménée	
675	3	imaginer	
676	3	importune	
677	3	imposture	
678	3	ingrat	
679	3	intelligence	
680	3	invention	
681	3	jeune	
682	3	jeunesse	
683	3	joint	
684	3	joué	
685	3	juge	
686	3	jugez	
687	3	jurer	
688	3	jusques	
689	3	justice	
690	3	laissons	
691	3	langue	
692	3	laquelle	
693	3	magnifique	
694	3	malgré	
695	3	marier	
696	3	mauvaise	
697	3	mens	
698	3	menteries	
699	3	mets	
700	3	meure	
701	3	mine	
702	3	mode	
703	3	mystère	
704	3	méthode	
705	3	nature	
706	3	nouveaux	
707	3	obtenir	
708	3	ordre	
709	3	ouvre	
710	3	ouïr	
711	3	paraître	
712	3	parce	
713	3	pareil	
714	3	pareilles	
715	3	parer	
716	3	parlez	
717	3	parliez	
718	3	penser	
719	3	perds	
720	3	petit	
721	3	pistolet	
722	3	plaît	
723	3	plutôt	
724	3	porter	
725	3	prendrai	
726	3	presque	
727	3	prompte	
728	3	propose	
729	3	près	
730	3	présence	
731	3	présume	
732	3	prêt	
733	3	pure	
734	3	quartier	
735	3	quereller	
736	3	quitte	
737	3	reconnaître	
738	3	regards	
739	3	rends	
740	3	respect	
741	3	ressentiment	
742	3	retenu	
743	3	robe	
744	3	rude	
745	3	révérences	
746	3	sachez	
747	3	satisfaire	
748	3	secrétaire	
749	3	services	
750	3	sienne	
751	3	siens	
752	3	soin	
753	3	sors	
754	3	sorte	
755	3	souffrez	
756	3	soupirer	
757	3	souviens	
758	3	succès	
759	3	superbes	
760	3	tais	
761	3	tenez	
762	3	tiré	
763	3	tours	
764	3	trompe	
765	3	témoins	
766	3	unir	
767	3	venait	
768	3	venez	
769	3	venir	
770	3	venue	
771	3	vieillesse	
772	3	vint	
773	3	violence	
774	3	voyant	
775	3	école	
776	3	écolier	
777	3	écouter	
778	3	écris	
779	3	épouser	
780	3	époux	
781	3	étais	
782	3	étrange	
783	3	ôter	
784	2	accepter	
785	2	achève	
786	2	acquiert	
787	2	action	
788	2	admire	
789	2	adroit	
790	2	affront	
791	2	aimes	
792	2	aisé	
793	2	amants	
794	2	amollit	
795	2	amoureux	
796	2	amours	
797	2	amène	
798	2	an	
799	2	apaiser	
800	2	appelez	
801	2	apprenez	
802	2	appris	
803	2	apprêté	
804	2	arrivé	
805	2	art	
806	2	assure	
807	2	assurément	
808	2	attache	
809	2	atteint	
810	2	attendant	
811	2	attente	
812	2	aurez	
813	2	aventure	
814	2	avertie	
815	2	avertir	
816	2	aveu	
817	2	avidité	
818	2	badinage	
819	2	baisers	
820	2	banqueroute	
821	2	bateau	
822	2	beaux	
823	2	biens	
824	2	blâme	
825	2	bonnes	
826	2	bonté	
827	2	bras	
828	2	brave	
829	2	braver	
830	2	brouiller	
831	2	brûle	
832	2	brûler	
833	2	cache	
834	2	cavalier	
835	2	certain	
836	2	cessez	
837	2	chacune	
838	2	changeons	
839	2	changer	
840	2	charge	
841	2	charmer	
842	2	charmé	
843	2	chemin	
844	2	cher	
845	2	cherchais	
846	2	cherchez	
847	2	choeurs	
848	2	choisissez	
849	2	cieux	
850	2	circonstances	
851	2	clartés	
852	2	code	
853	2	combat	
854	2	commandement	
855	2	comment	
856	2	commerce	
857	2	compagne	
858	2	compliments	
859	2	comprendre	
860	2	conclue	
861	2	condition	
862	2	confondre	
863	2	confusion	
864	2	connaissance	
865	2	connaissez	
866	2	consulter	
867	2	conta	
868	2	content	
869	2	contente	
870	2	couler	
871	2	coutume	
872	2	crains	
873	2	craint	
874	2	croirai	
875	2	croît	
876	2	cuisine	
877	2	curieuse	
878	2	daigne	
879	2	danse	
880	2	davantage	
881	2	dehors	
882	2	demandez	
883	2	descend	
884	2	dessous	
885	2	dessus	
886	2	destinée	
887	2	deviennent	
888	2	deviner	
889	2	diable	
890	2	digeste	
891	2	digne	
892	2	discourir	
893	2	discret	
894	2	disent	
895	2	disgrâce	
896	2	disposez	
897	2	donniez	
898	2	dormi	
899	2	douceurs	
900	2	douze	
901	2	duper	
902	2	débiter	
903	2	désabuser	
904	2	désavoue	
905	2	désirs	
906	2	désormais	
907	2	dût	
908	2	eaux	
909	2	effacer	
910	2	efforts	
911	2	embrasse	
912	2	emploi	
913	2	ennui	
914	2	ennuyeux	
915	2	ensemble	
916	2	entends	
917	2	entretenir	
918	2	envie	
919	2	envoyer	
920	2	espérer	
921	2	estime	
922	2	eut	
923	2	eux	
924	2	examiner	
925	2	excuse	
926	2	exemple	
927	2	expose	
928	2	faible	
929	2	faille	
930	2	faisais	
931	2	faisait	
932	2	fallut	
933	2	fasse	
934	2	faudrait	
935	2	faveurs	
936	2	façon	
937	2	feindre	
938	2	feinte	
939	2	femmes	
940	2	fera	
941	2	ferait	
942	2	ferez	
943	2	feriez	
944	2	fers	
945	2	fidèle	
946	2	fin	
947	2	finir	
948	2	fit	
949	2	fond	
950	2	fonde	
951	2	forts	
952	2	foudre	
953	2	fourber	
954	2	frais	
955	2	front	
956	2	fruit	
957	2	fâcheuse	
958	2	gage	
959	2	gaillard	
960	2	galanterie	
961	2	gazette	
962	2	glorieux	
963	2	grosse	
964	2	grâces	
965	2	guerres	
966	2	guère	
967	2	généreux	
968	2	géronte	
969	2	gêne	
970	2	haine	
971	2	heur	
972	2	hommes	
973	2	honnêtes	
974	2	honteux	
975	2	hâte	
976	2	hébreu	
977	2	hélas	
978	2	ignorante	
979	2	ignore	
980	2	ignorer	
981	2	imaginaire	
982	2	impatience	
983	2	importun	
984	2	imposteur	
985	2	impudente	
986	2	incognito	
987	2	inconnu	
988	2	inconnue	
989	2	indifférente	
990	2	indigne	
991	2	infamie	
992	2	infâme	
993	2	injustice	
994	2	insensible	
995	2	inutile	
996	2	irai	
997	2	jalousie	
998	2	jette	
999	2	jugé	
1000	2	jure	
1001	2	justifier	
1002	2	laissai	
1003	2	langage	
1004	2	larmes	
1005	2	leçons	
1006	2	licence	
1007	2	lie	
1008	2	liens	
1009	2	loge	
1010	2	long	
1011	2	longue	
1012	2	lumière	
1013	2	lâcheté	
1014	2	maintenant	
1015	2	maison	
1016	2	malade	
1017	2	maladie	
1018	2	malaisément	
1019	2	manque	
1020	2	manquerai	
1021	2	marcher	
1022	2	mariée	
1023	2	marque	
1024	2	meilleurs	
1025	2	ment	
1026	2	miracle	
1027	2	mise	
1028	2	moments	
1029	2	murmure	
1030	2	mélancolique	
1031	2	mêler	
1032	2	nobles	
1033	2	noeud	
1034	2	noire	
1035	2	nommer	
1036	2	noms	
1037	2	nouveauté	
1038	2	oblige	
1039	2	obtiendrai	
1040	2	offense	
1041	2	office	
1042	2	ombrage	
1043	2	ordinaire	
1044	2	ordonne	
1045	2	oreille	
1046	2	osez	
1047	2	ouï	
1048	2	page	
1049	2	paix	
1050	2	palais	
1051	2	pardonne	
1052	2	parlent	
1053	2	parlons	
1054	2	paroles	
1055	2	partait	
1056	2	partout	
1057	2	passant	
1058	2	pauvre	
1059	2	payer	
1060	2	pays	
1061	2	pensez	
1062	2	permettre	
1063	2	persévérance	
1064	2	petite	
1065	2	peuvent	
1066	2	pieds	
1067	2	pistoles	
1068	2	plaint	
1069	2	plaisirs	
1070	2	pleuvoir	
1071	2	pompe	
1072	2	portait	
1073	2	posséder	
1074	2	poudre	
1075	2	pourra	
1076	2	pourrais	
1077	2	pourrait	
1078	2	pourrez	
1079	2	pourtant	
1080	2	pousse	
1081	2	pouvant	
1082	2	prenant	
1083	2	prenez	
1084	2	prie	
1085	2	prier	
1086	2	pré	
1087	2	présumer	
1088	2	prête	
1089	2	puissamment	
1090	2	péril	
1091	2	périlleux	
1092	2	qualité	
1093	2	quelquefois	
1094	2	quoique	
1095	2	ravie	
1096	2	reconnais	
1097	2	reconnaissez	
1098	2	reconnue	
1099	2	refus	
1100	2	refuser	
1101	2	refusé	
1102	2	remets	
1103	2	rendre	
1104	2	reviens	
1105	2	revoir	
1106	2	riche	
1107	2	ris	
1108	2	rival	
1109	2	rivière	
1110	2	romans	
1111	2	rompre	
1112	2	rompu	
1113	2	rue	
1114	2	répondait	
1115	2	réponse	
1116	2	rêvez	
1117	2	sachant	
1118	2	saison	
1119	2	saurait	
1120	2	saurez	
1121	2	second	
1122	2	seconder	
1123	2	secours	
1124	2	semblent	
1125	2	sent	
1126	2	sentiment	
1127	2	seraient	
1128	2	seriez	
1129	2	serment	
1130	2	sers	
1131	2	servit	
1132	2	silence	
1133	2	simplicité	
1134	2	sois	
1135	2	sommes	
1136	2	songe	
1137	2	souffre	
1138	2	souffrir	
1139	2	souhaite	
1140	2	soupire	
1141	2	suffit	
1142	2	suit	
1143	2	suive	
1144	2	suivre	
1145	2	supplice	
1146	2	surtout	
1147	2	survient	
1148	2	sut	
1149	2	sympathie	
1150	2	sûr	
1151	2	taille	
1152	2	talent	
1153	2	telles	
1154	2	tends	
1155	2	tenir	
1156	2	tienne	
1157	2	tirez	
1158	2	titre	
1159	2	tombait	
1160	2	tort	
1161	2	touché	
1162	2	toutefois	
1163	2	traitement	
1164	2	travaux	
1165	2	triste	
1166	2	trompée	
1167	2	trouves	
1168	2	turquie	
1169	2	témoignage	
1170	2	tête	
1171	2	vaillant	
1172	2	vain	
1173	2	vains	
1174	2	verrez	
1175	2	vers	
1176	2	vert	
1177	2	vieillard	
1178	2	vieille	
1179	2	vienne	
1180	2	visite	
1181	2	vit	
1182	2	voie	
1183	2	voudrez	
1184	2	voulez	
1185	2	vouloir	
1186	2	voyais	
1187	2	voyons	
1188	2	écouté	
1189	2	écrit	
1190	2	égal	
1191	2	égale	
1192	2	étaient	
1193	2	étions	
1194	1	abattue	
1195	1	absence	
1196	1	absolu	
1197	1	abus	
1198	1	abuse	
1199	1	abuser	
1200	1	abusée	
1201	1	acaste	
1202	1	accabler	
1203	1	accents	
1204	1	acceptant	
1205	1	accompagne	
1206	1	accompagner	
1207	1	accorde	
1208	1	accordent	
1209	1	accorder	
1210	1	accordez	
1211	1	accouchement	
1212	1	accroît	
1213	1	accueil	
1214	1	accurse	
1215	1	accuse	
1216	1	acheter	
1217	1	achetée	
1218	1	achever	
1219	1	achevez	
1220	1	achevé	
1221	1	acquiers	
1222	1	acquérir	
1223	1	admirer	
1224	1	admirez	
1225	1	adroite	
1226	1	advenu	
1227	1	affaires	
1228	1	affection	
1229	1	affligé	
1230	1	agis	
1231	1	agité	
1232	1	agrée	
1233	1	agréez	
1234	1	agrément	
1235	1	aima	
1236	1	aimables	
1237	1	aiment	
1238	1	aimera	
1239	1	aimiez	
1240	1	aimé	
1241	1	aimée	
1242	1	airs	
1243	1	aise	
1244	1	aisée	
1245	1	ajouter	
1246	1	ajuster	
1247	1	alciat	
1248	1	alger	
1249	1	allions	
1250	1	allumer	
1251	1	allée	
1252	1	allégresse	
1253	1	aloi	
1254	1	amener	
1255	1	amertume	
1256	1	amphion	
1257	1	ancien	
1258	1	angles	
1259	1	année	
1260	1	apaisera	
1261	1	apaisée	
1262	1	aperçois	
1263	1	appareil	
1264	1	appartient	
1265	1	appel	
1266	1	appelait	
1267	1	appliquez	
1268	1	apprenant	
1269	1	apprend	
1270	1	apprendrai	
1271	1	apprenne	
1272	1	apprentissage	
1273	1	approcher	
1274	1	approchons	
1275	1	approuvés	
1276	1	appréhende	
1277	1	appréhender	
1278	1	apprêts	
1279	1	appétit	
1280	1	armée	
1281	1	arracherai	
1282	1	arrive	
1283	1	arriver	
1284	1	arrivée	
1285	1	arrêter	
1286	1	arrêtons	
1287	1	article	
1288	1	aspect	
1289	1	assassin	
1290	1	assujettir	
1291	1	assujettit	
1292	1	assurance	
1293	1	assurer	
1294	1	attaquèrent	
1295	1	attaqué	
1296	1	attendait	
1297	1	attendez	
1298	1	attendrai	
1299	1	attrapé	
1300	1	aucune	
1301	1	aucunement	
1302	1	aucunes	
1303	1	audace	
1304	1	aumône	
1305	1	aurons	
1306	1	auteur	
1307	1	authentiques	
1308	1	autorise	
1309	1	autorité	
1310	1	avance	
1311	1	avancés	
1312	1	avantage	
1313	1	avantages	
1314	1	avança	
1315	1	avare	
1316	1	avecque	
1317	1	averti	
1318	1	avertis	
1319	1	aveugle	
1320	1	avons	
1321	1	ayez	
1322	1	ayons	
1323	1	aïe	
1324	1	babil	
1325	1	badauds	
1326	1	bagatelle	
1327	1	balance	
1328	1	balancée	
1329	1	balde	
1330	1	bancs	
1331	1	banni	
1332	1	barbares	
1333	1	barricadons	
1334	1	bartole	
1335	1	basses	
1336	1	batailles	
1337	1	bateaux	
1338	1	batterie	
1339	1	battu	
1340	1	battîmes	
1341	1	baye	
1342	1	bayes	
1343	1	bijou	
1344	1	bizarre	
1345	1	blesse	
1346	1	blessent	
1347	1	blessé	
1348	1	blâmez	
1349	1	bonace	
1350	1	bons	
1351	1	bontés	
1352	1	bord	
1353	1	bouquets	
1354	1	bourdes	
1355	1	bourgeois	
1356	1	bravade	
1357	1	bronché	
1358	1	bru	
1359	1	buissons	
1360	1	bâtie	
1361	1	bâtiments	
1362	1	cachais	
1363	1	cachant	
1364	1	cachent	
1365	1	cachés	
1366	1	cajolée	
1367	1	camarades	
1368	1	campagne	
1369	1	cantons	
1370	1	capables	
1371	1	cardinal	
1372	1	cas	
1373	1	casser	
1374	1	casserez	
1375	1	causer	
1376	1	causé	
1377	1	ceci	
1378	1	celles	
1379	1	cerveau	
1380	1	chair	
1381	1	chaleur	
1382	1	chaleurs	
1383	1	chandelles	
1384	1	change	
1385	1	changeai	
1386	1	changement	
1387	1	changerai	
1388	1	changez	
1389	1	changé	
1390	1	chapeau	
1391	1	chasser	
1392	1	chaîne	
1393	1	cherchai	
1394	1	chercher	
1395	1	cherchiez	
1396	1	chevaux	
1397	1	chevet	
1398	1	cheveux	
1399	1	choisis	
1400	1	choses	
1401	1	chrétien	
1402	1	châteaux	
1403	1	chérir	
1404	1	chéris	
1405	1	cinquième	
1406	1	citoyens	
1407	1	civilité	
1408	1	civilités	
1409	1	clairement	
1410	1	clercs	
1411	1	climat	
1412	1	coeurs	
1413	1	coffres	
1414	1	coiffe	
1415	1	coin	
1416	1	collatéraux	
1417	1	combattant	
1418	1	comble	
1419	1	commandements	
1420	1	commander	
1421	1	commencement	
1422	1	commencez	
1423	1	commode	
1424	1	commun	
1425	1	communément	
1426	1	complaisant	
1427	1	complète	
1428	1	composer	
1429	1	comprends	
1430	1	concerté	
1431	1	confessez	
1432	1	confiance	
1433	1	confirmé	
1434	1	conjurerais	
1435	1	connaissiez	
1436	1	connaîtrez	
1437	1	connue	
1438	1	conquête	
1439	1	conquêtes	
1440	1	conscience	
1441	1	conseillerais	
1442	1	consentait	
1443	1	consentant	
1444	1	consenti	
1445	1	conservé	
1446	1	considère	
1447	1	considérables	
1448	1	consiste	
1449	1	console	
1450	1	consoler	
1451	1	consolés	
1452	1	constance	
1453	1	consultez	
1454	1	contenaient	
1455	1	contentement	
1456	1	contenteraient	
1457	1	conterai	
1458	1	contes	
1459	1	conteurs	
1460	1	contez	
1461	1	continuait	
1462	1	contraindre	
1463	1	contredit	
1464	1	contrescarpe	
1465	1	convaincue	
1466	1	convie	
1467	1	conviée	
1468	1	coquette	
1469	1	coquettes	
1470	1	cordon	
1471	1	cou	
1472	1	couchez	
1473	1	coulais	
1474	1	coule	
1475	1	couleurs	
1476	1	coupent	
1477	1	courraient	
1478	1	court	
1479	1	courts	
1480	1	cousin	
1481	1	cousine	
1482	1	couvert	
1483	1	couvrent	
1484	1	couvrir	
1485	1	coûtent	
1486	1	craigne	
1487	1	craignez	
1488	1	craindre	
1489	1	cri	
1490	1	crie	
1491	1	crime	
1492	1	croie	
1493	1	croisées	
1494	1	croyais	
1495	1	croyons	
1496	1	crus	
1497	1	crut	
1498	1	crédulité	
1499	1	cède	
1500	1	cèlerai	
1501	1	cédèrent	
1502	1	dangers	
1503	1	dansa	
1504	1	danses	
1505	1	dansé	
1506	1	daphné	
1507	1	delà	
1508	1	demeuré	
1509	1	dent	
1510	1	dernières	
1511	1	descendu	
1512	1	desseins	
1513	1	destin	
1514	1	devait	
1515	1	devant	
1516	1	devenir	
1517	1	deviendrait	
1518	1	devient	
1519	1	devine	
1520	1	deviné	
1521	1	dextrement	
1522	1	die	
1523	1	dieux	
1524	1	difficiles	
1525	1	diffère	
1526	1	différent	
1527	1	différents	
1528	1	différer	
1529	1	dirais	
1530	1	diras	
1531	1	disais	
1532	1	disait	
1533	1	disant	
1534	1	discrète	
1535	1	dise	
1536	1	disparaître	
1537	1	dissipe	
1538	1	dissiper	
1539	1	distance	
1540	1	diverse	
1541	1	division	
1542	1	divulgués	
1543	1	doctrine	
1544	1	doigts	
1545	1	doive	
1546	1	donnai	
1547	1	donnais	
1548	1	donnent	
1549	1	donnera	
1550	1	donnerai	
1551	1	donnerais	
1552	1	donneriez	
1553	1	donneur	
1554	1	dons	
1555	1	double	
1556	1	douleur	
1557	1	douteriez	
1558	1	douteuse	
1559	1	doutiez	
1560	1	droit	
1561	1	droites	
1562	1	dupes	
1563	1	dupé	
1564	1	dupée	
1565	1	dure	
1566	1	débauche	
1567	1	débit	
1568	1	débite	
1569	1	déclames	
1570	1	déclin	
1571	1	découverte	
1572	1	découvrir	
1573	1	découvrons	
1574	1	dédaigner	
1575	1	dédit	
1576	1	défaire	
1577	1	défais	
1578	1	défait	
1579	1	défauts	
1580	1	défend	
1581	1	défenses	
1582	1	défiances	
1583	1	défier	
1584	1	déférer	
1585	1	dégager	
1586	1	dégoûté	
1587	1	déguiser	
1588	1	déguisé	
1589	1	délais	
1590	1	délasse	
1591	1	délices	
1592	1	déloyale	
1593	1	déluge	
1594	1	démenti	
1595	1	démêler	
1596	1	démêlée	
1597	1	dénier	
1598	1	dénoue	
1599	1	dépense	
1600	1	déplais	
1601	1	déplaisait	
1602	1	déplaises	
1603	1	déplaisirs	
1604	1	déploie	
1605	1	dépêche	
1606	1	dérobe	
1607	1	désarmé	
1608	1	désavantage	
1609	1	désavouais	
1610	1	désavouer	
1611	1	déserte	
1612	1	désespérer	
1613	1	désir	
1614	1	désobéira	
1615	1	désunis	
1616	1	détail	
1617	1	détrompé	
1618	1	dîné	
1619	1	dû	
1620	1	effarouche	
1621	1	efficace	
1622	1	effroi	
1623	1	embarrassai	
1624	1	embarrassantes	
1625	1	embrase	
1626	1	embrassade	
1627	1	embrassant	
1628	1	embuscade	
1629	1	empêchent	
1630	1	enchantements	
1631	1	enchantée	
1632	1	encolure	
1633	1	endroits	
1634	1	endure	
1635	1	endurer	
1636	1	enduré	
1637	1	enferme	
1638	1	enfler	
1639	1	enfuit	
1640	1	enfuyez	
1641	1	engage	
1642	1	engagé	
1643	1	enlacés	
1644	1	ennemis	
1645	1	ennuyez	
1646	1	enrage	
1647	1	enrager	
1648	1	enrichir	
1649	1	entasse	
1650	1	entassons	
1651	1	entendant	
1652	1	entendent	
1653	1	entendez	
1654	1	entendrais	
1655	1	entendus	
1656	1	entiers	
1657	1	entièrement	
1658	1	entretins	
1659	1	entrevoir	
1660	1	entrevois	
1661	1	entrons	
1662	1	envoie	
1663	1	escabelles	
1664	1	esclave	
1665	1	espèce	
1666	1	espérance	
1667	1	espérances	
1668	1	essais	
1669	1	essayer	
1670	1	estocade	
1671	1	eussent	
1672	1	eussiez	
1673	1	examinée	
1674	1	excellait	
1675	1	excellent	
1676	1	excuses	
1677	1	excès	
1678	1	exercice	
1679	1	explique	
1680	1	exploits	
1681	1	exposer	
1682	1	exposez	
1683	1	expérience	
1684	1	extravaguez	
1685	1	extrémité	
1686	1	exécuté	
1687	1	fable	
1688	1	facile	
1689	1	facilement	
1690	1	fagoté	
1691	1	faiblesse	
1692	1	faisaient	
1693	1	faisant	
1694	1	faisiez	
1695	1	faits	
1696	1	fallu	
1697	1	fameux	
1698	1	fard	
1699	1	fardeau	
1700	1	farouche	
1701	1	fassent	
1702	1	fassions	
1703	1	fatal	
1704	1	fatalité	
1705	1	fatras	
1706	1	faudra	
1707	1	fausses	
1708	1	faute	
1709	1	fautes	
1710	1	favorable	
1711	1	favorise	
1712	1	fermant	
1713	1	fertile	
1714	1	festins	
1715	1	feuilleté	
1716	1	fiction	
1717	1	fictions	
1718	1	figure	
1719	1	filles	
1720	1	fine	
1721	1	finesse	
1722	1	finit	
1723	1	fins	
1724	1	firent	
1725	1	flatte	
1726	1	flatteurs	
1727	1	fleurette	
1728	1	fleurettes	
1729	1	flottent	
1730	1	flûtes	
1731	1	fol	
1732	1	folle	
1733	1	fondée	
1734	1	forcera	
1735	1	forcé	
1736	1	forcés	
1737	1	forge	
1738	1	forme	
1739	1	forte	
1740	1	fossé	
1741	1	fossés	
1742	1	fourbes	
1743	1	fourbé	
1744	1	fourni	
1745	1	fournir	
1746	1	franchise	
1747	1	français	
1748	1	frappe	
1749	1	frayeur	
1750	1	frère	
1751	1	frémi	
1752	1	fuir	
1753	1	fuirai	
1754	1	fuit	
1755	1	funeste	
1756	1	furieux	
1757	1	fusées	
1758	1	fâchez	
1759	1	félicité	
1760	1	félicités	
1761	1	fûmes	
1762	1	gages	
1763	1	gagne	
1764	1	gagé	
1765	1	galas	
1766	1	gant	
1767	1	garant	
1768	1	garder	
1769	1	gauche	
1770	1	genoux	
1771	1	gentillesse	
1772	1	gibier	
1773	1	glace	
1774	1	gorge	
1775	1	gouverne	
1776	1	gouvernent	
1777	1	goût	
1778	1	grenade	
1779	1	grimace	
1780	1	gris	
1781	1	grondée	
1782	1	grossesse	
1783	1	grossière	
1784	1	guerriers	
1785	1	guères	
1786	1	guérirais	
1787	1	guérison	
1788	1	gémir	
1789	1	gémit	
1790	1	gênée	
1791	1	gît	
1792	1	habile	
1793	1	habitants	
1794	1	habitée	
1795	1	hachez	
1796	1	hais	
1797	1	hait	
1798	1	haleine	
1799	1	hantise	
1800	1	harmonies	
1801	1	hautbois	
1802	1	hautes	
1803	1	heures	
1804	1	heureusement	
1805	1	hippolyte	
1806	1	hiver	
1807	1	honorez	
1808	1	honteusement	
1809	1	horlogers	
1810	1	humeurs	
1811	1	hébreux	
1812	1	idée	
1813	1	ignorais	
1814	1	ignorant	
1815	1	ignorerais	
1816	1	ignorez	
1817	1	ignoré	
1818	1	ignorés	
1819	1	illustre	
1820	1	immole	
1821	1	impatiente	
1822	1	impertinences	
1823	1	importante	
1824	1	importants	
1825	1	imposteurs	
1826	1	impostures	
1827	1	imprime	
1828	1	impudemment	
1829	1	impudence	
1830	1	incartades	
1831	1	incommode	
1832	1	incompatible	
1833	1	inconstance	
1834	1	inconstante	
1835	1	incrédule	
1836	1	incrédulité	
1837	1	indignes	
1838	1	indignités	
1839	1	indubitables	
1840	1	indulgence	
1841	1	industrie	
1842	1	inexorables	
1843	1	infidèle	
1844	1	infinies	
1845	1	inflexible	
1846	1	infortiat	
1847	1	ingrate	
1848	1	injure	
1849	1	innocents	
1850	1	inopinée	
1851	1	inquiète	
1852	1	inquiéter	
1853	1	inquiété	
1854	1	inquiétée	
1855	1	insolent	
1856	1	instruire	
1857	1	intendant	
1858	1	intention	
1859	1	intriques	
1860	1	introduit	
1861	1	inutiles	
1862	1	invente	
1863	1	inventions	
1864	1	inventé	
1865	1	inventés	
1866	1	ira	
1867	1	irrite	
1868	1	italie	
1869	1	jasmin	
1870	1	jason	
1871	1	jean	
1872	1	joignez	
1873	1	joli	
1874	1	jolie	
1875	1	jouais	
1876	1	jouant	
1877	1	joue	
1878	1	jouez	
1879	1	jouir	
1880	1	journée	
1881	1	jugement	
1882	1	juger	
1883	1	jugerez	
1884	1	juif	
1885	1	julie	
1886	1	laissant	
1887	1	laissez	
1888	1	laissé	
1889	1	lamboy	
1890	1	langues	
1891	1	largesse	
1892	1	lave	
1893	1	lendemain	
1894	1	libre	
1895	1	lignes	
1896	1	lisez	
1897	1	lit	
1898	1	litière	
1899	1	lits	
1900	1	livrai	
1901	1	logis	
1902	1	lorsqu	
1903	1	lorsque	
1904	1	louer	
1905	1	louez	
1906	1	loup	
1907	1	lourd	
1908	1	lourdaud	
1909	1	lourdauds	
1910	1	lourdes	
1911	1	lune	
1912	1	lus	
1913	1	luths	
1914	1	lycas	
1915	1	lâche	
1916	1	lève	
1917	1	légers	
1918	1	légère	
1919	1	légèrement	
1920	1	machine	
1921	1	magot	
1922	1	malaisé	
1923	1	malice	
1924	1	maltraiter	
1925	1	mande	
1926	1	mangé	
1927	1	manquer	
1928	1	manqué	
1929	1	maraud	
1930	1	marchand	
1931	1	marchandise	
1932	1	marchands	
1933	1	marché	
1934	1	mariez	
1935	1	maris	
1936	1	martre	
1937	1	matière	
1938	1	maudit	
1939	1	mauvaises	
1940	1	maux	
1941	1	maçons	
1942	1	menace	
1943	1	menai	
1944	1	mensonge	
1945	1	mentait	
1946	1	menterie	
1947	1	menteurs	
1948	1	mentez	
1949	1	menti	
1950	1	mentiez	
1951	1	menu	
1952	1	merveilles	
1953	1	merveilleux	
1954	1	mesures	
1955	1	met	
1956	1	mettons	
1957	1	mettrait	
1958	1	mienne	
1959	1	milieu	
1960	1	miroirs	
1961	1	misérable	
1962	1	modérer	
1963	1	moitié	
1964	1	monte	
1965	1	monter	
1966	1	moqueur	
1967	1	morceaux	
1968	1	more	
1969	1	morfondre	
1970	1	morte	
1971	1	mourrai	
1972	1	mourras	
1973	1	mouvements	
1974	1	moyens	
1975	1	muettes	
1976	1	muraille	
1977	1	murmurez	
1978	1	mère	
1979	1	mégarde	
1980	1	mélange	
1981	1	mélusine	
1982	1	méprisée	
1983	1	mérité	
1984	1	méritée	
1985	1	métamorphoses	
1986	1	méthodes	
1987	1	métiers	
1988	1	mêles	
1989	1	mêlée	
1990	1	mêlés	
1991	1	mêmes	
1992	1	naissance	
1993	1	naissant	
1994	1	naturel	
1995	1	naturellement	
1996	1	naturelles	
1997	1	naufrage	
1998	1	naît	
1999	1	naïveté	
2000	1	nettoyer	
2001	1	noeuds	
2002	1	noircir	
2003	1	nombre	
2004	1	nomment	
2005	1	nourries	
2006	1	novices	
2007	1	nuis	
2008	1	nuits	
2009	1	nul	
2010	1	nécessaire	
2011	1	née	
2012	1	négliger	
2013	1	obligeants	
2014	1	obliger	
2015	1	obligez	
2016	1	obscurité	
2017	1	obstacle	
2018	1	obstiner	
2019	1	obtenez	
2020	1	obtiendrait	
2021	1	obtient	
2022	1	obéir	
2023	1	obéissance	
2024	1	occasions	
2025	1	oeil	
2026	1	offenser	
2027	1	offrir	
2028	1	ombre	
2029	1	onde	
2030	1	oppose	
2031	1	orange	
2032	1	ordonnez	
2033	1	ordonnée	
2034	1	oreilles	
2035	1	ornement	
2036	1	osai	
2037	1	osais	
2038	1	oser	
2039	1	oses	
2040	1	osé	
2041	1	oublia	
2042	1	oublie	
2043	1	oublier	
2044	1	outrage	
2045	1	ouvert	
2046	1	ouvrirais	
2047	1	oy	
2048	1	oyons	
2049	1	paisiblement	
2050	1	panneau	
2051	1	paquet	
2052	1	paragraphe	
2053	1	paraît	
2054	1	pardon	
2055	1	pardonnerez	
2056	1	parents	
2057	1	paresse	
2058	1	parfaitement	
2059	1	parlait	
2060	1	parlant	
2061	1	parlerez	
2062	1	parmi	
2063	1	paroît	
2064	1	partage	
2065	1	partagé	
2066	1	parti	
2067	1	partie	
2068	1	parut	
2069	1	parvenir	
2070	1	passa	
2071	1	passage	
2072	1	passes	
2073	1	passionné	
2074	1	passé	
2075	1	passée	
2076	1	paternelle	
2077	1	patience	
2078	1	payé	
2079	1	peignit	
2080	1	peines	
2081	1	penchait	
2082	1	penche	
2083	1	pensiez	
2084	1	pensons	
2085	1	pensée	
2086	1	perce	
2087	1	percé	
2088	1	perdait	
2089	1	perdit	
2090	1	perdrai	
2091	1	perdras	
2092	1	perdre	
2093	1	perdus	
2094	1	perdîtes	
2095	1	permis	
2096	1	personnes	
2097	1	perçant	
2098	1	pesant	
2099	1	petites	
2100	1	peur	
2101	1	pipe	
2102	1	piper	
2103	1	pique	
2104	1	piquer	
2105	1	piquée	
2106	1	pire	
2107	1	pires	
2108	1	pis	
2109	1	pitié	
2110	1	pièces	
2111	1	plaindre	
2112	1	plains	
2113	1	plainte	
2114	1	plaise	
2115	1	plat	
2116	1	pleines	
2117	1	pleuvra	
2118	1	plume	
2119	1	plut	
2120	1	plût	
2121	1	poignard	
2122	1	points	
2123	1	polis	
2124	1	portais	
2125	1	portefeuille	
2126	1	portent	
2127	1	portes	
2128	1	possesseur	
2129	1	possédée	
2130	1	posture	
2131	1	poulet	
2132	1	pourrons	
2133	1	poursuis	
2134	1	pourvue	
2135	1	poussaient	
2136	1	pouvaient	
2137	1	pouviez	
2138	1	pratique	
2139	1	pratiquer	
2140	1	pratiques	
2141	1	premiers	
2142	1	premières	
2143	1	prendra	
2144	1	prendrais	
2145	1	prennent	
2146	1	pressantes	
2147	1	principes	
2148	1	prisonnier	
2149	1	prisé	
2150	1	priver	
2151	1	privilège	
2152	1	prière	
2153	1	procès	
2154	1	procédé	
2155	1	prodigue	
2156	1	produiraient	
2157	1	produis	
2158	1	produit	
2159	1	profiter	
2160	1	projet	
2161	1	projets	
2162	1	promenade	
2163	1	promenades	
2164	1	promener	
2165	1	promet	
2166	1	promis	
2167	1	prompt	
2168	1	promptement	
2169	1	promptitude	
2170	1	prononcer	
2171	1	proposer	
2172	1	prose	
2173	1	protester	
2174	1	province	
2175	1	provinciaux	
2176	1	précieux	
2177	1	précipite	
2178	1	prémédité	
2179	1	préparer	
2180	1	présente	
2181	1	prétende	
2182	1	prétendre	
2183	1	prétexte	
2184	1	préviennent	
2185	1	prévois	
2186	1	prêté	
2187	1	prîmes	
2188	1	publier	
2189	1	publique	
2190	1	puissai	
2191	1	puissance	
2192	1	puissants	
2193	1	puissent	
2194	1	puissiez	
2195	1	pur	
2196	1	pus	
2197	1	pâlit	
2198	1	pâtés	
2199	1	pénétré	
2200	1	périandre	
2201	1	périt	
2202	1	pût	
2203	1	quart	
2204	1	quartiers	
2205	1	question	
2206	1	quittas	
2207	1	quitterais	
2208	1	quitterait	
2209	1	quitteriez	
2210	1	quittez	
2211	1	quittée	
2212	1	race	
2213	1	rage	
2214	1	raille	
2215	1	raillerie	
2216	1	railleries	
2217	1	raillez	
2218	1	rameaux	
2219	1	rappelle	
2220	1	rares	
2221	1	ravi	
2222	1	ravir	
2223	1	ravissement	
2224	1	ravissements	
2225	1	rayons	
2226	1	rebelle	
2227	1	rebours	
2228	1	rebut	
2229	1	recevant	
2230	1	reconnaissance	
2231	1	reconnaissant	
2232	1	recule	
2233	1	redire	
2234	1	redoublés	
2235	1	redouter	
2236	1	refaire	
2237	1	refusant	
2238	1	regarde	
2239	1	rejoindre	
2240	1	rejoins	
2241	1	remarques	
2242	1	remettre	
2243	1	remise	
2244	1	remords	
2245	1	rempart	
2246	1	remporté	
2247	1	remède	
2248	1	remédie	
2249	1	renard	
2250	1	rencontrons	
2251	1	rendez	
2252	1	rendis	
2253	1	rendra	
2254	1	rendrai	
2255	1	renommée	
2256	1	rente	
2257	1	rentrer	
2258	1	reportons	
2259	1	repris	
2260	1	ressemble	
2261	1	resté	
2262	1	retenir	
2263	1	retiens	
2264	1	retirez	
2265	1	retournant	
2266	1	revenu	
2267	1	reverrions	
2268	1	revient	
2269	1	revins	
2270	1	revîntes	
2271	1	reçus	
2272	1	ri	
2273	1	riez	
2274	1	rigoureux	
2275	1	risée	
2276	1	rivage	
2277	1	rivaux	
2278	1	rivières	
2279	1	rocher	
2280	1	rochers	
2281	1	rois	
2282	1	rome	
2283	1	rompit	
2284	1	romps	
2285	1	rougirai	
2286	1	rougis	
2287	1	rougit	
2288	1	royale	
2289	1	royaumes	
2290	1	rubriques	
2291	1	rudement	
2292	1	ruelle	
2293	1	ruse	
2294	1	ruses	
2295	1	récompense	
2296	1	régalée	
2297	1	réglaient	
2298	1	régleront	
2299	1	réjouis	
2300	1	réjouit	
2301	1	répandu	
2302	1	répare	
2303	1	réparer	
2304	1	répond	
2305	1	répondaient	
2306	1	réponde	
2307	1	répondre	
2308	1	réponds	
2309	1	résistance	
2310	1	résolu	
2311	1	résolue	
2312	1	résoudra	
2313	1	résous	
2314	1	résout	
2315	1	réussir	
2316	1	réveille	
2317	1	rêveries	
2318	1	rêvés	
2319	1	sachons	
2320	1	sacrifié	
2321	1	sages	
2322	1	saisie	
2323	1	saisit	
2324	1	salle	
2325	1	sauraient	
2326	1	saurais	
2327	1	saurons	
2328	1	sauver	
2329	1	sauvée	
2330	1	saviez	
2331	1	savons	
2332	1	scandale	
2333	1	seconde	
2334	1	secouru	
2335	1	secrète	
2336	1	secrètement	
2337	1	secrètes	
2338	1	seigneurie	
2339	1	semblable	
2340	1	semblables	
2341	1	semblait	
2342	1	semblants	
2343	1	sensible	
2344	1	sente	
2345	1	sentinelle	
2346	1	sentirait	
2347	1	septembre	
2348	1	serais	
2349	1	seras	
2350	1	serez	
2351	1	serments	
2352	1	serpenteaux	
2353	1	serriez	
2354	1	sert	
2355	1	seules	
2356	1	sied	
2357	1	signaler	
2358	1	signe	
2359	1	signer	
2360	1	signes	
2361	1	siècle	
2362	1	sièges	
2363	1	soeur	
2364	1	soi	
2365	1	soient	
2366	1	soleil	
2367	1	sommeil	
2368	1	sonna	
2369	1	sonner	
2370	1	sonné	
2371	1	sortent	
2372	1	sortie	
2373	1	soucis	
2374	1	souffert	
2375	1	souffrira	
2376	1	souhaité	
2377	1	souille	
2378	1	souple	
2379	1	soupçonner	
2380	1	soupçonnerais	
2381	1	soupé	
2382	1	source	
2383	1	sourd	
2384	1	soutenir	
2385	1	souvenu	
2386	1	souverain	
2387	1	soyez	
2388	1	style	
2389	1	subir	
2390	1	subtilement	
2391	1	sucrée	
2392	1	suivent	
2393	1	suivie	
2394	1	suivis	
2395	1	suivrai	
2396	1	suivrais	
2397	1	superflus	
2398	1	suprême	
2399	1	surent	
2400	1	surprenants	
2401	1	surprend	
2402	1	survenu	
2403	1	survienne	
2404	1	sus	
2405	1	sépara	
2406	1	sépare	
2407	1	sérénades	
2408	1	sûmes	
2409	1	sûre	
2410	1	sût	
2411	1	tablature	
2412	1	tables	
2413	1	tache	
2414	1	taillés	
2415	1	tairas	
2416	1	taisez	
2417	1	tapissé	
2418	1	tard	
2419	1	tarde	
2420	1	tels	
2421	1	temple	
2422	1	tempête	
2423	1	tenait	
2424	1	tenons	
2425	1	termes	
2426	1	termina	
2427	1	terminée	
2428	1	ternit	
2429	1	tien	
2430	1	tiendrai	
2431	1	tierces	
2432	1	tirer	
2433	1	tirerons	
2434	1	toits	
2435	1	tombent	
2436	1	tombés	
2437	1	tonnerre	
2438	1	toucher	
2439	1	tournemain	
2440	1	tourner	
2441	1	trahir	
2442	1	trait	
2443	1	traitables	
2444	1	traiter	
2445	1	tranchent	
2446	1	transit	
2447	1	transporté	
2448	1	travaille	
2449	1	traverse	
2450	1	troisième	
2451	1	trompette	
2452	1	trompé	
2453	1	trompés	
2454	1	troubler	
2455	1	troublé	
2456	1	troublés	
2457	1	troupe	
2458	1	trouvais	
2459	1	trouveront	
2460	1	trouvez	
2461	1	très	
2462	1	trépas	
2463	1	trésor	
2464	1	trésors	
2465	1	tue	
2466	1	tuez	
2467	1	tâche	
2468	1	tâcher	
2469	1	tâchons	
2470	1	tâter	
2471	1	témoigne	
2472	1	témoigner	
2473	1	témoigné	
2474	1	tôt	
2475	1	union	
2476	1	univers	
2477	1	universités	
2478	1	urgande	
2479	1	usage	
2480	1	usais	
2481	1	usée	
2482	1	utile	
2483	1	vacarme	
2484	1	vaincre	
2485	1	vaine	
2486	1	vainqueur	
2487	1	valets	
2488	1	valeur	
2489	1	valoir	
2490	1	vanter	
2491	1	vanté	
2492	1	vaux	
2493	1	vedette	
2494	1	venaient	
2495	1	venais	
2496	1	venants	
2497	1	venge	
2498	1	vengeance	
2499	1	venger	
2500	1	vengé	
2501	1	venus	
2502	1	verra	
2503	1	verrai	
2504	1	verras	
2505	1	verre	
2506	1	verrons	
2507	1	vices	
2508	1	victoire	
2509	1	vidons	
2510	1	vidée	
2511	1	vieillit	
2512	1	viendrai	
2513	1	viendrons	
2514	1	vif	
2515	1	village	
2516	1	violent	
2517	1	violenté	
2518	1	violons	
2519	1	visages	
2520	1	visiter	
2521	1	visites	
2522	1	vivant	
2523	1	voisine	
2524	1	volage	
2525	1	voler	
2526	1	volontiers	
2527	1	volontés	
2528	1	volé	
2529	1	vont	
2530	1	voudra	
2531	1	voudriez	
2532	1	voulais	
2533	1	voulait	
2534	1	vouliez	
2535	1	voulût	
2536	1	vraiment	
2537	1	vulgaire	
2538	1	véritable	
2539	1	véritables	
2540	1	vérités	
2541	1	vîmes	
2542	1	vînt	
2543	1	vôtres	
2544	1	éblouir	
2545	1	éblouit	
2546	1	ébranlé	
2547	1	éclairaient	
2548	1	éclairci	
2549	1	éclaircir	
2550	1	éclaircira	
2551	1	éclaircissons	
2552	1	éclaire	
2553	1	écoutons	
2554	1	écrase	
2555	1	écrirai	
2556	1	écritoire	
2557	1	écrive	
2558	1	écu	
2559	1	écus	
2560	1	égaye	
2561	1	élançant	
2562	1	élevé	
2563	1	éloignait	
2564	1	éloigner	
2565	1	élément	
2566	1	épargner	
2567	1	épargnez	
2568	1	épouse	
2569	1	épouvante	
2570	1	épouvanté	
2571	1	épris	
2572	1	éprouve	
2573	1	éprouvez	
2574	1	érige	
2575	1	étaler	
2576	1	étendis	
2577	1	étiez	
2578	1	étincelle	
2579	1	étonnants	
2580	1	étonner	
2581	1	étonné	
2582	1	étonnée	
2583	1	étonnés	
2584	1	étroite	
2585	1	étude	
2586	1	évidente	
2587	1	évite	
2588	1	événement	
2589	1	île	
2590	1	ôte	
