#Word Types: 2614
#Word Tokens: 15446
#Search Hits: 0
1	423	de	
2	422	et	
3	401	je	
4	392	vous	
5	313	que	
6	261	à	
7	249	la	
8	244	il	
9	243	le	
10	231	un	
11	225	est	
12	220	l	
13	213	en	
14	174	ne	
15	173	d	
16	167	mon	
17	149	me	
18	142	qu	
19	125	j	
20	123	n	
21	121	pas	
22	119	ma	
23	114	m	
24	114	moi	
25	109	pour	
26	106	ce	
27	106	tu	
28	105	bien	
29	105	qui	
30	102	on	
31	99	si	
32	93	mais	
33	89	nous	
34	80	plus	
35	78	sans	
36	77	une	
37	76	a	
38	76	ai	
39	74	les	
40	63	au	
41	63	fait	
42	60	c	
43	57	son	
44	55	ou	
45	55	père	
46	53	comme	
47	53	du	
48	53	s	
49	49	votre	
50	48	par	
51	47	se	
52	47	t	
53	47	te	
54	46	elle	
55	46	faut	
56	46	sa	
57	46	tout	
58	45	des	
59	45	lui	
60	44	fils	
61	44	honneur	
62	44	être	
63	42	y	
64	41	où	
65	40	même	
66	39	ton	
67	38	peut	
68	38	suis	
69	37	dans	
70	37	faire	
71	36	homme	
72	36	point	
73	35	donc	
74	35	mes	
75	35	ta	
76	35	toi	
77	33	comte	
78	31	cour	
79	31	tant	
80	30	frère	
81	30	quand	
82	30	sur	
83	30	trop	
84	30	vois	
85	29	don	
86	28	ici	
87	28	madame	
88	28	moins	
89	27	jamais	
90	27	soeur	
91	27	vie	
92	26	mort	
93	26	peu	
94	26	va	
95	26	venger	
96	25	fort	
97	25	mal	
98	25	sont	
99	24	dieu	
100	24	maître	
101	23	avez	
102	23	ha	
103	23	quoi	
104	23	sais	
105	22	amour	
106	22	avec	
107	22	bon	
108	22	car	
109	22	contre	
110	22	pedre	
111	22	rien	
112	22	voir	
113	21	dit	
114	21	non	
115	21	notre	
116	21	veux	
117	20	aussi	
118	20	autre	
119	20	deux	
120	20	ils	
121	20	monsieur	
122	20	soit	
123	20	vos	
124	19	ainsi	
125	19	fille	
126	19	porte	
127	19	seul	
128	18	avoir	
129	18	là	
130	18	mieux	
131	18	parole	
132	18	âme	
133	17	cette	
134	17	dire	
135	17	dois	
136	17	enfin	
137	17	oui	
138	17	tous	
139	17	était	
140	17	ô	
141	16	autant	
142	16	bras	
143	16	esprit	
144	16	fois	
145	16	malheur	
146	16	nuit	
147	15	ces	
148	15	ennemi	
149	15	jour	
150	15	temps	
151	15	viens	
152	14	aime	
153	14	alors	
154	14	aux	
155	14	avais	
156	14	béatris	
157	14	encor	
158	14	encore	
159	14	heure	
160	14	ni	
161	14	perdre	
162	14	puis	
163	14	voulez	
164	13	as	
165	13	cela	
166	13	comment	
167	13	crois	
168	13	foi	
169	13	nos	
170	13	ont	
171	13	tes	
172	13	vais	
173	13	vu	
174	13	yeux	
175	12	affaire	
176	12	ayant	
177	12	chez	
178	12	colère	
179	12	crispin	
180	12	dis	
181	12	offense	
182	12	peur	
183	12	plutôt	
184	12	pu	
185	12	quelque	
186	12	savez	
187	12	ses	
188	12	tantôt	
189	11	amant	
190	11	après	
191	11	beau	
192	11	demain	
193	11	donne	
194	11	dont	
195	11	déjà	
196	11	main	
197	11	puisque	
198	11	raison	
199	11	sorte	
200	11	toute	
201	11	vrai	
202	10	allons	
203	10	argent	
204	10	aura	
205	10	bas	
206	10	cavalier	
207	10	celui	
208	10	cet	
209	10	cher	
210	10	faisons	
211	10	gens	
212	10	lieu	
213	10	mourir	
214	10	personne	
215	10	pourquoi	
216	10	rendre	
217	10	trouver	
218	10	veut	
219	10	êtes	
220	9	autres	
221	9	brave	
222	9	cent	
223	9	cependant	
224	9	ciel	
225	9	coups	
226	9	dessein	
227	9	dessus	
228	9	devant	
229	9	femme	
230	9	fidèle	
231	9	lettre	
232	9	manque	
233	9	pourtant	
234	9	pris	
235	9	prison	
236	9	reste	
237	9	sera	
238	9	servir	
239	9	sommes	
240	9	sortir	
241	9	sous	
242	9	sujet	
243	9	tolède	
244	9	toujours	
245	9	trouve	
246	9	valeur	
247	9	venez	
248	9	vient	
249	8	chose	
250	8	combat	
251	8	depuis	
252	8	entre	
253	8	entrer	
254	8	fais	
255	8	garde	
256	8	hommes	
257	8	leur	
258	8	loin	
259	8	maison	
260	8	mettre	
261	8	mépris	
262	8	perdu	
263	8	promis	
264	8	sang	
265	8	seigneur	
266	8	venir	
267	8	vieillard	
268	7	allez	
269	7	ami	
270	7	aujourd	
271	7	bruit	
272	7	compte	
273	7	corps	
274	7	cruel	
275	7	discours	
276	7	donné	
277	7	défendre	
278	7	entrez	
279	7	faite	
280	7	faites	
281	7	fer	
282	7	ferme	
283	7	grand	
284	7	hui	
285	7	ingrat	
286	7	jusqu	
287	7	maîtresse	
288	7	mots	
289	7	nom	
290	7	offensé	
291	7	parle	
292	7	parler	
293	7	place	
294	7	premier	
295	7	puisqu	
296	7	ravie	
297	7	remède	
298	7	sauver	
299	7	très	
300	7	épée	
301	7	étais	
302	7	état	
303	6	adieu	
304	6	assez	
305	6	aurait	
306	6	avait	
307	6	chambre	
308	6	coup	
309	6	demeure	
310	6	dieux	
311	6	donnée	
312	6	dormir	
313	6	doute	
314	6	emporte	
315	6	es	
316	6	fasse	
317	6	fera	
318	6	fureur	
319	6	garder	
320	6	honte	
321	6	humeur	
322	6	importe	
323	6	lisette	
324	6	mille	
325	6	mis	
326	6	monde	
327	6	parlez	
328	6	partout	
329	6	pouvez	
330	6	périr	
331	6	quatre	
332	6	quel	
333	6	quelle	
334	6	quoique	
335	6	rare	
336	6	rivière	
337	6	seulement	
338	6	songer	
339	6	tel	
340	6	trouvé	
341	6	venu	
342	6	visage	
343	6	voilà	
344	6	zamorin	
345	6	écolier	
346	6	ôte	
347	5	action	
348	5	adore	
349	5	aimer	
350	5	aller	
351	5	amène	
352	5	attendre	
353	5	aurai	
354	5	aurais	
355	5	aurez	
356	5	avecque	
357	5	bonne	
358	5	braves	
359	5	cache	
360	5	cassandre	
361	5	chaque	
362	5	chercher	
363	5	cherché	
364	5	chère	
365	5	cinq	
366	5	courage	
367	5	croire	
368	5	dame	
369	5	demande	
370	5	devoir	
371	5	diable	
372	5	doit	
373	5	donner	
374	5	douleur	
375	5	ennemis	
376	5	extrême	
377	5	eût	
378	5	face	
379	5	faudra	
380	5	ferait	
381	5	feu	
382	5	funeste	
383	5	gloire	
384	5	grâce	
385	5	généreux	
386	5	haïr	
387	5	hélas	
388	5	lit	
389	5	lois	
390	5	lorsque	
391	5	mains	
392	5	mienne	
393	5	outrage	
394	5	paix	
395	5	part	
396	5	passer	
397	5	plaît	
398	5	pont	
399	5	pourrais	
400	5	pourvu	
401	5	propre	
402	5	quelqu	
403	5	regret	
404	5	rendu	
405	5	rue	
406	5	sait	
407	5	salamanque	
408	5	satisfait	
409	5	saurai	
410	5	saurais	
411	5	savoir	
412	5	secret	
413	5	semble	
414	5	serez	
415	5	tais	
416	5	traître	
417	5	vivre	
418	5	voici	
419	5	vouloir	
420	4	agir	
421	4	aide	
422	4	aie	
423	4	aisément	
424	4	amis	
425	4	ans	
426	4	appelle	
427	4	apprends	
428	4	arrête	
429	4	asile	
430	4	attends	
431	4	auprès	
432	4	bat	
433	4	battre	
434	4	bel	
435	4	besoin	
436	4	bienfait	
437	4	bientôt	
438	4	bons	
439	4	cause	
440	4	certain	
441	4	condition	
442	4	craindre	
443	4	crains	
444	4	crime	
445	4	davantage	
446	4	demander	
447	4	desseins	
448	4	devais	
449	4	différer	
450	4	désespoir	
451	4	dû	
452	4	eau	
453	4	ensemble	
454	4	entends	
455	4	envie	
456	4	excès	
457	4	façon	
458	4	ferai	
459	4	ferais	
460	4	fut	
461	4	gré	
462	4	hymen	
463	4	hé	
464	4	infamie	
465	4	jeune	
466	4	joie	
467	4	jouer	
468	4	jours	
469	4	juste	
470	4	justice	
471	4	laisse	
472	4	laissez	
473	4	las	
474	4	longtemps	
475	4	louis	
476	4	léonore	
477	4	malheureux	
478	4	manquer	
479	4	maux	
480	4	meure	
481	4	mine	
482	4	mortel	
483	4	méchant	
484	4	mérite	
485	4	or	
486	4	oubli	
487	4	ouvre	
488	4	ouvrez	
489	4	ouïr	
490	4	parce	
491	4	pareille	
492	4	parti	
493	4	passion	
494	4	passé	
495	4	payer	
496	4	peine	
497	4	peste	
498	4	peux	
499	4	pied	
500	4	poignard	
501	4	poste	
502	4	pourrait	
503	4	pouvoir	
504	4	prendre	
505	4	prenez	
506	4	prie	
507	4	promets	
508	4	promptement	
509	4	près	
510	4	prétends	
511	4	prévôt	
512	4	prête	
513	4	puisse	
514	4	quartier	
515	4	quelques	
516	4	rage	
517	4	rend	
518	4	rendez	
519	4	revient	
520	4	sens	
521	4	serait	
522	4	sergents	
523	4	seuls	
524	4	six	
525	4	sois	
526	4	sort	
527	4	soupirs	
528	4	souvent	
529	4	suivre	
530	4	telle	
531	4	tenir	
532	4	tiens	
533	4	tient	
534	4	tue	
535	4	tuer	
536	4	tête	
537	4	vengeance	
538	4	venue	
539	4	visite	
540	4	vite	
541	4	vivant	
542	4	voleur	
543	4	voyez	
544	4	vôtre	
545	4	époux	
546	4	étant	
547	4	étiez	
548	4	étranger	
549	4	été	
550	3	abhorre	
551	3	abord	
552	3	accident	
553	3	afin	
554	3	ah	
555	3	aille	
556	3	ailleurs	
557	3	aimable	
558	3	ait	
559	3	ange	
560	3	appeler	
561	3	arrive	
562	3	assemble	
563	3	auront	
564	3	aussitôt	
565	3	auteur	
566	3	avocat	
567	3	beaucoup	
568	3	billet	
569	3	bout	
570	3	bravoure	
571	3	cacher	
572	3	caché	
573	3	cage	
574	3	chacun	
575	3	cherchez	
576	3	chien	
577	3	choisir	
578	3	combien	
579	3	commun	
580	3	console	
581	3	constant	
582	3	coucher	
583	3	courir	
584	3	courre	
585	3	cours	
586	3	croit	
587	3	croyais	
588	3	céans	
589	3	danger	
590	3	dents	
591	3	dernier	
592	3	dites	
593	3	dix	
594	3	double	
595	3	doux	
596	3	déplaisir	
597	3	empêcher	
598	3	entier	
599	3	espagne	
600	3	espère	
601	3	eu	
602	3	eut	
603	3	expliquer	
604	3	faisait	
605	3	faits	
606	3	famille	
607	3	faquin	
608	3	faudrait	
609	3	fenêtre	
610	3	fit	
611	3	folle	
612	3	force	
613	3	fou	
614	3	frappe	
615	3	fuite	
616	3	fâcheux	
617	3	félix	
618	3	heureux	
619	3	hâte	
620	3	ignore	
621	3	indigne	
622	3	infâme	
623	3	insolent	
624	3	instant	
625	3	irai	
626	3	iras	
627	3	jeter	
628	3	laisser	
629	3	leurs	
630	3	lieux	
631	3	logis	
632	3	lors	
633	3	lumière	
634	3	messieurs	
635	3	mets	
636	3	meurs	
637	3	mien	
638	3	miens	
639	3	misère	
640	3	moment	
641	3	montre	
642	3	mot	
643	3	moyen	
644	3	mule	
645	3	nomme	
646	3	objet	
647	3	obligé	
648	3	obéir	
649	3	oeil	
650	3	offenser	
651	3	ordre	
652	3	oreille	
653	3	pareil	
654	3	pendant	
655	3	pensez	
656	3	perfide	
657	3	permis	
658	3	perte	
659	3	petit	
660	3	plaindre	
661	3	plaire	
662	3	plein	
663	3	pleins	
664	3	pleurs	
665	3	poltron	
666	3	poltrons	
667	3	pourra	
668	3	prends	
669	3	promesse	
670	3	péril	
671	3	querelle	
672	3	ravisseur	
673	3	ravit	
674	3	reconnu	
675	3	rendrai	
676	3	reviens	
677	3	rigueur	
678	3	rire	
679	3	ris	
680	3	roi	
681	3	réduite	
682	3	résister	
683	3	sachant	
684	3	sache	
685	3	satisfaire	
686	3	saurait	
687	3	sauve	
688	3	secours	
689	3	sentiments	
690	3	serment	
691	3	sers	
692	3	seule	
693	3	siffle	
694	3	soin	
695	3	soir	
696	3	songez	
697	3	sorti	
698	3	sour	
699	3	souviens	
700	3	su	
701	3	sûr	
702	3	taillade	
703	3	tard	
704	3	tenez	
705	3	tien	
706	3	tienne	
707	3	tour	
708	3	trahir	
709	3	traîtres	
710	3	trompe	
711	3	trépas	
712	3	trêve	
713	3	tué	
714	3	tôt	
715	3	vaincre	
716	3	vaut	
717	3	vengeons	
718	3	verrais	
719	3	vers	
720	3	vive	
721	3	voie	
722	3	voudrais	
723	3	écoute	
724	3	écrit	
725	3	épouser	
726	3	éprouver	
727	3	étrange	
728	3	ôtez	
729	2	acceptant	
730	2	accompagné	
731	2	accord	
732	2	achève	
733	2	aimes	
734	2	aimez	
735	2	aimée	
736	2	amadis	
737	2	amants	
738	2	année	
739	2	aperçois	
740	2	appartement	
741	2	archers	
742	2	arme	
743	2	armes	
744	2	armé	
745	2	arrêter	
746	2	assassin	
747	2	assomme	
748	2	assouvie	
749	2	assurer	
750	2	atteinte	
751	2	attendais	
752	2	attendez	
753	2	aucun	
754	2	auraient	
755	2	aurons	
756	2	aveugle	
757	2	aviez	
758	2	avons	
759	2	barbare	
760	2	beauté	
761	2	beaux	
762	2	belle	
763	2	blessé	
764	2	boire	
765	2	bois	
766	2	bonté	
767	2	bouche	
768	2	bourse	
769	2	bretteurs	
770	2	bâton	
771	2	béatrix	
772	2	cachez	
773	2	capable	
774	2	cartel	
775	2	cas	
776	2	causé	
777	2	cents	
778	2	cespede	
779	2	champs	
780	2	changeons	
781	2	charme	
782	2	chats	
783	2	chemin	
784	2	chercherons	
785	2	chers	
786	2	cheval	
787	2	clair	
788	2	clef	
789	2	combattre	
790	2	compagnons	
791	2	confident	
792	2	confus	
793	2	conjure	
794	2	connais	
795	2	connaître	
796	2	connu	
797	2	conseils	
798	2	considérer	
799	2	content	
800	2	conter	
801	2	coquette	
802	2	couchent	
803	2	courroux	
804	2	court	
805	2	couru	
806	2	couteaux	
807	2	couvert	
808	2	craignons	
809	2	crainte	
810	2	croirais	
811	2	croyez	
812	2	cru	
813	2	curiosité	
814	2	cède	
815	2	côtés	
816	2	deuil	
817	2	devez	
818	2	différons	
819	2	dirait	
820	2	disais	
821	2	doigts	
822	2	donnant	
823	2	donnez	
824	2	doucement	
825	2	droit	
826	2	duel	
827	2	dès	
828	2	défendant	
829	2	défense	
830	2	dépendre	
831	2	dépends	
832	2	déposition	
833	2	déshonneur	
834	2	désir	
835	2	enfants	
836	2	enfermer	
837	2	enrage	
838	2	enragé	
839	2	envers	
840	2	esclave	
841	2	estime	
842	2	etc	
843	2	eusse	
844	2	eux	
845	2	expose	
846	2	exprès	
847	2	extravagance	
848	2	faible	
849	2	fanfaron	
850	2	fat	
851	2	fausse	
852	2	faveurs	
853	2	ferez	
854	2	fie	
855	2	fiers	
856	2	fiez	
857	2	filles	
858	2	fin	
859	2	font	
860	2	fortune	
861	2	fossés	
862	2	frayeur	
863	2	froid	
864	2	fuir	
865	2	furieux	
866	2	fâché	
867	2	galants	
868	2	grille	
869	2	grison	
870	2	générosité	
871	2	hais	
872	2	hasarder	
873	2	haut	
874	2	histoire	
875	2	holà	
876	2	honteuse	
877	2	honteux	
878	2	hors	
879	2	huit	
880	2	humble	
881	2	important	
882	2	importune	
883	2	inconsidérée	
884	2	inhumain	
885	2	inhumains	
886	2	intéresse	
887	2	invention	
888	2	jeu	
889	2	jeunesse	
890	2	juger	
891	2	justement	
892	2	laissé	
893	2	leans	
894	2	loge	
895	2	lâche	
896	2	léger	
897	2	madrid	
898	2	malsaine	
899	2	mange	
900	2	manger	
901	2	manoir	
902	2	marché	
903	2	mariage	
904	2	matière	
905	2	maudit	
906	2	mauvaise	
907	2	meilleur	
908	2	misérable	
909	2	moindre	
910	2	moitié	
911	2	montrer	
912	2	mourras	
913	2	mystère	
914	2	mène	
915	2	méchants	
916	2	naturel	
917	2	nez	
918	2	noir	
919	2	noire	
920	2	nulle	
921	2	nôtre	
922	2	oblige	
923	2	obtenu	
924	2	offenses	
925	2	offensée	
926	2	offrir	
927	2	ose	
928	2	oses	
929	2	oublier	
930	2	outrance	
931	2	paraît	
932	2	paraître	
933	2	pardonner	
934	2	pardonnez	
935	2	parlons	
936	2	partie	
937	2	passe	
938	2	patience	
939	2	patron	
940	2	pauvre	
941	2	payé	
942	2	pense	
943	2	penser	
944	2	perd	
945	2	perdrais	
946	2	perdrez	
947	2	perds	
948	2	pieds	
949	2	pique	
950	2	pis	
951	2	plaintes	
952	2	plaisir	
953	2	pleurer	
954	2	plupart	
955	2	pointe	
956	2	porter	
957	2	pouvais	
958	2	première	
959	2	presque	
960	2	presse	
961	2	prix	
962	2	promesses	
963	2	préfère	
964	2	puissance	
965	2	qualité	
966	2	question	
967	2	race	
968	2	raisons	
969	2	recevoir	
970	2	reconnaissance	
971	2	redevable	
972	2	refuse	
973	2	refuser	
974	2	renonce	
975	2	repentir	
976	2	reprends	
977	2	requête	
978	2	respects	
979	2	retardement	
980	2	reviendrai	
981	2	revienne	
982	2	revoir	
983	2	revois	
984	2	rhume	
985	2	rit	
986	2	rompre	
987	2	rougir	
988	2	rudement	
989	2	rumeur	
990	2	récit	
991	2	sage	
992	2	salut	
993	2	satisfasse	
994	2	sauras	
995	2	saurez	
996	2	sauter	
997	2	sauvée	
998	2	saviez	
999	2	seigneurie	
1000	2	sein	
1001	2	sensible	
1002	2	sept	
1003	2	serai	
1004	2	seras	
1005	2	seriez	
1006	2	serons	
1007	2	seront	
1008	2	servante	
1009	2	service	
1010	2	serviteur	
1011	2	sied	
1012	2	sirène	
1013	2	sitôt	
1014	2	somme	
1015	2	songe	
1016	2	sors	
1017	2	sortiez	
1018	2	sortirez	
1019	2	sot	
1020	2	soufflet	
1021	2	soupçonné	
1022	2	souvenir	
1023	2	soyons	
1024	2	suborneur	
1025	2	subornée	
1026	2	succéder	
1027	2	suit	
1028	2	suivant	
1029	2	suivi	
1030	2	suivons	
1031	2	suivrai	
1032	2	surprise	
1033	2	suspecte	
1034	2	séparé	
1035	2	sûretés	
1036	2	taffetas	
1037	2	taille	
1038	2	tendre	
1039	2	tendresses	
1040	2	tenu	
1041	2	tiennes	
1042	2	tirer	
1043	2	tombe	
1044	2	touche	
1045	2	touché	
1046	2	toutefois	
1047	2	toutes	
1048	2	triste	
1049	2	trois	
1050	2	trou	
1051	2	trous	
1052	2	trouvant	
1053	2	trouverez	
1054	2	trouvée	
1055	2	tâchons	
1056	2	témoins	
1057	2	use	
1058	2	vaillance	
1059	2	vaillant	
1060	2	vaine	
1061	2	vainement	
1062	2	valet	
1063	2	valets	
1064	2	vaurien	
1065	2	venge	
1066	2	vengerai	
1067	2	vent	
1068	2	verra	
1069	2	verras	
1070	2	verrez	
1071	2	vertu	
1072	2	vieil	
1073	2	viendra	
1074	2	vieux	
1075	2	vilains	
1076	2	violence	
1077	2	vis	
1078	2	vit	
1079	2	voeux	
1080	2	voit	
1081	2	voix	
1082	2	vont	
1083	2	voyant	
1084	2	voyons	
1085	2	vue	
1086	2	vérité	
1087	2	ça	
1088	2	écus	
1089	2	égale	
1090	2	égaler	
1091	2	éloigné	
1092	2	épargne	
1093	2	épris	
1094	2	éprise	
1095	2	équipage	
1096	2	étourdi	
1097	2	étudiant	
1098	2	éviter	
1099	1	abattent	
1100	1	abominable	
1101	1	abréger	
1102	1	absence	
1103	1	absolu	
1104	1	acariâtre	
1105	1	accable	
1106	1	accablé	
1107	1	acceptais	
1108	1	accepter	
1109	1	accompagne	
1110	1	accomplir	
1111	1	accomplissent	
1112	1	accordent	
1113	1	accorder	
1114	1	accueil	
1115	1	accumule	
1116	1	accusa	
1117	1	accuser	
1118	1	acharnés	
1119	1	achever	
1120	1	achevé	
1121	1	acquitté	
1122	1	acquérir	
1123	1	acquêts	
1124	1	acteurs	
1125	1	actions	
1126	1	admet	
1127	1	adoptais	
1128	1	adorable	
1129	1	adresse	
1130	1	adroitement	
1131	1	adsum	
1132	1	adversaires	
1133	1	affaires	
1134	1	affamé	
1135	1	affamés	
1136	1	affermer	
1137	1	affront	
1138	1	agiront	
1139	1	agréable	
1140	1	aider	
1141	1	aigle	
1142	1	ailles	
1143	1	aimables	
1144	1	aimais	
1145	1	aimait	
1146	1	aimerais	
1147	1	aimeriez	
1148	1	aimèrent	
1149	1	aimé	
1150	1	air	
1151	1	ajoutez	
1152	1	ajustez	
1153	1	alarmer	
1154	1	alexandre	
1155	1	alla	
1156	1	allait	
1157	1	allant	
1158	1	alliance	
1159	1	alliez	
1160	1	allonger	
1161	1	allégement	
1162	1	alléguai	
1163	1	alléguer	
1164	1	amené	
1165	1	amitié	
1166	1	amorçons	
1167	1	amoureux	
1168	1	amours	
1169	1	amuser	
1170	1	amusé	
1171	1	ancienne	
1172	1	animal	
1173	1	animée	
1174	1	appelant	
1175	1	appelez	
1176	1	apprenant	
1177	1	apprendrez	
1178	1	apprenez	
1179	1	appris	
1180	1	approches	
1181	1	approchez	
1182	1	apprête	
1183	1	appétit	
1184	1	aragonais	
1185	1	araignées	
1186	1	arbitre	
1187	1	ardente	
1188	1	armer	
1189	1	arquebuser	
1190	1	arriva	
1191	1	arrivant	
1192	1	arriver	
1193	1	arrivée	
1194	1	arrière	
1195	1	arrêta	
1196	1	arrêté	
1197	1	artificieux	
1198	1	assassinat	
1199	1	assassiner	
1200	1	assemblée	
1201	1	assignation	
1202	1	assommer	
1203	1	assouvir	
1204	1	assurent	
1205	1	assuré	
1206	1	assurée	
1207	1	attaque	
1208	1	attaquons	
1209	1	attaqué	
1210	1	attendons	
1211	1	attendrai	
1212	1	attention	
1213	1	attrape	
1214	1	attrapé	
1215	1	aucunement	
1216	1	augmente	
1217	1	augmenté	
1218	1	auriez	
1219	1	austère	
1220	1	autrement	
1221	1	avance	
1222	1	avant	
1223	1	avantage	
1224	1	avare	
1225	1	aventure	
1226	1	aventures	
1227	1	aveuglés	
1228	1	avis	
1229	1	avoue	
1230	1	avouez	
1231	1	avéré	
1232	1	ayons	
1233	1	badin	
1234	1	bagatelle	
1235	1	baigner	
1236	1	balance	
1237	1	bandits	
1238	1	bannissons	
1239	1	baron	
1240	1	basque	
1241	1	basse	
1242	1	bats	
1243	1	battait	
1244	1	battent	
1245	1	battez	
1246	1	battons	
1247	1	battrons	
1248	1	beautés	
1249	1	berne	
1250	1	bienfaiteur	
1251	1	bienfaits	
1252	1	bienvenue	
1253	1	bière	
1254	1	blanche	
1255	1	blessée	
1256	1	blessés	
1257	1	blâmez	
1258	1	blême	
1259	1	blêmes	
1260	1	boiteux	
1261	1	bonheur	
1262	1	bonhomme	
1263	1	bonnes	
1264	1	bord	
1265	1	bosses	
1266	1	bottes	
1267	1	bouffon	
1268	1	bourgeois	
1269	1	bourre	
1270	1	bourreau	
1271	1	bourreaux	
1272	1	braver	
1273	1	brisais	
1274	1	brisons	
1275	1	brouillard	
1276	1	brusquement	
1277	1	brutalité	
1278	1	bu	
1279	1	burgos	
1280	1	buse	
1281	1	bâti	
1282	1	bâtiment	
1283	1	cachons	
1284	1	cadet	
1285	1	cagneux	
1286	1	cajolait	
1287	1	camarade	
1288	1	camp	
1289	1	campagne	
1290	1	captif	
1291	1	caresses	
1292	1	carnage	
1293	1	casaque	
1294	1	caton	
1295	1	causeuse	
1296	1	caution	
1297	1	celle	
1298	1	censeur	
1299	1	certains	
1300	1	cesse	
1301	1	cessez	
1302	1	ceux	
1303	1	chair	
1304	1	champ	
1305	1	changé	
1306	1	chapeau	
1307	1	charbon	
1308	1	charge	
1309	1	charger	
1310	1	chargé	
1311	1	charmant	
1312	1	charrette	
1313	1	chasser	
1314	1	chat	
1315	1	cheminait	
1316	1	chemins	
1317	1	cherchaient	
1318	1	cherche	
1319	1	chercherez	
1320	1	chercheriez	
1321	1	cherches	
1322	1	chevalier	
1323	1	chevau	
1324	1	chevaux	
1325	1	cheveux	
1326	1	chienne	
1327	1	chimène	
1328	1	choir	
1329	1	choisirais	
1330	1	choisis	
1331	1	choisissons	
1332	1	choque	
1333	1	chrétien	
1334	1	chrétiens	
1335	1	château	
1336	1	châtiment	
1337	1	chèrement	
1338	1	chôment	
1339	1	cieux	
1340	1	cinquante	
1341	1	civil	
1342	1	claire	
1343	1	cliquette	
1344	1	cloches	
1345	1	cloué	
1346	1	coches	
1347	1	coffre	
1348	1	cohorte	
1349	1	coins	
1350	1	collège	
1351	1	collé	
1352	1	combats	
1353	1	combattant	
1354	1	combattent	
1355	1	combler	
1356	1	commande	
1357	1	commander	
1358	1	commence	
1359	1	commencement	
1360	1	commettre	
1361	1	commode	
1362	1	commune	
1363	1	compassion	
1364	1	complet	
1365	1	compliment	
1366	1	comprends	
1367	1	comptant	
1368	1	comptes	
1369	1	comtes	
1370	1	con	
1371	1	conciergerie	
1372	1	concubinage	
1373	1	condamnez	
1374	1	conditions	
1375	1	conduisez	
1376	1	conduit	
1377	1	conduits	
1378	1	confusion	
1379	1	conjugales	
1380	1	conjuré	
1381	1	connaissons	
1382	1	connus	
1383	1	conscience	
1384	1	conseil	
1385	1	conservable	
1386	1	conservateur	
1387	1	conserve	
1388	1	conserver	
1389	1	considérée	
1390	1	consolation	
1391	1	consolent	
1392	1	conspirer	
1393	1	contentez	
1394	1	contents	
1395	1	contentée	
1396	1	contestations	
1397	1	contestons	
1398	1	contient	
1399	1	contons	
1400	1	contusion	
1401	1	conté	
1402	1	convainquent	
1403	1	conventions	
1404	1	conviction	
1405	1	conviés	
1406	1	coquet	
1407	1	coquin	
1408	1	corbeaux	
1409	1	corde	
1410	1	correction	
1411	1	corsage	
1412	1	couchez	
1413	1	couché	
1414	1	couler	
1415	1	coupable	
1416	1	courageux	
1417	1	courent	
1418	1	coureur	
1419	1	courons	
1420	1	courroucé	
1421	1	course	
1422	1	courue	
1423	1	coutume	
1424	1	couverts	
1425	1	couvre	
1426	1	couvrez	
1427	1	coûta	
1428	1	coûtait	
1429	1	crache	
1430	1	cracherai	
1431	1	craignez	
1432	1	craintes	
1433	1	crever	
1434	1	cris	
1435	1	crise	
1436	1	crispins	
1437	1	croyable	
1438	1	croyance	
1439	1	cruelle	
1440	1	cruellement	
1441	1	crus	
1442	1	crut	
1443	1	crève	
1444	1	crèvent	
1445	1	cuistre	
1446	1	cédez	
1447	1	célèbre	
1448	1	césar	
1449	1	côté	
1450	1	dariolette	
1451	1	dedans	
1452	1	delà	
1453	1	demandiez	
1454	1	demeurer	
1455	1	demeurez	
1456	1	demi	
1457	1	dernière	
1458	1	destin	
1459	1	dette	
1460	1	devaient	
1461	1	devenir	
1462	1	deviendrons	
1463	1	devient	
1464	1	deviez	
1465	1	deviner	
1466	1	devins	
1467	1	devons	
1468	1	devrais	
1469	1	diantre	
1470	1	différée	
1471	1	dignes	
1472	1	diligence	
1473	1	diminuera	
1474	1	dirai	
1475	1	disait	
1476	1	disant	
1477	1	discourir	
1478	1	dise	
1479	1	disgrâce	
1480	1	dispense	
1481	1	disputeras	
1482	1	disputé	
1483	1	dissimuler	
1484	1	dissimulés	
1485	1	dissiper	
1486	1	diverti	
1487	1	divertis	
1488	1	diète	
1489	1	domestique	
1490	1	dommage	
1491	1	donnent	
1492	1	donneront	
1493	1	donzelle	
1494	1	dormi	
1495	1	dors	
1496	1	dort	
1497	1	doublé	
1498	1	douceur	
1499	1	douter	
1500	1	douteuse	
1501	1	doutez	
1502	1	draps	
1503	1	drôles	
1504	1	ducs	
1505	1	durant	
1506	1	dure	
1507	1	duré	
1508	1	débaucher	
1509	1	débauchés	
1510	1	déchargé	
1511	1	déchiré	
1512	1	décret	
1513	1	déesse	
1514	1	défend	
1515	1	défendons	
1516	1	défends	
1517	1	défendue	
1518	1	défi	
1519	1	défâchez	
1520	1	dégarni	
1521	1	déguiser	
1522	1	déguisé	
1523	1	déité	
1524	1	délibérons	
1525	1	délicats	
1526	1	délivrera	
1527	1	délivrez	
1528	1	délivré	
1529	1	déloyale	
1530	1	démon	
1531	1	départir	
1532	1	dépend	
1533	1	dépendrait	
1534	1	dépendît	
1535	1	déplaise	
1536	1	déplaisirs	
1537	1	déplaît	
1538	1	député	
1539	1	dépêche	
1540	1	dérober	
1541	1	déréglés	
1542	1	désespérée	
1543	1	désolés	
1544	1	détestable	
1545	1	déteste	
1546	1	détester	
1547	1	dévot	
1548	1	dévote	
1549	1	dût	
1550	1	effacer	
1551	1	effacée	
1552	1	effet	
1553	1	effets	
1554	1	effroyable	
1555	1	elles	
1556	1	embrassais	
1557	1	embrasse	
1558	1	embrassé	
1559	1	embrassés	
1560	1	empirer	
1561	1	emprisonne	
1562	1	emprisonnez	
1563	1	emprisonné	
1564	1	emprunté	
1565	1	empêche	
1566	1	empêchera	
1567	1	empêché	
1568	1	enchanté	
1569	1	endormi	
1570	1	enduré	
1571	1	enfermé	
1572	1	engager	
1573	1	engagé	
1574	1	engagée	
1575	1	engoncé	
1576	1	enjoint	
1577	1	enjouée	
1578	1	enlever	
1579	1	enlevé	
1580	1	enlevée	
1581	1	enlèvement	
1582	1	enlèvent	
1583	1	ennemie	
1584	1	enrager	
1585	1	enseigné	
1586	1	ensevelir	
1587	1	entend	
1588	1	entendez	
1589	1	entendrait	
1590	1	entendre	
1591	1	entière	
1592	1	entreparler	
1593	1	entrée	
1594	1	enté	
1595	1	envi	
1596	1	environné	
1597	1	envoie	
1598	1	erreur	
1599	1	escorte	
1600	1	esprits	
1601	1	espérant	
1602	1	estafilade	
1603	1	estimer	
1604	1	estramaçon	
1605	1	eus	
1606	1	eussiez	
1607	1	excite	
1608	1	excuse	
1609	1	exemple	
1610	1	exempterai	
1611	1	exerçons	
1612	1	exiger	
1613	1	exigé	
1614	1	expire	
1615	1	explique	
1616	1	exploit	
1617	1	expédié	
1618	1	expérience	
1619	1	facile	
1620	1	facit	
1621	1	faiblesse	
1622	1	faim	
1623	1	faisaient	
1624	1	faisais	
1625	1	faisant	
1626	1	fallait	
1627	1	fallu	
1628	1	fameux	
1629	1	fanfaronnade	
1630	1	fantaisie	
1631	1	fantasque	
1632	1	fantôme	
1633	1	fardeau	
1634	1	fatal	
1635	1	fatiguer	
1636	1	faussaire	
1637	1	fausses	
1638	1	faute	
1639	1	faux	
1640	1	faveur	
1641	1	favorable	
1642	1	feintes	
1643	1	feraient	
1644	1	feras	
1645	1	feriez	
1646	1	fermer	
1647	1	fermeté	
1648	1	fermez	
1649	1	ferons	
1650	1	ferrant	
1651	1	fertile	
1652	1	fiant	
1653	1	fier	
1654	1	fierai	
1655	1	fierez	
1656	1	figure	
1657	1	filez	
1658	1	fine	
1659	1	finie	
1660	1	finir	
1661	1	finissent	
1662	1	finit	
1663	1	fière	
1664	1	fièvre	
1665	1	flambeau	
1666	1	flattant	
1667	1	flegme	
1668	1	fleur	
1669	1	flux	
1670	1	flétrie	
1671	1	folles	
1672	1	fond	
1673	1	fonds	
1674	1	forcera	
1675	1	forcerai	
1676	1	forces	
1677	1	forcé	
1678	1	forte	
1679	1	fouillez	
1680	1	foule	
1681	1	fourbe	
1682	1	fourbes	
1683	1	fourbus	
1684	1	fournir	
1685	1	fournit	
1686	1	frais	
1687	1	franc	
1688	1	france	
1689	1	franchise	
1690	1	francs	
1691	1	frappé	
1692	1	frappée	
1693	1	fraude	
1694	1	fripon	
1695	1	fripons	
1696	1	frivole	
1697	1	frères	
1698	1	fugitif	
1699	1	fuient	
1700	1	funèbre	
1701	1	fus	
1702	1	fusils	
1703	1	futures	
1704	1	fuyant	
1705	1	fâche	
1706	1	fâchez	
1707	1	fâchés	
1708	1	félicité	
1709	1	féru	
1710	1	fût	
1711	1	gagerais	
1712	1	gagne	
1713	1	gagner	
1714	1	gagnez	
1715	1	gaie	
1716	1	gaieté	
1717	1	gaillard	
1718	1	galant	
1719	1	galantisait	
1720	1	galantiser	
1721	1	galantisée	
1722	1	galère	
1723	1	garantis	
1724	1	gard	
1725	1	gardait	
1726	1	garderai	
1727	1	garderais	
1728	1	gardes	
1729	1	garnement	
1730	1	gaucher	
1731	1	gaules	
1732	1	genoux	
1733	1	germain	
1734	1	geôle	
1735	1	geôlier	
1736	1	gigantine	
1737	1	glace	
1738	1	glacer	
1739	1	goth	
1740	1	goulus	
1741	1	goutte	
1742	1	gouttières	
1743	1	goût	
1744	1	grabat	
1745	1	grabuge	
1746	1	graisses	
1747	1	grande	
1748	1	grands	
1749	1	gras	
1750	1	gratitude	
1751	1	grec	
1752	1	gredin	
1753	1	greffier	
1754	1	grenadin	
1755	1	grillée	
1756	1	gris	
1757	1	gros	
1758	1	grâces	
1759	1	guenon	
1760	1	gueule	
1761	1	guidée	
1762	1	gâte	
1763	1	généreuse	
1764	1	générosités	
1765	1	gît	
1766	1	habile	
1767	1	habit	
1768	1	habits	
1769	1	haine	
1770	1	hanche	
1771	1	happe	
1772	1	harangue	
1773	1	hargneux	
1774	1	hasard	
1775	1	hasardant	
1776	1	hasarde	
1777	1	hasardeux	
1778	1	haïssent	
1779	1	heureuses	
1780	1	heurter	
1781	1	hideux	
1782	1	hier	
1783	1	histoires	
1784	1	hiver	
1785	1	hivers	
1786	1	honnête	
1787	1	huants	
1788	1	humbles	
1789	1	humilier	
1790	1	hypocrisie	
1791	1	hésiter	
1792	1	hôte	
1793	1	i	
1794	1	ignorant	
1795	1	ignorez	
1796	1	illustre	
1797	1	illustres	
1798	1	immonde	
1799	1	impertinence	
1800	1	implorer	
1801	1	importance	
1802	1	importante	
1803	1	importerait	
1804	1	importun	
1805	1	importunant	
1806	1	impossible	
1807	1	impourvu	
1808	1	imprudente	
1809	1	imprévu	
1810	1	imprévue	
1811	1	impunément	
1812	1	impute	
1813	1	imputés	
1814	1	impétueux	
1815	1	inaccessible	
1816	1	incapable	
1817	1	incarné	
1818	1	incivile	
1819	1	inclinations	
1820	1	inconnu	
1821	1	indice	
1822	1	indifférent	
1823	1	indignes	
1824	1	indirecte	
1825	1	indiscrets	
1826	1	indulgence	
1827	1	infaillible	
1828	1	informa	
1829	1	informations	
1830	1	informer	
1831	1	ingrats	
1832	1	injures	
1833	1	injurier	
1834	1	injuste	
1835	1	innocent	
1836	1	innocente	
1837	1	insigne	
1838	1	insolence	
1839	1	inspire	
1840	1	instamment	
1841	1	instrument	
1842	1	insulter	
1843	1	insupportable	
1844	1	inter	
1845	1	interdite	
1846	1	introduit	
1847	1	intérêt	
1848	1	inutile	
1849	1	invasion	
1850	1	invisible	
1851	1	inégales	
1852	1	inégalité	
1853	1	irait	
1854	1	irritait	
1855	1	irriter	
1856	1	irritez	
1857	1	irrité	
1858	1	issue	
1859	1	jalousie	
1860	1	jambes	
1861	1	jane	
1862	1	jardin	
1863	1	jeun	
1864	1	jeunes	
1865	1	joignait	
1866	1	joignez	
1867	1	joint	
1868	1	journellement	
1869	1	joué	
1870	1	juge	
1871	1	jugerez	
1872	1	jugez	
1873	1	jurant	
1874	1	juras	
1875	1	jure	
1876	1	juré	
1877	1	jusques	
1878	1	laine	
1879	1	laisses	
1880	1	laissons	
1881	1	langage	
1882	1	langue	
1883	1	languir	
1884	1	languissante	
1885	1	languissants	
1886	1	lanterne	
1887	1	lard	
1888	1	latin	
1889	1	lave	
1890	1	lent	
1891	1	lequel	
1892	1	lettres	
1893	1	levez	
1894	1	levis	
1895	1	leçons	
1896	1	libre	
1897	1	libéral	
1898	1	licence	
1899	1	lieutenant	
1900	1	ligne	
1901	1	lire	
1902	1	lisenza	
1903	1	lisiez	
1904	1	lits	
1905	1	livres	
1906	1	logea	
1907	1	logeant	
1908	1	longue	
1909	1	louez	
1910	1	loyaux	
1911	1	lue	
1912	1	lut	
1913	1	lâches	
1914	1	lâcheté	
1915	1	lèvent	
1916	1	maigre	
1917	1	maintien	
1918	1	malade	
1919	1	malaisée	
1920	1	malaisément	
1921	1	male	
1922	1	malgré	
1923	1	malheurs	
1924	1	mandement	
1925	1	mangeront	
1926	1	manquai	
1927	1	manquait	
1928	1	manquerait	
1929	1	manqué	
1930	1	mante	
1931	1	manteaux	
1932	1	marchands	
1933	1	marche	
1934	1	maroufle	
1935	1	marquis	
1936	1	marri	
1937	1	maréchaux	
1938	1	masculinement	
1939	1	masque	
1940	1	mat	
1941	1	mauvais	
1942	1	meilleure	
1943	1	meilleures	
1944	1	membre	
1945	1	menace	
1946	1	mentir	
1947	1	mené	
1948	1	merveilleux	
1949	1	met	
1950	1	mettez	
1951	1	meurtre	
1952	1	meurtrière	
1953	1	mignonne	
1954	1	mile	
1955	1	milieu	
1956	1	milles	
1957	1	mise	
1958	1	miséricorde	
1959	1	mit	
1960	1	mois	
1961	1	moralité	
1962	1	more	
1963	1	mortellement	
1964	1	mortels	
1965	1	motif	
1966	1	motifs	
1967	1	moulin	
1968	1	moustache	
1969	1	mouvement	
1970	1	munit	
1971	1	murs	
1972	1	musquée	
1973	1	mânes	
1974	1	méchante	
1975	1	méconnaissant	
1976	1	médis	
1977	1	médisons	
1978	1	mémoire	
1979	1	mémoires	
1980	1	ménageons	
1981	1	ménager	
1982	1	méprise	
1983	1	méritât	
1984	1	mérité	
1985	1	métier	
1986	1	mêlé	
1987	1	mêlée	
1988	1	mêmes	
1989	1	mîmes	
1990	1	mûrement	
1991	1	nagea	
1992	1	nageaient	
1993	1	narcisse	
1994	1	naturelle	
1995	1	neveux	
1996	1	noble	
1997	1	noblesse	
1998	1	nombre	
1999	1	nommant	
2000	1	notable	
2001	1	nouveau	
2002	1	nouveaux	
2003	1	nouvelle	
2004	1	nouvelles	
2005	1	nu	
2006	1	nue	
2007	1	nuire	
2008	1	néant	
2009	1	nécessaire	
2010	1	obligation	
2011	1	obligeant	
2012	1	obliger	
2013	1	obligée	
2014	1	obscure	
2015	1	occasion	
2016	1	occuper	
2017	1	octobre	
2018	1	odieux	
2019	1	offensant	
2020	1	offensez	
2021	1	office	
2022	1	officieux	
2023	1	offrais	
2024	1	offre	
2025	1	ois	
2026	1	ombrage	
2027	1	ombre	
2028	1	opprobre	
2029	1	opérons	
2030	1	oraisons	
2031	1	oreste	
2032	1	origine	
2033	1	oubliais	
2034	1	oubliée	
2035	1	outrageux	
2036	1	outragé	
2037	1	ouvert	
2038	1	ouverte	
2039	1	ouvrirai	
2040	1	ouï	
2041	1	ouïs	
2042	1	ouït	
2043	1	pacifique	
2044	1	pain	
2045	1	pairs	
2046	1	panses	
2047	1	papier	
2048	1	parais	
2049	1	paraissait	
2050	1	paraissez	
2051	1	parbleu	
2052	1	pardon	
2053	1	parent	
2054	1	paresseuse	
2055	1	parfait	
2056	1	parlait	
2057	1	parlant	
2058	1	parles	
2059	1	parlé	
2060	1	parmi	
2061	1	paroles	
2062	1	partent	
2063	1	parts	
2064	1	parés	
2065	1	passage	
2066	1	passait	
2067	1	passants	
2068	1	passerait	
2069	1	patenôtres	
2070	1	pauvrette	
2071	1	pavé	
2072	1	paye	
2073	1	payera	
2074	1	payes	
2075	1	payés	
2076	1	pecque	
2077	1	penard	
2078	1	pendard	
2079	1	pendit	
2080	1	pendra	
2081	1	pendre	
2082	1	pensais	
2083	1	penses	
2084	1	pension	
2085	1	pensée	
2086	1	percer	
2087	1	percé	
2088	1	perde	
2089	1	perdent	
2090	1	perdons	
2091	1	perdue	
2092	1	permets	
2093	1	permettez	
2094	1	perruquée	
2095	1	persuadée	
2096	1	perverti	
2097	1	pester	
2098	1	pesté	
2099	1	petite	
2100	1	peuvent	
2101	1	pillent	
2102	1	pincé	
2103	1	pire	
2104	1	pistolet	
2105	1	pitoyable	
2106	1	pitoyablement	
2107	1	plaide	
2108	1	plaie	
2109	1	plainte	
2110	1	plaisamment	
2111	1	plaisant	
2112	1	plaisirs	
2113	1	plats	
2114	1	pleinement	
2115	1	pleurera	
2116	1	plier	
2117	1	plusieurs	
2118	1	poche	
2119	1	poignarder	
2120	1	poing	
2121	1	ponctuel	
2122	1	port	
2123	1	porteurs	
2124	1	portraits	
2125	1	possible	
2126	1	possum	
2127	1	possède	
2128	1	posséder	
2129	1	posta	
2130	1	poule	
2131	1	poulet	
2132	1	poumon	
2133	1	pourraient	
2134	1	pourras	
2135	1	pourrie	
2136	1	poursuite	
2137	1	poursuivant	
2138	1	poursuivre	
2139	1	pousse	
2140	1	poussez	
2141	1	poussée	
2142	1	pouvons	
2143	1	prend	
2144	1	prendrai	
2145	1	prendrait	
2146	1	prenne	
2147	1	prennent	
2148	1	pressait	
2149	1	pressante	
2150	1	pressez	
2151	1	pressé	
2152	1	prier	
2153	1	prierai	
2154	1	prime	
2155	1	princesse	
2156	1	prise	
2157	1	prisonniers	
2158	1	prisons	
2159	1	prière	
2160	1	prières	
2161	1	prié	
2162	1	procédés	
2163	1	professons	
2164	1	profits	
2165	1	progrès	
2166	1	promettez	
2167	1	promettre	
2168	1	prompt	
2169	1	propos	
2170	1	proposition	
2171	1	proteste	
2172	1	prou	
2173	1	proverbe	
2174	1	provision	
2175	1	prudent	
2176	1	précautions	
2177	1	préfix	
2178	1	préparait	
2179	1	présente	
2180	1	présentement	
2181	1	prêt	
2182	1	prêter	
2183	1	puissant	
2184	1	puissants	
2185	1	puissent	
2186	1	puissiez	
2187	1	punissant	
2188	1	pur	
2189	1	purement	
2190	1	pylade	
2191	1	pâle	
2192	1	péché	
2193	1	pécore	
2194	1	pédant	
2195	1	pédantesque	
2196	1	pénétrer	
2197	1	périrai	
2198	1	périras	
2199	1	pérorais	
2200	1	qualités	
2201	1	quantité	
2202	1	quart	
2203	1	quartaine	
2204	1	quereller	
2205	1	quitter	
2206	1	quitté	
2207	1	rabattiez	
2208	1	raccommoder	
2209	1	races	
2210	1	raconte	
2211	1	raconter	
2212	1	raillerie	
2213	1	railleurs	
2214	1	raisonnement	
2215	1	rame	
2216	1	ramerai	
2217	1	rang	
2218	1	rappeler	
2219	1	rappelez	
2220	1	rappelons	
2221	1	rappelé	
2222	1	rapt	
2223	1	rassemblés	
2224	1	rasée	
2225	1	rat	
2226	1	ravi	
2227	1	ravir	
2228	1	ravis	
2229	1	recevait	
2230	1	recommande	
2231	1	reconnais	
2232	1	reconnaissant	
2233	1	recule	
2234	1	reculer	
2235	1	reculiez	
2236	1	refrappe	
2237	1	refroidi	
2238	1	refus	
2239	1	regard	
2240	1	regarde	
2241	1	regarder	
2242	1	reine	
2243	1	relation	
2244	1	remarqué	
2245	1	remerciant	
2246	1	remettez	
2247	1	remettre	
2248	1	remis	
2249	1	remise	
2250	1	remué	
2251	1	rencontre	
2252	1	rende	
2253	1	renom	
2254	1	renouvelées	
2255	1	renverrez	
2256	1	renversé	
2257	1	renvier	
2258	1	repaître	
2259	1	repos	
2260	1	reposez	
2261	1	repousser	
2262	1	repoussée	
2263	1	reprend	
2264	1	reprocher	
2265	1	reproches	
2266	1	respect	
2267	1	respecter	
2268	1	ressemble	
2269	1	ressemblent	
2270	1	ressentiment	
2271	1	ressuscité	
2272	1	restera	
2273	1	restituer	
2274	1	restitué	
2275	1	retenir	
2276	1	retenue	
2277	1	retienne	
2278	1	retient	
2279	1	retire	
2280	1	retirer	
2281	1	retirez	
2282	1	retour	
2283	1	retourné	
2284	1	retrancher	
2285	1	retrouver	
2286	1	revancherai	
2287	1	revancherons	
2288	1	revenait	
2289	1	revenir	
2290	1	reviendra	
2291	1	revive	
2292	1	reçois	
2293	1	reçue	
2294	1	ri	
2295	1	riche	
2296	1	richesse	
2297	1	rie	
2298	1	rigoureusement	
2299	1	rigoureux	
2300	1	riposte	
2301	1	risque	
2302	1	rival	
2303	1	robe	
2304	1	rome	
2305	1	rompt	
2306	1	rondelles	
2307	1	roue	
2308	1	rouge	
2309	1	rougissiez	
2310	1	réduire	
2311	1	réduit	
2312	1	réglais	
2313	1	réjouir	
2314	1	répandrai	
2315	1	répandu	
2316	1	réparable	
2317	1	réparer	
2318	1	répondrais	
2319	1	réponse	
2320	1	réputation	
2321	1	répète	
2322	1	répétés	
2323	1	résistance	
2324	1	résolue	
2325	1	résous	
2326	1	rétablir	
2327	1	réveillé	
2328	1	révèle	
2329	1	révéler	
2330	1	sachez	
2331	1	sachons	
2332	1	sacrifier	
2333	1	sacré	
2334	1	sain	
2335	1	saine	
2336	1	saison	
2337	1	sales	
2338	1	salutaire	
2339	1	samedis	
2340	1	sanglant	
2341	1	sanglante	
2342	1	sanguinaire	
2343	1	saouler	
2344	1	satisfaction	
2345	1	satisfera	
2346	1	satisferez	
2347	1	saura	
2348	1	saurons	
2349	1	saute	
2350	1	sauvage	
2351	1	sauvez	
2352	1	sauvé	
2353	1	savons	
2354	1	scandaliser	
2355	1	scélérat	
2356	1	second	
2357	1	secrète	
2358	1	selon	
2359	1	semblant	
2360	1	sent	
2361	1	sentais	
2362	1	sentait	
2363	1	sentent	
2364	1	serrure	
2365	1	serrurier	
2366	1	serruriers	
2367	1	sert	
2368	1	servent	
2369	1	servi	
2370	1	serviras	
2371	1	servis	
2372	1	sien	
2373	1	sifflage	
2374	1	siffler	
2375	1	signalés	
2376	1	simple	
2377	1	sincère	
2378	1	sincérité	
2379	1	singulière	
2380	1	sire	
2381	1	soins	
2382	1	soleil	
2383	1	sombre	
2384	1	sommeil	
2385	1	songea	
2386	1	songeons	
2387	1	sonné	
2388	1	sortait	
2389	1	sortez	
2390	1	sortie	
2391	1	sortiras	
2392	1	sotte	
2393	1	soubrette	
2394	1	souci	
2395	1	soufferts	
2396	1	souffrira	
2397	1	souhaiter	
2398	1	souhaitons	
2399	1	souhaits	
2400	1	soupirer	
2401	1	soupçon	
2402	1	soupçonne	
2403	1	sourd	
2404	1	sourdine	
2405	1	soutins	
2406	1	souverain	
2407	1	soyez	
2408	1	sternum	
2409	1	suborne	
2410	1	succombe	
2411	1	succomber	
2412	1	suffit	
2413	1	suggère	
2414	1	suive	
2415	1	superbe	
2416	1	superflus	
2417	1	supplier	
2418	1	support	
2419	1	supposé	
2420	1	supprimer	
2421	1	surpasse	
2422	1	surprend	
2423	1	surprenez	
2424	1	surprenne	
2425	1	surtout	
2426	1	survivre	
2427	1	symétrie	
2428	1	sèche	
2429	1	séparant	
2430	1	sérieux	
2431	1	sévillan	
2432	1	table	
2433	1	tache	
2434	1	taché	
2435	1	talent	
2436	1	talons	
2437	1	teint	
2438	1	tels	
2439	1	tend	
2440	1	tendresse	
2441	1	tenter	
2442	1	tentez	
2443	1	terrain	
2444	1	terre	
2445	1	testament	
2446	1	tiendrez	
2447	1	tiennent	
2448	1	tirera	
2449	1	tiré	
2450	1	tison	
2451	1	toiles	
2452	1	toilette	
2453	1	tombait	
2454	1	touchent	
2455	1	tourments	
2456	1	tourmenté	
2457	1	tourne	
2458	1	tourner	
2459	1	tours	
2460	1	tousse	
2461	1	toux	
2462	1	tragique	
2463	1	trahison	
2464	1	trahissais	
2465	1	traita	
2466	1	traitable	
2467	1	traite	
2468	1	traitera	
2469	1	traité	
2470	1	trame	
2471	1	tranche	
2472	1	transporte	
2473	1	transports	
2474	1	travers	
2475	1	travesti	
2476	1	tremble	
2477	1	tremblé	
2478	1	trente	
2479	1	tromper	
2480	1	trompez	
2481	1	troublé	
2482	1	troupe	
2483	1	trouva	
2484	1	trouvent	
2485	1	trouverai	
2486	1	trouverait	
2487	1	trouveriez	
2488	1	trouvez	
2489	1	trouvés	
2490	1	tuons	
2491	1	tâchai	
2492	1	tâcher	
2493	1	tâtez	
2494	1	tâté	
2495	1	témoigne	
2496	1	témoigné	
2497	1	témoin	
2498	1	téméraire	
2499	1	témérité	
2500	1	témérités	
2501	1	unie	
2502	1	usage	
2503	1	user	
2504	1	usure	
2505	1	vain	
2506	1	vainqueur	
2507	1	valent	
2508	1	vanité	
2509	1	vantait	
2510	1	vanter	
2511	1	vas	
2512	1	veaux	
2513	1	veillaquerie	
2514	1	veille	
2515	1	venais	
2516	1	vendredis	
2517	1	vengeront	
2518	1	venges	
2519	1	vengé	
2520	1	venons	
2521	1	verrai	
2522	1	verrons	
2523	1	verront	
2524	1	verrou	
2525	1	verser	
2526	1	versé	
2527	1	vertus	
2528	1	veuille	
2529	1	veuve	
2530	1	victime	
2531	1	victoire	
2532	1	vide	
2533	1	vieille	
2534	1	vieillesse	
2535	1	vieilliras	
2536	1	viendras	
2537	1	vigueur	
2538	1	vilain	
2539	1	ville	
2540	1	vin	
2541	1	viole	
2542	1	violent	
2543	1	visages	
2544	1	visible	
2545	1	visions	
2546	1	visitons	
2547	1	visitée	
2548	1	vitement	
2549	1	voilées	
2550	1	voisin	
2551	1	vol	
2552	1	vole	
2553	1	voler	
2554	1	volet	
2555	1	volontiers	
2556	1	voudra	
2557	1	voudrez	
2558	1	voulais	
2559	1	vouliez	
2560	1	voyage	
2561	1	vraie	
2562	1	vraiment	
2563	1	vraisemblable	
2564	1	vécu	
2565	1	vêtue	
2566	1	vôtres	
2567	1	âge	
2568	1	çà	
2569	1	ébats	
2570	1	ébaudir	
2571	1	écart	
2572	1	échec	
2573	1	échelle	
2574	1	éclaircir	
2575	1	éclat	
2576	1	éclipsé	
2577	1	écoliers	
2578	1	écolières	
2579	1	écouter	
2580	1	écoutez	
2581	1	écoutée	
2582	1	écoutés	
2583	1	écrivant	
2584	1	écrivez	
2585	1	écrouelles	
2586	1	écrouée	
2587	1	égal	
2588	1	également	
2589	1	égara	
2590	1	égare	
2591	1	égarer	
2592	1	élargir	
2593	1	élude	
2594	1	épargnerait	
2595	1	épithalame	
2596	1	épouse	
2597	1	époussette	
2598	1	épouvantable	
2599	1	épuiser	
2600	1	épées	
2601	1	équivoque	
2602	1	étaient	
2603	1	éteignez	
2604	1	éteinte	
2605	1	étonnée	
2606	1	étourneau	
2607	1	étranglerai	
2608	1	étreinte	
2609	1	étrivières	
2610	1	étés	
2611	1	éveiller	
2612	1	éventé	
2613	1	évite	
2614	1	ôté	
