#Word Types: 2048
#Word Tokens: 16462
#Search Hits: 0
1	559	vous	
2	436	et	
3	428	de	
4	397	je	
5	389	que	
6	300	le	
7	286	l	
8	261	à	
9	253	en	
10	249	mon	
11	244	il	
12	240	est	
13	238	qu	
14	235	pour	
15	225	ne	
16	212	d	
17	199	ce	
18	185	un	
19	179	n	
20	174	m	
21	174	me	
22	160	pas	
23	149	j	
24	149	qui	
25	146	si	
26	139	mais	
27	134	la	
28	128	cour	
29	116	ma	
30	112	plus	
31	102	bien	
32	101	votre	
33	100	a	
34	94	moi	
35	87	son	
36	85	on	
37	81	ai	
38	75	sans	
39	72	elle	
40	68	amour	
41	67	être	
42	66	au	
43	64	prince	
44	63	lui	
45	59	des	
46	59	fils	
47	58	seigneur	
48	58	tout	
49	57	c	
50	57	mes	
51	57	s	
52	56	roi	
53	55	peut	
54	54	aime	
55	54	du	
56	54	sa	
57	53	fait	
58	53	une	
59	51	encore	
60	51	par	
61	49	haine	
62	49	âme	
63	48	dans	
64	48	point	
65	45	même	
66	45	vos	
67	44	les	
68	44	quand	
69	44	rien	
70	44	trop	
71	43	aimer	
72	43	voir	
73	42	stratonice	
74	38	ses	
75	38	toujours	
76	38	y	
77	36	doit	
78	36	faire	
79	36	où	
80	36	père	
81	36	quoi	
82	33	ah	
83	33	enfin	
84	33	mal	
85	33	moins	
86	33	se	
87	33	yeux	
88	32	avec	
89	32	faut	
90	32	hymen	
91	32	veux	
92	31	sais	
93	30	peine	
94	30	soin	
95	30	tu	
96	29	cette	
97	28	barsine	
98	28	cet	
99	28	dont	
100	28	grand	
101	27	avez	
102	27	puis	
103	27	suis	
104	26	assez	
105	26	jour	
106	26	non	
107	25	aussi	
108	25	effet	
109	25	mieux	
110	25	sang	
111	24	appas	
112	23	haïr	
113	23	jamais	
114	23	peu	
115	23	vois	
116	22	dire	
117	22	doux	
118	22	foi	
119	22	malgré	
120	22	pouvoir	
121	22	tant	
122	22	êtes	
123	21	avoir	
124	21	sens	
125	20	dois	
126	20	ici	
127	20	madame	
128	20	mépris	
129	20	plaire	
130	19	jusqu	
131	19	nous	
132	19	ou	
133	19	princesse	
134	19	sur	
135	19	tous	
136	19	vient	
137	18	croire	
138	18	oui	
139	18	veut	
140	17	autre	
141	17	aux	
142	17	crois	
143	17	déjà	
144	17	faiblesse	
145	17	pu	
146	16	choix	
147	16	donner	
148	16	flamme	
149	16	ni	
150	16	quelque	
151	16	su	
152	15	ardeur	
153	15	dieux	
154	15	désirs	
155	15	ingrate	
156	15	rendre	
157	15	secret	
158	15	sont	
159	15	époux	
160	14	aujourd	
161	14	croyez	
162	14	devoir	
163	14	espoir	
164	14	hui	
165	14	hélas	
166	14	mort	
167	14	mourir	
168	14	ont	
169	14	soins	
170	14	soit	
171	14	sort	
172	14	trahir	
173	14	vie	
174	13	après	
175	13	aurait	
176	13	comme	
177	13	contre	
178	13	crime	
179	13	dit	
180	13	effort	
181	13	eut	
182	13	ose	
183	13	paraître	
184	13	souffre	
185	13	timante	
186	12	aimez	
187	12	bonheur	
188	12	donc	
189	12	empire	
190	12	extrême	
191	12	gloire	
192	12	perdre	
193	12	plutôt	
194	12	quel	
195	12	regret	
196	12	soir	
197	12	souffrir	
198	12	toute	
199	12	vrai	
200	11	abord	
201	11	aurais	
202	11	faveur	
203	11	fut	
204	11	orgueil	
205	11	pourrait	
206	11	voeux	
207	11	vouloir	
208	11	était	
209	10	ayant	
210	10	beaucoup	
211	10	fort	
212	10	hé	
213	10	main	
214	10	notre	
215	10	objet	
216	10	peur	
217	10	prendre	
218	10	puisqu	
219	10	rang	
220	10	reste	
221	10	serait	
222	10	tendresse	
223	10	trouble	
224	10	trouve	
225	10	état	
226	9	avait	
227	9	aversion	
228	9	besoin	
229	9	bouche	
230	9	ces	
231	9	cru	
232	9	demandez	
233	9	engage	
234	9	fois	
235	9	fuir	
236	9	funeste	
237	9	ordre	
238	9	perds	
239	9	respect	
240	9	sortir	
241	9	soupirs	
242	9	temps	
243	9	tort	
244	9	touche	
245	9	trône	
246	9	vain	
247	9	voit	
248	9	vu	
249	9	épouser	
250	8	ailleurs	
251	8	allons	
252	8	ambition	
253	8	aucun	
254	8	aveu	
255	8	charmes	
256	8	cours	
257	8	craindre	
258	8	crains	
259	8	demande	
260	8	douleur	
261	8	dépit	
262	8	grâce	
263	8	honte	
264	8	indigne	
265	8	injustice	
266	8	jusques	
267	8	lieu	
268	8	loin	
269	8	part	
270	8	pitié	
271	8	pourtant	
272	8	prétendre	
273	8	puisque	
274	8	régner	
275	8	savez	
276	8	voudrais	
277	8	vôtre	
278	7	allez	
279	7	aurez	
280	7	avais	
281	7	beau	
282	7	belle	
283	7	cacher	
284	7	ciel	
285	7	colère	
286	7	croit	
287	7	céder	
288	7	dernier	
289	7	donne	
290	7	dès	
291	7	désir	
292	7	estime	
293	7	fille	
294	7	inhumaine	
295	7	instant	
296	7	joie	
297	7	langueur	
298	7	nom	
299	7	parler	
300	7	plaisir	
301	7	presse	
302	7	pris	
303	7	raison	
304	7	rompre	
305	7	sceptre	
306	7	secours	
307	7	seleucus	
308	7	semble	
309	7	sera	
310	7	seul	
311	7	suivre	
312	7	surpris	
313	7	tient	
314	7	va	
315	7	vais	
316	7	venez	
317	7	voulez	
318	6	anime	
319	6	antiochus	
320	6	aura	
321	6	autant	
322	6	autres	
323	6	avis	
324	6	charme	
325	6	cher	
326	6	chez	
327	6	contraire	
328	6	cruel	
329	6	destinée	
330	6	deux	
331	6	deviez	
332	6	doute	
333	6	douter	
334	6	droit	
335	6	droits	
336	6	efforts	
337	6	emporte	
338	6	entre	
339	6	fatal	
340	6	feux	
341	6	force	
342	6	forcer	
343	6	hait	
344	6	honneur	
345	6	hyménée	
346	6	ils	
347	6	ingrat	
348	6	inutile	
349	6	laisse	
350	6	lâche	
351	6	maintenant	
352	6	maux	
353	6	montrer	
354	6	nos	
355	6	obéir	
356	6	philon	
357	6	pourquoi	
358	6	pourrez	
359	6	pourriez	
360	6	prix	
361	6	promis	
362	6	puisse	
363	6	quels	
364	6	refus	
365	6	renoncer	
366	6	supplice	
367	6	tard	
368	6	te	
369	6	ton	
370	6	viens	
371	5	accorder	
372	5	achever	
373	5	afin	
374	5	alors	
375	5	apprends	
376	5	arracher	
377	5	avouer	
378	5	beauté	
379	5	cause	
380	5	cependant	
381	5	certain	
382	5	cesse	
383	5	cherche	
384	5	connais	
385	5	connaître	
386	5	courroux	
387	5	crainte	
388	5	cruelle	
389	5	cède	
390	5	dessein	
391	5	devant	
392	5	devrait	
393	5	donnée	
394	5	empêcher	
395	5	ennuis	
396	5	espérance	
397	5	exprimer	
398	5	fais	
399	5	faites	
400	5	ferai	
401	5	flatter	
402	5	froideur	
403	5	grande	
404	5	heureux	
405	5	horreur	
406	5	leurs	
407	5	mains	
408	5	mien	
409	5	nature	
410	5	nouveau	
411	5	nuire	
412	5	passe	
413	5	pieds	
414	5	plaindre	
415	5	plaît	
416	5	pouvez	
417	5	promettre	
418	5	puissance	
419	5	remède	
420	5	retour	
421	5	sensible	
422	5	servir	
423	5	t	
424	5	tel	
425	5	tombe	
426	5	tourment	
427	5	transport	
428	5	trépas	
429	5	visage	
430	5	vue	
431	5	étiez	
432	5	été	
433	5	éviter	
434	5	ô	
435	4	agité	
436	4	aider	
437	4	aimé	
438	4	ait	
439	4	aller	
440	4	amant	
441	4	apprendre	
442	4	attendre	
443	4	avantage	
444	4	bas	
445	4	bonté	
446	4	choisi	
447	4	chère	
448	4	conserver	
449	4	contraindre	
450	4	coup	
451	4	davantage	
452	4	diadème	
453	4	diffère	
454	4	différer	
455	4	dites	
456	4	dédains	
457	4	défendre	
458	4	délai	
459	4	désire	
460	4	entendre	
461	4	entier	
462	4	entreprendre	
463	4	envie	
464	4	erreur	
465	4	espérer	
466	4	expliquer	
467	4	faudrait	
468	4	femme	
469	4	feu	
470	4	fierté	
471	4	fièvre	
472	4	flatte	
473	4	grands	
474	4	guérir	
475	4	hais	
476	4	heure	
477	4	honteux	
478	4	hors	
479	4	justice	
480	4	laissez	
481	4	leur	
482	4	longtemps	
483	4	lorsque	
484	4	marque	
485	4	maître	
486	4	moment	
487	4	mots	
488	4	noeud	
489	4	noeuds	
490	4	obtenir	
491	4	oncle	
492	4	ordinaire	
493	4	oser	
494	4	parle	
495	4	parole	
496	4	personne	
497	4	plein	
498	4	pleurs	
499	4	porte	
500	4	premier	
501	4	prenez	
502	4	précieux	
503	4	prêt	
504	4	puissant	
505	4	puissiez	
506	4	péril	
507	4	quelle	
508	4	quoique	
509	4	refuser	
510	4	sachant	
511	4	sait	
512	4	satisfaire	
513	4	sentiment	
514	4	serais	
515	4	seule	
516	4	sortez	
517	4	souffrez	
518	4	sous	
519	4	souvent	
520	4	sujet	
521	4	superbe	
522	4	toucher	
523	4	touché	
524	4	toutefois	
525	4	traits	
526	4	traître	
527	4	tâche	
528	4	unique	
529	4	violent	
530	4	vis	
531	4	voudrait	
532	4	zenone	
533	4	émeut	
534	4	étais	
535	4	étant	
536	3	abuser	
537	3	accepter	
538	3	achevez	
539	3	adore	
540	3	agréable	
541	3	aigrir	
542	3	aimable	
543	3	aimiez	
544	3	ainsi	
545	3	aperçois	
546	3	arrête	
547	3	arrêter	
548	3	as	
549	3	auriez	
550	3	avant	
551	3	aviez	
552	3	bannir	
553	3	bontés	
554	3	bras	
555	3	brûle	
556	3	cache	
557	3	car	
558	3	celle	
559	3	cent	
560	3	cessez	
561	3	ceux	
562	3	choisir	
563	3	combien	
564	3	commence	
565	3	confesse	
566	3	connaissance	
567	3	coupable	
568	3	couronne	
569	3	coûte	
570	3	craint	
571	3	cruautés	
572	3	cruels	
573	3	demetrius	
574	3	devez	
575	3	dispense	
576	3	doive	
577	3	donnant	
578	3	découvrir	
579	3	défaut	
580	3	déplaire	
581	3	déplaît	
582	3	emporter	
583	3	emporté	
584	3	empêchez	
585	3	esprit	
586	3	eu	
587	3	eus	
588	3	eusse	
589	3	excès	
590	3	faudra	
591	3	fier	
592	3	fière	
593	3	forte	
594	3	fuit	
595	3	fuyez	
596	3	garde	
597	3	gardez	
598	3	grandeur	
599	3	guère	
600	3	guéri	
601	3	haï	
602	3	haïssez	
603	3	heureuse	
604	3	ignorer	
605	3	imputer	
606	3	injure	
607	3	insensible	
608	3	inspirer	
609	3	intérêt	
610	3	invincible	
611	3	juge	
612	3	juste	
613	3	laisser	
614	3	larmes	
615	3	loi	
616	3	lois	
617	3	malheur	
618	3	malheureux	
619	3	malheurs	
620	3	maîtresse	
621	3	meilleure	
622	3	mettre	
623	3	mille	
624	3	moindre	
625	3	montrez	
626	3	mortelle	
627	3	mouvement	
628	3	murmure	
629	3	mère	
630	3	naissance	
631	3	nul	
632	3	oblige	
633	3	obstine	
634	3	obtiens	
635	3	osez	
636	3	paix	
637	3	paraît	
638	3	passion	
639	3	passé	
640	3	place	
641	3	plainte	
642	3	pourrais	
643	3	pouvait	
644	3	pouvant	
645	3	pouviez	
646	3	prend	
647	3	presser	
648	3	pressez	
649	3	pressé	
650	3	près	
651	3	présence	
652	3	prétexte	
653	3	pur	
654	3	quelquefois	
655	3	quelques	
656	3	regards	
657	3	repos	
658	3	respecter	
659	3	retarder	
660	3	retirer	
661	3	rigueur	
662	3	rigueurs	
663	3	règne	
664	3	sacrés	
665	3	saurait	
666	3	sauver	
667	3	savoir	
668	3	sentiments	
669	3	sentir	
670	3	sert	
671	3	sorti	
672	3	succès	
673	3	suit	
674	3	syrie	
675	3	tendre	
676	3	toi	
677	3	trouver	
678	3	trouvez	
679	3	trouvé	
680	3	union	
681	3	vaincre	
682	3	vaine	
683	3	vains	
684	3	vaut	
685	3	vengeance	
686	3	vivrai	
687	3	voulu	
688	3	voyant	
689	3	âge	
690	3	échappé	
691	3	également	
692	3	émouvoir	
693	3	épargner	
694	3	épouse	
695	3	épousez	
696	2	abandonne	
697	2	abandonner	
698	2	absolu	
699	2	abusé	
700	2	accepte	
701	2	accomplisse	
702	2	accord	
703	2	accordez	
704	2	adorable	
705	2	agréez	
706	2	aide	
707	2	aidé	
708	2	aient	
709	2	aille	
710	2	aimera	
711	2	aisément	
712	2	allais	
713	2	ambitieux	
714	2	antigone	
715	2	appartement	
716	2	arrêtez	
717	2	assistance	
718	2	assure	
719	2	assurer	
720	2	assurez	
721	2	attachée	
722	2	attendrir	
723	2	augmente	
724	2	augmenter	
725	2	autorise	
726	2	avancer	
727	2	aveugle	
728	2	avons	
729	2	ayez	
730	2	bientôt	
731	2	borner	
732	2	bout	
733	2	brave	
734	2	brillant	
735	2	brûlant	
736	2	cachée	
737	2	causez	
738	2	celui	
739	2	cesser	
740	2	chagrin	
741	2	chaleur	
742	2	changer	
743	2	chaque	
744	2	charmants	
745	2	cheveux	
746	2	comble	
747	2	combler	
748	2	commencer	
749	2	comprendre	
750	2	confirmer	
751	2	confus	
752	2	connaissez	
753	2	consens	
754	2	consentement	
755	2	consentir	
756	2	constance	
757	2	content	
758	2	contenter	
759	2	contentez	
760	2	couleur	
761	2	craignez	
762	2	croyais	
763	2	cruelles	
764	2	daignez	
765	2	demander	
766	2	depuis	
767	2	derniers	
768	2	dessus	
769	2	destin	
770	2	destine	
771	2	devait	
772	2	difficile	
773	2	différents	
774	2	digne	
775	2	dirais	
776	2	dise	
777	2	disposer	
778	2	don	
779	2	douce	
780	2	douceur	
781	2	douteux	
782	2	dussai	
783	2	dut	
784	2	découvert	
785	2	déguiser	
786	2	dépend	
787	2	dépendre	
788	2	déplaisirs	
789	2	désespoir	
790	2	désirer	
791	2	désirez	
792	2	désordre	
793	2	désormais	
794	2	détourner	
795	2	détruire	
796	2	dû	
797	2	dût	
798	2	effets	
799	2	effroi	
800	2	empressement	
801	2	empêche	
802	2	empêcherai	
803	2	enflammée	
804	2	entendu	
805	2	entreprends	
806	2	envoie	
807	2	esprits	
808	2	facile	
809	2	faible	
810	2	faiblesses	
811	2	faillir	
812	2	faisant	
813	2	faite	
814	2	famille	
815	2	feint	
816	2	fidèle	
817	2	fin	
818	2	finisse	
819	2	fis	
820	2	forcé	
821	2	forcée	
822	2	front	
823	2	fuis	
824	2	fuite	
825	2	fureur	
826	2	fâche	
827	2	garder	
828	2	glorieux	
829	2	gris	
830	2	gré	
831	2	généreux	
832	2	haute	
833	2	haïsse	
834	2	impatience	
835	2	impossible	
836	2	imposteur	
837	2	imposture	
838	2	infidèle	
839	2	injurieux	
840	2	innocent	
841	2	inspire	
842	2	instruire	
843	2	interdit	
844	2	jeune	
845	2	jouir	
846	2	jouissez	
847	2	journée	
848	2	juger	
849	2	jugez	
850	2	laissé	
851	2	lentement	
852	2	lieux	
853	2	loisir	
854	2	longs	
855	2	légitime	
856	2	malaisé	
857	2	maligne	
858	2	mariage	
859	2	mensonge	
860	2	mets	
861	2	meurs	
862	2	meurt	
863	2	miens	
864	2	mis	
865	2	moitié	
866	2	monarque	
867	2	monte	
868	2	montrons	
869	2	mourant	
870	2	murmurer	
871	2	mémoire	
872	2	mérite	
873	2	naître	
874	2	nouvelle	
875	2	nulle	
876	2	nécessaire	
877	2	obliger	
878	2	obstinée	
879	2	obtiendrai	
880	2	occasion	
881	2	odieux	
882	2	offense	
883	2	offre	
884	2	osais	
885	2	oublier	
886	2	outrage	
887	2	ouïr	
888	2	parfaite	
889	2	partout	
890	2	pense	
891	2	penser	
892	2	perdant	
893	2	perdez	
894	2	perdrais	
895	2	perdu	
896	2	pergame	
897	2	permets	
898	2	permis	
899	2	peuvent	
900	2	plains	
901	2	plu	
902	2	possible	
903	2	pourra	
904	2	pouvaient	
905	2	pouvais	
906	2	première	
907	2	prends	
908	2	prenne	
909	2	prennent	
910	2	prière	
911	2	promesse	
912	2	promptement	
913	2	propre	
914	2	propres	
915	2	préférez	
916	2	présumer	
917	2	prêtez	
918	2	puissants	
919	2	pâle	
920	2	pût	
921	2	quitter	
922	2	quoiqu	
923	2	rapport	
924	2	rare	
925	2	recevant	
926	2	recevoir	
927	2	reconnais	
928	2	regarde	
929	2	reine	
930	2	rencontre	
931	2	rend	
932	2	rends	
933	2	rendu	
934	2	renonce	
935	2	ressens	
936	2	retire	
937	2	revient	
938	2	reçoit	
939	2	rois	
940	2	rougir	
941	2	réduit	
942	2	répandre	
943	2	répondre	
944	2	réponds	
945	2	sachez	
946	2	sacrifier	
947	2	sacré	
948	2	saura	
949	2	sauvez	
950	2	saviez	
951	2	seconde	
952	2	secrets	
953	2	secrètes	
954	2	sein	
955	2	semblait	
956	2	serai	
957	2	serez	
958	2	seriez	
959	2	seront	
960	2	seulement	
961	2	silence	
962	2	sois	
963	2	sollicité	
964	2	songez	
965	2	souci	
966	2	soudain	
967	2	souffert	
968	2	souhaite	
969	2	souhaitez	
970	2	soulagement	
971	2	soumettre	
972	2	soupçon	
973	2	soupçonner	
974	2	source	
975	2	soyez	
976	2	suffire	
977	2	surcroît	
978	2	surmonte	
979	2	surprend	
980	2	surtout	
981	2	sûr	
982	2	taire	
983	2	taisez	
984	2	tantôt	
985	2	terme	
986	2	tombeau	
987	2	tomber	
988	2	tourmente	
989	2	tourments	
990	2	traités	
991	2	tremble	
992	2	triomphez	
993	2	tristesse	
994	2	troubler	
995	2	troubles	
996	2	tâché	
997	2	témoignage	
998	2	téméraire	
999	2	unisse	
1000	2	veines	
1001	2	vertu	
1002	2	vienne	
1003	2	ville	
1004	2	vivre	
1005	2	vivrez	
1006	2	voici	
1007	2	voix	
1008	2	vont	
1009	2	voudrez	
1010	2	voulant	
1011	2	vouliez	
1012	2	voyez	
1013	2	voyons	
1014	2	zabas	
1015	2	éclat	
1016	2	éclater	
1017	2	étendre	
1018	2	étranger	
1019	2	évitons	
1020	2	ôté	
1021	1	abaisser	
1022	1	abhorre	
1023	1	abordez	
1024	1	absence	
1025	1	abusée	
1026	1	accable	
1027	1	accabler	
1028	1	accablé	
1029	1	acceptant	
1030	1	accepté	
1031	1	accorde	
1032	1	accordé	
1033	1	accroît	
1034	1	accroître	
1035	1	accuser	
1036	1	accusez	
1037	1	achève	
1038	1	adieu	
1039	1	admire	
1040	1	admirer	
1041	1	adorée	
1042	1	adoucie	
1043	1	adoucir	
1044	1	adoucissaient	
1045	1	adoucissent	
1046	1	adresse	
1047	1	adresses	
1048	1	adroitement	
1049	1	adversaire	
1050	1	affaiblir	
1051	1	affermir	
1052	1	affliger	
1053	1	affligé	
1054	1	agit	
1055	1	agitée	
1056	1	aidez	
1057	1	aigrit	
1058	1	aimai	
1059	1	aimais	
1060	1	aimant	
1061	1	aimerai	
1062	1	aimerais	
1063	1	aimeriez	
1064	1	aimée	
1065	1	air	
1066	1	ais	
1067	1	alarme	
1068	1	alarmer	
1069	1	alarmes	
1070	1	alarmez	
1071	1	alarmée	
1072	1	alexandre	
1073	1	allant	
1074	1	alliance	
1075	1	altère	
1076	1	ambitieuse	
1077	1	amener	
1078	1	amenez	
1079	1	amenée	
1080	1	amusement	
1081	1	amène	
1082	1	animer	
1083	1	animée	
1084	1	ans	
1085	1	antioche	
1086	1	apparence	
1087	1	appelle	
1088	1	apprenant	
1089	1	apprend	
1090	1	apprirent	
1091	1	approuve	
1092	1	approuver	
1093	1	appréhenderais	
1094	1	appréhendez	
1095	1	appréhendé	
1096	1	appui	
1097	1	ardent	
1098	1	ardente	
1099	1	ardents	
1100	1	ardeurs	
1101	1	armes	
1102	1	armé	
1103	1	armée	
1104	1	arrachée	
1105	1	arrachés	
1106	1	arrive	
1107	1	arriver	
1108	1	arrivée	
1109	1	arrêtes	
1110	1	arrêté	
1111	1	arrêtée	
1112	1	articles	
1113	1	artifice	
1114	1	asile	
1115	1	aspire	
1116	1	assortis	
1117	1	assurance	
1118	1	assuré	
1119	1	assurée	
1120	1	attache	
1121	1	atteindre	
1122	1	atteint	
1123	1	attendait	
1124	1	attendrez	
1125	1	attendrisse	
1126	1	attends	
1127	1	attente	
1128	1	aucune	
1129	1	audience	
1130	1	auprès	
1131	1	aurai	
1132	1	aussitôt	
1133	1	auteurs	
1134	1	avaient	
1135	1	avance	
1136	1	avancez	
1137	1	avouant	
1138	1	avoue	
1139	1	avouez	
1140	1	aïeul	
1141	1	baissez	
1142	1	baissés	
1143	1	balancer	
1144	1	barbare	
1145	1	basse	
1146	1	bassesse	
1147	1	besoins	
1148	1	bienfaits	
1149	1	biens	
1150	1	bienséance	
1151	1	bizarres	
1152	1	blâmer	
1153	1	borne	
1154	1	bornes	
1155	1	bornez	
1156	1	bornons	
1157	1	braver	
1158	1	brillants	
1159	1	briser	
1160	1	bruit	
1161	1	brûlants	
1162	1	brûler	
1163	1	brûlez	
1164	1	cabinet	
1165	1	cacherai	
1166	1	cachons	
1167	1	capable	
1168	1	caprice	
1169	1	causer	
1170	1	cela	
1171	1	cephise	
1172	1	certaine	
1173	1	cessa	
1174	1	cessons	
1175	1	cessé	
1176	1	chacun	
1177	1	chacune	
1178	1	chagrine	
1179	1	chagrins	
1180	1	chambre	
1181	1	chancelante	
1182	1	changez	
1183	1	changé	
1184	1	changée	
1185	1	charmant	
1186	1	charmer	
1187	1	charmez	
1188	1	charmé	
1189	1	chasse	
1190	1	chaînes	
1191	1	cherchais	
1192	1	chercher	
1193	1	cherchez	
1194	1	choisissant	
1195	1	choquant	
1196	1	chérit	
1197	1	clairement	
1198	1	clartés	
1199	1	combattre	
1200	1	comblé	
1201	1	commandez	
1202	1	commencé	
1203	1	comment	
1204	1	commettre	
1205	1	communique	
1206	1	communiquer	
1207	1	complice	
1208	1	comptez	
1209	1	conclue	
1210	1	conclure	
1211	1	conclus	
1212	1	condamner	
1213	1	conduire	
1214	1	conduit	
1215	1	confessez	
1216	1	confirme	
1217	1	confirment	
1218	1	confirmés	
1219	1	confondit	
1220	1	confondrai	
1221	1	confondre	
1222	1	confonds	
1223	1	confondu	
1224	1	connaissant	
1225	1	connaisse	
1226	1	connu	
1227	1	connut	
1228	1	conquérant	
1229	1	consente	
1230	1	consentez	
1231	1	consentirai	
1232	1	conservaient	
1233	1	conserve	
1234	1	conservé	
1235	1	considère	
1236	1	considérez	
1237	1	consolez	
1238	1	consulter	
1239	1	consultez	
1240	1	contente	
1241	1	contraigne	
1242	1	contraignez	
1243	1	convaincre	
1244	1	convaincu	
1245	1	convaincue	
1246	1	conçois	
1247	1	corps	
1248	1	couler	
1249	1	coups	
1250	1	courage	
1251	1	courant	
1252	1	couronner	
1253	1	couronné	
1254	1	courses	
1255	1	couru	
1256	1	coûtent	
1257	1	coûté	
1258	1	craigniez	
1259	1	craindrai	
1260	1	craintes	
1261	1	criminel	
1262	1	cris	
1263	1	croira	
1264	1	croirais	
1265	1	croyable	
1266	1	croyait	
1267	1	croyant	
1268	1	croît	
1269	1	cruauté	
1270	1	cèle	
1271	1	cédant	
1272	1	cédiez	
1273	1	cédé	
1274	1	céleste	
1275	1	daigné	
1276	1	daphné	
1277	1	dedans	
1278	1	degré	
1279	1	dehors	
1280	1	demandent	
1281	1	demeure	
1282	1	demeurez	
1283	1	demeurés	
1284	1	demi	
1285	1	dernière	
1286	1	dessous	
1287	1	devaient	
1288	1	devenue	
1289	1	devient	
1290	1	devrais	
1291	1	die	
1292	1	différez	
1293	1	dignité	
1294	1	dirai	
1295	1	dirait	
1296	1	dis	
1297	1	disais	
1298	1	disant	
1299	1	discours	
1300	1	disent	
1301	1	disgrâce	
1302	1	dispenser	
1303	1	dispensez	
1304	1	disposée	
1305	1	disputer	
1306	1	dompter	
1307	1	donnai	
1308	1	donnerait	
1309	1	donniez	
1310	1	donné	
1311	1	double	
1312	1	douceurs	
1313	1	doutais	
1314	1	doutez	
1315	1	dure	
1316	1	déchirer	
1317	1	découvrant	
1318	1	dédaigne	
1319	1	dédaigner	
1320	1	dédire	
1321	1	défie	
1322	1	dégage	
1323	1	dégagez	
1324	1	dégoût	
1325	1	déguise	
1326	1	déguisez	
1327	1	déguisés	
1328	1	délivrer	
1329	1	dépends	
1330	1	dépitée	
1331	1	dépouiller	
1332	1	dérober	
1333	1	dérobez	
1334	1	désavouerait	
1335	1	désespère	
1336	1	désirés	
1337	1	désobéir	
1338	1	détermine	
1339	1	déteste	
1340	1	détourne	
1341	1	détruise	
1342	1	détruit	
1343	1	dévore	
1344	1	efface	
1345	1	empare	
1346	1	emploie	
1347	1	employez	
1348	1	empressé	
1349	1	emprunter	
1350	1	emprunté	
1351	1	empêchant	
1352	1	empêché	
1353	1	enchérir	
1354	1	endroit	
1355	1	endroits	
1356	1	endurer	
1357	1	endurez	
1358	1	enduré	
1359	1	enfants	
1360	1	enflammer	
1361	1	enflammé	
1362	1	enfuit	
1363	1	engagea	
1364	1	engager	
1365	1	engagé	
1366	1	ennemi	
1367	1	ennuyez	
1368	1	ensemble	
1369	1	entendez	
1370	1	entendrez	
1371	1	entends	
1372	1	entière	
1373	1	entièrement	
1374	1	entraîner	
1375	1	entraînée	
1376	1	entreprenant	
1377	1	entreprend	
1378	1	entreprendrai	
1379	1	entreprenez	
1380	1	entrepris	
1381	1	entrer	
1382	1	entretenir	
1383	1	entrouverts	
1384	1	entré	
1385	1	environne	
1386	1	envolée	
1387	1	envoyé	
1388	1	esclave	
1389	1	escorte	
1390	1	escorté	
1391	1	espérant	
1392	1	essayer	
1393	1	essayez	
1394	1	essayé	
1395	1	estimerait	
1396	1	eumenes	
1397	1	eussiez	
1398	1	eux	
1399	1	exceptez	
1400	1	exciter	
1401	1	excuse	
1402	1	excusez	
1403	1	exempter	
1404	1	exhaler	
1405	1	exiger	
1406	1	expire	
1407	1	expirer	
1408	1	explique	
1409	1	expliquent	
1410	1	expose	
1411	1	exposer	
1412	1	expérience	
1413	1	extrémités	
1414	1	exécuter	
1415	1	exécuté	
1416	1	eûtes	
1417	1	facilement	
1418	1	faiblement	
1419	1	fard	
1420	1	fasse	
1421	1	fassiez	
1422	1	favorable	
1423	1	favorisant	
1424	1	favorise	
1425	1	feindre	
1426	1	feintes	
1427	1	ferez	
1428	1	feront	
1429	1	figurer	
1430	1	finir	
1431	1	finira	
1432	1	finirez	
1433	1	flattais	
1434	1	flattes	
1435	1	flatteur	
1436	1	flatteuse	
1437	1	flatté	
1438	1	fleuve	
1439	1	fléchir	
1440	1	fond	
1441	1	fonds	
1442	1	font	
1443	1	forcenée	
1444	1	forcerai	
1445	1	forces	
1446	1	fortement	
1447	1	fortune	
1448	1	frayeur	
1449	1	fraîchement	
1450	1	fraîcheur	
1451	1	frontière	
1452	1	fruit	
1453	1	frères	
1454	1	fui	
1455	1	fuirai	
1456	1	fuiriez	
1457	1	furent	
1458	1	gardé	
1459	1	goûtez	
1460	1	grandes	
1461	1	grandeurs	
1462	1	guérison	
1463	1	généreuse	
1464	1	généreuses	
1465	1	générosité	
1466	1	gêne	
1467	1	gêné	
1468	1	gênée	
1469	1	haines	
1470	1	hasardez	
1471	1	haut	
1472	1	hautement	
1473	1	haïe	
1474	1	haïrez	
1475	1	haïssiez	
1476	1	heureuses	
1477	1	homme	
1478	1	humeurs	
1479	1	hâtez	
1480	1	hâtons	
1481	1	hésiter	
1482	1	ignore	
1483	1	illustre	
1484	1	image	
1485	1	imagine	
1486	1	implorer	
1487	1	important	
1488	1	importants	
1489	1	importe	
1490	1	imprime	
1491	1	imputerait	
1492	1	imputez	
1493	1	impétueuse	
1494	1	impétueux	
1495	1	incessamment	
1496	1	inclination	
1497	1	incline	
1498	1	incomparable	
1499	1	inconnu	
1500	1	indifférence	
1501	1	indifférent	
1502	1	indifférente	
1503	1	indignes	
1504	1	indignité	
1505	1	indigné	
1506	1	indépendante	
1507	1	infinis	
1508	1	informer	
1509	1	ingrates	
1510	1	ingrats	
1511	1	ingénieuse	
1512	1	innocemment	
1513	1	innocence	
1514	1	innocente	
1515	1	inopiné	
1516	1	inquiété	
1517	1	insensée	
1518	1	insolence	
1519	1	insolent	
1520	1	inspirez	
1521	1	instincts	
1522	1	instruise	
1523	1	instruisent	
1524	1	instruit	
1525	1	insupportable	
1526	1	interdits	
1527	1	introduire	
1528	1	intéresse	
1529	1	intéressé	
1530	1	inventés	
1531	1	inviolable	
1532	1	ira	
1533	1	irrite	
1534	1	irriter	
1535	1	irritez	
1536	1	irrité	
1537	1	irritée	
1538	1	issue	
1539	1	jadis	
1540	1	jaloux	
1541	1	jeter	
1542	1	jeunesse	
1543	1	joignent	
1544	1	jouirai	
1545	1	jours	
1546	1	justes	
1547	1	justifie	
1548	1	justifier	
1549	1	justifions	
1550	1	laisses	
1551	1	langueurs	
1552	1	levez	
1553	1	liberté	
1554	1	libre	
1555	1	livre	
1556	1	livrée	
1557	1	louer	
1558	1	lumière	
1559	1	lèvres	
1560	1	légère	
1561	1	maison	
1562	1	maisons	
1563	1	manquant	
1564	1	manque	
1565	1	manquer	
1566	1	marcher	
1567	1	marques	
1568	1	marqué	
1569	1	martyre	
1570	1	mauvais	
1571	1	maîtres	
1572	1	menace	
1573	1	menacer	
1574	1	met	
1575	1	mettez	
1576	1	mettra	
1577	1	mettrai	
1578	1	mienne	
1579	1	misère	
1580	1	moindres	
1581	1	moments	
1582	1	monde	
1583	1	monter	
1584	1	montez	
1585	1	montre	
1586	1	montée	
1587	1	mourante	
1588	1	mourons	
1589	1	mourra	
1590	1	mourrais	
1591	1	moyens	
1592	1	murs	
1593	1	mutine	
1594	1	mutiné	
1595	1	mutuel	
1596	1	mutuelles	
1597	1	médire	
1598	1	méprise	
1599	1	mépriser	
1600	1	méprisé	
1601	1	méritez	
1602	1	mérité	
1603	1	mêlez	
1604	1	naissant	
1605	1	naquit	
1606	1	naturel	
1607	1	naturellement	
1608	1	noces	
1609	1	noir	
1610	1	nommes	
1611	1	nommez	
1612	1	nommée	
1613	1	nourrir	
1614	1	nourrisse	
1615	1	nouvelles	
1616	1	nuise	
1617	1	nuit	
1618	1	obligerez	
1619	1	obligez	
1620	1	observe	
1621	1	obstiner	
1622	1	obstinez	
1623	1	obstinément	
1624	1	obtenant	
1625	1	obtenez	
1626	1	obtenu	
1627	1	obtiendrais	
1628	1	obtient	
1629	1	obéirais	
1630	1	obéis	
1631	1	obéissance	
1632	1	obéisse	
1633	1	occupe	
1634	1	occuper	
1635	1	offert	
1636	1	offerte	
1637	1	office	
1638	1	offrez	
1639	1	offrir	
1640	1	offrirais	
1641	1	offrirait	
1642	1	offrit	
1643	1	oisifs	
1644	1	ombre	
1645	1	ordonner	
1646	1	ordonneriez	
1647	1	ordres	
1648	1	orgueilleuse	
1649	1	orgueilleux	
1650	1	oronte	
1651	1	osant	
1652	1	oserais	
1653	1	osé	
1654	1	oublie	
1655	1	outrager	
1656	1	outragez	
1657	1	outragée	
1658	1	ouvrage	
1659	1	paraissez	
1660	1	pardon	
1661	1	pardonnez	
1662	1	pareil	
1663	1	pareils	
1664	1	parlais	
1665	1	parlait	
1666	1	parlez	
1667	1	paroles	
1668	1	partie	
1669	1	partir	
1670	1	paru	
1671	1	passage	
1672	1	passés	
1673	1	payer	
1674	1	peindre	
1675	1	peines	
1676	1	pencher	
1677	1	pensée	
1678	1	percer	
1679	1	perd	
1680	1	perdait	
1681	1	permettrai	
1682	1	persuader	
1683	1	perte	
1684	1	peux	
1685	1	philippe	
1686	1	pire	
1687	1	plaignez	
1688	1	plaindrai	
1689	1	plairait	
1690	1	plais	
1691	1	plaisirs	
1692	1	plausible	
1693	1	pleine	
1694	1	plongé	
1695	1	poison	
1696	1	policrate	
1697	1	pont	
1698	1	porter	
1699	1	portes	
1700	1	possédez	
1701	1	pouls	
1702	1	pourrai	
1703	1	pourrons	
1704	1	pourvoir	
1705	1	pousses	
1706	1	poussé	
1707	1	prendrais	
1708	1	prescrit	
1709	1	presque	
1710	1	pressant	
1711	1	presses	
1712	1	prise	
1713	1	privant	
1714	1	proche	
1715	1	procède	
1716	1	produit	
1717	1	propice	
1718	1	propos	
1719	1	prouve	
1720	1	provenir	
1721	1	provient	
1722	1	précieuse	
1723	1	précipité	
1724	1	préférable	
1725	1	préparez	
1726	1	présent	
1727	1	présentait	
1728	1	présenter	
1729	1	présume	
1730	1	prétend	
1731	1	prétends	
1732	1	prétextes	
1733	1	prévenant	
1734	1	prête	
1735	1	prêter	
1736	1	public	
1737	1	puni	
1738	1	punirai	
1739	1	pure	
1740	1	pâleur	
1741	1	pâlir	
1742	1	pénétrants	
1743	1	qualités	
1744	1	quittez	
1745	1	quittée	
1746	1	racheter	
1747	1	rage	
1748	1	ramer	
1749	1	ramène	
1750	1	ranimez	
1751	1	rappelé	
1752	1	rappelée	
1753	1	rarement	
1754	1	ravir	
1755	1	rayon	
1756	1	recevrait	
1757	1	recevrez	
1758	1	reconnaissance	
1759	1	reconnaissant	
1760	1	reconnaît	
1761	1	reconnaître	
1762	1	reconnue	
1763	1	recueillir	
1764	1	reculer	
1765	1	redevable	
1766	1	redouble	
1767	1	redoublement	
1768	1	redoublée	
1769	1	redoublés	
1770	1	redoutable	
1771	1	refuse	
1772	1	refusé	
1773	1	refusée	
1774	1	regagner	
1775	1	relâche	
1776	1	remarquait	
1777	1	remarqué	
1778	1	remettons	
1779	1	remis	
1780	1	remise	
1781	1	remords	
1782	1	rempli	
1783	1	remplir	
1784	1	rencontrer	
1785	1	rencontré	
1786	1	rendiez	
1787	1	renfermée	
1788	1	rentre	
1789	1	rentrons	
1790	1	rentré	
1791	1	reposez	
1792	1	respecte	
1793	1	respecté	
1794	1	ressentiment	
1795	1	ressentir	
1796	1	ressort	
1797	1	ressouvenir	
1798	1	restait	
1799	1	rester	
1800	1	restes	
1801	1	retarde	
1802	1	retenez	
1803	1	retenir	
1804	1	retenu	
1805	1	retiennent	
1806	1	retiens	
1807	1	retirez	
1808	1	retirons	
1809	1	retiré	
1810	1	retourner	
1811	1	retrace	
1812	1	retraite	
1813	1	revenez	
1814	1	revenus	
1815	1	revers	
1816	1	revienne	
1817	1	reçu	
1818	1	reçus	
1819	1	rides	
1820	1	rigoureuse	
1821	1	rigoureux	
1822	1	rival	
1823	1	rompez	
1824	1	rompra	
1825	1	romps	
1826	1	rougeur	
1827	1	rougis	
1828	1	rougissant	
1829	1	rougissez	
1830	1	rougit	
1831	1	royal	
1832	1	récit	
1833	1	réduire	
1834	1	réduits	
1835	1	régna	
1836	1	régnez	
1837	1	répandent	
1838	1	répandez	
1839	1	répondu	
1840	1	répugnance	
1841	1	réservé	
1842	1	résister	
1843	1	résolue	
1844	1	résoudre	
1845	1	réussi	
1846	1	réussir	
1847	1	révère	
1848	1	rêver	
1849	1	rêveuse	
1850	1	sache	
1851	1	sachiez	
1852	1	sachons	
1853	1	sainement	
1854	1	saint	
1855	1	salut	
1856	1	santé	
1857	1	satisfaite	
1858	1	saurai	
1859	1	sauraient	
1860	1	saurais	
1861	1	sauriez	
1862	1	sceau	
1863	1	scrupule	
1864	1	secourir	
1865	1	semblent	
1866	1	semblez	
1867	1	semblé	
1868	1	sent	
1869	1	sentant	
1870	1	sentez	
1871	1	serons	
1872	1	servi	
1873	1	service	
1874	1	servirait	
1875	1	sexe	
1876	1	sied	
1877	1	sien	
1878	1	signe	
1879	1	sincérité	
1880	1	soeur	
1881	1	soi	
1882	1	soient	
1883	1	solides	
1884	1	sondais	
1885	1	sorte	
1886	1	sortis	
1887	1	sortons	
1888	1	soudaine	
1889	1	soudaines	
1890	1	souffrais	
1891	1	souffrira	
1892	1	souffrirez	
1893	1	souffrit	
1894	1	souhaiterais	
1895	1	souhaits	
1896	1	souhaité	
1897	1	souiller	
1898	1	soumis	
1899	1	soupir	
1900	1	soupire	
1901	1	soupirez	
1902	1	souscrire	
1903	1	soutiendra	
1904	1	soutint	
1905	1	souverain	
1906	1	souveraine	
1907	1	souvienne	
1908	1	successeurs	
1909	1	suite	
1910	1	suivant	
1911	1	suivi	
1912	1	suivie	
1913	1	sujette	
1914	1	superflus	
1915	1	suprême	
1916	1	surmonté	
1917	1	surprendrait	
1918	1	surprendre	
1919	1	surprise	
1920	1	suspect	
1921	1	séduit	
1922	1	séduite	
1923	1	séparés	
1924	1	sûtes	
1925	1	ta	
1926	1	taches	
1927	1	tairais	
1928	1	tait	
1929	1	tandis	
1930	1	tarir	
1931	1	telle	
1932	1	tels	
1933	1	temple	
1934	1	tendresses	
1935	1	tends	
1936	1	tenir	
1937	1	tente	
1938	1	tenu	
1939	1	ternie	
1940	1	tes	
1941	1	tiendra	
1942	1	tint	
1943	1	titre	
1944	1	tombait	
1945	1	tombez	
1946	1	torrent	
1947	1	touchez	
1948	1	touchée	
1949	1	tour	
1950	1	toutes	
1951	1	trace	
1952	1	traces	
1953	1	tragique	
1954	1	trahi	
1955	1	trahie	
1956	1	trahirai	
1957	1	trahissant	
1958	1	trait	
1959	1	traitement	
1960	1	tranquille	
1961	1	transports	
1962	1	triompher	
1963	1	triste	
1964	1	trois	
1965	1	trompe	
1966	1	trompeur	
1967	1	troublée	
1968	1	trouverais	
1969	1	tâcher	
1970	1	tâchera	
1971	1	tâchez	
1972	1	témoignez	
1973	1	témoigné	
1974	1	témoin	
1975	1	témoins	
1976	1	tôt	
1977	1	unir	
1978	1	unis	
1979	1	univers	
1980	1	usage	
1981	1	use	
1982	1	usurper	
1983	1	utile	
1984	1	vanité	
1985	1	vanter	
1986	1	vas	
1987	1	venant	
1988	1	vengent	
1989	1	venger	
1990	1	veniez	
1991	1	venir	
1992	1	venu	
1993	1	venue	
1994	1	verrais	
1995	1	versa	
1996	1	versez	
1997	1	vertus	
1998	1	veulent	
1999	1	viendrez	
2000	1	viennent	
2001	1	vieux	
2002	1	vigueur	
2003	1	violence	
2004	1	violente	
2005	1	violer	
2006	1	violez	
2007	1	virent	
2008	1	voile	
2009	1	voilà	
2010	1	voisin	
2011	1	voudra	
2012	1	voudras	
2013	1	voulait	
2014	1	voyage	
2015	1	véritablement	
2016	1	zèle	
2017	1	âmes	
2018	1	éblouir	
2019	1	éclairci	
2020	1	éclate	
2021	1	écoulement	
2022	1	écriant	
2023	1	égal	
2024	1	égaler	
2025	1	élevée	
2026	1	éloignez	
2027	1	élève	
2028	1	ému	
2029	1	émus	
2030	1	épargne	
2031	1	épousant	
2032	1	épousera	
2033	1	étaler	
2034	1	éteindre	
2035	1	éteint	
2036	1	éteints	
2037	1	étendu	
2038	1	étonne	
2039	1	étonner	
2040	1	étonnée	
2041	1	étouffer	
2042	1	éveille	
2043	1	évite	
2044	1	éviterais	
2045	1	ôta	
2046	1	ôter	
2047	1	ôtez	
2048	1	ôtiez	
